%!PS-Adobe-2.0 EPSF-2.0
%%BoundingBox:  0 0 567 178
%%Title: ./plots/s2/pAll_s0s1_s2.eps: rf101_basics
%%Creator: ROOT Version 6.13/01
%%CreationDate: Thu Dec 28 11:46:43 2017
%%DocumentNeededResources: ProcSet (FontSetInit)
%%EndComments
%%BeginProlog
80 dict begin
/s {stroke} def /l {lineto} def /m {moveto} def /t {translate} def
/r {rotate} def /rl {roll}  def /R {repeat} def
/d {rlineto} def /rm {rmoveto} def /gr {grestore} def /f {eofill} def
/c {setrgbcolor} def /black {0 setgray} def /sd {setdash} def
/cl {closepath} def /sf {scalefont setfont} def /lw {setlinewidth} def
/box {m dup 0 exch d exch 0 d 0 exch neg d cl} def
/NC{systemdict begin initclip end}def/C{NC box clip newpath}def
/bl {box s} def /bf {gsave box gsave f grestore 1 lw [] 0 sd s grestore} def /Y { 0 exch d} def /X { 0 d} def 
/K {{pop pop 0 moveto} exch kshow} bind def
/ita {/ang 15 def gsave [1 0 ang dup sin exch cos div 1 0 0] concat} def 
/mp {newpath /y exch def /x exch def} def
/side {[w .77 mul w .23 mul] .385 w mul sd w 0 l currentpoint t -144 r} def
/mr {mp x y w2 0 360 arc} def /m24 {mr s} def /m20 {mr f} def
/mb {mp x y w2 add m w2 neg 0 d 0 w neg d w 0 d 0 w d cl} def
/mt {mp x y w2 add m w2 neg w neg d w 0 d cl} def
/w4 {w 4 div} def
/w6 {w 6 div} def
/w8 {w 8 div} def
/m21 {mb f} def /m25 {mb s} def /m22 {mt f} def /m26{mt s} def
/m23 {mp x y w2 sub m w2 w d w neg 0 d cl f} def
/m27 {mp x y w2 add m w3 neg w2 neg d w3 w2 neg d w3 w2 d cl s} def
/m28 {mp x w2 sub y w2 sub w3 add m w3 0 d  0 w3 neg d w3 0 d 0 w3 d w3 0 d  0 w3 d w3 neg 0 d 0 w3 d w3 neg 0 d 0 w3 neg d w3 neg 0 d cl s } def
/m29 {mp gsave x w2 sub y w2 add w3 sub m currentpoint t 4 {side} repeat cl fill gr} def
/m30 {mp gsave x w2 sub y w2 add w3 sub m currentpoint t 4 {side} repeat cl s gr} def
/m31 {mp x y w2 sub m 0 w d x w2 sub y m w 0 d x w2 sub y w2 add m w w neg d x w2 sub y w2 sub m w w d s} def
/m32 {mp x y w2 sub m w2 w d w neg 0 d cl s} def
/m33 {mp x y w2 add m w3 neg w2 neg d w3 w2 neg d w3 w2 d cl f} def
/m34 {mp x w2 sub y w2 sub w3 add m w3 0 d  0 w3 neg d w3 0 d 0 w3 d w3 0 d  0 w3 d w3 neg 0 d 0 w3 d w3 neg 0 d 0 w3 neg d w3 neg 0 d cl f } def
/m35 {mp x y w2 add m w2 neg w2 neg d w2 w2 neg d w2 w2 d w2 neg w2 d x y w2 sub m 0 w d x w2 sub y m w 0 d s} def
/m36 {mb x w2 sub y w2 add m w w neg d x w2 sub y w2 sub m w w d s} def
/m37 {mp x y m w4 neg w2 d w4 neg w2 neg d w2 0 d  w4 neg w2 neg d w2 0 d w4 neg w2 d w2 0 d w4 neg w2 d w4 neg w2 neg d cl s} def
/m38 {mp x w4 sub y w2 add m w4 neg w4 neg d 0 w2 neg d w4 w4 neg d w2 0 d w4 w4 d 0 w2 d w4 neg w4 d w2 neg 0 d x y w2 sub m 0 w d x w2 sub y m w 0 d cl s} def
/m39 {mp x y m w4 neg w2 d w4 neg w2 neg d w2 0 d  w4 neg w2 neg d w2 0 d w4 neg w2 d w2 0 d w4 neg w2 d w4 neg w2 neg d cl f} def
/m40 {mp x y m w4 w2 d w4 w4 neg d w2 neg w4 neg d w2 w4 neg d w4 neg w4 neg d w4 neg w2 d w4 neg w2 neg d w4 neg w4 d w2 w4 d w2 neg w4 d w4 w4 d w4 w2 neg d cl s} def
/m41 {mp x y m w4 w2 d w4 w4 neg d w2 neg w4 neg d w2 w4 neg d w4 neg w4 neg d w4 neg w2 d w4 neg w2 neg d w4 neg w4 d w2 w4 d w2 neg w4 d w4 w4 d w4 w2 neg d cl f} def
/m42 {mp x y w2 add m w8 neg w2 -3 4 div mul d w2 -3 4 div mul w8 neg d w2 3 4 div mul w8 neg d w8 w2 -3 4 div mul d w8 w2 3 4 div mul d w2 3 4 div mul w8 d w2 -3 4 div mul w8 d w8 neg w2 3 4 div mul d cl s} def
/m43 {mp x y w2 add m w8 neg w2 -3 4 div mul d w2 -3 4 div mul w8 neg d w2 3 4 div mul w8 neg d w8 w2 -3 4 div mul d w8 w2 3 4 div mul d w2 3 4 div mul w8 d w2 -3 4 div mul w8 d w8 neg w2 3 4 div mul d cl f} def
/m44 {mp x y m w6 neg w2 d w2 2 3 div mul 0 d w6 neg w2 neg d w2 w6 d 0 w2 -2 3 div mul d w2 neg w6 d w6 w2 neg d w2 -2 3 div mul 0 d w6 w2 d w2 neg w6 neg d 0 w2 2 3 div mul d w2 w6 neg d cl s} def
/m45 {mp x y m w6 neg w2 d w2 2 3 div mul 0 d w6 neg w2 neg d w2 w6 d 0 w2 -2 3 div mul d w2 neg w6 d w6 w2 neg d w2 -2 3 div mul 0 d w6 w2 d w2 neg w6 neg d 0 w2 2 3 div mul d w2 w6 neg d cl f} def
/m46 {mp x y w4 add m w4 neg w4 d w4 neg w4 neg d  w4 w4 neg d w4 neg w4 neg d w4 w4 neg d w4 w4 d w4 w4 neg d w4 w4 d w4 neg w4 d w4 w4 d w4 neg w4 d w4 neg w4 neg d cl s} def
/m47 {mp x y w4 add m w4 neg w4 d w4 neg w4 neg d w4 w4 neg d w4 neg w4 neg d  w4 w4 neg d w4 w4 d w4 w4 neg d w4 w4 d w4 neg w4 d w4 w4 d w4 neg w4 d w4 neg w4 neg d cl f} def
/m48 {mp x y w4 add m w4 neg w4 d w4 neg w4 neg d w4 w4 neg d  w4 neg w4 neg d w4 w4 neg d w4 w4 d w4 w4 neg d w4 w4 d w4 neg w4 d w4 w4 d w4 neg w4 d w4 neg w4 neg d  w4 w4 neg d w4 neg w4 neg d w4 neg w4 d w4 w4 d cl f} def
/m49 {mp x w2 sub w3 add y w2 sub w3 add m  0 w3 neg d w3 0 d 0 w3 d w3 0 d 0 w3 d w3 neg 0 d 0 w3 d w3 neg 0 d 0 w3 neg d w3 neg 0 d 0 w3 neg d w3 0 d 0 w3 d w3 0 d 0 w3 neg d w3 neg 0 d cl f } def
/m2 {mp x y w2 sub m 0 w d x w2 sub y m w 0 d s} def
/m5 {mp x w2 sub y w2 sub m w w d x w2 sub y w2 add m w w neg d s} def
%%IncludeResource: ProcSet (FontSetInit)
%%IncludeResource: font Times-Roman
%%IncludeResource: font Times-Italic
%%IncludeResource: font Times-Bold
%%IncludeResource: font Times-BoldItalic
%%IncludeResource: font Helvetica
%%IncludeResource: font Helvetica-Oblique
%%IncludeResource: font Helvetica-Bold
%%IncludeResource: font Helvetica-BoldOblique
%%IncludeResource: font Courier
%%IncludeResource: font Courier-Oblique
%%IncludeResource: font Courier-Bold
%%IncludeResource: font Courier-BoldOblique
%%IncludeResource: font Symbol
%%IncludeResource: font ZapfDingbats
/reEncode {exch findfont dup length dict begin {1 index /FID eq  {pop pop} {def} ifelse } forall /Encoding exch def currentdict end dup /FontName get exch definefont pop } def [/Times-Bold /Times-Italic /Times-BoldItalic /Helvetica /Helvetica-Oblique
 /Helvetica-Bold /Helvetica-BoldOblique /Courier /Courier-Oblique /Courier-Bold /Courier-BoldOblique /Times-Roman /AvantGarde-Book /AvantGarde-BookOblique /AvantGarde-Demi /AvantGarde-DemiOblique /Bookman-Demi /Bookman-DemiItalic /Bookman-Light
 /Bookman-LightItalic /Helvetica-Narrow /Helvetica-Narrow-Bold /Helvetica-Narrow-BoldOblique /Helvetica-Narrow-Oblique /NewCenturySchlbk-Roman /NewCenturySchlbk-Bold /NewCenturySchlbk-BoldItalic /NewCenturySchlbk-Italic /Palatino-Bold
 /Palatino-BoldItalic /Palatino-Italic /Palatino-Roman ] {ISOLatin1Encoding reEncode } forall
%%EndProlog
%%BeginSetup
%%EndSetup
newpath  gsave  .25 .25 scale  gsave  0 0 t black[  ] 0 sd 3 lw 1 1 1 c 2268 713 0 0 bf black 1 1 1 c 710 699 23 7 bf black 1 1 1 c 533 559 129 77 bf black 533 559 129 77 bl 129 77 m 533 X s 129 93 m -16 Y s 143 85 m -8 Y s 156 85 m -8 Y s 169 85 m
 -8 Y s 183 85 m -8 Y s 196 93 m -16 Y s 209 85 m -8 Y s 223 85 m -8 Y s 236 85 m -8 Y s 249 85 m -8 Y s 262 93 m -16 Y s 276 85 m -8 Y s 289 85 m -8 Y s 302 85 m -8 Y s 316 85 m -8 Y s 329 93 m -16 Y s 342 85 m -8 Y s 356 85 m -8 Y s 369 85 m -8 Y s
 382 85 m -8 Y s 396 93 m -16 Y s 409 85 m -8 Y s 422 85 m -8 Y s 436 85 m -8 Y s 449 85 m -8 Y s 462 93 m -16 Y s 476 85 m -8 Y s 489 85 m -8 Y s 502 85 m -8 Y s 516 85 m -8 Y s 529 93 m -16 Y s 542 85 m -8 Y s 556 85 m -8 Y s 569 85 m -8 Y s 582 85
 m -8 Y s 596 93 m -16 Y s 609 85 m -8 Y s 622 85 m -8 Y s 636 85 m -8 Y s 649 85 m -8 Y s 662 93 m -16 Y s
 gsave  710 699 23 7 C 105.968 54.4979 t 0 r /Helvetica findfont 22.736 sf 0 0 m (5.25) show NC gr 
 gsave  710 699 23 7 C 166.521 54.4979 t 0 r /Helvetica findfont 22.736 sf 0 0 m (5.255) show NC gr 
 gsave  710 699 23 7 C 239.185 54.4979 t 0 r /Helvetica findfont 22.736 sf 0 0 m (5.26) show NC gr 
 gsave  710 699 23 7 C 299.738 54.4979 t 0 r /Helvetica findfont 22.736 sf 0 0 m (5.265) show NC gr 
 gsave  710 699 23 7 C 372.402 54.4979 t 0 r /Helvetica findfont 22.736 sf 0 0 m (5.27) show NC gr 
 gsave  710 699 23 7 C 432.955 54.4979 t 0 r /Helvetica findfont 22.736 sf 0 0 m (5.275) show NC gr 
 gsave  710 699 23 7 C 505.619 54.4979 t 0 r /Helvetica findfont 22.736 sf 0 0 m (5.28) show NC gr 
 gsave  710 699 23 7 C 566.172 54.4979 t 0 r /Helvetica findfont 22.736 sf 0 0 m (5.285) show NC gr 
 gsave  710 699 23 7 C 638.836 54.4979 t 0 r /Helvetica findfont 22.736 sf 0 0 m (5.29) show NC gr 
 gsave  710 699 23 7 C 499.564 31.7904 t 0 r /Helvetica findfont 22.736 sf 0 0 m (m_bc \(GeV/c^2\)) show NC gr  129 77 m 559 Y s 146 77 m -17 X s 138 88 m -9 X s 138 100 m -9 X s 138 111 m -9 X s 138 123 m -9 X s 146 134 m -17 X s 138 146 m -9 X s
 138 157 m -9 X s 138 169 m -9 X s 138 180 m -9 X s 146 192 m -17 X s 138 203 m -9 X s 138 215 m -9 X s 138 226 m -9 X s 138 238 m -9 X s 146 249 m -17 X s 138 261 m -9 X s 138 272 m -9 X s 138 284 m -9 X s 138 295 m -9 X s 146 307 m -17 X s 138 318
 m -9 X s 138 330 m -9 X s 138 341 m -9 X s 138 353 m -9 X s 146 364 m -17 X s 138 376 m -9 X s 138 387 m -9 X s 138 399 m -9 X s 138 410 m -9 X s 146 422 m -17 X s 138 433 m -9 X s 138 445 m -9 X s 138 456 m -9 X s 138 468 m -9 X s 146 479 m -17 X s
 138 491 m -9 X s 138 502 m -9 X s 138 514 m -9 X s 138 525 m -9 X s 146 537 m -17 X s 138 548 m -9 X s 138 560 m -9 X s 138 571 m -9 X s 138 583 m -9 X s 146 594 m -17 X s 146 594 m -17 X s 138 606 m -9 X s 138 617 m -9 X s 138 629 m -9 X s
 gsave  710 699 23 7 C 113.537 68.1223 t 0 r /Helvetica findfont 22.736 sf 0 0 m (0) show NC gr 
 gsave  710 699 23 7 C 87.8021 125.648 t 0 r /Helvetica findfont 22.736 sf 0 0 m (100) show NC gr 
 gsave  710 699 23 7 C 87.8021 183.173 t 0 r /Helvetica findfont 22.736 sf 0 0 m (200) show NC gr 
 gsave  710 699 23 7 C 87.8021 240.699 t 0 r /Helvetica findfont 22.736 sf 0 0 m (300) show NC gr 
 gsave  710 699 23 7 C 87.8021 298.224 t 0 r /Helvetica findfont 22.736 sf 0 0 m (400) show NC gr 
 gsave  710 699 23 7 C 87.8021 355.75 t 0 r /Helvetica findfont 22.736 sf 0 0 m (500) show NC gr 
 gsave  710 699 23 7 C 87.8021 413.275 t 0 r /Helvetica findfont 22.736 sf 0 0 m (600) show NC gr 
 gsave  710 699 23 7 C 87.8021 470.801 t 0 r /Helvetica findfont 22.736 sf 0 0 m (700) show NC gr 
 gsave  710 699 23 7 C 87.8021 528.326 t 0 r /Helvetica findfont 22.736 sf 0 0 m (800) show NC gr 
 gsave  710 699 23 7 C 87.8021 585.852 t 0 r /Helvetica findfont 22.736 sf 0 0 m (900) show NC gr 
 gsave  710 699 23 7 C 71.15 360.291 t 90 r /Helvetica findfont 22.736 sf 0 0 m (Events / \( 0.0004 GeV/c^2 \)) show NC gr  1 1 1 c black
 gsave  710 699 23 7 C 328.501 670.626 t 0 r /Helvetica findfont 34.8619 sf 0 0 m (Signal) show NC gr  132 77 m -3 X s 129 77 m 3 Y s 132 77 m 3 X s 135 77 m 3 Y s 132 77 m 1 Y s 129 78 m 6 X s 137 77 m -2 X s 135 77 m 3 Y s 137 77 m 3 X s 140 77 m 3
 Y s 137 77 m 1 Y s 134 78 m 6 X s 143 77 m -3 X s 140 77 m 3 Y s 143 77 m 2 X s 145 77 m 3 Y s 143 77 m 1 Y s 140 78 m 6 X s 148 77 m -3 X s 145 77 m 3 Y s 148 77 m 3 X s 151 77 m 3 Y s 148 77 m 1 Y s 145 78 m 6 X s 153 77 m -2 X s 151 77 m 3 Y s
 153 77 m 3 X s 156 77 m 3 Y s 153 77 m 1 Y s 150 78 m 6 X s 159 78 m -3 X s 156 77 m 4 Y s 159 78 m 2 X s 161 77 m 4 Y s 159 78 m 1 Y s 156 79 m 6 X s 159 78 m -1 Y s 156 77 m 6 X s 164 77 m -3 X s 161 77 m 3 Y s 164 77 m 3 X s 167 77 m 3 Y s 164 77
 m 1 Y s 161 78 m 6 X s 169 77 m -2 X s 167 77 m 3 Y s 169 77 m 3 X s 172 77 m 3 Y s 169 77 m 1 Y s 166 78 m 6 X s 175 77 m -3 X s 172 77 m 3 Y s 175 77 m 2 X s 177 77 m 3 Y s 175 77 m 1 Y s 172 78 m 6 X s 180 77 m -3 X s 177 77 m 3 Y s 180 77 m 3 X
 s 183 77 m 3 Y s 180 77 m 1 Y s 177 78 m 6 X s 185 77 m -2 X s 183 77 m 3 Y s 185 77 m 3 X s 188 77 m 3 Y s 185 77 m 1 Y s 182 78 m 6 X s 191 77 m -3 X s 188 77 m 3 Y s 191 77 m 2 X s 193 77 m 3 Y s 191 77 m 1 Y s 188 78 m 6 X s 196 77 m -3 X s 193
 77 m 3 Y s 196 77 m 3 X s 199 77 m 3 Y s 196 77 m 1 Y s 193 78 m 6 X s 201 77 m -2 X s 199 77 m 3 Y s 201 77 m 3 X s 204 77 m 3 Y s 201 77 m 1 Y s 198 78 m 6 X s 207 77 m -3 X s 204 77 m 3 Y s 207 77 m 2 X s 209 77 m 3 Y s 207 77 m 1 Y s 204 78 m 6
 X s 212 77 m -3 X s 209 77 m 3 Y s 212 77 m 3 X s 215 77 m 3 Y s 212 77 m 1 Y s 209 78 m 6 X s 217 77 m -2 X s 215 77 m 3 Y s 217 77 m 3 X s 220 77 m 3 Y s 217 77 m 1 Y s 214 78 m 6 X s 223 77 m -3 X s 220 77 m 3 Y s 223 77 m 2 X s 225 77 m 3 Y s
 223 77 m 1 Y s 219 78 m 7 X s 228 77 m -3 X s 225 77 m 3 Y s 228 77 m 3 X s 231 77 m 3 Y s 228 77 m 1 Y s 225 78 m 6 X s 233 77 m -2 X s 231 77 m 3 Y s 233 77 m 3 X s 236 77 m 3 Y s 233 77 m 1 Y s 230 78 m 6 X s 239 78 m -3 X s 236 77 m 4 Y s 239 78
 m 2 X s 241 77 m 4 Y s 239 78 m 1 Y s 235 79 m 7 X s 239 78 m -1 Y s 235 77 m 7 X s 244 77 m -3 X s 241 77 m 3 Y s 244 77 m 3 X s 247 77 m 3 Y s 244 77 m 1 Y s 241 78 m 6 X s 249 77 m -2 X s 247 77 m 3 Y s 249 77 m 3 X s 252 77 m 3 Y s 249 77 m 1 Y
 s 246 78 m 6 X s 254 77 m -2 X s 252 77 m 3 Y s 254 77 m 3 X s 257 77 m 3 Y s 254 77 m 1 Y s 251 78 m 7 X s 260 77 m -3 X s 257 77 m 3 Y s 260 77 m 2 X s 262 77 m 3 Y s 260 77 m 1 Y s 257 78 m 6 X s 265 77 m -3 X s 262 77 m 3 Y s 265 77 m 3 X s 268
 77 m 3 Y s 265 77 m 1 Y s 262 78 m 6 X s 270 77 m -2 X s 268 77 m 3 Y s 270 77 m 3 X s 273 77 m 3 Y s 270 77 m 1 Y s 267 78 m 7 X s 276 77 m -3 X s 273 77 m 3 Y s 276 77 m 2 X s 278 77 m 3 Y s 276 77 m 1 Y s 273 78 m 6 X s 281 77 m -3 X s 278 77 m 3
 Y s 281 77 m 3 X s 284 77 m 3 Y s 281 77 m 1 Y s 278 78 m 6 X s 286 77 m -2 X s 284 77 m 3 Y s 286 77 m 3 X s 289 77 m 3 Y s 286 77 m 1 Y s 283 78 m 6 X s 292 78 m -3 X s 289 77 m 4 Y s 292 78 m 2 X s 294 77 m 4 Y s 292 78 m 1 Y s 289 79 m 6 X s 292
 78 m -1 Y s 289 77 m 6 X s 297 77 m -3 X s 294 77 m 3 Y s 297 77 m 3 X s 300 77 m 3 Y s 297 77 m 1 Y s 294 78 m 6 X s 302 78 m -2 X s 300 77 m 4 Y s 302 78 m 3 X s 305 77 m 4 Y s 302 78 m 1 Y s 299 79 m 6 X s 302 78 m -1 Y s 299 77 m 6 X s 308 77 m
 -3 X s 305 77 m 3 Y s 308 77 m 2 X s 310 77 m 3 Y s 308 77 m 1 Y s 305 78 m 6 X s 313 77 m -3 X s 310 77 m 3 Y s 313 77 m 3 X s 316 77 m 3 Y s 313 77 m 1 Y s 310 78 m 6 X s 318 78 m -2 X s 316 77 m 4 Y s 318 78 m 3 X s 321 77 m 4 Y s 318 78 m 1 Y s
 315 79 m 6 X s 318 78 m -1 Y s 315 77 m 6 X s 324 77 m -3 X s 321 77 m 3 Y s 324 77 m 2 X s 326 77 m 3 Y s 324 77 m 1 Y s 321 78 m 6 X s 329 77 m -3 X s 326 77 m 3 Y s 329 77 m 3 X s 332 77 m 3 Y s 329 77 m 1 Y s 326 78 m 6 X s 334 78 m -2 X s 332
 77 m 4 Y s 334 78 m 3 X s 337 77 m 4 Y s 334 78 m 1 Y s 331 79 m 6 X s 334 78 m -1 Y s 331 77 m 6 X s 340 77 m -3 X s 337 77 m 3 Y s 340 77 m 2 X s 342 77 m 3 Y s 340 77 m 1 Y s 337 78 m 6 X s 345 77 m -3 X s 342 77 m 3 Y s 345 77 m 3 X s 348 77 m 3
 Y s 345 77 m 1 Y s 342 78 m 6 X s 350 77 m -2 X s 348 77 m 3 Y s 350 77 m 3 X s 353 77 m 3 Y s 350 77 m 1 Y s 347 78 m 6 X s 356 77 m -3 X s 353 77 m 3 Y s 356 77 m 2 X s 358 77 m 3 Y s 356 77 m 1 Y s 353 78 m 6 X s 361 77 m -3 X s 358 77 m 3 Y s
 361 77 m 3 X s 364 77 m 3 Y s 361 77 m 1 Y s 358 78 m 6 X s 366 77 m -2 X s 364 77 m 3 Y s 366 77 m 3 X s 369 77 m 3 Y s 366 77 m 1 Y s 363 78 m 6 X s 372 77 m -3 X s 369 77 m 3 Y s 372 77 m 2 X s 374 77 m 3 Y s 372 77 m 1 Y s 369 78 m 6 X s 377 77
 m -3 X s 374 77 m 3 Y s 377 77 m 3 X s 380 77 m 3 Y s 377 77 m 1 Y s 374 78 m 6 X s 382 78 m -2 X s 380 77 m 4 Y s 382 78 m 3 X s 385 77 m 4 Y s 382 78 m 1 Y s 379 79 m 6 X s 382 78 m -1 Y s 379 77 m 6 X s 388 78 m -3 X s 385 77 m 4 Y s 388 78 m 2 X
 s 390 77 m 4 Y s 388 78 m 1 Y s 385 79 m 6 X s 388 78 m -1 Y s 385 77 m 6 X s 393 78 m -3 X s 390 77 m 4 Y s 393 78 m 3 X s 396 77 m 4 Y s 393 78 m 2 Y s 390 80 m 6 X s 393 78 m -1 Y s 390 77 m 6 X s 398 78 m -2 X s 396 77 m 4 Y s 398 78 m 3 X s 401
 77 m 4 Y s 398 78 m 1 Y s 395 79 m 6 X s 398 78 m -1 Y s 395 77 m 6 X s 404 79 m -3 X s 401 77 m 5 Y s 404 79 m 2 X s 406 77 m 5 Y s 404 79 m 2 Y s 401 81 m 6 X s 404 79 m -1 Y s 401 78 m 6 X s 409 79 m -3 X s 406 77 m 5 Y s 409 79 m 3 X s 412 77 m
 5 Y s 409 79 m 2 Y s 406 81 m 6 X s 409 79 m -1 Y s 406 78 m 6 X s 414 80 m -2 X s 412 77 m 6 Y s 414 80 m 3 X s 417 77 m 6 Y s 414 80 m 2 Y s 411 82 m 6 X s 414 80 m -1 Y s 411 79 m 6 X s 420 80 m -3 X s 417 77 m 6 Y s 420 80 m 2 X s 422 77 m 6 Y s
 420 80 m 2 Y s 417 82 m 6 X s 420 80 m -1 Y s 417 79 m 6 X s 425 82 m -3 X s 422 79 m 6 Y s 425 82 m 3 X s 428 79 m 6 Y s 425 82 m 3 Y s 422 85 m 6 X s 425 82 m -2 Y s 422 80 m 6 X s 430 86 m -2 X s 428 83 m 6 Y s 430 86 m 3 X s 433 83 m 6 Y s 430
 86 m 2 Y s 427 88 m 6 X s 430 86 m -3 Y s 427 83 m 6 X s 436 88 m -3 X s 433 85 m 7 Y s 436 88 m 2 X s 438 85 m 7 Y s 436 88 m 4 Y s 433 92 m 6 X s 436 88 m -2 Y s 433 86 m 6 X s 441 99 m -3 X s 438 96 m 6 Y s 441 99 m 3 X s 444 96 m 6 Y s 441 99 m
 5 Y s 438 104 m 6 X s 441 99 m -3 Y s 438 96 m 6 X s 446 95 m -2 X s 444 92 m 6 Y s 446 95 m 3 X s 449 92 m 6 Y s 446 95 m 4 Y s 443 99 m 6 X s 446 95 m -3 Y s 443 92 m 6 X s 452 109 m -3 X s 449 106 m 6 Y s 452 109 m 2 X s 454 106 m 6 Y s 452 109 m
 5 Y s 449 114 m 6 X s 452 109 m -4 Y s 449 105 m 6 X s 457 124 m -3 X s 454 121 m 6 Y s 457 124 m 3 X s 460 121 m 6 Y s 457 124 m 6 Y s 454 130 m 6 X s 457 124 m -5 Y s 454 119 m 6 X s 462 130 m -2 X s 460 127 m 6 Y s 462 130 m 3 X s 465 127 m 6 Y s
 462 130 m 6 Y s 459 136 m 6 X s 462 130 m -6 Y s 459 124 m 6 X s 468 145 m -3 X s 465 142 m 6 Y s 468 145 m 2 X s 470 142 m 6 Y s 468 145 m 7 Y s 465 152 m 6 X s 468 145 m -6 Y s 465 139 m 6 X s 473 179 m -3 X s 470 176 m 6 Y s 473 179 m 3 X s 476
 176 m 6 Y s 473 179 m 8 Y s 470 187 m 6 X s 473 179 m -8 Y s 470 171 m 6 X s 478 202 m -2 X s 476 199 m 6 Y s 478 202 m 3 X s 481 199 m 6 Y s 478 202 m 8 Y s 475 210 m 6 X s 478 202 m -8 Y s 475 194 m 6 X s 484 234 m -3 X s 481 231 m 6 Y s 484 234 m
 2 X s 486 231 m 6 Y s 484 234 m 10 Y s 481 244 m 6 X s 484 234 m -9 Y s 481 225 m 6 X s 489 283 m -3 X s 486 280 m 6 Y s 489 283 m 3 X s 492 280 m 6 Y s 489 283 m 11 Y s 486 294 m 6 X s 489 283 m -11 Y s 486 272 m 6 X s 494 308 m -2 X s 492 305 m 6
 Y s 494 308 m 3 X s 497 305 m 6 Y s 494 308 m 12 Y s 491 320 m 6 X s 494 308 m -11 Y s 491 297 m 6 X s 500 364 m -3 X s 497 361 m 6 Y s 500 364 m 2 X s 502 361 m 6 Y s 500 364 m 13 Y s 497 377 m 6 X s 500 364 m -13 Y s 497 351 m 6 X s 505 422 m -3 X
 s 502 419 m 6 Y s 505 422 m 3 X s 508 419 m 6 Y s 505 422 m 15 Y s 502 437 m 6 X s 505 422 m -13 Y s 502 409 m 6 X s 510 474 m -2 X s 508 470 m 7 Y s 510 474 m 3 X s 513 470 m 7 Y s 510 474 m 15 Y s 507 489 m 6 X s 510 474 m -15 Y s 507 459 m 6 X s
 516 559 m -3 X s 513 556 m 6 Y s 516 559 m 2 X s 518 556 m 6 Y s 516 559 m 17 Y s 513 576 m 6 X s 516 559 m -16 Y s 513 543 m 6 X s 521 555 m -3 X s 518 552 m 6 Y s 521 555 m 3 X s 524 552 m 6 Y s 521 555 m 16 Y s 518 571 m 6 X s 521 555 m -17 Y s
 518 538 m 6 X s 526 558 m -2 X s 524 555 m 6 Y s 526 558 m 3 X s 529 555 m 6 Y s 526 558 m 17 Y s 523 575 m 6 X s 526 558 m -16 Y s 523 542 m 6 X s 532 592 m -3 X s 529 589 m 6 Y s 532 592 m 2 X s 534 589 m 6 Y s 532 592 m 17 Y s 529 609 m 6 X s 532
 592 m -17 Y s 529 575 m 6 X s 537 567 m -3 X s 534 564 m 6 Y s 537 567 m 3 X s 540 564 m 6 Y s 537 567 m 17 Y s 534 584 m 6 X s 537 567 m -17 Y s 534 550 m 6 X s 542 584 m -2 X s 540 581 m 6 Y s 542 584 m 3 X s 545 581 m 6 Y s 542 584 m 18 Y s 539
 602 m 6 X s 542 584 m -16 Y s 539 568 m 6 X s 548 555 m -3 X s 545 552 m 6 Y s 548 555 m 2 X s 550 552 m 6 Y s 548 555 m 16 Y s 545 571 m 6 X s 548 555 m -17 Y s 545 538 m 6 X s 553 533 m -3 X s 550 530 m 6 Y s 553 533 m 3 X s 556 530 m 6 Y s 553
 533 m 17 Y s 550 550 m 6 X s 553 533 m -16 Y s 550 517 m 6 X s 558 491 m -2 X s 556 488 m 6 Y s 558 491 m 3 X s 561 488 m 6 Y s 558 491 m 15 Y s 555 506 m 6 X s 558 491 m -15 Y s 555 476 m 6 X s 564 431 m -3 X s 561 428 m 6 Y s 564 431 m 2 X s 566
 428 m 6 Y s 564 431 m 15 Y s 561 446 m 6 X s 564 431 m -14 Y s 561 417 m 6 X s 569 388 m -3 X s 566 385 m 6 Y s 569 388 m 3 X s 572 385 m 6 Y s 569 388 m 14 Y s 566 402 m 6 X s 569 388 m -13 Y s 566 375 m 6 X s 574 353 m -2 X s 572 350 m 6 Y s 574
 353 m 3 X s 577 350 m 6 Y s 574 353 m 13 Y s 571 366 m 6 X s 574 353 m -12 Y s 571 341 m 6 X s 580 291 m -3 X s 577 288 m 6 Y s 580 291 m 2 X s 582 288 m 6 Y s 580 291 m 11 Y s 577 302 m 6 X s 580 291 m -11 Y s 577 280 m 6 X s 585 256 m -3 X s 582
 253 m 6 Y s 585 256 m 3 X s 588 253 m 6 Y s 585 256 m 11 Y s 582 267 m 6 X s 585 256 m -10 Y s 582 246 m 6 X s 590 231 m -2 X s 588 228 m 6 Y s 590 231 m 3 X s 593 228 m 6 Y s 590 231 m 10 Y s 587 241 m 6 X s 590 231 m -9 Y s 587 222 m 6 X s 596 186
 m -3 X s 593 183 m 6 Y s 596 186 m 2 X s 598 183 m 6 Y s 596 186 m 8 Y s 593 194 m 6 X s 596 186 m -8 Y s 593 178 m 6 X s 601 156 m -3 X s 598 153 m 6 Y s 601 156 m 3 X s 604 153 m 6 Y s 601 156 m 7 Y s 598 163 m 6 X s 601 156 m -7 Y s 598 149 m 6 X
 s 606 131 m -2 X s 604 128 m 6 Y s 606 131 m 3 X s 609 128 m 6 Y s 606 131 m 6 Y s 603 137 m 6 X s 606 131 m -6 Y s 603 125 m 6 X s 612 118 m -3 X s 609 115 m 6 Y s 612 118 m 2 X s 614 115 m 6 Y s 612 118 m 6 Y s 609 124 m 6 X s 612 118 m -4 Y s 609
 114 m 6 X s 617 114 m -3 X s 614 111 m 6 Y s 617 114 m 3 X s 620 111 m 6 Y s 617 114 m 5 Y s 614 119 m 6 X s 617 114 m -5 Y s 614 109 m 6 X s 622 101 m -2 X s 620 98 m 6 Y s 622 101 m 3 X s 625 98 m 6 Y s 622 101 m 4 Y s 619 105 m 6 X s 622 101 m -4
 Y s 619 97 m 6 X s 628 89 m -3 X s 625 86 m 6 Y s 628 89 m 2 X s 630 86 m 6 Y s 628 89 m 3 Y s 625 92 m 6 X s 628 89 m -3 Y s 625 86 m 6 X s 633 87 m -3 X s 630 84 m 6 Y s 633 87 m 3 X s 636 84 m 6 Y s 633 87 m 3 Y s 630 90 m 6 X s 633 87 m -3 Y s
 630 84 m 6 X s 638 84 m -2 X s 636 81 m 6 Y s 638 84 m 3 X s 641 81 m 6 Y s 638 84 m 3 Y s 635 87 m 6 X s 638 84 m -2 Y s 635 82 m 6 X s 644 82 m -3 X s 641 79 m 6 Y s 644 82 m 2 X s 646 79 m 6 Y s 644 82 m 2 Y s 640 84 m 7 X s 644 82 m -2 Y s 640
 80 m 7 X s 649 79 m -3 X s 646 77 m 5 Y s 649 79 m 3 X s 652 77 m 5 Y s 649 79 m 1 Y s 646 80 m 6 X s 649 79 m -1 Y s 646 78 m 6 X s 654 79 m -2 X s 652 77 m 5 Y s 654 79 m 3 X s 657 77 m 5 Y s 654 79 m 1 Y s 651 80 m 6 X s 654 79 m -1 Y s 651 78 m
 6 X s 660 77 m -3 X s 657 77 m 3 Y s 660 77 m 2 X s 662 77 m 3 Y s 660 77 m 1 Y s 656 78 m 6 X s 1 1 1 c black /w 12 def /w2 {w 2 div} def /w3 {w 3 div} def 132 77 137 77 143 77 148 77 153 77 159 78 164 77 169 77 175 77 180 77 185 77 191 77 196 77
 201 77 207 77 212 77 217 77 223 77 228 77 233 77 239 78 244 77 249 77 254 77 260 77 265 77 270 77 276 77 281 77 286 77 292 78 297 77 302 78 308 77 313 77 318 78 324 77 329 77 334 78 340 77 345 77 350 77 356 77 361 77 366 77 372 77 377 77 382 78 388
 78 393 78 398 78 404 79 409 79 414 80 420 80 425 82 430 86 436 88 441 99 446 95 452 109 457 124 462 130 468 145 473 179 478 202 484 234 489 283 494 308 500 364 505 422 510 474 516 559 521 555 526 558 532 592 537 567 542 584 548 555 553 533 558 491
 564 431 569 388 574 353 580 291 585 256 590 231 596 186 601 156 606 131 612 118 617 114 622 101 628 89 633 87 638 84 644 82 649 79 654 79 660 77 100 { m20} R 0 0 1 c 9 lw 1 1 1 c black 0 0 1 c 129 77 m cl s 129 77 m 267 X 5 1 d 11 X 5 1 d 5 1 d 6 1
 d 5 3 d 5 4 d 6 5 d 5 8 d 5 10 d 6 14 d 2 9 d 3 10 d 3 11 d 2 12 d 3 13 d 3 15 d 2 16 d 3 18 d 3 18 d 2 20 d 6 43 d 5 46 d 5 47 d 6 46 d 2 22 d 3 21 d 3 19 d 2 18 d 3 16 d 3 13 d 2 11 d 3 8 d 3 5 d 2 2 d 3 X 3 -4 d 2 -7 d 3 -9 d 3 -12 d 2 -14 d 3
 -17 d 3 -19 d 2 -20 d 3 -21 d 5 -46 d 6 -47 d 5 -46 d 5 -44 d 3 -20 d 3 -20 d 2 -18 d 3 -17 d 3 -15 d 2 -14 d 3 -13 d 3 -12 d 2 -10 d 3 -9 d 5 -15 d 6 -12 d 5 -8 d 5 -6 d 6 -4 d 5 -3 d 5 -2 d 6 -1 d 5 -1 d 5 X s black 3 lw 129 77 m 533 X s 129 93 m
 -16 Y s 143 85 m -8 Y s 156 85 m -8 Y s 169 85 m -8 Y s 183 85 m -8 Y s 196 93 m -16 Y s 209 85 m -8 Y s 223 85 m -8 Y s 236 85 m -8 Y s 249 85 m -8 Y s 262 93 m -16 Y s 276 85 m -8 Y s 289 85 m -8 Y s 302 85 m -8 Y s 316 85 m -8 Y s 329 93 m -16 Y
 s 342 85 m -8 Y s 356 85 m -8 Y s 369 85 m -8 Y s 382 85 m -8 Y s 396 93 m -16 Y s 409 85 m -8 Y s 422 85 m -8 Y s 436 85 m -8 Y s 449 85 m -8 Y s 462 93 m -16 Y s 476 85 m -8 Y s 489 85 m -8 Y s 502 85 m -8 Y s 516 85 m -8 Y s 529 93 m -16 Y s 542
 85 m -8 Y s 556 85 m -8 Y s 569 85 m -8 Y s 582 85 m -8 Y s 596 93 m -16 Y s 609 85 m -8 Y s 622 85 m -8 Y s 636 85 m -8 Y s 649 85 m -8 Y s 662 93 m -16 Y s 129 77 m 559 Y s 146 77 m -17 X s 138 88 m -9 X s 138 100 m -9 X s 138 111 m -9 X s 138 123
 m -9 X s 146 134 m -17 X s 138 146 m -9 X s 138 157 m -9 X s 138 169 m -9 X s 138 180 m -9 X s 146 192 m -17 X s 138 203 m -9 X s 138 215 m -9 X s 138 226 m -9 X s 138 238 m -9 X s 146 249 m -17 X s 138 261 m -9 X s 138 272 m -9 X s 138 284 m -9 X s
 138 295 m -9 X s 146 307 m -17 X s 138 318 m -9 X s 138 330 m -9 X s 138 341 m -9 X s 138 353 m -9 X s 146 364 m -17 X s 138 376 m -9 X s 138 387 m -9 X s 138 399 m -9 X s 138 410 m -9 X s 146 422 m -17 X s 138 433 m -9 X s 138 445 m -9 X s 138 456
 m -9 X s 138 468 m -9 X s 146 479 m -17 X s 138 491 m -9 X s 138 502 m -9 X s 138 514 m -9 X s 138 525 m -9 X s 146 537 m -17 X s 138 548 m -9 X s 138 560 m -9 X s 138 571 m -9 X s 138 583 m -9 X s 146 594 m -17 X s 146 594 m -17 X s 138 606 m -9 X
 s 138 617 m -9 X s 138 629 m -9 X s 1 1 1 c black
 gsave  710 699 23 7 C 328.501 670.626 t 0 r /Helvetica findfont 34.8619 sf 0 0 m (Signal) show NC gr  1 1 1 c 710 699 779 7 bf black 1 1 1 c 533 559 885 77 bf black 533 559 885 77 bl 885 77 m 533 X s 885 93 m -16 Y s 898 85 m -8 Y s 912 85 m -8 Y s
 925 85 m -8 Y s 938 85 m -8 Y s 952 93 m -16 Y s 965 85 m -8 Y s 978 85 m -8 Y s 992 85 m -8 Y s 1005 85 m -8 Y s 1018 93 m -16 Y s 1032 85 m -8 Y s 1045 85 m -8 Y s 1058 85 m -8 Y s 1072 85 m -8 Y s 1085 93 m -16 Y s 1098 85 m -8 Y s 1112 85 m -8 Y
 s 1125 85 m -8 Y s 1138 85 m -8 Y s 1152 93 m -16 Y s 1165 85 m -8 Y s 1178 85 m -8 Y s 1192 85 m -8 Y s 1205 85 m -8 Y s 1218 93 m -16 Y s 1232 85 m -8 Y s 1245 85 m -8 Y s 1258 85 m -8 Y s 1272 85 m -8 Y s 1285 93 m -16 Y s 1298 85 m -8 Y s 1311
 85 m -8 Y s 1325 85 m -8 Y s 1338 85 m -8 Y s 1351 93 m -16 Y s 1365 85 m -8 Y s 1378 85 m -8 Y s 1391 85 m -8 Y s 1405 85 m -8 Y s 1418 93 m -16 Y s
 gsave  710 699 779 7 C 861.369 54.4979 t 0 r /Helvetica findfont 22.736 sf 0 0 m (5.25) show NC gr 
 gsave  710 699 779 7 C 921.922 54.4979 t 0 r /Helvetica findfont 22.736 sf 0 0 m (5.255) show NC gr 
 gsave  710 699 779 7 C 994.586 54.4979 t 0 r /Helvetica findfont 22.736 sf 0 0 m (5.26) show NC gr 
 gsave  710 699 779 7 C 1055.14 54.4979 t 0 r /Helvetica findfont 22.736 sf 0 0 m (5.265) show NC gr 
 gsave  710 699 779 7 C 1127.8 54.4979 t 0 r /Helvetica findfont 22.736 sf 0 0 m (5.27) show NC gr 
 gsave  710 699 779 7 C 1188.36 54.4979 t 0 r /Helvetica findfont 22.736 sf 0 0 m (5.275) show NC gr 
 gsave  710 699 779 7 C 1261.02 54.4979 t 0 r /Helvetica findfont 22.736 sf 0 0 m (5.28) show NC gr 
 gsave  710 699 779 7 C 1321.57 54.4979 t 0 r /Helvetica findfont 22.736 sf 0 0 m (5.285) show NC gr 
 gsave  710 699 779 7 C 1394.24 54.4979 t 0 r /Helvetica findfont 22.736 sf 0 0 m (5.29) show NC gr 
 gsave  710 699 779 7 C 1254.96 31.7904 t 0 r /Helvetica findfont 22.736 sf 0 0 m (m_bc \(GeV/c^2\)) show NC gr  885 77 m 559 Y s 902 77 m -17 X s 894 95 m -9 X s 894 114 m -9 X s 894 132 m -9 X s 902 151 m -17 X s 894 169 m -9 X s 894 188 m -9 X s
 894 206 m -9 X s 902 225 m -17 X s 894 243 m -9 X s 894 262 m -9 X s 894 280 m -9 X s 902 299 m -17 X s 894 317 m -9 X s 894 336 m -9 X s 894 354 m -9 X s 902 373 m -17 X s 894 391 m -9 X s 894 410 m -9 X s 894 428 m -9 X s 902 447 m -17 X s 894 465
 m -9 X s 894 484 m -9 X s 894 502 m -9 X s 902 521 m -17 X s 894 539 m -9 X s 894 558 m -9 X s 894 576 m -9 X s 902 595 m -17 X s 902 595 m -17 X s 894 613 m -9 X s 894 632 m -9 X s
 gsave  710 699 779 7 C 868.938 68.1223 t 0 r /Helvetica findfont 22.736 sf 0 0 m (0) show NC gr 
 gsave  710 699 779 7 C 856.827 142.3 t 0 r /Helvetica findfont 22.736 sf 0 0 m (20) show NC gr 
 gsave  710 699 779 7 C 856.827 216.478 t 0 r /Helvetica findfont 22.736 sf 0 0 m (40) show NC gr 
 gsave  710 699 779 7 C 856.827 290.655 t 0 r /Helvetica findfont 22.736 sf 0 0 m (60) show NC gr 
 gsave  710 699 779 7 C 856.827 364.833 t 0 r /Helvetica findfont 22.736 sf 0 0 m (80) show NC gr 
 gsave  710 699 779 7 C 843.203 439.011 t 0 r /Helvetica findfont 22.736 sf 0 0 m (100) show NC gr 
 gsave  710 699 779 7 C 843.203 511.674 t 0 r /Helvetica findfont 22.736 sf 0 0 m (120) show NC gr 
 gsave  710 699 779 7 C 843.203 585.852 t 0 r /Helvetica findfont 22.736 sf 0 0 m (140) show NC gr 
 gsave  710 699 779 7 C 828.065 360.291 t 90 r /Helvetica findfont 22.736 sf 0 0 m (Events / \( 0.0004 GeV/c^2 \)) show NC gr  1 1 1 c black
 gsave  710 699 779 7 C 1041.51 672.14 t 0 r /Helvetica findfont 34.8619 sf 0 0 m (Background) show NC gr  888 103 m -3 X s 885 100 m 6 Y s 888 103 m 2 X s 890 100 m 6 Y s 888 103 m 14 Y s 885 117 m 6 X s 888 103 m -10 Y s 885 93 m 6 X s 893 136 m -3
 X s 890 133 m 6 Y s 893 136 m 3 X s 896 133 m 6 Y s 893 136 m 19 Y s 890 155 m 6 X s 893 136 m -14 Y s 890 122 m 6 X s 898 129 m -2 X s 896 126 m 6 Y s 898 129 m 3 X s 901 126 m 6 Y s 898 129 m 18 Y s 895 147 m 7 X s 898 129 m -14 Y s 895 115 m 7 X
 s 904 118 m -3 X s 901 115 m 6 Y s 904 118 m 2 X s 906 115 m 6 Y s 904 118 m 16 Y s 901 134 m 6 X s 904 118 m -12 Y s 901 106 m 6 X s 909 147 m -3 X s 906 144 m 6 Y s 909 147 m 3 X s 912 144 m 6 Y s 909 147 m 20 Y s 906 167 m 6 X s 909 147 m -16 Y s
 906 131 m 6 X s 914 114 m -2 X s 912 111 m 6 Y s 914 114 m 3 X s 917 111 m 6 Y s 914 114 m 16 Y s 911 130 m 7 X s 914 114 m -12 Y s 911 102 m 7 X s 920 99 m -3 X s 917 96 m 6 Y s 920 99 m 2 X s 922 96 m 6 Y s 920 99 m 13 Y s 917 112 m 6 X s 920 99 m
 -9 Y s 917 90 m 6 X s 925 140 m -3 X s 922 137 m 6 Y s 925 140 m 3 X s 928 137 m 6 Y s 925 140 m 19 Y s 922 159 m 6 X s 925 140 m -15 Y s 922 125 m 6 X s 930 114 m -2 X s 928 111 m 6 Y s 930 114 m 3 X s 933 111 m 6 Y s 930 114 m 16 Y s 927 130 m 6 X
 s 930 114 m -12 Y s 927 102 m 6 X s 936 155 m -3 X s 933 152 m 6 Y s 936 155 m 2 X s 938 152 m 6 Y s 936 155 m 21 Y s 933 176 m 6 X s 936 155 m -17 Y s 933 138 m 6 X s 941 107 m -3 X s 938 104 m 6 Y s 941 107 m 3 X s 944 104 m 6 Y s 941 107 m 14 Y s
 938 121 m 6 X s 941 107 m -11 Y s 938 96 m 6 X s 946 125 m -2 X s 944 122 m 6 Y s 946 125 m 3 X s 949 122 m 6 Y s 946 125 m 17 Y s 943 142 m 6 X s 946 125 m -13 Y s 943 112 m 6 X s 952 129 m -3 X s 949 126 m 6 Y s 952 129 m 2 X s 954 126 m 6 Y s 952
 129 m 18 Y s 949 147 m 6 X s 952 129 m -14 Y s 949 115 m 6 X s 957 132 m -3 X s 954 129 m 6 Y s 957 132 m 3 X s 960 129 m 6 Y s 957 132 m 19 Y s 954 151 m 6 X s 957 132 m -14 Y s 954 118 m 6 X s 962 118 m -2 X s 960 115 m 6 Y s 962 118 m 3 X s 965
 115 m 6 Y s 962 118 m 16 Y s 959 134 m 6 X s 962 118 m -12 Y s 959 106 m 6 X s 968 125 m -3 X s 965 122 m 6 Y s 968 125 m 2 X s 970 122 m 6 Y s 968 125 m 17 Y s 965 142 m 6 X s 968 125 m -13 Y s 965 112 m 6 X s 973 114 m -3 X s 970 111 m 6 Y s 973
 114 m 3 X s 976 111 m 6 Y s 973 114 m 16 Y s 970 130 m 6 X s 973 114 m -12 Y s 970 102 m 6 X s 978 132 m -2 X s 976 129 m 6 Y s 978 132 m 3 X s 981 129 m 6 Y s 978 132 m 19 Y s 975 151 m 6 X s 978 132 m -14 Y s 975 118 m 6 X s 984 129 m -3 X s 981
 126 m 6 Y s 984 129 m 2 X s 986 126 m 6 Y s 984 129 m 18 Y s 981 147 m 6 X s 984 129 m -14 Y s 981 115 m 6 X s 989 144 m -3 X s 986 141 m 6 Y s 989 144 m 3 X s 992 141 m 6 Y s 989 144 m 19 Y s 986 163 m 6 X s 989 144 m -16 Y s 986 128 m 6 X s 994
 110 m -2 X s 992 107 m 6 Y s 994 110 m 3 X s 997 107 m 6 Y s 994 110 m 15 Y s 991 125 m 6 X s 994 110 m -11 Y s 991 99 m 6 X s 1000 140 m -3 X s 997 137 m 6 Y s 1000 140 m 2 X s 1002 137 m 6 Y s 1000 140 m 19 Y s 997 159 m 6 X s 1000 140 m -15 Y s
 997 125 m 6 X s 1005 140 m -3 X s 1002 137 m 6 Y s 1005 140 m 3 X s 1008 137 m 6 Y s 1005 140 m 19 Y s 1002 159 m 6 X s 1005 140 m -15 Y s 1002 125 m 6 X s 1010 114 m -2 X s 1008 111 m 6 Y s 1010 114 m 3 X s 1013 111 m 6 Y s 1010 114 m 16 Y s 1007
 130 m 6 X s 1010 114 m -12 Y s 1007 102 m 6 X s 1016 144 m -3 X s 1013 141 m 6 Y s 1016 144 m 2 X s 1018 141 m 6 Y s 1016 144 m 19 Y s 1013 163 m 6 X s 1016 144 m -16 Y s 1013 128 m 6 X s 1021 136 m -3 X s 1018 133 m 6 Y s 1021 136 m 3 X s 1024 133
 m 6 Y s 1021 136 m 19 Y s 1018 155 m 6 X s 1021 136 m -14 Y s 1018 122 m 6 X s 1026 140 m -2 X s 1024 137 m 6 Y s 1026 140 m 3 X s 1029 137 m 6 Y s 1026 140 m 19 Y s 1023 159 m 6 X s 1026 140 m -15 Y s 1023 125 m 6 X s 1032 121 m -3 X s 1029 118 m 6
 Y s 1032 121 m 2 X s 1034 118 m 6 Y s 1032 121 m 17 Y s 1029 138 m 6 X s 1032 121 m -12 Y s 1029 109 m 6 X s 1037 125 m -3 X s 1034 122 m 6 Y s 1037 125 m 3 X s 1040 122 m 6 Y s 1037 125 m 17 Y s 1034 142 m 6 X s 1037 125 m -13 Y s 1034 112 m 6 X s
 1042 125 m -2 X s 1040 122 m 6 Y s 1042 125 m 3 X s 1045 122 m 6 Y s 1042 125 m 17 Y s 1039 142 m 6 X s 1042 125 m -13 Y s 1039 112 m 6 X s 1048 118 m -3 X s 1045 115 m 6 Y s 1048 118 m 2 X s 1050 115 m 6 Y s 1048 118 m 16 Y s 1045 134 m 6 X s 1048
 118 m -12 Y s 1045 106 m 6 X s 1053 147 m -3 X s 1050 144 m 6 Y s 1053 147 m 3 X s 1056 144 m 6 Y s 1053 147 m 20 Y s 1050 167 m 6 X s 1053 147 m -16 Y s 1050 131 m 6 X s 1058 118 m -2 X s 1056 115 m 6 Y s 1058 118 m 3 X s 1061 115 m 6 Y s 1058 118
 m 16 Y s 1055 134 m 6 X s 1058 118 m -12 Y s 1055 106 m 6 X s 1064 144 m -3 X s 1061 141 m 6 Y s 1064 144 m 2 X s 1066 141 m 6 Y s 1064 144 m 19 Y s 1061 163 m 6 X s 1064 144 m -16 Y s 1061 128 m 6 X s 1069 110 m -3 X s 1066 107 m 6 Y s 1069 110 m 3
 X s 1072 107 m 6 Y s 1069 110 m 15 Y s 1066 125 m 6 X s 1069 110 m -11 Y s 1066 99 m 6 X s 1074 132 m -2 X s 1072 129 m 6 Y s 1074 132 m 3 X s 1077 129 m 6 Y s 1074 132 m 19 Y s 1071 151 m 6 X s 1074 132 m -14 Y s 1071 118 m 6 X s 1080 155 m -3 X s
 1077 152 m 6 Y s 1080 155 m 2 X s 1082 152 m 6 Y s 1080 155 m 21 Y s 1077 176 m 6 X s 1080 155 m -17 Y s 1077 138 m 6 X s 1085 151 m -3 X s 1082 148 m 6 Y s 1085 151 m 3 X s 1088 148 m 6 Y s 1085 151 m 20 Y s 1082 171 m 6 X s 1085 151 m -16 Y s 1082
 135 m 6 X s 1090 136 m -2 X s 1088 133 m 6 Y s 1090 136 m 3 X s 1093 133 m 6 Y s 1090 136 m 19 Y s 1087 155 m 6 X s 1090 136 m -14 Y s 1087 122 m 6 X s 1096 114 m -3 X s 1093 111 m 6 Y s 1096 114 m 2 X s 1098 111 m 6 Y s 1096 114 m 16 Y s 1093 130 m
 6 X s 1096 114 m -12 Y s 1093 102 m 6 X s 1101 132 m -3 X s 1098 129 m 6 Y s 1101 132 m 3 X s 1104 129 m 6 Y s 1101 132 m 19 Y s 1098 151 m 6 X s 1101 132 m -14 Y s 1098 118 m 6 X s 1106 121 m -2 X s 1104 118 m 6 Y s 1106 121 m 3 X s 1109 118 m 6 Y
 s 1106 121 m 17 Y s 1103 138 m 6 X s 1106 121 m -12 Y s 1103 109 m 6 X s 1112 151 m -3 X s 1109 148 m 6 Y s 1112 151 m 2 X s 1114 148 m 6 Y s 1112 151 m 20 Y s 1109 171 m 6 X s 1112 151 m -16 Y s 1109 135 m 6 X s 1117 125 m -3 X s 1114 122 m 6 Y s
 1117 125 m 3 X s 1120 122 m 6 Y s 1117 125 m 17 Y s 1114 142 m 6 X s 1117 125 m -13 Y s 1114 112 m 6 X s 1122 147 m -2 X s 1120 144 m 6 Y s 1122 147 m 3 X s 1125 144 m 6 Y s 1122 147 m 20 Y s 1119 167 m 6 X s 1122 147 m -16 Y s 1119 131 m 6 X s 1128
 136 m -3 X s 1125 133 m 6 Y s 1128 136 m 2 X s 1130 133 m 6 Y s 1128 136 m 19 Y s 1125 155 m 6 X s 1128 136 m -14 Y s 1125 122 m 6 X s 1133 118 m -3 X s 1130 115 m 6 Y s 1133 118 m 3 X s 1136 115 m 6 Y s 1133 118 m 16 Y s 1130 134 m 6 X s 1133 118 m
 -12 Y s 1130 106 m 6 X s 1138 155 m -2 X s 1136 152 m 6 Y s 1138 155 m 3 X s 1141 152 m 6 Y s 1138 155 m 21 Y s 1135 176 m 6 X s 1138 155 m -17 Y s 1135 138 m 6 X s 1144 136 m -3 X s 1141 133 m 6 Y s 1144 136 m 2 X s 1146 133 m 6 Y s 1144 136 m 19 Y
 s 1141 155 m 6 X s 1144 136 m -14 Y s 1141 122 m 6 X s 1149 129 m -3 X s 1146 126 m 6 Y s 1149 129 m 3 X s 1152 126 m 6 Y s 1149 129 m 18 Y s 1146 147 m 6 X s 1149 129 m -14 Y s 1146 115 m 6 X s 1154 129 m -2 X s 1152 126 m 6 Y s 1154 129 m 3 X s
 1157 126 m 6 Y s 1154 129 m 18 Y s 1151 147 m 6 X s 1154 129 m -14 Y s 1151 115 m 6 X s 1160 136 m -3 X s 1157 133 m 6 Y s 1160 136 m 2 X s 1162 133 m 6 Y s 1160 136 m 19 Y s 1157 155 m 6 X s 1160 136 m -14 Y s 1157 122 m 6 X s 1165 147 m -3 X s
 1162 144 m 6 Y s 1165 147 m 3 X s 1168 144 m 6 Y s 1165 147 m 20 Y s 1162 167 m 6 X s 1165 147 m -16 Y s 1162 131 m 6 X s 1170 151 m -2 X s 1168 148 m 6 Y s 1170 151 m 3 X s 1173 148 m 6 Y s 1170 151 m 20 Y s 1167 171 m 6 X s 1170 151 m -16 Y s 1167
 135 m 6 X s 1176 136 m -3 X s 1173 133 m 6 Y s 1176 136 m 2 X s 1178 133 m 6 Y s 1176 136 m 19 Y s 1173 155 m 6 X s 1176 136 m -14 Y s 1173 122 m 6 X s 1181 162 m -3 X s 1178 159 m 6 Y s 1181 162 m 3 X s 1184 159 m 6 Y s 1181 162 m 22 Y s 1178 184 m
 6 X s 1181 162 m -18 Y s 1178 144 m 6 X s 1186 217 m -2 X s 1184 214 m 7 Y s 1186 217 m 3 X s 1189 214 m 7 Y s 1186 217 m 27 Y s 1183 244 m 6 X s 1186 217 m -22 Y s 1183 195 m 6 X s 1192 173 m -3 X s 1189 170 m 6 Y s 1192 173 m 2 X s 1194 170 m 6 Y
 s 1192 173 m 23 Y s 1189 196 m 6 X s 1192 173 m -19 Y s 1189 154 m 6 X s 1197 177 m -3 X s 1194 174 m 6 Y s 1197 177 m 3 X s 1200 174 m 6 Y s 1197 177 m 23 Y s 1194 200 m 6 X s 1197 177 m -19 Y s 1194 158 m 6 X s 1202 177 m -2 X s 1200 174 m 6 Y s
 1202 177 m 3 X s 1205 174 m 6 Y s 1202 177 m 23 Y s 1199 200 m 6 X s 1202 177 m -19 Y s 1199 158 m 6 X s 1208 210 m -3 X s 1205 207 m 6 Y s 1208 210 m 2 X s 1210 207 m 6 Y s 1208 210 m 26 Y s 1205 236 m 6 X s 1208 210 m -22 Y s 1205 188 m 6 X s 1213
 181 m -3 X s 1210 177 m 7 Y s 1213 181 m 3 X s 1216 177 m 7 Y s 1213 181 m 23 Y s 1210 204 m 6 X s 1213 181 m -20 Y s 1210 161 m 6 X s 1218 251 m -2 X s 1216 248 m 6 Y s 1218 251 m 3 X s 1221 248 m 6 Y s 1218 251 m 29 Y s 1215 280 m 6 X s 1218 251 m
 -25 Y s 1215 226 m 6 X s 1224 188 m -3 X s 1221 185 m 6 Y s 1224 188 m 2 X s 1226 185 m 6 Y s 1224 188 m 24 Y s 1221 212 m 6 X s 1224 188 m -20 Y s 1221 168 m 6 X s 1229 266 m -3 X s 1226 263 m 6 Y s 1229 266 m 3 X s 1232 263 m 6 Y s 1229 266 m 30 Y
 s 1226 296 m 6 X s 1229 266 m -27 Y s 1226 239 m 6 X s 1234 325 m -2 X s 1232 322 m 6 Y s 1234 325 m 3 X s 1237 322 m 6 Y s 1234 325 m 34 Y s 1231 359 m 6 X s 1234 325 m -30 Y s 1231 295 m 6 X s 1240 273 m -3 X s 1237 270 m 6 Y s 1240 273 m 2 X s
 1242 270 m 6 Y s 1240 273 m 31 Y s 1237 304 m 6 X s 1240 273 m -27 Y s 1237 246 m 6 X s 1245 306 m -3 X s 1242 303 m 6 Y s 1245 306 m 3 X s 1248 303 m 6 Y s 1245 306 m 33 Y s 1242 339 m 6 X s 1245 306 m -29 Y s 1242 277 m 6 X s 1250 306 m -2 X s
 1248 303 m 6 Y s 1250 306 m 3 X s 1253 303 m 6 Y s 1250 306 m 33 Y s 1247 339 m 6 X s 1250 306 m -29 Y s 1247 277 m 6 X s 1256 384 m -3 X s 1253 381 m 6 Y s 1256 384 m 2 X s 1258 381 m 6 Y s 1256 384 m 37 Y s 1253 421 m 6 X s 1256 384 m -34 Y s 1253
 350 m 6 X s 1261 439 m -3 X s 1258 436 m 6 Y s 1261 439 m 3 X s 1264 436 m 6 Y s 1261 439 m 41 Y s 1258 480 m 6 X s 1261 439 m -36 Y s 1258 403 m 6 X s 1266 413 m -2 X s 1264 410 m 6 Y s 1266 413 m 3 X s 1269 410 m 6 Y s 1266 413 m 40 Y s 1263 453 m
 6 X s 1266 413 m -35 Y s 1263 378 m 6 X s 1272 458 m -3 X s 1269 455 m 6 Y s 1272 458 m 2 X s 1274 455 m 6 Y s 1272 458 m 39 Y s 1268 497 m 7 X s 1272 458 m -36 Y s 1268 422 m 7 X s 1277 439 m -3 X s 1274 436 m 6 Y s 1277 439 m 3 X s 1280 436 m 6 Y
 s 1277 439 m 41 Y s 1274 480 m 6 X s 1277 439 m -36 Y s 1274 403 m 6 X s 1282 510 m -2 X s 1280 507 m 6 Y s 1282 510 m 3 X s 1285 507 m 6 Y s 1282 510 m 41 Y s 1279 551 m 6 X s 1282 510 m -39 Y s 1279 471 m 6 X s 1288 513 m -3 X s 1285 510 m 6 Y s
 1288 513 m 2 X s 1290 510 m 6 Y s 1288 513 m 42 Y s 1284 555 m 7 X s 1288 513 m -38 Y s 1284 475 m 7 X s 1293 535 m -3 X s 1290 532 m 6 Y s 1293 535 m 3 X s 1296 532 m 6 Y s 1293 535 m 44 Y s 1290 579 m 6 X s 1293 535 m -39 Y s 1290 496 m 6 X s 1298
 565 m -2 X s 1296 562 m 6 Y s 1298 565 m 3 X s 1301 562 m 6 Y s 1298 565 m 44 Y s 1295 609 m 6 X s 1298 565 m -41 Y s 1295 524 m 6 X s 1304 410 m -3 X s 1301 407 m 6 Y s 1304 410 m 2 X s 1306 407 m 6 Y s 1304 410 m 39 Y s 1300 449 m 7 X s 1304 410 m
 -35 Y s 1300 375 m 7 X s 1309 439 m -3 X s 1306 436 m 6 Y s 1309 439 m 2 X s 1311 436 m 6 Y s 1309 439 m 41 Y s 1306 480 m 6 X s 1309 439 m -36 Y s 1306 403 m 6 X s 1314 428 m -3 X s 1311 425 m 6 Y s 1314 428 m 3 X s 1317 425 m 6 Y s 1314 428 m 40 Y
 s 1311 468 m 6 X s 1314 428 m -36 Y s 1311 392 m 6 X s 1319 458 m -2 X s 1317 455 m 6 Y s 1319 458 m 3 X s 1322 455 m 6 Y s 1319 458 m 39 Y s 1316 497 m 7 X s 1319 458 m -36 Y s 1316 422 m 7 X s 1325 432 m -3 X s 1322 429 m 6 Y s 1325 432 m 2 X s
 1327 429 m 6 Y s 1325 432 m 40 Y s 1322 472 m 6 X s 1325 432 m -36 Y s 1322 396 m 6 X s 1330 365 m -3 X s 1327 362 m 6 Y s 1330 365 m 3 X s 1333 362 m 6 Y s 1330 365 m 37 Y s 1327 402 m 6 X s 1330 365 m -32 Y s 1327 333 m 6 X s 1335 291 m -2 X s
 1333 288 m 6 Y s 1335 291 m 3 X s 1338 288 m 6 Y s 1335 291 m 32 Y s 1332 323 m 7 X s 1335 291 m -28 Y s 1332 263 m 7 X s 1341 277 m -3 X s 1338 274 m 6 Y s 1341 277 m 2 X s 1343 274 m 6 Y s 1341 277 m 31 Y s 1338 308 m 6 X s 1341 277 m -27 Y s 1338
 250 m 6 X s 1346 240 m -3 X s 1343 237 m 6 Y s 1346 240 m 3 X s 1349 237 m 6 Y s 1346 240 m 28 Y s 1343 268 m 6 X s 1346 240 m -25 Y s 1343 215 m 6 X s 1351 203 m -2 X s 1349 200 m 6 Y s 1351 203 m 3 X s 1354 200 m 6 Y s 1351 203 m 25 Y s 1348 228 m
 6 X s 1351 203 m -22 Y s 1348 181 m 6 X s 1357 195 m -3 X s 1354 192 m 6 Y s 1357 195 m 2 X s 1359 192 m 6 Y s 1357 195 m 25 Y s 1354 220 m 6 X s 1357 195 m -20 Y s 1354 175 m 6 X s 1362 173 m -3 X s 1359 170 m 6 Y s 1362 173 m 3 X s 1365 170 m 6 Y
 s 1362 173 m 23 Y s 1359 196 m 6 X s 1362 173 m -19 Y s 1359 154 m 6 X s 1367 155 m -2 X s 1365 152 m 6 Y s 1367 155 m 3 X s 1370 152 m 6 Y s 1367 155 m 21 Y s 1364 176 m 6 X s 1367 155 m -17 Y s 1364 138 m 6 X s 1373 136 m -3 X s 1370 133 m 6 Y s
 1373 136 m 2 X s 1375 133 m 6 Y s 1373 136 m 19 Y s 1370 155 m 6 X s 1373 136 m -14 Y s 1370 122 m 6 X s 1378 121 m -3 X s 1375 118 m 6 Y s 1378 121 m 3 X s 1381 118 m 6 Y s 1378 121 m 17 Y s 1375 138 m 6 X s 1378 121 m -12 Y s 1375 109 m 6 X s 1383
 144 m -2 X s 1381 141 m 6 Y s 1383 144 m 3 X s 1386 141 m 6 Y s 1383 144 m 19 Y s 1380 163 m 6 X s 1383 144 m -16 Y s 1380 128 m 6 X s 1389 114 m -3 X s 1386 111 m 6 Y s 1389 114 m 2 X s 1391 111 m 6 Y s 1389 114 m 16 Y s 1386 130 m 6 X s 1389 114 m
 -12 Y s 1386 102 m 6 X s 1394 92 m -3 X s 1391 89 m 6 Y s 1394 92 m 3 X s 1397 89 m 6 Y s 1394 92 m 11 Y s 1391 103 m 6 X s 1394 92 m -7 Y s 1391 85 m 6 X s 1399 107 m -2 X s 1397 104 m 6 Y s 1399 107 m 3 X s 1402 104 m 6 Y s 1399 107 m 14 Y s 1396
 121 m 6 X s 1399 107 m -11 Y s 1396 96 m 6 X s 1405 88 m -3 X s 1402 85 m 6 Y s 1405 88 m 2 X s 1407 85 m 6 Y s 1405 88 m 11 Y s 1402 99 m 6 X s 1405 88 m -6 Y s 1402 82 m 6 X s 1410 99 m -3 X s 1407 96 m 6 Y s 1410 99 m 3 X s 1413 96 m 6 Y s 1410
 99 m 13 Y s 1407 112 m 6 X s 1410 99 m -9 Y s 1407 90 m 6 X s 1415 95 m -2 X s 1413 92 m 7 Y s 1415 95 m 3 X s 1418 92 m 7 Y s 1415 95 m 13 Y s 1412 108 m 6 X s 1415 95 m -7 Y s 1412 88 m 6 X s 1 1 1 c black 888 103 893 136 898 129 904 118 909 147
 914 114 920 99 925 140 930 114 936 155 941 107 946 125 952 129 957 132 962 118 968 125 973 114 978 132 984 129 989 144 994 110 1000 140 1005 140 1010 114 1016 144 1021 136 1026 140 1032 121 1037 125 1042 125 1048 118 1053 147 1058 118 1064 144 1069
 110 1074 132 1080 155 1085 151 1090 136 1096 114 1101 132 1106 121 1112 151 1117 125 1122 147 1128 136 1133 118 1138 155 1144 136 1149 129 1154 129 1160 136 1165 147 1170 151 1176 136 1181 162 1186 217 1192 173 1197 177 1202 177 1208 210 1213 181
 1218 251 1224 188 1229 266 1234 325 1240 273 1245 306 1250 306 1256 384 1261 439 1266 413 1272 458 1277 439 1282 510 1288 513 1293 535 1298 565 1304 410 1309 439 1314 428 1319 458 1325 432 1330 365 1335 291 1341 277 1346 240 1351 203 1357 195 1362
 173 1367 155 1373 136 1378 121 1383 144 1389 114 1394 92 1399 107 1405 88 1410 99 1415 95 100 { m20} R 0 0 1 c 9 lw 1 1 1 c black 0 0 1 c 885 124 m cl s 885 124 m 5 X 6 1 d 16 X 5 1 d 11 X 5 1 d 11 X 5 1 d 11 X 5 1 d 11 X 5 1 d 16 X 5 1 d 11 X 5 1 d
 16 X 6 1 d 16 X 5 1 d 16 X 5 1 d 22 X 5 1 d 21 X 6 1 d 16 X 5 1 d 5 1 d 6 X 5 2 d 5 2 d 6 2 d 5 4 d 5 5 d 6 6 d 5 9 d 5 11 d 6 13 d 5 16 d 5 20 d 6 22 d 5 26 d 5 28 d 6 29 d 5 31 d 5 30 d 6 29 d 2 13 d 3 13 d 3 12 d 2 10 d 3 9 d 3 8 d 2 6 d 3 5 d 3
 3 d 2 1 d 3 -1 d 3 -2 d 2 -5 d 3 -5 d 3 -8 d 2 -9 d 3 -10 d 2 -12 d 3 -12 d 3 -14 d 5 -29 d 5 -31 d 6 -32 d 5 -32 d 5 -29 d 6 -28 d 5 -24 d 5 -22 d 6 -19 d 5 -16 d 5 -14 d 6 -11 d 5 -9 d 5 -8 d 6 -7 d 5 -6 d 5 -7 d 6 -7 d 2 -5 d 2 -3 d -3 Y 1 -5 d s
 black 3 lw 885 77 m 533 X s 885 93 m -16 Y s 898 85 m -8 Y s 912 85 m -8 Y s 925 85 m -8 Y s 938 85 m -8 Y s 952 93 m -16 Y s 965 85 m -8 Y s 978 85 m -8 Y s 992 85 m -8 Y s 1005 85 m -8 Y s 1018 93 m -16 Y s 1032 85 m -8 Y s 1045 85 m -8 Y s 1058
 85 m -8 Y s 1072 85 m -8 Y s 1085 93 m -16 Y s 1098 85 m -8 Y s 1112 85 m -8 Y s 1125 85 m -8 Y s 1138 85 m -8 Y s 1152 93 m -16 Y s 1165 85 m -8 Y s 1178 85 m -8 Y s 1192 85 m -8 Y s 1205 85 m -8 Y s 1218 93 m -16 Y s 1232 85 m -8 Y s 1245 85 m -8
 Y s 1258 85 m -8 Y s 1272 85 m -8 Y s 1285 93 m -16 Y s 1298 85 m -8 Y s 1311 85 m -8 Y s 1325 85 m -8 Y s 1338 85 m -8 Y s 1351 93 m -16 Y s 1365 85 m -8 Y s 1378 85 m -8 Y s 1391 85 m -8 Y s 1405 85 m -8 Y s 1418 93 m -16 Y s 885 77 m 559 Y s 902
 77 m -17 X s 894 95 m -9 X s 894 114 m -9 X s 894 132 m -9 X s 902 151 m -17 X s 894 169 m -9 X s 894 188 m -9 X s 894 206 m -9 X s 902 225 m -17 X s 894 243 m -9 X s 894 262 m -9 X s 894 280 m -9 X s 902 299 m -17 X s 894 317 m -9 X s 894 336 m -9
 X s 894 354 m -9 X s 902 373 m -17 X s 894 391 m -9 X s 894 410 m -9 X s 894 428 m -9 X s 902 447 m -17 X s 894 465 m -9 X s 894 484 m -9 X s 894 502 m -9 X s 902 521 m -17 X s 894 539 m -9 X s 894 558 m -9 X s 894 576 m -9 X s 902 595 m -17 X s 902
 595 m -17 X s 894 613 m -9 X s 894 632 m -9 X s 1 1 1 c black
 gsave  710 699 779 7 C 1041.51 672.14 t 0 r /Helvetica findfont 34.8619 sf 0 0 m (Background) show NC gr  1 1 1 c 711 699 1534 7 bf black 1 1 1 c 533 559 1641 77 bf black 533 559 1641 77 bl 1641 77 m 533 X s 1641 93 m -16 Y s 1654 85 m -8 Y s 1668
 85 m -8 Y s 1681 85 m -8 Y s 1694 85 m -8 Y s 1708 93 m -16 Y s 1721 85 m -8 Y s 1734 85 m -8 Y s 1748 85 m -8 Y s 1761 85 m -8 Y s 1774 93 m -16 Y s 1788 85 m -8 Y s 1801 85 m -8 Y s 1814 85 m -8 Y s 1828 85 m -8 Y s 1841 93 m -16 Y s 1854 85 m -8
 Y s 1868 85 m -8 Y s 1881 85 m -8 Y s 1894 85 m -8 Y s 1908 93 m -16 Y s 1921 85 m -8 Y s 1934 85 m -8 Y s 1947 85 m -8 Y s 1961 85 m -8 Y s 1974 93 m -16 Y s 1987 85 m -8 Y s 2001 85 m -8 Y s 2014 85 m -8 Y s 2027 85 m -8 Y s 2041 93 m -16 Y s 2054
 85 m -8 Y s 2067 85 m -8 Y s 2081 85 m -8 Y s 2094 85 m -8 Y s 2107 93 m -16 Y s 2121 85 m -8 Y s 2134 85 m -8 Y s 2147 85 m -8 Y s 2161 85 m -8 Y s 2174 93 m -16 Y s
 gsave  711 699 1534 7 C 1618.28 54.4979 t 0 r /Helvetica findfont 22.736 sf 0 0 m (5.25) show NC gr 
 gsave  711 699 1534 7 C 1678.84 54.4979 t 0 r /Helvetica findfont 22.736 sf 0 0 m (5.255) show NC gr 
 gsave  711 699 1534 7 C 1751.5 54.4979 t 0 r /Helvetica findfont 22.736 sf 0 0 m (5.26) show NC gr 
 gsave  711 699 1534 7 C 1812.05 54.4979 t 0 r /Helvetica findfont 22.736 sf 0 0 m (5.265) show NC gr 
 gsave  711 699 1534 7 C 1884.72 54.4979 t 0 r /Helvetica findfont 22.736 sf 0 0 m (5.27) show NC gr 
 gsave  711 699 1534 7 C 1945.27 54.4979 t 0 r /Helvetica findfont 22.736 sf 0 0 m (5.275) show NC gr 
 gsave  711 699 1534 7 C 2017.93 54.4979 t 0 r /Helvetica findfont 22.736 sf 0 0 m (5.28) show NC gr 
 gsave  711 699 1534 7 C 2078.49 54.4979 t 0 r /Helvetica findfont 22.736 sf 0 0 m (5.285) show NC gr 
 gsave  711 699 1534 7 C 2151.15 54.4979 t 0 r /Helvetica findfont 22.736 sf 0 0 m (5.29) show NC gr 
 gsave  711 699 1534 7 C 2011.88 31.7904 t 0 r /Helvetica findfont 22.736 sf 0 0 m (m_bc \(GeV/c^2\)) show NC gr  1641 77 m 559 Y s 1658 77 m -17 X s 1650 97 m -9 X s 1650 118 m -9 X s 1650 138 m -9 X s 1650 159 m -9 X s 1658 179 m -17 X s 1650 199 m
 -9 X s 1650 220 m -9 X s 1650 240 m -9 X s 1650 261 m -9 X s 1658 281 m -17 X s 1650 301 m -9 X s 1650 322 m -9 X s 1650 342 m -9 X s 1650 363 m -9 X s 1658 383 m -17 X s 1650 403 m -9 X s 1650 424 m -9 X s 1650 444 m -9 X s 1650 465 m -9 X s 1658
 485 m -17 X s 1650 505 m -9 X s 1650 526 m -9 X s 1650 546 m -9 X s 1650 567 m -9 X s 1658 587 m -17 X s 1658 587 m -17 X s 1650 608 m -9 X s 1650 628 m -9 X s
 gsave  711 699 1534 7 C 1624.34 68.1223 t 0 r /Helvetica findfont 22.736 sf 0 0 m (0) show NC gr 
 gsave  711 699 1534 7 C 1598.6 171.063 t 0 r /Helvetica findfont 22.736 sf 0 0 m (100) show NC gr 
 gsave  711 699 1534 7 C 1598.6 272.489 t 0 r /Helvetica findfont 22.736 sf 0 0 m (200) show NC gr 
 gsave  711 699 1534 7 C 1598.6 375.43 t 0 r /Helvetica findfont 22.736 sf 0 0 m (300) show NC gr 
 gsave  711 699 1534 7 C 1598.6 476.856 t 0 r /Helvetica findfont 22.736 sf 0 0 m (400) show NC gr 
 gsave  711 699 1534 7 C 1598.6 578.283 t 0 r /Helvetica findfont 22.736 sf 0 0 m (500) show NC gr 
 gsave  711 699 1534 7 C 1583.47 360.291 t 90 r /Helvetica findfont 22.736 sf 0 0 m (Events / \( 0.0004 GeV/c^2 \)) show NC gr  1 1 1 c black
 gsave  711 699 1534 7 C 1728.79 670.626 t 0 r /Helvetica findfont 34.8619 sf 0 0 m (Signal + Background) show NC gr  1644 84 m -3 X s 1641 81 m 6 Y s 1644 84 m 2 X s 1646 81 m 6 Y s 1644 84 m 4 Y s 1641 88 m 6 X s 1644 84 m -2 Y s 1641 82 m 6 X s
 1649 82 m -3 X s 1646 79 m 6 Y s 1649 82 m 3 X s 1652 79 m 6 Y s 1649 82 m 4 Y s 1646 86 m 6 X s 1649 82 m -2 Y s 1646 80 m 6 X s 1654 84 m -2 X s 1652 81 m 6 Y s 1654 84 m 3 X s 1657 81 m 6 Y s 1654 84 m 4 Y s 1651 88 m 6 X s 1654 84 m -2 Y s 1651
 82 m 6 X s 1660 87 m -3 X s 1657 84 m 6 Y s 1660 87 m 2 X s 1662 84 m 6 Y s 1660 87 m 5 Y s 1657 92 m 6 X s 1660 87 m -3 Y s 1657 84 m 6 X s 1665 82 m -3 X s 1662 79 m 6 Y s 1665 82 m 3 X s 1668 79 m 6 Y s 1665 82 m 4 Y s 1662 86 m 6 X s 1665 82 m
 -2 Y s 1662 80 m 6 X s 1670 86 m -2 X s 1668 83 m 6 Y s 1670 86 m 3 X s 1673 83 m 6 Y s 1670 86 m 4 Y s 1667 90 m 6 X s 1670 86 m -3 Y s 1667 83 m 6 X s 1676 83 m -3 X s 1673 80 m 6 Y s 1676 83 m 2 X s 1678 80 m 6 Y s 1676 83 m 4 Y s 1673 87 m 6 X s
 1676 83 m -2 Y s 1673 81 m 6 X s 1681 80 m -3 X s 1678 77 m 6 Y s 1681 80 m 3 X s 1684 77 m 6 Y s 1681 80 m 3 Y s 1678 83 m 6 X s 1681 80 m -2 Y s 1678 78 m 6 X s 1686 83 m -2 X s 1684 80 m 6 Y s 1686 83 m 3 X s 1689 80 m 6 Y s 1686 83 m 4 Y s 1683
 87 m 6 X s 1686 83 m -2 Y s 1683 81 m 6 X s 1692 81 m -3 X s 1689 78 m 6 Y s 1692 81 m 2 X s 1694 78 m 6 Y s 1692 81 m 3 Y s 1689 84 m 6 X s 1692 81 m -2 Y s 1689 79 m 6 X s 1697 86 m -3 X s 1694 83 m 6 Y s 1697 86 m 3 X s 1700 83 m 6 Y s 1697 86 m
 4 Y s 1694 90 m 6 X s 1697 86 m -3 Y s 1694 83 m 6 X s 1702 89 m -2 X s 1700 86 m 6 Y s 1702 89 m 3 X s 1705 86 m 6 Y s 1702 89 m 5 Y s 1699 94 m 6 X s 1702 89 m -3 Y s 1699 86 m 6 X s 1708 82 m -3 X s 1705 79 m 6 Y s 1708 82 m 2 X s 1710 79 m 6 Y s
 1708 82 m 4 Y s 1705 86 m 6 X s 1708 82 m -2 Y s 1705 80 m 6 X s 1713 83 m -3 X s 1710 80 m 6 Y s 1713 83 m 3 X s 1716 80 m 6 Y s 1713 83 m 4 Y s 1710 87 m 6 X s 1713 83 m -2 Y s 1710 81 m 6 X s 1718 85 m -2 X s 1716 82 m 6 Y s 1718 85 m 3 X s 1721
 82 m 6 Y s 1718 85 m 4 Y s 1715 89 m 6 X s 1718 85 m -3 Y s 1715 82 m 6 X s 1724 82 m -3 X s 1721 79 m 6 Y s 1724 82 m 2 X s 1726 79 m 6 Y s 1724 82 m 4 Y s 1721 86 m 6 X s 1724 82 m -2 Y s 1721 80 m 6 X s 1729 83 m -3 X s 1726 80 m 6 Y s 1729 83 m
 3 X s 1732 80 m 6 Y s 1729 83 m 4 Y s 1726 87 m 6 X s 1729 83 m -2 Y s 1726 81 m 6 X s 1734 81 m -2 X s 1732 78 m 6 Y s 1734 81 m 3 X s 1737 78 m 6 Y s 1734 81 m 3 Y s 1731 84 m 6 X s 1734 81 m -2 Y s 1731 79 m 6 X s 1740 80 m -3 X s 1737 77 m 6 Y s
 1740 80 m 2 X s 1742 77 m 6 Y s 1740 80 m 3 Y s 1737 83 m 6 X s 1740 80 m -2 Y s 1737 78 m 6 X s 1745 83 m -3 X s 1742 80 m 6 Y s 1745 83 m 3 X s 1748 80 m 6 Y s 1745 83 m 4 Y s 1742 87 m 6 X s 1745 83 m -2 Y s 1742 81 m 6 X s 1750 80 m -2 X s 1748
 77 m 6 Y s 1750 80 m 3 X s 1753 77 m 6 Y s 1750 80 m 3 Y s 1747 83 m 6 X s 1750 80 m -2 Y s 1747 78 m 6 X s 1756 86 m -3 X s 1753 83 m 6 Y s 1756 86 m 2 X s 1758 83 m 6 Y s 1756 86 m 4 Y s 1753 90 m 6 X s 1756 86 m -3 Y s 1753 83 m 6 X s 1761 83 m
 -3 X s 1758 80 m 6 Y s 1761 83 m 3 X s 1764 80 m 6 Y s 1761 83 m 4 Y s 1758 87 m 6 X s 1761 83 m -2 Y s 1758 81 m 6 X s 1766 81 m -2 X s 1764 78 m 6 Y s 1766 81 m 3 X s 1769 78 m 6 Y s 1766 81 m 3 Y s 1763 84 m 6 X s 1766 81 m -2 Y s 1763 79 m 6 X s
 1772 84 m -3 X s 1769 81 m 6 Y s 1772 84 m 2 X s 1774 81 m 6 Y s 1772 84 m 4 Y s 1769 88 m 6 X s 1772 84 m -2 Y s 1769 82 m 6 X s 1777 87 m -3 X s 1774 84 m 6 Y s 1777 87 m 3 X s 1780 84 m 6 Y s 1777 87 m 5 Y s 1774 92 m 6 X s 1777 87 m -3 Y s 1774
 84 m 6 X s 1782 87 m -2 X s 1780 84 m 6 Y s 1782 87 m 3 X s 1785 84 m 6 Y s 1782 87 m 5 Y s 1779 92 m 6 X s 1782 87 m -3 Y s 1779 84 m 6 X s 1788 82 m -3 X s 1785 79 m 6 Y s 1788 82 m 2 X s 1790 79 m 6 Y s 1788 82 m 4 Y s 1785 86 m 6 X s 1788 82 m
 -2 Y s 1785 80 m 6 X s 1793 86 m -3 X s 1790 83 m 6 Y s 1793 86 m 3 X s 1796 83 m 6 Y s 1793 86 m 4 Y s 1790 90 m 6 X s 1793 86 m -3 Y s 1790 83 m 6 X s 1798 87 m -2 X s 1796 84 m 6 Y s 1798 87 m 3 X s 1801 84 m 6 Y s 1798 87 m 5 Y s 1795 92 m 6 X s
 1798 87 m -3 Y s 1795 84 m 6 X s 1804 82 m -3 X s 1801 79 m 6 Y s 1804 82 m 2 X s 1806 79 m 6 Y s 1804 82 m 4 Y s 1801 86 m 6 X s 1804 82 m -2 Y s 1801 80 m 6 X s 1809 82 m -3 X s 1806 79 m 6 Y s 1809 82 m 3 X s 1812 79 m 6 Y s 1809 82 m 4 Y s 1806
 86 m 6 X s 1809 82 m -2 Y s 1806 80 m 6 X s 1814 85 m -2 X s 1812 82 m 6 Y s 1814 85 m 3 X s 1817 82 m 6 Y s 1814 85 m 4 Y s 1811 89 m 6 X s 1814 85 m -3 Y s 1811 82 m 6 X s 1820 81 m -3 X s 1817 78 m 6 Y s 1820 81 m 2 X s 1822 78 m 6 Y s 1820 81 m
 3 Y s 1817 84 m 6 X s 1820 81 m -2 Y s 1817 79 m 6 X s 1825 84 m -3 X s 1822 81 m 6 Y s 1825 84 m 3 X s 1828 81 m 6 Y s 1825 84 m 4 Y s 1822 88 m 6 X s 1825 84 m -2 Y s 1822 82 m 6 X s 1830 84 m -2 X s 1828 81 m 6 Y s 1830 84 m 3 X s 1833 81 m 6 Y s
 1830 84 m 4 Y s 1827 88 m 6 X s 1830 84 m -2 Y s 1827 82 m 6 X s 1836 84 m -3 X s 1833 81 m 6 Y s 1836 84 m 2 X s 1838 81 m 6 Y s 1836 84 m 4 Y s 1833 88 m 6 X s 1836 84 m -2 Y s 1833 82 m 6 X s 1841 82 m -3 X s 1838 79 m 6 Y s 1841 82 m 3 X s 1844
 79 m 6 Y s 1841 82 m 4 Y s 1838 86 m 6 X s 1841 82 m -2 Y s 1838 80 m 6 X s 1846 85 m -2 X s 1844 82 m 6 Y s 1846 85 m 3 X s 1849 82 m 6 Y s 1846 85 m 4 Y s 1843 89 m 6 X s 1846 85 m -3 Y s 1843 82 m 6 X s 1852 85 m -3 X s 1849 82 m 6 Y s 1852 85 m
 2 X s 1854 82 m 6 Y s 1852 85 m 4 Y s 1849 89 m 6 X s 1852 85 m -3 Y s 1849 82 m 6 X s 1857 87 m -3 X s 1854 84 m 6 Y s 1857 87 m 3 X s 1860 84 m 6 Y s 1857 87 m 5 Y s 1854 92 m 6 X s 1857 87 m -3 Y s 1854 84 m 6 X s 1862 80 m -2 X s 1860 77 m 6 Y s
 1862 80 m 3 X s 1865 77 m 6 Y s 1862 80 m 3 Y s 1859 83 m 6 X s 1862 80 m -2 Y s 1859 78 m 6 X s 1868 85 m -3 X s 1865 82 m 6 Y s 1868 85 m 2 X s 1870 82 m 6 Y s 1868 85 m 4 Y s 1865 89 m 6 X s 1868 85 m -3 Y s 1865 82 m 6 X s 1873 86 m -3 X s 1870
 83 m 6 Y s 1873 86 m 3 X s 1876 83 m 6 Y s 1873 86 m 4 Y s 1870 90 m 6 X s 1873 86 m -3 Y s 1870 83 m 6 X s 1878 84 m -2 X s 1876 81 m 6 Y s 1878 84 m 3 X s 1881 81 m 6 Y s 1878 84 m 4 Y s 1875 88 m 6 X s 1878 84 m -2 Y s 1875 82 m 6 X s 1884 87 m
 -3 X s 1881 84 m 6 Y s 1884 87 m 2 X s 1886 84 m 6 Y s 1884 87 m 5 Y s 1881 92 m 6 X s 1884 87 m -3 Y s 1881 84 m 6 X s 1889 87 m -3 X s 1886 84 m 6 Y s 1889 87 m 3 X s 1892 84 m 6 Y s 1889 87 m 5 Y s 1886 92 m 6 X s 1889 87 m -3 Y s 1886 84 m 6 X s
 1894 83 m -2 X s 1892 80 m 6 Y s 1894 83 m 3 X s 1897 80 m 6 Y s 1894 83 m 4 Y s 1891 87 m 6 X s 1894 83 m -2 Y s 1891 81 m 6 X s 1900 92 m -3 X s 1897 89 m 6 Y s 1900 92 m 2 X s 1902 89 m 6 Y s 1900 92 m 5 Y s 1897 97 m 6 X s 1900 92 m -4 Y s 1897
 88 m 6 X s 1905 87 m -3 X s 1902 84 m 6 Y s 1905 87 m 3 X s 1908 84 m 6 Y s 1905 87 m 5 Y s 1902 92 m 6 X s 1905 87 m -3 Y s 1902 84 m 6 X s 1910 87 m -2 X s 1908 84 m 6 Y s 1910 87 m 3 X s 1913 84 m 6 Y s 1910 87 m 5 Y s 1907 92 m 6 X s 1910 87 m
 -3 Y s 1907 84 m 6 X s 1916 87 m -3 X s 1913 84 m 6 Y s 1916 87 m 2 X s 1918 84 m 6 Y s 1916 87 m 5 Y s 1912 92 m 7 X s 1916 87 m -3 Y s 1912 84 m 7 X s 1921 87 m -3 X s 1918 84 m 6 Y s 1921 87 m 3 X s 1924 84 m 6 Y s 1921 87 m 5 Y s 1918 92 m 6 X s
 1921 87 m -3 Y s 1918 84 m 6 X s 1926 88 m -2 X s 1924 85 m 6 Y s 1926 88 m 3 X s 1929 85 m 6 Y s 1926 88 m 5 Y s 1923 93 m 6 X s 1926 88 m -3 Y s 1923 85 m 6 X s 1932 96 m -3 X s 1929 93 m 6 Y s 1932 96 m 2 X s 1934 93 m 6 Y s 1932 96 m 6 Y s 1928
 102 m 7 X s 1932 96 m -4 Y s 1928 92 m 7 X s 1937 97 m -3 X s 1934 94 m 6 Y s 1937 97 m 3 X s 1940 94 m 6 Y s 1937 97 m 6 Y s 1934 103 m 6 X s 1937 97 m -4 Y s 1934 93 m 6 X s 1942 98 m -2 X s 1940 95 m 6 Y s 1942 98 m 3 X s 1945 95 m 6 Y s 1942 98
 m 6 Y s 1939 104 m 6 X s 1942 98 m -4 Y s 1939 94 m 6 X s 1947 99 m -2 X s 1945 96 m 6 Y s 1947 99 m 3 X s 1950 96 m 6 Y s 1947 99 m 6 Y s 1944 105 m 7 X s 1947 99 m -4 Y s 1944 95 m 7 X s 1953 115 m -3 X s 1950 112 m 6 Y s 1953 115 m 2 X s 1955 112
 m 6 Y s 1953 115 m 7 Y s 1950 122 m 6 X s 1953 115 m -6 Y s 1950 109 m 6 X s 1958 113 m -3 X s 1955 110 m 6 Y s 1958 113 m 3 X s 1961 110 m 6 Y s 1958 113 m 7 Y s 1955 120 m 6 X s 1958 113 m -6 Y s 1955 107 m 6 X s 1963 124 m -2 X s 1961 121 m 6 Y s
 1963 124 m 3 X s 1966 121 m 6 Y s 1963 124 m 8 Y s 1960 132 m 7 X s 1963 124 m -7 Y s 1960 117 m 7 X s 1969 127 m -3 X s 1966 124 m 6 Y s 1969 127 m 2 X s 1971 124 m 6 Y s 1969 127 m 8 Y s 1966 135 m 6 X s 1969 127 m -7 Y s 1966 120 m 6 X s 1974 147
 m -3 X s 1971 144 m 6 Y s 1974 147 m 3 X s 1977 144 m 6 Y s 1974 147 m 10 Y s 1971 157 m 6 X s 1974 147 m -8 Y s 1971 139 m 6 X s 1979 165 m -2 X s 1977 162 m 6 Y s 1979 165 m 3 X s 1982 162 m 6 Y s 1979 165 m 10 Y s 1976 175 m 6 X s 1979 165 m -10
 Y s 1976 155 m 6 X s 1985 202 m -3 X s 1982 199 m 7 Y s 1985 202 m 2 X s 1987 199 m 7 Y s 1985 202 m 12 Y s 1982 214 m 6 X s 1985 202 m -10 Y s 1982 192 m 6 X s 1990 224 m -3 X s 1987 221 m 6 Y s 1990 224 m 3 X s 1993 221 m 6 Y s 1990 224 m 13 Y s
 1987 237 m 6 X s 1990 224 m -12 Y s 1987 212 m 6 X s 1995 250 m -2 X s 1993 247 m 6 Y s 1995 250 m 3 X s 1998 247 m 6 Y s 1995 250 m 14 Y s 1992 264 m 6 X s 1995 250 m -12 Y s 1992 238 m 6 X s 2001 285 m -3 X s 1998 282 m 6 Y s 2001 285 m 2 X s 2003
 282 m 6 Y s 2001 285 m 15 Y s 1998 300 m 6 X s 2001 285 m -14 Y s 1998 271 m 6 X s 2006 342 m -3 X s 2003 339 m 6 Y s 2006 342 m 3 X s 2009 339 m 6 Y s 2006 342 m 17 Y s 2003 359 m 6 X s 2006 342 m -16 Y s 2003 326 m 6 X s 2011 399 m -2 X s 2009 396
 m 6 Y s 2011 399 m 3 X s 2014 396 m 6 Y s 2011 399 m 19 Y s 2008 418 m 6 X s 2011 399 m -17 Y s 2008 382 m 6 X s 2017 450 m -3 X s 2014 447 m 6 Y s 2017 450 m 2 X s 2019 447 m 6 Y s 2017 450 m 20 Y s 2014 470 m 6 X s 2017 450 m -19 Y s 2014 431 m 6
 X s 2022 479 m -3 X s 2019 476 m 6 Y s 2022 479 m 3 X s 2025 476 m 6 Y s 2022 479 m 21 Y s 2019 500 m 6 X s 2022 479 m -20 Y s 2019 459 m 6 X s 2027 539 m -2 X s 2025 536 m 6 Y s 2027 539 m 3 X s 2030 536 m 6 Y s 2027 539 m 22 Y s 2024 561 m 6 X s
 2027 539 m -21 Y s 2024 518 m 6 X s 2033 565 m -3 X s 2030 562 m 6 Y s 2033 565 m 2 X s 2035 562 m 6 Y s 2033 565 m 22 Y s 2030 587 m 6 X s 2033 565 m -22 Y s 2030 543 m 6 X s 2038 586 m -3 X s 2035 583 m 6 Y s 2038 586 m 3 X s 2041 583 m 6 Y s 2038
 586 m 23 Y s 2035 609 m 6 X s 2038 586 m -22 Y s 2035 564 m 6 X s 2043 582 m -2 X s 2041 579 m 6 Y s 2043 582 m 3 X s 2046 579 m 6 Y s 2043 582 m 23 Y s 2040 605 m 6 X s 2043 582 m -22 Y s 2040 560 m 6 X s 2049 573 m -3 X s 2046 570 m 6 Y s 2049 573
 m 2 X s 2051 570 m 6 Y s 2049 573 m 23 Y s 2046 596 m 6 X s 2049 573 m -22 Y s 2046 551 m 6 X s 2054 541 m -3 X s 2051 538 m 6 Y s 2054 541 m 3 X s 2057 538 m 6 Y s 2054 541 m 22 Y s 2051 563 m 6 X s 2054 541 m -21 Y s 2051 520 m 6 X s 2059 546 m -2
 X s 2057 543 m 6 Y s 2059 546 m 3 X s 2062 543 m 6 Y s 2059 546 m 23 Y s 2056 569 m 6 X s 2059 546 m -21 Y s 2056 525 m 6 X s 2065 544 m -3 X s 2062 541 m 6 Y s 2065 544 m 2 X s 2067 541 m 6 Y s 2065 544 m 23 Y s 2062 567 m 6 X s 2065 544 m -21 Y s
 2062 523 m 6 X s 2070 486 m -3 X s 2067 483 m 6 Y s 2070 486 m 3 X s 2073 483 m 6 Y s 2070 486 m 21 Y s 2067 507 m 6 X s 2070 486 m -20 Y s 2067 466 m 6 X s 2075 448 m -2 X s 2073 445 m 6 Y s 2075 448 m 3 X s 2078 445 m 6 Y s 2075 448 m 20 Y s 2072
 468 m 6 X s 2075 448 m -19 Y s 2072 429 m 6 X s 2081 420 m -3 X s 2078 417 m 6 Y s 2081 420 m 2 X s 2083 417 m 6 Y s 2081 420 m 19 Y s 2078 439 m 6 X s 2081 420 m -18 Y s 2078 402 m 6 X s 2086 358 m -3 X s 2083 355 m 6 Y s 2086 358 m 3 X s 2089 355
 m 6 Y s 2086 358 m 17 Y s 2083 375 m 6 X s 2086 358 m -17 Y s 2083 341 m 6 X s 2091 308 m -2 X s 2089 305 m 6 Y s 2091 308 m 3 X s 2094 305 m 6 Y s 2091 308 m 15 Y s 2088 323 m 6 X s 2091 308 m -15 Y s 2088 293 m 6 X s 2097 242 m -3 X s 2094 239 m 6
 Y s 2097 242 m 2 X s 2099 239 m 6 Y s 2097 242 m 14 Y s 2094 256 m 6 X s 2097 242 m -12 Y s 2094 230 m 6 X s 2102 245 m -3 X s 2099 242 m 6 Y s 2102 245 m 3 X s 2105 242 m 6 Y s 2102 245 m 14 Y s 2099 259 m 6 X s 2102 245 m -12 Y s 2099 233 m 6 X s
 2107 204 m -2 X s 2105 200 m 7 Y s 2107 204 m 3 X s 2110 200 m 7 Y s 2107 204 m 11 Y s 2104 215 m 6 X s 2107 204 m -11 Y s 2104 193 m 6 X s 2113 174 m -3 X s 2110 171 m 6 Y s 2113 174 m 2 X s 2115 171 m 6 Y s 2113 174 m 11 Y s 2110 185 m 6 X s 2113
 174 m -10 Y s 2110 164 m 6 X s 2118 147 m -3 X s 2115 144 m 6 Y s 2118 147 m 3 X s 2121 144 m 6 Y s 2118 147 m 10 Y s 2115 157 m 6 X s 2118 147 m -8 Y s 2115 139 m 6 X s 2123 123 m -2 X s 2121 120 m 6 Y s 2123 123 m 3 X s 2126 120 m 6 Y s 2123 123 m
 8 Y s 2120 131 m 6 X s 2123 123 m -7 Y s 2120 116 m 6 X s 2129 106 m -3 X s 2126 103 m 6 Y s 2129 106 m 2 X s 2131 103 m 6 Y s 2129 106 m 6 Y s 2126 112 m 6 X s 2129 106 m -6 Y s 2126 100 m 6 X s 2134 109 m -3 X s 2131 106 m 6 Y s 2134 109 m 3 X s
 2137 106 m 6 Y s 2134 109 m 6 Y s 2131 115 m 6 X s 2134 109 m -6 Y s 2131 103 m 6 X s 2139 96 m -2 X s 2137 93 m 6 Y s 2139 96 m 3 X s 2142 93 m 6 Y s 2139 96 m 6 Y s 2136 102 m 6 X s 2139 96 m -4 Y s 2136 92 m 6 X s 2145 88 m -3 X s 2142 85 m 6 Y s
 2145 88 m 2 X s 2147 85 m 6 Y s 2145 88 m 5 Y s 2142 93 m 6 X s 2145 88 m -3 Y s 2142 85 m 6 X s 2150 85 m -3 X s 2147 82 m 6 Y s 2150 85 m 3 X s 2153 82 m 6 Y s 2150 85 m 4 Y s 2147 89 m 6 X s 2150 85 m -3 Y s 2147 82 m 6 X s 2155 92 m -2 X s 2153
 89 m 6 Y s 2155 92 m 3 X s 2158 89 m 6 Y s 2155 92 m 5 Y s 2152 97 m 6 X s 2155 92 m -4 Y s 2152 88 m 6 X s 2161 83 m -3 X s 2158 80 m 6 Y s 2161 83 m 2 X s 2163 80 m 6 Y s 2161 83 m 4 Y s 2158 87 m 6 X s 2161 83 m -2 Y s 2158 81 m 6 X s 2166 79 m
 -3 X s 2163 77 m 5 Y s 2166 79 m 3 X s 2169 77 m 5 Y s 2166 79 m 3 Y s 2163 82 m 6 X s 2166 79 m -1 Y s 2163 78 m 6 X s 2171 79 m -2 X s 2169 77 m 5 Y s 2171 79 m 3 X s 2174 77 m 5 Y s 2171 79 m 3 Y s 2168 82 m 6 X s 2171 79 m -1 Y s 2168 78 m 6 X s
 1 1 1 c black /w 13 def /w2 {w 2 div} def /w3 {w 3 div} def 1644 84 1649 82 1654 84 1660 87 1665 82 1670 86 1676 83 1681 80 1686 83 1692 81 1697 86 1702 89 1708 82 1713 83 1718 85 1724 82 1729 83 1734 81 1740 80 1745 83 1750 80 1756 86 1761 83 1766
 81 1772 84 1777 87 1782 87 1788 82 1793 86 1798 87 1804 82 1809 82 1814 85 1820 81 1825 84 1830 84 1836 84 1841 82 1846 85 1852 85 1857 87 1862 80 1868 85 1873 86 1878 84 1884 87 1889 87 1894 83 1900 92 1905 87 1910 87 1916 87 1921 87 1926 88 1932
 96 1937 97 1942 98 1947 99 1953 115 1958 113 1963 124 1969 127 1974 147 1979 165 1985 202 1990 224 1995 250 2001 285 2006 342 2011 399 2017 450 2022 479 2027 539 2033 565 2038 586 2043 582 2049 573 2054 541 2059 546 2065 544 2070 486 2075 448 2081
 420 2086 358 2091 308 2097 242 2102 245 2107 204 2113 174 2118 147 2123 123 2129 106 2134 109 2139 96 2145 88 2150 85 2155 92 2161 83 2166 79 2171 79 100 { m20} R 0 0 1 c 9 lw 1 1 1 c black 0 0 1 c 1641 84 m cl s 1641 84 m 91 X 5 1 d 149 X 6 1 d 26
 X 6 1 d 5 X 5 2 d 6 2 d 5 2 d 5 4 d 5 6 d 6 8 d 5 11 d 5 15 d 3 8 d 3 10 d 2 11 d 3 13 d 3 13 d 2 15 d 3 16 d 3 18 d 2 18 d 3 20 d 5 43 d 6 45 d 5 47 d 5 45 d 3 22 d 3 20 d 2 19 d 3 18 d 3 15 d 2 13 d 3 10 d 3 8 d 2 5 d 3 3 d 3 -1 d 2 -4 d 3 -6 d 3
 -9 d 2 -12 d 3 -14 d 3 -17 d 2 -18 d 3 -20 d 3 -21 d 5 -45 d 5 -47 d 6 -46 d 5 -43 d 3 -21 d 2 -19 d 3 -18 d 3 -17 d 2 -16 d 3 -14 d 3 -13 d 2 -12 d 3 -11 d 3 -9 d 5 -16 d 5 -12 d 6 -9 d 5 -7 d 5 -5 d 6 -3 d 5 -3 d 5 -2 d 6 -1 d 5 -3 d s[ 12 12] 0
 sd 1 1 1 c black 0 0 1 c 1641 84 m cl s 1641 84 m 117 X 6 1 d 149 X 5 1 d 16 X 6 1 d 5 X 5 1 d 5 1 d 6 1 d 5 1 d 5 2 d 6 2 d 5 3 d 5 3 d 6 4 d 5 4 d 5 4 d 6 4 d 5 4 d 5 4 d 3 2 d 3 2 d 2 2 d 3 1 d 3 1 d 2 1 d 3 1 d 3 1 d 2 X 3 1 d 3 -1 d 5 X 3 -1 d
 2 -1 d 3 -2 d 3 -1 d 2 -2 d 3 -1 d 3 -2 d 5 -4 d 5 -5 d 6 -4 d 5 -5 d 5 -4 d 6 -4 d 5 -3 d 5 -3 d 6 -3 d 5 -2 d 5 -2 d 6 -1 d 5 -2 d 5 -1 d 6 -1 d 5 -1 d 5 X 6 -2 d 2 X 2 -1 d 1 -1 d s black[  ] 0 sd 3 lw 1641 77 m 533 X s 1641 93 m -16 Y s 1654 85
 m -8 Y s 1668 85 m -8 Y s 1681 85 m -8 Y s 1694 85 m -8 Y s 1708 93 m -16 Y s 1721 85 m -8 Y s 1734 85 m -8 Y s 1748 85 m -8 Y s 1761 85 m -8 Y s 1774 93 m -16 Y s 1788 85 m -8 Y s 1801 85 m -8 Y s 1814 85 m -8 Y s 1828 85 m -8 Y s 1841 93 m -16 Y s
 1854 85 m -8 Y s 1868 85 m -8 Y s 1881 85 m -8 Y s 1894 85 m -8 Y s 1908 93 m -16 Y s 1921 85 m -8 Y s 1934 85 m -8 Y s 1947 85 m -8 Y s 1961 85 m -8 Y s 1974 93 m -16 Y s 1987 85 m -8 Y s 2001 85 m -8 Y s 2014 85 m -8 Y s 2027 85 m -8 Y s 2041 93 m
 -16 Y s 2054 85 m -8 Y s 2067 85 m -8 Y s 2081 85 m -8 Y s 2094 85 m -8 Y s 2107 93 m -16 Y s 2121 85 m -8 Y s 2134 85 m -8 Y s 2147 85 m -8 Y s 2161 85 m -8 Y s 2174 93 m -16 Y s 1641 77 m 559 Y s 1658 77 m -17 X s 1650 97 m -9 X s 1650 118 m -9 X
 s 1650 138 m -9 X s 1650 159 m -9 X s 1658 179 m -17 X s 1650 199 m -9 X s 1650 220 m -9 X s 1650 240 m -9 X s 1650 261 m -9 X s 1658 281 m -17 X s 1650 301 m -9 X s 1650 322 m -9 X s 1650 342 m -9 X s 1650 363 m -9 X s 1658 383 m -17 X s 1650 403 m
 -9 X s 1650 424 m -9 X s 1650 444 m -9 X s 1650 465 m -9 X s 1658 485 m -17 X s 1650 505 m -9 X s 1650 526 m -9 X s 1650 546 m -9 X s 1650 567 m -9 X s 1658 587 m -17 X s 1658 587 m -17 X s 1650 608 m -9 X s 1650 628 m -9 X s 1 1 1 c black
 gsave  711 699 1534 7 C 1728.79 670.626 t 0 r /Helvetica findfont 34.8619 sf 0 0 m (Signal + Background) show NC gr 
 gr  gr showpage
end
%%EOF
