%!PS-Adobe-2.0 EPSF-2.0
%%BoundingBox:  0 0 567 536
%%Title: ./plots/s2/pBg_s0s1.eps: Background
%%Creator: ROOT Version 6.13/01
%%CreationDate: Thu Dec 28 11:46:43 2017
%%DocumentNeededResources: ProcSet (FontSetInit)
%%EndComments
%%BeginProlog
80 dict begin
/s {stroke} def /l {lineto} def /m {moveto} def /t {translate} def
/r {rotate} def /rl {roll}  def /R {repeat} def
/d {rlineto} def /rm {rmoveto} def /gr {grestore} def /f {eofill} def
/c {setrgbcolor} def /black {0 setgray} def /sd {setdash} def
/cl {closepath} def /sf {scalefont setfont} def /lw {setlinewidth} def
/box {m dup 0 exch d exch 0 d 0 exch neg d cl} def
/NC{systemdict begin initclip end}def/C{NC box clip newpath}def
/bl {box s} def /bf {gsave box gsave f grestore 1 lw [] 0 sd s grestore} def /Y { 0 exch d} def /X { 0 d} def 
/K {{pop pop 0 moveto} exch kshow} bind def
/ita {/ang 15 def gsave [1 0 ang dup sin exch cos div 1 0 0] concat} def 
/mp {newpath /y exch def /x exch def} def
/side {[w .77 mul w .23 mul] .385 w mul sd w 0 l currentpoint t -144 r} def
/mr {mp x y w2 0 360 arc} def /m24 {mr s} def /m20 {mr f} def
/mb {mp x y w2 add m w2 neg 0 d 0 w neg d w 0 d 0 w d cl} def
/mt {mp x y w2 add m w2 neg w neg d w 0 d cl} def
/w4 {w 4 div} def
/w6 {w 6 div} def
/w8 {w 8 div} def
/m21 {mb f} def /m25 {mb s} def /m22 {mt f} def /m26{mt s} def
/m23 {mp x y w2 sub m w2 w d w neg 0 d cl f} def
/m27 {mp x y w2 add m w3 neg w2 neg d w3 w2 neg d w3 w2 d cl s} def
/m28 {mp x w2 sub y w2 sub w3 add m w3 0 d  0 w3 neg d w3 0 d 0 w3 d w3 0 d  0 w3 d w3 neg 0 d 0 w3 d w3 neg 0 d 0 w3 neg d w3 neg 0 d cl s } def
/m29 {mp gsave x w2 sub y w2 add w3 sub m currentpoint t 4 {side} repeat cl fill gr} def
/m30 {mp gsave x w2 sub y w2 add w3 sub m currentpoint t 4 {side} repeat cl s gr} def
/m31 {mp x y w2 sub m 0 w d x w2 sub y m w 0 d x w2 sub y w2 add m w w neg d x w2 sub y w2 sub m w w d s} def
/m32 {mp x y w2 sub m w2 w d w neg 0 d cl s} def
/m33 {mp x y w2 add m w3 neg w2 neg d w3 w2 neg d w3 w2 d cl f} def
/m34 {mp x w2 sub y w2 sub w3 add m w3 0 d  0 w3 neg d w3 0 d 0 w3 d w3 0 d  0 w3 d w3 neg 0 d 0 w3 d w3 neg 0 d 0 w3 neg d w3 neg 0 d cl f } def
/m35 {mp x y w2 add m w2 neg w2 neg d w2 w2 neg d w2 w2 d w2 neg w2 d x y w2 sub m 0 w d x w2 sub y m w 0 d s} def
/m36 {mb x w2 sub y w2 add m w w neg d x w2 sub y w2 sub m w w d s} def
/m37 {mp x y m w4 neg w2 d w4 neg w2 neg d w2 0 d  w4 neg w2 neg d w2 0 d w4 neg w2 d w2 0 d w4 neg w2 d w4 neg w2 neg d cl s} def
/m38 {mp x w4 sub y w2 add m w4 neg w4 neg d 0 w2 neg d w4 w4 neg d w2 0 d w4 w4 d 0 w2 d w4 neg w4 d w2 neg 0 d x y w2 sub m 0 w d x w2 sub y m w 0 d cl s} def
/m39 {mp x y m w4 neg w2 d w4 neg w2 neg d w2 0 d  w4 neg w2 neg d w2 0 d w4 neg w2 d w2 0 d w4 neg w2 d w4 neg w2 neg d cl f} def
/m40 {mp x y m w4 w2 d w4 w4 neg d w2 neg w4 neg d w2 w4 neg d w4 neg w4 neg d w4 neg w2 d w4 neg w2 neg d w4 neg w4 d w2 w4 d w2 neg w4 d w4 w4 d w4 w2 neg d cl s} def
/m41 {mp x y m w4 w2 d w4 w4 neg d w2 neg w4 neg d w2 w4 neg d w4 neg w4 neg d w4 neg w2 d w4 neg w2 neg d w4 neg w4 d w2 w4 d w2 neg w4 d w4 w4 d w4 w2 neg d cl f} def
/m42 {mp x y w2 add m w8 neg w2 -3 4 div mul d w2 -3 4 div mul w8 neg d w2 3 4 div mul w8 neg d w8 w2 -3 4 div mul d w8 w2 3 4 div mul d w2 3 4 div mul w8 d w2 -3 4 div mul w8 d w8 neg w2 3 4 div mul d cl s} def
/m43 {mp x y w2 add m w8 neg w2 -3 4 div mul d w2 -3 4 div mul w8 neg d w2 3 4 div mul w8 neg d w8 w2 -3 4 div mul d w8 w2 3 4 div mul d w2 3 4 div mul w8 d w2 -3 4 div mul w8 d w8 neg w2 3 4 div mul d cl f} def
/m44 {mp x y m w6 neg w2 d w2 2 3 div mul 0 d w6 neg w2 neg d w2 w6 d 0 w2 -2 3 div mul d w2 neg w6 d w6 w2 neg d w2 -2 3 div mul 0 d w6 w2 d w2 neg w6 neg d 0 w2 2 3 div mul d w2 w6 neg d cl s} def
/m45 {mp x y m w6 neg w2 d w2 2 3 div mul 0 d w6 neg w2 neg d w2 w6 d 0 w2 -2 3 div mul d w2 neg w6 d w6 w2 neg d w2 -2 3 div mul 0 d w6 w2 d w2 neg w6 neg d 0 w2 2 3 div mul d w2 w6 neg d cl f} def
/m46 {mp x y w4 add m w4 neg w4 d w4 neg w4 neg d  w4 w4 neg d w4 neg w4 neg d w4 w4 neg d w4 w4 d w4 w4 neg d w4 w4 d w4 neg w4 d w4 w4 d w4 neg w4 d w4 neg w4 neg d cl s} def
/m47 {mp x y w4 add m w4 neg w4 d w4 neg w4 neg d w4 w4 neg d w4 neg w4 neg d  w4 w4 neg d w4 w4 d w4 w4 neg d w4 w4 d w4 neg w4 d w4 w4 d w4 neg w4 d w4 neg w4 neg d cl f} def
/m48 {mp x y w4 add m w4 neg w4 d w4 neg w4 neg d w4 w4 neg d  w4 neg w4 neg d w4 w4 neg d w4 w4 d w4 w4 neg d w4 w4 d w4 neg w4 d w4 w4 d w4 neg w4 d w4 neg w4 neg d  w4 w4 neg d w4 neg w4 neg d w4 neg w4 d w4 w4 d cl f} def
/m49 {mp x w2 sub w3 add y w2 sub w3 add m  0 w3 neg d w3 0 d 0 w3 d w3 0 d 0 w3 d w3 neg 0 d 0 w3 d w3 neg 0 d 0 w3 neg d w3 neg 0 d 0 w3 neg d w3 0 d 0 w3 d w3 0 d 0 w3 neg d w3 neg 0 d cl f } def
/m2 {mp x y w2 sub m 0 w d x w2 sub y m w 0 d s} def
/m5 {mp x w2 sub y w2 sub m w w d x w2 sub y w2 add m w w neg d s} def
%%IncludeResource: ProcSet (FontSetInit)
%%IncludeResource: font Times-Roman
%%IncludeResource: font Times-Italic
%%IncludeResource: font Times-Bold
%%IncludeResource: font Times-BoldItalic
%%IncludeResource: font Helvetica
%%IncludeResource: font Helvetica-Oblique
%%IncludeResource: font Helvetica-Bold
%%IncludeResource: font Helvetica-BoldOblique
%%IncludeResource: font Courier
%%IncludeResource: font Courier-Oblique
%%IncludeResource: font Courier-Bold
%%IncludeResource: font Courier-BoldOblique
%%IncludeResource: font Symbol
%%IncludeResource: font ZapfDingbats
/reEncode {exch findfont dup length dict begin {1 index /FID eq  {pop pop} {def} ifelse } forall /Encoding exch def currentdict end dup /FontName get exch definefont pop } def [/Times-Bold /Times-Italic /Times-BoldItalic /Helvetica /Helvetica-Oblique
 /Helvetica-Bold /Helvetica-BoldOblique /Courier /Courier-Oblique /Courier-Bold /Courier-BoldOblique /Times-Roman /AvantGarde-Book /AvantGarde-BookOblique /AvantGarde-Demi /AvantGarde-DemiOblique /Bookman-Demi /Bookman-DemiItalic /Bookman-Light
 /Bookman-LightItalic /Helvetica-Narrow /Helvetica-Narrow-Bold /Helvetica-Narrow-BoldOblique /Helvetica-Narrow-Oblique /NewCenturySchlbk-Roman /NewCenturySchlbk-Bold /NewCenturySchlbk-BoldItalic /NewCenturySchlbk-Italic /Palatino-Bold
 /Palatino-BoldItalic /Palatino-Italic /Palatino-Roman ] {ISOLatin1Encoding reEncode } forall
%%EndProlog
%%BeginSetup
%%EndSetup
newpath  gsave  .25 .25 scale  gsave  0 0 t black[  ] 0 sd 3 lw 1 1 1 c 2268 2145 0 0 bf black 1 1 1 c 1814 1716 227 214 bf black 1814 1716 227 214 bl 227 214 m 1814 X s 227 266 m -52 Y s 272 240 m -26 Y s 317 240 m -26 Y s 363 240 m -26 Y s 408 240
 m -26 Y s 454 266 m -52 Y s 499 240 m -26 Y s 544 240 m -26 Y s 590 240 m -26 Y s 635 240 m -26 Y s 680 266 m -52 Y s 726 240 m -26 Y s 771 240 m -26 Y s 816 240 m -26 Y s 862 240 m -26 Y s 907 266 m -52 Y s 952 240 m -26 Y s 998 240 m -26 Y s 1043
 240 m -26 Y s 1089 240 m -26 Y s 1134 266 m -52 Y s 1179 240 m -26 Y s 1225 240 m -26 Y s 1270 240 m -26 Y s 1315 240 m -26 Y s 1361 266 m -52 Y s 1406 240 m -26 Y s 1451 240 m -26 Y s 1497 240 m -26 Y s 1542 240 m -26 Y s 1587 266 m -52 Y s 1633
 240 m -26 Y s 1678 240 m -26 Y s 1723 240 m -26 Y s 1769 240 m -26 Y s 1814 266 m -52 Y s 1860 240 m -26 Y s 1905 240 m -26 Y s 1950 240 m -26 Y s 1996 240 m -26 Y s 2041 266 m -52 Y s
 gsave  2268 2145 0 0 C 154.824 145.717 t 0 r /Helvetica findfont 68.3047 sf 0 0 m (5.25) show NC gr 
 gsave  2268 2145 0 0 C 364.292 145.717 t 0 r /Helvetica findfont 68.3047 sf 0 0 m (5.255) show NC gr 
 gsave  2268 2145 0 0 C 610.189 145.717 t 0 r /Helvetica findfont 68.3047 sf 0 0 m (5.26) show NC gr 
 gsave  2268 2145 0 0 C 819.657 145.717 t 0 r /Helvetica findfont 68.3047 sf 0 0 m (5.265) show NC gr 
 gsave  2268 2145 0 0 C 1065.55 145.717 t 0 r /Helvetica findfont 68.3047 sf 0 0 m (5.27) show NC gr 
 gsave  2268 2145 0 0 C 1270.47 145.717 t 0 r /Helvetica findfont 68.3047 sf 0 0 m (5.275) show NC gr 
 gsave  2268 2145 0 0 C 1516.36 145.717 t 0 r /Helvetica findfont 68.3047 sf 0 0 m (5.28) show NC gr 
 gsave  2268 2145 0 0 C 1725.83 145.717 t 0 r /Helvetica findfont 68.3047 sf 0 0 m (5.285) show NC gr 
 gsave  2268 2145 0 0 C 1971.73 145.717 t 0 r /Helvetica findfont 68.3047 sf 0 0 m (5.29) show NC gr 
 gsave  2268 2145 0 0 C 1552.79 72.8584 t 0 r /Helvetica findfont 68.3047 sf 0 0 m (m_bc \(GeV/c^2\)) show NC gr  227 214 m 1716 Y s 281 214 m -54 X s 254 271 m -27 X s 254 328 m -27 X s 254 385 m -27 X s 281 441 m -54 X s 254 498 m -27 X s 254 555 m
 -27 X s 254 612 m -27 X s 281 668 m -54 X s 254 725 m -27 X s 254 782 m -27 X s 254 839 m -27 X s 281 895 m -54 X s 254 952 m -27 X s 254 1009 m -27 X s 254 1066 m -27 X s 281 1122 m -54 X s 254 1179 m -27 X s 254 1236 m -27 X s 254 1293 m -27 X s
 281 1349 m -54 X s 254 1406 m -27 X s 254 1463 m -27 X s 254 1519 m -27 X s 281 1576 m -54 X s 254 1633 m -27 X s 254 1690 m -27 X s 254 1746 m -27 X s 281 1803 m -54 X s 281 1803 m -54 X s 254 1860 m -27 X s 254 1917 m -27 X s
 gsave  2268 2145 0 0 C 177.592 191.253 t 0 r /Helvetica findfont 68.3047 sf 0 0 m (0) show NC gr 
 gsave  2268 2145 0 0 C 141.163 414.382 t 0 r /Helvetica findfont 68.3047 sf 0 0 m (20) show NC gr 
 gsave  2268 2145 0 0 C 141.163 642.064 t 0 r /Helvetica findfont 68.3047 sf 0 0 m (40) show NC gr 
 gsave  2268 2145 0 0 C 141.163 869.747 t 0 r /Helvetica findfont 68.3047 sf 0 0 m (60) show NC gr 
 gsave  2268 2145 0 0 C 141.163 1097.43 t 0 r /Helvetica findfont 68.3047 sf 0 0 m (80) show NC gr 
 gsave  2268 2145 0 0 C 100.18 1325.11 t 0 r /Helvetica findfont 68.3047 sf 0 0 m (100) show NC gr 
 gsave  2268 2145 0 0 C 100.18 1552.79 t 0 r /Helvetica findfont 68.3047 sf 0 0 m (120) show NC gr 
 gsave  2268 2145 0 0 C 100.18 1775.92 t 0 r /Helvetica findfont 68.3047 sf 0 0 m (140) show NC gr 
 gsave  2268 2145 0 0 C 50.0901 1097.43 t 90 r /Helvetica findfont 68.3047 sf 0 0 m (Events / \( 0.0004 GeV/c^2 \)) show NC gr  1 1 1 c black
 gsave  2268 2145 0 0 C 856.086 2044.59 t 0 r /Helvetica findfont 104.734 sf 0 0 m (Background) show NC gr  236 294 m -9 X s 227 285 m 18 Y s 236 294 m 9 X s 245 285 m 18 Y s 236 294 m 43 Y s 227 337 m 18 X s 236 294 m -29 Y s 227 265 m 18 X s 254
 396 m -9 X s 245 387 m 18 Y s 254 396 m 9 X s 263 387 m 18 Y s 254 396 m 58 Y s 245 454 m 18 X s 254 396 m -45 Y s 245 351 m 18 X s 272 373 m -9 X s 263 364 m 18 Y s 272 373 m 9 X s 281 364 m 18 Y s 272 373 m 55 Y s 263 428 m 18 X s 272 373 m -42 Y
 s 263 331 m 18 X s 290 339 m -9 X s 281 330 m 18 Y s 290 339 m 9 X s 299 330 m 18 Y s 290 339 m 50 Y s 281 389 m 18 X s 290 339 m -37 Y s 281 302 m 18 X s 308 430 m -9 X s 299 421 m 18 Y s 308 430 m 9 X s 317 421 m 18 Y s 308 430 m 62 Y s 299 492 m
 19 X s 308 430 m -49 Y s 299 381 m 19 X s 327 328 m -10 X s 317 319 m 18 Y s 327 328 m 9 X s 336 319 m 18 Y s 327 328 m 48 Y s 317 376 m 19 X s 327 328 m -35 Y s 317 293 m 19 X s 345 283 m -9 X s 336 273 m 19 Y s 345 283 m 9 X s 354 273 m 19 Y s 345
 283 m 40 Y s 336 323 m 18 X s 345 283 m -27 Y s 336 256 m 18 X s 363 407 m -9 X s 354 398 m 18 Y s 363 407 m 9 X s 372 398 m 18 Y s 363 407 m 59 Y s 354 466 m 18 X s 363 407 m -46 Y s 354 361 m 18 X s 381 328 m -9 X s 372 319 m 18 Y s 381 328 m 9 X
 s 390 319 m 18 Y s 381 328 m 48 Y s 372 376 m 18 X s 381 328 m -35 Y s 372 293 m 18 X s 399 453 m -9 X s 390 444 m 18 Y s 399 453 m 9 X s 408 444 m 18 Y s 399 453 m 64 Y s 390 517 m 18 X s 399 453 m -52 Y s 390 401 m 18 X s 417 305 m -9 X s 408 296
 m 18 Y s 417 305 m 9 X s 426 296 m 18 Y s 417 305 m 45 Y s 408 350 m 18 X s 417 305 m -31 Y s 408 274 m 18 X s 435 362 m -9 X s 426 353 m 18 Y s 435 362 m 9 X s 444 353 m 18 Y s 435 362 m 53 Y s 426 415 m 19 X s 435 362 m -40 Y s 426 322 m 19 X s
 454 373 m -10 X s 444 364 m 18 Y s 454 373 m 9 X s 463 364 m 18 Y s 454 373 m 55 Y s 444 428 m 19 X s 454 373 m -42 Y s 444 331 m 19 X s 472 385 m -9 X s 463 376 m 18 Y s 472 385 m 9 X s 481 376 m 18 Y s 472 385 m 56 Y s 463 441 m 18 X s 472 385 m
 -44 Y s 463 341 m 18 X s 490 339 m -9 X s 481 330 m 18 Y s 490 339 m 9 X s 499 330 m 18 Y s 490 339 m 50 Y s 481 389 m 18 X s 490 339 m -37 Y s 481 302 m 18 X s 508 362 m -9 X s 499 353 m 18 Y s 508 362 m 9 X s 517 353 m 18 Y s 508 362 m 53 Y s 499
 415 m 18 X s 508 362 m -40 Y s 499 322 m 18 X s 526 328 m -9 X s 517 319 m 18 Y s 526 328 m 9 X s 535 319 m 18 Y s 526 328 m 48 Y s 517 376 m 18 X s 526 328 m -35 Y s 517 293 m 18 X s 544 385 m -9 X s 535 376 m 18 Y s 544 385 m 9 X s 553 376 m 18 Y
 s 544 385 m 56 Y s 535 441 m 18 X s 544 385 m -44 Y s 535 341 m 18 X s 562 373 m -9 X s 553 364 m 18 Y s 562 373 m 9 X s 571 364 m 18 Y s 562 373 m 55 Y s 553 428 m 19 X s 562 373 m -42 Y s 553 331 m 19 X s 581 419 m -10 X s 571 410 m 18 Y s 581 419
 m 9 X s 590 410 m 18 Y s 581 419 m 60 Y s 571 479 m 19 X s 581 419 m -48 Y s 571 371 m 19 X s 599 317 m -9 X s 590 308 m 18 Y s 599 317 m 9 X s 608 308 m 18 Y s 599 317 m 46 Y s 590 363 m 18 X s 599 317 m -34 Y s 590 283 m 18 X s 617 407 m -9 X s
 608 398 m 18 Y s 617 407 m 9 X s 626 398 m 18 Y s 617 407 m 59 Y s 608 466 m 18 X s 617 407 m -46 Y s 608 361 m 18 X s 635 407 m -9 X s 626 398 m 18 Y s 635 407 m 9 X s 644 398 m 18 Y s 635 407 m 59 Y s 626 466 m 18 X s 635 407 m -46 Y s 626 361 m
 18 X s 653 328 m -9 X s 644 319 m 18 Y s 653 328 m 9 X s 662 319 m 18 Y s 653 328 m 48 Y s 644 376 m 18 X s 653 328 m -35 Y s 644 293 m 18 X s 671 419 m -9 X s 662 410 m 18 Y s 671 419 m 9 X s 680 410 m 18 Y s 671 419 m 60 Y s 662 479 m 18 X s 671
 419 m -48 Y s 662 371 m 18 X s 689 396 m -9 X s 680 387 m 18 Y s 689 396 m 9 X s 698 387 m 18 Y s 689 396 m 58 Y s 680 454 m 18 X s 689 396 m -45 Y s 680 351 m 18 X s 708 407 m -10 X s 698 398 m 18 Y s 708 407 m 9 X s 717 398 m 18 Y s 708 407 m 59 Y
 s 698 466 m 19 X s 708 407 m -46 Y s 698 361 m 19 X s 726 351 m -9 X s 717 342 m 18 Y s 726 351 m 9 X s 735 342 m 18 Y s 726 351 m 51 Y s 717 402 m 18 X s 726 351 m -39 Y s 717 312 m 18 X s 744 362 m -9 X s 735 353 m 18 Y s 744 362 m 9 X s 753 353 m
 18 Y s 744 362 m 53 Y s 735 415 m 18 X s 744 362 m -40 Y s 735 322 m 18 X s 762 362 m -9 X s 753 353 m 18 Y s 762 362 m 9 X s 771 353 m 18 Y s 762 362 m 53 Y s 753 415 m 18 X s 762 362 m -40 Y s 753 322 m 18 X s 780 339 m -9 X s 771 330 m 18 Y s 780
 339 m 9 X s 789 330 m 18 Y s 780 339 m 50 Y s 771 389 m 18 X s 780 339 m -37 Y s 771 302 m 18 X s 798 430 m -9 X s 789 421 m 18 Y s 798 430 m 9 X s 807 421 m 18 Y s 798 430 m 62 Y s 789 492 m 18 X s 798 430 m -49 Y s 789 381 m 18 X s 816 339 m -9 X
 s 807 330 m 18 Y s 816 339 m 9 X s 825 330 m 18 Y s 816 339 m 50 Y s 807 389 m 18 X s 816 339 m -37 Y s 807 302 m 18 X s 835 419 m -10 X s 825 410 m 18 Y s 835 419 m 9 X s 844 410 m 18 Y s 835 419 m 60 Y s 825 479 m 19 X s 835 419 m -48 Y s 825 371
 m 19 X s 853 317 m -9 X s 844 308 m 18 Y s 853 317 m 9 X s 862 308 m 18 Y s 853 317 m 46 Y s 844 363 m 18 X s 853 317 m -34 Y s 844 283 m 18 X s 871 385 m -9 X s 862 376 m 18 Y s 871 385 m 9 X s 880 376 m 18 Y s 871 385 m 56 Y s 862 441 m 18 X s 871
 385 m -44 Y s 862 341 m 18 X s 889 453 m -9 X s 880 444 m 18 Y s 889 453 m 9 X s 898 444 m 18 Y s 889 453 m 64 Y s 880 517 m 18 X s 889 453 m -52 Y s 880 401 m 18 X s 907 441 m -9 X s 898 432 m 19 Y s 907 441 m 9 X s 916 432 m 19 Y s 907 441 m 63 Y
 s 898 504 m 18 X s 907 441 m -50 Y s 898 391 m 18 X s 925 396 m -9 X s 916 387 m 18 Y s 925 396 m 9 X s 934 387 m 18 Y s 925 396 m 58 Y s 916 454 m 18 X s 925 396 m -45 Y s 916 351 m 18 X s 943 328 m -9 X s 934 319 m 18 Y s 943 328 m 9 X s 952 319 m
 18 Y s 943 328 m 48 Y s 934 376 m 18 X s 943 328 m -35 Y s 934 293 m 18 X s 962 385 m -10 X s 952 376 m 18 Y s 962 385 m 9 X s 971 376 m 18 Y s 962 385 m 56 Y s 952 441 m 19 X s 962 385 m -44 Y s 952 341 m 19 X s 980 351 m -9 X s 971 342 m 18 Y s
 980 351 m 9 X s 989 342 m 18 Y s 980 351 m 51 Y s 971 402 m 18 X s 980 351 m -39 Y s 971 312 m 18 X s 998 441 m -9 X s 989 432 m 19 Y s 998 441 m 9 X s 1007 432 m 19 Y s 998 441 m 63 Y s 989 504 m 18 X s 998 441 m -50 Y s 989 391 m 18 X s 1016 362 m
 -9 X s 1007 353 m 18 Y s 1016 362 m 9 X s 1025 353 m 18 Y s 1016 362 m 53 Y s 1007 415 m 18 X s 1016 362 m -40 Y s 1007 322 m 18 X s 1034 430 m -9 X s 1025 421 m 18 Y s 1034 430 m 9 X s 1043 421 m 18 Y s 1034 430 m 62 Y s 1025 492 m 18 X s 1034 430
 m -49 Y s 1025 381 m 18 X s 1052 396 m -9 X s 1043 387 m 18 Y s 1052 396 m 9 X s 1061 387 m 18 Y s 1052 396 m 58 Y s 1043 454 m 18 X s 1052 396 m -45 Y s 1043 351 m 18 X s 1070 339 m -9 X s 1061 330 m 18 Y s 1070 339 m 9 X s 1079 330 m 18 Y s 1070
 339 m 50 Y s 1061 389 m 18 X s 1070 339 m -37 Y s 1061 302 m 18 X s 1089 453 m -10 X s 1079 444 m 18 Y s 1089 453 m 9 X s 1098 444 m 18 Y s 1089 453 m 64 Y s 1079 517 m 19 X s 1089 453 m -52 Y s 1079 401 m 19 X s 1107 396 m -9 X s 1098 387 m 18 Y s
 1107 396 m 9 X s 1116 387 m 18 Y s 1107 396 m 58 Y s 1098 454 m 18 X s 1107 396 m -45 Y s 1098 351 m 18 X s 1125 373 m -9 X s 1116 364 m 18 Y s 1125 373 m 9 X s 1134 364 m 18 Y s 1125 373 m 55 Y s 1116 428 m 18 X s 1125 373 m -42 Y s 1116 331 m 18 X
 s 1143 373 m -9 X s 1134 364 m 18 Y s 1143 373 m 9 X s 1152 364 m 18 Y s 1143 373 m 55 Y s 1134 428 m 18 X s 1143 373 m -42 Y s 1134 331 m 18 X s 1161 396 m -9 X s 1152 387 m 18 Y s 1161 396 m 9 X s 1170 387 m 18 Y s 1161 396 m 58 Y s 1152 454 m 18
 X s 1161 396 m -45 Y s 1152 351 m 18 X s 1179 430 m -9 X s 1170 421 m 18 Y s 1179 430 m 9 X s 1188 421 m 18 Y s 1179 430 m 62 Y s 1170 492 m 18 X s 1179 430 m -49 Y s 1170 381 m 18 X s 1197 441 m -9 X s 1188 432 m 19 Y s 1197 441 m 9 X s 1206 432 m
 19 Y s 1197 441 m 63 Y s 1188 504 m 18 X s 1197 441 m -50 Y s 1188 391 m 18 X s 1215 396 m -9 X s 1206 387 m 18 Y s 1215 396 m 10 X s 1225 387 m 18 Y s 1215 396 m 58 Y s 1206 454 m 19 X s 1215 396 m -45 Y s 1206 351 m 19 X s 1234 475 m -9 X s 1225
 466 m 19 Y s 1234 475 m 9 X s 1243 466 m 19 Y s 1234 475 m 67 Y s 1225 542 m 18 X s 1234 475 m -54 Y s 1225 421 m 18 X s 1252 646 m -9 X s 1243 637 m 18 Y s 1252 646 m 9 X s 1261 637 m 18 Y s 1252 646 m 82 Y s 1243 728 m 18 X s 1252 646 m -70 Y s
 1243 576 m 18 X s 1270 510 m -9 X s 1261 500 m 19 Y s 1270 510 m 9 X s 1279 500 m 19 Y s 1270 510 m 69 Y s 1261 579 m 18 X s 1270 510 m -58 Y s 1261 452 m 18 X s 1288 521 m -9 X s 1279 512 m 18 Y s 1288 521 m 9 X s 1297 512 m 18 Y s 1288 521 m 71 Y
 s 1279 592 m 18 X s 1288 521 m -59 Y s 1279 462 m 18 X s 1306 521 m -9 X s 1297 512 m 18 Y s 1306 521 m 9 X s 1315 512 m 18 Y s 1306 521 m 71 Y s 1297 592 m 18 X s 1306 521 m -59 Y s 1297 462 m 18 X s 1324 623 m -9 X s 1315 614 m 18 Y s 1324 623 m 9
 X s 1333 614 m 18 Y s 1324 623 m 80 Y s 1315 703 m 18 X s 1324 623 m -68 Y s 1315 555 m 18 X s 1342 532 m -9 X s 1333 523 m 18 Y s 1342 532 m 10 X s 1352 523 m 18 Y s 1342 532 m 72 Y s 1333 604 m 19 X s 1342 532 m -59 Y s 1333 473 m 19 X s 1361 748
 m -9 X s 1352 739 m 18 Y s 1361 748 m 9 X s 1370 739 m 18 Y s 1361 748 m 90 Y s 1352 838 m 18 X s 1361 748 m -78 Y s 1352 670 m 18 X s 1379 555 m -9 X s 1370 546 m 18 Y s 1379 555 m 9 X s 1388 546 m 18 Y s 1379 555 m 74 Y s 1370 629 m 18 X s 1379
 555 m -62 Y s 1370 493 m 18 X s 1397 793 m -9 X s 1388 784 m 18 Y s 1397 793 m 9 X s 1406 784 m 18 Y s 1397 793 m 93 Y s 1388 886 m 18 X s 1397 793 m -81 Y s 1388 712 m 18 X s 1415 975 m -9 X s 1406 966 m 18 Y s 1415 975 m 9 X s 1424 966 m 18 Y s
 1415 975 m 104 Y s 1406 1079 m 18 X s 1415 975 m -93 Y s 1406 882 m 18 X s 1433 816 m -9 X s 1424 807 m 18 Y s 1433 816 m 9 X s 1442 807 m 18 Y s 1433 816 m 94 Y s 1424 910 m 18 X s 1433 816 m -82 Y s 1424 734 m 18 X s 1451 918 m -9 X s 1442 909 m
 18 Y s 1451 918 m 9 X s 1460 909 m 18 Y s 1451 918 m 101 Y s 1442 1019 m 18 X s 1451 918 m -89 Y s 1442 829 m 18 X s 1469 918 m -9 X s 1460 909 m 18 Y s 1469 918 m 10 X s 1479 909 m 18 Y s 1469 918 m 101 Y s 1460 1019 m 19 X s 1469 918 m -89 Y s
 1460 829 m 19 X s 1488 1156 m -9 X s 1479 1147 m 18 Y s 1488 1156 m 9 X s 1497 1147 m 18 Y s 1488 1156 m 116 Y s 1479 1272 m 18 X s 1488 1156 m -103 Y s 1479 1053 m 18 X s 1506 1327 m -9 X s 1497 1317 m 19 Y s 1506 1327 m 9 X s 1515 1317 m 19 Y s
 1506 1327 m 124 Y s 1497 1451 m 18 X s 1506 1327 m -113 Y s 1497 1214 m 18 X s 1524 1247 m -9 X s 1515 1238 m 18 Y s 1524 1247 m 9 X s 1533 1238 m 18 Y s 1524 1247 m 120 Y s 1515 1367 m 18 X s 1524 1247 m -108 Y s 1515 1139 m 18 X s 1542 1383 m -9 X
 s 1533 1374 m 18 Y s 1542 1383 m 9 X s 1551 1374 m 18 Y s 1542 1383 m 121 Y s 1533 1504 m 18 X s 1542 1383 m -109 Y s 1533 1274 m 18 X s 1560 1327 m -9 X s 1551 1317 m 19 Y s 1560 1327 m 9 X s 1569 1317 m 19 Y s 1560 1327 m 124 Y s 1551 1451 m 18 X
 s 1560 1327 m -113 Y s 1551 1214 m 18 X s 1578 1542 m -9 X s 1569 1533 m 18 Y s 1578 1542 m 9 X s 1587 1533 m 18 Y s 1578 1542 m 129 Y s 1569 1671 m 18 X s 1578 1542 m -117 Y s 1569 1425 m 18 X s 1596 1554 m -9 X s 1587 1544 m 19 Y s 1596 1554 m 10
 X s 1606 1544 m 19 Y s 1596 1554 m 129 Y s 1587 1683 m 19 X s 1596 1554 m -118 Y s 1587 1436 m 19 X s 1615 1622 m -9 X s 1606 1613 m 18 Y s 1615 1622 m 9 X s 1624 1613 m 18 Y s 1615 1622 m 132 Y s 1606 1754 m 18 X s 1615 1622 m -121 Y s 1606 1501 m
 18 X s 1633 1712 m -9 X s 1624 1703 m 19 Y s 1633 1712 m 9 X s 1642 1703 m 19 Y s 1633 1712 m 137 Y s 1624 1849 m 18 X s 1633 1712 m -124 Y s 1624 1588 m 18 X s 1651 1236 m -9 X s 1642 1227 m 18 Y s 1651 1236 m 9 X s 1660 1227 m 18 Y s 1651 1236 m
 119 Y s 1642 1355 m 18 X s 1651 1236 m -108 Y s 1642 1128 m 18 X s 1669 1327 m -9 X s 1660 1317 m 19 Y s 1669 1327 m 9 X s 1678 1317 m 19 Y s 1669 1327 m 124 Y s 1660 1451 m 18 X s 1669 1327 m -113 Y s 1660 1214 m 18 X s 1687 1293 m -9 X s 1678 1283
 m 19 Y s 1687 1293 m 9 X s 1696 1283 m 19 Y s 1687 1293 m 122 Y s 1678 1415 m 18 X s 1687 1293 m -111 Y s 1678 1182 m 18 X s 1705 1383 m -9 X s 1696 1374 m 18 Y s 1705 1383 m 9 X s 1714 1374 m 18 Y s 1705 1383 m 121 Y s 1696 1504 m 18 X s 1705 1383
 m -109 Y s 1696 1274 m 18 X s 1723 1304 m -9 X s 1714 1295 m 18 Y s 1723 1304 m 10 X s 1733 1295 m 18 Y s 1723 1304 m 123 Y s 1714 1427 m 19 X s 1723 1304 m -111 Y s 1714 1193 m 19 X s 1742 1100 m -9 X s 1733 1091 m 18 Y s 1742 1100 m 9 X s 1751
 1091 m 18 Y s 1742 1100 m 112 Y s 1732 1212 m 19 X s 1742 1100 m -100 Y s 1732 1000 m 19 X s 1760 873 m -9 X s 1751 864 m 18 Y s 1760 873 m 9 X s 1769 864 m 18 Y s 1760 873 m 98 Y s 1751 971 m 18 X s 1760 873 m -87 Y s 1751 786 m 18 X s 1778 827 m
 -9 X s 1769 818 m 18 Y s 1778 827 m 9 X s 1787 818 m 18 Y s 1778 827 m 96 Y s 1769 923 m 18 X s 1778 827 m -83 Y s 1769 744 m 18 X s 1796 714 m -9 X s 1787 705 m 18 Y s 1796 714 m 9 X s 1805 705 m 18 Y s 1796 714 m 87 Y s 1787 801 m 18 X s 1796 714
 m -75 Y s 1787 639 m 18 X s 1814 600 m -9 X s 1805 591 m 18 Y s 1814 600 m 9 X s 1823 591 m 18 Y s 1814 600 m 78 Y s 1805 678 m 18 X s 1814 600 m -66 Y s 1805 534 m 18 X s 1832 578 m -9 X s 1823 569 m 18 Y s 1832 578 m 9 X s 1841 569 m 18 Y s 1832
 578 m 76 Y s 1823 654 m 18 X s 1832 578 m -64 Y s 1823 514 m 18 X s 1850 510 m -9 X s 1841 500 m 19 Y s 1850 510 m 10 X s 1860 500 m 19 Y s 1850 510 m 69 Y s 1841 579 m 19 X s 1850 510 m -58 Y s 1841 452 m 19 X s 1869 453 m -9 X s 1860 444 m 18 Y s
 1869 453 m 9 X s 1878 444 m 18 Y s 1869 453 m 64 Y s 1859 517 m 19 X s 1869 453 m -52 Y s 1859 401 m 19 X s 1887 396 m -9 X s 1878 387 m 18 Y s 1887 396 m 9 X s 1896 387 m 18 Y s 1887 396 m 58 Y s 1878 454 m 18 X s 1887 396 m -45 Y s 1878 351 m 18 X
 s 1905 351 m -9 X s 1896 342 m 18 Y s 1905 351 m 9 X s 1914 342 m 18 Y s 1905 351 m 51 Y s 1896 402 m 18 X s 1905 351 m -39 Y s 1896 312 m 18 X s 1923 419 m -9 X s 1914 410 m 18 Y s 1923 419 m 9 X s 1932 410 m 18 Y s 1923 419 m 60 Y s 1914 479 m 18
 X s 1923 419 m -48 Y s 1914 371 m 18 X s 1941 328 m -9 X s 1932 319 m 18 Y s 1941 328 m 9 X s 1950 319 m 18 Y s 1941 328 m 48 Y s 1932 376 m 18 X s 1941 328 m -35 Y s 1932 293 m 18 X s 1959 260 m -9 X s 1950 251 m 18 Y s 1959 260 m 9 X s 1968 251 m
 18 Y s 1959 260 m 36 Y s 1950 296 m 18 X s 1959 260 m -22 Y s 1950 238 m 18 X s 1977 305 m -9 X s 1968 296 m 18 Y s 1977 305 m 10 X s 1987 296 m 18 Y s 1977 305 m 45 Y s 1968 350 m 19 X s 1977 305 m -31 Y s 1968 274 m 19 X s 1996 249 m -9 X s 1987
 239 m 19 Y s 1996 249 m 9 X s 2005 239 m 19 Y s 1996 249 m 33 Y s 1986 282 m 19 X s 1996 249 m -19 Y s 1986 230 m 19 X s 2014 283 m -9 X s 2005 273 m 19 Y s 2014 283 m 9 X s 2023 273 m 19 Y s 2014 283 m 40 Y s 2005 323 m 18 X s 2014 283 m -27 Y s
 2005 256 m 18 X s 2032 271 m -9 X s 2023 262 m 18 Y s 2032 271 m 9 X s 2041 262 m 18 Y s 2032 271 m 39 Y s 2023 310 m 18 X s 2032 271 m -24 Y s 2023 247 m 18 X s 1 1 1 c black /w 36 def /w2 {w 2 div} def /w3 {w 3 div} def 236 294 254 396 272 373 290
 339 308 430 327 328 345 283 363 407 381 328 399 453 417 305 435 362 454 373 472 385 490 339 508 362 526 328 544 385 562 373 581 419 599 317 617 407 635 407 653 328 671 419 689 396 708 407 726 351 744 362 762 362 780 339 798 430 816 339 835 419 853
 317 871 385 889 453 907 441 925 396 943 328 962 385 980 351 998 441 1016 362 1034 430 1052 396 1070 339 1089 453 1107 396 1125 373 1143 373 1161 396 1179 430 1197 441 1215 396 1234 475 1252 646 1270 510 1288 521 1306 521 1324 623 1342 532 1361 748
 1379 555 1397 793 1415 975 1433 816 1451 918 1469 918 1488 1156 1506 1327 1524 1247 1542 1383 1560 1327 1578 1542 1596 1554 1615 1622 1633 1712 1651 1236 1669 1327 1687 1293 1705 1383 1723 1304 1742 1100 1760 873 1778 827 1796 714 1814 600 1832 578
 1850 510 1869 453 1887 396 1905 351 1923 419 1941 328 1959 260 1977 305 1996 249 2014 283 2032 271 100 { m20} R 0 0 1 c 9 lw 1 1 1 c black 0 0 1 c 227 358 m cl s 227 358 m 18 1 d 18 1 d 18 1 d 18 1 d 18 1 d 19 1 d 18 1 d 18 1 d 18 1 d 18 1 d 18 1 d
 18 1 d 19 1 d 18 1 d 18 1 d 18 1 d 18 1 d 18 1 d 18 1 d 19 X 18 1 d 18 1 d 18 1 d 18 1 d 18 1 d 18 1 d 19 1 d 18 X 18 1 d 18 1 d 18 1 d 18 1 d 18 X 19 1 d 18 1 d 18 1 d 18 X 18 1 d 18 1 d 18 X 19 1 d 18 X 18 1 d 18 1 d 18 X 18 1 d 18 X 19 1 d 18 1 d
 18 1 d 18 1 d 18 2 d 18 3 d 18 4 d 19 6 d 18 8 d 18 11 d 18 15 d 18 20 d 18 26 d 18 33 d 19 41 d 18 51 d 18 59 d 18 69 d 18 78 d 18 86 d 18 91 d 19 94 d 18 93 d 18 89 d 9 41 d 9 39 d 9 35 d 9 33 d 9 28 d 9 23 d 9 19 d 9 14 d 9 9 d 10 3 d 9 -2 d 9 -7
 d 9 -13 d 9 -18 d 9 -23 d 9 -27 d 9 -32 d 9 -35 d 9 -39 d 9 -42 d 18 -90 d 19 -96 d 18 -98 d 18 -95 d 18 -92 d 18 -84 d 18 -76 d 18 -67 d 19 -58 d 18 -49 d 18 -41 d 18 -34 d 18 -29 d 18 -24 d 18 -22 d 19 -20 d 18 -19 d 18 -23 d 9 -15 d 4 -10 d 3 -7
 d 2 -17 d s black 3 lw 227 214 m 1814 X s 227 266 m -52 Y s 272 240 m -26 Y s 317 240 m -26 Y s 363 240 m -26 Y s 408 240 m -26 Y s 454 266 m -52 Y s 499 240 m -26 Y s 544 240 m -26 Y s 590 240 m -26 Y s 635 240 m -26 Y s 680 266 m -52 Y s 726 240 m
 -26 Y s 771 240 m -26 Y s 816 240 m -26 Y s 862 240 m -26 Y s 907 266 m -52 Y s 952 240 m -26 Y s 998 240 m -26 Y s 1043 240 m -26 Y s 1089 240 m -26 Y s 1134 266 m -52 Y s 1179 240 m -26 Y s 1225 240 m -26 Y s 1270 240 m -26 Y s 1315 240 m -26 Y s
 1361 266 m -52 Y s 1406 240 m -26 Y s 1451 240 m -26 Y s 1497 240 m -26 Y s 1542 240 m -26 Y s 1587 266 m -52 Y s 1633 240 m -26 Y s 1678 240 m -26 Y s 1723 240 m -26 Y s 1769 240 m -26 Y s 1814 266 m -52 Y s 1860 240 m -26 Y s 1905 240 m -26 Y s
 1950 240 m -26 Y s 1996 240 m -26 Y s 2041 266 m -52 Y s 227 214 m 1716 Y s 281 214 m -54 X s 254 271 m -27 X s 254 328 m -27 X s 254 385 m -27 X s 281 441 m -54 X s 254 498 m -27 X s 254 555 m -27 X s 254 612 m -27 X s 281 668 m -54 X s 254 725 m
 -27 X s 254 782 m -27 X s 254 839 m -27 X s 281 895 m -54 X s 254 952 m -27 X s 254 1009 m -27 X s 254 1066 m -27 X s 281 1122 m -54 X s 254 1179 m -27 X s 254 1236 m -27 X s 254 1293 m -27 X s 281 1349 m -54 X s 254 1406 m -27 X s 254 1463 m -27 X
 s 254 1519 m -27 X s 281 1576 m -54 X s 254 1633 m -27 X s 254 1690 m -27 X s 254 1746 m -27 X s 281 1803 m -54 X s 281 1803 m -54 X s 254 1860 m -27 X s 254 1917 m -27 X s 1 1 1 c black
 gsave  2268 2145 0 0 C 856.086 2044.59 t 0 r /Helvetica findfont 104.734 sf 0 0 m (Background) show NC gr 
 gr  gr showpage
end
%%EOF
