%!PS-Adobe-2.0 EPSF-2.0
%%BoundingBox:  0 0 567 536
%%Title: ./plots/s2/pBgSig_s2.eps: Signal + Background
%%Creator: ROOT Version 6.13/01
%%CreationDate: Thu Dec 28 11:46:43 2017
%%DocumentNeededResources: ProcSet (FontSetInit)
%%EndComments
%%BeginProlog
80 dict begin
/s {stroke} def /l {lineto} def /m {moveto} def /t {translate} def
/r {rotate} def /rl {roll}  def /R {repeat} def
/d {rlineto} def /rm {rmoveto} def /gr {grestore} def /f {eofill} def
/c {setrgbcolor} def /black {0 setgray} def /sd {setdash} def
/cl {closepath} def /sf {scalefont setfont} def /lw {setlinewidth} def
/box {m dup 0 exch d exch 0 d 0 exch neg d cl} def
/NC{systemdict begin initclip end}def/C{NC box clip newpath}def
/bl {box s} def /bf {gsave box gsave f grestore 1 lw [] 0 sd s grestore} def /Y { 0 exch d} def /X { 0 d} def 
/K {{pop pop 0 moveto} exch kshow} bind def
/ita {/ang 15 def gsave [1 0 ang dup sin exch cos div 1 0 0] concat} def 
/mp {newpath /y exch def /x exch def} def
/side {[w .77 mul w .23 mul] .385 w mul sd w 0 l currentpoint t -144 r} def
/mr {mp x y w2 0 360 arc} def /m24 {mr s} def /m20 {mr f} def
/mb {mp x y w2 add m w2 neg 0 d 0 w neg d w 0 d 0 w d cl} def
/mt {mp x y w2 add m w2 neg w neg d w 0 d cl} def
/w4 {w 4 div} def
/w6 {w 6 div} def
/w8 {w 8 div} def
/m21 {mb f} def /m25 {mb s} def /m22 {mt f} def /m26{mt s} def
/m23 {mp x y w2 sub m w2 w d w neg 0 d cl f} def
/m27 {mp x y w2 add m w3 neg w2 neg d w3 w2 neg d w3 w2 d cl s} def
/m28 {mp x w2 sub y w2 sub w3 add m w3 0 d  0 w3 neg d w3 0 d 0 w3 d w3 0 d  0 w3 d w3 neg 0 d 0 w3 d w3 neg 0 d 0 w3 neg d w3 neg 0 d cl s } def
/m29 {mp gsave x w2 sub y w2 add w3 sub m currentpoint t 4 {side} repeat cl fill gr} def
/m30 {mp gsave x w2 sub y w2 add w3 sub m currentpoint t 4 {side} repeat cl s gr} def
/m31 {mp x y w2 sub m 0 w d x w2 sub y m w 0 d x w2 sub y w2 add m w w neg d x w2 sub y w2 sub m w w d s} def
/m32 {mp x y w2 sub m w2 w d w neg 0 d cl s} def
/m33 {mp x y w2 add m w3 neg w2 neg d w3 w2 neg d w3 w2 d cl f} def
/m34 {mp x w2 sub y w2 sub w3 add m w3 0 d  0 w3 neg d w3 0 d 0 w3 d w3 0 d  0 w3 d w3 neg 0 d 0 w3 d w3 neg 0 d 0 w3 neg d w3 neg 0 d cl f } def
/m35 {mp x y w2 add m w2 neg w2 neg d w2 w2 neg d w2 w2 d w2 neg w2 d x y w2 sub m 0 w d x w2 sub y m w 0 d s} def
/m36 {mb x w2 sub y w2 add m w w neg d x w2 sub y w2 sub m w w d s} def
/m37 {mp x y m w4 neg w2 d w4 neg w2 neg d w2 0 d  w4 neg w2 neg d w2 0 d w4 neg w2 d w2 0 d w4 neg w2 d w4 neg w2 neg d cl s} def
/m38 {mp x w4 sub y w2 add m w4 neg w4 neg d 0 w2 neg d w4 w4 neg d w2 0 d w4 w4 d 0 w2 d w4 neg w4 d w2 neg 0 d x y w2 sub m 0 w d x w2 sub y m w 0 d cl s} def
/m39 {mp x y m w4 neg w2 d w4 neg w2 neg d w2 0 d  w4 neg w2 neg d w2 0 d w4 neg w2 d w2 0 d w4 neg w2 d w4 neg w2 neg d cl f} def
/m40 {mp x y m w4 w2 d w4 w4 neg d w2 neg w4 neg d w2 w4 neg d w4 neg w4 neg d w4 neg w2 d w4 neg w2 neg d w4 neg w4 d w2 w4 d w2 neg w4 d w4 w4 d w4 w2 neg d cl s} def
/m41 {mp x y m w4 w2 d w4 w4 neg d w2 neg w4 neg d w2 w4 neg d w4 neg w4 neg d w4 neg w2 d w4 neg w2 neg d w4 neg w4 d w2 w4 d w2 neg w4 d w4 w4 d w4 w2 neg d cl f} def
/m42 {mp x y w2 add m w8 neg w2 -3 4 div mul d w2 -3 4 div mul w8 neg d w2 3 4 div mul w8 neg d w8 w2 -3 4 div mul d w8 w2 3 4 div mul d w2 3 4 div mul w8 d w2 -3 4 div mul w8 d w8 neg w2 3 4 div mul d cl s} def
/m43 {mp x y w2 add m w8 neg w2 -3 4 div mul d w2 -3 4 div mul w8 neg d w2 3 4 div mul w8 neg d w8 w2 -3 4 div mul d w8 w2 3 4 div mul d w2 3 4 div mul w8 d w2 -3 4 div mul w8 d w8 neg w2 3 4 div mul d cl f} def
/m44 {mp x y m w6 neg w2 d w2 2 3 div mul 0 d w6 neg w2 neg d w2 w6 d 0 w2 -2 3 div mul d w2 neg w6 d w6 w2 neg d w2 -2 3 div mul 0 d w6 w2 d w2 neg w6 neg d 0 w2 2 3 div mul d w2 w6 neg d cl s} def
/m45 {mp x y m w6 neg w2 d w2 2 3 div mul 0 d w6 neg w2 neg d w2 w6 d 0 w2 -2 3 div mul d w2 neg w6 d w6 w2 neg d w2 -2 3 div mul 0 d w6 w2 d w2 neg w6 neg d 0 w2 2 3 div mul d w2 w6 neg d cl f} def
/m46 {mp x y w4 add m w4 neg w4 d w4 neg w4 neg d  w4 w4 neg d w4 neg w4 neg d w4 w4 neg d w4 w4 d w4 w4 neg d w4 w4 d w4 neg w4 d w4 w4 d w4 neg w4 d w4 neg w4 neg d cl s} def
/m47 {mp x y w4 add m w4 neg w4 d w4 neg w4 neg d w4 w4 neg d w4 neg w4 neg d  w4 w4 neg d w4 w4 d w4 w4 neg d w4 w4 d w4 neg w4 d w4 w4 d w4 neg w4 d w4 neg w4 neg d cl f} def
/m48 {mp x y w4 add m w4 neg w4 d w4 neg w4 neg d w4 w4 neg d  w4 neg w4 neg d w4 w4 neg d w4 w4 d w4 w4 neg d w4 w4 d w4 neg w4 d w4 w4 d w4 neg w4 d w4 neg w4 neg d  w4 w4 neg d w4 neg w4 neg d w4 neg w4 d w4 w4 d cl f} def
/m49 {mp x w2 sub w3 add y w2 sub w3 add m  0 w3 neg d w3 0 d 0 w3 d w3 0 d 0 w3 d w3 neg 0 d 0 w3 d w3 neg 0 d 0 w3 neg d w3 neg 0 d 0 w3 neg d w3 0 d 0 w3 d w3 0 d 0 w3 neg d w3 neg 0 d cl f } def
/m2 {mp x y w2 sub m 0 w d x w2 sub y m w 0 d s} def
/m5 {mp x w2 sub y w2 sub m w w d x w2 sub y w2 add m w w neg d s} def
%%IncludeResource: ProcSet (FontSetInit)
%%IncludeResource: font Times-Roman
%%IncludeResource: font Times-Italic
%%IncludeResource: font Times-Bold
%%IncludeResource: font Times-BoldItalic
%%IncludeResource: font Helvetica
%%IncludeResource: font Helvetica-Oblique
%%IncludeResource: font Helvetica-Bold
%%IncludeResource: font Helvetica-BoldOblique
%%IncludeResource: font Courier
%%IncludeResource: font Courier-Oblique
%%IncludeResource: font Courier-Bold
%%IncludeResource: font Courier-BoldOblique
%%IncludeResource: font Symbol
%%IncludeResource: font ZapfDingbats
/reEncode {exch findfont dup length dict begin {1 index /FID eq  {pop pop} {def} ifelse } forall /Encoding exch def currentdict end dup /FontName get exch definefont pop } def [/Times-Bold /Times-Italic /Times-BoldItalic /Helvetica /Helvetica-Oblique
 /Helvetica-Bold /Helvetica-BoldOblique /Courier /Courier-Oblique /Courier-Bold /Courier-BoldOblique /Times-Roman /AvantGarde-Book /AvantGarde-BookOblique /AvantGarde-Demi /AvantGarde-DemiOblique /Bookman-Demi /Bookman-DemiItalic /Bookman-Light
 /Bookman-LightItalic /Helvetica-Narrow /Helvetica-Narrow-Bold /Helvetica-Narrow-BoldOblique /Helvetica-Narrow-Oblique /NewCenturySchlbk-Roman /NewCenturySchlbk-Bold /NewCenturySchlbk-BoldItalic /NewCenturySchlbk-Italic /Palatino-Bold
 /Palatino-BoldItalic /Palatino-Italic /Palatino-Roman ] {ISOLatin1Encoding reEncode } forall
%%EndProlog
%%BeginSetup
%%EndSetup
newpath  gsave  .25 .25 scale  gsave  0 0 t black[  ] 0 sd 3 lw 1 1 1 c 2268 2145 0 0 bf black 1 1 1 c 1814 1716 227 214 bf black 1814 1716 227 214 bl 227 214 m 1814 X s 227 266 m -52 Y s 272 240 m -26 Y s 317 240 m -26 Y s 363 240 m -26 Y s 408 240
 m -26 Y s 454 266 m -52 Y s 499 240 m -26 Y s 544 240 m -26 Y s 590 240 m -26 Y s 635 240 m -26 Y s 680 266 m -52 Y s 726 240 m -26 Y s 771 240 m -26 Y s 816 240 m -26 Y s 862 240 m -26 Y s 907 266 m -52 Y s 952 240 m -26 Y s 998 240 m -26 Y s 1043
 240 m -26 Y s 1089 240 m -26 Y s 1134 266 m -52 Y s 1179 240 m -26 Y s 1225 240 m -26 Y s 1270 240 m -26 Y s 1315 240 m -26 Y s 1361 266 m -52 Y s 1406 240 m -26 Y s 1451 240 m -26 Y s 1497 240 m -26 Y s 1542 240 m -26 Y s 1587 266 m -52 Y s 1633
 240 m -26 Y s 1678 240 m -26 Y s 1723 240 m -26 Y s 1769 240 m -26 Y s 1814 266 m -52 Y s 1860 240 m -26 Y s 1905 240 m -26 Y s 1950 240 m -26 Y s 1996 240 m -26 Y s 2041 266 m -52 Y s
 gsave  2268 2145 0 0 C 154.824 145.717 t 0 r /Helvetica findfont 68.3047 sf 0 0 m (5.25) show NC gr 
 gsave  2268 2145 0 0 C 364.292 145.717 t 0 r /Helvetica findfont 68.3047 sf 0 0 m (5.255) show NC gr 
 gsave  2268 2145 0 0 C 610.189 145.717 t 0 r /Helvetica findfont 68.3047 sf 0 0 m (5.26) show NC gr 
 gsave  2268 2145 0 0 C 819.657 145.717 t 0 r /Helvetica findfont 68.3047 sf 0 0 m (5.265) show NC gr 
 gsave  2268 2145 0 0 C 1065.55 145.717 t 0 r /Helvetica findfont 68.3047 sf 0 0 m (5.27) show NC gr 
 gsave  2268 2145 0 0 C 1270.47 145.717 t 0 r /Helvetica findfont 68.3047 sf 0 0 m (5.275) show NC gr 
 gsave  2268 2145 0 0 C 1516.36 145.717 t 0 r /Helvetica findfont 68.3047 sf 0 0 m (5.28) show NC gr 
 gsave  2268 2145 0 0 C 1725.83 145.717 t 0 r /Helvetica findfont 68.3047 sf 0 0 m (5.285) show NC gr 
 gsave  2268 2145 0 0 C 1971.73 145.717 t 0 r /Helvetica findfont 68.3047 sf 0 0 m (5.29) show NC gr 
 gsave  2268 2145 0 0 C 1552.79 72.8584 t 0 r /Helvetica findfont 68.3047 sf 0 0 m (m_bc \(GeV/c^2\)) show NC gr  227 214 m 1716 Y s 281 214 m -54 X s 254 277 m -27 X s 254 340 m -27 X s 254 402 m -27 X s 254 465 m -27 X s 281 528 m -54 X s 254 590 m
 -27 X s 254 653 m -27 X s 254 716 m -27 X s 254 778 m -27 X s 281 841 m -54 X s 254 903 m -27 X s 254 966 m -27 X s 254 1029 m -27 X s 254 1091 m -27 X s 281 1154 m -54 X s 254 1217 m -27 X s 254 1279 m -27 X s 254 1342 m -27 X s 254 1404 m -27 X s
 281 1467 m -54 X s 254 1530 m -27 X s 254 1592 m -27 X s 254 1655 m -27 X s 254 1718 m -27 X s 281 1780 m -54 X s 281 1780 m -54 X s 254 1843 m -27 X s 254 1905 m -27 X s
 gsave  2268 2145 0 0 C 177.592 191.253 t 0 r /Helvetica findfont 68.3047 sf 0 0 m (0) show NC gr 
 gsave  2268 2145 0 0 C 100.18 500.901 t 0 r /Helvetica findfont 68.3047 sf 0 0 m (100) show NC gr 
 gsave  2268 2145 0 0 C 100.18 815.103 t 0 r /Helvetica findfont 68.3047 sf 0 0 m (200) show NC gr 
 gsave  2268 2145 0 0 C 100.18 1129.3 t 0 r /Helvetica findfont 68.3047 sf 0 0 m (300) show NC gr 
 gsave  2268 2145 0 0 C 100.18 1443.51 t 0 r /Helvetica findfont 68.3047 sf 0 0 m (400) show NC gr 
 gsave  2268 2145 0 0 C 100.18 1753.15 t 0 r /Helvetica findfont 68.3047 sf 0 0 m (500) show NC gr 
 gsave  2268 2145 0 0 C 50.0901 1097.43 t 90 r /Helvetica findfont 68.3047 sf 0 0 m (Events / \( 0.0004 GeV/c^2 \)) show NC gr  1 1 1 c black
 gsave  2268 2145 0 0 C 651.172 2040.03 t 0 r /Helvetica findfont 104.734 sf 0 0 m (Signal + Background) show NC gr  236 236 m -9 X s 227 227 m 19 Y s 236 236 m 9 X s 245 227 m 19 Y s 236 236 m 12 Y s 227 248 m 18 X s 236 236 m -8 Y s 227 228 m 18 X
 s 254 230 m -9 X s 245 221 m 18 Y s 254 230 m 9 X s 263 221 m 18 Y s 254 230 m 11 Y s 245 241 m 18 X s 254 230 m -7 Y s 245 223 m 18 X s 272 236 m -9 X s 263 227 m 19 Y s 272 236 m 9 X s 281 227 m 19 Y s 272 236 m 12 Y s 263 248 m 18 X s 272 236 m
 -8 Y s 263 228 m 18 X s 290 246 m -9 X s 281 237 m 18 Y s 290 246 m 9 X s 299 237 m 18 Y s 290 246 m 13 Y s 281 259 m 18 X s 290 246 m -10 Y s 281 236 m 18 X s 308 230 m -9 X s 299 221 m 18 Y s 308 230 m 9 X s 317 221 m 18 Y s 308 230 m 11 Y s 299
 241 m 19 X s 308 230 m -7 Y s 299 223 m 19 X s 327 243 m -10 X s 317 234 m 18 Y s 327 243 m 9 X s 336 234 m 18 Y s 327 243 m 13 Y s 317 256 m 19 X s 327 243 m -10 Y s 317 233 m 19 X s 345 233 m -9 X s 336 224 m 18 Y s 345 233 m 9 X s 354 224 m 18 Y
 s 345 233 m 11 Y s 336 244 m 18 X s 345 233 m -7 Y s 336 226 m 18 X s 363 224 m -9 X s 354 215 m 18 Y s 363 224 m 9 X s 372 215 m 18 Y s 363 224 m 9 Y s 354 233 m 18 X s 363 224 m -5 Y s 354 219 m 18 X s 381 233 m -9 X s 372 224 m 18 Y s 381 233 m 9
 X s 390 224 m 18 Y s 381 233 m 11 Y s 372 244 m 18 X s 381 233 m -7 Y s 372 226 m 18 X s 399 227 m -9 X s 390 218 m 18 Y s 399 227 m 9 X s 408 218 m 18 Y s 399 227 m 10 Y s 390 237 m 18 X s 399 227 m -6 Y s 390 221 m 18 X s 417 243 m -9 X s 408 234
 m 18 Y s 417 243 m 9 X s 426 234 m 18 Y s 417 243 m 13 Y s 408 256 m 18 X s 417 243 m -10 Y s 408 233 m 18 X s 435 252 m -9 X s 426 243 m 18 Y s 435 252 m 9 X s 444 243 m 18 Y s 435 252 m 14 Y s 426 266 m 19 X s 435 252 m -11 Y s 426 241 m 19 X s
 454 230 m -10 X s 444 221 m 18 Y s 454 230 m 9 X s 463 221 m 18 Y s 454 230 m 11 Y s 444 241 m 19 X s 454 230 m -7 Y s 444 223 m 19 X s 472 233 m -9 X s 463 224 m 18 Y s 472 233 m 9 X s 481 224 m 18 Y s 472 233 m 11 Y s 463 244 m 18 X s 472 233 m -7
 Y s 463 226 m 18 X s 490 240 m -9 X s 481 230 m 19 Y s 490 240 m 9 X s 499 230 m 19 Y s 490 240 m 12 Y s 481 252 m 18 X s 490 240 m -9 Y s 481 231 m 18 X s 508 230 m -9 X s 499 221 m 18 Y s 508 230 m 9 X s 517 221 m 18 Y s 508 230 m 11 Y s 499 241 m
 18 X s 508 230 m -7 Y s 499 223 m 18 X s 526 233 m -9 X s 517 224 m 18 Y s 526 233 m 9 X s 535 224 m 18 Y s 526 233 m 11 Y s 517 244 m 18 X s 526 233 m -7 Y s 517 226 m 18 X s 544 227 m -9 X s 535 218 m 18 Y s 544 227 m 9 X s 553 218 m 18 Y s 544
 227 m 10 Y s 535 237 m 18 X s 544 227 m -6 Y s 535 221 m 18 X s 562 224 m -9 X s 553 215 m 18 Y s 562 224 m 9 X s 571 215 m 18 Y s 562 224 m 9 Y s 553 233 m 19 X s 562 224 m -5 Y s 553 219 m 19 X s 581 233 m -10 X s 571 224 m 18 Y s 581 233 m 9 X s
 590 224 m 18 Y s 581 233 m 11 Y s 571 244 m 19 X s 581 233 m -7 Y s 571 226 m 19 X s 599 224 m -9 X s 590 215 m 18 Y s 599 224 m 9 X s 608 215 m 18 Y s 599 224 m 9 Y s 590 233 m 18 X s 599 224 m -5 Y s 590 219 m 18 X s 617 243 m -9 X s 608 234 m 18
 Y s 617 243 m 9 X s 626 234 m 18 Y s 617 243 m 13 Y s 608 256 m 18 X s 617 243 m -10 Y s 608 233 m 18 X s 635 233 m -9 X s 626 224 m 18 Y s 635 233 m 9 X s 644 224 m 18 Y s 635 233 m 11 Y s 626 244 m 18 X s 635 233 m -7 Y s 626 226 m 18 X s 653 227
 m -9 X s 644 218 m 18 Y s 653 227 m 9 X s 662 218 m 18 Y s 653 227 m 10 Y s 644 237 m 18 X s 653 227 m -6 Y s 644 221 m 18 X s 671 236 m -9 X s 662 227 m 19 Y s 671 236 m 9 X s 680 227 m 19 Y s 671 236 m 12 Y s 662 248 m 18 X s 671 236 m -8 Y s 662
 228 m 18 X s 689 246 m -9 X s 680 237 m 18 Y s 689 246 m 9 X s 698 237 m 18 Y s 689 246 m 13 Y s 680 259 m 18 X s 689 246 m -10 Y s 680 236 m 18 X s 708 246 m -10 X s 698 237 m 18 Y s 708 246 m 9 X s 717 237 m 18 Y s 708 246 m 13 Y s 698 259 m 19 X
 s 708 246 m -10 Y s 698 236 m 19 X s 726 230 m -9 X s 717 221 m 18 Y s 726 230 m 9 X s 735 221 m 18 Y s 726 230 m 11 Y s 717 241 m 18 X s 726 230 m -7 Y s 717 223 m 18 X s 744 243 m -9 X s 735 234 m 18 Y s 744 243 m 9 X s 753 234 m 18 Y s 744 243 m
 13 Y s 735 256 m 18 X s 744 243 m -10 Y s 735 233 m 18 X s 762 246 m -9 X s 753 237 m 18 Y s 762 246 m 9 X s 771 237 m 18 Y s 762 246 m 13 Y s 753 259 m 18 X s 762 246 m -10 Y s 753 236 m 18 X s 780 230 m -9 X s 771 221 m 18 Y s 780 230 m 9 X s 789
 221 m 18 Y s 780 230 m 11 Y s 771 241 m 18 X s 780 230 m -7 Y s 771 223 m 18 X s 798 230 m -9 X s 789 221 m 18 Y s 798 230 m 9 X s 807 221 m 18 Y s 798 230 m 11 Y s 789 241 m 18 X s 798 230 m -7 Y s 789 223 m 18 X s 816 240 m -9 X s 807 230 m 19 Y s
 816 240 m 9 X s 825 230 m 19 Y s 816 240 m 12 Y s 807 252 m 18 X s 816 240 m -9 Y s 807 231 m 18 X s 835 227 m -10 X s 825 218 m 18 Y s 835 227 m 9 X s 844 218 m 18 Y s 835 227 m 10 Y s 825 237 m 19 X s 835 227 m -6 Y s 825 221 m 19 X s 853 236 m -9
 X s 844 227 m 19 Y s 853 236 m 9 X s 862 227 m 19 Y s 853 236 m 12 Y s 844 248 m 18 X s 853 236 m -8 Y s 844 228 m 18 X s 871 236 m -9 X s 862 227 m 19 Y s 871 236 m 9 X s 880 227 m 19 Y s 871 236 m 12 Y s 862 248 m 18 X s 871 236 m -8 Y s 862 228 m
 18 X s 889 236 m -9 X s 880 227 m 19 Y s 889 236 m 9 X s 898 227 m 19 Y s 889 236 m 12 Y s 880 248 m 18 X s 889 236 m -8 Y s 880 228 m 18 X s 907 230 m -9 X s 898 221 m 18 Y s 907 230 m 9 X s 916 221 m 18 Y s 907 230 m 11 Y s 898 241 m 18 X s 907
 230 m -7 Y s 898 223 m 18 X s 925 240 m -9 X s 916 230 m 19 Y s 925 240 m 9 X s 934 230 m 19 Y s 925 240 m 12 Y s 916 252 m 18 X s 925 240 m -9 Y s 916 231 m 18 X s 943 240 m -9 X s 934 230 m 19 Y s 943 240 m 9 X s 952 230 m 19 Y s 943 240 m 12 Y s
 934 252 m 18 X s 943 240 m -9 Y s 934 231 m 18 X s 962 246 m -10 X s 952 237 m 18 Y s 962 246 m 9 X s 971 237 m 18 Y s 962 246 m 13 Y s 952 259 m 19 X s 962 246 m -10 Y s 952 236 m 19 X s 980 224 m -9 X s 971 215 m 18 Y s 980 224 m 9 X s 989 215 m
 18 Y s 980 224 m 9 Y s 971 233 m 18 X s 980 224 m -5 Y s 971 219 m 18 X s 998 240 m -9 X s 989 230 m 19 Y s 998 240 m 9 X s 1007 230 m 19 Y s 998 240 m 12 Y s 989 252 m 18 X s 998 240 m -9 Y s 989 231 m 18 X s 1016 243 m -9 X s 1007 234 m 18 Y s
 1016 243 m 9 X s 1025 234 m 18 Y s 1016 243 m 13 Y s 1007 256 m 18 X s 1016 243 m -10 Y s 1007 233 m 18 X s 1034 236 m -9 X s 1025 227 m 19 Y s 1034 236 m 9 X s 1043 227 m 19 Y s 1034 236 m 12 Y s 1025 248 m 18 X s 1034 236 m -8 Y s 1025 228 m 18 X
 s 1052 246 m -9 X s 1043 237 m 18 Y s 1052 246 m 9 X s 1061 237 m 18 Y s 1052 246 m 13 Y s 1043 259 m 18 X s 1052 246 m -10 Y s 1043 236 m 18 X s 1070 246 m -9 X s 1061 237 m 18 Y s 1070 246 m 9 X s 1079 237 m 18 Y s 1070 246 m 13 Y s 1061 259 m 18
 X s 1070 246 m -10 Y s 1061 236 m 18 X s 1089 233 m -10 X s 1079 224 m 18 Y s 1089 233 m 9 X s 1098 224 m 18 Y s 1089 233 m 11 Y s 1079 244 m 19 X s 1089 233 m -7 Y s 1079 226 m 19 X s 1107 261 m -9 X s 1098 252 m 19 Y s 1107 261 m 9 X s 1116 252 m
 19 Y s 1107 261 m 16 Y s 1098 277 m 18 X s 1107 261 m -12 Y s 1098 249 m 18 X s 1125 246 m -9 X s 1116 237 m 18 Y s 1125 246 m 9 X s 1134 237 m 18 Y s 1125 246 m 13 Y s 1116 259 m 18 X s 1125 246 m -10 Y s 1116 236 m 18 X s 1143 246 m -9 X s 1134
 237 m 18 Y s 1143 246 m 9 X s 1152 237 m 18 Y s 1143 246 m 13 Y s 1134 259 m 18 X s 1143 246 m -10 Y s 1134 236 m 18 X s 1161 246 m -9 X s 1152 237 m 18 Y s 1161 246 m 9 X s 1170 237 m 18 Y s 1161 246 m 13 Y s 1152 259 m 18 X s 1161 246 m -10 Y s
 1152 236 m 18 X s 1179 246 m -9 X s 1170 237 m 18 Y s 1179 246 m 9 X s 1188 237 m 18 Y s 1179 246 m 13 Y s 1170 259 m 18 X s 1179 246 m -10 Y s 1170 236 m 18 X s 1197 249 m -9 X s 1188 240 m 18 Y s 1197 249 m 9 X s 1206 240 m 18 Y s 1197 249 m 14 Y
 s 1188 263 m 18 X s 1197 249 m -10 Y s 1188 239 m 18 X s 1215 274 m -9 X s 1206 265 m 18 Y s 1215 274 m 10 X s 1225 265 m 18 Y s 1215 274 m 17 Y s 1206 291 m 19 X s 1215 274 m -14 Y s 1206 260 m 19 X s 1234 277 m -9 X s 1225 268 m 18 Y s 1234 277 m
 9 X s 1243 268 m 18 Y s 1234 277 m 17 Y s 1225 294 m 18 X s 1234 277 m -14 Y s 1225 263 m 18 X s 1252 280 m -9 X s 1243 271 m 18 Y s 1252 280 m 9 X s 1261 271 m 18 Y s 1252 280 m 18 Y s 1243 298 m 18 X s 1252 280 m -14 Y s 1243 266 m 18 X s 1270 283
 m -9 X s 1261 274 m 18 Y s 1270 283 m 9 X s 1279 274 m 18 Y s 1270 283 m 18 Y s 1261 301 m 18 X s 1270 283 m -14 Y s 1261 269 m 18 X s 1288 330 m -9 X s 1279 321 m 18 Y s 1288 330 m 9 X s 1297 321 m 18 Y s 1288 330 m 23 Y s 1279 353 m 18 X s 1288
 330 m -19 Y s 1279 311 m 18 X s 1306 324 m -9 X s 1297 315 m 18 Y s 1306 324 m 9 X s 1315 315 m 18 Y s 1306 324 m 22 Y s 1297 346 m 18 X s 1306 324 m -18 Y s 1297 306 m 18 X s 1324 359 m -9 X s 1315 349 m 19 Y s 1324 359 m 9 X s 1333 349 m 19 Y s
 1324 359 m 24 Y s 1315 383 m 18 X s 1324 359 m -22 Y s 1315 337 m 18 X s 1342 368 m -9 X s 1333 359 m 18 Y s 1342 368 m 10 X s 1352 359 m 18 Y s 1342 368 m 25 Y s 1333 393 m 19 X s 1342 368 m -22 Y s 1333 346 m 19 X s 1361 431 m -9 X s 1352 421 m 19
 Y s 1361 431 m 9 X s 1370 421 m 19 Y s 1361 431 m 29 Y s 1352 460 m 18 X s 1361 431 m -26 Y s 1352 405 m 18 X s 1379 484 m -9 X s 1370 475 m 18 Y s 1379 484 m 9 X s 1388 475 m 18 Y s 1379 484 m 32 Y s 1370 516 m 18 X s 1379 484 m -29 Y s 1370 455 m
 18 X s 1397 600 m -9 X s 1388 591 m 18 Y s 1397 600 m 9 X s 1406 591 m 18 Y s 1397 600 m 36 Y s 1388 636 m 18 X s 1397 600 m -34 Y s 1388 566 m 18 X s 1415 665 m -9 X s 1406 656 m 19 Y s 1415 665 m 9 X s 1424 656 m 19 Y s 1415 665 m 40 Y s 1406 705
 m 18 X s 1415 665 m -36 Y s 1406 629 m 18 X s 1433 747 m -9 X s 1424 738 m 18 Y s 1433 747 m 9 X s 1442 738 m 18 Y s 1433 747 m 42 Y s 1424 789 m 18 X s 1433 747 m -39 Y s 1424 708 m 18 X s 1451 853 m -9 X s 1442 844 m 18 Y s 1451 853 m 9 X s 1460
 844 m 18 Y s 1451 853 m 47 Y s 1442 900 m 18 X s 1451 853 m -43 Y s 1442 810 m 18 X s 1469 1029 m -9 X s 1460 1020 m 18 Y s 1469 1029 m 10 X s 1479 1020 m 18 Y s 1469 1029 m 52 Y s 1460 1081 m 19 X s 1469 1029 m -49 Y s 1460 980 m 19 X s 1488 1204 m
 -9 X s 1479 1195 m 18 Y s 1488 1204 m 9 X s 1497 1195 m 18 Y s 1488 1204 m 57 Y s 1479 1261 m 18 X s 1488 1204 m -54 Y s 1479 1150 m 18 X s 1506 1361 m -9 X s 1497 1351 m 19 Y s 1506 1361 m 9 X s 1515 1351 m 19 Y s 1506 1361 m 61 Y s 1497 1422 m 18
 X s 1506 1361 m -59 Y s 1497 1302 m 18 X s 1524 1448 m -9 X s 1515 1439 m 18 Y s 1524 1448 m 9 X s 1533 1439 m 18 Y s 1524 1448 m 64 Y s 1515 1512 m 18 X s 1524 1448 m -60 Y s 1515 1388 m 18 X s 1542 1633 m -9 X s 1533 1624 m 18 Y s 1542 1633 m 9 X
 s 1551 1624 m 18 Y s 1542 1633 m 68 Y s 1533 1701 m 18 X s 1542 1633 m -65 Y s 1533 1568 m 18 X s 1560 1711 m -9 X s 1551 1702 m 18 Y s 1560 1711 m 9 X s 1569 1702 m 18 Y s 1560 1711 m 70 Y s 1551 1781 m 18 X s 1560 1711 m -67 Y s 1551 1644 m 18 X s
 1578 1777 m -9 X s 1569 1768 m 18 Y s 1578 1777 m 9 X s 1587 1768 m 18 Y s 1578 1777 m 72 Y s 1569 1849 m 18 X s 1578 1777 m -68 Y s 1569 1709 m 18 X s 1596 1765 m -9 X s 1587 1755 m 19 Y s 1596 1765 m 10 X s 1606 1755 m 19 Y s 1596 1765 m 71 Y s
 1587 1836 m 19 X s 1596 1765 m -69 Y s 1587 1696 m 19 X s 1615 1736 m -9 X s 1606 1727 m 18 Y s 1615 1736 m 9 X s 1624 1727 m 18 Y s 1615 1736 m 71 Y s 1606 1807 m 18 X s 1615 1736 m -67 Y s 1606 1669 m 18 X s 1633 1639 m -9 X s 1624 1630 m 18 Y s
 1633 1639 m 9 X s 1642 1630 m 18 Y s 1633 1639 m 69 Y s 1624 1708 m 18 X s 1633 1639 m -65 Y s 1624 1574 m 18 X s 1651 1655 m -9 X s 1642 1646 m 18 Y s 1651 1655 m 9 X s 1660 1646 m 18 Y s 1651 1655 m 69 Y s 1642 1724 m 18 X s 1651 1655 m -66 Y s
 1642 1589 m 18 X s 1669 1649 m -9 X s 1660 1640 m 18 Y s 1669 1649 m 9 X s 1678 1640 m 18 Y s 1669 1649 m 68 Y s 1660 1717 m 18 X s 1669 1649 m -66 Y s 1660 1583 m 18 X s 1687 1470 m -9 X s 1678 1461 m 18 Y s 1687 1470 m 9 X s 1696 1461 m 18 Y s
 1687 1470 m 64 Y s 1678 1534 m 18 X s 1687 1470 m -61 Y s 1678 1409 m 18 X s 1705 1354 m -9 X s 1696 1345 m 18 Y s 1705 1354 m 9 X s 1714 1345 m 18 Y s 1705 1354 m 62 Y s 1696 1416 m 18 X s 1705 1354 m -58 Y s 1696 1296 m 18 X s 1723 1267 m -9 X s
 1714 1258 m 18 Y s 1723 1267 m 10 X s 1733 1258 m 18 Y s 1723 1267 m 59 Y s 1714 1326 m 19 X s 1723 1267 m -56 Y s 1714 1211 m 19 X s 1742 1076 m -9 X s 1733 1067 m 18 Y s 1742 1076 m 9 X s 1751 1067 m 18 Y s 1742 1076 m 53 Y s 1732 1129 m 19 X s
 1742 1076 m -51 Y s 1732 1025 m 19 X s 1760 922 m -9 X s 1751 913 m 18 Y s 1760 922 m 9 X s 1769 913 m 18 Y s 1760 922 m 49 Y s 1751 971 m 18 X s 1760 922 m -45 Y s 1751 877 m 18 X s 1778 722 m -9 X s 1769 713 m 18 Y s 1778 722 m 9 X s 1787 713 m 18
 Y s 1778 722 m 41 Y s 1769 763 m 18 X s 1778 722 m -39 Y s 1769 683 m 18 X s 1796 731 m -9 X s 1787 722 m 18 Y s 1796 731 m 9 X s 1805 722 m 18 Y s 1796 731 m 42 Y s 1787 773 m 18 X s 1796 731 m -39 Y s 1787 692 m 18 X s 1814 603 m -9 X s 1805 594 m
 18 Y s 1814 603 m 9 X s 1823 594 m 18 Y s 1814 603 m 36 Y s 1805 639 m 18 X s 1814 603 m -34 Y s 1805 569 m 18 X s 1832 512 m -9 X s 1823 503 m 18 Y s 1832 512 m 9 X s 1841 503 m 18 Y s 1832 512 m 34 Y s 1823 546 m 18 X s 1832 512 m -31 Y s 1823 481
 m 18 X s 1850 431 m -9 X s 1841 421 m 19 Y s 1850 431 m 10 X s 1860 421 m 19 Y s 1850 431 m 29 Y s 1841 460 m 19 X s 1850 431 m -26 Y s 1841 405 m 19 X s 1869 355 m -9 X s 1860 346 m 18 Y s 1869 355 m 9 X s 1878 346 m 18 Y s 1869 355 m 25 Y s 1859
 380 m 19 X s 1869 355 m -21 Y s 1859 334 m 19 X s 1887 302 m -9 X s 1878 293 m 18 Y s 1887 302 m 9 X s 1896 293 m 18 Y s 1887 302 m 20 Y s 1878 322 m 18 X s 1887 302 m -16 Y s 1878 286 m 18 X s 1905 312 m -9 X s 1896 302 m 19 Y s 1905 312 m 9 X s
 1914 302 m 19 Y s 1905 312 m 20 Y s 1896 332 m 18 X s 1905 312 m -18 Y s 1896 294 m 18 X s 1923 274 m -9 X s 1914 265 m 18 Y s 1923 274 m 9 X s 1932 265 m 18 Y s 1923 274 m 17 Y s 1914 291 m 18 X s 1923 274 m -14 Y s 1914 260 m 18 X s 1941 249 m -9
 X s 1932 240 m 18 Y s 1941 249 m 9 X s 1950 240 m 18 Y s 1941 249 m 14 Y s 1932 263 m 18 X s 1941 249 m -10 Y s 1932 239 m 18 X s 1959 240 m -9 X s 1950 230 m 19 Y s 1959 240 m 9 X s 1968 230 m 19 Y s 1959 240 m 12 Y s 1950 252 m 18 X s 1959 240 m
 -9 Y s 1950 231 m 18 X s 1977 261 m -9 X s 1968 252 m 19 Y s 1977 261 m 10 X s 1987 252 m 19 Y s 1977 261 m 16 Y s 1968 277 m 19 X s 1977 261 m -12 Y s 1968 249 m 19 X s 1996 233 m -9 X s 1987 224 m 18 Y s 1996 233 m 9 X s 2005 224 m 18 Y s 1996 233
 m 11 Y s 1986 244 m 19 X s 1996 233 m -7 Y s 1986 226 m 19 X s 2014 221 m -9 X s 2005 214 m 16 Y s 2014 221 m 9 X s 2023 214 m 16 Y s 2014 221 m 8 Y s 2005 229 m 18 X s 2014 221 m -4 Y s 2005 217 m 18 X s 2032 221 m -9 X s 2023 214 m 16 Y s 2032 221
 m 9 X s 2041 214 m 16 Y s 2032 221 m 8 Y s 2023 229 m 18 X s 2032 221 m -4 Y s 2023 217 m 18 X s 1 1 1 c black /w 36 def /w2 {w 2 div} def /w3 {w 3 div} def 236 236 254 230 272 236 290 246 308 230 327 243 345 233 363 224 381 233 399 227 417 243 435
 252 454 230 472 233 490 240 508 230 526 233 544 227 562 224 581 233 599 224 617 243 635 233 653 227 671 236 689 246 708 246 726 230 744 243 762 246 780 230 798 230 816 240 835 227 853 236 871 236 889 236 907 230 925 240 943 240 962 246 980 224 998
 240 1016 243 1034 236 1052 246 1070 246 1089 233 1107 261 1125 246 1143 246 1161 246 1179 246 1197 249 1215 274 1234 277 1252 280 1270 283 1288 330 1306 324 1324 359 1342 368 1361 431 1379 484 1397 600 1415 665 1433 747 1451 853 1469 1029 1488 1204
 1506 1361 1524 1448 1542 1633 1560 1711 1578 1777 1596 1765 1615 1736 1633 1639 1651 1655 1669 1649 1687 1470 1705 1354 1723 1267 1742 1076 1760 922 1778 722 1796 731 1814 603 1832 512 1850 431 1869 355 1887 302 1905 312 1923 274 1941 249 1959 240
 1977 261 1996 233 2014 221 2032 221 100 { m20} R 0 0 1 c 9 lw 1 1 1 c black 0 0 1 c 227 235 m cl s 227 235 m 54 X 18 1 d 109 X 18 1 d 127 X 18 1 d 127 X 19 1 d 145 X 18 1 d 181 X 18 1 d 55 X 18 1 d 18 1 d 18 1 d 18 3 d 19 3 d 18 6 d 18 9 d 18 12 d
 18 18 d 18 24 d 18 34 d 19 44 d 9 27 d 9 31 d 9 34 d 9 38 d 9 41 d 9 46 d 9 50 d 9 53 d 9 57 d 9 61 d 18 131 d 19 139 d 18 143 d 18 139 d 9 67 d 9 63 d 9 58 d 9 53 d 9 47 d 9 40 d 9 32 d 9 25 d 9 15 d 10 7 d 9 -2 d 9 -11 d 9 -20 d 9 -29 d 9 -36 d 9
 -43 d 9 -50 d 9 -56 d 9 -61 d 9 -65 d 18 -138 d 19 -143 d 18 -141 d 18 -134 d 9 -63 d 9 -60 d 9 -55 d 9 -52 d 9 -49 d 9 -44 d 9 -40 d 9 -36 d 9 -33 d 10 -29 d 18 -48 d 18 -38 d 18 -27 d 18 -21 d 18 -15 d 18 -10 d 19 -8 d 18 -6 d 18 -5 d 18 -9 d s[
 12 12] 0 sd 1 1 1 c black 0 0 1 c 227 235 m cl s 227 235 m 127 X 18 1 d 109 X 18 1 d 127 X 18 1 d 127 X 18 1 d 182 X 18 1 d 145 X 18 1 d 36 X 18 1 d 19 1 d 18 1 d 18 1 d 18 2 d 18 3 d 18 4 d 18 4 d 19 6 d 18 7 d 18 8 d 18 10 d 18 11 d 18 12 d 18 13
 d 19 13 d 18 13 d 18 12 d 9 6 d 9 5 d 9 5 d 9 5 d 9 4 d 9 3 d 9 3 d 9 1 d 9 2 d 19 X 9 -1 d 9 -2 d 9 -2 d 9 -4 d 9 -3 d 9 -5 d 9 -5 d 9 -5 d 9 -6 d 18 -13 d 19 -13 d 18 -14 d 18 -13 d 18 -13 d 18 -11 d 18 -11 d 18 -9 d 19 -8 d 18 -7 d 18 -6 d 18 -5
 d 18 -4 d 18 -3 d 18 -3 d 19 -3 d 18 -3 d 18 -3 d 9 -2 d 4 -1 d 3 -1 d 2 -3 d s black[  ] 0 sd 3 lw 227 214 m 1814 X s 227 266 m -52 Y s 272 240 m -26 Y s 317 240 m -26 Y s 363 240 m -26 Y s 408 240 m -26 Y s 454 266 m -52 Y s 499 240 m -26 Y s 544
 240 m -26 Y s 590 240 m -26 Y s 635 240 m -26 Y s 680 266 m -52 Y s 726 240 m -26 Y s 771 240 m -26 Y s 816 240 m -26 Y s 862 240 m -26 Y s 907 266 m -52 Y s 952 240 m -26 Y s 998 240 m -26 Y s 1043 240 m -26 Y s 1089 240 m -26 Y s 1134 266 m -52 Y
 s 1179 240 m -26 Y s 1225 240 m -26 Y s 1270 240 m -26 Y s 1315 240 m -26 Y s 1361 266 m -52 Y s 1406 240 m -26 Y s 1451 240 m -26 Y s 1497 240 m -26 Y s 1542 240 m -26 Y s 1587 266 m -52 Y s 1633 240 m -26 Y s 1678 240 m -26 Y s 1723 240 m -26 Y s
 1769 240 m -26 Y s 1814 266 m -52 Y s 1860 240 m -26 Y s 1905 240 m -26 Y s 1950 240 m -26 Y s 1996 240 m -26 Y s 2041 266 m -52 Y s 227 214 m 1716 Y s 281 214 m -54 X s 254 277 m -27 X s 254 340 m -27 X s 254 402 m -27 X s 254 465 m -27 X s 281 528
 m -54 X s 254 590 m -27 X s 254 653 m -27 X s 254 716 m -27 X s 254 778 m -27 X s 281 841 m -54 X s 254 903 m -27 X s 254 966 m -27 X s 254 1029 m -27 X s 254 1091 m -27 X s 281 1154 m -54 X s 254 1217 m -27 X s 254 1279 m -27 X s 254 1342 m -27 X s
 254 1404 m -27 X s 281 1467 m -54 X s 254 1530 m -27 X s 254 1592 m -27 X s 254 1655 m -27 X s 254 1718 m -27 X s 281 1780 m -54 X s 281 1780 m -54 X s 254 1843 m -27 X s 254 1905 m -27 X s 1 1 1 c black
 gsave  2268 2145 0 0 C 651.172 2040.03 t 0 r /Helvetica findfont 104.734 sf 0 0 m (Signal + Background) show NC gr 
 gr  gr showpage
end
%%EOF
