%!PS-Adobe-2.0 EPSF-2.0
%%BoundingBox:  0 0 567 536
%%Title: ./plots/s2/pSig_s0s1.eps: Signal
%%Creator: ROOT Version 6.13/01
%%CreationDate: Thu Dec 28 11:46:43 2017
%%DocumentNeededResources: ProcSet (FontSetInit)
%%EndComments
%%BeginProlog
80 dict begin
/s {stroke} def /l {lineto} def /m {moveto} def /t {translate} def
/r {rotate} def /rl {roll}  def /R {repeat} def
/d {rlineto} def /rm {rmoveto} def /gr {grestore} def /f {eofill} def
/c {setrgbcolor} def /black {0 setgray} def /sd {setdash} def
/cl {closepath} def /sf {scalefont setfont} def /lw {setlinewidth} def
/box {m dup 0 exch d exch 0 d 0 exch neg d cl} def
/NC{systemdict begin initclip end}def/C{NC box clip newpath}def
/bl {box s} def /bf {gsave box gsave f grestore 1 lw [] 0 sd s grestore} def /Y { 0 exch d} def /X { 0 d} def 
/K {{pop pop 0 moveto} exch kshow} bind def
/ita {/ang 15 def gsave [1 0 ang dup sin exch cos div 1 0 0] concat} def 
/mp {newpath /y exch def /x exch def} def
/side {[w .77 mul w .23 mul] .385 w mul sd w 0 l currentpoint t -144 r} def
/mr {mp x y w2 0 360 arc} def /m24 {mr s} def /m20 {mr f} def
/mb {mp x y w2 add m w2 neg 0 d 0 w neg d w 0 d 0 w d cl} def
/mt {mp x y w2 add m w2 neg w neg d w 0 d cl} def
/w4 {w 4 div} def
/w6 {w 6 div} def
/w8 {w 8 div} def
/m21 {mb f} def /m25 {mb s} def /m22 {mt f} def /m26{mt s} def
/m23 {mp x y w2 sub m w2 w d w neg 0 d cl f} def
/m27 {mp x y w2 add m w3 neg w2 neg d w3 w2 neg d w3 w2 d cl s} def
/m28 {mp x w2 sub y w2 sub w3 add m w3 0 d  0 w3 neg d w3 0 d 0 w3 d w3 0 d  0 w3 d w3 neg 0 d 0 w3 d w3 neg 0 d 0 w3 neg d w3 neg 0 d cl s } def
/m29 {mp gsave x w2 sub y w2 add w3 sub m currentpoint t 4 {side} repeat cl fill gr} def
/m30 {mp gsave x w2 sub y w2 add w3 sub m currentpoint t 4 {side} repeat cl s gr} def
/m31 {mp x y w2 sub m 0 w d x w2 sub y m w 0 d x w2 sub y w2 add m w w neg d x w2 sub y w2 sub m w w d s} def
/m32 {mp x y w2 sub m w2 w d w neg 0 d cl s} def
/m33 {mp x y w2 add m w3 neg w2 neg d w3 w2 neg d w3 w2 d cl f} def
/m34 {mp x w2 sub y w2 sub w3 add m w3 0 d  0 w3 neg d w3 0 d 0 w3 d w3 0 d  0 w3 d w3 neg 0 d 0 w3 d w3 neg 0 d 0 w3 neg d w3 neg 0 d cl f } def
/m35 {mp x y w2 add m w2 neg w2 neg d w2 w2 neg d w2 w2 d w2 neg w2 d x y w2 sub m 0 w d x w2 sub y m w 0 d s} def
/m36 {mb x w2 sub y w2 add m w w neg d x w2 sub y w2 sub m w w d s} def
/m37 {mp x y m w4 neg w2 d w4 neg w2 neg d w2 0 d  w4 neg w2 neg d w2 0 d w4 neg w2 d w2 0 d w4 neg w2 d w4 neg w2 neg d cl s} def
/m38 {mp x w4 sub y w2 add m w4 neg w4 neg d 0 w2 neg d w4 w4 neg d w2 0 d w4 w4 d 0 w2 d w4 neg w4 d w2 neg 0 d x y w2 sub m 0 w d x w2 sub y m w 0 d cl s} def
/m39 {mp x y m w4 neg w2 d w4 neg w2 neg d w2 0 d  w4 neg w2 neg d w2 0 d w4 neg w2 d w2 0 d w4 neg w2 d w4 neg w2 neg d cl f} def
/m40 {mp x y m w4 w2 d w4 w4 neg d w2 neg w4 neg d w2 w4 neg d w4 neg w4 neg d w4 neg w2 d w4 neg w2 neg d w4 neg w4 d w2 w4 d w2 neg w4 d w4 w4 d w4 w2 neg d cl s} def
/m41 {mp x y m w4 w2 d w4 w4 neg d w2 neg w4 neg d w2 w4 neg d w4 neg w4 neg d w4 neg w2 d w4 neg w2 neg d w4 neg w4 d w2 w4 d w2 neg w4 d w4 w4 d w4 w2 neg d cl f} def
/m42 {mp x y w2 add m w8 neg w2 -3 4 div mul d w2 -3 4 div mul w8 neg d w2 3 4 div mul w8 neg d w8 w2 -3 4 div mul d w8 w2 3 4 div mul d w2 3 4 div mul w8 d w2 -3 4 div mul w8 d w8 neg w2 3 4 div mul d cl s} def
/m43 {mp x y w2 add m w8 neg w2 -3 4 div mul d w2 -3 4 div mul w8 neg d w2 3 4 div mul w8 neg d w8 w2 -3 4 div mul d w8 w2 3 4 div mul d w2 3 4 div mul w8 d w2 -3 4 div mul w8 d w8 neg w2 3 4 div mul d cl f} def
/m44 {mp x y m w6 neg w2 d w2 2 3 div mul 0 d w6 neg w2 neg d w2 w6 d 0 w2 -2 3 div mul d w2 neg w6 d w6 w2 neg d w2 -2 3 div mul 0 d w6 w2 d w2 neg w6 neg d 0 w2 2 3 div mul d w2 w6 neg d cl s} def
/m45 {mp x y m w6 neg w2 d w2 2 3 div mul 0 d w6 neg w2 neg d w2 w6 d 0 w2 -2 3 div mul d w2 neg w6 d w6 w2 neg d w2 -2 3 div mul 0 d w6 w2 d w2 neg w6 neg d 0 w2 2 3 div mul d w2 w6 neg d cl f} def
/m46 {mp x y w4 add m w4 neg w4 d w4 neg w4 neg d  w4 w4 neg d w4 neg w4 neg d w4 w4 neg d w4 w4 d w4 w4 neg d w4 w4 d w4 neg w4 d w4 w4 d w4 neg w4 d w4 neg w4 neg d cl s} def
/m47 {mp x y w4 add m w4 neg w4 d w4 neg w4 neg d w4 w4 neg d w4 neg w4 neg d  w4 w4 neg d w4 w4 d w4 w4 neg d w4 w4 d w4 neg w4 d w4 w4 d w4 neg w4 d w4 neg w4 neg d cl f} def
/m48 {mp x y w4 add m w4 neg w4 d w4 neg w4 neg d w4 w4 neg d  w4 neg w4 neg d w4 w4 neg d w4 w4 d w4 w4 neg d w4 w4 d w4 neg w4 d w4 w4 d w4 neg w4 d w4 neg w4 neg d  w4 w4 neg d w4 neg w4 neg d w4 neg w4 d w4 w4 d cl f} def
/m49 {mp x w2 sub w3 add y w2 sub w3 add m  0 w3 neg d w3 0 d 0 w3 d w3 0 d 0 w3 d w3 neg 0 d 0 w3 d w3 neg 0 d 0 w3 neg d w3 neg 0 d 0 w3 neg d w3 0 d 0 w3 d w3 0 d 0 w3 neg d w3 neg 0 d cl f } def
/m2 {mp x y w2 sub m 0 w d x w2 sub y m w 0 d s} def
/m5 {mp x w2 sub y w2 sub m w w d x w2 sub y w2 add m w w neg d s} def
%%IncludeResource: ProcSet (FontSetInit)
%%IncludeResource: font Times-Roman
%%IncludeResource: font Times-Italic
%%IncludeResource: font Times-Bold
%%IncludeResource: font Times-BoldItalic
%%IncludeResource: font Helvetica
%%IncludeResource: font Helvetica-Oblique
%%IncludeResource: font Helvetica-Bold
%%IncludeResource: font Helvetica-BoldOblique
%%IncludeResource: font Courier
%%IncludeResource: font Courier-Oblique
%%IncludeResource: font Courier-Bold
%%IncludeResource: font Courier-BoldOblique
%%IncludeResource: font Symbol
%%IncludeResource: font ZapfDingbats
/reEncode {exch findfont dup length dict begin {1 index /FID eq  {pop pop} {def} ifelse } forall /Encoding exch def currentdict end dup /FontName get exch definefont pop } def [/Times-Bold /Times-Italic /Times-BoldItalic /Helvetica /Helvetica-Oblique
 /Helvetica-Bold /Helvetica-BoldOblique /Courier /Courier-Oblique /Courier-Bold /Courier-BoldOblique /Times-Roman /AvantGarde-Book /AvantGarde-BookOblique /AvantGarde-Demi /AvantGarde-DemiOblique /Bookman-Demi /Bookman-DemiItalic /Bookman-Light
 /Bookman-LightItalic /Helvetica-Narrow /Helvetica-Narrow-Bold /Helvetica-Narrow-BoldOblique /Helvetica-Narrow-Oblique /NewCenturySchlbk-Roman /NewCenturySchlbk-Bold /NewCenturySchlbk-BoldItalic /NewCenturySchlbk-Italic /Palatino-Bold
 /Palatino-BoldItalic /Palatino-Italic /Palatino-Roman ] {ISOLatin1Encoding reEncode } forall
%%EndProlog
%%BeginSetup
%%EndSetup
newpath  gsave  .25 .25 scale  gsave  0 0 t black[  ] 0 sd 3 lw 1 1 1 c 2268 2145 0 0 bf black 1 1 1 c 1814 1716 227 214 bf black 1814 1716 227 214 bl 227 214 m 1814 X s 227 266 m -52 Y s 272 240 m -26 Y s 317 240 m -26 Y s 363 240 m -26 Y s 408 240
 m -26 Y s 454 266 m -52 Y s 499 240 m -26 Y s 544 240 m -26 Y s 590 240 m -26 Y s 635 240 m -26 Y s 680 266 m -52 Y s 726 240 m -26 Y s 771 240 m -26 Y s 816 240 m -26 Y s 862 240 m -26 Y s 907 266 m -52 Y s 952 240 m -26 Y s 998 240 m -26 Y s 1043
 240 m -26 Y s 1089 240 m -26 Y s 1134 266 m -52 Y s 1179 240 m -26 Y s 1225 240 m -26 Y s 1270 240 m -26 Y s 1315 240 m -26 Y s 1361 266 m -52 Y s 1406 240 m -26 Y s 1451 240 m -26 Y s 1497 240 m -26 Y s 1542 240 m -26 Y s 1587 266 m -52 Y s 1633
 240 m -26 Y s 1678 240 m -26 Y s 1723 240 m -26 Y s 1769 240 m -26 Y s 1814 266 m -52 Y s 1860 240 m -26 Y s 1905 240 m -26 Y s 1950 240 m -26 Y s 1996 240 m -26 Y s 2041 266 m -52 Y s
 gsave  2268 2145 0 0 C 154.824 145.717 t 0 r /Helvetica findfont 68.3047 sf 0 0 m (5.25) show NC gr 
 gsave  2268 2145 0 0 C 364.292 145.717 t 0 r /Helvetica findfont 68.3047 sf 0 0 m (5.255) show NC gr 
 gsave  2268 2145 0 0 C 610.189 145.717 t 0 r /Helvetica findfont 68.3047 sf 0 0 m (5.26) show NC gr 
 gsave  2268 2145 0 0 C 819.657 145.717 t 0 r /Helvetica findfont 68.3047 sf 0 0 m (5.265) show NC gr 
 gsave  2268 2145 0 0 C 1065.55 145.717 t 0 r /Helvetica findfont 68.3047 sf 0 0 m (5.27) show NC gr 
 gsave  2268 2145 0 0 C 1270.47 145.717 t 0 r /Helvetica findfont 68.3047 sf 0 0 m (5.275) show NC gr 
 gsave  2268 2145 0 0 C 1516.36 145.717 t 0 r /Helvetica findfont 68.3047 sf 0 0 m (5.28) show NC gr 
 gsave  2268 2145 0 0 C 1725.83 145.717 t 0 r /Helvetica findfont 68.3047 sf 0 0 m (5.285) show NC gr 
 gsave  2268 2145 0 0 C 1971.73 145.717 t 0 r /Helvetica findfont 68.3047 sf 0 0 m (5.29) show NC gr 
 gsave  2268 2145 0 0 C 1552.79 72.8584 t 0 r /Helvetica findfont 68.3047 sf 0 0 m (m_bc \(GeV/c^2\)) show NC gr  227 214 m 1716 Y s 281 214 m -54 X s 254 250 m -27 X s 254 285 m -27 X s 254 320 m -27 X s 254 356 m -27 X s 281 391 m -54 X s 254 426 m
 -27 X s 254 461 m -27 X s 254 497 m -27 X s 254 532 m -27 X s 281 567 m -54 X s 254 603 m -27 X s 254 638 m -27 X s 254 673 m -27 X s 254 708 m -27 X s 281 744 m -54 X s 254 779 m -27 X s 254 814 m -27 X s 254 849 m -27 X s 254 885 m -27 X s 281 920
 m -54 X s 254 955 m -27 X s 254 991 m -27 X s 254 1026 m -27 X s 254 1061 m -27 X s 281 1096 m -54 X s 254 1132 m -27 X s 254 1167 m -27 X s 254 1202 m -27 X s 254 1238 m -27 X s 281 1273 m -54 X s 254 1308 m -27 X s 254 1343 m -27 X s 254 1379 m
 -27 X s 254 1414 m -27 X s 281 1449 m -54 X s 254 1484 m -27 X s 254 1520 m -27 X s 254 1555 m -27 X s 254 1590 m -27 X s 281 1626 m -54 X s 254 1661 m -27 X s 254 1696 m -27 X s 254 1731 m -27 X s 254 1767 m -27 X s 281 1802 m -54 X s 281 1802 m
 -54 X s 254 1837 m -27 X s 254 1873 m -27 X s 254 1908 m -27 X s
 gsave  2268 2145 0 0 C 177.592 191.253 t 0 r /Helvetica findfont 68.3047 sf 0 0 m (0) show NC gr 
 gsave  2268 2145 0 0 C 100.18 364.292 t 0 r /Helvetica findfont 68.3047 sf 0 0 m (100) show NC gr 
 gsave  2268 2145 0 0 C 100.18 541.884 t 0 r /Helvetica findfont 68.3047 sf 0 0 m (200) show NC gr 
 gsave  2268 2145 0 0 C 100.18 719.476 t 0 r /Helvetica findfont 68.3047 sf 0 0 m (300) show NC gr 
 gsave  2268 2145 0 0 C 100.18 897.069 t 0 r /Helvetica findfont 68.3047 sf 0 0 m (400) show NC gr 
 gsave  2268 2145 0 0 C 100.18 1070.11 t 0 r /Helvetica findfont 68.3047 sf 0 0 m (500) show NC gr 
 gsave  2268 2145 0 0 C 100.18 1247.7 t 0 r /Helvetica findfont 68.3047 sf 0 0 m (600) show NC gr 
 gsave  2268 2145 0 0 C 100.18 1425.29 t 0 r /Helvetica findfont 68.3047 sf 0 0 m (700) show NC gr 
 gsave  2268 2145 0 0 C 100.18 1598.33 t 0 r /Helvetica findfont 68.3047 sf 0 0 m (800) show NC gr 
 gsave  2268 2145 0 0 C 100.18 1775.92 t 0 r /Helvetica findfont 68.3047 sf 0 0 m (900) show NC gr 
 gsave  2268 2145 0 0 C 50.0901 1097.43 t 90 r /Helvetica findfont 68.3047 sf 0 0 m (Events / \( 0.0004 GeV/c^2 \)) show NC gr  1 1 1 c black
 gsave  2268 2145 0 0 C 988.142 2040.03 t 0 r /Helvetica findfont 104.734 sf 0 0 m (Signal) show NC gr  236 214 m -9 X s 227 214 m 10 Y s 236 214 m 9 X s 245 214 m 10 Y s 236 214 m 3 Y s 227 217 m 18 X s 254 214 m -9 X s 245 214 m 10 Y s 254 214 m 9
 X s 263 214 m 10 Y s 254 214 m 3 Y s 245 217 m 18 X s 272 214 m -9 X s 263 214 m 10 Y s 272 214 m 9 X s 281 214 m 10 Y s 272 214 m 3 Y s 263 217 m 18 X s 290 214 m -9 X s 281 214 m 10 Y s 290 214 m 9 X s 299 214 m 10 Y s 290 214 m 3 Y s 281 217 m 18
 X s 308 214 m -9 X s 299 214 m 10 Y s 308 214 m 9 X s 317 214 m 10 Y s 308 214 m 3 Y s 299 217 m 19 X s 327 216 m -10 X s 317 214 m 11 Y s 327 216 m 9 X s 336 214 m 11 Y s 327 216 m 4 Y s 317 220 m 19 X s 327 216 m -1 Y s 317 215 m 19 X s 345 214 m
 -9 X s 336 214 m 10 Y s 345 214 m 9 X s 354 214 m 10 Y s 345 214 m 3 Y s 336 217 m 18 X s 363 214 m -9 X s 354 214 m 10 Y s 363 214 m 9 X s 372 214 m 10 Y s 363 214 m 3 Y s 354 217 m 18 X s 381 214 m -9 X s 372 214 m 10 Y s 381 214 m 9 X s 390 214 m
 10 Y s 381 214 m 3 Y s 372 217 m 18 X s 399 214 m -9 X s 390 214 m 10 Y s 399 214 m 9 X s 408 214 m 10 Y s 399 214 m 3 Y s 390 217 m 18 X s 417 214 m -9 X s 408 214 m 10 Y s 417 214 m 9 X s 426 214 m 10 Y s 417 214 m 3 Y s 408 217 m 18 X s 435 214 m
 -9 X s 426 214 m 10 Y s 435 214 m 9 X s 444 214 m 10 Y s 435 214 m 3 Y s 426 217 m 19 X s 454 214 m -10 X s 444 214 m 10 Y s 454 214 m 9 X s 463 214 m 10 Y s 454 214 m 3 Y s 444 217 m 19 X s 472 214 m -9 X s 463 214 m 10 Y s 472 214 m 9 X s 481 214
 m 10 Y s 472 214 m 3 Y s 463 217 m 18 X s 490 214 m -9 X s 481 214 m 10 Y s 490 214 m 9 X s 499 214 m 10 Y s 490 214 m 3 Y s 481 217 m 18 X s 508 214 m -9 X s 499 214 m 10 Y s 508 214 m 9 X s 517 214 m 10 Y s 508 214 m 3 Y s 499 217 m 18 X s 526 214
 m -9 X s 517 214 m 10 Y s 526 214 m 9 X s 535 214 m 10 Y s 526 214 m 3 Y s 517 217 m 18 X s 544 214 m -9 X s 535 214 m 10 Y s 544 214 m 9 X s 553 214 m 10 Y s 544 214 m 3 Y s 535 217 m 18 X s 562 214 m -9 X s 553 214 m 10 Y s 562 214 m 9 X s 571 214
 m 10 Y s 562 214 m 3 Y s 553 217 m 19 X s 581 214 m -10 X s 571 214 m 10 Y s 581 214 m 9 X s 590 214 m 10 Y s 581 214 m 3 Y s 571 217 m 19 X s 599 216 m -9 X s 590 214 m 11 Y s 599 216 m 9 X s 608 214 m 11 Y s 599 216 m 4 Y s 590 220 m 18 X s 599
 216 m -1 Y s 590 215 m 18 X s 617 214 m -9 X s 608 214 m 10 Y s 617 214 m 9 X s 626 214 m 10 Y s 617 214 m 3 Y s 608 217 m 18 X s 635 214 m -9 X s 626 214 m 10 Y s 635 214 m 9 X s 644 214 m 10 Y s 635 214 m 3 Y s 626 217 m 18 X s 653 214 m -9 X s
 644 214 m 10 Y s 653 214 m 9 X s 662 214 m 10 Y s 653 214 m 3 Y s 644 217 m 18 X s 671 214 m -9 X s 662 214 m 10 Y s 671 214 m 9 X s 680 214 m 10 Y s 671 214 m 3 Y s 662 217 m 18 X s 689 214 m -9 X s 680 214 m 10 Y s 689 214 m 9 X s 698 214 m 10 Y s
 689 214 m 3 Y s 680 217 m 18 X s 708 214 m -10 X s 698 214 m 10 Y s 708 214 m 9 X s 717 214 m 10 Y s 708 214 m 3 Y s 698 217 m 19 X s 726 214 m -9 X s 717 214 m 10 Y s 726 214 m 9 X s 735 214 m 10 Y s 726 214 m 3 Y s 717 217 m 18 X s 744 214 m -9 X
 s 735 214 m 10 Y s 744 214 m 9 X s 753 214 m 10 Y s 744 214 m 3 Y s 735 217 m 18 X s 762 214 m -9 X s 753 214 m 10 Y s 762 214 m 9 X s 771 214 m 10 Y s 762 214 m 3 Y s 753 217 m 18 X s 780 216 m -9 X s 771 214 m 11 Y s 780 216 m 9 X s 789 214 m 11 Y
 s 780 216 m 4 Y s 771 220 m 18 X s 780 216 m -1 Y s 771 215 m 18 X s 798 214 m -9 X s 789 214 m 10 Y s 798 214 m 9 X s 807 214 m 10 Y s 798 214 m 3 Y s 789 217 m 18 X s 816 216 m -9 X s 807 214 m 11 Y s 816 216 m 9 X s 825 214 m 11 Y s 816 216 m 4 Y
 s 807 220 m 18 X s 816 216 m -1 Y s 807 215 m 18 X s 835 214 m -10 X s 825 214 m 10 Y s 835 214 m 9 X s 844 214 m 10 Y s 835 214 m 3 Y s 825 217 m 19 X s 853 214 m -9 X s 844 214 m 10 Y s 853 214 m 9 X s 862 214 m 10 Y s 853 214 m 3 Y s 844 217 m 18
 X s 871 216 m -9 X s 862 214 m 11 Y s 871 216 m 9 X s 880 214 m 11 Y s 871 216 m 4 Y s 862 220 m 18 X s 871 216 m -1 Y s 862 215 m 18 X s 889 214 m -9 X s 880 214 m 10 Y s 889 214 m 9 X s 898 214 m 10 Y s 889 214 m 3 Y s 880 217 m 18 X s 907 214 m
 -9 X s 898 214 m 10 Y s 907 214 m 9 X s 916 214 m 10 Y s 907 214 m 3 Y s 898 217 m 18 X s 925 216 m -9 X s 916 214 m 11 Y s 925 216 m 9 X s 934 214 m 11 Y s 925 216 m 4 Y s 916 220 m 18 X s 925 216 m -1 Y s 916 215 m 18 X s 943 214 m -9 X s 934 214
 m 10 Y s 943 214 m 9 X s 952 214 m 10 Y s 943 214 m 3 Y s 934 217 m 18 X s 962 214 m -10 X s 952 214 m 10 Y s 962 214 m 9 X s 971 214 m 10 Y s 962 214 m 3 Y s 952 217 m 19 X s 980 214 m -9 X s 971 214 m 10 Y s 980 214 m 9 X s 989 214 m 10 Y s 980
 214 m 3 Y s 971 217 m 18 X s 998 214 m -9 X s 989 214 m 10 Y s 998 214 m 9 X s 1007 214 m 10 Y s 998 214 m 3 Y s 989 217 m 18 X s 1016 214 m -9 X s 1007 214 m 10 Y s 1016 214 m 9 X s 1025 214 m 10 Y s 1016 214 m 3 Y s 1007 217 m 18 X s 1034 214 m -9
 X s 1025 214 m 10 Y s 1034 214 m 9 X s 1043 214 m 10 Y s 1034 214 m 3 Y s 1025 217 m 18 X s 1052 214 m -9 X s 1043 214 m 10 Y s 1052 214 m 9 X s 1061 214 m 10 Y s 1052 214 m 3 Y s 1043 217 m 18 X s 1070 214 m -9 X s 1061 214 m 10 Y s 1070 214 m 9 X
 s 1079 214 m 10 Y s 1070 214 m 3 Y s 1061 217 m 18 X s 1089 216 m -10 X s 1079 214 m 11 Y s 1089 216 m 9 X s 1098 214 m 11 Y s 1089 216 m 4 Y s 1079 220 m 19 X s 1089 216 m -1 Y s 1079 215 m 19 X s 1107 216 m -9 X s 1098 214 m 11 Y s 1107 216 m 9 X
 s 1116 214 m 11 Y s 1107 216 m 4 Y s 1098 220 m 18 X s 1107 216 m -1 Y s 1098 215 m 18 X s 1125 218 m -9 X s 1116 214 m 13 Y s 1125 218 m 9 X s 1134 214 m 13 Y s 1125 218 m 5 Y s 1116 223 m 18 X s 1125 218 m -2 Y s 1116 216 m 18 X s 1143 216 m -9 X
 s 1134 214 m 11 Y s 1143 216 m 9 X s 1152 214 m 11 Y s 1143 216 m 4 Y s 1134 220 m 18 X s 1143 216 m -1 Y s 1134 215 m 18 X s 1161 222 m -9 X s 1152 214 m 17 Y s 1161 222 m 9 X s 1170 214 m 17 Y s 1161 222 m 5 Y s 1152 227 m 18 X s 1161 222 m -4 Y s
 1152 218 m 18 X s 1179 222 m -9 X s 1170 214 m 17 Y s 1179 222 m 9 X s 1188 214 m 17 Y s 1179 222 m 5 Y s 1170 227 m 18 X s 1179 222 m -4 Y s 1170 218 m 18 X s 1197 223 m -9 X s 1188 214 m 18 Y s 1197 223 m 9 X s 1206 214 m 18 Y s 1197 223 m 6 Y s
 1188 229 m 18 X s 1197 223 m -4 Y s 1188 219 m 18 X s 1215 223 m -9 X s 1206 214 m 18 Y s 1215 223 m 10 X s 1225 214 m 18 Y s 1215 223 m 6 Y s 1206 229 m 19 X s 1215 223 m -4 Y s 1206 219 m 19 X s 1234 230 m -9 X s 1225 221 m 18 Y s 1234 230 m 9 X s
 1243 221 m 18 Y s 1234 230 m 8 Y s 1225 238 m 18 X s 1234 230 m -5 Y s 1225 225 m 18 X s 1252 241 m -9 X s 1243 232 m 18 Y s 1252 241 m 9 X s 1261 232 m 18 Y s 1252 241 m 9 Y s 1243 250 m 18 X s 1252 241 m -7 Y s 1243 234 m 18 X s 1270 250 m -9 X s
 1261 241 m 18 Y s 1270 250 m 9 X s 1279 241 m 18 Y s 1270 250 m 10 Y s 1261 260 m 18 X s 1270 250 m -8 Y s 1261 242 m 18 X s 1288 283 m -9 X s 1279 274 m 18 Y s 1288 283 m 9 X s 1297 274 m 18 Y s 1288 283 m 13 Y s 1279 296 m 18 X s 1288 283 m -11 Y
 s 1279 272 m 18 X s 1306 271 m -9 X s 1297 262 m 18 Y s 1306 271 m 9 X s 1315 262 m 18 Y s 1306 271 m 12 Y s 1297 283 m 18 X s 1306 271 m -10 Y s 1297 261 m 18 X s 1324 313 m -9 X s 1315 304 m 18 Y s 1324 313 m 9 X s 1333 304 m 18 Y s 1324 313 m 15
 Y s 1315 328 m 18 X s 1324 313 m -13 Y s 1315 300 m 18 X s 1342 359 m -9 X s 1333 350 m 18 Y s 1342 359 m 10 X s 1352 350 m 18 Y s 1342 359 m 18 Y s 1333 377 m 19 X s 1342 359 m -16 Y s 1333 343 m 19 X s 1361 377 m -9 X s 1352 368 m 18 Y s 1361 377
 m 9 X s 1370 368 m 18 Y s 1361 377 m 18 Y s 1352 395 m 18 X s 1361 377 m -17 Y s 1352 360 m 18 X s 1379 424 m -9 X s 1370 415 m 18 Y s 1379 424 m 9 X s 1388 415 m 18 Y s 1379 424 m 21 Y s 1370 445 m 18 X s 1379 424 m -18 Y s 1370 406 m 18 X s 1397
 527 m -9 X s 1388 518 m 18 Y s 1397 527 m 9 X s 1406 518 m 18 Y s 1397 527 m 24 Y s 1388 551 m 18 X s 1397 527 m -23 Y s 1388 504 m 18 X s 1415 597 m -9 X s 1406 588 m 18 Y s 1415 597 m 9 X s 1424 588 m 18 Y s 1415 597 m 27 Y s 1406 624 m 18 X s
 1415 597 m -25 Y s 1406 572 m 18 X s 1433 696 m -9 X s 1424 687 m 18 Y s 1433 696 m 9 X s 1442 687 m 18 Y s 1433 696 m 30 Y s 1424 726 m 18 X s 1433 696 m -28 Y s 1424 668 m 18 X s 1451 846 m -9 X s 1442 837 m 18 Y s 1451 846 m 9 X s 1460 837 m 18 Y
 s 1451 846 m 34 Y s 1442 880 m 18 X s 1451 846 m -33 Y s 1442 813 m 18 X s 1469 924 m -9 X s 1460 914 m 19 Y s 1469 924 m 10 X s 1479 914 m 19 Y s 1469 924 m 36 Y s 1460 960 m 19 X s 1469 924 m -35 Y s 1460 889 m 19 X s 1488 1095 m -9 X s 1479 1086
 m 18 Y s 1488 1095 m 9 X s 1497 1086 m 18 Y s 1488 1095 m 40 Y s 1479 1135 m 18 X s 1488 1095 m -39 Y s 1479 1056 m 18 X s 1506 1275 m -9 X s 1497 1265 m 19 Y s 1506 1275 m 9 X s 1515 1265 m 19 Y s 1506 1275 m 44 Y s 1497 1319 m 18 X s 1506 1275 m
 -43 Y s 1497 1232 m 18 X s 1524 1432 m -9 X s 1515 1422 m 19 Y s 1524 1432 m 9 X s 1533 1422 m 19 Y s 1524 1432 m 47 Y s 1515 1479 m 18 X s 1524 1432 m -46 Y s 1515 1386 m 18 X s 1542 1694 m -9 X s 1533 1685 m 18 Y s 1542 1694 m 9 X s 1551 1685 m 18
 Y s 1542 1694 m 52 Y s 1533 1746 m 18 X s 1542 1694 m -50 Y s 1533 1644 m 18 X s 1560 1680 m -9 X s 1551 1671 m 18 Y s 1560 1680 m 9 X s 1569 1671 m 18 Y s 1560 1680 m 52 Y s 1551 1732 m 18 X s 1560 1680 m -50 Y s 1551 1630 m 18 X s 1578 1691 m -9 X
 s 1569 1682 m 18 Y s 1578 1691 m 9 X s 1587 1682 m 18 Y s 1578 1691 m 52 Y s 1569 1743 m 18 X s 1578 1691 m -50 Y s 1569 1641 m 18 X s 1596 1795 m -9 X s 1587 1786 m 18 Y s 1596 1795 m 10 X s 1606 1786 m 18 Y s 1596 1795 m 54 Y s 1587 1849 m 19 X s
 1596 1795 m -52 Y s 1587 1743 m 19 X s 1615 1717 m -9 X s 1606 1708 m 18 Y s 1615 1717 m 9 X s 1624 1708 m 18 Y s 1615 1717 m 53 Y s 1606 1770 m 18 X s 1615 1717 m -50 Y s 1606 1667 m 18 X s 1633 1772 m -9 X s 1624 1763 m 18 Y s 1633 1772 m 9 X s
 1642 1763 m 18 Y s 1633 1772 m 53 Y s 1624 1825 m 18 X s 1633 1772 m -52 Y s 1624 1720 m 18 X s 1651 1680 m -9 X s 1642 1671 m 18 Y s 1651 1680 m 9 X s 1660 1671 m 18 Y s 1651 1680 m 52 Y s 1642 1732 m 18 X s 1651 1680 m -50 Y s 1642 1630 m 18 X s
 1669 1615 m -9 X s 1660 1606 m 18 Y s 1669 1615 m 9 X s 1678 1606 m 18 Y s 1669 1615 m 51 Y s 1660 1666 m 18 X s 1669 1615 m -49 Y s 1660 1566 m 18 X s 1687 1484 m -9 X s 1678 1475 m 19 Y s 1687 1484 m 9 X s 1696 1475 m 19 Y s 1687 1484 m 49 Y s
 1678 1533 m 18 X s 1687 1484 m -46 Y s 1678 1438 m 18 X s 1705 1301 m -9 X s 1696 1292 m 18 Y s 1705 1301 m 9 X s 1714 1292 m 18 Y s 1705 1301 m 45 Y s 1696 1346 m 18 X s 1705 1301 m -43 Y s 1696 1258 m 18 X s 1723 1169 m -9 X s 1714 1160 m 18 Y s
 1723 1169 m 10 X s 1733 1160 m 18 Y s 1723 1169 m 42 Y s 1714 1211 m 19 X s 1723 1169 m -40 Y s 1714 1129 m 19 X s 1742 1061 m -9 X s 1733 1052 m 18 Y s 1742 1061 m 9 X s 1751 1052 m 18 Y s 1742 1061 m 40 Y s 1732 1101 m 19 X s 1742 1061 m -38 Y s
 1732 1023 m 19 X s 1760 871 m -9 X s 1751 862 m 18 Y s 1760 871 m 9 X s 1769 862 m 18 Y s 1760 871 m 35 Y s 1751 906 m 18 X s 1760 871 m -34 Y s 1751 837 m 18 X s 1778 765 m -9 X s 1769 756 m 18 Y s 1778 765 m 9 X s 1787 756 m 18 Y s 1778 765 m 32 Y
 s 1769 797 m 18 X s 1778 765 m -30 Y s 1769 735 m 18 X s 1796 687 m -9 X s 1787 678 m 18 Y s 1796 687 m 9 X s 1805 678 m 18 Y s 1796 687 m 30 Y s 1787 717 m 18 X s 1796 687 m -28 Y s 1787 659 m 18 X s 1814 548 m -9 X s 1805 539 m 18 Y s 1814 548 m 9
 X s 1823 539 m 18 Y s 1814 548 m 25 Y s 1805 573 m 18 X s 1814 548 m -24 Y s 1805 524 m 18 X s 1832 456 m -9 X s 1823 447 m 18 Y s 1832 456 m 9 X s 1841 447 m 18 Y s 1832 456 m 22 Y s 1823 478 m 18 X s 1832 456 m -20 Y s 1823 436 m 18 X s 1850 380 m
 -9 X s 1841 371 m 18 Y s 1850 380 m 10 X s 1860 371 m 18 Y s 1850 380 m 19 Y s 1841 399 m 19 X s 1850 380 m -17 Y s 1841 363 m 19 X s 1869 341 m -9 X s 1860 332 m 19 Y s 1869 341 m 9 X s 1878 332 m 19 Y s 1869 341 m 17 Y s 1859 358 m 19 X s 1869 341
 m -14 Y s 1859 327 m 19 X s 1887 327 m -9 X s 1878 318 m 18 Y s 1887 327 m 9 X s 1896 318 m 18 Y s 1887 327 m 16 Y s 1878 343 m 18 X s 1887 327 m -14 Y s 1878 313 m 18 X s 1905 289 m -9 X s 1896 279 m 19 Y s 1905 289 m 9 X s 1914 279 m 19 Y s 1905
 289 m 13 Y s 1896 302 m 18 X s 1905 289 m -12 Y s 1896 277 m 18 X s 1923 252 m -9 X s 1914 242 m 19 Y s 1923 252 m 9 X s 1932 242 m 19 Y s 1923 252 m 9 Y s 1914 261 m 18 X s 1923 252 m -9 Y s 1914 243 m 18 X s 1941 244 m -9 X s 1932 235 m 19 Y s
 1941 244 m 9 X s 1950 235 m 19 Y s 1941 244 m 10 Y s 1932 254 m 18 X s 1941 244 m -7 Y s 1932 237 m 18 X s 1959 236 m -9 X s 1950 227 m 18 Y s 1959 236 m 9 X s 1968 227 m 18 Y s 1959 236 m 8 Y s 1950 244 m 18 X s 1959 236 m -6 Y s 1950 230 m 18 X s
 1977 229 m -9 X s 1968 219 m 19 Y s 1977 229 m 10 X s 1987 219 m 19 Y s 1977 229 m 7 Y s 1968 236 m 19 X s 1977 229 m -5 Y s 1968 224 m 19 X s 1996 220 m -9 X s 1987 214 m 15 Y s 1996 220 m 9 X s 2005 214 m 15 Y s 1996 220 m 5 Y s 1986 225 m 19 X s
 1996 220 m -3 Y s 1986 217 m 19 X s 2014 220 m -9 X s 2005 214 m 15 Y s 2014 220 m 9 X s 2023 214 m 15 Y s 2014 220 m 5 Y s 2005 225 m 18 X s 2014 220 m -3 Y s 2005 217 m 18 X s 2032 214 m -9 X s 2023 214 m 10 Y s 2032 214 m 9 X s 2041 214 m 10 Y s
 2032 214 m 3 Y s 2023 217 m 18 X s 1 1 1 c black /w 36 def /w2 {w 2 div} def /w3 {w 3 div} def 236 214 254 214 272 214 290 214 308 214 327 216 345 214 363 214 381 214 399 214 417 214 435 214 454 214 472 214 490 214 508 214 526 214 544 214 562 214
 581 214 599 216 617 214 635 214 653 214 671 214 689 214 708 214 726 214 744 214 762 214 780 216 798 214 816 216 835 214 853 214 871 216 889 214 907 214 925 216 943 214 962 214 980 214 998 214 1016 214 1034 214 1052 214 1070 214 1089 216 1107 216
 1125 218 1143 216 1161 222 1179 222 1197 223 1215 223 1234 230 1252 241 1270 250 1288 283 1306 271 1324 313 1342 359 1361 377 1379 424 1397 527 1415 597 1433 696 1451 846 1469 924 1488 1095 1506 1275 1524 1432 1542 1694 1560 1680 1578 1691 1596 1795
 1615 1717 1633 1772 1651 1680 1669 1615 1687 1484 1705 1301 1723 1169 1742 1061 1760 871 1778 765 1796 687 1814 548 1832 456 1850 380 1869 341 1887 327 1905 289 1923 252 1941 244 1959 236 1977 229 1996 220 2014 220 2032 214 100 { m20} R 0 0 1 c 9 lw
 1 1 1 c black 0 0 1 c 227 215 m cl s 227 215 m 889 X 18 1 d 18 X 18 1 d 18 1 d 18 2 d 19 3 d 18 5 d 18 8 d 18 11 d 18 17 d 18 24 d 18 32 d 19 43 d 9 26 d 9 30 d 9 34 d 9 37 d 9 41 d 9 46 d 9 49 d 9 53 d 9 58 d 9 61 d 18 131 d 19 141 d 18 144 d 18
 142 d 9 68 d 9 64 d 9 59 d 9 55 d 9 48 d 9 40 d 9 33 d 9 25 d 9 16 d 10 7 d 9 -2 d 9 -11 d 9 -20 d 9 -29 d 9 -37 d 9 -44 d 9 -51 d 9 -57 d 9 -62 d 9 -65 d 18 -140 d 19 -145 d 18 -142 d 18 -134 d 9 -63 d 9 -59 d 9 -56 d 9 -52 d 9 -47 d 9 -44 d 9 -39
 d 9 -35 d 9 -32 d 10 -28 d 18 -47 d 18 -35 d 18 -25 d 18 -19 d 18 -12 d 18 -9 d 19 -6 d 18 -3 d 18 -3 d 18 -1 d s black 3 lw 227 214 m 1814 X s 227 266 m -52 Y s 272 240 m -26 Y s 317 240 m -26 Y s 363 240 m -26 Y s 408 240 m -26 Y s 454 266 m -52 Y
 s 499 240 m -26 Y s 544 240 m -26 Y s 590 240 m -26 Y s 635 240 m -26 Y s 680 266 m -52 Y s 726 240 m -26 Y s 771 240 m -26 Y s 816 240 m -26 Y s 862 240 m -26 Y s 907 266 m -52 Y s 952 240 m -26 Y s 998 240 m -26 Y s 1043 240 m -26 Y s 1089 240 m
 -26 Y s 1134 266 m -52 Y s 1179 240 m -26 Y s 1225 240 m -26 Y s 1270 240 m -26 Y s 1315 240 m -26 Y s 1361 266 m -52 Y s 1406 240 m -26 Y s 1451 240 m -26 Y s 1497 240 m -26 Y s 1542 240 m -26 Y s 1587 266 m -52 Y s 1633 240 m -26 Y s 1678 240 m
 -26 Y s 1723 240 m -26 Y s 1769 240 m -26 Y s 1814 266 m -52 Y s 1860 240 m -26 Y s 1905 240 m -26 Y s 1950 240 m -26 Y s 1996 240 m -26 Y s 2041 266 m -52 Y s 227 214 m 1716 Y s 281 214 m -54 X s 254 250 m -27 X s 254 285 m -27 X s 254 320 m -27 X
 s 254 356 m -27 X s 281 391 m -54 X s 254 426 m -27 X s 254 461 m -27 X s 254 497 m -27 X s 254 532 m -27 X s 281 567 m -54 X s 254 603 m -27 X s 254 638 m -27 X s 254 673 m -27 X s 254 708 m -27 X s 281 744 m -54 X s 254 779 m -27 X s 254 814 m -27
 X s 254 849 m -27 X s 254 885 m -27 X s 281 920 m -54 X s 254 955 m -27 X s 254 991 m -27 X s 254 1026 m -27 X s 254 1061 m -27 X s 281 1096 m -54 X s 254 1132 m -27 X s 254 1167 m -27 X s 254 1202 m -27 X s 254 1238 m -27 X s 281 1273 m -54 X s 254
 1308 m -27 X s 254 1343 m -27 X s 254 1379 m -27 X s 254 1414 m -27 X s 281 1449 m -54 X s 254 1484 m -27 X s 254 1520 m -27 X s 254 1555 m -27 X s 254 1590 m -27 X s 281 1626 m -54 X s 254 1661 m -27 X s 254 1696 m -27 X s 254 1731 m -27 X s 254
 1767 m -27 X s 281 1802 m -54 X s 281 1802 m -54 X s 254 1837 m -27 X s 254 1873 m -27 X s 254 1908 m -27 X s 1 1 1 c black
 gsave  2268 2145 0 0 C 988.142 2040.03 t 0 r /Helvetica findfont 104.734 sf 0 0 m (Signal) show NC gr 
 gr  gr showpage
end
%%EOF
