\BOOKMARK [0][-]{chapter.1}{About this Thesis}{}% 1
\BOOKMARK [0][-]{chapter.2}{Introduction}{}% 2
\BOOKMARK [1][-]{section.2.1}{Cylindrical coordinate system}{chapter.2}% 3
\BOOKMARK [1][-]{section.2.2}{Spherical coordinate system}{chapter.2}% 4
\BOOKMARK [1][-]{section.2.3}{Hadron}{chapter.2}% 5
\BOOKMARK [1][-]{section.2.4}{Meson}{chapter.2}% 6
\BOOKMARK [0][-]{chapter.3}{The Belle Experiment at KEK}{}% 7
\BOOKMARK [1][-]{section.3.1}{The KEKB accelerator}{chapter.3}% 8
\BOOKMARK [1][-]{section.3.2}{The Belle detector}{chapter.3}% 9
\BOOKMARK [2][-]{subsection.3.2.1}{Tracking detectors}{section.3.2}% 10
\BOOKMARK [2][-]{subsection.3.2.2}{Calorimetry and neutral particles}{section.3.2}% 11
\BOOKMARK [2][-]{subsection.3.2.3}{Particle identification}{section.3.2}% 12
\BOOKMARK [1][-]{section.3.3}{Trigger and data acquisition}{chapter.3}% 13
\BOOKMARK [2][-]{subsection.3.3.1}{Trigger system}{section.3.3}% 14
\BOOKMARK [2][-]{subsection.3.3.2}{Data acquisition}{section.3.3}% 15
\BOOKMARK [2][-]{subsection.3.3.3}{DST production}{section.3.3}% 16
\BOOKMARK [0][-]{chapter.4}{Data analysis}{}% 17
\BOOKMARK [1][-]{section.4.1}{B meson reconstruction}{chapter.4}% 18
\BOOKMARK [1][-]{section.4.2}{Monte Carlo generated Data}{chapter.4}% 19
\BOOKMARK [1][-]{section.4.3}{Data Analysis}{chapter.4}% 20
\BOOKMARK [2][-]{subsection.4.3.1}{Counting MC events}{section.4.3}% 21
\BOOKMARK [2][-]{subsection.4.3.2}{Model fitting}{section.4.3}% 22
\BOOKMARK [2][-]{subsection.4.3.3}{Efficiency}{section.4.3}% 23
\BOOKMARK [1][-]{section.4.4}{Test on real data}{chapter.4}% 24
