\relax 
\providecommand\hyper@newdestlabel[2]{}
\providecommand*\new@tpo@label[2]{}
\providecommand\HyperFirstAtBeginDocument{\AtBeginDocument}
\HyperFirstAtBeginDocument{\ifx\hyper@anchor\@undefined
\global\let\oldcontentsline\contentsline
\gdef\contentsline#1#2#3#4{\oldcontentsline{#1}{#2}{#3}}
\global\let\oldnewlabel\newlabel
\gdef\newlabel#1#2{\newlabelxx{#1}#2}
\gdef\newlabelxx#1#2#3#4#5#6{\oldnewlabel{#1}{{#2}{#3}}}
\AtEndDocument{\ifx\hyper@anchor\@undefined
\let\contentsline\oldcontentsline
\let\newlabel\oldnewlabel
\fi}
\fi}
\global\let\hyper@last\relax 
\gdef\HyperFirstAtBeginDocument#1{#1}
\providecommand\HyField@AuxAddToFields[1]{}
\providecommand\HyField@AuxAddToCoFields[2]{}
\abx@aux@refcontext{nty/global//global/global}
\catcode `"\active 
\@writefile{toc}{\boolfalse {citerequest}\boolfalse {citetracker}\boolfalse {pagetracker}\boolfalse {backtracker}\relax }
\@writefile{lof}{\boolfalse {citerequest}\boolfalse {citetracker}\boolfalse {pagetracker}\boolfalse {backtracker}\relax }
\@writefile{lot}{\boolfalse {citerequest}\boolfalse {citetracker}\boolfalse {pagetracker}\boolfalse {backtracker}\relax }
\babel@aux{german}{}
\abx@aux@cite{Priv.-Doz. DI Dr. Christoph Schwanda}
\abx@aux@segm{0}{0}{Priv.-Doz. DI Dr. Christoph Schwanda}
\abx@aux@segm{0}{0}{Priv.-Doz. DI Dr. Christoph Schwanda}
\babel@aux{german}{}
\abx@aux@cite{PersonBadurek}
\abx@aux@segm{0}{0}{PersonBadurek}
\abx@aux@segm{0}{0}{PersonBadurek}
\babel@aux{english}{}
\@writefile{toc}{\defcounter {refsection}{0}\relax }\@writefile{toc}{\contentsline {chapter}{\numberline {1}About this Thesis}{}{chapter.1}}
\@writefile{lof}{\defcounter {refsection}{0}\relax }\@writefile{lof}{\addvspace {10\p@ }}
\@writefile{lot}{\defcounter {refsection}{0}\relax }\@writefile{lot}{\addvspace {10\p@ }}
\@writefile{lol}{\defcounter {refsection}{0}\relax }\@writefile{lol}{\addvspace {10\p@ }}
\abx@aux@cite{dem1}
\abx@aux@segm{0}{0}{dem1}
\abx@aux@segm{0}{0}{dem1}
\@writefile{toc}{\defcounter {refsection}{0}\relax }\@writefile{toc}{\contentsline {chapter}{\numberline {2}Introduction}{1}{chapter.2}}
\@writefile{lof}{\defcounter {refsection}{0}\relax }\@writefile{lof}{\addvspace {10\p@ }}
\@writefile{lot}{\defcounter {refsection}{0}\relax }\@writefile{lot}{\addvspace {10\p@ }}
\@writefile{lol}{\defcounter {refsection}{0}\relax }\@writefile{lol}{\addvspace {10\p@ }}
\@writefile{toc}{\defcounter {refsection}{0}\relax }\@writefile{toc}{\contentsline {section}{\numberline {2.1}Cylindrical coordinate system}{1}{section.2.1}}
\newlabel{eq:Cylindricalcoordinatesystem}{{2.1}{1}{Cylindrical coordinate system}{equation.2.1.1}{}}
\newlabel{eq:Cylindricalcoordinatetranfo}{{2.2}{1}{Cylindrical coordinate system}{equation.2.1.2}{}}
\@writefile{toc}{\defcounter {refsection}{0}\relax }\@writefile{toc}{\contentsline {section}{\numberline {2.2}Spherical coordinate system}{1}{section.2.2}}
\newlabel{sec:SpherCoordSys}{{2.2}{1}{Spherical coordinate system}{section.2.2}{}}
\newlabel{eq:Sphericalcoordinatesystem}{{2.3}{1}{Spherical coordinate system}{equation.2.2.3}{}}
\abx@aux@cite{dem4}
\abx@aux@segm{0}{0}{dem4}
\abx@aux@cite{TuK}
\abx@aux@segm{0}{0}{TuK}
\newlabel{eq:Sphericalcoordinatetranfo}{{2.4}{2}{Spherical coordinate system}{equation.2.2.4}{}}
\@writefile{toc}{\defcounter {refsection}{0}\relax }\@writefile{toc}{\contentsline {section}{\numberline {2.3}Hadron}{2}{section.2.3}}
\newlabel{sec:hadron}{{2.3}{2}{Hadron}{section.2.3}{}}
\@writefile{toc}{\defcounter {refsection}{0}\relax }\@writefile{toc}{\contentsline {section}{\numberline {2.4}Meson}{3}{section.2.4}}
\newlabel{sec:meson}{{2.4}{3}{Meson}{section.2.4}{}}
\abx@aux@cite{habSchw}
\abx@aux@segm{0}{0}{habSchw}
\abx@aux@cite{ABASHIAN2002117}
\abx@aux@segm{0}{0}{ABASHIAN2002117}
\@writefile{toc}{\defcounter {refsection}{0}\relax }\@writefile{toc}{\contentsline {chapter}{\numberline {3}The Belle Experiment at KEK}{4}{chapter.3}}
\@writefile{lof}{\defcounter {refsection}{0}\relax }\@writefile{lof}{\addvspace {10\p@ }}
\@writefile{lot}{\defcounter {refsection}{0}\relax }\@writefile{lot}{\addvspace {10\p@ }}
\@writefile{lol}{\defcounter {refsection}{0}\relax }\@writefile{lol}{\addvspace {10\p@ }}
\newlabel{chap:experiment}{{3}{4}{The Belle Experiment at KEK}{chapter.3}{}}
\@writefile{toc}{\defcounter {refsection}{0}\relax }\@writefile{toc}{\contentsline {section}{\numberline {3.1}The KEKB accelerator}{4}{section.3.1}}
\abx@aux@cite{belleCob}
\abx@aux@segm{0}{0}{belleCob}
\abx@aux@segm{0}{0}{belleCob}
\@writefile{lof}{\defcounter {refsection}{0}\relax }\@writefile{lof}{\contentsline {figure}{\numberline {3.1}{\ignorespaces Belle coordinate system \cite {belleCob}\relax }}{5}{figure.caption.7}}
\providecommand*\caption@xref[2]{\@setref\relax\@undefined{#1}}
\newlabel{fig:Belle_coord}{{3.1}{5}{Belle coordinate system \cite {belleCob}\relax }{figure.caption.7}{}}
\abx@aux@cite{Wille1996}
\abx@aux@segm{0}{0}{Wille1996}
\abx@aux@segm{0}{0}{dem4}
\abx@aux@segm{0}{0}{belleCob}
\abx@aux@segm{0}{0}{belleCob}
\newlabel{eq:nbrBB}{{3.3}{6}{The KEKB accelerator}{equation.3.1.3}{}}
\@writefile{lof}{\defcounter {refsection}{0}\relax }\@writefile{lof}{\contentsline {figure}{\numberline {3.2}{\ignorespaces Schematic layout of the KEKB particle accelerator at KEK in Tsukuba (Japan) \cite {belleCob}\relax }}{7}{figure.caption.8}}
\newlabel{fig:KEKB}{{3.2}{7}{Schematic layout of the KEKB particle accelerator at KEK in Tsukuba (Japan) \cite {belleCob}\relax }{figure.caption.8}{}}
\@writefile{toc}{\defcounter {refsection}{0}\relax }\@writefile{toc}{\contentsline {section}{\numberline {3.2}The Belle detector}{8}{section.3.2}}
\@writefile{lof}{\defcounter {refsection}{0}\relax }\@writefile{lof}{\contentsline {figure}{\numberline {3.3}{\ignorespaces Schematic layout of the Belle detector\relax }}{8}{figure.caption.9}}
\newlabel{fig:Belle-det}{{3.3}{8}{Schematic layout of the Belle detector\relax }{figure.caption.9}{}}
\@writefile{toc}{\defcounter {refsection}{0}\relax }\@writefile{toc}{\contentsline {subsection}{\numberline {3.2.1}Tracking detectors}{9}{subsection.3.2.1}}
\@writefile{toc}{\defcounter {refsection}{0}\relax }\@writefile{toc}{\contentsline {subsubsection}{\nonumberline SVD}{9}{section*.10}}
\@writefile{lof}{\defcounter {refsection}{0}\relax }\@writefile{lof}{\contentsline {figure}{\numberline {3.4}{\ignorespaces First version of the SVD (right: cross section; left: side view)\relax }}{9}{figure.caption.11}}
\newlabel{fig:Belle-det}{{3.4}{9}{First version of the SVD (right: cross section; left: side view)\relax }{figure.caption.11}{}}
\@writefile{toc}{\defcounter {refsection}{0}\relax }\@writefile{toc}{\contentsline {subsubsection}{\nonumberline CDC}{10}{section*.12}}
\@writefile{toc}{\defcounter {refsection}{0}\relax }\@writefile{toc}{\contentsline {subsubsection}{\nonumberline Performance}{10}{section*.13}}
\@writefile{lof}{\defcounter {refsection}{0}\relax }\@writefile{lof}{\contentsline {figure}{\numberline {3.5}{\ignorespaces Schematic layout of the CDC\relax }}{10}{figure.caption.14}}
\newlabel{fig:schematicCDC}{{3.5}{10}{Schematic layout of the CDC\relax }{figure.caption.14}{}}
\@writefile{lof}{\defcounter {refsection}{0}\relax }\@writefile{lof}{\contentsline {figure}{\numberline {3.6}{\ignorespaces Wire configuration of the CDC\relax }}{11}{figure.caption.15}}
\newlabel{fig:schematicCDC}{{3.6}{11}{Wire configuration of the CDC\relax }{figure.caption.15}{}}
\@writefile{toc}{\defcounter {refsection}{0}\relax }\@writefile{toc}{\contentsline {subsection}{\numberline {3.2.2}Calorimetry and neutral particles}{11}{subsection.3.2.2}}
\@writefile{toc}{\defcounter {refsection}{0}\relax }\@writefile{toc}{\contentsline {subsubsection}{\nonumberline ECL}{11}{section*.16}}
\@writefile{lof}{\defcounter {refsection}{0}\relax }\@writefile{lof}{\contentsline {figure}{\numberline {3.7}{\ignorespaces Layout of the ECL\relax }}{12}{figure.caption.17}}
\newlabel{fig:ECL}{{3.7}{12}{Layout of the ECL\relax }{figure.caption.17}{}}
\@writefile{toc}{\defcounter {refsection}{0}\relax }\@writefile{toc}{\contentsline {subsubsection}{\nonumberline KLM}{12}{section*.18}}
\@writefile{toc}{\defcounter {refsection}{0}\relax }\@writefile{toc}{\contentsline {subsection}{\numberline {3.2.3}Particle identification}{12}{subsection.3.2.3}}
\@writefile{toc}{\defcounter {refsection}{0}\relax }\@writefile{toc}{\contentsline {subsubsection}{\nonumberline Hadron identification}{13}{section*.19}}
\@writefile{lof}{\defcounter {refsection}{0}\relax }\@writefile{lof}{\contentsline {figure}{\numberline {3.8}{\ignorespaces Particle identification by measuring the energy loss $dE/dx$ in the CDC\relax }}{14}{figure.caption.20}}
\newlabel{fig:CDCmeasur}{{3.8}{14}{Particle identification by measuring the energy loss $dE/dx$ in the CDC\relax }{figure.caption.20}{}}
\@writefile{toc}{\defcounter {refsection}{0}\relax }\@writefile{toc}{\contentsline {subsubsection}{\nonumberline Electron identification}{15}{section*.21}}
\@writefile{toc}{\defcounter {refsection}{0}\relax }\@writefile{toc}{\contentsline {subsubsection}{\nonumberline Muon identification}{15}{section*.22}}
\@writefile{toc}{\defcounter {refsection}{0}\relax }\@writefile{toc}{\contentsline {section}{\numberline {3.3}Trigger and data acquisition}{16}{section.3.3}}
\@writefile{toc}{\defcounter {refsection}{0}\relax }\@writefile{toc}{\contentsline {subsection}{\numberline {3.3.1}Trigger system}{16}{subsection.3.3.1}}
\@writefile{lof}{\defcounter {refsection}{0}\relax }\@writefile{lof}{\contentsline {figure}{\numberline {3.9}{\ignorespaces Belles level-1 trigger system\relax }}{17}{figure.caption.23}}
\newlabel{fig:lvl1TriggerSys}{{3.9}{17}{Belles level-1 trigger system\relax }{figure.caption.23}{}}
\@writefile{toc}{\defcounter {refsection}{0}\relax }\@writefile{toc}{\contentsline {subsection}{\numberline {3.3.2}Data acquisition}{17}{subsection.3.3.2}}
\@writefile{lof}{\defcounter {refsection}{0}\relax }\@writefile{lof}{\contentsline {figure}{\numberline {3.10}{\ignorespaces Belles data acquisition model\relax }}{18}{figure.caption.24}}
\newlabel{fig:DAqModel}{{3.10}{18}{Belles data acquisition model\relax }{figure.caption.24}{}}
\@writefile{toc}{\defcounter {refsection}{0}\relax }\@writefile{toc}{\contentsline {subsection}{\numberline {3.3.3}DST production}{18}{subsection.3.3.3}}
\abx@aux@segm{0}{0}{PersonBadurek}
\abx@aux@cite{root}
\abx@aux@segm{0}{0}{root}
\@writefile{toc}{\defcounter {refsection}{0}\relax }\@writefile{toc}{\contentsline {chapter}{\numberline {4}Data analysis}{19}{chapter.4}}
\@writefile{lof}{\defcounter {refsection}{0}\relax }\@writefile{lof}{\addvspace {10\p@ }}
\@writefile{lot}{\defcounter {refsection}{0}\relax }\@writefile{lot}{\addvspace {10\p@ }}
\@writefile{lol}{\defcounter {refsection}{0}\relax }\@writefile{lol}{\addvspace {10\p@ }}
\newlabel{eq:givDecay}{{4.1}{19}{Data analysis}{equation.4.0.1}{}}
\@writefile{toc}{\defcounter {refsection}{0}\relax }\@writefile{toc}{\contentsline {section}{\numberline {4.1}$B$ meson reconstruction}{19}{section.4.1}}
\newlabel{sec:mesonRecon}{{4.1}{19}{$B$ meson reconstruction}{section.4.1}{}}
\newlabel{eq:m_D0}{{4.2}{20}{$B$ meson reconstruction}{equation.4.1.2}{}}
\newlabel{eq:m_b}{{4.3}{20}{$B$ meson reconstruction}{equation.4.1.3}{}}
\newlabel{eq:m_bc}{{4.5}{20}{$B$ meson reconstruction}{equation.4.1.5}{}}
\newlabel{eq:deltaE}{{4.6}{20}{$B$ meson reconstruction}{equation.4.1.6}{}}
\@writefile{lof}{\defcounter {refsection}{0}\relax }\@writefile{lof}{\contentsline {figure}{\numberline {4.1}{\ignorespaces $m_{bc}$ distribution, with $|\Delta E| < 0.5$\relax }}{21}{figure.caption.25}}
\newlabel{fig:m_bc}{{4.1}{21}{$m_{bc}$ distribution, with $|\Delta E| < 0.5$\relax }{figure.caption.25}{}}
\@writefile{lof}{\defcounter {refsection}{0}\relax }\@writefile{lof}{\contentsline {figure}{\numberline {4.2}{\ignorespaces $\Delta E$ distribution, with boundaries of $5.22 < m_{bc} < 5.29$\relax }}{21}{figure.caption.26}}
\newlabel{fig:m_bc}{{4.2}{21}{$\Delta E$ distribution, with boundaries of $5.22 < m_{bc} < 5.29$\relax }{figure.caption.26}{}}
\@writefile{toc}{\defcounter {refsection}{0}\relax }\@writefile{toc}{\contentsline {section}{\numberline {4.2}Monte Carlo generated Data}{22}{section.4.2}}
\newlabel{sec:MCgD}{{4.2}{22}{Monte Carlo generated Data}{section.4.2}{}}
\@writefile{toc}{\defcounter {refsection}{0}\relax }\@writefile{toc}{\contentsline {section}{\numberline {4.3}Data Analysis}{23}{section.4.3}}
\@writefile{toc}{\defcounter {refsection}{0}\relax }\@writefile{toc}{\contentsline {subsection}{\numberline {4.3.1}Counting MC events}{23}{subsection.4.3.1}}
\newlabel{subsec:countTE}{{4.3.1}{23}{Counting MC events}{subsection.4.3.1}{}}
\@writefile{toc}{\defcounter {refsection}{0}\relax }\@writefile{toc}{\contentsline {subsection}{\numberline {4.3.2}Model fitting}{23}{subsection.4.3.2}}
\newlabel{subsec:modelFit}{{4.3.2}{23}{Model fitting}{subsection.4.3.2}{}}
\@writefile{toc}{\defcounter {refsection}{0}\relax }\@writefile{toc}{\contentsline {subsection}{\numberline {4.3.3}Efficiency}{24}{subsection.4.3.3}}
\newlabel{subsec:efficiency}{{4.3.3}{24}{Efficiency}{subsection.4.3.3}{}}
\newlabel{eq:N_BK2pi}{{4.7}{24}{Efficiency}{equation.4.3.7}{}}
\newlabel{eq:efficiency}{{4.9}{24}{Efficiency}{equation.4.3.9}{}}
\@writefile{lof}{\defcounter {refsection}{0}\relax }\@writefile{lof}{\contentsline {figure}{\numberline {4.3}{\ignorespaces \relax }}{25}{figure.caption.27}}
\newlabel{fig:s1s2ONs0}{{4.3}{25}{\relax }{figure.caption.27}{}}
\@writefile{lof}{\defcounter {refsection}{0}\relax }\@writefile{lof}{\contentsline {subfigure}{\numberline{(a)}{\ignorespaces {Signal and background from the combined MC streams of 1 and 2 }}}{25}{figure.caption.27}}
\@writefile{lof}{\defcounter {refsection}{0}\relax }\@writefile{lof}{\contentsline {subfigure}{\numberline{(b)}{\ignorespaces {Fitted model on MC stream 0 where dashed line represents the backround}}}{25}{figure.caption.27}}
\@writefile{lof}{\defcounter {refsection}{0}\relax }\@writefile{lof}{\contentsline {figure}{\numberline {4.4}{\ignorespaces \relax }}{26}{figure.caption.28}}
\newlabel{fig:s0s2ONs1}{{4.4}{26}{\relax }{figure.caption.28}{}}
\@writefile{lof}{\defcounter {refsection}{0}\relax }\@writefile{lof}{\contentsline {subfigure}{\numberline{(a)}{\ignorespaces {Signal and background from the combined MC streams of 0 and 2 }}}{26}{figure.caption.28}}
\@writefile{lof}{\defcounter {refsection}{0}\relax }\@writefile{lof}{\contentsline {subfigure}{\numberline{(b)}{\ignorespaces {Fitted model on MC stream 1 where dashed line represents the backround}}}{26}{figure.caption.28}}
\@writefile{lof}{\defcounter {refsection}{0}\relax }\@writefile{lof}{\contentsline {figure}{\numberline {4.5}{\ignorespaces \relax }}{27}{figure.caption.29}}
\newlabel{fig:s0s1ONs2}{{4.5}{27}{\relax }{figure.caption.29}{}}
\@writefile{lof}{\defcounter {refsection}{0}\relax }\@writefile{lof}{\contentsline {subfigure}{\numberline{(a)}{\ignorespaces {Signal and background from the combined MC streams of 0 and 1 }}}{27}{figure.caption.29}}
\@writefile{lof}{\defcounter {refsection}{0}\relax }\@writefile{lof}{\contentsline {subfigure}{\numberline{(b)}{\ignorespaces {Fitted model on MC stream 2 where dashed line represents the backround}}}{27}{figure.caption.29}}
\@writefile{lot}{\defcounter {refsection}{0}\relax }\@writefile{lot}{\contentsline {table}{\numberline {4.1}{\ignorespaces Calculated efficiency and branching ratio for the corresponding streams \relax }}{28}{table.caption.30}}
\newlabel{tab:eff_branch}{{4.1}{28}{Calculated efficiency and branching ratio for the corresponding streams \relax }{table.caption.30}{}}
\@writefile{toc}{\defcounter {refsection}{0}\relax }\@writefile{toc}{\contentsline {subsubsection}{\nonumberline Pull-Test}{28}{section*.31}}
\@writefile{lot}{\defcounter {refsection}{0}\relax }\@writefile{lot}{\contentsline {table}{\numberline {4.2}{\ignorespaces Data for the Pull-Test\relax }}{28}{table.caption.32}}
\newlabel{tab:pulltestdata}{{4.2}{28}{Data for the Pull-Test\relax }{table.caption.32}{}}
\@writefile{lof}{\defcounter {refsection}{0}\relax }\@writefile{lof}{\contentsline {figure}{\numberline {4.6}{\ignorespaces Standard normal distribution for the pull test\relax }}{29}{figure.caption.33}}
\newlabel{fig:pulltest}{{4.6}{29}{Standard normal distribution for the pull test\relax }{figure.caption.33}{}}
\@writefile{lof}{\defcounter {refsection}{0}\relax }\@writefile{lof}{\contentsline {subfigure}{\numberline{(a)}{\ignorespaces {fitted distribution}}}{29}{figure.caption.33}}
\@writefile{lof}{\defcounter {refsection}{0}\relax }\@writefile{lof}{\contentsline {subfigure}{\numberline{(b)}{\ignorespaces {normalized data}}}{29}{figure.caption.33}}
\@writefile{toc}{\defcounter {refsection}{0}\relax }\@writefile{toc}{\contentsline {section}{\numberline {4.4}Test on real data}{29}{section.4.4}}
\@writefile{lof}{\defcounter {refsection}{0}\relax }\@writefile{lof}{\contentsline {figure}{\numberline {4.7}{\ignorespaces \relax }}{30}{figure.caption.34}}
\newlabel{fig:realdatafit}{{4.7}{30}{\relax }{figure.caption.34}{}}
\@writefile{lof}{\defcounter {refsection}{0}\relax }\@writefile{lof}{\contentsline {subfigure}{\numberline{(a)}{\ignorespaces {Fitted model on real data where dashed line represents the backround model}}}{30}{figure.caption.34}}
\@writefile{lof}{\defcounter {refsection}{0}\relax }\@writefile{lof}{\contentsline {subfigure}{\numberline{(b)}{\ignorespaces {Parameters from MC streams for fit on real data}}}{30}{figure.caption.34}}
\abx@aux@cite{pdg}
\abx@aux@segm{0}{0}{pdg}
\abx@aux@segm{0}{0}{pdg}
\abx@aux@refcontextdefaultsdone
\global\@namedef{scr@dte@chapter@lastmaxnumwidth}{12.14694pt}
\global\@namedef{scr@dte@section@lastmaxnumwidth}{19.70898pt}
\global\@namedef{scr@dte@subsection@lastmaxnumwidth}{28.84563pt}
