Sender: LSF System <lsfadmin@cb083>
Subject: Job 91132692: <./evt_mixed_exp55_r1500_s0.csh> in cluster <centralcluster> Done

Job <./evt_mixed_exp55_r1500_s0.csh> was submitted from host <cw02> by user <schwanda> in cluster <centralcluster> at Fri Aug 18 05:54:42 2017.
Job was executed on host(s) <cb083>, in queue <b_b>, as user <schwanda> in cluster <centralcluster> at Fri Aug 18 05:59:33 2017.
</home/belle/schwanda> was used as the home directory.
</home/belle/schwanda/private/anal/bdan/run> was used as the working directory.
Started at Fri Aug 18 05:59:33 2017.
Terminated at Fri Aug 18 06:55:25 2017.
Results reported at Fri Aug 18 06:55:25 2017.

Your job looked like:

------------------------------------------------------------
# LSBATCH: User input
./evt_mixed_exp55_r1500_s0.csh
------------------------------------------------------------

Successfully completed.

Resource usage summary:

    CPU time :                                   3371.31 sec.
    Max Memory :                                 47 MB
    Average Memory :                             43.11 MB
    Total Requested Memory :                     4000.00 MB
    Delta Memory :                               3953.00 MB
    Max Swap :                                   -
    Max Processes :                              7
    Max Threads :                                8
    Run time :                                   3353 sec.
    Turnaround time :                            3643 sec.

The output (if any) follows:


Job start at Fri Aug 18 05:59:34 JST 2017
Running on Linux cb083.cc.kek.jp 2.6.32-696.3.2.el6.x86_64 #1 SMP Mon Jun 19 11:23:31 CDT 2017 x86_64 x86_64 x86_64 GNU/Linux

REMOTEHOST=193.170.243.211
MANPATH=/opt/lsf/latest/man:
LSB_EXEC_CLUSTER=centralcluster
HOSTNAME=cb083
PHIT_LICENCE_PATH=/sw/belle/local/etc/neurobayes
BELLE_LEVEL=b20090127_0910
LSB_EFFECTIVE_RSRCREQ=select[type == local] order[r15s:pg] rusage[mem=4000.00:duration=6s:decay=0] span[hosts=1] affinity[core(1)*1:cpubind=core] 
MALLOC_CHECK_=0
LSF_LIM_API_NTRIES=1
LSB_BATCH_JID=91132692
HOST=cb083.cc.kek.jp
SHELL=/bin/tcsh
BELLE_INDEX_TEMPLATE=/group/belle/bdata_b/dstprod/index/eEEEEEE/HadronBJ/0127/ENERGY/NN/HadronBJ-eEEEEEErRRRRRR-b20090127_0910.index:/group/belle/bdata_b/dstprod/index/eEEEEEE/HadronBJ/1107/ENERGY/NN/HadronBJ-eEEEEEErRRRRRR-b20081107_1418.index:/group/belle/bdata_b/dstprod/index/eEEEEEE/HadronBJ/0528/ENERGY/NN/eEEEEEErRRRRRR-b20030528_1034.index:/group/belle/bdata_b/dstprod/index/eEEEEEE/HadronBJ/0409/ENERGY/NN/eEEEEEErRRRRRR-b20030409_2137.index:/group/belle/bdata_b/dstprod/index/eEEEEEE/HadronBJ/1205/ENERGY/NN/eEEEEEErRRRRRR-b20021205_1443.index:/group/belle/bdata_b/dstprod/index/eEEEEEE/HadronB/0416/ENERGY/NN/eEEEEEErRRRRRR-b20020416_1604.index:/group/belle/bdata_b/dstprod/index/eEEEEEE/HadronB/0405/ENERGY/NN/eEEEEEErRRRRRR-b20020405_1039.index:/group/belle/bdata_b/mcprod/index/eEEEEEE/MCDIR/all/0127/DATA/NN/MCTYPE-all-eEEEEEErRRRRRR-b20090127_0910.index:/group/belle/bdata_b/mcprod/index/eEEEEEE/MCDIR/all/1107/DATA/NN/MCTYPE-all-eEEEEEErRRRRRR-b20081107_1418.index:/group/belle/bdata_b/mcprod/index/eEEEEEE/MCDIR/all/0807/DATA/NN/MCTYPE-all-eEEEEEErRRRRRR-b20030807_1600.index:
RM_CPUTASK1=9
SSH_CLIENT=193.170.243.211 44236 22
TMPDIR=/btmp
LS_EXECCWD=/home/belle/schwanda/private/anal/bdan/run
LSB_TRAPSIGS=trap # 15 10 12 2 1
LS_JOBPID=21480
BELLE_INDEX_POSTGRES_MC_SERVER=can53
LSB_JOBRES_CALLBACK=50982@cb083
LSB_MAX_NUM_PROCESSORS=1
LOCF_ABORT=
LSB_JOB_EXECUSER=schwanda
LSB_JOBID=91132692
QTDIR=/usr/lib64/qt-3.3
LSF_SERVERDIR=/opt/lsf/10.1/linux2.6-glibc2.3-x86_64/etc
MY_RUN_DIR=
LSB_JOBRES_PID=21480
INDEX_PSQL_CMD_MC_NAME=psql
QTINC=/usr/lib64/qt-3.3/include
LSB_JOBNAME=./evt_mixed_exp55_r1500_s0.csh
SSH_TTY=/dev/pts/5
BELLE_INDEX_POSTGRES_MC_PORT=5433
BSUB_BLOCK_EXEC_HOST=
BELLE_USE_HBKTMP=
LSF_LIBDIR=/opt/lsf/10.1/linux2.6-glibc2.3-x86_64/lib
USER=schwanda
LSB_PROJECT_NAME=default
GROUP=b_belle
LD_LIBRARY_PATH=/gpfs/home/belle/schwanda/private/anal/bdan:/sw/belle/local/boost_1_53_0/stage/lib:/lib64:/lib:/sw/belle/cern/2006/lib64/so:/sw/belle/cern/2006/lib64:/sw/belle/cern/2006/lib:/sw/belle/cern/root/lib:/sw/belle/belle/b20090127_0910/x86_64-unknown-linux-gnu/opt/bin:/sw/belle/belle/b20090127_0910/x86_64-unknown-linux-gnu/opt/lib/so:/sw/belle/belle/b20090127_0910/x86_64-unknown-linux-gnu/opt/lib:/sw/belle/cern/2007/lib64:/sw/belle/local/neurobayes/lib:/opt/lsf/10.1/linux2.6-glibc2.3-x86_64/lib:/opt/lsf/latest/linux2.6-glibc2.3-x86_64/lib
SWBELLE=/sw/belle
SBD_KRB5CCNAME_VAL=
LSB_EEXEC_REAL_UID=
BELLE_TOP_DIR=/sw/belle/belle/b20090127_0910
BELLE_DEBUG=opt
HOSTTYPE=x86_64-linux
PGUSER=g0db
LSB_CG_MEMLIMIT=0x100000000
LSF_INVOKE_CMD=bsub
LS_EXEC_T=START
MY_BIN_DIR=
BASFSH_NOESCCHAR=true
BELLE_INDEX_POSTGRES_PORT=5433
LSB_SUB_RES_REQ=rusage[mem=4000:duration=0.1] 
LS_SUBCWD=/home/belle/schwanda/private/anal/bdan/run
LSF_VERSION=34
LSB_HOSTS=cb083
LSB_UNIXGROUP_INT=b_belle
LSB_JOBFILENAME=/var/tmp/1503003282.91132692
CERN=/sw/belle/cern
LSB_JOBINDEX=0
MAIL=/var/spool/mail/schwanda
PATH=/sw/belle/local/bin:/sw/belle/cern/2006/bin:/sw/belle/belle/b20090127_0910/x86_64-unknown-linux-gnu/opt/bin:/sw/belle/belle/b20090127_0910/share/bin:/sw/belle/cern/root/bin:/opt/lsf/10.1/linux2.6-glibc2.3-x86_64/bin:/usr/lib64/qt-3.3/bin:/opt/lsf/latest/linux2.6-glibc2.3-x86_64/etc:/opt/lsf/latest/linux2.6-glibc2.3-x86_64/bin:/usr/local/bin:/bin:/usr/bin:/opt/ibutils/bin
BASFSH_PATH=/sw/belle/belle/b20090127_0910/share/data-files
BASF_NPROCESS=0
LSB_EXIT_PRE_ABORT=99
BELLE_MESSAGE_LEVEL=RESULT
LSB_JOBEXIT_STAT=0
BASF_USER_IF=basfsh.so
PWD=/home/belle/schwanda/private/anal/bdan/run
BELLE_SETARCH=
CERN_ROOT=/sw/belle/cern/2006
CERN_LEVEL=2006
LSB_RES_GET_FANOUT_INFO=Y
KDE_IS_PRELINKED=1
LANG=en_US.UTF-8
LSB_CHKFILENAME=/var/tmp/1503003282.91132692
PANTHER_TABLE_DIR=/sw/belle/belle/b20090127_0910/share/tables
MODULEPATH=/opt/Modules/modulefiles
LSB_DJOB_HOSTFILE=/var/tmp/1503003282.91132692.hostfile
KDEDIRS=/usr
BELLE_RUN_DIR=/sw/belle/belle/b20090127_0910/x86_64-unknown-linux-gnu/opt
LOADEDMODULES=
LSB_JOB_STARTER=. /conf/lsfconf/etc/lsf_manyproc.env;
MY_LIB_SO_DIR=
LSF_JOB_TIMESTAMP_VALUE=1503003573
F77=gfortran
LSB_AFFINITY_HOSTFILE=/var/tmp/1503003282.91132692.hostAffinityFile
BELLE_MSG_MAX_SHLVL=1
BELLE_INDEX_POSTGRES_SERVER=can01
LSB_DJOB_NUMPROC=1
LSB_EXEC_HOSTTYPE=X86_64
LSF_BINDIR=/opt/lsf/10.1/linux2.6-glibc2.3-x86_64/bin
BASF_MODULE_DIR=/gpfs/home/belle/schwanda/private/anal/bdan:.:/sw/belle/belle/b20090127_0910/x86_64-unknown-linux-gnu/opt/bin
ROOTSYS=/sw/belle/cern/root
CXX=g++
SSH_ASKPASS=/usr/libexec/openssh/gnome-ssh-askpass
HOME=/home/belle/schwanda
SHLVL=4
MY_LIB_DIR=
OSTYPE=linux
JOB_TERMINATE_INTERVAL=10
PHIT_LICENCE_SERVER=can04.cc.kek.jp:16820
BASF_IO_DIR=.:/sw/belle/belle/b20090127_0910/x86_64-unknown-linux-gnu/opt/bin
LSB_ACCT_FILE=/tmp/91132692.tmpdir/.1503003282.91132692.acct
G4HOME=/sw/belle/cern/2007
LSB_SUB_HOST=cw02
FC=gfortran
__LSF_JOB_TMPDIR__=/tmp/91132692.tmpdir
LSB_SUB_USER=schwanda
LSFUSER=schwanda
VENDOR=unknown
MATHEMATICA_HOME=/opt/Mathematica/10.4
LSB_OUTDIR=/home/belle/schwanda/private/anal/bdan/run
LSB_QUEUE=b_b
LSB_MCPU_HOSTS=cb083 1 
LSB_OUTPUTFILE=/home/belle/schwanda/.lsf/
LOGNAME=schwanda
MACHTYPE=x86_64
PYTHONPATH=/sw/belle/cern/root/lib
BHOME=/sw/belle
QTLIB=/usr/lib64/qt-3.3/lib
SSH_CONNECTION=193.170.243.211 44236 202.13.202.60 22
USE_I386_EXP5X=
LSB_ECHKPNT_RSH_CMD=/usr/bin/ssh
MODULESHOME=/usr/share/Modules
OMP_NUM_THREADS=1
LSF_CGROUP_TOPDIR_KEY=centralcluster
LESSOPEN=||/usr/bin/lesspipe.sh %s
BASF_USER_INIT=geant_init.so
INDEX_PSQL_CMD_NAME=psql
LSB_XFER_OP=
BELLE_CONFIG_DIR=/sw/belle/belle/b20090127_0910/x86_64-unknown-linux-gnu/opt/src/config
LSB_EEXEC_REAL_GID=
DISPLAY=cw02:14.0
CC=gcc
LSB_BIND_CPU_LIST=9
NEUROBAYES=/sw/belle/local/neurobayes
LSF_ENVDIR=/opt/lsf/conf
BELLE_POSTGRES_SERVER=can02
BELLE_LIB_DIR=/sw/belle/belle/b20090127_0910/x86_64-unknown-linux-gnu/opt/lib
USE_GRAND_REPROCESS_DATA=1
LSB_DJOB_RANKFILE=/var/tmp/1503003282.91132692.hostfile
G_BROKEN_FILENAMES=1
_=./evt_mixed_exp55_r1500_s0.csh
module register fix_mdst bd02pi

path create main

path add_module main fix_mdst bd02pi

initialize

bd02pi: module bd02pi initialized


histogram define evt_mixed_exp55_r1500_s0.hbook

process_url http://bweb3/montecarlo.php?ex=55&rs=1500&re=1999&ty=evtgen-mixed<ntecarlo.php?ex=55&rs=1500&re=1999&ty=evtgen-mixed&                         dt=on_resonance&bl=caseB&<&re=1999&ty=evtgen-mixed&dt=on_resonance&bl=caseB&s                         t=0
-------------------------- BASF Execution Statistics ------------------------------------
      Module         |       CPU time(sec)         |   # of calls     | CPU time/call
---------------------+-----------------------------+------------------+------------------
    fix_mdst         |            22(      19)     |       53786      |       0.000
    bd02pi           |             2(       5)     |       53786      |       0.000
---------------------+-----------------------------+------------------+------------------
 Total CPU time(sec) |            24(      25)                        |       0.000
---------------------+-----------------------------+------------------+------------------
-------------------------- BASF Execution Statistics ------------------------------------
      Module         |       CPU time(sec)         |   # of calls     | CPU time/call
---------------------+-----------------------------+------------------+------------------
    fix_mdst         |            28(      25)     |       72359      |       0.000
    bd02pi           |             4(       7)     |       72359      |       0.000
---------------------+-----------------------------+------------------+------------------
 Total CPU time(sec) |            32(      33)                        |       0.000
---------------------+-----------------------------+------------------+------------------
-------------------------- BASF Execution Statistics ------------------------------------
      Module         |       CPU time(sec)         |   # of calls     | CPU time/call
---------------------+-----------------------------+------------------+------------------
    fix_mdst         |            29(      28)     |       78403      |       0.000
    bd02pi           |             5(       8)     |       78403      |       0.000
---------------------+-----------------------------+------------------+------------------
 Total CPU time(sec) |            34(      36)                        |       0.000
---------------------+-----------------------------+------------------+------------------
-------------------------- BASF Execution Statistics ------------------------------------
      Module         |       CPU time(sec)         |   # of calls     | CPU time/call
---------------------+-----------------------------+------------------+------------------
    fix_mdst         |            74(      73)     |      204210      |       0.000
    bd02pi           |            14(      20)     |      204210      |       0.000
---------------------+-----------------------------+------------------+------------------
 Total CPU time(sec) |            88(      93)                        |       0.000
---------------------+-----------------------------+------------------+------------------
-------------------------- BASF Execution Statistics ------------------------------------
      Module         |       CPU time(sec)         |   # of calls     | CPU time/call
---------------------+-----------------------------+------------------+------------------
    fix_mdst         |            76(      74)     |      208134      |       0.000
    bd02pi           |            15(      21)     |      208134      |       0.000
---------------------+-----------------------------+------------------+------------------
 Total CPU time(sec) |            91(      95)                        |       0.000
---------------------+-----------------------------+------------------+------------------
-------------------------- BASF Execution Statistics ------------------------------------
      Module         |       CPU time(sec)         |   # of calls     | CPU time/call
---------------------+-----------------------------+------------------+------------------
    fix_mdst         |            86(      85)     |      236860      |       0.000
    bd02pi           |            17(      24)     |      236860      |       0.000
---------------------+-----------------------------+------------------+------------------
 Total CPU time(sec) |           103(     108)                        |       0.000
---------------------+-----------------------------+------------------+------------------
-------------------------- BASF Execution Statistics ------------------------------------
      Module         |       CPU time(sec)         |   # of calls     | CPU time/call
---------------------+-----------------------------+------------------+------------------
    fix_mdst         |            98(      97)     |      269036      |       0.000
    bd02pi           |            19(      27)     |      269036      |       0.000
---------------------+-----------------------------+------------------+------------------
 Total CPU time(sec) |           117(     124)                        |       0.000
---------------------+-----------------------------+------------------+------------------
-------------------------- BASF Execution Statistics ------------------------------------
      Module         |       CPU time(sec)         |   # of calls     | CPU time/call
---------------------+-----------------------------+------------------+------------------
    fix_mdst         |           137(     127)     |      346638      |       0.000
    bd02pi           |            25(      34)     |      346638      |       0.000
---------------------+-----------------------------+------------------+------------------
 Total CPU time(sec) |           162(     161)                        |       0.000
---------------------+-----------------------------+------------------+------------------
-------------------------- BASF Execution Statistics ------------------------------------
      Module         |       CPU time(sec)         |   # of calls     | CPU time/call
---------------------+-----------------------------+------------------+------------------
    fix_mdst         |           208(     197)     |      532771      |       0.000
    bd02pi           |            35(      52)     |      532771      |       0.000
---------------------+-----------------------------+------------------+------------------
 Total CPU time(sec) |           243(     249)                        |       0.000
---------------------+-----------------------------+------------------+------------------
-------------------------- BASF Execution Statistics ------------------------------------
      Module         |       CPU time(sec)         |   # of calls     | CPU time/call
---------------------+-----------------------------+------------------+------------------
    fix_mdst         |           262(     265)     |      711498      |       0.000
    bd02pi           |            61(      69)     |      711498      |       0.000
---------------------+-----------------------------+------------------+------------------
 Total CPU time(sec) |           323(     335)                        |       0.000
---------------------+-----------------------------+------------------+------------------
-------------------------- BASF Execution Statistics ------------------------------------
      Module         |       CPU time(sec)         |   # of calls     | CPU time/call
---------------------+-----------------------------+------------------+------------------
    fix_mdst         |           272(     278)     |      742726      |       0.000
    bd02pi           |            67(      73)     |      742726      |       0.000
---------------------+-----------------------------+------------------+------------------
 Total CPU time(sec) |           339(     351)                        |       0.000
---------------------+-----------------------------+------------------+------------------
-------------------------- BASF Execution Statistics ------------------------------------
      Module         |       CPU time(sec)         |   # of calls     | CPU time/call
---------------------+-----------------------------+------------------+------------------
    fix_mdst         |           279(     284)     |      757746      |       0.000
    bd02pi           |            68(      74)     |      757746      |       0.000
---------------------+-----------------------------+------------------+------------------
 Total CPU time(sec) |           347(     358)                        |       0.000
---------------------+-----------------------------+------------------+------------------
-------------------------- BASF Execution Statistics ------------------------------------
      Module         |       CPU time(sec)         |   # of calls     | CPU time/call
---------------------+-----------------------------+------------------+------------------
    fix_mdst         |           287(     294)     |      784456      |       0.000
    bd02pi           |            70(      77)     |      784456      |       0.000
---------------------+-----------------------------+------------------+------------------
 Total CPU time(sec) |           357(     370)                        |       0.000
---------------------+-----------------------------+------------------+------------------
-------------------------- BASF Execution Statistics ------------------------------------
      Module         |       CPU time(sec)         |   # of calls     | CPU time/call
---------------------+-----------------------------+------------------+------------------
    fix_mdst         |           292(     299)     |      797089      |       0.000
    bd02pi           |            73(      78)     |      797089      |       0.000
---------------------+-----------------------------+------------------+------------------
 Total CPU time(sec) |           365(     377)                        |       0.000
---------------------+-----------------------------+------------------+------------------
-------------------------- BASF Execution Statistics ------------------------------------
      Module         |       CPU time(sec)         |   # of calls     | CPU time/call
---------------------+-----------------------------+------------------+------------------
    fix_mdst         |           355(     357)     |      941257      |       0.000
    bd02pi           |            85(      92)     |      941257      |       0.000
---------------------+-----------------------------+------------------+------------------
 Total CPU time(sec) |           440(     449)                        |       0.000
---------------------+-----------------------------+------------------+------------------
-------------------------- BASF Execution Statistics ------------------------------------
      Module         |       CPU time(sec)         |   # of calls     | CPU time/call
---------------------+-----------------------------+------------------+------------------
    fix_mdst         |           399(     401)     |     1048097      |       0.000
    bd02pi           |            95(     103)     |     1048097      |       0.000
---------------------+-----------------------------+------------------+------------------
 Total CPU time(sec) |           494(     504)                        |       0.000
---------------------+-----------------------------+------------------+------------------
-------------------------- BASF Execution Statistics ------------------------------------
      Module         |       CPU time(sec)         |   # of calls     | CPU time/call
---------------------+-----------------------------+------------------+------------------
    fix_mdst         |           404(     406)     |     1059863      |       0.000
    bd02pi           |            95(     104)     |     1059863      |       0.000
---------------------+-----------------------------+------------------+------------------
 Total CPU time(sec) |           499(     510)                        |       0.000
---------------------+-----------------------------+------------------+------------------
-------------------------- BASF Execution Statistics ------------------------------------
      Module         |       CPU time(sec)         |   # of calls     | CPU time/call
---------------------+-----------------------------+------------------+------------------
    fix_mdst         |           409(     411)     |     1071417      |       0.000
    bd02pi           |            95(     105)     |     1071417      |       0.000
---------------------+-----------------------------+------------------+------------------
 Total CPU time(sec) |           504(     516)                        |       0.000
---------------------+-----------------------------+------------------+------------------
-------------------------- BASF Execution Statistics ------------------------------------
      Module         |       CPU time(sec)         |   # of calls     | CPU time/call
---------------------+-----------------------------+------------------+------------------
    fix_mdst         |           499(     491)     |     1270380      |       0.000
    bd02pi           |           112(     124)     |     1270380      |       0.000
---------------------+-----------------------------+------------------+------------------
 Total CPU time(sec) |           611(     615)                        |       0.000
---------------------+-----------------------------+------------------+------------------
-------------------------- BASF Execution Statistics ------------------------------------
      Module         |       CPU time(sec)         |   # of calls     | CPU time/call
---------------------+-----------------------------+------------------+------------------
    fix_mdst         |           519(     506)     |     1308938      |       0.000
    bd02pi           |           116(     128)     |     1308938      |       0.000
---------------------+-----------------------------+------------------+------------------
 Total CPU time(sec) |           635(     634)                        |       0.000
---------------------+-----------------------------+------------------+------------------
-------------------------- BASF Execution Statistics ------------------------------------
      Module         |       CPU time(sec)         |   # of calls     | CPU time/call
---------------------+-----------------------------+------------------+------------------
    fix_mdst         |           555(     542)     |     1397211      |       0.000
    bd02pi           |           126(     136)     |     1397211      |       0.000
---------------------+-----------------------------+------------------+------------------
 Total CPU time(sec) |           681(     678)                        |       0.000
---------------------+-----------------------------+------------------+------------------
-------------------------- BASF Execution Statistics ------------------------------------
      Module         |       CPU time(sec)         |   # of calls     | CPU time/call
---------------------+-----------------------------+------------------+------------------
    fix_mdst         |           580(     567)     |     1461580      |       0.000
    bd02pi           |           133(     142)     |     1461580      |       0.000
---------------------+-----------------------------+------------------+------------------
 Total CPU time(sec) |           713(     709)                        |       0.000
---------------------+-----------------------------+------------------+------------------
-------------------------- BASF Execution Statistics ------------------------------------
      Module         |       CPU time(sec)         |   # of calls     | CPU time/call
---------------------+-----------------------------+------------------+------------------
    fix_mdst         |           597(     583)     |     1502482      |       0.000
    bd02pi           |           138(     146)     |     1502482      |       0.000
---------------------+-----------------------------+------------------+------------------
 Total CPU time(sec) |           735(     729)                        |       0.000
---------------------+-----------------------------+------------------+------------------
-------------------------- BASF Execution Statistics ------------------------------------
      Module         |       CPU time(sec)         |   # of calls     | CPU time/call
---------------------+-----------------------------+------------------+------------------
    fix_mdst         |           598(     585)     |     1507915      |       0.000
    bd02pi           |           138(     147)     |     1507915      |       0.000
---------------------+-----------------------------+------------------+------------------
 Total CPU time(sec) |           736(     732)                        |       0.000
---------------------+-----------------------------+------------------+------------------
-------------------------- BASF Execution Statistics ------------------------------------
      Module         |       CPU time(sec)         |   # of calls     | CPU time/call
---------------------+-----------------------------+------------------+------------------
    fix_mdst         |           602(     592)     |     1527060      |       0.000
    bd02pi           |           143(     149)     |     1527060      |       0.000
---------------------+-----------------------------+------------------+------------------
 Total CPU time(sec) |           745(     741)                        |       0.000
---------------------+-----------------------------+------------------+------------------
-------------------------- BASF Execution Statistics ------------------------------------
      Module         |       CPU time(sec)         |   # of calls     | CPU time/call
---------------------+-----------------------------+------------------+------------------
    fix_mdst         |           604(     593)     |     1531218      |       0.000
    bd02pi           |           143(     149)     |     1531218      |       0.000
---------------------+-----------------------------+------------------+------------------
 Total CPU time(sec) |           747(     743)                        |       0.000
---------------------+-----------------------------+------------------+------------------
-------------------------- BASF Execution Statistics ------------------------------------
      Module         |       CPU time(sec)         |   # of calls     | CPU time/call
---------------------+-----------------------------+------------------+------------------
    fix_mdst         |           606(     595)     |     1535251      |       0.000
    bd02pi           |           143(     149)     |     1535251      |       0.000
---------------------+-----------------------------+------------------+------------------
 Total CPU time(sec) |           749(     744)                        |       0.000
---------------------+-----------------------------+------------------+------------------
-------------------------- BASF Execution Statistics ------------------------------------
      Module         |       CPU time(sec)         |   # of calls     | CPU time/call
---------------------+-----------------------------+------------------+------------------
    fix_mdst         |           610(     599)     |     1548004      |       0.000
    bd02pi           |           145(     151)     |     1548004      |       0.000
---------------------+-----------------------------+------------------+------------------
 Total CPU time(sec) |           755(     750)                        |       0.000
---------------------+-----------------------------+------------------+------------------
-------------------------- BASF Execution Statistics ------------------------------------
      Module         |       CPU time(sec)         |   # of calls     | CPU time/call
---------------------+-----------------------------+------------------+------------------
    fix_mdst         |           616(     607)     |     1566653      |       0.000
    bd02pi           |           146(     152)     |     1566653      |       0.000
---------------------+-----------------------------+------------------+------------------
 Total CPU time(sec) |           762(     759)                        |       0.000
---------------------+-----------------------------+------------------+------------------
-------------------------- BASF Execution Statistics ------------------------------------
      Module         |       CPU time(sec)         |   # of calls     | CPU time/call
---------------------+-----------------------------+------------------+------------------
    fix_mdst         |           631(     621)     |     1600895      |       0.000
    bd02pi           |           147(     156)     |     1600895      |       0.000
---------------------+-----------------------------+------------------+------------------
 Total CPU time(sec) |           778(     777)                        |       0.000
---------------------+-----------------------------+------------------+------------------
-------------------------- BASF Execution Statistics ------------------------------------
      Module         |       CPU time(sec)         |   # of calls     | CPU time/call
---------------------+-----------------------------+------------------+------------------
    fix_mdst         |           634(     625)     |     1609745      |       0.000
    bd02pi           |           147(     157)     |     1609745      |       0.000
---------------------+-----------------------------+------------------+------------------
 Total CPU time(sec) |           781(     782)                        |       0.000
---------------------+-----------------------------+------------------+------------------
-------------------------- BASF Execution Statistics ------------------------------------
      Module         |       CPU time(sec)         |   # of calls     | CPU time/call
---------------------+-----------------------------+------------------+------------------
    fix_mdst         |           647(     642)     |     1648728      |       0.000
    bd02pi           |           150(     160)     |     1648728      |       0.000
---------------------+-----------------------------+------------------+------------------
 Total CPU time(sec) |           797(     802)                        |       0.000
---------------------+-----------------------------+------------------+------------------
-------------------------- BASF Execution Statistics ------------------------------------
      Module         |       CPU time(sec)         |   # of calls     | CPU time/call
---------------------+-----------------------------+------------------+------------------
    fix_mdst         |           681(     670)     |     1714732      |       0.000
    bd02pi           |           155(     166)     |     1714732      |       0.000
---------------------+-----------------------------+------------------+------------------
 Total CPU time(sec) |           836(     836)                        |       0.000
---------------------+-----------------------------+------------------+------------------
-------------------------- BASF Execution Statistics ------------------------------------
      Module         |       CPU time(sec)         |   # of calls     | CPU time/call
---------------------+-----------------------------+------------------+------------------
    fix_mdst         |           683(     672)     |     1720536      |       0.000
    bd02pi           |           155(     167)     |     1720536      |       0.000
---------------------+-----------------------------+------------------+------------------
 Total CPU time(sec) |           838(     839)                        |       0.000
---------------------+-----------------------------+------------------+------------------
-------------------------- BASF Execution Statistics ------------------------------------
      Module         |       CPU time(sec)         |   # of calls     | CPU time/call
---------------------+-----------------------------+------------------+------------------
    fix_mdst         |           689(     678)     |     1737027      |       0.000
    bd02pi           |           158(     169)     |     1737027      |       0.000
---------------------+-----------------------------+------------------+------------------
 Total CPU time(sec) |           847(     847)                        |       0.000
---------------------+-----------------------------+------------------+------------------
-------------------------- BASF Execution Statistics ------------------------------------
      Module         |       CPU time(sec)         |   # of calls     | CPU time/call
---------------------+-----------------------------+------------------+------------------
    fix_mdst         |           697(     684)     |     1752668      |       0.000
    bd02pi           |           159(     170)     |     1752668      |       0.000
---------------------+-----------------------------+------------------+------------------
 Total CPU time(sec) |           856(     855)                        |       0.000
---------------------+-----------------------------+------------------+------------------
-------------------------- BASF Execution Statistics ------------------------------------
      Module         |       CPU time(sec)         |   # of calls     | CPU time/call
---------------------+-----------------------------+------------------+------------------
    fix_mdst         |           705(     691)     |     1773497      |       0.000
    bd02pi           |           161(     172)     |     1773497      |       0.000
---------------------+-----------------------------+------------------+------------------
 Total CPU time(sec) |           866(     864)                        |       0.000
---------------------+-----------------------------+------------------+------------------
-------------------------- BASF Execution Statistics ------------------------------------
      Module         |       CPU time(sec)         |   # of calls     | CPU time/call
---------------------+-----------------------------+------------------+------------------
    fix_mdst         |           734(     722)     |     1862915      |       0.000
    bd02pi           |           168(     181)     |     1862915      |       0.000
---------------------+-----------------------------+------------------+------------------
 Total CPU time(sec) |           902(     903)                        |       0.000
---------------------+-----------------------------+------------------+------------------
-------------------------- BASF Execution Statistics ------------------------------------
      Module         |       CPU time(sec)         |   # of calls     | CPU time/call
---------------------+-----------------------------+------------------+------------------
    fix_mdst         |           738(     725)     |     1870021      |       0.000
    bd02pi           |           168(     181)     |     1870021      |       0.000
---------------------+-----------------------------+------------------+------------------
 Total CPU time(sec) |           906(     906)                        |       0.000
---------------------+-----------------------------+------------------+------------------
-------------------------- BASF Execution Statistics ------------------------------------
      Module         |       CPU time(sec)         |   # of calls     | CPU time/call
---------------------+-----------------------------+------------------+------------------
    fix_mdst         |           740(     727)     |     1875716      |       0.000
    bd02pi           |           169(     182)     |     1875716      |       0.000
---------------------+-----------------------------+------------------+------------------
 Total CPU time(sec) |           909(     909)                        |       0.000
---------------------+-----------------------------+------------------+------------------
-------------------------- BASF Execution Statistics ------------------------------------
      Module         |       CPU time(sec)         |   # of calls     | CPU time/call
---------------------+-----------------------------+------------------+------------------
    fix_mdst         |           740(     728)     |     1878795      |       0.000
    bd02pi           |           170(     182)     |     1878795      |       0.000
---------------------+-----------------------------+------------------+------------------
 Total CPU time(sec) |           910(     911)                        |       0.000
---------------------+-----------------------------+------------------+------------------
-------------------------- BASF Execution Statistics ------------------------------------
      Module         |       CPU time(sec)         |   # of calls     | CPU time/call
---------------------+-----------------------------+------------------+------------------
    fix_mdst         |           749(     735)     |     1895946      |       0.000
    bd02pi           |           170(     184)     |     1895946      |       0.000
---------------------+-----------------------------+------------------+------------------
 Total CPU time(sec) |           919(     919)                        |       0.000
---------------------+-----------------------------+------------------+------------------
-------------------------- BASF Execution Statistics ------------------------------------
      Module         |       CPU time(sec)         |   # of calls     | CPU time/call
---------------------+-----------------------------+------------------+------------------
    fix_mdst         |           758(     743)     |     1915767      |       0.000
    bd02pi           |           170(     186)     |     1915767      |       0.000
---------------------+-----------------------------+------------------+------------------
 Total CPU time(sec) |           928(     929)                        |       0.000
---------------------+-----------------------------+------------------+------------------
-------------------------- BASF Execution Statistics ------------------------------------
      Module         |       CPU time(sec)         |   # of calls     | CPU time/call
---------------------+-----------------------------+------------------+------------------
    fix_mdst         |           804(     788)     |     2033465      |       0.000
    bd02pi           |           179(     198)     |     2033465      |       0.000
---------------------+-----------------------------+------------------+------------------
 Total CPU time(sec) |           983(     986)                        |       0.000
---------------------+-----------------------------+------------------+------------------
-------------------------- BASF Execution Statistics ------------------------------------
      Module         |       CPU time(sec)         |   # of calls     | CPU time/call
---------------------+-----------------------------+------------------+------------------
    fix_mdst         |           809(     794)     |     2048474      |       0.000
    bd02pi           |           180(     199)     |     2048474      |       0.000
---------------------+-----------------------------+------------------+------------------
 Total CPU time(sec) |           989(     993)                        |       0.000
---------------------+-----------------------------+------------------+------------------
-------------------------- BASF Execution Statistics ------------------------------------
      Module         |       CPU time(sec)         |   # of calls     | CPU time/call
---------------------+-----------------------------+------------------+------------------
    fix_mdst         |           814(     800)     |     2063875      |       0.000
    bd02pi           |           182(     201)     |     2063875      |       0.000
---------------------+-----------------------------+------------------+------------------
 Total CPU time(sec) |           996(    1001)                        |       0.000
---------------------+-----------------------------+------------------+------------------
-------------------------- BASF Execution Statistics ------------------------------------
      Module         |       CPU time(sec)         |   # of calls     | CPU time/call
---------------------+-----------------------------+------------------+------------------
    fix_mdst         |           819(     808)     |     2083860      |       0.000
    bd02pi           |           184(     203)     |     2083860      |       0.000
---------------------+-----------------------------+------------------+------------------
 Total CPU time(sec) |          1003(    1011)                        |       0.000
---------------------+-----------------------------+------------------+------------------
-------------------------- BASF Execution Statistics ------------------------------------
      Module         |       CPU time(sec)         |   # of calls     | CPU time/call
---------------------+-----------------------------+------------------+------------------
    fix_mdst         |           849(     844)     |     2173790      |       0.000
    bd02pi           |           194(     212)     |     2173790      |       0.000
---------------------+-----------------------------+------------------+------------------
 Total CPU time(sec) |          1043(    1055)                        |       0.000
---------------------+-----------------------------+------------------+------------------
-------------------------- BASF Execution Statistics ------------------------------------
      Module         |       CPU time(sec)         |   # of calls     | CPU time/call
---------------------+-----------------------------+------------------+------------------
    fix_mdst         |           852(     845)     |     2177763      |       0.000
    bd02pi           |           194(     212)     |     2177763      |       0.000
---------------------+-----------------------------+------------------+------------------
 Total CPU time(sec) |          1046(    1057)                        |       0.000
---------------------+-----------------------------+------------------+------------------
-------------------------- BASF Execution Statistics ------------------------------------
      Module         |       CPU time(sec)         |   # of calls     | CPU time/call
---------------------+-----------------------------+------------------+------------------
    fix_mdst         |           853(     846)     |     2179071      |       0.000
    bd02pi           |           194(     212)     |     2179071      |       0.000
---------------------+-----------------------------+------------------+------------------
 Total CPU time(sec) |          1047(    1058)                        |       0.000
---------------------+-----------------------------+------------------+------------------
-------------------------- BASF Execution Statistics ------------------------------------
      Module         |       CPU time(sec)         |   # of calls     | CPU time/call
---------------------+-----------------------------+------------------+------------------
    fix_mdst         |           868(     866)     |     2230964      |       0.000
    bd02pi           |           197(     217)     |     2230964      |       0.000
---------------------+-----------------------------+------------------+------------------
 Total CPU time(sec) |          1065(    1083)                        |       0.000
---------------------+-----------------------------+------------------+------------------
-------------------------- BASF Execution Statistics ------------------------------------
      Module         |       CPU time(sec)         |   # of calls     | CPU time/call
---------------------+-----------------------------+------------------+------------------
    fix_mdst         |           879(     877)     |     2259876      |       0.000
    bd02pi           |           200(     220)     |     2259876      |       0.000
---------------------+-----------------------------+------------------+------------------
 Total CPU time(sec) |          1079(    1097)                        |       0.000
---------------------+-----------------------------+------------------+------------------
-------------------------- BASF Execution Statistics ------------------------------------
      Module         |       CPU time(sec)         |   # of calls     | CPU time/call
---------------------+-----------------------------+------------------+------------------
    fix_mdst         |           909(     906)     |     2338563      |       0.000
    bd02pi           |           209(     228)     |     2338563      |       0.000
---------------------+-----------------------------+------------------+------------------
 Total CPU time(sec) |          1118(    1134)                        |       0.000
---------------------+-----------------------------+------------------+------------------
-------------------------- BASF Execution Statistics ------------------------------------
      Module         |       CPU time(sec)         |   # of calls     | CPU time/call
---------------------+-----------------------------+------------------+------------------
    fix_mdst         |           925(     924)     |     2390643      |       0.000
    bd02pi           |           212(     233)     |     2390643      |       0.000
---------------------+-----------------------------+------------------+------------------
 Total CPU time(sec) |          1137(    1157)                        |       0.000
---------------------+-----------------------------+------------------+------------------
-------------------------- BASF Execution Statistics ------------------------------------
      Module         |       CPU time(sec)         |   # of calls     | CPU time/call
---------------------+-----------------------------+------------------+------------------
    fix_mdst         |           946(     949)     |     2463334      |       0.000
    bd02pi           |           220(     239)     |     2463334      |       0.000
---------------------+-----------------------------+------------------+------------------
 Total CPU time(sec) |          1166(    1189)                        |       0.000
---------------------+-----------------------------+------------------+------------------
-------------------------- BASF Execution Statistics ------------------------------------
      Module         |       CPU time(sec)         |   # of calls     | CPU time/call
---------------------+-----------------------------+------------------+------------------
    fix_mdst         |           955(     958)     |     2488654      |       0.000
    bd02pi           |           221(     242)     |     2488654      |       0.000
---------------------+-----------------------------+------------------+------------------
 Total CPU time(sec) |          1176(    1200)                        |       0.000
---------------------+-----------------------------+------------------+------------------
-------------------------- BASF Execution Statistics ------------------------------------
      Module         |       CPU time(sec)         |   # of calls     | CPU time/call
---------------------+-----------------------------+------------------+------------------
    fix_mdst         |           958(     960)     |     2496987      |       0.000
    bd02pi           |           221(     242)     |     2496987      |       0.000
---------------------+-----------------------------+------------------+------------------
 Total CPU time(sec) |          1179(    1203)                        |       0.000
---------------------+-----------------------------+------------------+------------------
-------------------------- BASF Execution Statistics ------------------------------------
      Module         |       CPU time(sec)         |   # of calls     | CPU time/call
---------------------+-----------------------------+------------------+------------------
    fix_mdst         |           963(     967)     |     2518503      |       0.000
    bd02pi           |           224(     245)     |     2518503      |       0.000
---------------------+-----------------------------+------------------+------------------
 Total CPU time(sec) |          1187(    1211)                        |       0.000
---------------------+-----------------------------+------------------+------------------
-------------------------- BASF Execution Statistics ------------------------------------
      Module         |       CPU time(sec)         |   # of calls     | CPU time/call
---------------------+-----------------------------+------------------+------------------
    fix_mdst         |           965(     969)     |     2524797      |       0.000
    bd02pi           |           224(     245)     |     2524797      |       0.000
---------------------+-----------------------------+------------------+------------------
 Total CPU time(sec) |          1189(    1214)                        |       0.000
---------------------+-----------------------------+------------------+------------------
-------------------------- BASF Execution Statistics ------------------------------------
      Module         |       CPU time(sec)         |   # of calls     | CPU time/call
---------------------+-----------------------------+------------------+------------------
    fix_mdst         |           991(     997)     |     2614798      |       0.000
    bd02pi           |           234(     253)     |     2614798      |       0.000
---------------------+-----------------------------+------------------+------------------
 Total CPU time(sec) |          1225(    1250)                        |       0.000
---------------------+-----------------------------+------------------+------------------
-------------------------- BASF Execution Statistics ------------------------------------
      Module         |       CPU time(sec)         |   # of calls     | CPU time/call
---------------------+-----------------------------+------------------+------------------
    fix_mdst         |          1028(    1029)     |     2718664      |       0.000
    bd02pi           |           245(     263)     |     2718664      |       0.000
---------------------+-----------------------------+------------------+------------------
 Total CPU time(sec) |          1273(    1292)                        |       0.000
---------------------+-----------------------------+------------------+------------------
-------------------------- BASF Execution Statistics ------------------------------------
      Module         |       CPU time(sec)         |   # of calls     | CPU time/call
---------------------+-----------------------------+------------------+------------------
    fix_mdst         |          1033(    1033)     |     2729155      |       0.000
    bd02pi           |           246(     264)     |     2729155      |       0.000
---------------------+-----------------------------+------------------+------------------
 Total CPU time(sec) |          1279(    1297)                        |       0.000
---------------------+-----------------------------+------------------+------------------
-------------------------- BASF Execution Statistics ------------------------------------
      Module         |       CPU time(sec)         |   # of calls     | CPU time/call
---------------------+-----------------------------+------------------+------------------
    fix_mdst         |          1038(    1038)     |     2745630      |       0.000
    bd02pi           |           247(     266)     |     2745630      |       0.000
---------------------+-----------------------------+------------------+------------------
 Total CPU time(sec) |          1285(    1303)                        |       0.000
---------------------+-----------------------------+------------------+------------------
-------------------------- BASF Execution Statistics ------------------------------------
      Module         |       CPU time(sec)         |   # of calls     | CPU time/call
---------------------+-----------------------------+------------------+------------------
    fix_mdst         |          1039(    1039)     |     2751483      |       0.000
    bd02pi           |           247(     266)     |     2751483      |       0.000
---------------------+-----------------------------+------------------+------------------
 Total CPU time(sec) |          1286(    1306)                        |       0.000
---------------------+-----------------------------+------------------+------------------
-------------------------- BASF Execution Statistics ------------------------------------
      Module         |       CPU time(sec)         |   # of calls     | CPU time/call
---------------------+-----------------------------+------------------+------------------
    fix_mdst         |          1058(    1063)     |     2828333      |       0.000
    bd02pi           |           257(     274)     |     2828333      |       0.000
---------------------+-----------------------------+------------------+------------------
 Total CPU time(sec) |          1315(    1338)                        |       0.000
---------------------+-----------------------------+------------------+------------------
-------------------------- BASF Execution Statistics ------------------------------------
      Module         |       CPU time(sec)         |   # of calls     | CPU time/call
---------------------+-----------------------------+------------------+------------------
    fix_mdst         |          1061(    1068)     |     2844029      |       0.000
    bd02pi           |           259(     276)     |     2844029      |       0.000
---------------------+-----------------------------+------------------+------------------
 Total CPU time(sec) |          1320(    1344)                        |       0.000
---------------------+-----------------------------+------------------+------------------
-------------------------- BASF Execution Statistics ------------------------------------
      Module         |       CPU time(sec)         |   # of calls     | CPU time/call
---------------------+-----------------------------+------------------+------------------
    fix_mdst         |          1079(    1086)     |     2902703      |       0.000
    bd02pi           |           268(     281)     |     2902703      |       0.000
---------------------+-----------------------------+------------------+------------------
 Total CPU time(sec) |          1347(    1368)                        |       0.000
---------------------+-----------------------------+------------------+------------------
-------------------------- BASF Execution Statistics ------------------------------------
      Module         |       CPU time(sec)         |   # of calls     | CPU time/call
---------------------+-----------------------------+------------------+------------------
    fix_mdst         |          1121(    1123)     |     3019431      |       0.000
    bd02pi           |           274(     292)     |     3019431      |       0.000
---------------------+-----------------------------+------------------+------------------
 Total CPU time(sec) |          1395(    1415)                        |       0.000
---------------------+-----------------------------+------------------+------------------
-------------------------- BASF Execution Statistics ------------------------------------
      Module         |       CPU time(sec)         |   # of calls     | CPU time/call
---------------------+-----------------------------+------------------+------------------
    fix_mdst         |          1131(    1136)     |     3060998      |       0.000
    bd02pi           |           282(     296)     |     3060998      |       0.000
---------------------+-----------------------------+------------------+------------------
 Total CPU time(sec) |          1413(    1433)                        |       0.000
---------------------+-----------------------------+------------------+------------------
-------------------------- BASF Execution Statistics ------------------------------------
      Module         |       CPU time(sec)         |   # of calls     | CPU time/call
---------------------+-----------------------------+------------------+------------------
    fix_mdst         |          1132(    1137)     |     3062921      |       0.000
    bd02pi           |           282(     297)     |     3062921      |       0.000
---------------------+-----------------------------+------------------+------------------
 Total CPU time(sec) |          1414(    1433)                        |       0.000
---------------------+-----------------------------+------------------+------------------
-------------------------- BASF Execution Statistics ------------------------------------
      Module         |       CPU time(sec)         |   # of calls     | CPU time/call
---------------------+-----------------------------+------------------+------------------
    fix_mdst         |          1171(    1170)     |     3167779      |       0.000
    bd02pi           |           290(     307)     |     3167779      |       0.000
---------------------+-----------------------------+------------------+------------------
 Total CPU time(sec) |          1461(    1477)                        |       0.000
---------------------+-----------------------------+------------------+------------------
-------------------------- BASF Execution Statistics ------------------------------------
      Module         |       CPU time(sec)         |   # of calls     | CPU time/call
---------------------+-----------------------------+------------------+------------------
    fix_mdst         |          1183(    1187)     |     3222644      |       0.000
    bd02pi           |           296(     312)     |     3222644      |       0.000
---------------------+-----------------------------+------------------+------------------
 Total CPU time(sec) |          1479(    1499)                        |       0.000
---------------------+-----------------------------+------------------+------------------
-------------------------- BASF Execution Statistics ------------------------------------
      Module         |       CPU time(sec)         |   # of calls     | CPU time/call
---------------------+-----------------------------+------------------+------------------
    fix_mdst         |          1211(    1217)     |     3316317      |       0.000
    bd02pi           |           303(     321)     |     3316317      |       0.000
---------------------+-----------------------------+------------------+------------------
 Total CPU time(sec) |          1514(    1538)                        |       0.000
---------------------+-----------------------------+------------------+------------------
-------------------------- BASF Execution Statistics ------------------------------------
      Module         |       CPU time(sec)         |   # of calls     | CPU time/call
---------------------+-----------------------------+------------------+------------------
    fix_mdst         |          1215(    1225)     |     3341376      |       0.000
    bd02pi           |           308(     323)     |     3341376      |       0.000
---------------------+-----------------------------+------------------+------------------
 Total CPU time(sec) |          1523(    1549)                        |       0.000
---------------------+-----------------------------+------------------+------------------
-------------------------- BASF Execution Statistics ------------------------------------
      Module         |       CPU time(sec)         |   # of calls     | CPU time/call
---------------------+-----------------------------+------------------+------------------
    fix_mdst         |          1269(    1285)     |     3519629      |       0.000
    bd02pi           |           328(     340)     |     3519629      |       0.000
---------------------+-----------------------------+------------------+------------------
 Total CPU time(sec) |          1597(    1625)                        |       0.000
---------------------+-----------------------------+------------------+------------------
-------------------------- BASF Execution Statistics ------------------------------------
      Module         |       CPU time(sec)         |   # of calls     | CPU time/call
---------------------+-----------------------------+------------------+------------------
    fix_mdst         |          1280(    1297)     |     3554236      |       0.000
    bd02pi           |           333(     343)     |     3554236      |       0.000
---------------------+-----------------------------+------------------+------------------
 Total CPU time(sec) |          1613(    1640)                        |       0.000
---------------------+-----------------------------+------------------+------------------
-------------------------- BASF Execution Statistics ------------------------------------
      Module         |       CPU time(sec)         |   # of calls     | CPU time/call
---------------------+-----------------------------+------------------+------------------
    fix_mdst         |          1292(    1315)     |     3609531      |       0.000
    bd02pi           |           341(     349)     |     3609531      |       0.000
---------------------+-----------------------------+------------------+------------------
 Total CPU time(sec) |          1633(    1664)                        |       0.000
---------------------+-----------------------------+------------------+------------------
-------------------------- BASF Execution Statistics ------------------------------------
      Module         |       CPU time(sec)         |   # of calls     | CPU time/call
---------------------+-----------------------------+------------------+------------------
    fix_mdst         |          1324(    1339)     |     3683334      |       0.000
    bd02pi           |           347(     356)     |     3683334      |       0.000
---------------------+-----------------------------+------------------+------------------
 Total CPU time(sec) |          1671(    1695)                        |       0.000
---------------------+-----------------------------+------------------+------------------
-------------------------- BASF Execution Statistics ------------------------------------
      Module         |       CPU time(sec)         |   # of calls     | CPU time/call
---------------------+-----------------------------+------------------+------------------
    fix_mdst         |          1358(    1374)     |     3792197      |       0.000
    bd02pi           |           357(     367)     |     3792197      |       0.000
---------------------+-----------------------------+------------------+------------------
 Total CPU time(sec) |          1715(    1741)                        |       0.000
---------------------+-----------------------------+------------------+------------------
-------------------------- BASF Execution Statistics ------------------------------------
      Module         |       CPU time(sec)         |   # of calls     | CPU time/call
---------------------+-----------------------------+------------------+------------------
    fix_mdst         |          1395(    1411)     |     3905017      |       0.000
    bd02pi           |           367(     378)     |     3905017      |       0.000
---------------------+-----------------------------+------------------+------------------
 Total CPU time(sec) |          1762(    1789)                        |       0.000
---------------------+-----------------------------+------------------+------------------
-------------------------- BASF Execution Statistics ------------------------------------
      Module         |       CPU time(sec)         |   # of calls     | CPU time/call
---------------------+-----------------------------+------------------+------------------
    fix_mdst         |          1421(    1435)     |     3977611      |       0.000
    bd02pi           |           372(     385)     |     3977611      |       0.000
---------------------+-----------------------------+------------------+------------------
 Total CPU time(sec) |          1793(    1820)                        |       0.000
---------------------+-----------------------------+------------------+------------------
-------------------------- BASF Execution Statistics ------------------------------------
      Module         |       CPU time(sec)         |   # of calls     | CPU time/call
---------------------+-----------------------------+------------------+------------------
    fix_mdst         |          1456(    1476)     |     4104214      |       0.000
    bd02pi           |           381(     398)     |     4104214      |       0.000
---------------------+-----------------------------+------------------+------------------
 Total CPU time(sec) |          1837(    1874)                        |       0.000
---------------------+-----------------------------+------------------+------------------
-------------------------- BASF Execution Statistics ------------------------------------
      Module         |       CPU time(sec)         |   # of calls     | CPU time/call
---------------------+-----------------------------+------------------+------------------
    fix_mdst         |          1465(    1483)     |     4124929      |       0.000
    bd02pi           |           382(     399)     |     4124929      |       0.000
---------------------+-----------------------------+------------------+------------------
 Total CPU time(sec) |          1847(    1882)                        |       0.000
---------------------+-----------------------------+------------------+------------------
-------------------------- BASF Execution Statistics ------------------------------------
      Module         |       CPU time(sec)         |   # of calls     | CPU time/call
---------------------+-----------------------------+------------------+------------------
    fix_mdst         |          1466(    1484)     |     4127872      |       0.000
    bd02pi           |           383(     400)     |     4127872      |       0.000
---------------------+-----------------------------+------------------+------------------
 Total CPU time(sec) |          1849(    1884)                        |       0.000
---------------------+-----------------------------+------------------+------------------

terminate
   Exp   Run    #evts        Lum   #evts/lum            4S     Continuum            3S      above 4S         other
    55  1503     6044       11.1     544.995         11.09             0             0             0             0
    55  1502    18573       34.1     544.982         45.17             0             0             0             0
    55  1500    53786       98.7     544.999        143.86             0             0             0             0
    55  1510     3924        7.2         545        151.06             0             0             0             0
    55  1511    28726       52.7     544.982        203.77             0             0             0             0
    55  1512    32176         59     544.986        262.81             0             0             0             0
    55  1509   125807        231     544.997        493.65             0             0             0             0
    55  1513    77602        142     544.996        636.04             0             0             0             0
    55  1514   186133        342     544.998        977.57             0             0             0             0
    55  1517    15020       27.6     544.993        1005.1             0             0             0             0
    55  1516    31228       57.3     544.991        1062.4             0             0             0             0
    55  1519    12633       23.2     544.996        1085.6             0             0             0             0
    55  1518    26710         49     544.991        1134.6             0             0             0             0
    55  1515   178727        328     544.999        1462.6             0             0             0             0
    55  1524    11766       21.6     544.975        1484.1             0             0             0             0
    55  1525    11554       21.2         545        1505.3             0             0             0             0
    55  1522   144168        265     544.997        1769.9             0             0             0             0
    55  1523   106840        196     544.991        1965.9             0             0             0             0
    55  1527    38558       70.8     544.989        2036.7             0             0             0             0
    55  1528    88273        162     544.996        2198.6             0             0             0             0
    55  1526   198963        365         545        2563.7             0             0             0             0
    55  1533     5433       9.97     544.935        2573.7             0             0             0             0
    55  1529    64369        118     544.992        2691.8             0             0             0             0
    55  1530    40902         75     544.997        2766.8             0             0             0             0
    55  1534    19145       35.1     544.976          2802             0             0             0             0
    55  1537     4158       7.63     544.954        2809.6             0             0             0             0
    55  1538     4033        7.4         545          2817             0             0             0             0
    55  1539    12753       23.4         545        2840.4             0             0             0             0
    55  1541    18649       34.2     544.974        2874.6             0             0             0             0
    55  1549     8850       16.2     544.951        2890.9             0             0             0             0
    55  1544    34242       62.8     544.994        2953.7             0             0             0             0
    55  1550    38983       71.5     544.988        3025.2             0             0             0             0
    55  1552     5804       10.7     544.977        3035.9             0             0             0             0
    55  1553    16491       30.3     544.977        3066.1             0             0             0             0
    55  1554    15641       28.7     544.983        3094.8             0             0             0             0
    55  1551    66004        121     544.992        3215.9             0             0             0             0
    55  1556    20829       38.2     544.976        3254.2             0             0             0             0
    55  1558     7106         13     544.939        3267.2             0             0             0             0
    55  1559     5695       10.4     544.976        3277.7             0             0             0             0
    55  1560     3079       5.65     544.956        3283.3             0             0             0             0
    55  1563    17151       31.5     544.995        3314.8             0             0             0             0
    55  1557    89418        164     544.999        3478.8             0             0             0             0
    55  1564    19821       36.4     544.982        3515.2             0             0             0             0
    55  1571    15009       27.5     544.989        3542.8             0             0             0             0
    55  1572    15401       28.3     544.975          3571             0             0             0             0
    55  1574    19985       36.7     544.996        3607.7             0             0             0             0
    55  1566   117698        216     544.999        3823.6             0             0             0             0
    55  1578     3973       7.29     544.993        3830.9             0             0             0             0
    55  1575    89930        165     544.997        3995.9             0             0             0             0
    55  1679     1308        2.4         545        3998.3             0             0             0             0
    55  1681    51893       95.2      544.98        4093.6             0             0             0             0
    55  1683    28912         53     544.995        4146.6             0             0             0             0
    55  1684    78687        144     544.999          4291             0             0             0             0
    55  1686    52080       95.6     544.998        4386.6             0             0             0             0
    55  1694    25320       46.5     544.985          4433             0             0             0             0
    55  1691    72691        133     544.992        4566.4             0             0             0             0
    55  1698     8333       15.3     544.997        4581.7             0             0             0             0
    55  1700     6294       11.6     544.935        4593.2             0             0             0             0
    55  1699    21516       39.5     544.985        4632.7             0             0             0             0
    55  1701    90001        165     544.998        4797.9             0             0             0             0
    55  1708    10491       19.2     544.987        4817.1             0             0             0             0
    55  1710     5853       10.7     544.972        4827.8             0             0             0             0
    55  1709    16475       30.2     544.988        4858.1             0             0             0             0
    55  1705   103866        191     544.999        5048.7             0             0             0             0
    55  1711    76850        141     544.997        5189.7             0             0             0             0
    55  1714    15696       28.8         545        5218.5             0             0             0             0
    55  1715    58674        108     544.993        5326.1             0             0             0             0
    55  1719     1923       3.53     544.759        5329.7             0             0             0             0
    55  1718    41567       76.3     544.998        5405.9             0             0             0             0
    55  1716   116728        214         545        5620.1             0             0             0             0
    55  1722   104858        192         545        5812.5             0             0             0             0
    55  1725    54865        101     544.999        5913.2             0             0             0             0
    55  1727    25059         46     544.998        5959.2             0             0             0             0
    55  1726    93673        172     544.991          6131             0             0             0             0
    55  1731    34607       63.5     544.992        6194.5             0             0             0             0
    55  1735    55295        101     544.993          6296             0             0             0             0
    55  1728   178253        327         545        6623.1             0             0             0             0
    55  1738    73803        135     544.993        6758.5             0             0             0             0
    55  1740   108863        200     544.996        6958.2             0             0             0             0
    55  1742   112820        207     544.998        7165.2             0             0             0             0
    55  1745    72594        133         545        7298.4             0             0             0             0
    55  1749     2943        5.4         545        7303.8             0             0             0             0
    55  1748    20715         38     544.988        7341.9             0             0             0             0
    55  1746   126603        232     544.998        7574.2             0             0             0             0
Total On4S lum. =        7574.2 Continuum Lum. =             0 3S Lum. =             0 Above4S Lum. =             0 Other Lum. =             0

 MZSTOR.  ZEBRA table base TAB(0) in /MZCC/ at adr          -1    FFFFFFFF HEX

 MZSTOR.  Initialize Store  0  in /GCBANK/
          with Store/Table at absolute adrs     1023773          -1
                                        HEX       F9F1D    FFFFFFFF
                                        HEX       F9D4A           0
                              relative adrs     1023306           0
          with     1 Str. in     2 Links in   5300 Low words in 5999970 words.
          This store has a fence of   16 words.

 MZLOGL.  Set Log Level 0 for store  0

Job end Fri Aug 18 06:55:25 JST 2017

