#### Signal ####
meanSig: 5.28046
sigmSig1: 0.00257401
sigmSig2: 0.0063374
weiSig: 0.987193
#### Background ####
sigmBg: 0.00295656
argpar: -58.2356
weiBg: 0.640268
#### Signal + Background #### 
nS: 2080.69 124.529
nB: 4275.32 133.046
####################
