%!PS-Adobe-2.0 EPSF-2.0
%%BoundingBox:  0 0 567 536
%%Title: ./plots/res/MCbg.eps: Background
%%Creator: ROOT Version 6.13/01
%%CreationDate: Thu Dec 28 12:07:19 2017
%%DocumentNeededResources: ProcSet (FontSetInit)
%%EndComments
%%BeginProlog
80 dict begin
/s {stroke} def /l {lineto} def /m {moveto} def /t {translate} def
/r {rotate} def /rl {roll}  def /R {repeat} def
/d {rlineto} def /rm {rmoveto} def /gr {grestore} def /f {eofill} def
/c {setrgbcolor} def /black {0 setgray} def /sd {setdash} def
/cl {closepath} def /sf {scalefont setfont} def /lw {setlinewidth} def
/box {m dup 0 exch d exch 0 d 0 exch neg d cl} def
/NC{systemdict begin initclip end}def/C{NC box clip newpath}def
/bl {box s} def /bf {gsave box gsave f grestore 1 lw [] 0 sd s grestore} def /Y { 0 exch d} def /X { 0 d} def 
/K {{pop pop 0 moveto} exch kshow} bind def
/ita {/ang 15 def gsave [1 0 ang dup sin exch cos div 1 0 0] concat} def 
/mp {newpath /y exch def /x exch def} def
/side {[w .77 mul w .23 mul] .385 w mul sd w 0 l currentpoint t -144 r} def
/mr {mp x y w2 0 360 arc} def /m24 {mr s} def /m20 {mr f} def
/mb {mp x y w2 add m w2 neg 0 d 0 w neg d w 0 d 0 w d cl} def
/mt {mp x y w2 add m w2 neg w neg d w 0 d cl} def
/w4 {w 4 div} def
/w6 {w 6 div} def
/w8 {w 8 div} def
/m21 {mb f} def /m25 {mb s} def /m22 {mt f} def /m26{mt s} def
/m23 {mp x y w2 sub m w2 w d w neg 0 d cl f} def
/m27 {mp x y w2 add m w3 neg w2 neg d w3 w2 neg d w3 w2 d cl s} def
/m28 {mp x w2 sub y w2 sub w3 add m w3 0 d  0 w3 neg d w3 0 d 0 w3 d w3 0 d  0 w3 d w3 neg 0 d 0 w3 d w3 neg 0 d 0 w3 neg d w3 neg 0 d cl s } def
/m29 {mp gsave x w2 sub y w2 add w3 sub m currentpoint t 4 {side} repeat cl fill gr} def
/m30 {mp gsave x w2 sub y w2 add w3 sub m currentpoint t 4 {side} repeat cl s gr} def
/m31 {mp x y w2 sub m 0 w d x w2 sub y m w 0 d x w2 sub y w2 add m w w neg d x w2 sub y w2 sub m w w d s} def
/m32 {mp x y w2 sub m w2 w d w neg 0 d cl s} def
/m33 {mp x y w2 add m w3 neg w2 neg d w3 w2 neg d w3 w2 d cl f} def
/m34 {mp x w2 sub y w2 sub w3 add m w3 0 d  0 w3 neg d w3 0 d 0 w3 d w3 0 d  0 w3 d w3 neg 0 d 0 w3 d w3 neg 0 d 0 w3 neg d w3 neg 0 d cl f } def
/m35 {mp x y w2 add m w2 neg w2 neg d w2 w2 neg d w2 w2 d w2 neg w2 d x y w2 sub m 0 w d x w2 sub y m w 0 d s} def
/m36 {mb x w2 sub y w2 add m w w neg d x w2 sub y w2 sub m w w d s} def
/m37 {mp x y m w4 neg w2 d w4 neg w2 neg d w2 0 d  w4 neg w2 neg d w2 0 d w4 neg w2 d w2 0 d w4 neg w2 d w4 neg w2 neg d cl s} def
/m38 {mp x w4 sub y w2 add m w4 neg w4 neg d 0 w2 neg d w4 w4 neg d w2 0 d w4 w4 d 0 w2 d w4 neg w4 d w2 neg 0 d x y w2 sub m 0 w d x w2 sub y m w 0 d cl s} def
/m39 {mp x y m w4 neg w2 d w4 neg w2 neg d w2 0 d  w4 neg w2 neg d w2 0 d w4 neg w2 d w2 0 d w4 neg w2 d w4 neg w2 neg d cl f} def
/m40 {mp x y m w4 w2 d w4 w4 neg d w2 neg w4 neg d w2 w4 neg d w4 neg w4 neg d w4 neg w2 d w4 neg w2 neg d w4 neg w4 d w2 w4 d w2 neg w4 d w4 w4 d w4 w2 neg d cl s} def
/m41 {mp x y m w4 w2 d w4 w4 neg d w2 neg w4 neg d w2 w4 neg d w4 neg w4 neg d w4 neg w2 d w4 neg w2 neg d w4 neg w4 d w2 w4 d w2 neg w4 d w4 w4 d w4 w2 neg d cl f} def
/m42 {mp x y w2 add m w8 neg w2 -3 4 div mul d w2 -3 4 div mul w8 neg d w2 3 4 div mul w8 neg d w8 w2 -3 4 div mul d w8 w2 3 4 div mul d w2 3 4 div mul w8 d w2 -3 4 div mul w8 d w8 neg w2 3 4 div mul d cl s} def
/m43 {mp x y w2 add m w8 neg w2 -3 4 div mul d w2 -3 4 div mul w8 neg d w2 3 4 div mul w8 neg d w8 w2 -3 4 div mul d w8 w2 3 4 div mul d w2 3 4 div mul w8 d w2 -3 4 div mul w8 d w8 neg w2 3 4 div mul d cl f} def
/m44 {mp x y m w6 neg w2 d w2 2 3 div mul 0 d w6 neg w2 neg d w2 w6 d 0 w2 -2 3 div mul d w2 neg w6 d w6 w2 neg d w2 -2 3 div mul 0 d w6 w2 d w2 neg w6 neg d 0 w2 2 3 div mul d w2 w6 neg d cl s} def
/m45 {mp x y m w6 neg w2 d w2 2 3 div mul 0 d w6 neg w2 neg d w2 w6 d 0 w2 -2 3 div mul d w2 neg w6 d w6 w2 neg d w2 -2 3 div mul 0 d w6 w2 d w2 neg w6 neg d 0 w2 2 3 div mul d w2 w6 neg d cl f} def
/m46 {mp x y w4 add m w4 neg w4 d w4 neg w4 neg d  w4 w4 neg d w4 neg w4 neg d w4 w4 neg d w4 w4 d w4 w4 neg d w4 w4 d w4 neg w4 d w4 w4 d w4 neg w4 d w4 neg w4 neg d cl s} def
/m47 {mp x y w4 add m w4 neg w4 d w4 neg w4 neg d w4 w4 neg d w4 neg w4 neg d  w4 w4 neg d w4 w4 d w4 w4 neg d w4 w4 d w4 neg w4 d w4 w4 d w4 neg w4 d w4 neg w4 neg d cl f} def
/m48 {mp x y w4 add m w4 neg w4 d w4 neg w4 neg d w4 w4 neg d  w4 neg w4 neg d w4 w4 neg d w4 w4 d w4 w4 neg d w4 w4 d w4 neg w4 d w4 w4 d w4 neg w4 d w4 neg w4 neg d  w4 w4 neg d w4 neg w4 neg d w4 neg w4 d w4 w4 d cl f} def
/m49 {mp x w2 sub w3 add y w2 sub w3 add m  0 w3 neg d w3 0 d 0 w3 d w3 0 d 0 w3 d w3 neg 0 d 0 w3 d w3 neg 0 d 0 w3 neg d w3 neg 0 d 0 w3 neg d w3 0 d 0 w3 d w3 0 d 0 w3 neg d w3 neg 0 d cl f } def
/m2 {mp x y w2 sub m 0 w d x w2 sub y m w 0 d s} def
/m5 {mp x w2 sub y w2 sub m w w d x w2 sub y w2 add m w w neg d s} def
%%IncludeResource: ProcSet (FontSetInit)
%%IncludeResource: font Times-Roman
%%IncludeResource: font Times-Italic
%%IncludeResource: font Times-Bold
%%IncludeResource: font Times-BoldItalic
%%IncludeResource: font Helvetica
%%IncludeResource: font Helvetica-Oblique
%%IncludeResource: font Helvetica-Bold
%%IncludeResource: font Helvetica-BoldOblique
%%IncludeResource: font Courier
%%IncludeResource: font Courier-Oblique
%%IncludeResource: font Courier-Bold
%%IncludeResource: font Courier-BoldOblique
%%IncludeResource: font Symbol
%%IncludeResource: font ZapfDingbats
/reEncode {exch findfont dup length dict begin {1 index /FID eq  {pop pop} {def} ifelse } forall /Encoding exch def currentdict end dup /FontName get exch definefont pop } def [/Times-Bold /Times-Italic /Times-BoldItalic /Helvetica /Helvetica-Oblique
 /Helvetica-Bold /Helvetica-BoldOblique /Courier /Courier-Oblique /Courier-Bold /Courier-BoldOblique /Times-Roman /AvantGarde-Book /AvantGarde-BookOblique /AvantGarde-Demi /AvantGarde-DemiOblique /Bookman-Demi /Bookman-DemiItalic /Bookman-Light
 /Bookman-LightItalic /Helvetica-Narrow /Helvetica-Narrow-Bold /Helvetica-Narrow-BoldOblique /Helvetica-Narrow-Oblique /NewCenturySchlbk-Roman /NewCenturySchlbk-Bold /NewCenturySchlbk-BoldItalic /NewCenturySchlbk-Italic /Palatino-Bold
 /Palatino-BoldItalic /Palatino-Italic /Palatino-Roman ] {ISOLatin1Encoding reEncode } forall
%%EndProlog
%%BeginSetup
%%EndSetup
newpath  gsave  .25 .25 scale  gsave  0 0 t black[  ] 0 sd 3 lw 1 1 1 c 2268 2145 0 0 bf black 1 1 1 c 1814 1716 227 214 bf black 1814 1716 227 214 bl 227 214 m 1814 X s 227 266 m -52 Y s 287 240 m -26 Y s 348 240 m -26 Y s 408 240 m -26 Y s 469 240
 m -26 Y s 529 266 m -52 Y s 590 240 m -26 Y s 650 240 m -26 Y s 711 240 m -26 Y s 771 240 m -26 Y s 831 266 m -52 Y s 892 240 m -26 Y s 952 240 m -26 Y s 1013 240 m -26 Y s 1073 240 m -26 Y s 1134 266 m -52 Y s 1194 240 m -26 Y s 1255 240 m -26 Y s
 1315 240 m -26 Y s 1376 240 m -26 Y s 1436 266 m -52 Y s 1497 240 m -26 Y s 1557 240 m -26 Y s 1618 240 m -26 Y s 1678 240 m -26 Y s 1739 266 m -52 Y s 1799 240 m -26 Y s 1860 240 m -26 Y s 1920 240 m -26 Y s 1980 240 m -26 Y s 2041 266 m -52 Y s
 gsave  2268 2145 0 0 C 154.824 145.717 t 0 r /Helvetica findfont 68.3047 sf 0 0 m (5.26) show NC gr 
 gsave  2268 2145 0 0 C 441.704 145.717 t 0 r /Helvetica findfont 68.3047 sf 0 0 m (5.265) show NC gr 
 gsave  2268 2145 0 0 C 760.459 145.717 t 0 r /Helvetica findfont 68.3047 sf 0 0 m (5.27) show NC gr 
 gsave  2268 2145 0 0 C 1047.34 145.717 t 0 r /Helvetica findfont 68.3047 sf 0 0 m (5.275) show NC gr 
 gsave  2268 2145 0 0 C 1366.09 145.717 t 0 r /Helvetica findfont 68.3047 sf 0 0 m (5.28) show NC gr 
 gsave  2268 2145 0 0 C 1648.42 145.717 t 0 r /Helvetica findfont 68.3047 sf 0 0 m (5.285) show NC gr 
 gsave  2268 2145 0 0 C 1971.73 145.717 t 0 r /Helvetica findfont 68.3047 sf 0 0 m (5.29) show NC gr 
 gsave  2268 2145 0 0 C 1552.79 72.8584 t 0 r /Helvetica findfont 68.3047 sf 0 0 m (m_bc \(GeV/c^2\)) show NC gr  227 214 m 1716 Y s 281 214 m -54 X s 254 261 m -27 X s 254 308 m -27 X s 254 355 m -27 X s 254 402 m -27 X s 281 448 m -54 X s 254 495 m
 -27 X s 254 542 m -27 X s 254 589 m -27 X s 254 636 m -27 X s 281 682 m -54 X s 254 729 m -27 X s 254 776 m -27 X s 254 823 m -27 X s 254 870 m -27 X s 281 916 m -54 X s 254 963 m -27 X s 254 1010 m -27 X s 254 1057 m -27 X s 254 1104 m -27 X s 281
 1150 m -54 X s 254 1197 m -27 X s 254 1244 m -27 X s 254 1291 m -27 X s 254 1338 m -27 X s 281 1384 m -54 X s 254 1431 m -27 X s 254 1478 m -27 X s 254 1525 m -27 X s 254 1572 m -27 X s 281 1618 m -54 X s 254 1665 m -27 X s 254 1712 m -27 X s 254
 1759 m -27 X s 254 1805 m -27 X s 281 1852 m -54 X s 281 1852 m -54 X s 254 1899 m -27 X s
 gsave  2268 2145 0 0 C 177.592 191.253 t 0 r /Helvetica findfont 68.3047 sf 0 0 m (0) show NC gr 
 gsave  2268 2145 0 0 C 100.18 423.489 t 0 r /Helvetica findfont 68.3047 sf 0 0 m (100) show NC gr 
 gsave  2268 2145 0 0 C 100.18 655.725 t 0 r /Helvetica findfont 68.3047 sf 0 0 m (200) show NC gr 
 gsave  2268 2145 0 0 C 100.18 892.515 t 0 r /Helvetica findfont 68.3047 sf 0 0 m (300) show NC gr 
 gsave  2268 2145 0 0 C 100.18 1124.75 t 0 r /Helvetica findfont 68.3047 sf 0 0 m (400) show NC gr 
 gsave  2268 2145 0 0 C 100.18 1361.54 t 0 r /Helvetica findfont 68.3047 sf 0 0 m (500) show NC gr 
 gsave  2268 2145 0 0 C 100.18 1593.78 t 0 r /Helvetica findfont 68.3047 sf 0 0 m (600) show NC gr 
 gsave  2268 2145 0 0 C 100.18 1826.01 t 0 r /Helvetica findfont 68.3047 sf 0 0 m (700) show NC gr 
 gsave  2268 2145 0 0 C 50.0901 1097.43 t 90 r /Helvetica findfont 68.3047 sf 0 0 m (Events / \( 0.0003 GeV/c^2 \)) show NC gr  1 1 1 c black
 gsave  2268 2145 0 0 C 988.142 2040.03 t 0 r /Helvetica findfont 104.734 sf 0 0 m (Signal) show NC gr  236 214 m -9 X s 227 214 m 10 Y s 236 214 m 9 X s 245 214 m 10 Y s 236 214 m 3 Y s 227 217 m 18 X s 254 214 m -9 X s 245 214 m 10 Y s 254 214 m 9
 X s 263 214 m 10 Y s 254 214 m 3 Y s 245 217 m 18 X s 272 214 m -9 X s 263 214 m 10 Y s 272 214 m 9 X s 281 214 m 10 Y s 272 214 m 3 Y s 263 217 m 18 X s 290 214 m -9 X s 281 214 m 10 Y s 290 214 m 9 X s 299 214 m 10 Y s 290 214 m 3 Y s 281 217 m 18
 X s 308 214 m -9 X s 299 214 m 10 Y s 308 214 m 9 X s 317 214 m 10 Y s 308 214 m 3 Y s 299 217 m 19 X s 327 214 m -10 X s 317 214 m 10 Y s 327 214 m 9 X s 336 214 m 10 Y s 327 214 m 3 Y s 317 217 m 19 X s 345 214 m -9 X s 336 214 m 10 Y s 345 214 m
 9 X s 354 214 m 10 Y s 345 214 m 3 Y s 336 217 m 18 X s 363 217 m -9 X s 354 214 m 12 Y s 363 217 m 9 X s 372 214 m 12 Y s 363 217 m 5 Y s 354 222 m 18 X s 363 217 m -2 Y s 354 215 m 18 X s 381 214 m -9 X s 372 214 m 10 Y s 381 214 m 9 X s 390 214 m
 10 Y s 381 214 m 3 Y s 372 217 m 18 X s 399 214 m -9 X s 390 214 m 10 Y s 399 214 m 9 X s 408 214 m 10 Y s 399 214 m 3 Y s 390 217 m 18 X s 417 217 m -9 X s 408 214 m 12 Y s 417 217 m 9 X s 426 214 m 12 Y s 417 217 m 5 Y s 408 222 m 18 X s 417 217 m
 -2 Y s 408 215 m 18 X s 435 214 m -9 X s 426 214 m 10 Y s 435 214 m 9 X s 444 214 m 10 Y s 435 214 m 3 Y s 426 217 m 19 X s 454 214 m -10 X s 444 214 m 10 Y s 454 214 m 9 X s 463 214 m 10 Y s 454 214 m 3 Y s 444 217 m 19 X s 472 214 m -9 X s 463 214
 m 10 Y s 472 214 m 9 X s 481 214 m 10 Y s 472 214 m 3 Y s 463 217 m 18 X s 490 217 m -9 X s 481 214 m 12 Y s 490 217 m 9 X s 499 214 m 12 Y s 490 217 m 5 Y s 481 222 m 18 X s 490 217 m -2 Y s 481 215 m 18 X s 508 214 m -9 X s 499 214 m 10 Y s 508
 214 m 9 X s 517 214 m 10 Y s 508 214 m 3 Y s 499 217 m 18 X s 526 214 m -9 X s 517 214 m 10 Y s 526 214 m 9 X s 535 214 m 10 Y s 526 214 m 3 Y s 517 217 m 18 X s 544 214 m -9 X s 535 214 m 10 Y s 544 214 m 9 X s 553 214 m 10 Y s 544 214 m 3 Y s 535
 217 m 18 X s 562 217 m -9 X s 553 214 m 12 Y s 562 217 m 9 X s 571 214 m 12 Y s 562 217 m 5 Y s 553 222 m 19 X s 562 217 m -2 Y s 553 215 m 19 X s 581 214 m -10 X s 571 214 m 10 Y s 581 214 m 9 X s 590 214 m 10 Y s 581 214 m 3 Y s 571 217 m 19 X s
 599 214 m -9 X s 590 214 m 10 Y s 599 214 m 9 X s 608 214 m 10 Y s 599 214 m 3 Y s 590 217 m 18 X s 617 214 m -9 X s 608 214 m 10 Y s 617 214 m 9 X s 626 214 m 10 Y s 617 214 m 3 Y s 608 217 m 18 X s 635 214 m -9 X s 626 214 m 10 Y s 635 214 m 9 X s
 644 214 m 10 Y s 635 214 m 3 Y s 626 217 m 18 X s 653 214 m -9 X s 644 214 m 10 Y s 653 214 m 9 X s 662 214 m 10 Y s 653 214 m 3 Y s 644 217 m 18 X s 671 214 m -9 X s 662 214 m 10 Y s 671 214 m 9 X s 680 214 m 10 Y s 671 214 m 3 Y s 662 217 m 18 X s
 689 214 m -9 X s 680 214 m 10 Y s 689 214 m 9 X s 698 214 m 10 Y s 689 214 m 3 Y s 680 217 m 18 X s 708 214 m -10 X s 698 214 m 10 Y s 708 214 m 9 X s 717 214 m 10 Y s 708 214 m 3 Y s 698 217 m 19 X s 726 214 m -9 X s 717 214 m 10 Y s 726 214 m 9 X
 s 735 214 m 10 Y s 726 214 m 3 Y s 717 217 m 18 X s 744 214 m -9 X s 735 214 m 10 Y s 744 214 m 9 X s 753 214 m 10 Y s 744 214 m 3 Y s 735 217 m 18 X s 762 217 m -9 X s 753 214 m 12 Y s 762 217 m 9 X s 771 214 m 12 Y s 762 217 m 5 Y s 753 222 m 18 X
 s 762 217 m -2 Y s 753 215 m 18 X s 780 214 m -9 X s 771 214 m 10 Y s 780 214 m 9 X s 789 214 m 10 Y s 780 214 m 3 Y s 771 217 m 18 X s 798 217 m -9 X s 789 214 m 12 Y s 798 217 m 9 X s 807 214 m 12 Y s 798 217 m 5 Y s 789 222 m 18 X s 798 217 m -2
 Y s 789 215 m 18 X s 816 214 m -9 X s 807 214 m 10 Y s 816 214 m 9 X s 825 214 m 10 Y s 816 214 m 3 Y s 807 217 m 18 X s 835 221 m -10 X s 825 214 m 17 Y s 835 221 m 9 X s 844 214 m 17 Y s 835 221 m 7 Y s 825 228 m 19 X s 835 221 m -3 Y s 825 218 m
 19 X s 853 217 m -9 X s 844 214 m 12 Y s 853 217 m 9 X s 862 214 m 12 Y s 853 217 m 5 Y s 844 222 m 18 X s 853 217 m -2 Y s 844 215 m 18 X s 871 221 m -9 X s 862 214 m 17 Y s 871 221 m 9 X s 880 214 m 17 Y s 871 221 m 7 Y s 862 228 m 18 X s 871 221
 m -3 Y s 862 218 m 18 X s 889 221 m -9 X s 880 214 m 17 Y s 889 221 m 9 X s 898 214 m 17 Y s 889 221 m 7 Y s 880 228 m 18 X s 889 221 m -3 Y s 880 218 m 18 X s 907 224 m -9 X s 898 215 m 18 Y s 907 224 m 9 X s 916 215 m 18 Y s 907 224 m 7 Y s 898
 231 m 18 X s 907 224 m -5 Y s 898 219 m 18 X s 925 224 m -9 X s 916 215 m 18 Y s 925 224 m 9 X s 934 215 m 18 Y s 925 224 m 7 Y s 916 231 m 18 X s 925 224 m -5 Y s 916 219 m 18 X s 943 221 m -9 X s 934 214 m 17 Y s 943 221 m 9 X s 952 214 m 17 Y s
 943 221 m 7 Y s 934 228 m 18 X s 943 221 m -3 Y s 934 218 m 18 X s 962 231 m -10 X s 952 222 m 18 Y s 962 231 m 9 X s 971 222 m 18 Y s 962 231 m 9 Y s 952 240 m 19 X s 962 231 m -6 Y s 952 225 m 19 X s 980 236 m -9 X s 971 226 m 19 Y s 980 236 m 9 X
 s 989 226 m 19 Y s 980 236 m 9 Y s 971 245 m 18 X s 980 236 m -7 Y s 971 229 m 18 X s 998 240 m -9 X s 989 231 m 18 Y s 998 240 m 9 X s 1007 231 m 18 Y s 998 240 m 11 Y s 989 251 m 18 X s 998 240 m -7 Y s 989 233 m 18 X s 1016 254 m -9 X s 1007 245
 m 18 Y s 1016 254 m 9 X s 1025 245 m 18 Y s 1016 254 m 12 Y s 1007 266 m 18 X s 1016 254 m -9 Y s 1007 245 m 18 X s 1034 278 m -9 X s 1025 269 m 18 Y s 1034 278 m 9 X s 1043 269 m 18 Y s 1034 278 m 14 Y s 1025 292 m 18 X s 1034 278 m -12 Y s 1025
 266 m 18 X s 1052 282 m -9 X s 1043 273 m 18 Y s 1052 282 m 9 X s 1061 273 m 18 Y s 1052 282 m 15 Y s 1043 297 m 18 X s 1052 282 m -12 Y s 1043 270 m 18 X s 1070 292 m -9 X s 1061 283 m 18 Y s 1070 292 m 9 X s 1079 283 m 18 Y s 1070 292 m 16 Y s
 1061 308 m 18 X s 1070 292 m -14 Y s 1061 278 m 18 X s 1089 303 m -10 X s 1079 294 m 18 Y s 1089 303 m 9 X s 1098 294 m 18 Y s 1089 303 m 17 Y s 1079 320 m 19 X s 1089 303 m -14 Y s 1079 289 m 19 X s 1107 331 m -9 X s 1098 322 m 19 Y s 1107 331 m 9
 X s 1116 322 m 19 Y s 1107 331 m 19 Y s 1098 350 m 18 X s 1107 331 m -16 Y s 1098 315 m 18 X s 1125 385 m -9 X s 1116 376 m 18 Y s 1125 385 m 9 X s 1134 376 m 18 Y s 1125 385 m 23 Y s 1116 408 m 18 X s 1125 385 m -20 Y s 1116 365 m 18 X s 1143 406 m
 -9 X s 1134 397 m 18 Y s 1143 406 m 9 X s 1152 397 m 18 Y s 1143 406 m 24 Y s 1134 430 m 18 X s 1143 406 m -21 Y s 1134 385 m 18 X s 1161 420 m -9 X s 1152 411 m 18 Y s 1161 420 m 9 X s 1170 411 m 18 Y s 1161 420 m 25 Y s 1152 445 m 18 X s 1161 420
 m -22 Y s 1152 398 m 18 X s 1179 516 m -9 X s 1170 507 m 18 Y s 1179 516 m 9 X s 1188 507 m 18 Y s 1179 516 m 28 Y s 1170 544 m 18 X s 1179 516 m -25 Y s 1170 491 m 18 X s 1197 570 m -9 X s 1188 561 m 18 Y s 1197 570 m 9 X s 1206 561 m 18 Y s 1197
 570 m 30 Y s 1188 600 m 18 X s 1197 570 m -28 Y s 1188 542 m 18 X s 1215 617 m -9 X s 1206 608 m 18 Y s 1215 617 m 10 X s 1225 608 m 18 Y s 1215 617 m 32 Y s 1206 649 m 19 X s 1215 617 m -30 Y s 1206 587 m 19 X s 1234 715 m -9 X s 1225 706 m 18 Y s
 1234 715 m 9 X s 1243 706 m 18 Y s 1234 715 m 36 Y s 1225 751 m 18 X s 1234 715 m -33 Y s 1225 682 m 18 X s 1252 834 m -9 X s 1243 825 m 19 Y s 1252 834 m 9 X s 1261 825 m 19 Y s 1252 834 m 40 Y s 1243 874 m 18 X s 1252 834 m -36 Y s 1243 798 m 18 X
 s 1270 842 m -9 X s 1261 832 m 19 Y s 1270 842 m 9 X s 1279 832 m 19 Y s 1270 842 m 39 Y s 1261 881 m 18 X s 1270 842 m -38 Y s 1261 804 m 18 X s 1288 1012 m -9 X s 1279 1003 m 18 Y s 1288 1012 m 9 X s 1297 1003 m 18 Y s 1288 1012 m 45 Y s 1279 1057
 m 18 X s 1288 1012 m -42 Y s 1279 970 m 18 X s 1306 1115 m -9 X s 1297 1106 m 18 Y s 1306 1115 m 9 X s 1315 1106 m 18 Y s 1306 1115 m 47 Y s 1297 1162 m 18 X s 1306 1115 m -44 Y s 1297 1071 m 18 X s 1324 1232 m -9 X s 1315 1223 m 18 Y s 1324 1232 m
 9 X s 1333 1223 m 18 Y s 1324 1232 m 50 Y s 1315 1282 m 18 X s 1324 1232 m -47 Y s 1315 1185 m 18 X s 1342 1436 m -9 X s 1333 1427 m 18 Y s 1342 1436 m 10 X s 1352 1427 m 18 Y s 1342 1436 m 54 Y s 1333 1490 m 19 X s 1342 1436 m -53 Y s 1333 1383 m
 19 X s 1361 1459 m -9 X s 1352 1450 m 18 Y s 1361 1459 m 9 X s 1370 1450 m 18 Y s 1361 1459 m 55 Y s 1352 1514 m 18 X s 1361 1459 m -53 Y s 1352 1406 m 18 X s 1379 1714 m -9 X s 1370 1705 m 18 Y s 1379 1714 m 9 X s 1388 1705 m 18 Y s 1379 1714 m 61
 Y s 1370 1775 m 18 X s 1379 1714 m -58 Y s 1370 1656 m 18 X s 1397 1651 m -9 X s 1388 1642 m 18 Y s 1397 1651 m 9 X s 1406 1642 m 18 Y s 1397 1651 m 59 Y s 1388 1710 m 18 X s 1397 1651 m -57 Y s 1388 1594 m 18 X s 1415 1637 m -9 X s 1406 1628 m 18 Y
 s 1415 1637 m 9 X s 1424 1628 m 18 Y s 1415 1637 m 59 Y s 1406 1696 m 18 X s 1415 1637 m -57 Y s 1406 1580 m 18 X s 1433 1782 m -9 X s 1424 1773 m 18 Y s 1433 1782 m 9 X s 1442 1773 m 18 Y s 1433 1782 m 62 Y s 1424 1844 m 18 X s 1433 1782 m -59 Y s
 1424 1723 m 18 X s 1451 1787 m -9 X s 1442 1778 m 18 Y s 1451 1787 m 9 X s 1460 1778 m 18 Y s 1451 1787 m 62 Y s 1442 1849 m 18 X s 1451 1787 m -60 Y s 1442 1727 m 18 X s 1469 1745 m -9 X s 1460 1736 m 18 Y s 1469 1745 m 10 X s 1479 1736 m 18 Y s
 1469 1745 m 61 Y s 1460 1806 m 19 X s 1469 1745 m -59 Y s 1460 1686 m 19 X s 1488 1745 m -9 X s 1479 1736 m 18 Y s 1488 1745 m 9 X s 1497 1736 m 18 Y s 1488 1745 m 61 Y s 1479 1806 m 18 X s 1488 1745 m -59 Y s 1479 1686 m 18 X s 1506 1677 m -9 X s
 1497 1668 m 18 Y s 1506 1677 m 9 X s 1515 1668 m 18 Y s 1506 1677 m 59 Y s 1497 1736 m 18 X s 1506 1677 m -58 Y s 1497 1619 m 18 X s 1524 1696 m -9 X s 1515 1686 m 19 Y s 1524 1696 m 9 X s 1533 1686 m 19 Y s 1524 1696 m 60 Y s 1515 1756 m 18 X s
 1524 1696 m -58 Y s 1515 1638 m 18 X s 1542 1593 m -9 X s 1533 1583 m 19 Y s 1542 1593 m 9 X s 1551 1583 m 19 Y s 1542 1593 m 58 Y s 1533 1651 m 18 X s 1542 1593 m -56 Y s 1533 1537 m 18 X s 1560 1494 m -9 X s 1551 1485 m 18 Y s 1560 1494 m 9 X s
 1569 1485 m 18 Y s 1560 1494 m 56 Y s 1551 1550 m 18 X s 1560 1494 m -53 Y s 1551 1441 m 18 X s 1578 1445 m -9 X s 1569 1436 m 18 Y s 1578 1445 m 9 X s 1587 1436 m 18 Y s 1578 1445 m 55 Y s 1569 1500 m 18 X s 1578 1445 m -52 Y s 1569 1393 m 18 X s
 1596 1309 m -9 X s 1587 1300 m 19 Y s 1596 1309 m 10 X s 1606 1300 m 19 Y s 1596 1309 m 52 Y s 1587 1361 m 19 X s 1596 1309 m -49 Y s 1587 1260 m 19 X s 1615 1185 m -9 X s 1606 1176 m 19 Y s 1615 1185 m 9 X s 1624 1176 m 19 Y s 1615 1185 m 49 Y s
 1606 1234 m 18 X s 1615 1185 m -46 Y s 1606 1139 m 18 X s 1633 1083 m -9 X s 1624 1073 m 19 Y s 1633 1083 m 9 X s 1642 1073 m 19 Y s 1633 1083 m 46 Y s 1624 1129 m 18 X s 1633 1083 m -44 Y s 1624 1039 m 18 X s 1651 996 m -9 X s 1642 987 m 18 Y s
 1651 996 m 9 X s 1660 987 m 18 Y s 1651 996 m 44 Y s 1642 1040 m 18 X s 1651 996 m -42 Y s 1642 954 m 18 X s 1669 853 m -9 X s 1660 844 m 18 Y s 1669 853 m 9 X s 1678 844 m 18 Y s 1669 853 m 40 Y s 1660 893 m 18 X s 1669 853 m -37 Y s 1660 816 m 18
 X s 1687 767 m -9 X s 1678 758 m 18 Y s 1687 767 m 9 X s 1696 758 m 18 Y s 1687 767 m 37 Y s 1678 804 m 18 X s 1687 767 m -35 Y s 1678 732 m 18 X s 1705 743 m -9 X s 1696 734 m 18 Y s 1705 743 m 9 X s 1714 734 m 18 Y s 1705 743 m 37 Y s 1696 780 m
 18 X s 1705 743 m -34 Y s 1696 709 m 18 X s 1723 610 m -9 X s 1714 601 m 18 Y s 1723 610 m 10 X s 1733 601 m 18 Y s 1723 610 m 31 Y s 1714 641 m 19 X s 1723 610 m -29 Y s 1714 581 m 19 X s 1742 537 m -9 X s 1733 528 m 18 Y s 1742 537 m 9 X s 1751
 528 m 18 Y s 1742 537 m 29 Y s 1732 566 m 19 X s 1742 537 m -26 Y s 1732 511 m 19 X s 1760 462 m -9 X s 1751 453 m 19 Y s 1760 462 m 9 X s 1769 453 m 19 Y s 1760 462 m 26 Y s 1751 488 m 18 X s 1760 462 m -22 Y s 1751 440 m 18 X s 1778 420 m -9 X s
 1769 411 m 18 Y s 1778 420 m 9 X s 1787 411 m 18 Y s 1778 420 m 25 Y s 1769 445 m 18 X s 1778 420 m -22 Y s 1769 398 m 18 X s 1796 334 m -9 X s 1787 325 m 18 Y s 1796 334 m 9 X s 1805 325 m 18 Y s 1796 334 m 19 Y s 1787 353 m 18 X s 1796 334 m -17 Y
 s 1787 317 m 18 X s 1814 350 m -9 X s 1805 341 m 18 Y s 1814 350 m 9 X s 1823 341 m 18 Y s 1814 350 m 20 Y s 1805 370 m 18 X s 1814 350 m -18 Y s 1805 332 m 18 X s 1832 341 m -9 X s 1823 332 m 18 Y s 1832 341 m 9 X s 1841 332 m 18 Y s 1832 341 m 19
 Y s 1823 360 m 18 X s 1832 341 m -17 Y s 1823 324 m 18 X s 1850 292 m -9 X s 1841 283 m 18 Y s 1850 292 m 10 X s 1860 283 m 18 Y s 1850 292 m 16 Y s 1841 308 m 19 X s 1850 292 m -14 Y s 1841 278 m 19 X s 1869 266 m -9 X s 1860 257 m 18 Y s 1869 266
 m 9 X s 1878 257 m 18 Y s 1869 266 m 13 Y s 1859 279 m 19 X s 1869 266 m -11 Y s 1859 255 m 19 X s 1887 257 m -9 X s 1878 247 m 19 Y s 1887 257 m 9 X s 1896 247 m 19 Y s 1887 257 m 12 Y s 1878 269 m 18 X s 1887 257 m -10 Y s 1878 247 m 18 X s 1905
 250 m -9 X s 1896 240 m 19 Y s 1905 250 m 9 X s 1914 240 m 19 Y s 1905 250 m 11 Y s 1896 261 m 18 X s 1905 250 m -9 Y s 1896 241 m 18 X s 1923 238 m -9 X s 1914 229 m 18 Y s 1923 238 m 9 X s 1932 229 m 18 Y s 1923 238 m 10 Y s 1914 248 m 18 X s 1923
 238 m -7 Y s 1914 231 m 18 X s 1941 231 m -9 X s 1932 222 m 18 Y s 1941 231 m 9 X s 1950 222 m 18 Y s 1941 231 m 9 Y s 1932 240 m 18 X s 1941 231 m -6 Y s 1932 225 m 18 X s 1959 226 m -9 X s 1950 217 m 18 Y s 1959 226 m 9 X s 1968 217 m 18 Y s 1959
 226 m 8 Y s 1950 234 m 18 X s 1959 226 m -5 Y s 1950 221 m 18 X s 1977 221 m -9 X s 1968 214 m 17 Y s 1977 221 m 10 X s 1987 214 m 17 Y s 1977 221 m 7 Y s 1968 228 m 19 X s 1977 221 m -3 Y s 1968 218 m 19 X s 1996 219 m -9 X s 1987 214 m 14 Y s 1996
 219 m 9 X s 2005 214 m 14 Y s 1996 219 m 6 Y s 1986 225 m 19 X s 1996 219 m -3 Y s 1986 216 m 19 X s 2014 217 m -9 X s 2005 214 m 12 Y s 2014 217 m 9 X s 2023 214 m 12 Y s 2014 217 m 5 Y s 2005 222 m 18 X s 2014 217 m -2 Y s 2005 215 m 18 X s 2032
 214 m -9 X s 2023 214 m 10 Y s 2032 214 m 9 X s 2041 214 m 10 Y s 2032 214 m 3 Y s 2023 217 m 18 X s 1 1 1 c black /w 36 def /w2 {w 2 div} def /w3 {w 3 div} def 236 214 254 214 272 214 290 214 308 214 327 214 345 214 363 217 381 214 399 214 417 217
 435 214 454 214 472 214 490 217 508 214 526 214 544 214 562 217 581 214 599 214 617 214 635 214 653 214 671 214 689 214 708 214 726 214 744 214 762 217 780 214 798 217 816 214 835 221 853 217 871 221 889 221 907 224 925 224 943 221 962 231 980 236
 998 240 1016 254 1034 278 1052 282 1070 292 1089 303 1107 331 1125 385 1143 406 1161 420 1179 516 1197 570 1215 617 1234 715 1252 834 1270 842 1288 1012 1306 1115 1324 1232 1342 1436 1361 1459 1379 1714 1397 1651 1415 1637 1433 1782 1451 1787 1469
 1745 1488 1745 1506 1677 1524 1696 1542 1593 1560 1494 1578 1445 1596 1309 1615 1185 1633 1083 1651 996 1669 853 1687 767 1705 743 1723 610 1742 537 1760 462 1778 420 1796 334 1814 350 1832 341 1850 292 1869 266 1887 257 1905 250 1923 238 1941 231
 1959 226 1977 221 1996 219 2014 217 2032 214 100 { m20} R 0 0 1 c 9 lw 1 1 1 c black 0 0 1 c 227 214 m cl s 227 214 m 145 X 18 1 d 272 X 18 1 d 109 X 18 1 d 37 X 18 1 d 18 1 d 18 1 d 18 1 d 18 2 d 18 2 d 19 4 d 18 4 d 18 7 d 18 8 d 18 11 d 18 15 d
 18 19 d 19 24 d 18 30 d 18 37 d 18 45 d 18 53 d 18 63 d 18 71 d 19 81 d 18 90 d 18 98 d 18 103 d 18 108 d 18 110 d 18 108 d 19 104 d 18 97 d 9 44 d 9 41 d 9 37 d 9 34 d 9 29 d 9 25 d 9 19 d 9 15 d 9 10 d 9 5 d 9 -1 d 10 -5 d 9 -12 d 9 -16 d 9 -21 d
 9 -26 d 9 -30 d 9 -34 d 9 -39 d 9 -41 d 18 -93 d 18 -101 d 19 -107 d 18 -110 d 18 -109 d 18 -105 d 18 -100 d 18 -93 d 18 -85 d 19 -75 d 18 -66 d 18 -56 d 18 -48 d 18 -40 d 18 -33 d 18 -26 d 19 -21 d 18 -16 d 18 -13 d 18 -9 d 18 -8 d 18 -5 d 18 -4 d
 19 -3 d 18 -2 d 18 -1 d 18 -1 d s black 3 lw 227 214 m 1814 X s 227 266 m -52 Y s 287 240 m -26 Y s 348 240 m -26 Y s 408 240 m -26 Y s 469 240 m -26 Y s 529 266 m -52 Y s 590 240 m -26 Y s 650 240 m -26 Y s 711 240 m -26 Y s 771 240 m -26 Y s 831
 266 m -52 Y s 892 240 m -26 Y s 952 240 m -26 Y s 1013 240 m -26 Y s 1073 240 m -26 Y s 1134 266 m -52 Y s 1194 240 m -26 Y s 1255 240 m -26 Y s 1315 240 m -26 Y s 1376 240 m -26 Y s 1436 266 m -52 Y s 1497 240 m -26 Y s 1557 240 m -26 Y s 1618 240
 m -26 Y s 1678 240 m -26 Y s 1739 266 m -52 Y s 1799 240 m -26 Y s 1860 240 m -26 Y s 1920 240 m -26 Y s 1980 240 m -26 Y s 2041 266 m -52 Y s 227 214 m 1716 Y s 281 214 m -54 X s 254 261 m -27 X s 254 308 m -27 X s 254 355 m -27 X s 254 402 m -27 X
 s 281 448 m -54 X s 254 495 m -27 X s 254 542 m -27 X s 254 589 m -27 X s 254 636 m -27 X s 281 682 m -54 X s 254 729 m -27 X s 254 776 m -27 X s 254 823 m -27 X s 254 870 m -27 X s 281 916 m -54 X s 254 963 m -27 X s 254 1010 m -27 X s 254 1057 m
 -27 X s 254 1104 m -27 X s 281 1150 m -54 X s 254 1197 m -27 X s 254 1244 m -27 X s 254 1291 m -27 X s 254 1338 m -27 X s 281 1384 m -54 X s 254 1431 m -27 X s 254 1478 m -27 X s 254 1525 m -27 X s 254 1572 m -27 X s 281 1618 m -54 X s 254 1665 m
 -27 X s 254 1712 m -27 X s 254 1759 m -27 X s 254 1805 m -27 X s 281 1852 m -54 X s 281 1852 m -54 X s 254 1899 m -27 X s 1 1 1 c black
 gsave  2268 2145 0 0 C 988.142 2040.03 t 0 r /Helvetica findfont 104.734 sf 0 0 m (Signal) show NC gr 
 gr  gr showpage
end
%%EOF
