%!PS-Adobe-2.0 EPSF-2.0
%%BoundingBox:  0 0 567 178
%%Title: ./plots/res/pAll.eps: rf101_basics
%%Creator: ROOT Version 6.13/01
%%CreationDate: Thu Dec 28 12:07:20 2017
%%DocumentNeededResources: ProcSet (FontSetInit)
%%EndComments
%%BeginProlog
80 dict begin
/s {stroke} def /l {lineto} def /m {moveto} def /t {translate} def
/r {rotate} def /rl {roll}  def /R {repeat} def
/d {rlineto} def /rm {rmoveto} def /gr {grestore} def /f {eofill} def
/c {setrgbcolor} def /black {0 setgray} def /sd {setdash} def
/cl {closepath} def /sf {scalefont setfont} def /lw {setlinewidth} def
/box {m dup 0 exch d exch 0 d 0 exch neg d cl} def
/NC{systemdict begin initclip end}def/C{NC box clip newpath}def
/bl {box s} def /bf {gsave box gsave f grestore 1 lw [] 0 sd s grestore} def /Y { 0 exch d} def /X { 0 d} def 
/K {{pop pop 0 moveto} exch kshow} bind def
/ita {/ang 15 def gsave [1 0 ang dup sin exch cos div 1 0 0] concat} def 
/mp {newpath /y exch def /x exch def} def
/side {[w .77 mul w .23 mul] .385 w mul sd w 0 l currentpoint t -144 r} def
/mr {mp x y w2 0 360 arc} def /m24 {mr s} def /m20 {mr f} def
/mb {mp x y w2 add m w2 neg 0 d 0 w neg d w 0 d 0 w d cl} def
/mt {mp x y w2 add m w2 neg w neg d w 0 d cl} def
/w4 {w 4 div} def
/w6 {w 6 div} def
/w8 {w 8 div} def
/m21 {mb f} def /m25 {mb s} def /m22 {mt f} def /m26{mt s} def
/m23 {mp x y w2 sub m w2 w d w neg 0 d cl f} def
/m27 {mp x y w2 add m w3 neg w2 neg d w3 w2 neg d w3 w2 d cl s} def
/m28 {mp x w2 sub y w2 sub w3 add m w3 0 d  0 w3 neg d w3 0 d 0 w3 d w3 0 d  0 w3 d w3 neg 0 d 0 w3 d w3 neg 0 d 0 w3 neg d w3 neg 0 d cl s } def
/m29 {mp gsave x w2 sub y w2 add w3 sub m currentpoint t 4 {side} repeat cl fill gr} def
/m30 {mp gsave x w2 sub y w2 add w3 sub m currentpoint t 4 {side} repeat cl s gr} def
/m31 {mp x y w2 sub m 0 w d x w2 sub y m w 0 d x w2 sub y w2 add m w w neg d x w2 sub y w2 sub m w w d s} def
/m32 {mp x y w2 sub m w2 w d w neg 0 d cl s} def
/m33 {mp x y w2 add m w3 neg w2 neg d w3 w2 neg d w3 w2 d cl f} def
/m34 {mp x w2 sub y w2 sub w3 add m w3 0 d  0 w3 neg d w3 0 d 0 w3 d w3 0 d  0 w3 d w3 neg 0 d 0 w3 d w3 neg 0 d 0 w3 neg d w3 neg 0 d cl f } def
/m35 {mp x y w2 add m w2 neg w2 neg d w2 w2 neg d w2 w2 d w2 neg w2 d x y w2 sub m 0 w d x w2 sub y m w 0 d s} def
/m36 {mb x w2 sub y w2 add m w w neg d x w2 sub y w2 sub m w w d s} def
/m37 {mp x y m w4 neg w2 d w4 neg w2 neg d w2 0 d  w4 neg w2 neg d w2 0 d w4 neg w2 d w2 0 d w4 neg w2 d w4 neg w2 neg d cl s} def
/m38 {mp x w4 sub y w2 add m w4 neg w4 neg d 0 w2 neg d w4 w4 neg d w2 0 d w4 w4 d 0 w2 d w4 neg w4 d w2 neg 0 d x y w2 sub m 0 w d x w2 sub y m w 0 d cl s} def
/m39 {mp x y m w4 neg w2 d w4 neg w2 neg d w2 0 d  w4 neg w2 neg d w2 0 d w4 neg w2 d w2 0 d w4 neg w2 d w4 neg w2 neg d cl f} def
/m40 {mp x y m w4 w2 d w4 w4 neg d w2 neg w4 neg d w2 w4 neg d w4 neg w4 neg d w4 neg w2 d w4 neg w2 neg d w4 neg w4 d w2 w4 d w2 neg w4 d w4 w4 d w4 w2 neg d cl s} def
/m41 {mp x y m w4 w2 d w4 w4 neg d w2 neg w4 neg d w2 w4 neg d w4 neg w4 neg d w4 neg w2 d w4 neg w2 neg d w4 neg w4 d w2 w4 d w2 neg w4 d w4 w4 d w4 w2 neg d cl f} def
/m42 {mp x y w2 add m w8 neg w2 -3 4 div mul d w2 -3 4 div mul w8 neg d w2 3 4 div mul w8 neg d w8 w2 -3 4 div mul d w8 w2 3 4 div mul d w2 3 4 div mul w8 d w2 -3 4 div mul w8 d w8 neg w2 3 4 div mul d cl s} def
/m43 {mp x y w2 add m w8 neg w2 -3 4 div mul d w2 -3 4 div mul w8 neg d w2 3 4 div mul w8 neg d w8 w2 -3 4 div mul d w8 w2 3 4 div mul d w2 3 4 div mul w8 d w2 -3 4 div mul w8 d w8 neg w2 3 4 div mul d cl f} def
/m44 {mp x y m w6 neg w2 d w2 2 3 div mul 0 d w6 neg w2 neg d w2 w6 d 0 w2 -2 3 div mul d w2 neg w6 d w6 w2 neg d w2 -2 3 div mul 0 d w6 w2 d w2 neg w6 neg d 0 w2 2 3 div mul d w2 w6 neg d cl s} def
/m45 {mp x y m w6 neg w2 d w2 2 3 div mul 0 d w6 neg w2 neg d w2 w6 d 0 w2 -2 3 div mul d w2 neg w6 d w6 w2 neg d w2 -2 3 div mul 0 d w6 w2 d w2 neg w6 neg d 0 w2 2 3 div mul d w2 w6 neg d cl f} def
/m46 {mp x y w4 add m w4 neg w4 d w4 neg w4 neg d  w4 w4 neg d w4 neg w4 neg d w4 w4 neg d w4 w4 d w4 w4 neg d w4 w4 d w4 neg w4 d w4 w4 d w4 neg w4 d w4 neg w4 neg d cl s} def
/m47 {mp x y w4 add m w4 neg w4 d w4 neg w4 neg d w4 w4 neg d w4 neg w4 neg d  w4 w4 neg d w4 w4 d w4 w4 neg d w4 w4 d w4 neg w4 d w4 w4 d w4 neg w4 d w4 neg w4 neg d cl f} def
/m48 {mp x y w4 add m w4 neg w4 d w4 neg w4 neg d w4 w4 neg d  w4 neg w4 neg d w4 w4 neg d w4 w4 d w4 w4 neg d w4 w4 d w4 neg w4 d w4 w4 d w4 neg w4 d w4 neg w4 neg d  w4 w4 neg d w4 neg w4 neg d w4 neg w4 d w4 w4 d cl f} def
/m49 {mp x w2 sub w3 add y w2 sub w3 add m  0 w3 neg d w3 0 d 0 w3 d w3 0 d 0 w3 d w3 neg 0 d 0 w3 d w3 neg 0 d 0 w3 neg d w3 neg 0 d 0 w3 neg d w3 0 d 0 w3 d w3 0 d 0 w3 neg d w3 neg 0 d cl f } def
/m2 {mp x y w2 sub m 0 w d x w2 sub y m w 0 d s} def
/m5 {mp x w2 sub y w2 sub m w w d x w2 sub y w2 add m w w neg d s} def
%%IncludeResource: ProcSet (FontSetInit)
%%IncludeResource: font Times-Roman
%%IncludeResource: font Times-Italic
%%IncludeResource: font Times-Bold
%%IncludeResource: font Times-BoldItalic
%%IncludeResource: font Helvetica
%%IncludeResource: font Helvetica-Oblique
%%IncludeResource: font Helvetica-Bold
%%IncludeResource: font Helvetica-BoldOblique
%%IncludeResource: font Courier
%%IncludeResource: font Courier-Oblique
%%IncludeResource: font Courier-Bold
%%IncludeResource: font Courier-BoldOblique
%%IncludeResource: font Symbol
%%IncludeResource: font ZapfDingbats
/reEncode {exch findfont dup length dict begin {1 index /FID eq  {pop pop} {def} ifelse } forall /Encoding exch def currentdict end dup /FontName get exch definefont pop } def [/Times-Bold /Times-Italic /Times-BoldItalic /Helvetica /Helvetica-Oblique
 /Helvetica-Bold /Helvetica-BoldOblique /Courier /Courier-Oblique /Courier-Bold /Courier-BoldOblique /Times-Roman /AvantGarde-Book /AvantGarde-BookOblique /AvantGarde-Demi /AvantGarde-DemiOblique /Bookman-Demi /Bookman-DemiItalic /Bookman-Light
 /Bookman-LightItalic /Helvetica-Narrow /Helvetica-Narrow-Bold /Helvetica-Narrow-BoldOblique /Helvetica-Narrow-Oblique /NewCenturySchlbk-Roman /NewCenturySchlbk-Bold /NewCenturySchlbk-BoldItalic /NewCenturySchlbk-Italic /Palatino-Bold
 /Palatino-BoldItalic /Palatino-Italic /Palatino-Roman ] {ISOLatin1Encoding reEncode } forall
%%EndProlog
%%BeginSetup
%%EndSetup
newpath  gsave  .25 .25 scale  gsave  0 0 t black[  ] 0 sd 3 lw 1 1 1 c 2268 713 0 0 bf black 1 1 1 c 710 699 23 7 bf black 1 1 1 c 533 559 129 77 bf black 533 559 129 77 bl 129 77 m 533 X s 129 93 m -16 Y s 147 85 m -8 Y s 165 85 m -8 Y s 183 85 m
 -8 Y s 200 85 m -8 Y s 218 93 m -16 Y s 236 85 m -8 Y s 254 85 m -8 Y s 271 85 m -8 Y s 289 85 m -8 Y s 307 93 m -16 Y s 325 85 m -8 Y s 342 85 m -8 Y s 360 85 m -8 Y s 378 85 m -8 Y s 396 93 m -16 Y s 413 85 m -8 Y s 431 85 m -8 Y s 449 85 m -8 Y s
 467 85 m -8 Y s 485 93 m -16 Y s 502 85 m -8 Y s 520 85 m -8 Y s 538 85 m -8 Y s 556 85 m -8 Y s 573 93 m -16 Y s 591 85 m -8 Y s 609 85 m -8 Y s 627 85 m -8 Y s 644 85 m -8 Y s 662 93 m -16 Y s
 gsave  710 699 23 7 C 105.968 54.4979 t 0 r /Helvetica findfont 22.736 sf 0 0 m (5.26) show NC gr 
 gsave  710 699 23 7 C 189.229 54.4979 t 0 r /Helvetica findfont 22.736 sf 0 0 m (5.265) show NC gr 
 gsave  710 699 23 7 C 283.086 54.4979 t 0 r /Helvetica findfont 22.736 sf 0 0 m (5.27) show NC gr 
 gsave  710 699 23 7 C 366.347 54.4979 t 0 r /Helvetica findfont 22.736 sf 0 0 m (5.275) show NC gr 
 gsave  710 699 23 7 C 461.718 54.4979 t 0 r /Helvetica findfont 22.736 sf 0 0 m (5.28) show NC gr 
 gsave  710 699 23 7 C 543.465 54.4979 t 0 r /Helvetica findfont 22.736 sf 0 0 m (5.285) show NC gr 
 gsave  710 699 23 7 C 638.836 54.4979 t 0 r /Helvetica findfont 22.736 sf 0 0 m (5.29) show NC gr 
 gsave  710 699 23 7 C 499.564 31.7904 t 0 r /Helvetica findfont 22.736 sf 0 0 m (m_bc \(GeV/c^2\)) show NC gr  129 77 m 559 Y s 146 77 m -17 X s 138 92 m -9 X s 138 107 m -9 X s 138 123 m -9 X s 138 138 m -9 X s 146 153 m -17 X s 138 168 m -9 X s
 138 184 m -9 X s 138 199 m -9 X s 138 214 m -9 X s 146 229 m -17 X s 138 245 m -9 X s 138 260 m -9 X s 138 275 m -9 X s 138 290 m -9 X s 146 306 m -17 X s 138 321 m -9 X s 138 336 m -9 X s 138 351 m -9 X s 138 367 m -9 X s 146 382 m -17 X s 138 397
 m -9 X s 138 412 m -9 X s 138 428 m -9 X s 138 443 m -9 X s 146 458 m -17 X s 138 473 m -9 X s 138 489 m -9 X s 138 504 m -9 X s 138 519 m -9 X s 146 534 m -17 X s 138 550 m -9 X s 138 565 m -9 X s 138 580 m -9 X s 138 595 m -9 X s 146 611 m -17 X s
 146 611 m -17 X s 138 626 m -9 X s
 gsave  710 699 23 7 C 113.537 68.1223 t 0 r /Helvetica findfont 22.736 sf 0 0 m (0) show NC gr 
 gsave  710 699 23 7 C 87.8021 145.328 t 0 r /Helvetica findfont 22.736 sf 0 0 m (100) show NC gr 
 gsave  710 699 23 7 C 87.8021 221.019 t 0 r /Helvetica findfont 22.736 sf 0 0 m (200) show NC gr 
 gsave  710 699 23 7 C 87.8021 296.711 t 0 r /Helvetica findfont 22.736 sf 0 0 m (300) show NC gr 
 gsave  710 699 23 7 C 87.8021 373.916 t 0 r /Helvetica findfont 22.736 sf 0 0 m (400) show NC gr 
 gsave  710 699 23 7 C 87.8021 449.607 t 0 r /Helvetica findfont 22.736 sf 0 0 m (500) show NC gr 
 gsave  710 699 23 7 C 87.8021 525.299 t 0 r /Helvetica findfont 22.736 sf 0 0 m (600) show NC gr 
 gsave  710 699 23 7 C 87.8021 602.504 t 0 r /Helvetica findfont 22.736 sf 0 0 m (700) show NC gr 
 gsave  710 699 23 7 C 71.15 360.291 t 90 r /Helvetica findfont 22.736 sf 0 0 m (Events / \( 0.0003 GeV/c^2 \)) show NC gr  1 1 1 c black
 gsave  710 699 23 7 C 328.501 670.626 t 0 r /Helvetica findfont 34.8619 sf 0 0 m (Signal) show NC gr  132 77 m -3 X s 129 77 m 3 Y s 132 77 m 3 X s 135 77 m 3 Y s 132 77 m 1 Y s 129 78 m 6 X s 137 77 m -2 X s 135 77 m 3 Y s 137 77 m 3 X s 140 77 m 3
 Y s 137 77 m 1 Y s 134 78 m 6 X s 143 77 m -3 X s 140 77 m 3 Y s 143 77 m 2 X s 145 77 m 3 Y s 143 77 m 1 Y s 140 78 m 6 X s 148 77 m -3 X s 145 77 m 3 Y s 148 77 m 3 X s 151 77 m 3 Y s 148 77 m 1 Y s 145 78 m 6 X s 153 77 m -2 X s 151 77 m 3 Y s
 153 77 m 3 X s 156 77 m 3 Y s 153 77 m 1 Y s 150 78 m 6 X s 159 77 m -3 X s 156 77 m 3 Y s 159 77 m 2 X s 161 77 m 3 Y s 159 77 m 1 Y s 156 78 m 6 X s 164 77 m -3 X s 161 77 m 3 Y s 164 77 m 3 X s 167 77 m 3 Y s 164 77 m 1 Y s 161 78 m 6 X s 169 78
 m -2 X s 167 77 m 4 Y s 169 78 m 3 X s 172 77 m 4 Y s 169 78 m 2 Y s 166 80 m 6 X s 169 78 m -1 Y s 166 77 m 6 X s 175 77 m -3 X s 172 77 m 3 Y s 175 77 m 2 X s 177 77 m 3 Y s 175 77 m 1 Y s 172 78 m 6 X s 180 77 m -3 X s 177 77 m 3 Y s 180 77 m 3 X
 s 183 77 m 3 Y s 180 77 m 1 Y s 177 78 m 6 X s 185 78 m -2 X s 183 77 m 4 Y s 185 78 m 3 X s 188 77 m 4 Y s 185 78 m 2 Y s 182 80 m 6 X s 185 78 m -1 Y s 182 77 m 6 X s 191 77 m -3 X s 188 77 m 3 Y s 191 77 m 2 X s 193 77 m 3 Y s 191 77 m 1 Y s 188
 78 m 6 X s 196 77 m -3 X s 193 77 m 3 Y s 196 77 m 3 X s 199 77 m 3 Y s 196 77 m 1 Y s 193 78 m 6 X s 201 77 m -2 X s 199 77 m 3 Y s 201 77 m 3 X s 204 77 m 3 Y s 201 77 m 1 Y s 198 78 m 6 X s 207 78 m -3 X s 204 77 m 4 Y s 207 78 m 2 X s 209 77 m 4
 Y s 207 78 m 2 Y s 204 80 m 6 X s 207 78 m -1 Y s 204 77 m 6 X s 212 77 m -3 X s 209 77 m 3 Y s 212 77 m 3 X s 215 77 m 3 Y s 212 77 m 1 Y s 209 78 m 6 X s 217 77 m -2 X s 215 77 m 3 Y s 217 77 m 3 X s 220 77 m 3 Y s 217 77 m 1 Y s 214 78 m 6 X s
 223 77 m -3 X s 220 77 m 3 Y s 223 77 m 2 X s 225 77 m 3 Y s 223 77 m 1 Y s 219 78 m 7 X s 228 78 m -3 X s 225 77 m 4 Y s 228 78 m 3 X s 231 77 m 4 Y s 228 78 m 2 Y s 225 80 m 6 X s 228 78 m -1 Y s 225 77 m 6 X s 233 77 m -2 X s 231 77 m 3 Y s 233
 77 m 3 X s 236 77 m 3 Y s 233 77 m 1 Y s 230 78 m 6 X s 239 77 m -3 X s 236 77 m 3 Y s 239 77 m 2 X s 241 77 m 3 Y s 239 77 m 1 Y s 235 78 m 7 X s 244 77 m -3 X s 241 77 m 3 Y s 244 77 m 3 X s 247 77 m 3 Y s 244 77 m 1 Y s 241 78 m 6 X s 249 77 m -2
 X s 247 77 m 3 Y s 249 77 m 3 X s 252 77 m 3 Y s 249 77 m 1 Y s 246 78 m 6 X s 254 77 m -2 X s 252 77 m 3 Y s 254 77 m 3 X s 257 77 m 3 Y s 254 77 m 1 Y s 251 78 m 7 X s 260 77 m -3 X s 257 77 m 3 Y s 260 77 m 2 X s 262 77 m 3 Y s 260 77 m 1 Y s 257
 78 m 6 X s 265 77 m -3 X s 262 77 m 3 Y s 265 77 m 3 X s 268 77 m 3 Y s 265 77 m 1 Y s 262 78 m 6 X s 270 77 m -2 X s 268 77 m 3 Y s 270 77 m 3 X s 273 77 m 3 Y s 270 77 m 1 Y s 267 78 m 7 X s 276 77 m -3 X s 273 77 m 3 Y s 276 77 m 2 X s 278 77 m 3
 Y s 276 77 m 1 Y s 273 78 m 6 X s 281 77 m -3 X s 278 77 m 3 Y s 281 77 m 3 X s 284 77 m 3 Y s 281 77 m 1 Y s 278 78 m 6 X s 286 78 m -2 X s 284 77 m 4 Y s 286 78 m 3 X s 289 77 m 4 Y s 286 78 m 2 Y s 283 80 m 6 X s 286 78 m -1 Y s 283 77 m 6 X s
 292 77 m -3 X s 289 77 m 3 Y s 292 77 m 2 X s 294 77 m 3 Y s 292 77 m 1 Y s 289 78 m 6 X s 297 78 m -3 X s 294 77 m 4 Y s 297 78 m 3 X s 300 77 m 4 Y s 297 78 m 2 Y s 294 80 m 6 X s 297 78 m -1 Y s 294 77 m 6 X s 302 77 m -2 X s 300 77 m 3 Y s 302
 77 m 3 X s 305 77 m 3 Y s 302 77 m 1 Y s 299 78 m 6 X s 308 79 m -3 X s 305 77 m 5 Y s 308 79 m 2 X s 310 77 m 5 Y s 308 79 m 3 Y s 305 82 m 6 X s 308 79 m -1 Y s 305 78 m 6 X s 313 78 m -3 X s 310 77 m 4 Y s 313 78 m 3 X s 316 77 m 4 Y s 313 78 m 2
 Y s 310 80 m 6 X s 313 78 m -1 Y s 310 77 m 6 X s 318 79 m -2 X s 316 77 m 5 Y s 318 79 m 3 X s 321 77 m 5 Y s 318 79 m 3 Y s 315 82 m 6 X s 318 79 m -1 Y s 315 78 m 6 X s 324 79 m -3 X s 321 77 m 5 Y s 324 79 m 2 X s 326 77 m 5 Y s 324 79 m 3 Y s
 321 82 m 6 X s 324 79 m -1 Y s 321 78 m 6 X s 329 80 m -3 X s 326 77 m 6 Y s 329 80 m 3 X s 332 77 m 6 Y s 329 80 m 2 Y s 326 82 m 6 X s 329 80 m -1 Y s 326 79 m 6 X s 334 80 m -2 X s 332 77 m 6 Y s 334 80 m 3 X s 337 77 m 6 Y s 334 80 m 2 Y s 331
 82 m 6 X s 334 80 m -1 Y s 331 79 m 6 X s 340 79 m -3 X s 337 77 m 5 Y s 340 79 m 2 X s 342 77 m 5 Y s 340 79 m 3 Y s 337 82 m 6 X s 340 79 m -1 Y s 337 78 m 6 X s 345 82 m -3 X s 342 79 m 6 Y s 345 82 m 3 X s 348 79 m 6 Y s 345 82 m 3 Y s 342 85 m
 6 X s 345 82 m -2 Y s 342 80 m 6 X s 350 84 m -2 X s 348 81 m 6 Y s 350 84 m 3 X s 353 81 m 6 Y s 350 84 m 3 Y s 347 87 m 6 X s 350 84 m -2 Y s 347 82 m 6 X s 356 85 m -3 X s 353 82 m 6 Y s 356 85 m 2 X s 358 82 m 6 Y s 356 85 m 4 Y s 353 89 m 6 X s
 356 85 m -2 Y s 353 83 m 6 X s 361 90 m -3 X s 358 87 m 6 Y s 361 90 m 3 X s 364 87 m 6 Y s 361 90 m 4 Y s 358 94 m 6 X s 361 90 m -3 Y s 358 87 m 6 X s 366 98 m -2 X s 364 95 m 6 Y s 366 98 m 3 X s 369 95 m 6 Y s 366 98 m 4 Y s 363 102 m 6 X s 366
 98 m -4 Y s 363 94 m 6 X s 372 99 m -3 X s 369 96 m 6 Y s 372 99 m 2 X s 374 96 m 6 Y s 372 99 m 5 Y s 369 104 m 6 X s 372 99 m -4 Y s 369 95 m 6 X s 377 102 m -3 X s 374 99 m 6 Y s 377 102 m 3 X s 380 99 m 6 Y s 377 102 m 5 Y s 374 107 m 6 X s 377
 102 m -4 Y s 374 98 m 6 X s 382 106 m -2 X s 380 103 m 6 Y s 382 106 m 3 X s 385 103 m 6 Y s 382 106 m 5 Y s 379 111 m 6 X s 382 106 m -5 Y s 379 101 m 6 X s 388 115 m -3 X s 385 112 m 6 Y s 388 115 m 2 X s 390 112 m 6 Y s 388 115 m 6 Y s 385 121 m
 6 X s 388 115 m -5 Y s 385 110 m 6 X s 393 133 m -3 X s 390 130 m 6 Y s 393 133 m 3 X s 396 130 m 6 Y s 393 133 m 7 Y s 390 140 m 6 X s 393 133 m -7 Y s 390 126 m 6 X s 398 140 m -2 X s 396 136 m 7 Y s 398 140 m 3 X s 401 136 m 7 Y s 398 140 m 7 Y s
 395 147 m 6 X s 398 140 m -7 Y s 395 133 m 6 X s 404 144 m -3 X s 401 141 m 6 Y s 404 144 m 2 X s 406 141 m 6 Y s 404 144 m 8 Y s 401 152 m 6 X s 404 144 m -7 Y s 401 137 m 6 X s 409 175 m -3 X s 406 172 m 6 Y s 409 175 m 3 X s 412 172 m 6 Y s 409
 175 m 9 Y s 406 184 m 6 X s 409 175 m -8 Y s 406 167 m 6 X s 414 193 m -2 X s 412 190 m 6 Y s 414 193 m 3 X s 417 190 m 6 Y s 414 193 m 10 Y s 411 203 m 6 X s 414 193 m -9 Y s 411 184 m 6 X s 420 208 m -3 X s 417 205 m 6 Y s 420 208 m 2 X s 422 205
 m 6 Y s 420 208 m 10 Y s 417 218 m 6 X s 420 208 m -10 Y s 417 198 m 6 X s 425 240 m -3 X s 422 237 m 6 Y s 425 240 m 3 X s 428 237 m 6 Y s 425 240 m 12 Y s 422 252 m 6 X s 425 240 m -11 Y s 422 229 m 6 X s 430 279 m -2 X s 428 276 m 6 Y s 430 279 m
 3 X s 433 276 m 6 Y s 430 279 m 13 Y s 427 292 m 6 X s 430 279 m -12 Y s 427 267 m 6 X s 436 281 m -3 X s 433 278 m 6 Y s 436 281 m 2 X s 438 278 m 6 Y s 436 281 m 13 Y s 433 294 m 6 X s 436 281 m -12 Y s 433 269 m 6 X s 441 337 m -3 X s 438 334 m 6
 Y s 441 337 m 3 X s 444 334 m 6 Y s 441 337 m 14 Y s 438 351 m 6 X s 441 337 m -14 Y s 438 323 m 6 X s 446 370 m -2 X s 444 367 m 7 Y s 446 370 m 3 X s 449 367 m 7 Y s 446 370 m 16 Y s 443 386 m 6 X s 446 370 m -14 Y s 443 356 m 6 X s 452 409 m -3 X
 s 449 406 m 6 Y s 452 409 m 2 X s 454 406 m 6 Y s 452 409 m 16 Y s 449 425 m 6 X s 452 409 m -16 Y s 449 393 m 6 X s 457 475 m -3 X s 454 472 m 6 Y s 457 475 m 3 X s 460 472 m 6 Y s 457 475 m 18 Y s 454 493 m 6 X s 457 475 m -17 Y s 454 458 m 6 X s
 462 483 m -2 X s 460 480 m 6 Y s 462 483 m 3 X s 465 480 m 6 Y s 462 483 m 17 Y s 459 500 m 6 X s 462 483 m -18 Y s 459 465 m 6 X s 468 566 m -3 X s 465 563 m 6 Y s 468 566 m 2 X s 470 563 m 6 Y s 468 566 m 19 Y s 465 585 m 6 X s 468 566 m -19 Y s
 465 547 m 6 X s 473 545 m -3 X s 470 542 m 6 Y s 473 545 m 3 X s 476 542 m 6 Y s 473 545 m 19 Y s 470 564 m 6 X s 473 545 m -18 Y s 470 527 m 6 X s 478 540 m -2 X s 476 537 m 6 Y s 478 540 m 3 X s 481 537 m 6 Y s 478 540 m 20 Y s 475 560 m 6 X s 478
 540 m -18 Y s 475 522 m 6 X s 484 588 m -3 X s 481 585 m 6 Y s 484 588 m 2 X s 486 585 m 6 Y s 484 588 m 20 Y s 481 608 m 6 X s 484 588 m -20 Y s 481 568 m 6 X s 489 589 m -3 X s 486 586 m 6 Y s 489 589 m 3 X s 492 586 m 6 Y s 489 589 m 20 Y s 486
 609 m 6 X s 489 589 m -19 Y s 486 570 m 6 X s 494 576 m -2 X s 492 572 m 7 Y s 494 576 m 3 X s 497 572 m 7 Y s 494 576 m 19 Y s 491 595 m 6 X s 494 576 m -20 Y s 491 556 m 6 X s 500 576 m -3 X s 497 572 m 7 Y s 500 576 m 2 X s 502 572 m 7 Y s 500
 576 m 19 Y s 497 595 m 6 X s 500 576 m -20 Y s 497 556 m 6 X s 505 553 m -3 X s 502 550 m 6 Y s 505 553 m 3 X s 508 550 m 6 Y s 505 553 m 20 Y s 502 573 m 6 X s 505 553 m -18 Y s 502 535 m 6 X s 510 560 m -2 X s 508 556 m 7 Y s 510 560 m 3 X s 513
 556 m 7 Y s 510 560 m 19 Y s 507 579 m 6 X s 510 560 m -19 Y s 507 541 m 6 X s 516 526 m -3 X s 513 523 m 6 Y s 516 526 m 2 X s 518 523 m 6 Y s 516 526 m 19 Y s 513 545 m 6 X s 516 526 m -18 Y s 513 508 m 6 X s 521 494 m -3 X s 518 491 m 6 Y s 521
 494 m 3 X s 524 491 m 6 Y s 521 494 m 18 Y s 518 512 m 6 X s 521 494 m -17 Y s 518 477 m 6 X s 526 478 m -2 X s 524 475 m 6 Y s 526 478 m 3 X s 529 475 m 6 Y s 526 478 m 18 Y s 523 496 m 6 X s 526 478 m -17 Y s 523 461 m 6 X s 532 434 m -3 X s 529
 431 m 6 Y s 532 434 m 2 X s 534 431 m 6 Y s 532 434 m 17 Y s 529 451 m 6 X s 532 434 m -16 Y s 529 418 m 6 X s 537 393 m -3 X s 534 390 m 6 Y s 537 393 m 3 X s 540 390 m 6 Y s 537 393 m 16 Y s 534 409 m 6 X s 537 393 m -15 Y s 534 378 m 6 X s 542
 360 m -2 X s 540 357 m 6 Y s 542 360 m 3 X s 545 357 m 6 Y s 542 360 m 15 Y s 539 375 m 6 X s 542 360 m -15 Y s 539 345 m 6 X s 548 332 m -3 X s 545 329 m 6 Y s 548 332 m 2 X s 550 329 m 6 Y s 548 332 m 14 Y s 545 346 m 6 X s 548 332 m -14 Y s 545
 318 m 6 X s 553 285 m -3 X s 550 282 m 6 Y s 553 285 m 3 X s 556 282 m 6 Y s 553 285 m 13 Y s 550 298 m 6 X s 553 285 m -12 Y s 550 273 m 6 X s 558 257 m -2 X s 556 254 m 6 Y s 558 257 m 3 X s 561 254 m 6 Y s 558 257 m 12 Y s 555 269 m 6 X s 558 257
 m -11 Y s 555 246 m 6 X s 564 249 m -3 X s 561 246 m 6 Y s 564 249 m 2 X s 566 246 m 6 Y s 564 249 m 12 Y s 561 261 m 6 X s 564 249 m -11 Y s 561 238 m 6 X s 569 206 m -3 X s 566 203 m 6 Y s 569 206 m 3 X s 572 203 m 6 Y s 569 206 m 10 Y s 566 216 m
 6 X s 569 206 m -10 Y s 566 196 m 6 X s 574 182 m -2 X s 572 179 m 6 Y s 574 182 m 3 X s 577 179 m 6 Y s 574 182 m 10 Y s 571 192 m 6 X s 574 182 m -8 Y s 571 174 m 6 X s 580 158 m -3 X s 577 155 m 6 Y s 580 158 m 2 X s 582 155 m 6 Y s 580 158 m 8 Y
 s 577 166 m 6 X s 580 158 m -8 Y s 577 150 m 6 X s 585 144 m -3 X s 582 141 m 6 Y s 585 144 m 3 X s 588 141 m 6 Y s 585 144 m 8 Y s 582 152 m 6 X s 585 144 m -7 Y s 582 137 m 6 X s 590 116 m -2 X s 588 113 m 6 Y s 590 116 m 3 X s 593 113 m 6 Y s 590
 116 m 6 Y s 587 122 m 6 X s 590 116 m -6 Y s 587 110 m 6 X s 596 121 m -3 X s 593 118 m 6 Y s 596 121 m 2 X s 598 118 m 6 Y s 596 121 m 7 Y s 593 128 m 6 X s 596 121 m -6 Y s 593 115 m 6 X s 601 118 m -3 X s 598 115 m 6 Y s 601 118 m 3 X s 604 115 m
 6 Y s 601 118 m 7 Y s 598 125 m 6 X s 601 118 m -5 Y s 598 113 m 6 X s 606 102 m -2 X s 604 99 m 6 Y s 606 102 m 3 X s 609 99 m 6 Y s 606 102 m 5 Y s 603 107 m 6 X s 606 102 m -4 Y s 603 98 m 6 X s 612 94 m -3 X s 609 91 m 6 Y s 612 94 m 2 X s 614
 91 m 6 Y s 612 94 m 4 Y s 609 98 m 6 X s 612 94 m -4 Y s 609 90 m 6 X s 617 91 m -3 X s 614 88 m 6 Y s 617 91 m 3 X s 620 88 m 6 Y s 617 91 m 4 Y s 614 95 m 6 X s 617 91 m -3 Y s 614 88 m 6 X s 622 88 m -2 X s 620 85 m 6 Y s 622 88 m 3 X s 625 85 m
 6 Y s 622 88 m 4 Y s 619 92 m 6 X s 622 88 m -2 Y s 619 86 m 6 X s 628 85 m -3 X s 625 82 m 6 Y s 628 85 m 2 X s 630 82 m 6 Y s 628 85 m 3 Y s 625 88 m 6 X s 628 85 m -3 Y s 625 82 m 6 X s 633 82 m -3 X s 630 79 m 6 Y s 633 82 m 3 X s 636 79 m 6 Y s
 633 82 m 3 Y s 630 85 m 6 X s 633 82 m -2 Y s 630 80 m 6 X s 638 81 m -2 X s 636 78 m 6 Y s 638 81 m 3 X s 641 78 m 6 Y s 638 81 m 2 Y s 635 83 m 6 X s 638 81 m -2 Y s 635 79 m 6 X s 644 79 m -3 X s 641 77 m 5 Y s 644 79 m 2 X s 646 77 m 5 Y s 644
 79 m 3 Y s 640 82 m 7 X s 644 79 m -1 Y s 640 78 m 7 X s 649 79 m -3 X s 646 77 m 5 Y s 649 79 m 3 X s 652 77 m 5 Y s 649 79 m 2 Y s 646 81 m 6 X s 649 79 m -1 Y s 646 78 m 6 X s 654 78 m -2 X s 652 77 m 4 Y s 654 78 m 3 X s 657 77 m 4 Y s 654 78 m
 2 Y s 651 80 m 6 X s 654 78 m -1 Y s 651 77 m 6 X s 660 77 m -3 X s 657 77 m 3 Y s 660 77 m 2 X s 662 77 m 3 Y s 660 77 m 1 Y s 656 78 m 6 X s 1 1 1 c black /w 12 def /w2 {w 2 div} def /w3 {w 3 div} def 132 77 137 77 143 77 148 77 153 77 159 77 164
 77 169 78 175 77 180 77 185 78 191 77 196 77 201 77 207 78 212 77 217 77 223 77 228 78 233 77 239 77 244 77 249 77 254 77 260 77 265 77 270 77 276 77 281 77 286 78 292 77 297 78 302 77 308 79 313 78 318 79 324 79 329 80 334 80 340 79 345 82 350 84
 356 85 361 90 366 98 372 99 377 102 382 106 388 115 393 133 398 140 404 144 409 175 414 193 420 208 425 240 430 279 436 281 441 337 446 370 452 409 457 475 462 483 468 566 473 545 478 540 484 588 489 589 494 576 500 576 505 553 510 560 516 526 521
 494 526 478 532 434 537 393 542 360 548 332 553 285 558 257 564 249 569 206 574 182 580 158 585 144 590 116 596 121 601 118 606 102 612 94 617 91 622 88 628 85 633 82 638 81 644 79 649 79 654 78 660 77 100 { m20} R 0 0 1 c 9 lw 1 1 1 c black 0 0 1 c
 129 77 m cl s 129 77 m 149 X 6 1 d 37 X 5 1 d 6 X 5 1 d 5 X 6 2 d 5 1 d 5 2 d 6 3 d 5 4 d 5 4 d 6 7 d 5 8 d 5 9 d 6 12 d 5 15 d 5 17 d 6 21 d 5 23 d 5 26 d 6 30 d 5 31 d 5 34 d 6 35 d 5 36 d 5 35 d 6 34 d 5 32 d 3 14 d 2 13 d 3 12 d 3 11 d 2 10 d 3
 8 d 3 6 d 2 5 d 3 4 d 3 1 d 2 X 3 -2 d 3 -4 d 2 -5 d 3 -7 d 3 -8 d 2 -10 d 3 -11 d 3 -13 d 2 -13 d 6 -30 d 5 -33 d 5 -35 d 6 -36 d 5 -36 d 5 -34 d 6 -33 d 5 -30 d 5 -27 d 6 -25 d 5 -21 d 5 -19 d 6 -15 d 5 -13 d 5 -11 d 6 -9 d 5 -6 d 5 -6 d 6 -4 d 5
 -3 d 5 -2 d 6 -2 d 5 -1 d 5 -1 d 6 -1 d 5 X 5 -1 d s black 3 lw 129 77 m 533 X s 129 93 m -16 Y s 147 85 m -8 Y s 165 85 m -8 Y s 183 85 m -8 Y s 200 85 m -8 Y s 218 93 m -16 Y s 236 85 m -8 Y s 254 85 m -8 Y s 271 85 m -8 Y s 289 85 m -8 Y s 307 93
 m -16 Y s 325 85 m -8 Y s 342 85 m -8 Y s 360 85 m -8 Y s 378 85 m -8 Y s 396 93 m -16 Y s 413 85 m -8 Y s 431 85 m -8 Y s 449 85 m -8 Y s 467 85 m -8 Y s 485 93 m -16 Y s 502 85 m -8 Y s 520 85 m -8 Y s 538 85 m -8 Y s 556 85 m -8 Y s 573 93 m -16
 Y s 591 85 m -8 Y s 609 85 m -8 Y s 627 85 m -8 Y s 644 85 m -8 Y s 662 93 m -16 Y s 129 77 m 559 Y s 146 77 m -17 X s 138 92 m -9 X s 138 107 m -9 X s 138 123 m -9 X s 138 138 m -9 X s 146 153 m -17 X s 138 168 m -9 X s 138 184 m -9 X s 138 199 m
 -9 X s 138 214 m -9 X s 146 229 m -17 X s 138 245 m -9 X s 138 260 m -9 X s 138 275 m -9 X s 138 290 m -9 X s 146 306 m -17 X s 138 321 m -9 X s 138 336 m -9 X s 138 351 m -9 X s 138 367 m -9 X s 146 382 m -17 X s 138 397 m -9 X s 138 412 m -9 X s
 138 428 m -9 X s 138 443 m -9 X s 146 458 m -17 X s 138 473 m -9 X s 138 489 m -9 X s 138 504 m -9 X s 138 519 m -9 X s 146 534 m -17 X s 138 550 m -9 X s 138 565 m -9 X s 138 580 m -9 X s 138 595 m -9 X s 146 611 m -17 X s 146 611 m -17 X s 138 626
 m -9 X s 1 1 1 c black
 gsave  710 699 23 7 C 328.501 670.626 t 0 r /Helvetica findfont 34.8619 sf 0 0 m (Signal) show NC gr  1 1 1 c 710 699 779 7 bf black 1 1 1 c 533 559 885 77 bf black 533 559 885 77 bl 885 77 m 533 X s 885 93 m -16 Y s 903 85 m -8 Y s 921 85 m -8 Y s
 938 85 m -8 Y s 956 85 m -8 Y s 974 93 m -16 Y s 992 85 m -8 Y s 1010 85 m -8 Y s 1027 85 m -8 Y s 1045 85 m -8 Y s 1063 93 m -16 Y s 1081 85 m -8 Y s 1098 85 m -8 Y s 1116 85 m -8 Y s 1134 85 m -8 Y s 1152 93 m -16 Y s 1169 85 m -8 Y s 1187 85 m -8
 Y s 1205 85 m -8 Y s 1223 85 m -8 Y s 1240 93 m -16 Y s 1258 85 m -8 Y s 1276 85 m -8 Y s 1294 85 m -8 Y s 1311 85 m -8 Y s 1329 93 m -16 Y s 1347 85 m -8 Y s 1365 85 m -8 Y s 1383 85 m -8 Y s 1400 85 m -8 Y s 1418 93 m -16 Y s
 gsave  710 699 779 7 C 861.369 54.4979 t 0 r /Helvetica findfont 22.736 sf 0 0 m (5.26) show NC gr 
 gsave  710 699 779 7 C 944.63 54.4979 t 0 r /Helvetica findfont 22.736 sf 0 0 m (5.265) show NC gr 
 gsave  710 699 779 7 C 1040 54.4979 t 0 r /Helvetica findfont 22.736 sf 0 0 m (5.27) show NC gr 
 gsave  710 699 779 7 C 1121.75 54.4979 t 0 r /Helvetica findfont 22.736 sf 0 0 m (5.275) show NC gr 
 gsave  710 699 779 7 C 1217.12 54.4979 t 0 r /Helvetica findfont 22.736 sf 0 0 m (5.28) show NC gr 
 gsave  710 699 779 7 C 1300.38 54.4979 t 0 r /Helvetica findfont 22.736 sf 0 0 m (5.285) show NC gr 
 gsave  710 699 779 7 C 1394.24 54.4979 t 0 r /Helvetica findfont 22.736 sf 0 0 m (5.29) show NC gr 
 gsave  710 699 779 7 C 1254.96 31.7904 t 0 r /Helvetica findfont 22.736 sf 0 0 m (m_bc \(GeV/c^2\)) show NC gr  885 77 m 559 Y s 902 77 m -17 X s 894 102 m -9 X s 894 127 m -9 X s 894 152 m -9 X s 902 178 m -17 X s 894 203 m -9 X s 894 228 m -9 X s
 894 253 m -9 X s 902 278 m -17 X s 894 303 m -9 X s 894 329 m -9 X s 894 354 m -9 X s 902 379 m -17 X s 894 404 m -9 X s 894 429 m -9 X s 894 454 m -9 X s 902 480 m -17 X s 894 505 m -9 X s 894 530 m -9 X s 894 555 m -9 X s 902 580 m -17 X s 902 580
 m -17 X s 894 605 m -9 X s 894 631 m -9 X s
 gsave  710 699 779 7 C 868.938 68.1223 t 0 r /Helvetica findfont 22.736 sf 0 0 m (0) show NC gr 
 gsave  710 699 779 7 C 856.827 169.549 t 0 r /Helvetica findfont 22.736 sf 0 0 m (20) show NC gr 
 gsave  710 699 779 7 C 856.827 269.462 t 0 r /Helvetica findfont 22.736 sf 0 0 m (40) show NC gr 
 gsave  710 699 779 7 C 856.827 370.888 t 0 r /Helvetica findfont 22.736 sf 0 0 m (60) show NC gr 
 gsave  710 699 779 7 C 856.827 470.801 t 0 r /Helvetica findfont 22.736 sf 0 0 m (80) show NC gr 
 gsave  710 699 779 7 C 843.203 572.228 t 0 r /Helvetica findfont 22.736 sf 0 0 m (100) show NC gr 
 gsave  710 699 779 7 C 828.065 360.291 t 90 r /Helvetica findfont 22.736 sf 0 0 m (Events / \( 0.0003 GeV/c^2 \)) show NC gr  1 1 1 c black
 gsave  710 699 779 7 C 1041.51 672.14 t 0 r /Helvetica findfont 34.8619 sf 0 0 m (Background) show NC gr  888 127 m -3 X s 885 124 m 6 Y s 888 127 m 2 X s 890 124 m 6 Y s 888 127 m 22 Y s 885 149 m 6 X s 888 127 m -15 Y s 885 112 m 6 X s 893 163 m
 -3 X s 890 160 m 6 Y s 893 163 m 3 X s 896 160 m 6 Y s 893 163 m 26 Y s 890 189 m 6 X s 893 163 m -21 Y s 890 142 m 6 X s 898 117 m -2 X s 896 114 m 6 Y s 898 117 m 3 X s 901 114 m 6 Y s 898 117 m 20 Y s 895 137 m 7 X s 898 117 m -14 Y s 895 103 m 7
 X s 904 127 m -3 X s 901 124 m 6 Y s 904 127 m 2 X s 906 124 m 6 Y s 904 127 m 22 Y s 901 149 m 6 X s 904 127 m -15 Y s 901 112 m 6 X s 909 107 m -3 X s 906 104 m 6 Y s 909 107 m 3 X s 912 104 m 6 Y s 909 107 m 18 Y s 906 125 m 6 X s 909 107 m -12 Y
 s 906 95 m 6 X s 914 152 m -2 X s 912 149 m 7 Y s 914 152 m 3 X s 917 149 m 7 Y s 914 152 m 25 Y s 911 177 m 7 X s 914 152 m -19 Y s 911 133 m 7 X s 920 122 m -3 X s 917 119 m 6 Y s 920 122 m 2 X s 922 119 m 6 Y s 920 122 m 21 Y s 917 143 m 6 X s
 920 122 m -15 Y s 917 107 m 6 X s 925 112 m -3 X s 922 109 m 6 Y s 925 112 m 3 X s 928 109 m 6 Y s 925 112 m 19 Y s 922 131 m 6 X s 925 112 m -13 Y s 922 99 m 6 X s 930 137 m -2 X s 928 134 m 6 Y s 930 137 m 3 X s 933 134 m 6 Y s 930 137 m 23 Y s
 927 160 m 6 X s 930 137 m -17 Y s 927 120 m 6 X s 936 137 m -3 X s 933 134 m 6 Y s 936 137 m 2 X s 938 134 m 6 Y s 936 137 m 23 Y s 933 160 m 6 X s 936 137 m -17 Y s 933 120 m 6 X s 941 142 m -3 X s 938 139 m 6 Y s 941 142 m 3 X s 944 139 m 6 Y s
 941 142 m 24 Y s 938 166 m 6 X s 941 142 m -17 Y s 938 125 m 6 X s 946 132 m -2 X s 944 129 m 6 Y s 946 132 m 3 X s 949 129 m 6 Y s 946 132 m 23 Y s 943 155 m 6 X s 946 132 m -16 Y s 943 116 m 6 X s 952 112 m -3 X s 949 109 m 6 Y s 952 112 m 2 X s
 954 109 m 6 Y s 952 112 m 19 Y s 949 131 m 6 X s 952 112 m -13 Y s 949 99 m 6 X s 957 127 m -3 X s 954 124 m 6 Y s 957 127 m 3 X s 960 124 m 6 Y s 957 127 m 22 Y s 954 149 m 6 X s 957 127 m -15 Y s 954 112 m 6 X s 962 158 m -2 X s 960 155 m 6 Y s
 962 158 m 3 X s 965 155 m 6 Y s 962 158 m 25 Y s 959 183 m 6 X s 962 158 m -20 Y s 959 138 m 6 X s 968 137 m -3 X s 965 134 m 6 Y s 968 137 m 2 X s 970 134 m 6 Y s 968 137 m 23 Y s 965 160 m 6 X s 968 137 m -17 Y s 965 120 m 6 X s 973 142 m -3 X s
 970 139 m 6 Y s 973 142 m 3 X s 976 139 m 6 Y s 973 142 m 24 Y s 970 166 m 6 X s 973 142 m -17 Y s 970 125 m 6 X s 978 158 m -2 X s 976 155 m 6 Y s 978 158 m 3 X s 981 155 m 6 Y s 978 158 m 25 Y s 975 183 m 6 X s 978 158 m -20 Y s 975 138 m 6 X s
 984 132 m -3 X s 981 129 m 6 Y s 984 132 m 2 X s 986 129 m 6 Y s 984 132 m 23 Y s 981 155 m 6 X s 984 132 m -16 Y s 981 116 m 6 X s 989 107 m -3 X s 986 104 m 6 Y s 989 107 m 3 X s 992 104 m 6 Y s 989 107 m 18 Y s 986 125 m 6 X s 989 107 m -12 Y s
 986 95 m 6 X s 994 117 m -2 X s 992 114 m 6 Y s 994 117 m 3 X s 997 114 m 6 Y s 994 117 m 20 Y s 991 137 m 6 X s 994 117 m -14 Y s 991 103 m 6 X s 1000 142 m -3 X s 997 139 m 6 Y s 1000 142 m 2 X s 1002 139 m 6 Y s 1000 142 m 24 Y s 997 166 m 6 X s
 1000 142 m -17 Y s 997 125 m 6 X s 1005 132 m -3 X s 1002 129 m 6 Y s 1005 132 m 3 X s 1008 129 m 6 Y s 1005 132 m 23 Y s 1002 155 m 6 X s 1005 132 m -16 Y s 1002 116 m 6 X s 1010 152 m -2 X s 1008 149 m 7 Y s 1010 152 m 3 X s 1013 149 m 7 Y s 1010
 152 m 25 Y s 1007 177 m 6 X s 1010 152 m -19 Y s 1007 133 m 6 X s 1016 137 m -3 X s 1013 134 m 6 Y s 1016 137 m 2 X s 1018 134 m 6 Y s 1016 137 m 23 Y s 1013 160 m 6 X s 1016 137 m -17 Y s 1013 120 m 6 X s 1021 137 m -3 X s 1018 134 m 6 Y s 1021 137
 m 3 X s 1024 134 m 6 Y s 1021 137 m 23 Y s 1018 160 m 6 X s 1021 137 m -17 Y s 1018 120 m 6 X s 1026 132 m -2 X s 1024 129 m 6 Y s 1026 132 m 3 X s 1029 129 m 6 Y s 1026 132 m 23 Y s 1023 155 m 6 X s 1026 132 m -16 Y s 1023 116 m 6 X s 1032 142 m -3
 X s 1029 139 m 6 Y s 1032 142 m 2 X s 1034 139 m 6 Y s 1032 142 m 24 Y s 1029 166 m 6 X s 1032 142 m -17 Y s 1029 125 m 6 X s 1037 122 m -3 X s 1034 119 m 6 Y s 1037 122 m 3 X s 1040 119 m 6 Y s 1037 122 m 21 Y s 1034 143 m 6 X s 1037 122 m -15 Y s
 1034 107 m 6 X s 1042 147 m -2 X s 1040 144 m 6 Y s 1042 147 m 3 X s 1045 144 m 6 Y s 1042 147 m 25 Y s 1039 172 m 6 X s 1042 147 m -18 Y s 1039 129 m 6 X s 1048 137 m -3 X s 1045 134 m 6 Y s 1048 137 m 2 X s 1050 134 m 6 Y s 1048 137 m 23 Y s 1045
 160 m 6 X s 1048 137 m -17 Y s 1045 120 m 6 X s 1053 142 m -3 X s 1050 139 m 6 Y s 1053 142 m 3 X s 1056 139 m 6 Y s 1053 142 m 24 Y s 1050 166 m 6 X s 1053 142 m -17 Y s 1050 125 m 6 X s 1058 122 m -2 X s 1056 119 m 6 Y s 1058 122 m 3 X s 1061 119
 m 6 Y s 1058 122 m 21 Y s 1055 143 m 6 X s 1058 122 m -15 Y s 1055 107 m 6 X s 1064 132 m -3 X s 1061 129 m 6 Y s 1064 132 m 2 X s 1066 129 m 6 Y s 1064 132 m 23 Y s 1061 155 m 6 X s 1064 132 m -16 Y s 1061 116 m 6 X s 1069 147 m -3 X s 1066 144 m 6
 Y s 1069 147 m 3 X s 1072 144 m 6 Y s 1069 147 m 25 Y s 1066 172 m 6 X s 1069 147 m -18 Y s 1066 129 m 6 X s 1074 127 m -2 X s 1072 124 m 6 Y s 1074 127 m 3 X s 1077 124 m 6 Y s 1074 127 m 22 Y s 1071 149 m 6 X s 1074 127 m -15 Y s 1071 112 m 6 X s
 1080 168 m -3 X s 1077 165 m 6 Y s 1080 168 m 2 X s 1082 165 m 6 Y s 1080 168 m 26 Y s 1077 194 m 6 X s 1080 168 m -22 Y s 1077 146 m 6 X s 1085 112 m -3 X s 1082 109 m 6 Y s 1085 112 m 3 X s 1088 109 m 6 Y s 1085 112 m 19 Y s 1082 131 m 6 X s 1085
 112 m -13 Y s 1082 99 m 6 X s 1090 163 m -2 X s 1088 160 m 6 Y s 1090 163 m 3 X s 1093 160 m 6 Y s 1090 163 m 26 Y s 1087 189 m 6 X s 1090 163 m -21 Y s 1087 142 m 6 X s 1096 142 m -3 X s 1093 139 m 6 Y s 1096 142 m 2 X s 1098 139 m 6 Y s 1096 142 m
 24 Y s 1093 166 m 6 X s 1096 142 m -17 Y s 1093 125 m 6 X s 1101 152 m -3 X s 1098 149 m 7 Y s 1101 152 m 3 X s 1104 149 m 7 Y s 1101 152 m 25 Y s 1098 177 m 6 X s 1101 152 m -19 Y s 1098 133 m 6 X s 1106 183 m -2 X s 1104 180 m 6 Y s 1106 183 m 3 X
 s 1109 180 m 6 Y s 1106 183 m 28 Y s 1103 211 m 6 X s 1106 183 m -23 Y s 1103 160 m 6 X s 1112 243 m -3 X s 1109 240 m 6 Y s 1112 243 m 2 X s 1114 240 m 6 Y s 1112 243 m 34 Y s 1109 277 m 6 X s 1112 243 m -29 Y s 1109 214 m 6 X s 1117 168 m -3 X s
 1114 165 m 6 Y s 1117 168 m 3 X s 1120 165 m 6 Y s 1117 168 m 26 Y s 1114 194 m 6 X s 1117 168 m -22 Y s 1114 146 m 6 X s 1122 173 m -2 X s 1120 170 m 6 Y s 1122 173 m 3 X s 1125 170 m 6 Y s 1122 173 m 27 Y s 1119 200 m 6 X s 1122 173 m -22 Y s 1119
 151 m 6 X s 1128 163 m -3 X s 1125 160 m 6 Y s 1128 163 m 2 X s 1130 160 m 6 Y s 1128 163 m 26 Y s 1125 189 m 6 X s 1128 163 m -21 Y s 1125 142 m 6 X s 1133 198 m -3 X s 1130 195 m 6 Y s 1133 198 m 3 X s 1136 195 m 6 Y s 1133 198 m 30 Y s 1130 228 m
 6 X s 1133 198 m -25 Y s 1130 173 m 6 X s 1138 228 m -2 X s 1136 225 m 6 Y s 1138 228 m 3 X s 1141 225 m 6 Y s 1138 228 m 33 Y s 1135 261 m 6 X s 1138 228 m -27 Y s 1135 201 m 6 X s 1144 183 m -3 X s 1141 180 m 6 Y s 1144 183 m 2 X s 1146 180 m 6 Y
 s 1144 183 m 28 Y s 1141 211 m 6 X s 1144 183 m -23 Y s 1141 160 m 6 X s 1149 233 m -3 X s 1146 230 m 6 Y s 1149 233 m 3 X s 1152 230 m 6 Y s 1149 233 m 33 Y s 1146 266 m 6 X s 1149 233 m -28 Y s 1146 205 m 6 X s 1154 228 m -2 X s 1152 225 m 6 Y s
 1154 228 m 3 X s 1157 225 m 6 Y s 1154 228 m 33 Y s 1151 261 m 6 X s 1154 228 m -27 Y s 1151 201 m 6 X s 1160 193 m -3 X s 1157 190 m 6 Y s 1160 193 m 2 X s 1162 190 m 6 Y s 1160 193 m 29 Y s 1157 222 m 6 X s 1160 193 m -24 Y s 1157 169 m 6 X s 1165
 258 m -3 X s 1162 255 m 6 Y s 1165 258 m 3 X s 1168 255 m 6 Y s 1165 258 m 36 Y s 1162 294 m 6 X s 1165 258 m -30 Y s 1162 228 m 6 X s 1170 324 m -2 X s 1168 321 m 6 Y s 1170 324 m 3 X s 1173 321 m 6 Y s 1170 324 m 40 Y s 1167 364 m 6 X s 1170 324 m
 -35 Y s 1167 289 m 6 X s 1176 349 m -3 X s 1173 346 m 6 Y s 1176 349 m 2 X s 1178 346 m 6 Y s 1176 349 m 42 Y s 1173 391 m 6 X s 1176 349 m -37 Y s 1173 312 m 6 X s 1181 238 m -3 X s 1178 235 m 6 Y s 1181 238 m 3 X s 1184 235 m 6 Y s 1181 238 m 34 Y
 s 1178 272 m 6 X s 1181 238 m -28 Y s 1178 210 m 6 X s 1186 334 m -2 X s 1184 331 m 6 Y s 1186 334 m 3 X s 1189 331 m 6 Y s 1186 334 m 41 Y s 1183 375 m 6 X s 1186 334 m -36 Y s 1183 298 m 6 X s 1192 273 m -3 X s 1189 270 m 6 Y s 1192 273 m 2 X s
 1194 270 m 6 Y s 1192 273 m 37 Y s 1189 310 m 6 X s 1192 273 m -31 Y s 1189 242 m 6 X s 1197 339 m -3 X s 1194 336 m 6 Y s 1197 339 m 3 X s 1200 336 m 6 Y s 1197 339 m 41 Y s 1194 380 m 6 X s 1197 339 m -36 Y s 1194 303 m 6 X s 1202 404 m -2 X s
 1200 401 m 6 Y s 1202 404 m 3 X s 1205 401 m 6 Y s 1202 404 m 46 Y s 1199 450 m 6 X s 1202 404 m -40 Y s 1199 364 m 6 X s 1208 465 m -3 X s 1205 462 m 6 Y s 1208 465 m 2 X s 1210 462 m 6 Y s 1208 465 m 49 Y s 1205 514 m 6 X s 1208 465 m -45 Y s 1205
 420 m 6 X s 1213 404 m -3 X s 1210 401 m 6 Y s 1213 404 m 3 X s 1216 401 m 6 Y s 1213 404 m 46 Y s 1210 450 m 6 X s 1213 404 m -40 Y s 1210 364 m 6 X s 1218 434 m -2 X s 1216 431 m 6 Y s 1218 434 m 3 X s 1221 431 m 6 Y s 1218 434 m 48 Y s 1215 482 m
 6 X s 1218 434 m -42 Y s 1215 392 m 6 X s 1224 475 m -3 X s 1221 472 m 6 Y s 1224 475 m 2 X s 1226 472 m 6 Y s 1224 475 m 50 Y s 1221 525 m 6 X s 1224 475 m -45 Y s 1221 430 m 6 X s 1229 465 m -3 X s 1226 462 m 6 Y s 1229 465 m 3 X s 1232 462 m 6 Y
 s 1229 465 m 49 Y s 1226 514 m 6 X s 1229 465 m -45 Y s 1226 420 m 6 X s 1234 510 m -2 X s 1232 507 m 6 Y s 1234 510 m 3 X s 1237 507 m 6 Y s 1234 510 m 52 Y s 1231 562 m 6 X s 1234 510 m -47 Y s 1231 463 m 6 X s 1240 520 m -3 X s 1237 517 m 6 Y s
 1240 520 m 2 X s 1242 517 m 6 Y s 1240 520 m 52 Y s 1237 572 m 6 X s 1240 520 m -47 Y s 1237 473 m 6 X s 1245 490 m -3 X s 1242 487 m 6 Y s 1245 490 m 3 X s 1248 487 m 6 Y s 1245 490 m 50 Y s 1242 540 m 6 X s 1245 490 m -46 Y s 1242 444 m 6 X s 1250
 550 m -2 X s 1248 547 m 6 Y s 1250 550 m 3 X s 1253 547 m 6 Y s 1250 550 m 54 Y s 1247 604 m 6 X s 1250 550 m -49 Y s 1247 501 m 6 X s 1256 555 m -3 X s 1253 552 m 6 Y s 1256 555 m 2 X s 1258 552 m 6 Y s 1256 555 m 54 Y s 1253 609 m 6 X s 1256 555 m
 -49 Y s 1253 506 m 6 X s 1261 515 m -3 X s 1258 512 m 6 Y s 1261 515 m 3 X s 1264 512 m 6 Y s 1261 515 m 52 Y s 1258 567 m 6 X s 1261 515 m -47 Y s 1258 468 m 6 X s 1266 429 m -2 X s 1264 426 m 6 Y s 1266 429 m 3 X s 1269 426 m 6 Y s 1266 429 m 48 Y
 s 1263 477 m 6 X s 1266 429 m -42 Y s 1263 387 m 6 X s 1272 434 m -3 X s 1269 431 m 6 Y s 1272 434 m 2 X s 1274 431 m 6 Y s 1272 434 m 48 Y s 1268 482 m 7 X s 1272 434 m -42 Y s 1268 392 m 7 X s 1277 460 m -3 X s 1274 456 m 7 Y s 1277 460 m 3 X s
 1280 456 m 7 Y s 1277 460 m 49 Y s 1274 509 m 6 X s 1277 460 m -44 Y s 1274 416 m 6 X s 1282 394 m -2 X s 1280 391 m 6 Y s 1282 394 m 3 X s 1285 391 m 6 Y s 1282 394 m 45 Y s 1279 439 m 6 X s 1282 394 m -40 Y s 1279 354 m 6 X s 1288 510 m -3 X s
 1285 507 m 6 Y s 1288 510 m 2 X s 1290 507 m 6 Y s 1288 510 m 52 Y s 1284 562 m 7 X s 1288 510 m -47 Y s 1284 463 m 7 X s 1293 439 m -3 X s 1290 436 m 6 Y s 1293 439 m 3 X s 1296 436 m 6 Y s 1293 439 m 48 Y s 1290 487 m 6 X s 1293 439 m -42 Y s 1290
 397 m 6 X s 1298 379 m -2 X s 1296 376 m 6 Y s 1298 379 m 3 X s 1301 376 m 6 Y s 1298 379 m 44 Y s 1295 423 m 6 X s 1298 379 m -39 Y s 1295 340 m 6 X s 1304 379 m -3 X s 1301 376 m 6 Y s 1304 379 m 2 X s 1306 376 m 6 Y s 1304 379 m 44 Y s 1300 423 m
 7 X s 1304 379 m -39 Y s 1300 340 m 7 X s 1309 278 m -3 X s 1306 275 m 6 Y s 1309 278 m 2 X s 1311 275 m 6 Y s 1309 278 m 37 Y s 1306 315 m 6 X s 1309 278 m -31 Y s 1306 247 m 6 X s 1314 243 m -3 X s 1311 240 m 6 Y s 1314 243 m 3 X s 1317 240 m 6 Y
 s 1314 243 m 34 Y s 1311 277 m 6 X s 1314 243 m -29 Y s 1311 214 m 6 X s 1319 314 m -2 X s 1317 311 m 6 Y s 1319 314 m 3 X s 1322 311 m 6 Y s 1319 314 m 39 Y s 1316 353 m 7 X s 1319 314 m -35 Y s 1316 279 m 7 X s 1325 208 m -3 X s 1322 205 m 6 Y s
 1325 208 m 2 X s 1327 205 m 6 Y s 1325 208 m 31 Y s 1322 239 m 6 X s 1325 208 m -26 Y s 1322 182 m 6 X s 1330 208 m -3 X s 1327 205 m 6 Y s 1330 208 m 3 X s 1333 205 m 6 Y s 1330 208 m 31 Y s 1327 239 m 6 X s 1330 208 m -26 Y s 1327 182 m 6 X s 1335
 198 m -2 X s 1333 195 m 6 Y s 1335 198 m 3 X s 1338 195 m 6 Y s 1335 198 m 30 Y s 1332 228 m 7 X s 1335 198 m -25 Y s 1332 173 m 7 X s 1341 183 m -3 X s 1338 180 m 6 Y s 1341 183 m 2 X s 1343 180 m 6 Y s 1341 183 m 28 Y s 1338 211 m 6 X s 1341 183 m
 -23 Y s 1338 160 m 6 X s 1346 168 m -3 X s 1343 165 m 6 Y s 1346 168 m 3 X s 1349 165 m 6 Y s 1346 168 m 26 Y s 1343 194 m 6 X s 1346 168 m -22 Y s 1343 146 m 6 X s 1351 158 m -2 X s 1349 155 m 6 Y s 1351 158 m 3 X s 1354 155 m 6 Y s 1351 158 m 25 Y
 s 1348 183 m 6 X s 1351 158 m -20 Y s 1348 138 m 6 X s 1357 142 m -3 X s 1354 139 m 6 Y s 1357 142 m 2 X s 1359 139 m 6 Y s 1357 142 m 24 Y s 1354 166 m 6 X s 1357 142 m -17 Y s 1354 125 m 6 X s 1362 117 m -3 X s 1359 114 m 6 Y s 1362 117 m 3 X s
 1365 114 m 6 Y s 1362 117 m 20 Y s 1359 137 m 6 X s 1362 117 m -14 Y s 1359 103 m 6 X s 1367 147 m -2 X s 1365 144 m 6 Y s 1367 147 m 3 X s 1370 144 m 6 Y s 1367 147 m 25 Y s 1364 172 m 6 X s 1367 147 m -18 Y s 1364 129 m 6 X s 1373 132 m -3 X s
 1370 129 m 6 Y s 1373 132 m 2 X s 1375 129 m 6 Y s 1373 132 m 23 Y s 1370 155 m 6 X s 1373 132 m -16 Y s 1370 116 m 6 X s 1378 107 m -3 X s 1375 104 m 6 Y s 1378 107 m 3 X s 1381 104 m 6 Y s 1378 107 m 18 Y s 1375 125 m 6 X s 1378 107 m -12 Y s 1375
 95 m 6 X s 1383 112 m -2 X s 1381 109 m 6 Y s 1383 112 m 3 X s 1386 109 m 6 Y s 1383 112 m 19 Y s 1380 131 m 6 X s 1383 112 m -13 Y s 1380 99 m 6 X s 1389 92 m -3 X s 1386 89 m 6 Y s 1389 92 m 2 X s 1391 89 m 6 Y s 1389 92 m 15 Y s 1386 107 m 6 X s
 1389 92 m -8 Y s 1386 84 m 6 X s 1394 107 m -3 X s 1391 104 m 6 Y s 1394 107 m 3 X s 1397 104 m 6 Y s 1394 107 m 18 Y s 1391 125 m 6 X s 1394 107 m -12 Y s 1391 95 m 6 X s 1399 82 m -2 X s 1397 79 m 6 Y s 1399 82 m 3 X s 1402 79 m 6 Y s 1399 82 m 12
 Y s 1396 94 m 6 X s 1399 82 m -4 Y s 1396 78 m 6 X s 1405 97 m -3 X s 1402 94 m 6 Y s 1405 97 m 2 X s 1407 94 m 6 Y s 1405 97 m 16 Y s 1402 113 m 6 X s 1405 97 m -9 Y s 1402 88 m 6 X s 1410 112 m -3 X s 1407 109 m 6 Y s 1410 112 m 3 X s 1413 109 m 6
 Y s 1410 112 m 19 Y s 1407 131 m 6 X s 1410 112 m -13 Y s 1407 99 m 6 X s 1415 87 m -2 X s 1413 84 m 6 Y s 1415 87 m 3 X s 1418 84 m 6 Y s 1415 87 m 13 Y s 1412 100 m 6 X s 1415 87 m -6 Y s 1412 81 m 6 X s 1 1 1 c black 888 127 893 163 898 117 904
 127 909 107 914 152 920 122 925 112 930 137 936 137 941 142 946 132 952 112 957 127 962 158 968 137 973 142 978 158 984 132 989 107 994 117 1000 142 1005 132 1010 152 1016 137 1021 137 1026 132 1032 142 1037 122 1042 147 1048 137 1053 142 1058 122
 1064 132 1069 147 1074 127 1080 168 1085 112 1090 163 1096 142 1101 152 1106 183 1112 243 1117 168 1122 173 1128 163 1133 198 1138 228 1144 183 1149 233 1154 228 1160 193 1165 258 1170 324 1176 349 1181 238 1186 334 1192 273 1197 339 1202 404 1208
 465 1213 404 1218 434 1224 475 1229 465 1234 510 1240 520 1245 490 1250 550 1256 555 1261 515 1266 429 1272 434 1277 460 1282 394 1288 510 1293 439 1298 379 1304 379 1309 278 1314 243 1319 314 1325 208 1330 208 1335 198 1341 183 1346 168 1351 158
 1357 142 1362 117 1367 147 1373 132 1378 107 1383 112 1389 92 1394 107 1399 82 1405 97 1410 112 1415 87 100 { m20} R 0 0 1 c 9 lw 1 1 1 c black 0 0 1 c 885 137 m cl s 885 137 m 43 X 5 1 d 123 X 5 1 d 11 X 5 1 d 5 X 6 1 d 5 1 d 5 2 d 6 2 d 5 2 d 5 4
 d 6 4 d 5 5 d 5 6 d 6 7 d 5 9 d 5 10 d 6 12 d 5 14 d 5 15 d 6 17 d 5 19 d 5 20 d 6 22 d 5 22 d 5 23 d 6 23 d 5 23 d 5 22 d 6 20 d 5 18 d 5 16 d 6 14 d 2 5 d 3 4 d 3 4 d 2 2 d 3 2 d 3 1 d 2 -1 d 3 -1 d 3 -2 d 2 -4 d 3 -4 d 3 -5 d 5 -13 d 5 -16 d 6
 -18 d 5 -21 d 5 -22 d 6 -24 d 5 -24 d 5 -24 d 5 -24 d 6 -23 d 5 -22 d 5 -20 d 6 -19 d 5 -17 d 5 -16 d 6 -14 d 5 -12 d 5 -11 d 6 -10 d 5 -8 d 5 -7 d 6 -7 d 5 -5 d 5 -5 d 6 -5 d 5 -5 d 5 -5 d 6 -6 d 2 -3 d 2 -3 d -2 Y 1 -4 d s black 3 lw 885 77 m 533
 X s 885 93 m -16 Y s 903 85 m -8 Y s 921 85 m -8 Y s 938 85 m -8 Y s 956 85 m -8 Y s 974 93 m -16 Y s 992 85 m -8 Y s 1010 85 m -8 Y s 1027 85 m -8 Y s 1045 85 m -8 Y s 1063 93 m -16 Y s 1081 85 m -8 Y s 1098 85 m -8 Y s 1116 85 m -8 Y s 1134 85 m
 -8 Y s 1152 93 m -16 Y s 1169 85 m -8 Y s 1187 85 m -8 Y s 1205 85 m -8 Y s 1223 85 m -8 Y s 1240 93 m -16 Y s 1258 85 m -8 Y s 1276 85 m -8 Y s 1294 85 m -8 Y s 1311 85 m -8 Y s 1329 93 m -16 Y s 1347 85 m -8 Y s 1365 85 m -8 Y s 1383 85 m -8 Y s
 1400 85 m -8 Y s 1418 93 m -16 Y s 885 77 m 559 Y s 902 77 m -17 X s 894 102 m -9 X s 894 127 m -9 X s 894 152 m -9 X s 902 178 m -17 X s 894 203 m -9 X s 894 228 m -9 X s 894 253 m -9 X s 902 278 m -17 X s 894 303 m -9 X s 894 329 m -9 X s 894 354
 m -9 X s 902 379 m -17 X s 894 404 m -9 X s 894 429 m -9 X s 894 454 m -9 X s 902 480 m -17 X s 894 505 m -9 X s 894 530 m -9 X s 894 555 m -9 X s 902 580 m -17 X s 902 580 m -17 X s 894 605 m -9 X s 894 631 m -9 X s 1 1 1 c black
 gsave  710 699 779 7 C 1041.51 672.14 t 0 r /Helvetica findfont 34.8619 sf 0 0 m (Background) show NC gr  1 1 1 c 711 699 1534 7 bf black 1 1 1 c 533 559 1641 77 bf black 533 559 1641 77 bl 1641 77 m 533 X s 1641 93 m -16 Y s 1659 85 m -8 Y s 1677
 85 m -8 Y s 1694 85 m -8 Y s 1712 85 m -8 Y s 1730 93 m -16 Y s 1748 85 m -8 Y s 1765 85 m -8 Y s 1783 85 m -8 Y s 1801 85 m -8 Y s 1819 93 m -16 Y s 1836 85 m -8 Y s 1854 85 m -8 Y s 1872 85 m -8 Y s 1890 85 m -8 Y s 1908 93 m -16 Y s 1925 85 m -8
 Y s 1943 85 m -8 Y s 1961 85 m -8 Y s 1979 85 m -8 Y s 1996 93 m -16 Y s 2014 85 m -8 Y s 2032 85 m -8 Y s 2050 85 m -8 Y s 2067 85 m -8 Y s 2085 93 m -16 Y s 2103 85 m -8 Y s 2121 85 m -8 Y s 2138 85 m -8 Y s 2156 85 m -8 Y s 2174 93 m -16 Y s
 gsave  711 699 1534 7 C 1618.28 54.4979 t 0 r /Helvetica findfont 22.736 sf 0 0 m (5.26) show NC gr 
 gsave  711 699 1534 7 C 1700.03 54.4979 t 0 r /Helvetica findfont 22.736 sf 0 0 m (5.265) show NC gr 
 gsave  711 699 1534 7 C 1795.4 54.4979 t 0 r /Helvetica findfont 22.736 sf 0 0 m (5.27) show NC gr 
 gsave  711 699 1534 7 C 1878.66 54.4979 t 0 r /Helvetica findfont 22.736 sf 0 0 m (5.275) show NC gr 
 gsave  711 699 1534 7 C 1972.52 54.4979 t 0 r /Helvetica findfont 22.736 sf 0 0 m (5.28) show NC gr 
 gsave  711 699 1534 7 C 2055.78 54.4979 t 0 r /Helvetica findfont 22.736 sf 0 0 m (5.285) show NC gr 
 gsave  711 699 1534 7 C 2151.15 54.4979 t 0 r /Helvetica findfont 22.736 sf 0 0 m (5.29) show NC gr 
 gsave  711 699 1534 7 C 2011.88 31.7904 t 0 r /Helvetica findfont 22.736 sf 0 0 m (m_bc \(GeV/c^2\)) show NC gr  1641 77 m 559 Y s 1658 77 m -17 X s 1650 97 m -9 X s 1650 117 m -9 X s 1650 137 m -9 X s 1650 157 m -9 X s 1658 177 m -17 X s 1650 197 m
 -9 X s 1650 217 m -9 X s 1650 238 m -9 X s 1650 258 m -9 X s 1658 278 m -17 X s 1650 298 m -9 X s 1650 318 m -9 X s 1650 338 m -9 X s 1650 358 m -9 X s 1658 378 m -17 X s 1650 398 m -9 X s 1650 418 m -9 X s 1650 438 m -9 X s 1650 458 m -9 X s 1658
 478 m -17 X s 1650 498 m -9 X s 1650 519 m -9 X s 1650 539 m -9 X s 1650 559 m -9 X s 1658 579 m -17 X s 1658 579 m -17 X s 1650 599 m -9 X s 1650 619 m -9 X s
 gsave  711 699 1534 7 C 1624.34 68.1223 t 0 r /Helvetica findfont 22.736 sf 0 0 m (0) show NC gr 
 gsave  711 699 1534 7 C 1612.23 169.549 t 0 r /Helvetica findfont 22.736 sf 0 0 m (50) show NC gr 
 gsave  711 699 1534 7 C 1598.6 269.462 t 0 r /Helvetica findfont 22.736 sf 0 0 m (100) show NC gr 
 gsave  711 699 1534 7 C 1598.6 369.374 t 0 r /Helvetica findfont 22.736 sf 0 0 m (150) show NC gr 
 gsave  711 699 1534 7 C 1598.6 469.287 t 0 r /Helvetica findfont 22.736 sf 0 0 m (200) show NC gr 
 gsave  711 699 1534 7 C 1598.6 570.714 t 0 r /Helvetica findfont 22.736 sf 0 0 m (250) show NC gr 
 gsave  711 699 1534 7 C 1583.47 360.291 t 90 r /Helvetica findfont 22.736 sf 0 0 m (Events / \( 0.0003 GeV/c^2 \)) show NC gr  1 1 1 c black
 gsave  711 699 1534 7 C 1728.79 670.626 t 0 r /Helvetica findfont 34.8619 sf 0 0 m (Signal + Background) show NC gr  1644 119 m -3 X s 1641 116 m 6 Y s 1644 119 m 2 X s 1646 116 m 6 Y s 1644 119 m 11 Y s 1641 130 m 6 X s 1644 119 m -9 Y s 1641 110 m
 6 X s 1649 125 m -3 X s 1646 122 m 6 Y s 1649 125 m 3 X s 1652 122 m 6 Y s 1649 125 m 12 Y s 1646 137 m 6 X s 1649 125 m -10 Y s 1646 115 m 6 X s 1654 115 m -2 X s 1652 112 m 6 Y s 1654 115 m 3 X s 1657 112 m 6 Y s 1654 115 m 11 Y s 1651 126 m 6 X s
 1654 115 m -9 Y s 1651 106 m 6 X s 1660 115 m -3 X s 1657 112 m 6 Y s 1660 115 m 2 X s 1662 112 m 6 Y s 1660 115 m 11 Y s 1657 126 m 6 X s 1660 115 m -9 Y s 1657 106 m 6 X s 1665 119 m -3 X s 1662 116 m 6 Y s 1665 119 m 3 X s 1668 116 m 6 Y s 1665
 119 m 11 Y s 1662 130 m 6 X s 1665 119 m -9 Y s 1662 110 m 6 X s 1670 113 m -2 X s 1668 110 m 6 Y s 1670 113 m 3 X s 1673 110 m 6 Y s 1670 113 m 11 Y s 1667 124 m 6 X s 1670 113 m -8 Y s 1667 105 m 6 X s 1676 113 m -3 X s 1673 110 m 6 Y s 1676 113 m
 2 X s 1678 110 m 6 Y s 1676 113 m 11 Y s 1673 124 m 6 X s 1676 113 m -8 Y s 1673 105 m 6 X s 1681 115 m -3 X s 1678 112 m 6 Y s 1681 115 m 3 X s 1684 112 m 6 Y s 1681 115 m 11 Y s 1678 126 m 6 X s 1681 115 m -9 Y s 1678 106 m 6 X s 1686 115 m -2 X s
 1684 112 m 6 Y s 1686 115 m 3 X s 1689 112 m 6 Y s 1686 115 m 11 Y s 1683 126 m 6 X s 1686 115 m -9 Y s 1683 106 m 6 X s 1692 123 m -3 X s 1689 120 m 6 Y s 1692 123 m 2 X s 1694 120 m 6 Y s 1692 123 m 12 Y s 1689 135 m 6 X s 1692 123 m -9 Y s 1689
 114 m 6 X s 1697 109 m -3 X s 1694 106 m 6 Y s 1697 109 m 3 X s 1700 106 m 6 Y s 1697 109 m 10 Y s 1694 119 m 6 X s 1697 109 m -8 Y s 1694 101 m 6 X s 1702 97 m -2 X s 1700 94 m 6 Y s 1702 97 m 3 X s 1705 94 m 6 Y s 1702 97 m 9 Y s 1699 106 m 6 X s
 1702 97 m -6 Y s 1699 91 m 6 X s 1708 111 m -3 X s 1705 108 m 6 Y s 1708 111 m 2 X s 1710 108 m 6 Y s 1708 111 m 11 Y s 1705 122 m 6 X s 1708 111 m -8 Y s 1705 103 m 6 X s 1713 125 m -3 X s 1710 122 m 6 Y s 1713 125 m 3 X s 1716 122 m 6 Y s 1713 125
 m 12 Y s 1710 137 m 6 X s 1713 125 m -10 Y s 1710 115 m 6 X s 1718 133 m -2 X s 1716 130 m 6 Y s 1718 133 m 3 X s 1721 130 m 6 Y s 1718 133 m 13 Y s 1715 146 m 6 X s 1718 133 m -10 Y s 1715 123 m 6 X s 1724 123 m -3 X s 1721 120 m 6 Y s 1724 123 m 2
 X s 1726 120 m 6 Y s 1724 123 m 12 Y s 1721 135 m 6 X s 1724 123 m -9 Y s 1721 114 m 6 X s 1729 113 m -3 X s 1726 110 m 6 Y s 1729 113 m 3 X s 1732 110 m 6 Y s 1729 113 m 11 Y s 1726 124 m 6 X s 1729 113 m -8 Y s 1726 105 m 6 X s 1734 125 m -2 X s
 1732 122 m 6 Y s 1734 125 m 3 X s 1737 122 m 6 Y s 1734 125 m 12 Y s 1731 137 m 6 X s 1734 125 m -10 Y s 1731 115 m 6 X s 1740 105 m -3 X s 1737 102 m 6 Y s 1740 105 m 2 X s 1742 102 m 6 Y s 1740 105 m 10 Y s 1737 115 m 6 X s 1740 105 m -7 Y s 1737
 98 m 6 X s 1745 119 m -3 X s 1742 116 m 6 Y s 1745 119 m 3 X s 1748 116 m 6 Y s 1745 119 m 11 Y s 1742 130 m 6 X s 1745 119 m -9 Y s 1742 110 m 6 X s 1750 117 m -2 X s 1748 114 m 6 Y s 1750 117 m 3 X s 1753 114 m 6 Y s 1750 117 m 11 Y s 1747 128 m 6
 X s 1750 117 m -9 Y s 1747 108 m 6 X s 1756 129 m -3 X s 1753 126 m 6 Y s 1756 129 m 2 X s 1758 126 m 6 Y s 1756 129 m 13 Y s 1753 142 m 6 X s 1756 129 m -10 Y s 1753 119 m 6 X s 1761 109 m -3 X s 1758 106 m 6 Y s 1761 109 m 3 X s 1764 106 m 6 Y s
 1761 109 m 10 Y s 1758 119 m 6 X s 1761 109 m -8 Y s 1758 101 m 6 X s 1766 101 m -2 X s 1764 98 m 6 Y s 1766 101 m 3 X s 1769 98 m 6 Y s 1766 101 m 9 Y s 1763 110 m 6 X s 1766 101 m -7 Y s 1763 94 m 6 X s 1772 109 m -3 X s 1769 106 m 6 Y s 1772 109
 m 2 X s 1774 106 m 6 Y s 1772 109 m 10 Y s 1769 119 m 6 X s 1772 109 m -8 Y s 1769 101 m 6 X s 1777 135 m -3 X s 1774 132 m 6 Y s 1777 135 m 3 X s 1780 132 m 6 Y s 1777 135 m 13 Y s 1774 148 m 6 X s 1777 135 m -11 Y s 1774 124 m 6 X s 1782 115 m -2
 X s 1780 112 m 6 Y s 1782 115 m 3 X s 1785 112 m 6 Y s 1782 115 m 11 Y s 1779 126 m 6 X s 1782 115 m -9 Y s 1779 106 m 6 X s 1788 107 m -3 X s 1785 104 m 6 Y s 1788 107 m 2 X s 1790 104 m 6 Y s 1788 107 m 10 Y s 1785 117 m 6 X s 1788 107 m -8 Y s
 1785 99 m 6 X s 1793 113 m -3 X s 1790 110 m 6 Y s 1793 113 m 3 X s 1796 110 m 6 Y s 1793 113 m 11 Y s 1790 124 m 6 X s 1793 113 m -8 Y s 1790 105 m 6 X s 1798 103 m -2 X s 1796 100 m 6 Y s 1798 103 m 3 X s 1801 100 m 6 Y s 1798 103 m 10 Y s 1795
 113 m 6 X s 1798 103 m -7 Y s 1795 96 m 6 X s 1804 109 m -3 X s 1801 106 m 6 Y s 1804 109 m 2 X s 1806 106 m 6 Y s 1804 109 m 10 Y s 1801 119 m 6 X s 1804 109 m -8 Y s 1801 101 m 6 X s 1809 105 m -3 X s 1806 102 m 6 Y s 1809 105 m 3 X s 1812 102 m 6
 Y s 1809 105 m 10 Y s 1806 115 m 6 X s 1809 105 m -7 Y s 1806 98 m 6 X s 1814 127 m -2 X s 1812 124 m 6 Y s 1814 127 m 3 X s 1817 124 m 6 Y s 1814 127 m 12 Y s 1811 139 m 6 X s 1814 127 m -10 Y s 1811 117 m 6 X s 1820 117 m -3 X s 1817 114 m 6 Y s
 1820 117 m 2 X s 1822 114 m 6 Y s 1820 117 m 11 Y s 1817 128 m 6 X s 1820 117 m -9 Y s 1817 108 m 6 X s 1825 129 m -3 X s 1822 126 m 6 Y s 1825 129 m 3 X s 1828 126 m 6 Y s 1825 129 m 13 Y s 1822 142 m 6 X s 1825 129 m -10 Y s 1822 119 m 6 X s 1830
 111 m -2 X s 1828 108 m 6 Y s 1830 111 m 3 X s 1833 108 m 6 Y s 1830 111 m 11 Y s 1827 122 m 6 X s 1830 111 m -8 Y s 1827 103 m 6 X s 1836 129 m -3 X s 1833 126 m 6 Y s 1836 129 m 2 X s 1838 126 m 6 Y s 1836 129 m 13 Y s 1833 142 m 6 X s 1836 129 m
 -10 Y s 1833 119 m 6 X s 1841 123 m -3 X s 1838 120 m 6 Y s 1841 123 m 3 X s 1844 120 m 6 Y s 1841 123 m 12 Y s 1838 135 m 6 X s 1841 123 m -9 Y s 1838 114 m 6 X s 1846 119 m -2 X s 1844 116 m 6 Y s 1846 119 m 3 X s 1849 116 m 6 Y s 1846 119 m 11 Y
 s 1843 130 m 6 X s 1846 119 m -9 Y s 1843 110 m 6 X s 1852 127 m -3 X s 1849 124 m 6 Y s 1852 127 m 2 X s 1854 124 m 6 Y s 1852 127 m 12 Y s 1849 139 m 6 X s 1852 127 m -10 Y s 1849 117 m 6 X s 1857 111 m -3 X s 1854 108 m 6 Y s 1857 111 m 3 X s
 1860 108 m 6 Y s 1857 111 m 11 Y s 1854 122 m 6 X s 1857 111 m -8 Y s 1854 103 m 6 X s 1862 103 m -2 X s 1860 100 m 6 Y s 1862 103 m 3 X s 1865 100 m 6 Y s 1862 103 m 10 Y s 1859 113 m 6 X s 1862 103 m -7 Y s 1859 96 m 6 X s 1868 105 m -3 X s 1865
 102 m 6 Y s 1868 105 m 2 X s 1870 102 m 6 Y s 1868 105 m 10 Y s 1865 115 m 6 X s 1868 105 m -7 Y s 1865 98 m 6 X s 1873 119 m -3 X s 1870 116 m 6 Y s 1873 119 m 3 X s 1876 116 m 6 Y s 1873 119 m 11 Y s 1870 130 m 6 X s 1873 119 m -9 Y s 1870 110 m 6
 X s 1878 123 m -2 X s 1876 120 m 6 Y s 1878 123 m 3 X s 1881 120 m 6 Y s 1878 123 m 12 Y s 1875 135 m 6 X s 1878 123 m -9 Y s 1875 114 m 6 X s 1884 117 m -3 X s 1881 114 m 6 Y s 1884 117 m 2 X s 1886 114 m 6 Y s 1884 117 m 11 Y s 1881 128 m 6 X s
 1884 117 m -9 Y s 1881 108 m 6 X s 1889 133 m -3 X s 1886 130 m 6 Y s 1889 133 m 3 X s 1892 130 m 6 Y s 1889 133 m 13 Y s 1886 146 m 6 X s 1889 133 m -10 Y s 1886 123 m 6 X s 1894 155 m -2 X s 1892 152 m 6 Y s 1894 155 m 3 X s 1897 152 m 6 Y s 1894
 155 m 15 Y s 1891 170 m 6 X s 1894 155 m -12 Y s 1891 143 m 6 X s 1900 149 m -3 X s 1897 146 m 6 Y s 1900 149 m 2 X s 1902 146 m 6 Y s 1900 149 m 14 Y s 1897 163 m 6 X s 1900 149 m -12 Y s 1897 137 m 6 X s 1905 135 m -3 X s 1902 132 m 6 Y s 1905 135
 m 3 X s 1908 132 m 6 Y s 1905 135 m 13 Y s 1902 148 m 6 X s 1905 135 m -11 Y s 1902 124 m 6 X s 1910 143 m -2 X s 1908 140 m 6 Y s 1910 143 m 3 X s 1913 140 m 6 Y s 1910 143 m 14 Y s 1907 157 m 6 X s 1910 143 m -11 Y s 1907 132 m 6 X s 1916 179 m -3
 X s 1913 176 m 6 Y s 1916 179 m 2 X s 1918 176 m 6 Y s 1916 179 m 17 Y s 1912 196 m 7 X s 1916 179 m -14 Y s 1912 165 m 7 X s 1921 173 m -3 X s 1918 170 m 6 Y s 1921 173 m 3 X s 1924 170 m 6 Y s 1921 173 m 16 Y s 1918 189 m 6 X s 1921 173 m -14 Y s
 1918 159 m 6 X s 1926 211 m -2 X s 1924 208 m 6 Y s 1926 211 m 3 X s 1929 208 m 6 Y s 1926 211 m 19 Y s 1923 230 m 6 X s 1926 211 m -16 Y s 1923 195 m 6 X s 1932 221 m -3 X s 1929 218 m 7 Y s 1932 221 m 2 X s 1934 218 m 7 Y s 1932 221 m 20 Y s 1928
 241 m 7 X s 1932 221 m -16 Y s 1928 205 m 7 X s 1937 236 m -3 X s 1934 233 m 6 Y s 1937 236 m 3 X s 1940 233 m 6 Y s 1937 236 m 19 Y s 1934 255 m 6 X s 1937 236 m -18 Y s 1934 218 m 6 X s 1942 276 m -2 X s 1940 273 m 6 Y s 1942 276 m 3 X s 1945 273
 m 6 Y s 1942 276 m 22 Y s 1939 298 m 6 X s 1942 276 m -20 Y s 1939 256 m 6 X s 1947 300 m -2 X s 1945 297 m 6 Y s 1947 300 m 3 X s 1950 297 m 6 Y s 1947 300 m 22 Y s 1944 322 m 7 X s 1947 300 m -20 Y s 1944 280 m 7 X s 1953 356 m -3 X s 1950 353 m 6
 Y s 1953 356 m 2 X s 1955 353 m 6 Y s 1953 356 m 25 Y s 1950 381 m 6 X s 1953 356 m -23 Y s 1950 333 m 6 X s 1958 390 m -3 X s 1955 387 m 6 Y s 1958 390 m 3 X s 1961 387 m 6 Y s 1958 390 m 26 Y s 1955 416 m 6 X s 1958 390 m -24 Y s 1955 366 m 6 X s
 1963 432 m -2 X s 1961 429 m 6 Y s 1963 432 m 3 X s 1966 429 m 6 Y s 1963 432 m 28 Y s 1960 460 m 7 X s 1963 432 m -26 Y s 1960 406 m 7 X s 1969 408 m -3 X s 1966 405 m 6 Y s 1969 408 m 2 X s 1971 405 m 6 Y s 1969 408 m 27 Y s 1966 435 m 6 X s 1969
 408 m -25 Y s 1966 383 m 6 X s 1974 458 m -3 X s 1971 455 m 6 Y s 1974 458 m 3 X s 1977 455 m 6 Y s 1974 458 m 29 Y s 1971 487 m 6 X s 1974 458 m -26 Y s 1971 432 m 6 X s 1979 474 m -2 X s 1977 471 m 6 Y s 1979 474 m 3 X s 1982 471 m 6 Y s 1979 474
 m 30 Y s 1976 504 m 6 X s 1979 474 m -27 Y s 1976 447 m 6 X s 1985 484 m -3 X s 1982 481 m 6 Y s 1985 484 m 2 X s 1987 481 m 6 Y s 1985 484 m 30 Y s 1982 514 m 6 X s 1985 484 m -27 Y s 1982 457 m 6 X s 1990 553 m -3 X s 1987 550 m 6 Y s 1990 553 m 3
 X s 1993 550 m 6 Y s 1990 553 m 32 Y s 1987 585 m 6 X s 1990 553 m -30 Y s 1987 523 m 6 X s 1995 523 m -2 X s 1993 519 m 7 Y s 1995 523 m 3 X s 1998 519 m 7 Y s 1995 523 m 30 Y s 1992 553 m 6 X s 1995 523 m -29 Y s 1992 494 m 6 X s 2001 577 m -3 X s
 1998 574 m 6 Y s 2001 577 m 2 X s 2003 574 m 6 Y s 2001 577 m 32 Y s 1998 609 m 6 X s 2001 577 m -31 Y s 1998 546 m 6 X s 2006 537 m -3 X s 2003 534 m 6 Y s 2006 537 m 3 X s 2009 534 m 6 Y s 2006 537 m 31 Y s 2003 568 m 6 X s 2006 537 m -30 Y s 2003
 507 m 6 X s 2011 537 m -2 X s 2009 534 m 6 Y s 2011 537 m 3 X s 2014 534 m 6 Y s 2011 537 m 31 Y s 2008 568 m 6 X s 2011 537 m -30 Y s 2008 507 m 6 X s 2017 529 m -3 X s 2014 526 m 6 Y s 2017 529 m 2 X s 2019 526 m 6 Y s 2017 529 m 31 Y s 2014 560 m
 6 X s 2017 529 m -30 Y s 2014 499 m 6 X s 2022 514 m -3 X s 2019 511 m 7 Y s 2022 514 m 3 X s 2025 511 m 7 Y s 2022 514 m 31 Y s 2019 545 m 6 X s 2022 514 m -28 Y s 2019 486 m 6 X s 2027 476 m -2 X s 2025 473 m 6 Y s 2027 476 m 3 X s 2030 473 m 6 Y
 s 2027 476 m 30 Y s 2024 506 m 6 X s 2027 476 m -27 Y s 2024 449 m 6 X s 2033 430 m -3 X s 2030 427 m 6 Y s 2033 430 m 2 X s 2035 427 m 6 Y s 2033 430 m 28 Y s 2030 458 m 6 X s 2033 430 m -25 Y s 2030 405 m 6 X s 2038 416 m -3 X s 2035 413 m 6 Y s
 2038 416 m 3 X s 2041 413 m 6 Y s 2038 416 m 27 Y s 2035 443 m 6 X s 2038 416 m -25 Y s 2035 391 m 6 X s 2043 412 m -2 X s 2041 409 m 6 Y s 2043 412 m 3 X s 2046 409 m 6 Y s 2043 412 m 27 Y s 2040 439 m 6 X s 2043 412 m -25 Y s 2040 387 m 6 X s 2049
 376 m -3 X s 2046 373 m 6 Y s 2049 376 m 2 X s 2051 373 m 6 Y s 2049 376 m 26 Y s 2046 402 m 6 X s 2049 376 m -23 Y s 2046 353 m 6 X s 2054 318 m -3 X s 2051 315 m 6 Y s 2054 318 m 3 X s 2057 315 m 6 Y s 2054 318 m 23 Y s 2051 341 m 6 X s 2054 318 m
 -21 Y s 2051 297 m 6 X s 2059 350 m -2 X s 2057 347 m 6 Y s 2059 350 m 3 X s 2062 347 m 6 Y s 2059 350 m 24 Y s 2056 374 m 6 X s 2059 350 m -22 Y s 2056 328 m 6 X s 2065 336 m -3 X s 2062 333 m 6 Y s 2065 336 m 2 X s 2067 333 m 6 Y s 2065 336 m 24 Y
 s 2062 360 m 6 X s 2065 336 m -22 Y s 2062 314 m 6 X s 2070 258 m -3 X s 2067 255 m 6 Y s 2070 258 m 3 X s 2073 255 m 6 Y s 2070 258 m 21 Y s 2067 279 m 6 X s 2070 258 m -19 Y s 2067 239 m 6 X s 2075 286 m -2 X s 2073 283 m 6 Y s 2075 286 m 3 X s
 2078 283 m 6 Y s 2075 286 m 21 Y s 2072 307 m 6 X s 2075 286 m -20 Y s 2072 266 m 6 X s 2081 234 m -3 X s 2078 231 m 6 Y s 2081 234 m 2 X s 2083 231 m 6 Y s 2081 234 m 19 Y s 2078 253 m 6 X s 2081 234 m -18 Y s 2078 216 m 6 X s 2086 221 m -3 X s
 2083 218 m 7 Y s 2086 221 m 3 X s 2089 218 m 7 Y s 2086 221 m 20 Y s 2083 241 m 6 X s 2086 221 m -16 Y s 2083 205 m 6 X s 2091 195 m -2 X s 2089 192 m 6 Y s 2091 195 m 3 X s 2094 192 m 6 Y s 2091 195 m 18 Y s 2088 213 m 6 X s 2091 195 m -15 Y s 2088
 180 m 6 X s 2097 175 m -3 X s 2094 172 m 6 Y s 2097 175 m 2 X s 2099 172 m 6 Y s 2097 175 m 16 Y s 2094 191 m 6 X s 2097 175 m -14 Y s 2094 161 m 6 X s 2102 155 m -3 X s 2099 152 m 6 Y s 2102 155 m 3 X s 2105 152 m 6 Y s 2102 155 m 15 Y s 2099 170 m
 6 X s 2102 155 m -12 Y s 2099 143 m 6 X s 2107 127 m -2 X s 2105 124 m 6 Y s 2107 127 m 3 X s 2110 124 m 6 Y s 2107 127 m 12 Y s 2104 139 m 6 X s 2107 127 m -10 Y s 2104 117 m 6 X s 2113 135 m -3 X s 2110 132 m 6 Y s 2113 135 m 2 X s 2115 132 m 6 Y
 s 2113 135 m 13 Y s 2110 148 m 6 X s 2113 135 m -11 Y s 2110 124 m 6 X s 2118 139 m -3 X s 2115 136 m 6 Y s 2118 139 m 3 X s 2121 136 m 6 Y s 2118 139 m 14 Y s 2115 153 m 6 X s 2118 139 m -11 Y s 2115 128 m 6 X s 2123 115 m -2 X s 2121 112 m 6 Y s
 2123 115 m 3 X s 2126 112 m 6 Y s 2123 115 m 11 Y s 2120 126 m 6 X s 2123 115 m -9 Y s 2120 106 m 6 X s 2129 107 m -3 X s 2126 104 m 6 Y s 2129 107 m 2 X s 2131 104 m 6 Y s 2129 107 m 10 Y s 2126 117 m 6 X s 2129 107 m -8 Y s 2126 99 m 6 X s 2134
 107 m -3 X s 2131 104 m 6 Y s 2134 107 m 3 X s 2137 104 m 6 Y s 2134 107 m 10 Y s 2131 117 m 6 X s 2134 107 m -8 Y s 2131 99 m 6 X s 2139 101 m -2 X s 2137 98 m 6 Y s 2139 101 m 3 X s 2142 98 m 6 Y s 2139 101 m 9 Y s 2136 110 m 6 X s 2139 101 m -7 Y
 s 2136 94 m 6 X s 2145 103 m -3 X s 2142 100 m 6 Y s 2145 103 m 2 X s 2147 100 m 6 Y s 2145 103 m 10 Y s 2142 113 m 6 X s 2145 103 m -7 Y s 2142 96 m 6 X s 2150 93 m -3 X s 2147 90 m 6 Y s 2150 93 m 3 X s 2153 90 m 6 Y s 2150 93 m 8 Y s 2147 101 m 6
 X s 2150 93 m -5 Y s 2147 88 m 6 X s 2155 93 m -2 X s 2153 90 m 6 Y s 2155 93 m 3 X s 2158 90 m 6 Y s 2155 93 m 8 Y s 2152 101 m 6 X s 2155 93 m -5 Y s 2152 88 m 6 X s 2161 89 m -3 X s 2158 86 m 6 Y s 2161 89 m 2 X s 2163 86 m 6 Y s 2161 89 m 7 Y s
 2158 96 m 6 X s 2161 89 m -5 Y s 2158 84 m 6 X s 2166 83 m -3 X s 2163 80 m 6 Y s 2166 83 m 3 X s 2169 80 m 6 Y s 2166 83 m 6 Y s 2163 89 m 6 X s 2166 83 m -3 Y s 2163 80 m 6 X s 2171 89 m -2 X s 2169 86 m 6 Y s 2171 89 m 3 X s 2174 86 m 6 Y s 2171
 89 m 7 Y s 2168 96 m 6 X s 2171 89 m -5 Y s 2168 84 m 6 X s 1 1 1 c black /w 13 def /w2 {w 2 div} def /w3 {w 3 div} def 1644 119 1649 125 1654 115 1660 115 1665 119 1670 113 1676 113 1681 115 1686 115 1692 123 1697 109 1702 97 1708 111 1713 125 1718
 133 1724 123 1729 113 1734 125 1740 105 1745 119 1750 117 1756 129 1761 109 1766 101 1772 109 1777 135 1782 115 1788 107 1793 113 1798 103 1804 109 1809 105 1814 127 1820 117 1825 129 1830 111 1836 129 1841 123 1846 119 1852 127 1857 111 1862 103
 1868 105 1873 119 1878 123 1884 117 1889 133 1894 155 1900 149 1905 135 1910 143 1916 179 1921 173 1926 211 1932 221 1937 236 1942 276 1947 300 1953 356 1958 390 1963 432 1969 408 1974 458 1979 474 1985 484 1990 553 1995 523 2001 577 2006 537 2011
 537 2017 529 2022 514 2027 476 2033 430 2038 416 2043 412 2049 376 2054 318 2059 350 2065 336 2070 258 2075 286 2081 234 2086 221 2091 195 2097 175 2102 155 2107 127 2113 135 2118 139 2123 115 2129 107 2134 107 2139 101 2145 103 2150 93 2155 93 2161
 89 2166 83 2171 89 100 { m20} R 0 0 1 c 9 lw 1 1 1 c black 0 0 1 c 1641 112 m cl s 1641 112 m 59 X 5 1 d 117 X 6 1 d 5 X 5 1 d 6 X 5 1 d 5 1 d 6 2 d 5 2 d 5 3 d 6 3 d 5 4 d 5 6 d 6 7 d 5 8 d 5 9 d 6 12 d 5 13 d 5 16 d 6 18 d 5 20 d 5 21 d 6 24 d 5
 25 d 5 26 d 5 27 d 6 27 d 5 26 d 5 25 d 6 23 d 5 20 d 3 8 d 2 8 d 3 7 d 3 5 d 2 5 d 3 3 d 3 2 d 2 1 d 3 X 3 -2 d 2 -2 d 3 -4 d 3 -5 d 2 -6 d 3 -8 d 3 -8 d 5 -19 d 5 -22 d 6 -25 d 5 -26 d 5 -28 d 6 -27 d 5 -27 d 5 -27 d 6 -24 d 5 -24 d 5 -21 d 6 -19
 d 5 -17 d 5 -15 d 6 -13 d 5 -12 d 5 -9 d 6 -8 d 5 -7 d 5 -6 d 6 -5 d 5 -4 d 5 -4 d 6 -3 d 5 -3 d 5 -3 d 6 -4 d 2 -2 d 2 -2 d -1 Y 1 -2 d s[ 12 12] 0 sd 1 1 1 c black 0 0 1 c 1641 112 m cl s 1641 112 m 59 X 5 1 d 123 X 5 1 d 11 X 5 1 d 5 1 d 6 1 d 5
 2 d 5 2 d 6 2 d 5 3 d 5 3 d 6 5 d 5 5 d 5 6 d 6 7 d 5 8 d 5 9 d 6 10 d 5 11 d 5 12 d 6 12 d 5 13 d 5 14 d 5 13 d 6 13 d 5 13 d 5 12 d 6 11 d 5 9 d 5 8 d 3 3 d 3 3 d 2 2 d 3 1 d 3 1 d 2 1 d 3 -1 d 3 X 2 -2 d 3 -2 d 3 -2 d 2 -3 d 6 -8 d 5 -9 d 5 -11 d
 6 -12 d 5 -13 d 5 -14 d 6 -14 d 5 -14 d 5 -14 d 6 -13 d 5 -13 d 5 -12 d 6 -11 d 5 -10 d 5 -9 d 6 -9 d 5 -7 d 5 -6 d 6 -6 d 5 -5 d 5 -4 d 6 -3 d 5 -4 d 5 -3 d 6 -3 d 5 -2 d 5 -3 d 6 -4 d 2 -2 d 2 -1 d -1 Y 1 -3 d s black[  ] 0 sd 3 lw 1641 77 m 533 X
 s 1641 93 m -16 Y s 1659 85 m -8 Y s 1677 85 m -8 Y s 1694 85 m -8 Y s 1712 85 m -8 Y s 1730 93 m -16 Y s 1748 85 m -8 Y s 1765 85 m -8 Y s 1783 85 m -8 Y s 1801 85 m -8 Y s 1819 93 m -16 Y s 1836 85 m -8 Y s 1854 85 m -8 Y s 1872 85 m -8 Y s 1890
 85 m -8 Y s 1908 93 m -16 Y s 1925 85 m -8 Y s 1943 85 m -8 Y s 1961 85 m -8 Y s 1979 85 m -8 Y s 1996 93 m -16 Y s 2014 85 m -8 Y s 2032 85 m -8 Y s 2050 85 m -8 Y s 2067 85 m -8 Y s 2085 93 m -16 Y s 2103 85 m -8 Y s 2121 85 m -8 Y s 2138 85 m -8
 Y s 2156 85 m -8 Y s 2174 93 m -16 Y s 1641 77 m 559 Y s 1658 77 m -17 X s 1650 97 m -9 X s 1650 117 m -9 X s 1650 137 m -9 X s 1650 157 m -9 X s 1658 177 m -17 X s 1650 197 m -9 X s 1650 217 m -9 X s 1650 238 m -9 X s 1650 258 m -9 X s 1658 278 m
 -17 X s 1650 298 m -9 X s 1650 318 m -9 X s 1650 338 m -9 X s 1650 358 m -9 X s 1658 378 m -17 X s 1650 398 m -9 X s 1650 418 m -9 X s 1650 438 m -9 X s 1650 458 m -9 X s 1658 478 m -17 X s 1650 498 m -9 X s 1650 519 m -9 X s 1650 539 m -9 X s 1650
 559 m -9 X s 1658 579 m -17 X s 1658 579 m -17 X s 1650 599 m -9 X s 1650 619 m -9 X s 1 1 1 c black
 gsave  711 699 1534 7 C 1728.79 670.626 t 0 r /Helvetica findfont 34.8619 sf 0 0 m (Signal + Background) show NC gr 
 gr  gr showpage
end
%%EOF
