%!PS-Adobe-2.0 EPSF-2.0
%%BoundingBox:  195 2 372 176
%%Title: ./plots/res/pBg_4real.eps: rf101_basics
%%Creator: ROOT Version 6.13/01
%%CreationDate: Tue Dec 19 10:09:59 2017
%%DocumentNeededResources: ProcSet (FontSetInit)
%%EndComments
%%BeginProlog
80 dict begin
/s {stroke} def /l {lineto} def /m {moveto} def /t {translate} def
/r {rotate} def /rl {roll}  def /R {repeat} def
/d {rlineto} def /rm {rmoveto} def /gr {grestore} def /f {eofill} def
/c {setrgbcolor} def /black {0 setgray} def /sd {setdash} def
/cl {closepath} def /sf {scalefont setfont} def /lw {setlinewidth} def
/box {m dup 0 exch d exch 0 d 0 exch neg d cl} def
/NC{systemdict begin initclip end}def/C{NC box clip newpath}def
/bl {box s} def /bf {gsave box gsave f grestore 1 lw [] 0 sd s grestore} def /Y { 0 exch d} def /X { 0 d} def 
/K {{pop pop 0 moveto} exch kshow} bind def
/ita {/ang 15 def gsave [1 0 ang dup sin exch cos div 1 0 0] concat} def 
/mp {newpath /y exch def /x exch def} def
/side {[w .77 mul w .23 mul] .385 w mul sd w 0 l currentpoint t -144 r} def
/mr {mp x y w2 0 360 arc} def /m24 {mr s} def /m20 {mr f} def
/mb {mp x y w2 add m w2 neg 0 d 0 w neg d w 0 d 0 w d cl} def
/mt {mp x y w2 add m w2 neg w neg d w 0 d cl} def
/w4 {w 4 div} def
/w6 {w 6 div} def
/w8 {w 8 div} def
/m21 {mb f} def /m25 {mb s} def /m22 {mt f} def /m26{mt s} def
/m23 {mp x y w2 sub m w2 w d w neg 0 d cl f} def
/m27 {mp x y w2 add m w3 neg w2 neg d w3 w2 neg d w3 w2 d cl s} def
/m28 {mp x w2 sub y w2 sub w3 add m w3 0 d  0 w3 neg d w3 0 d 0 w3 d w3 0 d  0 w3 d w3 neg 0 d 0 w3 d w3 neg 0 d 0 w3 neg d w3 neg 0 d cl s } def
/m29 {mp gsave x w2 sub y w2 add w3 sub m currentpoint t 4 {side} repeat cl fill gr} def
/m30 {mp gsave x w2 sub y w2 add w3 sub m currentpoint t 4 {side} repeat cl s gr} def
/m31 {mp x y w2 sub m 0 w d x w2 sub y m w 0 d x w2 sub y w2 add m w w neg d x w2 sub y w2 sub m w w d s} def
/m32 {mp x y w2 sub m w2 w d w neg 0 d cl s} def
/m33 {mp x y w2 add m w3 neg w2 neg d w3 w2 neg d w3 w2 d cl f} def
/m34 {mp x w2 sub y w2 sub w3 add m w3 0 d  0 w3 neg d w3 0 d 0 w3 d w3 0 d  0 w3 d w3 neg 0 d 0 w3 d w3 neg 0 d 0 w3 neg d w3 neg 0 d cl f } def
/m35 {mp x y w2 add m w2 neg w2 neg d w2 w2 neg d w2 w2 d w2 neg w2 d x y w2 sub m 0 w d x w2 sub y m w 0 d s} def
/m36 {mb x w2 sub y w2 add m w w neg d x w2 sub y w2 sub m w w d s} def
/m37 {mp x y m w4 neg w2 d w4 neg w2 neg d w2 0 d  w4 neg w2 neg d w2 0 d w4 neg w2 d w2 0 d w4 neg w2 d w4 neg w2 neg d cl s} def
/m38 {mp x w4 sub y w2 add m w4 neg w4 neg d 0 w2 neg d w4 w4 neg d w2 0 d w4 w4 d 0 w2 d w4 neg w4 d w2 neg 0 d x y w2 sub m 0 w d x w2 sub y m w 0 d cl s} def
/m39 {mp x y m w4 neg w2 d w4 neg w2 neg d w2 0 d  w4 neg w2 neg d w2 0 d w4 neg w2 d w2 0 d w4 neg w2 d w4 neg w2 neg d cl f} def
/m40 {mp x y m w4 w2 d w4 w4 neg d w2 neg w4 neg d w2 w4 neg d w4 neg w4 neg d w4 neg w2 d w4 neg w2 neg d w4 neg w4 d w2 w4 d w2 neg w4 d w4 w4 d w4 w2 neg d cl s} def
/m41 {mp x y m w4 w2 d w4 w4 neg d w2 neg w4 neg d w2 w4 neg d w4 neg w4 neg d w4 neg w2 d w4 neg w2 neg d w4 neg w4 d w2 w4 d w2 neg w4 d w4 w4 d w4 w2 neg d cl f} def
/m42 {mp x y w2 add m w8 neg w2 -3 4 div mul d w2 -3 4 div mul w8 neg d w2 3 4 div mul w8 neg d w8 w2 -3 4 div mul d w8 w2 3 4 div mul d w2 3 4 div mul w8 d w2 -3 4 div mul w8 d w8 neg w2 3 4 div mul d cl s} def
/m43 {mp x y w2 add m w8 neg w2 -3 4 div mul d w2 -3 4 div mul w8 neg d w2 3 4 div mul w8 neg d w8 w2 -3 4 div mul d w8 w2 3 4 div mul d w2 3 4 div mul w8 d w2 -3 4 div mul w8 d w8 neg w2 3 4 div mul d cl f} def
/m44 {mp x y m w6 neg w2 d w2 2 3 div mul 0 d w6 neg w2 neg d w2 w6 d 0 w2 -2 3 div mul d w2 neg w6 d w6 w2 neg d w2 -2 3 div mul 0 d w6 w2 d w2 neg w6 neg d 0 w2 2 3 div mul d w2 w6 neg d cl s} def
/m45 {mp x y m w6 neg w2 d w2 2 3 div mul 0 d w6 neg w2 neg d w2 w6 d 0 w2 -2 3 div mul d w2 neg w6 d w6 w2 neg d w2 -2 3 div mul 0 d w6 w2 d w2 neg w6 neg d 0 w2 2 3 div mul d w2 w6 neg d cl f} def
/m46 {mp x y w4 add m w4 neg w4 d w4 neg w4 neg d  w4 w4 neg d w4 neg w4 neg d w4 w4 neg d w4 w4 d w4 w4 neg d w4 w4 d w4 neg w4 d w4 w4 d w4 neg w4 d w4 neg w4 neg d cl s} def
/m47 {mp x y w4 add m w4 neg w4 d w4 neg w4 neg d w4 w4 neg d w4 neg w4 neg d  w4 w4 neg d w4 w4 d w4 w4 neg d w4 w4 d w4 neg w4 d w4 w4 d w4 neg w4 d w4 neg w4 neg d cl f} def
/m48 {mp x y w4 add m w4 neg w4 d w4 neg w4 neg d w4 w4 neg d  w4 neg w4 neg d w4 w4 neg d w4 w4 d w4 w4 neg d w4 w4 d w4 neg w4 d w4 w4 d w4 neg w4 d w4 neg w4 neg d  w4 w4 neg d w4 neg w4 neg d w4 neg w4 d w4 w4 d cl f} def
/m49 {mp x w2 sub w3 add y w2 sub w3 add m  0 w3 neg d w3 0 d 0 w3 d w3 0 d 0 w3 d w3 neg 0 d 0 w3 d w3 neg 0 d 0 w3 neg d w3 neg 0 d 0 w3 neg d w3 0 d 0 w3 d w3 0 d 0 w3 neg d w3 neg 0 d cl f } def
/m2 {mp x y w2 sub m 0 w d x w2 sub y m w 0 d s} def
/m5 {mp x w2 sub y w2 sub m w w d x w2 sub y w2 add m w w neg d s} def
%%IncludeResource: ProcSet (FontSetInit)
%%IncludeResource: font Times-Roman
%%IncludeResource: font Times-Italic
%%IncludeResource: font Times-Bold
%%IncludeResource: font Times-BoldItalic
%%IncludeResource: font Helvetica
%%IncludeResource: font Helvetica-Oblique
%%IncludeResource: font Helvetica-Bold
%%IncludeResource: font Helvetica-BoldOblique
%%IncludeResource: font Courier
%%IncludeResource: font Courier-Oblique
%%IncludeResource: font Courier-Bold
%%IncludeResource: font Courier-BoldOblique
%%IncludeResource: font Symbol
%%IncludeResource: font ZapfDingbats
/reEncode {exch findfont dup length dict begin {1 index /FID eq  {pop pop} {def} ifelse } forall /Encoding exch def currentdict end dup /FontName get exch definefont pop } def [/Times-Bold /Times-Italic /Times-BoldItalic /Helvetica /Helvetica-Oblique
 /Helvetica-Bold /Helvetica-BoldOblique /Courier /Courier-Oblique /Courier-Bold /Courier-BoldOblique /Times-Roman /AvantGarde-Book /AvantGarde-BookOblique /AvantGarde-Demi /AvantGarde-DemiOblique /Bookman-Demi /Bookman-DemiItalic /Bookman-Light
 /Bookman-LightItalic /Helvetica-Narrow /Helvetica-Narrow-Bold /Helvetica-Narrow-BoldOblique /Helvetica-Narrow-Oblique /NewCenturySchlbk-Roman /NewCenturySchlbk-Bold /NewCenturySchlbk-BoldItalic /NewCenturySchlbk-Italic /Palatino-Bold
 /Palatino-BoldItalic /Palatino-Italic /Palatino-Roman ] {ISOLatin1Encoding reEncode } forall
%%EndProlog
%%BeginSetup
%%EndSetup
newpath  gsave  .25 .25 scale  gsave  0 0 t black[  ] 0 sd 3 lw 1 1 1 c 710 699 779 7 bf black 1 1 1 c 533 559 885 77 bf black 533 559 885 77 bl 1 1 1 c 533 559 885 77 bf black 533 559 885 77 bl 885 77 m 533 X s 885 93 m -16 Y s 904 85 m -8 Y s 922
 85 m -8 Y s 940 85 m -8 Y s 959 85 m -8 Y s 977 93 m -16 Y s 995 85 m -8 Y s 1014 85 m -8 Y s 1032 85 m -8 Y s 1051 85 m -8 Y s 1069 93 m -16 Y s 1087 85 m -8 Y s 1106 85 m -8 Y s 1124 85 m -8 Y s 1142 85 m -8 Y s 1161 93 m -16 Y s 1179 85 m -8 Y s
 1198 85 m -8 Y s 1216 85 m -8 Y s 1234 85 m -8 Y s 1253 93 m -16 Y s 1271 85 m -8 Y s 1289 85 m -8 Y s 1308 85 m -8 Y s 1326 85 m -8 Y s 1345 93 m -16 Y s 1345 93 m -16 Y s 1363 85 m -8 Y s 1381 85 m -8 Y s 1400 85 m -8 Y s
 gsave  710 699 779 7 C 861.369 54.4979 t 0 r /Helvetica findfont 22.736 sf 0 0 m (5.26) show NC gr 
 gsave  710 699 779 7 C 947.657 54.4979 t 0 r /Helvetica findfont 22.736 sf 0 0 m (5.265) show NC gr 
 gsave  710 699 779 7 C 1046.06 54.4979 t 0 r /Helvetica findfont 22.736 sf 0 0 m (5.27) show NC gr 
 gsave  710 699 779 7 C 1130.83 54.4979 t 0 r /Helvetica findfont 22.736 sf 0 0 m (5.275) show NC gr 
 gsave  710 699 779 7 C 1229.23 54.4979 t 0 r /Helvetica findfont 22.736 sf 0 0 m (5.28) show NC gr 
 gsave  710 699 779 7 C 1315.52 54.4979 t 0 r /Helvetica findfont 22.736 sf 0 0 m (5.285) show NC gr 
 gsave  710 699 779 7 C 1360.93 31.7904 t 0 r /Helvetica findfont 22.736 sf 0 0 m (m_bc) show NC gr  885 77 m 559 Y s 902 77 m -17 X s 894 89 m -9 X s 894 101 m -9 X s 894 113 m -9 X s 894 124 m -9 X s 902 136 m -17 X s 894 148 m -9 X s 894 160 m -9
 X s 894 172 m -9 X s 894 184 m -9 X s 902 195 m -17 X s 894 207 m -9 X s 894 219 m -9 X s 894 231 m -9 X s 894 243 m -9 X s 902 255 m -17 X s 894 266 m -9 X s 894 278 m -9 X s 894 290 m -9 X s 894 302 m -9 X s 902 314 m -17 X s 894 326 m -9 X s 894
 337 m -9 X s 894 349 m -9 X s 894 361 m -9 X s 902 373 m -17 X s 894 385 m -9 X s 894 397 m -9 X s 894 408 m -9 X s 894 420 m -9 X s 902 432 m -17 X s 894 444 m -9 X s 894 456 m -9 X s 894 468 m -9 X s 894 479 m -9 X s 902 491 m -17 X s 894 503 m -9
 X s 894 515 m -9 X s 894 527 m -9 X s 894 538 m -9 X s 902 550 m -17 X s 894 562 m -9 X s 894 574 m -9 X s 894 586 m -9 X s 894 598 m -9 X s 902 609 m -17 X s 902 609 m -17 X s 894 621 m -9 X s 894 633 m -9 X s
 gsave  710 699 779 7 C 868.938 68.1223 t 0 r /Helvetica findfont 22.736 sf 0 0 m (0) show NC gr 
 gsave  710 699 779 7 C 856.827 127.162 t 0 r /Helvetica findfont 22.736 sf 0 0 m (10) show NC gr 
 gsave  710 699 779 7 C 856.827 187.715 t 0 r /Helvetica findfont 22.736 sf 0 0 m (20) show NC gr 
 gsave  710 699 779 7 C 856.827 246.754 t 0 r /Helvetica findfont 22.736 sf 0 0 m (30) show NC gr 
 gsave  710 699 779 7 C 856.827 305.794 t 0 r /Helvetica findfont 22.736 sf 0 0 m (40) show NC gr 
 gsave  710 699 779 7 C 856.827 364.833 t 0 r /Helvetica findfont 22.736 sf 0 0 m (50) show NC gr 
 gsave  710 699 779 7 C 856.827 423.872 t 0 r /Helvetica findfont 22.736 sf 0 0 m (60) show NC gr 
 gsave  710 699 779 7 C 856.827 482.912 t 0 r /Helvetica findfont 22.736 sf 0 0 m (70) show NC gr 
 gsave  710 699 779 7 C 856.827 541.951 t 0 r /Helvetica findfont 22.736 sf 0 0 m (80) show NC gr 
 gsave  710 699 779 7 C 856.827 600.99 t 0 r /Helvetica findfont 22.736 sf 0 0 m (90) show NC gr 
 gsave  710 699 779 7 C 826.551 440.524 t 90 r /Helvetica findfont 22.736 sf 0 0 m (Events / \( 0.00029 \)) show NC gr  888 142 m -3 X s 885 139 m 6 Y s 888 142 m 2 X s 890 139 m 6 Y s 888 142 m 26 Y s 885 168 m 6 X s 888 142 m -19 Y s 885 123 m 6 X
 s 893 124 m -3 X s 890 121 m 6 Y s 893 124 m 3 X s 896 121 m 6 Y s 893 124 m 24 Y s 890 148 m 6 X s 893 124 m -16 Y s 890 108 m 6 X s 898 113 m -2 X s 896 109 m 7 Y s 898 113 m 3 X s 901 109 m 7 Y s 898 113 m 21 Y s 895 134 m 7 X s 898 113 m -15 Y s
 895 98 m 7 X s 904 130 m -3 X s 901 127 m 6 Y s 904 130 m 2 X s 906 127 m 6 Y s 904 130 m 25 Y s 901 155 m 6 X s 904 130 m -17 Y s 901 113 m 6 X s 909 101 m -3 X s 906 98 m 6 Y s 909 101 m 3 X s 912 98 m 6 Y s 909 101 m 18 Y s 906 119 m 6 X s 909
 101 m -12 Y s 906 89 m 6 X s 914 130 m -2 X s 912 127 m 6 Y s 914 130 m 3 X s 917 127 m 6 Y s 914 130 m 25 Y s 911 155 m 7 X s 914 130 m -17 Y s 911 113 m 7 X s 920 124 m -3 X s 917 121 m 6 Y s 920 124 m 2 X s 922 121 m 6 Y s 920 124 m 24 Y s 917
 148 m 6 X s 920 124 m -16 Y s 917 108 m 6 X s 925 107 m -3 X s 922 104 m 6 Y s 925 107 m 3 X s 928 104 m 6 Y s 925 107 m 20 Y s 922 127 m 6 X s 925 107 m -13 Y s 922 94 m 6 X s 930 130 m -2 X s 928 127 m 6 Y s 930 130 m 3 X s 933 127 m 6 Y s 930 130
 m 25 Y s 927 155 m 6 X s 930 130 m -17 Y s 927 113 m 6 X s 936 118 m -3 X s 933 115 m 6 Y s 936 118 m 2 X s 938 115 m 6 Y s 936 118 m 23 Y s 933 141 m 6 X s 936 118 m -15 Y s 933 103 m 6 X s 941 118 m -3 X s 938 115 m 6 Y s 941 118 m 3 X s 944 115 m
 6 Y s 941 118 m 23 Y s 938 141 m 6 X s 941 118 m -15 Y s 938 103 m 6 X s 946 130 m -2 X s 944 127 m 6 Y s 946 130 m 3 X s 949 127 m 6 Y s 946 130 m 25 Y s 943 155 m 6 X s 946 130 m -17 Y s 943 113 m 6 X s 952 118 m -3 X s 949 115 m 6 Y s 952 118 m 2
 X s 954 115 m 6 Y s 952 118 m 23 Y s 949 141 m 6 X s 952 118 m -15 Y s 949 103 m 6 X s 957 95 m -3 X s 954 92 m 6 Y s 957 95 m 3 X s 960 92 m 6 Y s 957 95 m 17 Y s 954 112 m 6 X s 957 95 m -10 Y s 954 85 m 6 X s 962 107 m -2 X s 960 104 m 6 Y s 962
 107 m 3 X s 965 104 m 6 Y s 962 107 m 20 Y s 959 127 m 6 X s 962 107 m -13 Y s 959 94 m 6 X s 968 142 m -3 X s 965 139 m 6 Y s 968 142 m 2 X s 970 139 m 6 Y s 968 142 m 26 Y s 965 168 m 6 X s 968 142 m -19 Y s 965 123 m 6 X s 973 130 m -3 X s 970
 127 m 6 Y s 973 130 m 3 X s 976 127 m 6 Y s 973 130 m 25 Y s 970 155 m 6 X s 973 130 m -17 Y s 970 113 m 6 X s 978 130 m -2 X s 976 127 m 6 Y s 978 130 m 3 X s 981 127 m 6 Y s 978 130 m 25 Y s 975 155 m 6 X s 978 130 m -17 Y s 975 113 m 6 X s 984
 113 m -3 X s 981 109 m 7 Y s 984 113 m 2 X s 986 109 m 7 Y s 984 113 m 21 Y s 981 134 m 6 X s 984 113 m -15 Y s 981 98 m 6 X s 989 113 m -3 X s 986 109 m 7 Y s 989 113 m 3 X s 992 109 m 7 Y s 989 113 m 21 Y s 986 134 m 6 X s 989 113 m -15 Y s 986 98
 m 6 X s 994 113 m -2 X s 992 109 m 7 Y s 994 113 m 3 X s 997 109 m 7 Y s 994 113 m 21 Y s 991 134 m 6 X s 994 113 m -15 Y s 991 98 m 6 X s 1000 142 m -3 X s 997 139 m 6 Y s 1000 142 m 2 X s 1002 139 m 6 Y s 1000 142 m 26 Y s 997 168 m 6 X s 1000 142
 m -19 Y s 997 123 m 6 X s 1005 113 m -3 X s 1002 109 m 7 Y s 1005 113 m 3 X s 1008 109 m 7 Y s 1005 113 m 21 Y s 1002 134 m 6 X s 1005 113 m -15 Y s 1002 98 m 6 X s 1010 154 m -2 X s 1008 151 m 6 Y s 1010 154 m 3 X s 1013 151 m 6 Y s 1010 154 m 28 Y
 s 1007 182 m 6 X s 1010 154 m -21 Y s 1007 133 m 6 X s 1016 130 m -3 X s 1013 127 m 6 Y s 1016 130 m 2 X s 1018 127 m 6 Y s 1016 130 m 25 Y s 1013 155 m 6 X s 1016 130 m -17 Y s 1013 113 m 6 X s 1021 113 m -3 X s 1018 109 m 7 Y s 1021 113 m 3 X s
 1024 109 m 7 Y s 1021 113 m 21 Y s 1018 134 m 6 X s 1021 113 m -15 Y s 1018 98 m 6 X s 1026 130 m -2 X s 1024 127 m 6 Y s 1026 130 m 3 X s 1029 127 m 6 Y s 1026 130 m 25 Y s 1023 155 m 6 X s 1026 130 m -17 Y s 1023 113 m 6 X s 1032 113 m -3 X s 1029
 109 m 7 Y s 1032 113 m 2 X s 1034 109 m 7 Y s 1032 113 m 21 Y s 1029 134 m 6 X s 1032 113 m -15 Y s 1029 98 m 6 X s 1037 113 m -3 X s 1034 109 m 7 Y s 1037 113 m 3 X s 1040 109 m 7 Y s 1037 113 m 21 Y s 1034 134 m 6 X s 1037 113 m -15 Y s 1034 98 m
 6 X s 1042 101 m -2 X s 1040 98 m 6 Y s 1042 101 m 3 X s 1045 98 m 6 Y s 1042 101 m 18 Y s 1039 119 m 6 X s 1042 101 m -12 Y s 1039 89 m 6 X s 1048 136 m -3 X s 1045 133 m 6 Y s 1048 136 m 2 X s 1050 133 m 6 Y s 1048 136 m 25 Y s 1045 161 m 6 X s
 1048 136 m -18 Y s 1045 118 m 6 X s 1053 154 m -3 X s 1050 151 m 6 Y s 1053 154 m 3 X s 1056 151 m 6 Y s 1053 154 m 28 Y s 1050 182 m 6 X s 1053 154 m -21 Y s 1050 133 m 6 X s 1058 113 m -2 X s 1056 109 m 7 Y s 1058 113 m 3 X s 1061 109 m 7 Y s 1058
 113 m 21 Y s 1055 134 m 6 X s 1058 113 m -15 Y s 1055 98 m 6 X s 1064 130 m -3 X s 1061 127 m 6 Y s 1064 130 m 2 X s 1066 127 m 6 Y s 1064 130 m 25 Y s 1061 155 m 6 X s 1064 130 m -17 Y s 1061 113 m 6 X s 1069 136 m -3 X s 1066 133 m 6 Y s 1069 136
 m 3 X s 1072 133 m 6 Y s 1069 136 m 25 Y s 1066 161 m 6 X s 1069 136 m -18 Y s 1066 118 m 6 X s 1074 118 m -2 X s 1072 115 m 6 Y s 1074 118 m 3 X s 1077 115 m 6 Y s 1074 118 m 23 Y s 1071 141 m 6 X s 1074 118 m -15 Y s 1071 103 m 6 X s 1080 130 m -3
 X s 1077 127 m 6 Y s 1080 130 m 2 X s 1082 127 m 6 Y s 1080 130 m 25 Y s 1077 155 m 6 X s 1080 130 m -17 Y s 1077 113 m 6 X s 1085 142 m -3 X s 1082 139 m 6 Y s 1085 142 m 3 X s 1088 139 m 6 Y s 1085 142 m 26 Y s 1082 168 m 6 X s 1085 142 m -19 Y s
 1082 123 m 6 X s 1090 113 m -2 X s 1088 109 m 7 Y s 1090 113 m 3 X s 1093 109 m 7 Y s 1090 113 m 21 Y s 1087 134 m 6 X s 1090 113 m -15 Y s 1087 98 m 6 X s 1096 142 m -3 X s 1093 139 m 6 Y s 1096 142 m 2 X s 1098 139 m 6 Y s 1096 142 m 26 Y s 1093
 168 m 6 X s 1096 142 m -19 Y s 1093 123 m 6 X s 1101 113 m -3 X s 1098 109 m 7 Y s 1101 113 m 3 X s 1104 109 m 7 Y s 1101 113 m 21 Y s 1098 134 m 6 X s 1101 113 m -15 Y s 1098 98 m 6 X s 1106 113 m -2 X s 1104 109 m 7 Y s 1106 113 m 3 X s 1109 109 m
 7 Y s 1106 113 m 21 Y s 1103 134 m 6 X s 1106 113 m -15 Y s 1103 98 m 6 X s 1112 130 m -3 X s 1109 127 m 6 Y s 1112 130 m 2 X s 1114 127 m 6 Y s 1112 130 m 25 Y s 1109 155 m 6 X s 1112 130 m -17 Y s 1109 113 m 6 X s 1117 160 m -3 X s 1114 157 m 6 Y
 s 1117 160 m 3 X s 1120 157 m 6 Y s 1117 160 m 28 Y s 1114 188 m 6 X s 1117 160 m -22 Y s 1114 138 m 6 X s 1122 148 m -2 X s 1120 145 m 6 Y s 1122 148 m 3 X s 1125 145 m 6 Y s 1122 148 m 27 Y s 1119 175 m 6 X s 1122 148 m -20 Y s 1119 128 m 6 X s
 1128 142 m -3 X s 1125 139 m 6 Y s 1128 142 m 2 X s 1130 139 m 6 Y s 1128 142 m 26 Y s 1125 168 m 6 X s 1128 142 m -19 Y s 1125 123 m 6 X s 1133 166 m -3 X s 1130 163 m 6 Y s 1133 166 m 3 X s 1136 163 m 6 Y s 1133 166 m 29 Y s 1130 195 m 6 X s 1133
 166 m -23 Y s 1130 143 m 6 X s 1138 142 m -2 X s 1136 139 m 6 Y s 1138 142 m 3 X s 1141 139 m 6 Y s 1138 142 m 26 Y s 1135 168 m 6 X s 1138 142 m -19 Y s 1135 123 m 6 X s 1144 172 m -3 X s 1141 169 m 6 Y s 1144 172 m 2 X s 1146 169 m 6 Y s 1144 172
 m 30 Y s 1141 202 m 6 X s 1144 172 m -24 Y s 1141 148 m 6 X s 1149 178 m -3 X s 1146 175 m 6 Y s 1149 178 m 3 X s 1152 175 m 6 Y s 1149 178 m 30 Y s 1146 208 m 6 X s 1149 178 m -25 Y s 1146 153 m 6 X s 1154 148 m -2 X s 1152 145 m 6 Y s 1154 148 m 3
 X s 1157 145 m 6 Y s 1154 148 m 27 Y s 1151 175 m 6 X s 1154 148 m -20 Y s 1151 128 m 6 X s 1160 184 m -3 X s 1157 180 m 7 Y s 1160 184 m 2 X s 1162 180 m 7 Y s 1160 184 m 31 Y s 1157 215 m 6 X s 1160 184 m -25 Y s 1157 159 m 6 X s 1165 154 m -3 X s
 1162 151 m 6 Y s 1165 154 m 3 X s 1168 151 m 6 Y s 1165 154 m 28 Y s 1162 182 m 6 X s 1165 154 m -21 Y s 1162 133 m 6 X s 1170 184 m -2 X s 1168 180 m 7 Y s 1170 184 m 3 X s 1173 180 m 7 Y s 1170 184 m 31 Y s 1167 215 m 6 X s 1170 184 m -25 Y s 1167
 159 m 6 X s 1176 225 m -3 X s 1173 222 m 6 Y s 1176 225 m 2 X s 1178 222 m 6 Y s 1176 225 m 36 Y s 1173 261 m 6 X s 1176 225 m -29 Y s 1173 196 m 6 X s 1181 255 m -3 X s 1178 251 m 7 Y s 1181 255 m 3 X s 1184 251 m 7 Y s 1181 255 m 38 Y s 1178 293 m
 6 X s 1181 255 m -33 Y s 1178 222 m 6 X s 1186 326 m -2 X s 1184 322 m 7 Y s 1186 326 m 3 X s 1189 322 m 7 Y s 1186 326 m 44 Y s 1183 370 m 6 X s 1186 326 m -39 Y s 1183 287 m 6 X s 1192 231 m -3 X s 1189 228 m 6 Y s 1192 231 m 2 X s 1194 228 m 6 Y
 s 1192 231 m 36 Y s 1189 267 m 6 X s 1192 231 m -30 Y s 1189 201 m 6 X s 1197 243 m -3 X s 1194 240 m 6 Y s 1197 243 m 3 X s 1200 240 m 6 Y s 1197 243 m 37 Y s 1194 280 m 6 X s 1197 243 m -31 Y s 1194 212 m 6 X s 1202 278 m -2 X s 1200 275 m 6 Y s
 1202 278 m 3 X s 1205 275 m 6 Y s 1202 278 m 41 Y s 1199 319 m 6 X s 1202 278 m -34 Y s 1199 244 m 6 X s 1208 331 m -3 X s 1205 328 m 6 Y s 1208 331 m 2 X s 1210 328 m 6 Y s 1208 331 m 45 Y s 1205 376 m 6 X s 1208 331 m -38 Y s 1205 293 m 6 X s 1213
 302 m -3 X s 1210 299 m 6 Y s 1213 302 m 3 X s 1216 299 m 6 Y s 1213 302 m 43 Y s 1210 345 m 6 X s 1213 302 m -36 Y s 1210 266 m 6 X s 1218 367 m -2 X s 1216 364 m 6 Y s 1218 367 m 3 X s 1221 364 m 6 Y s 1218 367 m 48 Y s 1215 415 m 6 X s 1218 367 m
 -41 Y s 1215 326 m 6 X s 1224 361 m -3 X s 1221 358 m 6 Y s 1224 361 m 2 X s 1226 358 m 6 Y s 1224 361 m 47 Y s 1221 408 m 6 X s 1224 361 m -41 Y s 1221 320 m 6 X s 1229 408 m -3 X s 1226 405 m 6 Y s 1229 408 m 3 X s 1232 405 m 6 Y s 1229 408 m 51 Y
 s 1226 459 m 6 X s 1229 408 m -44 Y s 1226 364 m 6 X s 1234 426 m -2 X s 1232 423 m 6 Y s 1234 426 m 3 X s 1237 423 m 6 Y s 1234 426 m 52 Y s 1231 478 m 6 X s 1234 426 m -45 Y s 1231 381 m 6 X s 1240 473 m -3 X s 1237 470 m 6 Y s 1240 473 m 2 X s
 1242 470 m 6 Y s 1240 473 m 55 Y s 1237 528 m 6 X s 1240 473 m -48 Y s 1237 425 m 6 X s 1245 468 m -3 X s 1242 464 m 7 Y s 1245 468 m 3 X s 1248 464 m 7 Y s 1245 468 m 54 Y s 1242 522 m 6 X s 1245 468 m -48 Y s 1242 420 m 6 X s 1250 468 m -2 X s
 1248 464 m 7 Y s 1250 468 m 3 X s 1253 464 m 7 Y s 1250 468 m 54 Y s 1247 522 m 6 X s 1250 468 m -48 Y s 1247 420 m 6 X s 1256 456 m -3 X s 1253 453 m 6 Y s 1256 456 m 2 X s 1258 453 m 6 Y s 1256 456 m 53 Y s 1253 509 m 6 X s 1256 456 m -48 Y s 1253
 408 m 6 X s 1261 391 m -3 X s 1258 388 m 6 Y s 1261 391 m 3 X s 1264 388 m 6 Y s 1261 391 m 49 Y s 1258 440 m 6 X s 1261 391 m -43 Y s 1258 348 m 6 X s 1266 550 m -2 X s 1264 547 m 6 Y s 1266 550 m 3 X s 1269 547 m 6 Y s 1266 550 m 59 Y s 1263 609 m
 6 X s 1266 550 m -52 Y s 1263 498 m 6 X s 1272 491 m -3 X s 1269 488 m 6 Y s 1272 491 m 2 X s 1274 488 m 6 Y s 1272 491 m 56 Y s 1268 547 m 7 X s 1272 491 m -49 Y s 1268 442 m 7 X s 1277 420 m -3 X s 1274 417 m 6 Y s 1277 420 m 3 X s 1280 417 m 6 Y
 s 1277 420 m 51 Y s 1274 471 m 6 X s 1277 420 m -45 Y s 1274 375 m 6 X s 1282 479 m -2 X s 1280 476 m 6 Y s 1282 479 m 3 X s 1285 476 m 6 Y s 1282 479 m 55 Y s 1279 534 m 6 X s 1282 479 m -48 Y s 1279 431 m 6 X s 1288 473 m -3 X s 1285 470 m 6 Y s
 1288 473 m 2 X s 1290 470 m 6 Y s 1288 473 m 55 Y s 1284 528 m 7 X s 1288 473 m -48 Y s 1284 425 m 7 X s 1293 373 m -3 X s 1290 370 m 6 Y s 1293 373 m 3 X s 1296 370 m 6 Y s 1293 373 m 48 Y s 1290 421 m 6 X s 1293 373 m -42 Y s 1290 331 m 6 X s 1298
 408 m -2 X s 1296 405 m 6 Y s 1298 408 m 3 X s 1301 405 m 6 Y s 1298 408 m 51 Y s 1295 459 m 6 X s 1298 408 m -44 Y s 1295 364 m 6 X s 1304 408 m -3 X s 1301 405 m 6 Y s 1304 408 m 2 X s 1306 405 m 6 Y s 1304 408 m 51 Y s 1300 459 m 7 X s 1304 408 m
 -44 Y s 1300 364 m 7 X s 1309 326 m -3 X s 1306 322 m 7 Y s 1309 326 m 2 X s 1311 322 m 7 Y s 1309 326 m 44 Y s 1306 370 m 6 X s 1309 326 m -39 Y s 1306 287 m 6 X s 1314 296 m -3 X s 1311 293 m 6 Y s 1314 296 m 3 X s 1317 293 m 6 Y s 1314 296 m 42 Y
 s 1311 338 m 6 X s 1314 296 m -36 Y s 1311 260 m 6 X s 1319 314 m -2 X s 1317 311 m 6 Y s 1319 314 m 3 X s 1322 311 m 6 Y s 1319 314 m 43 Y s 1316 357 m 7 X s 1319 314 m -38 Y s 1316 276 m 7 X s 1325 231 m -3 X s 1322 228 m 6 Y s 1325 231 m 2 X s
 1327 228 m 6 Y s 1325 231 m 36 Y s 1322 267 m 6 X s 1325 231 m -30 Y s 1322 201 m 6 X s 1330 189 m -3 X s 1327 186 m 6 Y s 1330 189 m 3 X s 1333 186 m 6 Y s 1330 189 m 33 Y s 1327 222 m 6 X s 1330 189 m -25 Y s 1327 164 m 6 X s 1335 266 m -2 X s
 1333 263 m 6 Y s 1335 266 m 3 X s 1338 263 m 6 Y s 1335 266 m 40 Y s 1332 306 m 7 X s 1335 266 m -33 Y s 1332 233 m 7 X s 1341 166 m -3 X s 1338 163 m 6 Y s 1341 166 m 2 X s 1343 163 m 6 Y s 1341 166 m 29 Y s 1338 195 m 6 X s 1341 166 m -23 Y s 1338
 143 m 6 X s 1346 195 m -3 X s 1343 192 m 6 Y s 1346 195 m 3 X s 1349 192 m 6 Y s 1346 195 m 33 Y s 1343 228 m 6 X s 1346 195 m -26 Y s 1343 169 m 6 X s 1351 184 m -2 X s 1349 180 m 7 Y s 1351 184 m 3 X s 1354 180 m 7 Y s 1351 184 m 31 Y s 1348 215 m
 6 X s 1351 184 m -25 Y s 1348 159 m 6 X s 1357 154 m -3 X s 1354 151 m 6 Y s 1357 154 m 2 X s 1359 151 m 6 Y s 1357 154 m 28 Y s 1354 182 m 6 X s 1357 154 m -21 Y s 1354 133 m 6 X s 1362 160 m -3 X s 1359 157 m 6 Y s 1362 160 m 3 X s 1365 157 m 6 Y
 s 1362 160 m 28 Y s 1359 188 m 6 X s 1362 160 m -22 Y s 1359 138 m 6 X s 1367 136 m -2 X s 1365 133 m 6 Y s 1367 136 m 3 X s 1370 133 m 6 Y s 1367 136 m 25 Y s 1364 161 m 6 X s 1367 136 m -18 Y s 1364 118 m 6 X s 1373 124 m -3 X s 1370 121 m 6 Y s
 1373 124 m 2 X s 1375 121 m 6 Y s 1373 124 m 24 Y s 1370 148 m 6 X s 1373 124 m -16 Y s 1370 108 m 6 X s 1378 118 m -3 X s 1375 115 m 6 Y s 1378 118 m 3 X s 1381 115 m 6 Y s 1378 118 m 23 Y s 1375 141 m 6 X s 1378 118 m -15 Y s 1375 103 m 6 X s 1383
 113 m -2 X s 1381 109 m 7 Y s 1383 113 m 3 X s 1386 109 m 7 Y s 1383 113 m 21 Y s 1380 134 m 6 X s 1383 113 m -15 Y s 1380 98 m 6 X s 1389 118 m -3 X s 1386 115 m 6 Y s 1389 118 m 2 X s 1391 115 m 6 Y s 1389 118 m 23 Y s 1386 141 m 6 X s 1389 118 m
 -15 Y s 1386 103 m 6 X s 1394 101 m -3 X s 1391 98 m 6 Y s 1394 101 m 3 X s 1397 98 m 6 Y s 1394 101 m 18 Y s 1391 119 m 6 X s 1394 101 m -12 Y s 1391 89 m 6 X s 1399 101 m -2 X s 1397 98 m 6 Y s 1399 101 m 3 X s 1402 98 m 6 Y s 1399 101 m 18 Y s
 1396 119 m 6 X s 1399 101 m -12 Y s 1396 89 m 6 X s 1405 95 m -3 X s 1402 92 m 6 Y s 1405 95 m 2 X s 1407 92 m 6 Y s 1405 95 m 17 Y s 1402 112 m 6 X s 1405 95 m -10 Y s 1402 85 m 6 X s 1410 89 m -3 X s 1407 86 m 6 Y s 1410 89 m 3 X s 1413 86 m 6 Y s
 1410 89 m 15 Y s 1407 104 m 6 X s 1410 89 m -8 Y s 1407 81 m 6 X s 1415 101 m -2 X s 1413 98 m 6 Y s 1415 101 m 3 X s 1418 98 m 6 Y s 1415 101 m 18 Y s 1412 119 m 6 X s 1415 101 m -12 Y s 1412 89 m 6 X s 1 1 1 c black /w 12 def /w2 {w 2 div} def /w3
 {w 3 div} def 888 142 893 124 898 113 904 130 909 101 914 130 920 124 925 107 930 130 936 118 941 118 946 130 952 118 957 95 962 107 968 142 973 130 978 130 984 113 989 113 994 113 1000 142 1005 113 1010 154 1016 130 1021 113 1026 130 1032 113 1037
 113 1042 101 1048 136 1053 154 1058 113 1064 130 1069 136 1074 118 1080 130 1085 142 1090 113 1096 142 1101 113 1106 113 1112 130 1117 160 1122 148 1128 142 1133 166 1138 142 1144 172 1149 178 1154 148 1160 184 1165 154 1170 184 1176 225 1181 255
 1186 326 1192 231 1197 243 1202 278 1208 331 1213 302 1218 367 1224 361 1229 408 1234 426 1240 473 1245 468 1250 468 1256 456 1261 391 1266 550 1272 491 1277 420 1282 479 1288 473 1293 373 1298 408 1304 408 1309 326 1314 296 1319 314 1325 231 1330
 189 1335 266 1341 166 1346 195 1351 184 1357 154 1362 160 1367 136 1373 124 1378 118 1383 113 1389 118 1394 101 1399 101 1405 95 1410 89 1415 101 100 { m20} R 0 0 1 c 9 lw 1 1 1 c black 0 0 1 c 885 121 m cl s 885 121 m 11 X 5 1 d 21 X 6 1 d 21 X 5 1
 d 27 X 5 1 d 27 X 5 1 d 32 X 6 1 d 26 X 6 1 d 5 X 5 1 d 6 X 5 1 d 5 1 d 6 2 d 5 2 d 5 3 d 6 3 d 5 4 d 5 5 d 6 7 d 5 8 d 5 9 d 6 11 d 5 13 d 5 14 d 6 16 d 5 18 d 5 20 d 6 21 d 5 22 d 5 23 d 6 23 d 5 23 d 5 21 d 6 20 d 5 18 d 5 14 d 3 7 d 3 5 d 2 4 d
 3 4 d 3 2 d 2 2 d 6 X 2 -2 d 3 -3 d 3 -3 d 2 -5 d 3 -6 d 3 -6 d 5 -15 d 5 -19 d 6 -20 d 5 -22 d 5 -23 d 5 -24 d 6 -24 d 5 -23 d 5 -22 d 6 -21 d 5 -19 d 5 -17 d 6 -16 d 5 -14 d 5 -12 d 6 -11 d 5 -9 d 5 -8 d 6 -7 d 5 -7 d 5 -5 d 6 -5 d 5 -5 d 5 -5 d 6
 -6 d 2 -3 d 2 -3 d -2 Y 1 -4 d s black 3 lw 885 77 m 533 X s 885 93 m -16 Y s 904 85 m -8 Y s 922 85 m -8 Y s 940 85 m -8 Y s 959 85 m -8 Y s 977 93 m -16 Y s 995 85 m -8 Y s 1014 85 m -8 Y s 1032 85 m -8 Y s 1051 85 m -8 Y s 1069 93 m -16 Y s 1087
 85 m -8 Y s 1106 85 m -8 Y s 1124 85 m -8 Y s 1142 85 m -8 Y s 1161 93 m -16 Y s 1179 85 m -8 Y s 1198 85 m -8 Y s 1216 85 m -8 Y s 1234 85 m -8 Y s 1253 93 m -16 Y s 1271 85 m -8 Y s 1289 85 m -8 Y s 1308 85 m -8 Y s 1326 85 m -8 Y s 1345 93 m -16
 Y s 1345 93 m -16 Y s 1363 85 m -8 Y s 1381 85 m -8 Y s 1400 85 m -8 Y s 885 77 m 559 Y s 902 77 m -17 X s 894 89 m -9 X s 894 101 m -9 X s 894 113 m -9 X s 894 124 m -9 X s 902 136 m -17 X s 894 148 m -9 X s 894 160 m -9 X s 894 172 m -9 X s 894
 184 m -9 X s 902 195 m -17 X s 894 207 m -9 X s 894 219 m -9 X s 894 231 m -9 X s 894 243 m -9 X s 902 255 m -17 X s 894 266 m -9 X s 894 278 m -9 X s 894 290 m -9 X s 894 302 m -9 X s 902 314 m -17 X s 894 326 m -9 X s 894 337 m -9 X s 894 349 m -9
 X s 894 361 m -9 X s 902 373 m -17 X s 894 385 m -9 X s 894 397 m -9 X s 894 408 m -9 X s 894 420 m -9 X s 902 432 m -17 X s 894 444 m -9 X s 894 456 m -9 X s 894 468 m -9 X s 894 479 m -9 X s 902 491 m -17 X s 894 503 m -9 X s 894 515 m -9 X s 894
 527 m -9 X s 894 538 m -9 X s 902 550 m -17 X s 894 562 m -9 X s 894 574 m -9 X s 894 586 m -9 X s 894 598 m -9 X s 902 609 m -17 X s 902 609 m -17 X s 894 621 m -9 X s 894 633 m -9 X s 1 1 1 c black
 gsave  710 699 779 7 C 1041.51 672.14 t 0 r /Helvetica findfont 34.8619 sf 0 0 m (Background) show NC gr 
 gr  gr showpage
end
%%EOF
