%!PS-Adobe-2.0 EPSF-2.0
%%BoundingBox:  0 0 567 539
%%Title: real_12.eps: 
%%Creator: ROOT Version 6.13/01
%%CreationDate: Thu Dec 28 10:51:23 2017
%%DocumentNeededResources: ProcSet (FontSetInit)
%%EndComments
%%BeginProlog
80 dict begin
/s {stroke} def /l {lineto} def /m {moveto} def /t {translate} def
/r {rotate} def /rl {roll}  def /R {repeat} def
/d {rlineto} def /rm {rmoveto} def /gr {grestore} def /f {eofill} def
/c {setrgbcolor} def /black {0 setgray} def /sd {setdash} def
/cl {closepath} def /sf {scalefont setfont} def /lw {setlinewidth} def
/box {m dup 0 exch d exch 0 d 0 exch neg d cl} def
/NC{systemdict begin initclip end}def/C{NC box clip newpath}def
/bl {box s} def /bf {gsave box gsave f grestore 1 lw [] 0 sd s grestore} def /Y { 0 exch d} def /X { 0 d} def 
/K {{pop pop 0 moveto} exch kshow} bind def
/ita {/ang 15 def gsave [1 0 ang dup sin exch cos div 1 0 0] concat} def 
/mp {newpath /y exch def /x exch def} def
/side {[w .77 mul w .23 mul] .385 w mul sd w 0 l currentpoint t -144 r} def
/mr {mp x y w2 0 360 arc} def /m24 {mr s} def /m20 {mr f} def
/mb {mp x y w2 add m w2 neg 0 d 0 w neg d w 0 d 0 w d cl} def
/mt {mp x y w2 add m w2 neg w neg d w 0 d cl} def
/w4 {w 4 div} def
/w6 {w 6 div} def
/w8 {w 8 div} def
/m21 {mb f} def /m25 {mb s} def /m22 {mt f} def /m26{mt s} def
/m23 {mp x y w2 sub m w2 w d w neg 0 d cl f} def
/m27 {mp x y w2 add m w3 neg w2 neg d w3 w2 neg d w3 w2 d cl s} def
/m28 {mp x w2 sub y w2 sub w3 add m w3 0 d  0 w3 neg d w3 0 d 0 w3 d w3 0 d  0 w3 d w3 neg 0 d 0 w3 d w3 neg 0 d 0 w3 neg d w3 neg 0 d cl s } def
/m29 {mp gsave x w2 sub y w2 add w3 sub m currentpoint t 4 {side} repeat cl fill gr} def
/m30 {mp gsave x w2 sub y w2 add w3 sub m currentpoint t 4 {side} repeat cl s gr} def
/m31 {mp x y w2 sub m 0 w d x w2 sub y m w 0 d x w2 sub y w2 add m w w neg d x w2 sub y w2 sub m w w d s} def
/m32 {mp x y w2 sub m w2 w d w neg 0 d cl s} def
/m33 {mp x y w2 add m w3 neg w2 neg d w3 w2 neg d w3 w2 d cl f} def
/m34 {mp x w2 sub y w2 sub w3 add m w3 0 d  0 w3 neg d w3 0 d 0 w3 d w3 0 d  0 w3 d w3 neg 0 d 0 w3 d w3 neg 0 d 0 w3 neg d w3 neg 0 d cl f } def
/m35 {mp x y w2 add m w2 neg w2 neg d w2 w2 neg d w2 w2 d w2 neg w2 d x y w2 sub m 0 w d x w2 sub y m w 0 d s} def
/m36 {mb x w2 sub y w2 add m w w neg d x w2 sub y w2 sub m w w d s} def
/m37 {mp x y m w4 neg w2 d w4 neg w2 neg d w2 0 d  w4 neg w2 neg d w2 0 d w4 neg w2 d w2 0 d w4 neg w2 d w4 neg w2 neg d cl s} def
/m38 {mp x w4 sub y w2 add m w4 neg w4 neg d 0 w2 neg d w4 w4 neg d w2 0 d w4 w4 d 0 w2 d w4 neg w4 d w2 neg 0 d x y w2 sub m 0 w d x w2 sub y m w 0 d cl s} def
/m39 {mp x y m w4 neg w2 d w4 neg w2 neg d w2 0 d  w4 neg w2 neg d w2 0 d w4 neg w2 d w2 0 d w4 neg w2 d w4 neg w2 neg d cl f} def
/m40 {mp x y m w4 w2 d w4 w4 neg d w2 neg w4 neg d w2 w4 neg d w4 neg w4 neg d w4 neg w2 d w4 neg w2 neg d w4 neg w4 d w2 w4 d w2 neg w4 d w4 w4 d w4 w2 neg d cl s} def
/m41 {mp x y m w4 w2 d w4 w4 neg d w2 neg w4 neg d w2 w4 neg d w4 neg w4 neg d w4 neg w2 d w4 neg w2 neg d w4 neg w4 d w2 w4 d w2 neg w4 d w4 w4 d w4 w2 neg d cl f} def
/m42 {mp x y w2 add m w8 neg w2 -3 4 div mul d w2 -3 4 div mul w8 neg d w2 3 4 div mul w8 neg d w8 w2 -3 4 div mul d w8 w2 3 4 div mul d w2 3 4 div mul w8 d w2 -3 4 div mul w8 d w8 neg w2 3 4 div mul d cl s} def
/m43 {mp x y w2 add m w8 neg w2 -3 4 div mul d w2 -3 4 div mul w8 neg d w2 3 4 div mul w8 neg d w8 w2 -3 4 div mul d w8 w2 3 4 div mul d w2 3 4 div mul w8 d w2 -3 4 div mul w8 d w8 neg w2 3 4 div mul d cl f} def
/m44 {mp x y m w6 neg w2 d w2 2 3 div mul 0 d w6 neg w2 neg d w2 w6 d 0 w2 -2 3 div mul d w2 neg w6 d w6 w2 neg d w2 -2 3 div mul 0 d w6 w2 d w2 neg w6 neg d 0 w2 2 3 div mul d w2 w6 neg d cl s} def
/m45 {mp x y m w6 neg w2 d w2 2 3 div mul 0 d w6 neg w2 neg d w2 w6 d 0 w2 -2 3 div mul d w2 neg w6 d w6 w2 neg d w2 -2 3 div mul 0 d w6 w2 d w2 neg w6 neg d 0 w2 2 3 div mul d w2 w6 neg d cl f} def
/m46 {mp x y w4 add m w4 neg w4 d w4 neg w4 neg d  w4 w4 neg d w4 neg w4 neg d w4 w4 neg d w4 w4 d w4 w4 neg d w4 w4 d w4 neg w4 d w4 w4 d w4 neg w4 d w4 neg w4 neg d cl s} def
/m47 {mp x y w4 add m w4 neg w4 d w4 neg w4 neg d w4 w4 neg d w4 neg w4 neg d  w4 w4 neg d w4 w4 d w4 w4 neg d w4 w4 d w4 neg w4 d w4 w4 d w4 neg w4 d w4 neg w4 neg d cl f} def
/m48 {mp x y w4 add m w4 neg w4 d w4 neg w4 neg d w4 w4 neg d  w4 neg w4 neg d w4 w4 neg d w4 w4 d w4 w4 neg d w4 w4 d w4 neg w4 d w4 w4 d w4 neg w4 d w4 neg w4 neg d  w4 w4 neg d w4 neg w4 neg d w4 neg w4 d w4 w4 d cl f} def
/m49 {mp x w2 sub w3 add y w2 sub w3 add m  0 w3 neg d w3 0 d 0 w3 d w3 0 d 0 w3 d w3 neg 0 d 0 w3 d w3 neg 0 d 0 w3 neg d w3 neg 0 d 0 w3 neg d w3 0 d 0 w3 d w3 0 d 0 w3 neg d w3 neg 0 d cl f } def
/m2 {mp x y w2 sub m 0 w d x w2 sub y m w 0 d s} def
/m5 {mp x w2 sub y w2 sub m w w d x w2 sub y w2 add m w w neg d s} def
%%IncludeResource: ProcSet (FontSetInit)
%%IncludeResource: font Times-Roman
%%IncludeResource: font Times-Italic
%%IncludeResource: font Times-Bold
%%IncludeResource: font Times-BoldItalic
%%IncludeResource: font Helvetica
%%IncludeResource: font Helvetica-Oblique
%%IncludeResource: font Helvetica-Bold
%%IncludeResource: font Helvetica-BoldOblique
%%IncludeResource: font Courier
%%IncludeResource: font Courier-Oblique
%%IncludeResource: font Courier-Bold
%%IncludeResource: font Courier-BoldOblique
%%IncludeResource: font Symbol
%%IncludeResource: font ZapfDingbats
/reEncode {exch findfont dup length dict begin {1 index /FID eq  {pop pop} {def} ifelse } forall /Encoding exch def currentdict end dup /FontName get exch definefont pop } def [/Times-Bold /Times-Italic /Times-BoldItalic /Helvetica /Helvetica-Oblique
 /Helvetica-Bold /Helvetica-BoldOblique /Courier /Courier-Oblique /Courier-Bold /Courier-BoldOblique /Times-Roman /AvantGarde-Book /AvantGarde-BookOblique /AvantGarde-Demi /AvantGarde-DemiOblique /Bookman-Demi /Bookman-DemiItalic /Bookman-Light
 /Bookman-LightItalic /Helvetica-Narrow /Helvetica-Narrow-Bold /Helvetica-Narrow-BoldOblique /Helvetica-Narrow-Oblique /NewCenturySchlbk-Roman /NewCenturySchlbk-Bold /NewCenturySchlbk-BoldItalic /NewCenturySchlbk-Italic /Palatino-Bold
 /Palatino-BoldItalic /Palatino-Italic /Palatino-Roman ] {ISOLatin1Encoding reEncode } forall
%%EndProlog
%%BeginSetup
%%EndSetup
newpath  gsave  .25 .25 scale  gsave  0 0 t black[  ] 0 sd 3 lw 1 1 1 c 2268 2158 0 0 bf black 1 1 1 c 1814 1726 227 216 bf black 1814 1726 227 216 bl 227 216 m 1814 X s 227 268 m -52 Y s 272 242 m -26 Y s 317 242 m -26 Y s 363 242 m -26 Y s 408 242
 m -26 Y s 454 268 m -52 Y s 499 242 m -26 Y s 544 242 m -26 Y s 590 242 m -26 Y s 635 242 m -26 Y s 680 268 m -52 Y s 726 242 m -26 Y s 771 242 m -26 Y s 816 242 m -26 Y s 862 242 m -26 Y s 907 268 m -52 Y s 952 242 m -26 Y s 998 242 m -26 Y s 1043
 242 m -26 Y s 1089 242 m -26 Y s 1134 268 m -52 Y s 1179 242 m -26 Y s 1225 242 m -26 Y s 1270 242 m -26 Y s 1315 242 m -26 Y s 1361 268 m -52 Y s 1406 242 m -26 Y s 1451 242 m -26 Y s 1497 242 m -26 Y s 1542 242 m -26 Y s 1587 268 m -52 Y s 1633
 242 m -26 Y s 1678 242 m -26 Y s 1723 242 m -26 Y s 1769 242 m -26 Y s 1814 268 m -52 Y s 1860 242 m -26 Y s 1905 242 m -26 Y s 1950 242 m -26 Y s 1996 242 m -26 Y s 2041 268 m -52 Y s
 gsave  2268 2158 0 0 C 155.448 146.304 t 0 r /Helvetica findfont 68.5801 sf 0 0 m (5.25) show NC gr 
 gsave  2268 2158 0 0 C 365.761 146.304 t 0 r /Helvetica findfont 68.5801 sf 0 0 m (5.255) show NC gr 
 gsave  2268 2158 0 0 C 608.077 146.304 t 0 r /Helvetica findfont 68.5801 sf 0 0 m (5.26) show NC gr 
 gsave  2268 2158 0 0 C 818.39 146.304 t 0 r /Helvetica findfont 68.5801 sf 0 0 m (5.265) show NC gr 
 gsave  2268 2158 0 0 C 1065.28 146.304 t 0 r /Helvetica findfont 68.5801 sf 0 0 m (5.27) show NC gr 
 gsave  2268 2158 0 0 C 1271.02 146.304 t 0 r /Helvetica findfont 68.5801 sf 0 0 m (5.275) show NC gr 
 gsave  2268 2158 0 0 C 1517.91 146.304 t 0 r /Helvetica findfont 68.5801 sf 0 0 m (5.28) show NC gr 
 gsave  2268 2158 0 0 C 1723.65 146.304 t 0 r /Helvetica findfont 68.5801 sf 0 0 m (5.285) show NC gr 
 gsave  2268 2158 0 0 C 1970.54 146.304 t 0 r /Helvetica findfont 68.5801 sf 0 0 m (5.29) show NC gr 
 gsave  2268 2158 0 0 C 1714.5 77.7242 t 0 r /Helvetica findfont 68.5801 sf 0 0 m ( \(GeV/c^2\)) show NC gr 
 gsave  2268 2158 0 0 C 1664.21 59.4361 t 0 r /Helvetica findfont 45.7201 sf 0 0 m (bc) show NC gr 
 gsave  2268 2158 0 0 C 1609.35 77.7242 t 0 r /Helvetica findfont 68.5801 sf 0 0 m (m) show NC gr  227 216 m 1726 Y s 281 216 m -54 X s 254 269 m -27 X s 254 322 m -27 X s 254 375 m -27 X s 254 428 m -27 X s 281 481 m -54 X s 254 534 m -27 X s 254
 587 m -27 X s 254 640 m -27 X s 254 693 m -27 X s 281 746 m -54 X s 254 799 m -27 X s 254 852 m -27 X s 254 905 m -27 X s 254 958 m -27 X s 281 1012 m -54 X s 254 1065 m -27 X s 254 1118 m -27 X s 254 1171 m -27 X s 254 1224 m -27 X s 281 1277 m -54
 X s 254 1330 m -27 X s 254 1383 m -27 X s 254 1436 m -27 X s 254 1489 m -27 X s 281 1542 m -54 X s 254 1595 m -27 X s 254 1648 m -27 X s 254 1701 m -27 X s 254 1754 m -27 X s 281 1807 m -54 X s 281 1807 m -54 X s 254 1860 m -27 X s 254 1913 m -27 X
 s
 gsave  2268 2158 0 0 C 178.308 192.024 t 0 r /Helvetica findfont 68.5801 sf 0 0 m (0) show NC gr 
 gsave  2268 2158 0 0 C 100.584 457.201 t 0 r /Helvetica findfont 68.5801 sf 0 0 m (100) show NC gr 
 gsave  2268 2158 0 0 C 100.584 722.378 t 0 r /Helvetica findfont 68.5801 sf 0 0 m (200) show NC gr 
 gsave  2268 2158 0 0 C 100.584 987.554 t 0 r /Helvetica findfont 68.5801 sf 0 0 m (300) show NC gr 
 gsave  2268 2158 0 0 C 100.584 1252.73 t 0 r /Helvetica findfont 68.5801 sf 0 0 m (400) show NC gr 
 gsave  2268 2158 0 0 C 100.584 1517.91 t 0 r /Helvetica findfont 68.5801 sf 0 0 m (500) show NC gr 
 gsave  2268 2158 0 0 C 100.584 1783.08 t 0 r /Helvetica findfont 68.5801 sf 0 0 m (600) show NC gr 
 gsave  2268 2158 0 0 C 50.2921 1385.32 t 90 r /Helvetica findfont 68.5801 sf 0 0 m (Events / \( 0.0004 \)) show NC gr  236 226 m -9 X s 227 217 m 19 Y s 236 226 m 9 X s 245 217 m 19 Y s 236 226 m 9 Y s 227 235 m 18 X s 236 226 m -5 Y s 227 221 m 18
 X s 254 256 m -9 X s 245 246 m 19 Y s 254 256 m 9 X s 263 246 m 19 Y s 254 256 m 13 Y s 245 269 m 18 X s 254 256 m -11 Y s 245 245 m 18 X s 272 250 m -9 X s 263 241 m 18 Y s 272 250 m 9 X s 281 241 m 18 Y s 272 250 m 13 Y s 263 263 m 18 X s 272 250
 m -9 Y s 263 241 m 18 X s 290 229 m -9 X s 281 220 m 18 Y s 290 229 m 9 X s 299 220 m 18 Y s 290 229 m 9 Y s 281 238 m 18 X s 290 229 m -6 Y s 281 223 m 18 X s 308 258 m -9 X s 299 249 m 18 Y s 308 258 m 9 X s 317 249 m 18 Y s 308 258 m 14 Y s 299
 272 m 19 X s 308 258 m -10 Y s 299 248 m 19 X s 327 248 m -10 X s 317 238 m 19 Y s 327 248 m 9 X s 336 238 m 19 Y s 327 248 m 12 Y s 317 260 m 19 X s 327 248 m -9 Y s 317 239 m 19 X s 345 232 m -9 X s 336 223 m 18 Y s 345 232 m 9 X s 354 223 m 18 Y
 s 345 232 m 9 Y s 336 241 m 18 X s 345 232 m -7 Y s 336 225 m 18 X s 363 242 m -9 X s 354 233 m 18 Y s 363 242 m 9 X s 372 233 m 18 Y s 363 242 m 12 Y s 354 254 m 18 X s 363 242 m -8 Y s 354 234 m 18 X s 381 234 m -9 X s 372 225 m 19 Y s 381 234 m 9
 X s 390 225 m 19 Y s 381 234 m 10 Y s 372 244 m 18 X s 381 234 m -6 Y s 372 228 m 18 X s 399 242 m -9 X s 390 233 m 18 Y s 399 242 m 9 X s 408 233 m 18 Y s 399 242 m 12 Y s 390 254 m 18 X s 399 242 m -8 Y s 390 234 m 18 X s 417 234 m -9 X s 408 225
 m 19 Y s 417 234 m 9 X s 426 225 m 19 Y s 417 234 m 10 Y s 408 244 m 18 X s 417 234 m -6 Y s 408 228 m 18 X s 435 232 m -9 X s 426 223 m 18 Y s 435 232 m 9 X s 444 223 m 18 Y s 435 232 m 9 Y s 426 241 m 19 X s 435 232 m -7 Y s 426 225 m 19 X s 454
 248 m -10 X s 444 238 m 19 Y s 454 248 m 9 X s 463 238 m 19 Y s 454 248 m 12 Y s 444 260 m 19 X s 454 248 m -9 Y s 444 239 m 19 X s 472 234 m -9 X s 463 225 m 19 Y s 472 234 m 9 X s 481 225 m 19 Y s 472 234 m 10 Y s 463 244 m 18 X s 472 234 m -6 Y s
 463 228 m 18 X s 490 234 m -9 X s 481 225 m 19 Y s 490 234 m 9 X s 499 225 m 19 Y s 490 234 m 10 Y s 481 244 m 18 X s 490 234 m -6 Y s 481 228 m 18 X s 508 245 m -9 X s 499 236 m 18 Y s 508 245 m 9 X s 517 236 m 18 Y s 508 245 m 12 Y s 499 257 m 18
 X s 508 245 m -9 Y s 499 236 m 18 X s 526 253 m -9 X s 517 244 m 18 Y s 526 253 m 9 X s 535 244 m 18 Y s 526 253 m 13 Y s 517 266 m 18 X s 526 253 m -10 Y s 517 243 m 18 X s 544 240 m -9 X s 535 231 m 18 Y s 544 240 m 9 X s 553 231 m 18 Y s 544 240
 m 11 Y s 535 251 m 18 X s 544 240 m -8 Y s 535 232 m 18 X s 562 237 m -9 X s 553 228 m 18 Y s 562 237 m 9 X s 571 228 m 18 Y s 562 237 m 10 Y s 553 247 m 19 X s 562 237 m -7 Y s 553 230 m 19 X s 581 258 m -10 X s 571 249 m 18 Y s 581 258 m 9 X s 590
 249 m 18 Y s 581 258 m 14 Y s 571 272 m 19 X s 581 258 m -10 Y s 571 248 m 19 X s 599 248 m -9 X s 590 238 m 19 Y s 599 248 m 9 X s 608 238 m 19 Y s 599 248 m 12 Y s 590 260 m 18 X s 599 248 m -9 Y s 590 239 m 18 X s 617 237 m -9 X s 608 228 m 18 Y
 s 617 237 m 9 X s 626 228 m 18 Y s 617 237 m 10 Y s 608 247 m 18 X s 617 237 m -7 Y s 608 230 m 18 X s 635 266 m -9 X s 626 257 m 18 Y s 635 266 m 9 X s 644 257 m 18 Y s 635 266 m 15 Y s 626 281 m 18 X s 635 266 m -11 Y s 626 255 m 18 X s 653 248 m
 -9 X s 644 238 m 19 Y s 653 248 m 9 X s 662 238 m 19 Y s 653 248 m 12 Y s 644 260 m 18 X s 653 248 m -9 Y s 644 239 m 18 X s 671 256 m -9 X s 662 246 m 19 Y s 671 256 m 9 X s 680 246 m 19 Y s 671 256 m 13 Y s 662 269 m 18 X s 671 256 m -11 Y s 662
 245 m 18 X s 689 242 m -9 X s 680 233 m 18 Y s 689 242 m 9 X s 698 233 m 18 Y s 689 242 m 12 Y s 680 254 m 19 X s 689 242 m -8 Y s 680 234 m 19 X s 708 256 m -10 X s 698 246 m 19 Y s 708 256 m 9 X s 717 246 m 19 Y s 708 256 m 13 Y s 698 269 m 19 X s
 708 256 m -11 Y s 698 245 m 19 X s 726 240 m -9 X s 717 231 m 18 Y s 726 240 m 9 X s 735 231 m 18 Y s 726 240 m 11 Y s 717 251 m 18 X s 726 240 m -8 Y s 717 232 m 18 X s 744 240 m -9 X s 735 231 m 18 Y s 744 240 m 9 X s 753 231 m 18 Y s 744 240 m 11
 Y s 735 251 m 18 X s 744 240 m -8 Y s 735 232 m 18 X s 762 245 m -9 X s 753 236 m 18 Y s 762 245 m 9 X s 771 236 m 18 Y s 762 245 m 12 Y s 753 257 m 18 X s 762 245 m -9 Y s 753 236 m 18 X s 780 242 m -9 X s 771 233 m 18 Y s 780 242 m 9 X s 789 233 m
 18 Y s 780 242 m 12 Y s 771 254 m 18 X s 780 242 m -8 Y s 771 234 m 18 X s 798 248 m -9 X s 789 238 m 19 Y s 798 248 m 9 X s 807 238 m 19 Y s 798 248 m 12 Y s 789 260 m 18 X s 798 248 m -9 Y s 789 239 m 18 X s 816 237 m -9 X s 807 228 m 18 Y s 816
 237 m 9 X s 825 228 m 18 Y s 816 237 m 10 Y s 807 247 m 19 X s 816 237 m -7 Y s 807 230 m 19 X s 835 250 m -10 X s 825 241 m 18 Y s 835 250 m 9 X s 844 241 m 18 Y s 835 250 m 13 Y s 825 263 m 19 X s 835 250 m -9 Y s 825 241 m 19 X s 853 240 m -9 X s
 844 231 m 18 Y s 853 240 m 9 X s 862 231 m 18 Y s 853 240 m 11 Y s 844 251 m 18 X s 853 240 m -8 Y s 844 232 m 18 X s 871 250 m -9 X s 862 241 m 18 Y s 871 250 m 9 X s 880 241 m 18 Y s 871 250 m 13 Y s 862 263 m 18 X s 871 250 m -9 Y s 862 241 m 18
 X s 889 261 m -9 X s 880 252 m 18 Y s 889 261 m 9 X s 898 252 m 18 Y s 889 261 m 14 Y s 880 275 m 18 X s 889 261 m -11 Y s 880 250 m 18 X s 907 245 m -9 X s 898 236 m 18 Y s 907 245 m 9 X s 916 236 m 18 Y s 907 245 m 12 Y s 898 257 m 18 X s 907 245
 m -9 Y s 898 236 m 18 X s 925 250 m -9 X s 916 241 m 18 Y s 925 250 m 9 X s 934 241 m 18 Y s 925 250 m 13 Y s 916 263 m 18 X s 925 250 m -9 Y s 916 241 m 18 X s 943 245 m -9 X s 934 236 m 18 Y s 943 245 m 9 X s 952 236 m 18 Y s 943 245 m 12 Y s 934
 257 m 19 X s 943 245 m -9 Y s 934 236 m 19 X s 962 256 m -10 X s 952 246 m 19 Y s 962 256 m 9 X s 971 246 m 19 Y s 962 256 m 13 Y s 952 269 m 19 X s 962 256 m -11 Y s 952 245 m 19 X s 980 250 m -9 X s 971 241 m 18 Y s 980 250 m 9 X s 989 241 m 18 Y
 s 980 250 m 13 Y s 971 263 m 18 X s 980 250 m -9 Y s 971 241 m 18 X s 998 277 m -9 X s 989 268 m 18 Y s 998 277 m 9 X s 1007 268 m 18 Y s 998 277 m 15 Y s 989 292 m 18 X s 998 277 m -13 Y s 989 264 m 18 X s 1016 253 m -9 X s 1007 244 m 18 Y s 1016
 253 m 9 X s 1025 244 m 18 Y s 1016 253 m 13 Y s 1007 266 m 18 X s 1016 253 m -10 Y s 1007 243 m 18 X s 1034 253 m -9 X s 1025 244 m 18 Y s 1034 253 m 9 X s 1043 244 m 18 Y s 1034 253 m 13 Y s 1025 266 m 18 X s 1034 253 m -10 Y s 1025 243 m 18 X s
 1052 258 m -9 X s 1043 249 m 18 Y s 1052 258 m 9 X s 1061 249 m 18 Y s 1052 258 m 14 Y s 1043 272 m 18 X s 1052 258 m -10 Y s 1043 248 m 18 X s 1070 256 m -9 X s 1061 246 m 19 Y s 1070 256 m 9 X s 1079 246 m 19 Y s 1070 256 m 13 Y s 1061 269 m 19 X
 s 1070 256 m -11 Y s 1061 245 m 19 X s 1089 271 m -10 X s 1079 262 m 19 Y s 1089 271 m 9 X s 1098 262 m 19 Y s 1089 271 m 15 Y s 1079 286 m 19 X s 1089 271 m -12 Y s 1079 259 m 19 X s 1107 261 m -9 X s 1098 252 m 18 Y s 1107 261 m 9 X s 1116 252 m
 18 Y s 1107 261 m 14 Y s 1098 275 m 18 X s 1107 261 m -11 Y s 1098 250 m 18 X s 1125 250 m -9 X s 1116 241 m 18 Y s 1125 250 m 9 X s 1134 241 m 18 Y s 1125 250 m 13 Y s 1116 263 m 18 X s 1125 250 m -9 Y s 1116 241 m 18 X s 1143 261 m -9 X s 1134 252
 m 18 Y s 1143 261 m 9 X s 1152 252 m 18 Y s 1143 261 m 14 Y s 1134 275 m 18 X s 1143 261 m -11 Y s 1134 250 m 18 X s 1161 282 m -9 X s 1152 273 m 18 Y s 1161 282 m 9 X s 1170 273 m 18 Y s 1161 282 m 16 Y s 1152 298 m 18 X s 1161 282 m -13 Y s 1152
 269 m 18 X s 1179 282 m -9 X s 1170 273 m 18 Y s 1179 282 m 9 X s 1188 273 m 18 Y s 1179 282 m 16 Y s 1170 298 m 18 X s 1179 282 m -13 Y s 1170 269 m 18 X s 1197 274 m -9 X s 1188 265 m 18 Y s 1197 274 m 9 X s 1206 265 m 18 Y s 1197 274 m 15 Y s
 1188 289 m 18 X s 1197 274 m -12 Y s 1188 262 m 18 X s 1215 311 m -9 X s 1206 302 m 18 Y s 1215 311 m 10 X s 1225 302 m 18 Y s 1215 311 m 19 Y s 1206 330 m 19 X s 1215 311 m -16 Y s 1206 295 m 19 X s 1234 319 m -9 X s 1225 310 m 18 Y s 1234 319 m 9
 X s 1243 310 m 18 Y s 1234 319 m 20 Y s 1224 339 m 19 X s 1234 319 m -16 Y s 1224 303 m 19 X s 1252 354 m -9 X s 1243 345 m 18 Y s 1252 354 m 9 X s 1261 345 m 18 Y s 1252 354 m 22 Y s 1243 376 m 18 X s 1252 354 m -19 Y s 1243 335 m 18 X s 1270 335 m
 -9 X s 1261 326 m 18 Y s 1270 335 m 9 X s 1279 326 m 18 Y s 1270 335 m 21 Y s 1261 356 m 18 X s 1270 335 m -18 Y s 1261 317 m 18 X s 1288 343 m -9 X s 1279 334 m 18 Y s 1288 343 m 9 X s 1297 334 m 18 Y s 1288 343 m 21 Y s 1279 364 m 18 X s 1288 343
 m -18 Y s 1279 325 m 18 X s 1306 348 m -9 X s 1297 339 m 19 Y s 1306 348 m 9 X s 1315 339 m 19 Y s 1306 348 m 22 Y s 1297 370 m 18 X s 1306 348 m -18 Y s 1297 330 m 18 X s 1324 396 m -9 X s 1315 387 m 18 Y s 1324 396 m 9 X s 1333 387 m 18 Y s 1324
 396 m 25 Y s 1315 421 m 18 X s 1324 396 m -22 Y s 1315 374 m 18 X s 1342 420 m -9 X s 1333 411 m 18 Y s 1342 420 m 10 X s 1352 411 m 18 Y s 1342 420 m 26 Y s 1333 446 m 19 X s 1342 420 m -23 Y s 1333 397 m 19 X s 1361 468 m -9 X s 1352 459 m 18 Y s
 1361 468 m 9 X s 1370 459 m 18 Y s 1361 468 m 28 Y s 1351 496 m 19 X s 1361 468 m -26 Y s 1351 442 m 19 X s 1379 510 m -9 X s 1370 501 m 18 Y s 1379 510 m 9 X s 1388 501 m 18 Y s 1379 510 m 30 Y s 1370 540 m 18 X s 1379 510 m -26 Y s 1370 484 m 18 X
 s 1397 577 m -9 X s 1388 567 m 19 Y s 1397 577 m 9 X s 1406 567 m 19 Y s 1397 577 m 32 Y s 1388 609 m 18 X s 1397 577 m -30 Y s 1388 547 m 18 X s 1415 701 m -9 X s 1406 692 m 18 Y s 1415 701 m 9 X s 1424 692 m 18 Y s 1415 701 m 37 Y s 1406 738 m 18
 X s 1415 701 m -34 Y s 1406 667 m 18 X s 1433 752 m -9 X s 1424 742 m 19 Y s 1433 752 m 9 X s 1442 742 m 19 Y s 1433 752 m 39 Y s 1424 791 m 18 X s 1433 752 m -37 Y s 1424 715 m 18 X s 1451 903 m -9 X s 1442 894 m 18 Y s 1451 903 m 9 X s 1460 894 m
 18 Y s 1451 903 m 44 Y s 1442 947 m 18 X s 1451 903 m -42 Y s 1442 861 m 18 X s 1469 996 m -9 X s 1460 986 m 19 Y s 1469 996 m 10 X s 1479 986 m 19 Y s 1469 996 m 46 Y s 1460 1042 m 19 X s 1469 996 m -45 Y s 1460 951 m 19 X s 1488 1110 m -9 X s 1479
 1100 m 19 Y s 1488 1110 m 9 X s 1497 1100 m 19 Y s 1488 1110 m 50 Y s 1478 1160 m 19 X s 1488 1110 m -48 Y s 1478 1062 m 19 X s 1506 1229 m -9 X s 1497 1220 m 18 Y s 1506 1229 m 9 X s 1515 1220 m 18 Y s 1506 1229 m 53 Y s 1497 1282 m 18 X s 1506
 1229 m -51 Y s 1497 1178 m 18 X s 1524 1285 m -9 X s 1515 1276 m 18 Y s 1524 1285 m 9 X s 1533 1276 m 18 Y s 1524 1285 m 54 Y s 1515 1339 m 18 X s 1524 1285 m -52 Y s 1515 1233 m 18 X s 1542 1619 m -9 X s 1533 1610 m 18 Y s 1542 1619 m 9 X s 1551
 1610 m 18 Y s 1542 1619 m 62 Y s 1533 1681 m 18 X s 1542 1619 m -60 Y s 1533 1559 m 18 X s 1560 1619 m -9 X s 1551 1610 m 18 Y s 1560 1619 m 9 X s 1569 1610 m 18 Y s 1560 1619 m 62 Y s 1551 1681 m 18 X s 1560 1619 m -60 Y s 1551 1559 m 18 X s 1578
 1598 m -9 X s 1569 1589 m 18 Y s 1578 1598 m 9 X s 1587 1589 m 18 Y s 1578 1598 m 62 Y s 1569 1660 m 18 X s 1578 1598 m -60 Y s 1569 1538 m 18 X s 1596 1611 m -9 X s 1587 1602 m 18 Y s 1596 1611 m 10 X s 1606 1602 m 18 Y s 1596 1611 m 62 Y s 1587
 1673 m 19 X s 1596 1611 m -60 Y s 1587 1551 m 19 X s 1615 1582 m -9 X s 1606 1573 m 18 Y s 1615 1582 m 9 X s 1624 1573 m 18 Y s 1615 1582 m 61 Y s 1605 1643 m 19 X s 1615 1582 m -59 Y s 1605 1523 m 19 X s 1633 1794 m -9 X s 1624 1785 m 18 Y s 1633
 1794 m 9 X s 1642 1785 m 18 Y s 1633 1794 m 66 Y s 1624 1860 m 18 X s 1633 1794 m -63 Y s 1624 1731 m 18 X s 1651 1584 m -9 X s 1642 1575 m 19 Y s 1651 1584 m 9 X s 1660 1575 m 19 Y s 1651 1584 m 62 Y s 1642 1646 m 18 X s 1651 1584 m -59 Y s 1642
 1525 m 18 X s 1669 1518 m -9 X s 1660 1509 m 18 Y s 1669 1518 m 9 X s 1678 1509 m 18 Y s 1669 1518 m 60 Y s 1660 1578 m 18 X s 1669 1518 m -57 Y s 1660 1461 m 18 X s 1687 1396 m -9 X s 1678 1387 m 18 Y s 1687 1396 m 9 X s 1696 1387 m 18 Y s 1687
 1396 m 57 Y s 1678 1453 m 18 X s 1687 1396 m -55 Y s 1678 1341 m 18 X s 1705 1240 m -9 X s 1696 1230 m 19 Y s 1705 1240 m 9 X s 1714 1230 m 19 Y s 1705 1240 m 53 Y s 1696 1293 m 18 X s 1705 1240 m -51 Y s 1696 1189 m 18 X s 1723 1189 m -9 X s 1714
 1180 m 18 Y s 1723 1189 m 10 X s 1733 1180 m 18 Y s 1723 1189 m 52 Y s 1714 1241 m 19 X s 1723 1189 m -49 Y s 1714 1140 m 19 X s 1742 1091 m -9 X s 1733 1082 m 18 Y s 1742 1091 m 9 X s 1751 1082 m 18 Y s 1742 1091 m 50 Y s 1732 1141 m 19 X s 1742
 1091 m -47 Y s 1732 1044 m 19 X s 1760 863 m -9 X s 1751 854 m 18 Y s 1760 863 m 9 X s 1769 854 m 18 Y s 1760 863 m 43 Y s 1751 906 m 18 X s 1760 863 m -40 Y s 1751 823 m 18 X s 1778 810 m -9 X s 1769 801 m 18 Y s 1778 810 m 9 X s 1787 801 m 18 Y s
 1778 810 m 41 Y s 1769 851 m 18 X s 1778 810 m -38 Y s 1769 772 m 18 X s 1796 672 m -9 X s 1787 663 m 18 Y s 1796 672 m 9 X s 1805 663 m 18 Y s 1796 672 m 36 Y s 1787 708 m 18 X s 1796 672 m -33 Y s 1787 639 m 18 X s 1814 598 m -9 X s 1805 589 m 18
 Y s 1814 598 m 9 X s 1823 589 m 18 Y s 1814 598 m 33 Y s 1805 631 m 18 X s 1814 598 m -31 Y s 1805 567 m 18 X s 1832 526 m -9 X s 1823 517 m 18 Y s 1832 526 m 9 X s 1841 517 m 18 Y s 1832 526 m 30 Y s 1823 556 m 18 X s 1832 526 m -27 Y s 1823 499 m
 18 X s 1850 452 m -9 X s 1841 443 m 18 Y s 1850 452 m 10 X s 1860 443 m 18 Y s 1850 452 m 28 Y s 1841 480 m 19 X s 1850 452 m -25 Y s 1841 427 m 19 X s 1869 396 m -9 X s 1860 387 m 18 Y s 1869 396 m 9 X s 1878 387 m 18 Y s 1869 396 m 25 Y s 1859 421
 m 19 X s 1869 396 m -22 Y s 1859 374 m 19 X s 1887 359 m -9 X s 1878 350 m 18 Y s 1887 359 m 9 X s 1896 350 m 18 Y s 1887 359 m 22 Y s 1878 381 m 18 X s 1887 359 m -19 Y s 1878 340 m 18 X s 1905 306 m -9 X s 1896 297 m 18 Y s 1905 306 m 9 X s 1914
 297 m 18 Y s 1905 306 m 18 Y s 1896 324 m 18 X s 1905 306 m -15 Y s 1896 291 m 18 X s 1923 298 m -9 X s 1914 289 m 18 Y s 1923 298 m 9 X s 1932 289 m 18 Y s 1923 298 m 18 Y s 1914 316 m 18 X s 1923 298 m -15 Y s 1914 283 m 18 X s 1941 277 m -9 X s
 1932 268 m 18 Y s 1941 277 m 9 X s 1950 268 m 18 Y s 1941 277 m 15 Y s 1932 292 m 18 X s 1941 277 m -13 Y s 1932 264 m 18 X s 1959 245 m -9 X s 1950 236 m 18 Y s 1959 245 m 9 X s 1968 236 m 18 Y s 1959 245 m 12 Y s 1950 257 m 18 X s 1959 245 m -9 Y
 s 1950 236 m 18 X s 1977 245 m -9 X s 1968 236 m 18 Y s 1977 245 m 10 X s 1987 236 m 18 Y s 1977 245 m 12 Y s 1968 257 m 19 X s 1977 245 m -9 Y s 1968 236 m 19 X s 1996 226 m -9 X s 1987 217 m 19 Y s 1996 226 m 9 X s 2005 217 m 19 Y s 1996 226 m 9 Y
 s 1986 235 m 19 X s 1996 226 m -5 Y s 1986 221 m 19 X s 2014 234 m -9 X s 2005 225 m 19 Y s 2014 234 m 9 X s 2023 225 m 19 Y s 2014 234 m 10 Y s 2005 244 m 18 X s 2014 234 m -6 Y s 2005 228 m 18 X s 2032 226 m -9 X s 2023 217 m 19 Y s 2032 226 m 9 X
 s 2041 217 m 19 Y s 2032 226 m 9 Y s 2023 235 m 18 X s 2032 226 m -5 Y s 2023 221 m 18 X s 1 1 1 c black /w 37 def /w2 {w 2 div} def /w3 {w 3 div} def 236 226 254 256 272 250 290 229 308 258 327 248 345 232 363 242 381 234 399 242 417 234 435 232
 454 248 472 234 490 234 508 245 526 253 544 240 562 237 581 258 599 248 617 237 635 266 653 248 671 256 689 242 708 256 726 240 744 240 762 245 780 242 798 248 816 237 835 250 853 240 871 250 889 261 907 245 925 250 943 245 962 256 980 250 998 277
 1016 253 1034 253 1052 258 1070 256 1089 271 1107 261 1125 250 1143 261 1161 282 1179 282 1197 274 1215 311 1234 319 1252 354 1270 335 1288 343 1306 348 1324 396 1342 420 1361 468 1379 510 1397 577 1415 701 1433 752 1451 903 1469 996 1488 1110 1506
 1229 1524 1285 1542 1619 1560 1619 1578 1598 1596 1611 1615 1582 1633 1794 1651 1584 1669 1518 1687 1396 1705 1240 1723 1189 1742 1091 1760 863 1778 810 1796 672 1814 598 1832 526 1850 452 1869 396 1887 359 1905 306 1923 298 1941 277 1959 245 1977
 245 1996 226 2014 234 2032 226 100 { m20} R 0 0 1 c 9 lw 1 1 1 c black 0 0 1 c 227 244 m cl s 227 244 m 54 X 18 1 d 55 X 18 1 d 72 X 19 1 d 72 X 18 1 d 73 X 18 1 d 54 X 19 1 d 72 X 18 1 d 73 X 18 1 d 54 X 19 1 d 36 X 18 1 d 18 1 d 18 X 18 1 d 19 1 d
 18 1 d 18 2 d 18 2 d 18 2 d 18 4 d 18 4 d 19 5 d 18 8 d 18 10 d 18 14 d 18 19 d 18 26 d 18 33 d 19 43 d 9 25 d 9 29 d 9 32 d 9 35 d 9 39 d 9 42 d 9 45 d 9 49 d 9 52 d 9 55 d 18 118 d 19 124 d 18 128 d 18 124 d 9 58 d 9 56 d 9 51 d 9 47 d 9 41 d 9 34
 d 9 28 d 9 21 d 9 13 d 10 5 d 9 -3 d 9 -11 d 9 -19 d 9 -26 d 9 -33 d 9 -39 d 9 -45 d 9 -51 d 9 -54 d 9 -58 d 18 -124 d 19 -128 d 18 -126 d 18 -120 d 18 -109 d 9 -51 d 9 -46 d 9 -44 d 9 -40 d 9 -37 d 9 -33 d 9 -30 d 10 -27 d 18 -46 d 18 -35 d 18 -28
 d 18 -21 d 18 -17 d 18 -12 d 19 -11 d 18 -8 d 18 -9 d 9 -4 d 9 -9 d s[ 12 12] 0 sd 1 1 1 c black 0 0 1 c 227 244 m cl s 227 244 m 54 X 18 1 d 55 X 18 1 d 72 X 19 1 d 72 X 18 1 d 73 X 18 1 d 54 X 19 1 d 72 X 18 1 d 73 X 18 1 d 54 X 19 1 d 36 X 18 1 d
 18 1 d 18 X 18 1 d 19 1 d 18 1 d 18 1 d 18 2 d 18 2 d 18 2 d 18 2 d 19 3 d 18 3 d 18 3 d 18 4 d 18 4 d 18 5 d 18 4 d 19 5 d 18 5 d 18 6 d 18 5 d 18 5 d 18 6 d 18 5 d 19 4 d 18 5 d 18 3 d 18 4 d 18 2 d 18 2 d 18 1 d 19 X 18 -1 d 18 -1 d 18 -2 d 18 -3
 d 18 -4 d 18 -4 d 19 -5 d 18 -6 d 18 -5 d 18 -6 d 18 -7 d 18 -6 d 18 -6 d 19 -6 d 18 -6 d 18 -6 d 18 -6 d 18 -6 d 18 -5 d 18 -5 d 19 -6 d 18 -5 d 9 -3 d 9 -4 d 9 -3 d 4 -3 d 3 -2 d 2 -3 d s black[  ] 0 sd 3 lw 227 216 m 1814 X s 227 268 m -52 Y s
 272 242 m -26 Y s 317 242 m -26 Y s 363 242 m -26 Y s 408 242 m -26 Y s 454 268 m -52 Y s 499 242 m -26 Y s 544 242 m -26 Y s 590 242 m -26 Y s 635 242 m -26 Y s 680 268 m -52 Y s 726 242 m -26 Y s 771 242 m -26 Y s 816 242 m -26 Y s 862 242 m -26 Y
 s 907 268 m -52 Y s 952 242 m -26 Y s 998 242 m -26 Y s 1043 242 m -26 Y s 1089 242 m -26 Y s 1134 268 m -52 Y s 1179 242 m -26 Y s 1225 242 m -26 Y s 1270 242 m -26 Y s 1315 242 m -26 Y s 1361 268 m -52 Y s 1406 242 m -26 Y s 1451 242 m -26 Y s
 1497 242 m -26 Y s 1542 242 m -26 Y s 1587 268 m -52 Y s 1633 242 m -26 Y s 1678 242 m -26 Y s 1723 242 m -26 Y s 1769 242 m -26 Y s 1814 268 m -52 Y s 1860 242 m -26 Y s 1905 242 m -26 Y s 1950 242 m -26 Y s 1996 242 m -26 Y s 2041 268 m -52 Y s
 227 216 m 1726 Y s 281 216 m -54 X s 254 269 m -27 X s 254 322 m -27 X s 254 375 m -27 X s 254 428 m -27 X s 281 481 m -54 X s 254 534 m -27 X s 254 587 m -27 X s 254 640 m -27 X s 254 693 m -27 X s 281 746 m -54 X s 254 799 m -27 X s 254 852 m -27
 X s 254 905 m -27 X s 254 958 m -27 X s 281 1012 m -54 X s 254 1065 m -27 X s 254 1118 m -27 X s 254 1171 m -27 X s 254 1224 m -27 X s 281 1277 m -54 X s 254 1330 m -27 X s 254 1383 m -27 X s 254 1436 m -27 X s 254 1489 m -27 X s 281 1542 m -54 X s
 254 1595 m -27 X s 254 1648 m -27 X s 254 1701 m -27 X s 254 1754 m -27 X s 281 1807 m -54 X s 281 1807 m -54 X s 254 1860 m -27 X s 254 1913 m -27 X s
 gr  gr showpage
end
%%EOF
