%!PS-Adobe-2.0 EPSF-2.0
%%BoundingBox:  0 0 567 383
%%Title: delta_m_bc.eps: Canvas_1
%%Creator: ROOT Version 6.13/01
%%CreationDate: Wed Dec 27 21:18:43 2017
%%DocumentNeededResources: ProcSet (FontSetInit)
%%EndComments
%%BeginProlog
80 dict begin
/s {stroke} def /l {lineto} def /m {moveto} def /t {translate} def
/r {rotate} def /rl {roll}  def /R {repeat} def
/d {rlineto} def /rm {rmoveto} def /gr {grestore} def /f {eofill} def
/c {setrgbcolor} def /black {0 setgray} def /sd {setdash} def
/cl {closepath} def /sf {scalefont setfont} def /lw {setlinewidth} def
/box {m dup 0 exch d exch 0 d 0 exch neg d cl} def
/NC{systemdict begin initclip end}def/C{NC box clip newpath}def
/bl {box s} def /bf {gsave box gsave f grestore 1 lw [] 0 sd s grestore} def /Y { 0 exch d} def /X { 0 d} def 
/K {{pop pop 0 moveto} exch kshow} bind def
/ita {/ang 15 def gsave [1 0 ang dup sin exch cos div 1 0 0] concat} def 
/mp {newpath /y exch def /x exch def} def
/side {[w .77 mul w .23 mul] .385 w mul sd w 0 l currentpoint t -144 r} def
/mr {mp x y w2 0 360 arc} def /m24 {mr s} def /m20 {mr f} def
/mb {mp x y w2 add m w2 neg 0 d 0 w neg d w 0 d 0 w d cl} def
/mt {mp x y w2 add m w2 neg w neg d w 0 d cl} def
/w4 {w 4 div} def
/w6 {w 6 div} def
/w8 {w 8 div} def
/m21 {mb f} def /m25 {mb s} def /m22 {mt f} def /m26{mt s} def
/m23 {mp x y w2 sub m w2 w d w neg 0 d cl f} def
/m27 {mp x y w2 add m w3 neg w2 neg d w3 w2 neg d w3 w2 d cl s} def
/m28 {mp x w2 sub y w2 sub w3 add m w3 0 d  0 w3 neg d w3 0 d 0 w3 d w3 0 d  0 w3 d w3 neg 0 d 0 w3 d w3 neg 0 d 0 w3 neg d w3 neg 0 d cl s } def
/m29 {mp gsave x w2 sub y w2 add w3 sub m currentpoint t 4 {side} repeat cl fill gr} def
/m30 {mp gsave x w2 sub y w2 add w3 sub m currentpoint t 4 {side} repeat cl s gr} def
/m31 {mp x y w2 sub m 0 w d x w2 sub y m w 0 d x w2 sub y w2 add m w w neg d x w2 sub y w2 sub m w w d s} def
/m32 {mp x y w2 sub m w2 w d w neg 0 d cl s} def
/m33 {mp x y w2 add m w3 neg w2 neg d w3 w2 neg d w3 w2 d cl f} def
/m34 {mp x w2 sub y w2 sub w3 add m w3 0 d  0 w3 neg d w3 0 d 0 w3 d w3 0 d  0 w3 d w3 neg 0 d 0 w3 d w3 neg 0 d 0 w3 neg d w3 neg 0 d cl f } def
/m35 {mp x y w2 add m w2 neg w2 neg d w2 w2 neg d w2 w2 d w2 neg w2 d x y w2 sub m 0 w d x w2 sub y m w 0 d s} def
/m36 {mb x w2 sub y w2 add m w w neg d x w2 sub y w2 sub m w w d s} def
/m37 {mp x y m w4 neg w2 d w4 neg w2 neg d w2 0 d  w4 neg w2 neg d w2 0 d w4 neg w2 d w2 0 d w4 neg w2 d w4 neg w2 neg d cl s} def
/m38 {mp x w4 sub y w2 add m w4 neg w4 neg d 0 w2 neg d w4 w4 neg d w2 0 d w4 w4 d 0 w2 d w4 neg w4 d w2 neg 0 d x y w2 sub m 0 w d x w2 sub y m w 0 d cl s} def
/m39 {mp x y m w4 neg w2 d w4 neg w2 neg d w2 0 d  w4 neg w2 neg d w2 0 d w4 neg w2 d w2 0 d w4 neg w2 d w4 neg w2 neg d cl f} def
/m40 {mp x y m w4 w2 d w4 w4 neg d w2 neg w4 neg d w2 w4 neg d w4 neg w4 neg d w4 neg w2 d w4 neg w2 neg d w4 neg w4 d w2 w4 d w2 neg w4 d w4 w4 d w4 w2 neg d cl s} def
/m41 {mp x y m w4 w2 d w4 w4 neg d w2 neg w4 neg d w2 w4 neg d w4 neg w4 neg d w4 neg w2 d w4 neg w2 neg d w4 neg w4 d w2 w4 d w2 neg w4 d w4 w4 d w4 w2 neg d cl f} def
/m42 {mp x y w2 add m w8 neg w2 -3 4 div mul d w2 -3 4 div mul w8 neg d w2 3 4 div mul w8 neg d w8 w2 -3 4 div mul d w8 w2 3 4 div mul d w2 3 4 div mul w8 d w2 -3 4 div mul w8 d w8 neg w2 3 4 div mul d cl s} def
/m43 {mp x y w2 add m w8 neg w2 -3 4 div mul d w2 -3 4 div mul w8 neg d w2 3 4 div mul w8 neg d w8 w2 -3 4 div mul d w8 w2 3 4 div mul d w2 3 4 div mul w8 d w2 -3 4 div mul w8 d w8 neg w2 3 4 div mul d cl f} def
/m44 {mp x y m w6 neg w2 d w2 2 3 div mul 0 d w6 neg w2 neg d w2 w6 d 0 w2 -2 3 div mul d w2 neg w6 d w6 w2 neg d w2 -2 3 div mul 0 d w6 w2 d w2 neg w6 neg d 0 w2 2 3 div mul d w2 w6 neg d cl s} def
/m45 {mp x y m w6 neg w2 d w2 2 3 div mul 0 d w6 neg w2 neg d w2 w6 d 0 w2 -2 3 div mul d w2 neg w6 d w6 w2 neg d w2 -2 3 div mul 0 d w6 w2 d w2 neg w6 neg d 0 w2 2 3 div mul d w2 w6 neg d cl f} def
/m46 {mp x y w4 add m w4 neg w4 d w4 neg w4 neg d  w4 w4 neg d w4 neg w4 neg d w4 w4 neg d w4 w4 d w4 w4 neg d w4 w4 d w4 neg w4 d w4 w4 d w4 neg w4 d w4 neg w4 neg d cl s} def
/m47 {mp x y w4 add m w4 neg w4 d w4 neg w4 neg d w4 w4 neg d w4 neg w4 neg d  w4 w4 neg d w4 w4 d w4 w4 neg d w4 w4 d w4 neg w4 d w4 w4 d w4 neg w4 d w4 neg w4 neg d cl f} def
/m48 {mp x y w4 add m w4 neg w4 d w4 neg w4 neg d w4 w4 neg d  w4 neg w4 neg d w4 w4 neg d w4 w4 d w4 w4 neg d w4 w4 d w4 neg w4 d w4 w4 d w4 neg w4 d w4 neg w4 neg d  w4 w4 neg d w4 neg w4 neg d w4 neg w4 d w4 w4 d cl f} def
/m49 {mp x w2 sub w3 add y w2 sub w3 add m  0 w3 neg d w3 0 d 0 w3 d w3 0 d 0 w3 d w3 neg 0 d 0 w3 d w3 neg 0 d 0 w3 neg d w3 neg 0 d 0 w3 neg d w3 0 d 0 w3 d w3 0 d 0 w3 neg d w3 neg 0 d cl f } def
/m2 {mp x y w2 sub m 0 w d x w2 sub y m w 0 d s} def
/m5 {mp x w2 sub y w2 sub m w w d x w2 sub y w2 add m w w neg d s} def
%%IncludeResource: ProcSet (FontSetInit)
%%IncludeResource: font Times-Roman
%%IncludeResource: font Times-Italic
%%IncludeResource: font Times-Bold
%%IncludeResource: font Times-BoldItalic
%%IncludeResource: font Helvetica
%%IncludeResource: font Helvetica-Oblique
%%IncludeResource: font Helvetica-Bold
%%IncludeResource: font Helvetica-BoldOblique
%%IncludeResource: font Courier
%%IncludeResource: font Courier-Oblique
%%IncludeResource: font Courier-Bold
%%IncludeResource: font Courier-BoldOblique
%%IncludeResource: font Symbol
%%IncludeResource: font ZapfDingbats
/reEncode {exch findfont dup length dict begin {1 index /FID eq  {pop pop} {def} ifelse } forall /Encoding exch def currentdict end dup /FontName get exch definefont pop } def [/Times-Bold /Times-Italic /Times-BoldItalic /Helvetica /Helvetica-Oblique
 /Helvetica-Bold /Helvetica-BoldOblique /Courier /Courier-Oblique /Courier-Bold /Courier-BoldOblique /Times-Roman /AvantGarde-Book /AvantGarde-BookOblique /AvantGarde-Demi /AvantGarde-DemiOblique /Bookman-Demi /Bookman-DemiItalic /Bookman-Light
 /Bookman-LightItalic /Helvetica-Narrow /Helvetica-Narrow-Bold /Helvetica-Narrow-BoldOblique /Helvetica-Narrow-Oblique /NewCenturySchlbk-Roman /NewCenturySchlbk-Bold /NewCenturySchlbk-BoldItalic /NewCenturySchlbk-Italic /Palatino-Bold
 /Palatino-BoldItalic /Palatino-Italic /Palatino-Roman ] {ISOLatin1Encoding reEncode } forall
%%EndProlog
%%BeginSetup
%%EndSetup
newpath  gsave  .25 .25 scale  gsave  0 0 t black[  ] 0 sd 3 lw 1 1 1 c 2268 1530 0 0 bf black 1 1 1 c 1814 1224 227 153 bf black 1814 1224 227 153 bl 227 153 m 1814 X s 227 190 m -37 Y s 279 171 m -18 Y s 330 171 m -18 Y s 382 171 m -18 Y s 434 171
 m -18 Y s 486 190 m -37 Y s 538 171 m -18 Y s 590 171 m -18 Y s 641 171 m -18 Y s 693 171 m -18 Y s 745 190 m -37 Y s 797 171 m -18 Y s 849 171 m -18 Y s 901 171 m -18 Y s 952 171 m -18 Y s 1004 190 m -37 Y s 1056 171 m -18 Y s 1108 171 m -18 Y s
 1160 171 m -18 Y s 1212 171 m -18 Y s 1263 190 m -37 Y s 1315 171 m -18 Y s 1367 171 m -18 Y s 1419 171 m -18 Y s 1471 171 m -18 Y s 1523 190 m -37 Y s 1574 171 m -18 Y s 1626 171 m -18 Y s 1678 171 m -18 Y s 1730 171 m -18 Y s 1782 190 m -37 Y s
 1834 171 m -18 Y s 1885 171 m -18 Y s 1937 171 m -18 Y s 1989 171 m -18 Y s 2041 190 m -37 Y s
 gsave  2268 1530 0 0 C 175.439 103.964 t 0 r /Helvetica findfont 48.7332 sf 0 0 m (5.22) show NC gr 
 gsave  2268 1530 0 0 C 435.35 103.964 t 0 r /Helvetica findfont 48.7332 sf 0 0 m (5.23) show NC gr 
 gsave  2268 1530 0 0 C 695.26 103.964 t 0 r /Helvetica findfont 48.7332 sf 0 0 m (5.24) show NC gr 
 gsave  2268 1530 0 0 C 955.17 103.964 t 0 r /Helvetica findfont 48.7332 sf 0 0 m (5.25) show NC gr 
 gsave  2268 1530 0 0 C 1211.83 103.964 t 0 r /Helvetica findfont 48.7332 sf 0 0 m (5.26) show NC gr 
 gsave  2268 1530 0 0 C 1471.74 103.964 t 0 r /Helvetica findfont 48.7332 sf 0 0 m (5.27) show NC gr 
 gsave  2268 1530 0 0 C 1731.65 103.964 t 0 r /Helvetica findfont 48.7332 sf 0 0 m (5.28) show NC gr 
 gsave  2268 1530 0 0 C 1991.56 103.964 t 0 r /Helvetica findfont 48.7332 sf 0 0 m (5.29) show NC gr 
 gsave  2268 1530 0 0 C 1692.67 51.982 t 0 r /Helvetica findfont 48.7332 sf 0 0 m (m_bc \(GeV/c^2\)) show NC gr  227 153 m 1224 Y s 281 153 m -54 X s 254 192 m -27 X s 254 232 m -27 X s 254 271 m -27 X s 254 311 m -27 X s 281 350 m -54 X s 254 390 m
 -27 X s 254 429 m -27 X s 254 469 m -27 X s 254 508 m -27 X s 281 548 m -54 X s 254 587 m -27 X s 254 626 m -27 X s 254 666 m -27 X s 254 705 m -27 X s 281 745 m -54 X s 254 784 m -27 X s 254 824 m -27 X s 254 863 m -27 X s 254 903 m -27 X s 281 942
 m -54 X s 254 981 m -27 X s 254 1021 m -27 X s 254 1060 m -27 X s 254 1100 m -27 X s 281 1139 m -54 X s 254 1179 m -27 X s 254 1218 m -27 X s 254 1258 m -27 X s 254 1297 m -27 X s 281 1336 m -54 X s 281 1336 m -54 X s 254 1376 m -27 X s
 gsave  2268 1530 0 0 C 188.435 136.453 t 0 r /Helvetica findfont 48.7332 sf 0 0 m (0) show NC gr 
 gsave  2268 1530 0 0 C 107.213 331.385 t 0 r /Helvetica findfont 48.7332 sf 0 0 m (1000) show NC gr 
 gsave  2268 1530 0 0 C 107.213 529.567 t 0 r /Helvetica findfont 48.7332 sf 0 0 m (2000) show NC gr 
 gsave  2268 1530 0 0 C 107.213 727.749 t 0 r /Helvetica findfont 48.7332 sf 0 0 m (3000) show NC gr 
 gsave  2268 1530 0 0 C 107.213 922.681 t 0 r /Helvetica findfont 48.7332 sf 0 0 m (4000) show NC gr 
 gsave  2268 1530 0 0 C 107.213 1120.86 t 0 r /Helvetica findfont 48.7332 sf 0 0 m (5000) show NC gr 
 gsave  2268 1530 0 0 C 107.213 1319.04 t 0 r /Helvetica findfont 48.7332 sf 0 0 m (6000) show NC gr 
 gsave  2268 1530 0 0 C 51.982 782.979 t 90 r /Helvetica findfont 48.7332 sf 0 0 m (Events / \( 0.0007 GeV/c^2 \)) show NC gr  1 1 1 c black
 gsave  2268 1530 0 0 C 812.219 1455.5 t 0 r /Helvetica findfont 71.4753 sf 0 0 m (A RooPlot of "m_bc") show NC gr  236 214 m -9 X s 227 207 m 13 Y s 236 214 m 9 X s 245 207 m 13 Y s 236 214 m 3 Y s 229 217 m 13 X s 236 214 m -4 Y s 229 210 m 13 X s
 254 211 m -9 X s 245 204 m 13 Y s 254 211 m 9 X s 263 204 m 13 Y s 254 211 m 3 Y s 247 214 m 13 X s 254 211 m -3 Y s 247 208 m 13 X s 272 209 m -9 X s 263 203 m 13 Y s 272 209 m 9 X s 281 203 m 13 Y s 272 209 m 3 Y s 266 212 m 13 X s 272 209 m -3 Y
 s 266 206 m 13 X s 290 213 m -9 X s 281 206 m 13 Y s 290 213 m 9 X s 299 206 m 13 Y s 290 213 m 3 Y s 284 216 m 13 X s 290 213 m -4 Y s 284 209 m 13 X s 308 211 m -9 X s 299 205 m 13 Y s 308 211 m 9 X s 317 205 m 13 Y s 308 211 m 3 Y s 302 214 m 13
 X s 308 211 m -3 Y s 302 208 m 13 X s 327 216 m -10 X s 317 209 m 13 Y s 327 216 m 9 X s 336 209 m 13 Y s 327 216 m 4 Y s 320 220 m 13 X s 327 216 m -3 Y s 320 213 m 13 X s 345 215 m -9 X s 336 208 m 13 Y s 345 215 m 9 X s 354 208 m 13 Y s 345 215 m
 3 Y s 338 218 m 13 X s 345 215 m -4 Y s 338 211 m 13 X s 363 211 m -9 X s 354 205 m 13 Y s 363 211 m 9 X s 372 205 m 13 Y s 363 211 m 3 Y s 356 214 m 13 X s 363 211 m -3 Y s 356 208 m 13 X s 381 215 m -9 X s 372 208 m 13 Y s 381 215 m 9 X s 390 208
 m 13 Y s 381 215 m 4 Y s 374 219 m 13 X s 381 215 m -3 Y s 374 212 m 13 X s 399 211 m -9 X s 390 205 m 13 Y s 399 211 m 9 X s 408 205 m 13 Y s 399 211 m 4 Y s 393 215 m 13 X s 399 211 m -3 Y s 393 208 m 13 X s 417 208 m -9 X s 408 202 m 13 Y s 417
 208 m 9 X s 426 202 m 13 Y s 417 208 m 4 Y s 411 212 m 13 X s 417 208 m -3 Y s 411 205 m 13 X s 435 214 m -9 X s 426 208 m 13 Y s 435 214 m 9 X s 444 208 m 13 Y s 435 214 m 4 Y s 429 218 m 13 X s 435 214 m -3 Y s 429 211 m 13 X s 454 217 m -10 X s
 444 210 m 13 Y s 454 217 m 9 X s 463 210 m 13 Y s 454 217 m 3 Y s 447 220 m 13 X s 454 217 m -4 Y s 447 213 m 13 X s 472 219 m -9 X s 463 213 m 13 Y s 472 219 m 9 X s 481 213 m 13 Y s 472 219 m 4 Y s 465 223 m 13 X s 472 219 m -3 Y s 465 216 m 13 X
 s 490 217 m -9 X s 481 211 m 13 Y s 490 217 m 9 X s 499 211 m 13 Y s 490 217 m 4 Y s 483 221 m 13 X s 490 217 m -3 Y s 483 214 m 13 X s 508 218 m -9 X s 499 211 m 13 Y s 508 218 m 9 X s 517 211 m 13 Y s 508 218 m 4 Y s 501 222 m 13 X s 508 218 m -4
 Y s 501 214 m 13 X s 526 216 m -9 X s 517 210 m 13 Y s 526 216 m 9 X s 535 210 m 13 Y s 526 216 m 4 Y s 520 220 m 13 X s 526 216 m -3 Y s 520 213 m 13 X s 544 222 m -9 X s 535 215 m 13 Y s 544 222 m 9 X s 553 215 m 13 Y s 544 222 m 3 Y s 538 225 m
 13 X s 544 222 m -4 Y s 538 218 m 13 X s 562 212 m -9 X s 553 206 m 13 Y s 562 212 m 9 X s 571 206 m 13 Y s 562 212 m 4 Y s 556 216 m 13 X s 562 212 m -3 Y s 556 209 m 13 X s 581 214 m -10 X s 571 207 m 13 Y s 581 214 m 9 X s 590 207 m 13 Y s 581
 214 m 3 Y s 574 217 m 13 X s 581 214 m -4 Y s 574 210 m 13 X s 599 222 m -9 X s 590 216 m 13 Y s 599 222 m 9 X s 608 216 m 13 Y s 599 222 m 4 Y s 592 226 m 13 X s 599 222 m -3 Y s 592 219 m 13 X s 617 224 m -9 X s 608 218 m 13 Y s 617 224 m 9 X s
 626 218 m 13 Y s 617 224 m 4 Y s 610 228 m 13 X s 617 224 m -3 Y s 610 221 m 13 X s 635 231 m -9 X s 626 224 m 13 Y s 635 231 m 9 X s 644 224 m 13 Y s 635 231 m 4 Y s 628 235 m 13 X s 635 231 m -4 Y s 628 227 m 13 X s 653 226 m -9 X s 644 220 m 13 Y
 s 653 226 m 9 X s 662 220 m 13 Y s 653 226 m 4 Y s 647 230 m 13 X s 653 226 m -4 Y s 647 222 m 13 X s 671 228 m -9 X s 662 221 m 13 Y s 671 228 m 9 X s 680 221 m 13 Y s 671 228 m 4 Y s 665 232 m 13 X s 671 228 m -4 Y s 665 224 m 13 X s 689 223 m -9
 X s 680 216 m 13 Y s 689 223 m 9 X s 698 216 m 13 Y s 689 223 m 4 Y s 683 227 m 13 X s 689 223 m -4 Y s 683 219 m 13 X s 708 233 m -10 X s 698 227 m 13 Y s 708 233 m 9 X s 717 227 m 13 Y s 708 233 m 4 Y s 701 237 m 13 X s 708 233 m -4 Y s 701 229 m
 13 X s 726 225 m -9 X s 717 219 m 13 Y s 726 225 m 9 X s 735 219 m 13 Y s 726 225 m 4 Y s 719 229 m 13 X s 726 225 m -3 Y s 719 222 m 13 X s 744 227 m -9 X s 735 221 m 13 Y s 744 227 m 9 X s 753 221 m 13 Y s 744 227 m 4 Y s 737 231 m 13 X s 744 227
 m -3 Y s 737 224 m 13 X s 762 227 m -9 X s 753 221 m 13 Y s 762 227 m 9 X s 771 221 m 13 Y s 762 227 m 4 Y s 755 231 m 13 X s 762 227 m -4 Y s 755 223 m 13 X s 780 232 m -9 X s 771 225 m 13 Y s 780 232 m 9 X s 789 225 m 13 Y s 780 232 m 4 Y s 774
 236 m 13 X s 780 232 m -4 Y s 774 228 m 13 X s 798 232 m -9 X s 789 226 m 13 Y s 798 232 m 9 X s 807 226 m 13 Y s 798 232 m 4 Y s 792 236 m 13 X s 798 232 m -4 Y s 792 228 m 13 X s 816 246 m -9 X s 807 239 m 13 Y s 816 246 m 9 X s 825 239 m 13 Y s
 816 246 m 4 Y s 810 250 m 13 X s 816 246 m -5 Y s 810 241 m 13 X s 835 230 m -10 X s 825 223 m 13 Y s 835 230 m 9 X s 844 223 m 13 Y s 835 230 m 4 Y s 828 234 m 13 X s 835 230 m -4 Y s 828 226 m 13 X s 853 239 m -9 X s 844 233 m 13 Y s 853 239 m 9 X
 s 862 233 m 13 Y s 853 239 m 4 Y s 846 243 m 13 X s 853 239 m -4 Y s 846 235 m 13 X s 871 245 m -9 X s 862 238 m 13 Y s 871 245 m 9 X s 880 238 m 13 Y s 871 245 m 4 Y s 864 249 m 13 X s 871 245 m -4 Y s 864 241 m 13 X s 889 239 m -9 X s 880 233 m 13
 Y s 889 239 m 9 X s 898 233 m 13 Y s 889 239 m 4 Y s 882 243 m 13 X s 889 239 m -4 Y s 882 235 m 13 X s 907 235 m -9 X s 898 229 m 13 Y s 907 235 m 9 X s 916 229 m 13 Y s 907 235 m 4 Y s 901 239 m 13 X s 907 235 m -4 Y s 901 231 m 13 X s 925 244 m
 -9 X s 916 238 m 13 Y s 925 244 m 9 X s 934 238 m 13 Y s 925 244 m 4 Y s 919 248 m 13 X s 925 244 m -4 Y s 919 240 m 13 X s 943 249 m -9 X s 934 242 m 13 Y s 943 249 m 9 X s 952 242 m 13 Y s 943 249 m 4 Y s 937 253 m 13 X s 943 249 m -4 Y s 937 245
 m 13 X s 962 254 m -10 X s 952 247 m 13 Y s 962 254 m 9 X s 971 247 m 13 Y s 962 254 m 4 Y s 955 258 m 13 X s 962 254 m -5 Y s 955 249 m 13 X s 980 256 m -9 X s 971 249 m 13 Y s 980 256 m 9 X s 989 249 m 13 Y s 980 256 m 5 Y s 973 261 m 13 X s 980
 256 m -4 Y s 973 252 m 13 X s 998 253 m -9 X s 989 246 m 13 Y s 998 253 m 9 X s 1007 246 m 13 Y s 998 253 m 4 Y s 991 257 m 13 X s 998 253 m -5 Y s 991 248 m 13 X s 1016 259 m -9 X s 1007 252 m 13 Y s 1016 259 m 9 X s 1025 252 m 13 Y s 1016 259 m 4
 Y s 1009 263 m 13 X s 1016 259 m -5 Y s 1009 254 m 13 X s 1034 263 m -9 X s 1025 256 m 13 Y s 1034 263 m 9 X s 1043 256 m 13 Y s 1034 263 m 4 Y s 1028 267 m 13 X s 1034 263 m -5 Y s 1028 258 m 13 X s 1052 266 m -9 X s 1043 259 m 13 Y s 1052 266 m 9
 X s 1061 259 m 13 Y s 1052 266 m 4 Y s 1046 270 m 13 X s 1052 266 m -5 Y s 1046 261 m 13 X s 1070 259 m -9 X s 1061 252 m 13 Y s 1070 259 m 9 X s 1079 252 m 13 Y s 1070 259 m 4 Y s 1064 263 m 13 X s 1070 259 m -5 Y s 1064 254 m 13 X s 1089 267 m -10
 X s 1079 261 m 13 Y s 1089 267 m 9 X s 1098 261 m 13 Y s 1089 267 m 5 Y s 1082 272 m 13 X s 1089 267 m -4 Y s 1082 263 m 13 X s 1107 275 m -9 X s 1098 268 m 13 Y s 1107 275 m 9 X s 1116 268 m 13 Y s 1107 275 m 5 Y s 1100 280 m 13 X s 1107 275 m -5 Y
 s 1100 270 m 13 X s 1125 280 m -9 X s 1116 273 m 13 Y s 1125 280 m 9 X s 1134 273 m 13 Y s 1125 280 m 5 Y s 1118 285 m 13 X s 1125 280 m -5 Y s 1118 275 m 13 X s 1143 272 m -9 X s 1134 265 m 13 Y s 1143 272 m 9 X s 1152 265 m 13 Y s 1143 272 m 5 Y s
 1136 277 m 13 X s 1143 272 m -5 Y s 1136 267 m 13 X s 1161 286 m -9 X s 1152 279 m 13 Y s 1161 286 m 9 X s 1170 279 m 13 Y s 1161 286 m 5 Y s 1155 291 m 13 X s 1161 286 m -5 Y s 1155 281 m 13 X s 1179 286 m -9 X s 1170 280 m 13 Y s 1179 286 m 9 X s
 1188 280 m 13 Y s 1179 286 m 5 Y s 1173 291 m 13 X s 1179 286 m -5 Y s 1173 281 m 13 X s 1197 295 m -9 X s 1188 288 m 13 Y s 1197 295 m 9 X s 1206 288 m 13 Y s 1197 295 m 5 Y s 1191 300 m 13 X s 1197 295 m -6 Y s 1191 289 m 13 X s 1215 303 m -9 X s
 1206 296 m 13 Y s 1215 303 m 10 X s 1225 296 m 13 Y s 1215 303 m 5 Y s 1209 308 m 13 X s 1215 303 m -6 Y s 1209 297 m 13 X s 1234 313 m -9 X s 1225 306 m 13 Y s 1234 313 m 9 X s 1243 306 m 13 Y s 1234 313 m 5 Y s 1227 318 m 13 X s 1234 313 m -6 Y s
 1227 307 m 13 X s 1252 324 m -9 X s 1243 318 m 13 Y s 1252 324 m 9 X s 1261 318 m 13 Y s 1252 324 m 6 Y s 1245 330 m 13 X s 1252 324 m -5 Y s 1245 319 m 13 X s 1270 318 m -9 X s 1261 311 m 13 Y s 1270 318 m 9 X s 1279 311 m 13 Y s 1270 318 m 5 Y s
 1263 323 m 13 X s 1270 318 m -6 Y s 1263 312 m 13 X s 1288 333 m -9 X s 1279 327 m 13 Y s 1288 333 m 9 X s 1297 327 m 13 Y s 1288 333 m 6 Y s 1282 339 m 13 X s 1288 333 m -6 Y s 1282 327 m 13 X s 1306 331 m -9 X s 1297 324 m 13 Y s 1306 331 m 9 X s
 1315 324 m 13 Y s 1306 331 m 6 Y s 1300 337 m 13 X s 1306 331 m -6 Y s 1300 325 m 13 X s 1324 352 m -9 X s 1315 346 m 13 Y s 1324 352 m 9 X s 1333 346 m 13 Y s 1324 352 m 7 Y s 1318 359 m 13 X s 1324 352 m -6 Y s 1318 346 m 13 X s 1342 368 m -9 X s
 1333 361 m 13 Y s 1342 368 m 10 X s 1352 361 m 13 Y s 1342 368 m 6 Y s 1336 374 m 13 X s 1342 368 m -7 Y s 1336 361 m 13 X s 1361 373 m -9 X s 1352 367 m 13 Y s 1361 373 m 9 X s 1370 367 m 13 Y s 1361 373 m 7 Y s 1354 380 m 13 X s 1361 373 m -6 Y s
 1354 367 m 13 X s 1379 389 m -9 X s 1370 382 m 13 Y s 1379 389 m 9 X s 1388 382 m 13 Y s 1379 389 m 7 Y s 1372 396 m 13 X s 1379 389 m -7 Y s 1372 382 m 13 X s 1397 400 m -9 X s 1388 394 m 13 Y s 1397 400 m 9 X s 1406 394 m 13 Y s 1397 400 m 7 Y s
 1390 407 m 13 X s 1397 400 m -7 Y s 1390 393 m 13 X s 1415 432 m -9 X s 1406 425 m 13 Y s 1415 432 m 9 X s 1424 425 m 13 Y s 1415 432 m 7 Y s 1409 439 m 13 X s 1415 432 m -7 Y s 1409 425 m 13 X s 1433 433 m -9 X s 1424 426 m 13 Y s 1433 433 m 9 X s
 1442 426 m 13 Y s 1433 433 m 7 Y s 1427 440 m 13 X s 1433 433 m -8 Y s 1427 425 m 13 X s 1451 444 m -9 X s 1442 438 m 13 Y s 1451 444 m 9 X s 1460 438 m 13 Y s 1451 444 m 8 Y s 1445 452 m 13 X s 1451 444 m -7 Y s 1445 437 m 13 X s 1469 473 m -9 X s
 1460 467 m 13 Y s 1469 473 m 10 X s 1479 467 m 13 Y s 1469 473 m 8 Y s 1463 481 m 13 X s 1469 473 m -8 Y s 1463 465 m 13 X s 1488 492 m -9 X s 1479 485 m 13 Y s 1488 492 m 9 X s 1497 485 m 13 Y s 1488 492 m 8 Y s 1481 500 m 13 X s 1488 492 m -8 Y s
 1481 484 m 13 X s 1506 495 m -9 X s 1497 488 m 13 Y s 1506 495 m 9 X s 1515 488 m 13 Y s 1506 495 m 8 Y s 1499 503 m 13 X s 1506 495 m -8 Y s 1499 487 m 13 X s 1524 525 m -9 X s 1515 519 m 13 Y s 1524 525 m 9 X s 1533 519 m 13 Y s 1524 525 m 9 Y s
 1517 534 m 13 X s 1524 525 m -8 Y s 1517 517 m 13 X s 1542 531 m -9 X s 1533 524 m 13 Y s 1542 531 m 9 X s 1551 524 m 13 Y s 1542 531 m 9 Y s 1536 540 m 13 X s 1542 531 m -9 Y s 1536 522 m 13 X s 1560 567 m -9 X s 1551 560 m 13 Y s 1560 567 m 9 X s
 1569 560 m 13 Y s 1560 567 m 9 Y s 1554 576 m 13 X s 1560 567 m -9 Y s 1554 558 m 13 X s 1578 610 m -9 X s 1569 603 m 13 Y s 1578 610 m 9 X s 1587 603 m 13 Y s 1578 610 m 9 Y s 1572 619 m 13 X s 1578 610 m -10 Y s 1572 600 m 13 X s 1596 648 m -9 X s
 1587 641 m 13 Y s 1596 648 m 10 X s 1606 641 m 13 Y s 1596 648 m 10 Y s 1590 658 m 13 X s 1596 648 m -10 Y s 1590 638 m 13 X s 1615 661 m -9 X s 1606 654 m 13 Y s 1615 661 m 9 X s 1624 654 m 13 Y s 1615 661 m 10 Y s 1608 671 m 13 X s 1615 661 m -10
 Y s 1608 651 m 13 X s 1633 695 m -9 X s 1624 689 m 13 Y s 1633 695 m 9 X s 1642 689 m 13 Y s 1633 695 m 11 Y s 1626 706 m 13 X s 1633 695 m -10 Y s 1626 685 m 13 X s 1651 757 m -9 X s 1642 751 m 13 Y s 1651 757 m 9 X s 1660 751 m 13 Y s 1651 757 m
 11 Y s 1644 768 m 13 X s 1651 757 m -10 Y s 1644 747 m 13 X s 1669 784 m -9 X s 1660 778 m 13 Y s 1669 784 m 9 X s 1678 778 m 13 Y s 1669 784 m 12 Y s 1663 796 m 13 X s 1669 784 m -11 Y s 1663 773 m 13 X s 1687 890 m -9 X s 1678 883 m 13 Y s 1687
 890 m 9 X s 1696 883 m 13 Y s 1687 890 m 12 Y s 1681 902 m 13 X s 1687 890 m -12 Y s 1681 878 m 13 X s 1705 955 m -9 X s 1696 948 m 13 Y s 1705 955 m 9 X s 1714 948 m 13 Y s 1705 955 m 12 Y s 1699 967 m 13 X s 1705 955 m -13 Y s 1699 942 m 13 X s
 1723 1077 m -9 X s 1714 1070 m 13 Y s 1723 1077 m 10 X s 1733 1070 m 13 Y s 1723 1077 m 13 Y s 1717 1090 m 13 X s 1723 1077 m -14 Y s 1717 1063 m 13 X s 1742 1153 m -9 X s 1733 1146 m 13 Y s 1742 1153 m 9 X s 1751 1146 m 13 Y s 1742 1153 m 14 Y s
 1735 1167 m 13 X s 1742 1153 m -14 Y s 1735 1139 m 13 X s 1760 1255 m -9 X s 1751 1248 m 13 Y s 1760 1255 m 9 X s 1769 1248 m 13 Y s 1760 1255 m 15 Y s 1753 1270 m 13 X s 1760 1255 m -15 Y s 1753 1240 m 13 X s 1778 1304 m -9 X s 1769 1297 m 13 Y s
 1778 1304 m 9 X s 1787 1297 m 13 Y s 1778 1304 m 15 Y s 1771 1319 m 13 X s 1778 1304 m -15 Y s 1771 1289 m 13 X s 1796 1302 m -9 X s 1787 1295 m 13 Y s 1796 1302 m 9 X s 1805 1295 m 13 Y s 1796 1302 m 15 Y s 1790 1317 m 13 X s 1796 1302 m -15 Y s
 1790 1287 m 13 X s 1814 1276 m -9 X s 1805 1270 m 13 Y s 1814 1276 m 9 X s 1823 1270 m 13 Y s 1814 1276 m 15 Y s 1808 1291 m 13 X s 1814 1276 m -14 Y s 1808 1262 m 13 X s 1832 1249 m -9 X s 1823 1243 m 13 Y s 1832 1249 m 9 X s 1841 1243 m 13 Y s
 1832 1249 m 15 Y s 1826 1264 m 13 X s 1832 1249 m -15 Y s 1826 1234 m 13 X s 1850 1177 m -9 X s 1841 1170 m 13 Y s 1850 1177 m 10 X s 1860 1170 m 13 Y s 1850 1177 m 14 Y s 1844 1191 m 13 X s 1850 1177 m -14 Y s 1844 1163 m 13 X s 1869 1083 m -9 X s
 1860 1077 m 13 Y s 1869 1083 m 9 X s 1878 1077 m 13 Y s 1869 1083 m 14 Y s 1862 1097 m 13 X s 1869 1083 m -13 Y s 1862 1070 m 13 X s 1887 976 m -9 X s 1878 970 m 13 Y s 1887 976 m 9 X s 1896 970 m 13 Y s 1887 976 m 13 Y s 1880 989 m 13 X s 1887 976
 m -12 Y s 1880 964 m 13 X s 1905 909 m -9 X s 1896 903 m 13 Y s 1905 909 m 9 X s 1914 903 m 13 Y s 1905 909 m 12 Y s 1898 921 m 13 X s 1905 909 m -12 Y s 1898 897 m 13 X s 1923 824 m -9 X s 1914 818 m 13 Y s 1923 824 m 9 X s 1932 818 m 13 Y s 1923
 824 m 12 Y s 1917 836 m 13 X s 1923 824 m -11 Y s 1917 813 m 13 X s 1941 751 m -9 X s 1932 745 m 13 Y s 1941 751 m 9 X s 1950 745 m 13 Y s 1941 751 m 11 Y s 1935 762 m 13 X s 1941 751 m -11 Y s 1935 740 m 13 X s 1959 689 m -9 X s 1950 683 m 13 Y s
 1959 689 m 9 X s 1968 683 m 13 Y s 1959 689 m 11 Y s 1953 700 m 13 X s 1959 689 m -10 Y s 1953 679 m 13 X s 1977 613 m -9 X s 1968 606 m 13 Y s 1977 613 m 10 X s 1987 606 m 13 Y s 1977 613 m 10 Y s 1971 623 m 13 X s 1977 613 m -9 Y s 1971 604 m 13 X
 s 1996 538 m -9 X s 1987 532 m 13 Y s 1996 538 m 9 X s 2005 532 m 13 Y s 1996 538 m 9 Y s 1989 547 m 13 X s 1996 538 m -9 Y s 1989 529 m 13 X s 2014 436 m -9 X s 2005 430 m 13 Y s 2014 436 m 9 X s 2023 430 m 13 Y s 2014 436 m 8 Y s 2007 444 m 13 X s
 2014 436 m -7 Y s 2007 429 m 13 X s 2032 347 m -9 X s 2023 340 m 13 Y s 2032 347 m 9 X s 2041 340 m 13 Y s 2032 347 m 6 Y s 2025 353 m 13 X s 2032 347 m -6 Y s 2025 341 m 13 X s 1 1 1 c black /w 26 def /w2 {w 2 div} def /w3 {w 3 div} def 236 214 254
 211 272 209 290 213 308 211 327 216 345 215 363 211 381 215 399 211 417 208 435 214 454 217 472 219 490 217 508 218 526 216 544 222 562 212 581 214 599 222 617 224 635 231 653 226 671 228 689 223 708 233 726 225 744 227 762 227 780 232 798 232 816
 246 835 230 853 239 871 245 889 239 907 235 925 244 943 249 962 254 980 256 998 253 1016 259 1034 263 1052 266 1070 259 1089 267 1107 275 1125 280 1143 272 1161 286 1179 286 1197 295 1215 303 1234 313 1252 324 1270 318 1288 333 1306 331 1324 352
 1342 368 1361 373 1379 389 1397 400 1415 432 1433 433 1451 444 1469 473 1488 492 1506 495 1524 525 1542 531 1560 567 1578 610 1596 648 1615 661 1633 695 1651 757 1669 784 1687 890 1705 955 1723 1077 1742 1153 1760 1255 1778 1304 1796 1302 1814 1276
 1832 1249 1850 1177 1869 1083 1887 976 1905 909 1923 824 1941 751 1959 689 1977 613 1996 538 2014 436 2032 347 100 { m20} R 227 153 m 1814 X s 227 190 m -37 Y s 279 171 m -18 Y s 330 171 m -18 Y s 382 171 m -18 Y s 434 171 m -18 Y s 486 190 m -37 Y
 s 538 171 m -18 Y s 590 171 m -18 Y s 641 171 m -18 Y s 693 171 m -18 Y s 745 190 m -37 Y s 797 171 m -18 Y s 849 171 m -18 Y s 901 171 m -18 Y s 952 171 m -18 Y s 1004 190 m -37 Y s 1056 171 m -18 Y s 1108 171 m -18 Y s 1160 171 m -18 Y s 1212 171
 m -18 Y s 1263 190 m -37 Y s 1315 171 m -18 Y s 1367 171 m -18 Y s 1419 171 m -18 Y s 1471 171 m -18 Y s 1523 190 m -37 Y s 1574 171 m -18 Y s 1626 171 m -18 Y s 1678 171 m -18 Y s 1730 171 m -18 Y s 1782 190 m -37 Y s 1834 171 m -18 Y s 1885 171 m
 -18 Y s 1937 171 m -18 Y s 1989 171 m -18 Y s 2041 190 m -37 Y s 227 153 m 1224 Y s 281 153 m -54 X s 254 192 m -27 X s 254 232 m -27 X s 254 271 m -27 X s 254 311 m -27 X s 281 350 m -54 X s 254 390 m -27 X s 254 429 m -27 X s 254 469 m -27 X s 254
 508 m -27 X s 281 548 m -54 X s 254 587 m -27 X s 254 626 m -27 X s 254 666 m -27 X s 254 705 m -27 X s 281 745 m -54 X s 254 784 m -27 X s 254 824 m -27 X s 254 863 m -27 X s 254 903 m -27 X s 281 942 m -54 X s 254 981 m -27 X s 254 1021 m -27 X s
 254 1060 m -27 X s 254 1100 m -27 X s 281 1139 m -54 X s 254 1179 m -27 X s 254 1218 m -27 X s 254 1258 m -27 X s 254 1297 m -27 X s 281 1336 m -54 X s 281 1336 m -54 X s 254 1376 m -27 X s 1 1 1 c black
 gsave  2268 1530 0 0 C 812.219 1455.5 t 0 r /Helvetica findfont 71.4753 sf 0 0 m (A RooPlot of "m_bc") show NC gr 
 gr  gr showpage
end
%%EOF
