%!PS-Adobe-2.0 EPSF-2.0
%%BoundingBox:  0 0 567 383
%%Title: delta_m_bc.eps: c1
%%Creator: ROOT Version 6.13/01
%%CreationDate: Thu Dec 28 12:07:17 2017
%%DocumentNeededResources: ProcSet (FontSetInit)
%%EndComments
%%BeginProlog
80 dict begin
/s {stroke} def /l {lineto} def /m {moveto} def /t {translate} def
/r {rotate} def /rl {roll}  def /R {repeat} def
/d {rlineto} def /rm {rmoveto} def /gr {grestore} def /f {eofill} def
/c {setrgbcolor} def /black {0 setgray} def /sd {setdash} def
/cl {closepath} def /sf {scalefont setfont} def /lw {setlinewidth} def
/box {m dup 0 exch d exch 0 d 0 exch neg d cl} def
/NC{systemdict begin initclip end}def/C{NC box clip newpath}def
/bl {box s} def /bf {gsave box gsave f grestore 1 lw [] 0 sd s grestore} def /Y { 0 exch d} def /X { 0 d} def 
/K {{pop pop 0 moveto} exch kshow} bind def
/ita {/ang 15 def gsave [1 0 ang dup sin exch cos div 1 0 0] concat} def 
/mp {newpath /y exch def /x exch def} def
/side {[w .77 mul w .23 mul] .385 w mul sd w 0 l currentpoint t -144 r} def
/mr {mp x y w2 0 360 arc} def /m24 {mr s} def /m20 {mr f} def
/mb {mp x y w2 add m w2 neg 0 d 0 w neg d w 0 d 0 w d cl} def
/mt {mp x y w2 add m w2 neg w neg d w 0 d cl} def
/w4 {w 4 div} def
/w6 {w 6 div} def
/w8 {w 8 div} def
/m21 {mb f} def /m25 {mb s} def /m22 {mt f} def /m26{mt s} def
/m23 {mp x y w2 sub m w2 w d w neg 0 d cl f} def
/m27 {mp x y w2 add m w3 neg w2 neg d w3 w2 neg d w3 w2 d cl s} def
/m28 {mp x w2 sub y w2 sub w3 add m w3 0 d  0 w3 neg d w3 0 d 0 w3 d w3 0 d  0 w3 d w3 neg 0 d 0 w3 d w3 neg 0 d 0 w3 neg d w3 neg 0 d cl s } def
/m29 {mp gsave x w2 sub y w2 add w3 sub m currentpoint t 4 {side} repeat cl fill gr} def
/m30 {mp gsave x w2 sub y w2 add w3 sub m currentpoint t 4 {side} repeat cl s gr} def
/m31 {mp x y w2 sub m 0 w d x w2 sub y m w 0 d x w2 sub y w2 add m w w neg d x w2 sub y w2 sub m w w d s} def
/m32 {mp x y w2 sub m w2 w d w neg 0 d cl s} def
/m33 {mp x y w2 add m w3 neg w2 neg d w3 w2 neg d w3 w2 d cl f} def
/m34 {mp x w2 sub y w2 sub w3 add m w3 0 d  0 w3 neg d w3 0 d 0 w3 d w3 0 d  0 w3 d w3 neg 0 d 0 w3 d w3 neg 0 d 0 w3 neg d w3 neg 0 d cl f } def
/m35 {mp x y w2 add m w2 neg w2 neg d w2 w2 neg d w2 w2 d w2 neg w2 d x y w2 sub m 0 w d x w2 sub y m w 0 d s} def
/m36 {mb x w2 sub y w2 add m w w neg d x w2 sub y w2 sub m w w d s} def
/m37 {mp x y m w4 neg w2 d w4 neg w2 neg d w2 0 d  w4 neg w2 neg d w2 0 d w4 neg w2 d w2 0 d w4 neg w2 d w4 neg w2 neg d cl s} def
/m38 {mp x w4 sub y w2 add m w4 neg w4 neg d 0 w2 neg d w4 w4 neg d w2 0 d w4 w4 d 0 w2 d w4 neg w4 d w2 neg 0 d x y w2 sub m 0 w d x w2 sub y m w 0 d cl s} def
/m39 {mp x y m w4 neg w2 d w4 neg w2 neg d w2 0 d  w4 neg w2 neg d w2 0 d w4 neg w2 d w2 0 d w4 neg w2 d w4 neg w2 neg d cl f} def
/m40 {mp x y m w4 w2 d w4 w4 neg d w2 neg w4 neg d w2 w4 neg d w4 neg w4 neg d w4 neg w2 d w4 neg w2 neg d w4 neg w4 d w2 w4 d w2 neg w4 d w4 w4 d w4 w2 neg d cl s} def
/m41 {mp x y m w4 w2 d w4 w4 neg d w2 neg w4 neg d w2 w4 neg d w4 neg w4 neg d w4 neg w2 d w4 neg w2 neg d w4 neg w4 d w2 w4 d w2 neg w4 d w4 w4 d w4 w2 neg d cl f} def
/m42 {mp x y w2 add m w8 neg w2 -3 4 div mul d w2 -3 4 div mul w8 neg d w2 3 4 div mul w8 neg d w8 w2 -3 4 div mul d w8 w2 3 4 div mul d w2 3 4 div mul w8 d w2 -3 4 div mul w8 d w8 neg w2 3 4 div mul d cl s} def
/m43 {mp x y w2 add m w8 neg w2 -3 4 div mul d w2 -3 4 div mul w8 neg d w2 3 4 div mul w8 neg d w8 w2 -3 4 div mul d w8 w2 3 4 div mul d w2 3 4 div mul w8 d w2 -3 4 div mul w8 d w8 neg w2 3 4 div mul d cl f} def
/m44 {mp x y m w6 neg w2 d w2 2 3 div mul 0 d w6 neg w2 neg d w2 w6 d 0 w2 -2 3 div mul d w2 neg w6 d w6 w2 neg d w2 -2 3 div mul 0 d w6 w2 d w2 neg w6 neg d 0 w2 2 3 div mul d w2 w6 neg d cl s} def
/m45 {mp x y m w6 neg w2 d w2 2 3 div mul 0 d w6 neg w2 neg d w2 w6 d 0 w2 -2 3 div mul d w2 neg w6 d w6 w2 neg d w2 -2 3 div mul 0 d w6 w2 d w2 neg w6 neg d 0 w2 2 3 div mul d w2 w6 neg d cl f} def
/m46 {mp x y w4 add m w4 neg w4 d w4 neg w4 neg d  w4 w4 neg d w4 neg w4 neg d w4 w4 neg d w4 w4 d w4 w4 neg d w4 w4 d w4 neg w4 d w4 w4 d w4 neg w4 d w4 neg w4 neg d cl s} def
/m47 {mp x y w4 add m w4 neg w4 d w4 neg w4 neg d w4 w4 neg d w4 neg w4 neg d  w4 w4 neg d w4 w4 d w4 w4 neg d w4 w4 d w4 neg w4 d w4 w4 d w4 neg w4 d w4 neg w4 neg d cl f} def
/m48 {mp x y w4 add m w4 neg w4 d w4 neg w4 neg d w4 w4 neg d  w4 neg w4 neg d w4 w4 neg d w4 w4 d w4 w4 neg d w4 w4 d w4 neg w4 d w4 w4 d w4 neg w4 d w4 neg w4 neg d  w4 w4 neg d w4 neg w4 neg d w4 neg w4 d w4 w4 d cl f} def
/m49 {mp x w2 sub w3 add y w2 sub w3 add m  0 w3 neg d w3 0 d 0 w3 d w3 0 d 0 w3 d w3 neg 0 d 0 w3 d w3 neg 0 d 0 w3 neg d w3 neg 0 d 0 w3 neg d w3 0 d 0 w3 d w3 0 d 0 w3 neg d w3 neg 0 d cl f } def
/m2 {mp x y w2 sub m 0 w d x w2 sub y m w 0 d s} def
/m5 {mp x w2 sub y w2 sub m w w d x w2 sub y w2 add m w w neg d s} def
%%IncludeResource: ProcSet (FontSetInit)
%%IncludeResource: font Times-Roman
%%IncludeResource: font Times-Italic
%%IncludeResource: font Times-Bold
%%IncludeResource: font Times-BoldItalic
%%IncludeResource: font Helvetica
%%IncludeResource: font Helvetica-Oblique
%%IncludeResource: font Helvetica-Bold
%%IncludeResource: font Helvetica-BoldOblique
%%IncludeResource: font Courier
%%IncludeResource: font Courier-Oblique
%%IncludeResource: font Courier-Bold
%%IncludeResource: font Courier-BoldOblique
%%IncludeResource: font Symbol
%%IncludeResource: font ZapfDingbats
/reEncode {exch findfont dup length dict begin {1 index /FID eq  {pop pop} {def} ifelse } forall /Encoding exch def currentdict end dup /FontName get exch definefont pop } def [/Times-Bold /Times-Italic /Times-BoldItalic /Helvetica /Helvetica-Oblique
 /Helvetica-Bold /Helvetica-BoldOblique /Courier /Courier-Oblique /Courier-Bold /Courier-BoldOblique /Times-Roman /AvantGarde-Book /AvantGarde-BookOblique /AvantGarde-Demi /AvantGarde-DemiOblique /Bookman-Demi /Bookman-DemiItalic /Bookman-Light
 /Bookman-LightItalic /Helvetica-Narrow /Helvetica-Narrow-Bold /Helvetica-Narrow-BoldOblique /Helvetica-Narrow-Oblique /NewCenturySchlbk-Roman /NewCenturySchlbk-Bold /NewCenturySchlbk-BoldItalic /NewCenturySchlbk-Italic /Palatino-Bold
 /Palatino-BoldItalic /Palatino-Italic /Palatino-Roman ] {ISOLatin1Encoding reEncode } forall
%%EndProlog
%%BeginSetup
%%EndSetup
newpath  gsave  .25 .25 scale  gsave  0 0 t black[  ] 0 sd 3 lw 1 1 1 c 2268 1530 0 0 bf black 1 1 1 c 1814 1224 227 153 bf black 1814 1224 227 153 bl 227 153 m 1814 X s 227 190 m -37 Y s 287 171 m -18 Y s 348 171 m -18 Y s 408 171 m -18 Y s 469 171
 m -18 Y s 529 190 m -37 Y s 590 171 m -18 Y s 650 171 m -18 Y s 711 171 m -18 Y s 771 171 m -18 Y s 831 190 m -37 Y s 892 171 m -18 Y s 952 171 m -18 Y s 1013 171 m -18 Y s 1073 171 m -18 Y s 1134 190 m -37 Y s 1194 171 m -18 Y s 1255 171 m -18 Y s
 1315 171 m -18 Y s 1376 171 m -18 Y s 1436 190 m -37 Y s 1497 171 m -18 Y s 1557 171 m -18 Y s 1618 171 m -18 Y s 1678 171 m -18 Y s 1739 190 m -37 Y s 1799 171 m -18 Y s 1860 171 m -18 Y s 1920 171 m -18 Y s 1980 171 m -18 Y s 2041 190 m -37 Y s
 gsave  2268 1530 0 0 C 175.439 103.964 t 0 r /Helvetica findfont 48.7332 sf 0 0 m (5.26) show NC gr 
 gsave  2268 1530 0 0 C 464.589 103.964 t 0 r /Helvetica findfont 48.7332 sf 0 0 m (5.265) show NC gr 
 gsave  2268 1530 0 0 C 779.731 103.964 t 0 r /Helvetica findfont 48.7332 sf 0 0 m (5.27) show NC gr 
 gsave  2268 1530 0 0 C 1072.13 103.964 t 0 r /Helvetica findfont 48.7332 sf 0 0 m (5.275) show NC gr 
 gsave  2268 1530 0 0 C 1387.27 103.964 t 0 r /Helvetica findfont 48.7332 sf 0 0 m (5.28) show NC gr 
 gsave  2268 1530 0 0 C 1676.42 103.964 t 0 r /Helvetica findfont 48.7332 sf 0 0 m (5.285) show NC gr 
 gsave  2268 1530 0 0 C 1991.56 103.964 t 0 r /Helvetica findfont 48.7332 sf 0 0 m (5.29) show NC gr 
 gsave  2268 1530 0 0 C 1692.67 51.982 t 0 r /Helvetica findfont 48.7332 sf 0 0 m (m_bc \(GeV/c^2\)) show NC gr  227 153 m 1224 Y s 281 153 m -54 X s 254 186 m -27 X s 254 219 m -27 X s 254 252 m -27 X s 281 285 m -54 X s 254 318 m -27 X s 254 351 m
 -27 X s 254 384 m -27 X s 281 417 m -54 X s 254 450 m -27 X s 254 483 m -27 X s 254 517 m -27 X s 281 550 m -54 X s 254 583 m -27 X s 254 616 m -27 X s 254 649 m -27 X s 281 682 m -54 X s 254 715 m -27 X s 254 748 m -27 X s 254 781 m -27 X s 281 814
 m -54 X s 254 847 m -27 X s 254 880 m -27 X s 254 913 m -27 X s 281 946 m -54 X s 254 979 m -27 X s 254 1012 m -27 X s 254 1045 m -27 X s 281 1078 m -54 X s 254 1111 m -27 X s 254 1144 m -27 X s 254 1177 m -27 X s 281 1211 m -54 X s 254 1244 m -27 X
 s 254 1277 m -27 X s 254 1310 m -27 X s 281 1343 m -54 X s 281 1343 m -54 X s 254 1376 m -27 X s
 gsave  2268 1530 0 0 C 188.435 136.453 t 0 r /Helvetica findfont 48.7332 sf 0 0 m (0) show NC gr 
 gsave  2268 1530 0 0 C 133.204 266.408 t 0 r /Helvetica findfont 48.7332 sf 0 0 m (200) show NC gr 
 gsave  2268 1530 0 0 C 133.204 399.612 t 0 r /Helvetica findfont 48.7332 sf 0 0 m (400) show NC gr 
 gsave  2268 1530 0 0 C 133.204 532.816 t 0 r /Helvetica findfont 48.7332 sf 0 0 m (600) show NC gr 
 gsave  2268 1530 0 0 C 133.204 662.771 t 0 r /Helvetica findfont 48.7332 sf 0 0 m (800) show NC gr 
 gsave  2268 1530 0 0 C 107.213 795.975 t 0 r /Helvetica findfont 48.7332 sf 0 0 m (1000) show NC gr 
 gsave  2268 1530 0 0 C 107.213 929.179 t 0 r /Helvetica findfont 48.7332 sf 0 0 m (1200) show NC gr 
 gsave  2268 1530 0 0 C 107.213 1059.13 t 0 r /Helvetica findfont 48.7332 sf 0 0 m (1400) show NC gr 
 gsave  2268 1530 0 0 C 107.213 1192.34 t 0 r /Helvetica findfont 48.7332 sf 0 0 m (1600) show NC gr 
 gsave  2268 1530 0 0 C 107.213 1325.54 t 0 r /Helvetica findfont 48.7332 sf 0 0 m (1800) show NC gr 
 gsave  2268 1530 0 0 C 51.982 782.979 t 90 r /Helvetica findfont 48.7332 sf 0 0 m (Events / \( 0.0003 GeV/c^2 \)) show NC gr  236 308 m -9 X s 227 302 m 13 Y s 236 308 m 9 X s 245 302 m 13 Y s 236 308 m 11 Y s 229 319 m 13 X s 236 308 m -9 Y s 229
 299 m 13 X s 254 306 m -9 X s 245 299 m 13 Y s 254 306 m 9 X s 263 299 m 13 Y s 254 306 m 10 Y s 247 316 m 13 X s 254 306 m -10 Y s 247 296 m 13 X s 272 316 m -9 X s 263 309 m 13 Y s 272 316 m 9 X s 281 309 m 13 Y s 272 316 m 10 Y s 266 326 m 13 X s
 272 316 m -10 Y s 266 306 m 13 X s 290 335 m -9 X s 281 329 m 13 Y s 290 335 m 9 X s 299 329 m 13 Y s 290 335 m 12 Y s 284 347 m 13 X s 290 335 m -10 Y s 284 325 m 13 X s 308 326 m -9 X s 299 319 m 13 Y s 308 326 m 9 X s 317 319 m 13 Y s 308 326 m
 11 Y s 302 337 m 13 X s 308 326 m -11 Y s 302 315 m 13 X s 327 329 m -10 X s 317 323 m 13 Y s 327 329 m 9 X s 336 323 m 13 Y s 327 329 m 12 Y s 320 341 m 13 X s 327 329 m -10 Y s 320 319 m 13 X s 345 336 m -9 X s 336 330 m 13 Y s 345 336 m 9 X s 354
 330 m 13 Y s 345 336 m 11 Y s 338 347 m 13 X s 345 336 m -11 Y s 338 325 m 13 X s 363 345 m -9 X s 354 338 m 13 Y s 363 345 m 9 X s 372 338 m 13 Y s 363 345 m 11 Y s 356 356 m 13 X s 363 345 m -11 Y s 356 334 m 13 X s 381 342 m -9 X s 372 336 m 13 Y
 s 381 342 m 9 X s 390 336 m 13 Y s 381 342 m 12 Y s 374 354 m 13 X s 381 342 m -11 Y s 374 331 m 13 X s 399 369 m -9 X s 390 363 m 13 Y s 399 369 m 9 X s 408 363 m 13 Y s 399 369 m 12 Y s 393 381 m 13 X s 399 369 m -11 Y s 393 358 m 13 X s 417 359 m
 -9 X s 408 352 m 13 Y s 417 359 m 9 X s 426 352 m 13 Y s 417 359 m 12 Y s 411 371 m 13 X s 417 359 m -12 Y s 411 347 m 13 X s 435 367 m -9 X s 426 361 m 13 Y s 435 367 m 9 X s 444 361 m 13 Y s 435 367 m 12 Y s 429 379 m 13 X s 435 367 m -11 Y s 429
 356 m 13 X s 454 343 m -10 X s 444 336 m 13 Y s 454 343 m 9 X s 463 336 m 13 Y s 454 343 m 11 Y s 447 354 m 13 X s 454 343 m -11 Y s 447 332 m 13 X s 472 392 m -9 X s 463 386 m 13 Y s 472 392 m 9 X s 481 386 m 13 Y s 472 392 m 13 Y s 465 405 m 13 X
 s 472 392 m -12 Y s 465 380 m 13 X s 490 373 m -9 X s 481 367 m 13 Y s 490 373 m 9 X s 499 367 m 13 Y s 490 373 m 13 Y s 483 386 m 13 X s 490 373 m -12 Y s 483 361 m 13 X s 508 365 m -9 X s 499 359 m 13 Y s 508 365 m 9 X s 517 359 m 13 Y s 508 365 m
 12 Y s 501 377 m 13 X s 508 365 m -11 Y s 501 354 m 13 X s 526 407 m -9 X s 517 400 m 13 Y s 526 407 m 9 X s 535 400 m 13 Y s 526 407 m 13 Y s 520 420 m 13 X s 526 407 m -13 Y s 520 394 m 13 X s 544 392 m -9 X s 535 385 m 13 Y s 544 392 m 9 X s 553
 385 m 13 Y s 544 392 m 13 Y s 538 405 m 13 X s 544 392 m -13 Y s 538 379 m 13 X s 562 404 m -9 X s 553 397 m 13 Y s 562 404 m 9 X s 571 397 m 13 Y s 562 404 m 13 Y s 556 417 m 13 X s 562 404 m -13 Y s 556 391 m 13 X s 581 419 m -10 X s 571 413 m 13
 Y s 581 419 m 9 X s 590 413 m 13 Y s 581 419 m 14 Y s 574 433 m 13 X s 581 419 m -13 Y s 574 406 m 13 X s 599 433 m -9 X s 590 427 m 13 Y s 599 433 m 9 X s 608 427 m 13 Y s 599 433 m 14 Y s 592 447 m 13 X s 599 433 m -13 Y s 592 420 m 13 X s 617 425
 m -9 X s 608 418 m 13 Y s 617 425 m 9 X s 626 418 m 13 Y s 617 425 m 13 Y s 610 438 m 13 X s 617 425 m -13 Y s 610 412 m 13 X s 635 435 m -9 X s 626 429 m 13 Y s 635 435 m 9 X s 644 429 m 13 Y s 635 435 m 14 Y s 628 449 m 13 X s 635 435 m -13 Y s
 628 422 m 13 X s 653 456 m -9 X s 644 450 m 13 Y s 653 456 m 9 X s 662 450 m 13 Y s 653 456 m 15 Y s 647 471 m 13 X s 653 456 m -13 Y s 647 443 m 13 X s 671 425 m -9 X s 662 418 m 13 Y s 671 425 m 9 X s 680 418 m 13 Y s 671 425 m 13 Y s 665 438 m 13
 X s 671 425 m -13 Y s 665 412 m 13 X s 689 438 m -9 X s 680 431 m 13 Y s 689 438 m 9 X s 698 431 m 13 Y s 689 438 m 14 Y s 683 452 m 13 X s 689 438 m -14 Y s 683 424 m 13 X s 708 464 m -10 X s 698 458 m 13 Y s 708 464 m 9 X s 717 458 m 13 Y s 708
 464 m 15 Y s 701 479 m 13 X s 708 464 m -14 Y s 701 450 m 13 X s 726 475 m -9 X s 717 468 m 13 Y s 726 475 m 9 X s 735 468 m 13 Y s 726 475 m 15 Y s 719 490 m 13 X s 726 475 m -14 Y s 719 461 m 13 X s 744 475 m -9 X s 735 468 m 13 Y s 744 475 m 9 X
 s 753 468 m 13 Y s 744 475 m 15 Y s 737 490 m 13 X s 744 475 m -14 Y s 737 461 m 13 X s 762 499 m -9 X s 753 493 m 13 Y s 762 499 m 9 X s 771 493 m 13 Y s 762 499 m 16 Y s 755 515 m 13 X s 762 499 m -14 Y s 755 485 m 13 X s 780 486 m -9 X s 771 480
 m 13 Y s 780 486 m 9 X s 789 480 m 13 Y s 780 486 m 15 Y s 774 501 m 13 X s 780 486 m -14 Y s 774 472 m 13 X s 798 495 m -9 X s 789 488 m 13 Y s 798 495 m 9 X s 807 488 m 13 Y s 798 495 m 15 Y s 792 510 m 13 X s 798 495 m -15 Y s 792 480 m 13 X s
 816 478 m -9 X s 807 472 m 13 Y s 816 478 m 9 X s 825 472 m 13 Y s 816 478 m 15 Y s 810 493 m 13 X s 816 478 m -14 Y s 810 464 m 13 X s 835 514 m -10 X s 825 507 m 13 Y s 835 514 m 9 X s 844 507 m 13 Y s 835 514 m 16 Y s 828 530 m 13 X s 835 514 m
 -15 Y s 828 499 m 13 X s 853 526 m -9 X s 844 519 m 13 Y s 853 526 m 9 X s 862 519 m 13 Y s 853 526 m 16 Y s 846 542 m 13 X s 853 526 m -16 Y s 846 510 m 13 X s 871 511 m -9 X s 862 504 m 13 Y s 871 511 m 9 X s 880 504 m 13 Y s 871 511 m 15 Y s 864
 526 m 13 X s 871 511 m -15 Y s 864 496 m 13 X s 889 520 m -9 X s 880 514 m 13 Y s 889 520 m 9 X s 898 514 m 13 Y s 889 520 m 16 Y s 882 536 m 13 X s 889 520 m -15 Y s 882 505 m 13 X s 907 530 m -9 X s 898 523 m 13 Y s 907 530 m 9 X s 916 523 m 13 Y
 s 907 530 m 16 Y s 901 546 m 13 X s 907 530 m -16 Y s 901 514 m 13 X s 925 554 m -9 X s 916 547 m 13 Y s 925 554 m 9 X s 934 547 m 13 Y s 925 554 m 16 Y s 919 570 m 13 X s 925 554 m -16 Y s 919 538 m 13 X s 943 560 m -9 X s 934 554 m 13 Y s 943 560
 m 9 X s 952 554 m 13 Y s 943 560 m 17 Y s 937 577 m 13 X s 943 560 m -16 Y s 937 544 m 13 X s 962 580 m -10 X s 952 573 m 13 Y s 962 580 m 9 X s 971 573 m 13 Y s 962 580 m 17 Y s 955 597 m 13 X s 962 580 m -16 Y s 955 564 m 13 X s 980 620 m -9 X s
 971 613 m 13 Y s 980 620 m 9 X s 989 613 m 13 Y s 980 620 m 18 Y s 973 638 m 13 X s 980 620 m -18 Y s 973 602 m 13 X s 998 634 m -9 X s 989 627 m 13 Y s 998 634 m 9 X s 1007 627 m 13 Y s 998 634 m 18 Y s 991 652 m 13 X s 998 634 m -18 Y s 991 616 m
 13 X s 1016 643 m -9 X s 1007 637 m 13 Y s 1016 643 m 9 X s 1025 637 m 13 Y s 1016 643 m 19 Y s 1009 662 m 13 X s 1016 643 m -17 Y s 1009 626 m 13 X s 1034 615 m -9 X s 1025 609 m 13 Y s 1034 615 m 9 X s 1043 609 m 13 Y s 1034 615 m 18 Y s 1028 633
 m 13 X s 1034 615 m -17 Y s 1028 598 m 13 X s 1052 642 m -9 X s 1043 636 m 13 Y s 1052 642 m 9 X s 1061 636 m 13 Y s 1052 642 m 18 Y s 1046 660 m 13 X s 1052 642 m -18 Y s 1046 624 m 13 X s 1070 643 m -9 X s 1061 636 m 13 Y s 1070 643 m 9 X s 1079
 636 m 13 Y s 1070 643 m 18 Y s 1064 661 m 13 X s 1070 643 m -18 Y s 1064 625 m 13 X s 1089 686 m -10 X s 1079 680 m 13 Y s 1089 686 m 9 X s 1098 680 m 13 Y s 1089 686 m 20 Y s 1082 706 m 13 X s 1089 686 m -18 Y s 1082 668 m 13 X s 1107 723 m -9 X s
 1098 716 m 13 Y s 1107 723 m 9 X s 1116 716 m 13 Y s 1107 723 m 19 Y s 1100 742 m 13 X s 1107 723 m -19 Y s 1100 704 m 13 X s 1125 733 m -9 X s 1116 727 m 13 Y s 1125 733 m 9 X s 1134 727 m 13 Y s 1125 733 m 20 Y s 1118 753 m 13 X s 1125 733 m -19 Y
 s 1118 714 m 13 X s 1143 725 m -9 X s 1134 719 m 13 Y s 1143 725 m 9 X s 1152 719 m 13 Y s 1143 725 m 20 Y s 1136 745 m 13 X s 1143 725 m -19 Y s 1136 706 m 13 X s 1161 750 m -9 X s 1152 743 m 13 Y s 1161 750 m 9 X s 1170 743 m 13 Y s 1161 750 m 20
 Y s 1155 770 m 13 X s 1161 750 m -20 Y s 1155 730 m 13 X s 1179 767 m -9 X s 1170 761 m 13 Y s 1179 767 m 9 X s 1188 761 m 13 Y s 1179 767 m 21 Y s 1173 788 m 13 X s 1179 767 m -20 Y s 1173 747 m 13 X s 1197 800 m -9 X s 1188 794 m 13 Y s 1197 800 m
 9 X s 1206 794 m 13 Y s 1197 800 m 21 Y s 1191 821 m 13 X s 1197 800 m -20 Y s 1191 780 m 13 X s 1215 877 m -9 X s 1206 870 m 13 Y s 1215 877 m 10 X s 1225 870 m 13 Y s 1215 877 m 22 Y s 1209 899 m 13 X s 1215 877 m -22 Y s 1209 855 m 13 X s 1234
 877 m -9 X s 1225 870 m 13 Y s 1234 877 m 9 X s 1243 870 m 13 Y s 1234 877 m 22 Y s 1227 899 m 13 X s 1234 877 m -22 Y s 1227 855 m 13 X s 1252 908 m -9 X s 1243 901 m 13 Y s 1252 908 m 9 X s 1261 901 m 13 Y s 1252 908 m 22 Y s 1245 930 m 13 X s
 1252 908 m -22 Y s 1245 886 m 13 X s 1270 918 m -9 X s 1261 911 m 13 Y s 1270 918 m 9 X s 1279 911 m 13 Y s 1270 918 m 23 Y s 1263 941 m 13 X s 1270 918 m -22 Y s 1263 896 m 13 X s 1288 1017 m -9 X s 1279 1010 m 13 Y s 1288 1017 m 9 X s 1297 1010 m
 13 Y s 1288 1017 m 24 Y s 1282 1041 m 13 X s 1288 1017 m -24 Y s 1282 993 m 13 X s 1306 1016 m -9 X s 1297 1010 m 13 Y s 1306 1016 m 9 X s 1315 1010 m 13 Y s 1306 1016 m 24 Y s 1300 1040 m 13 X s 1306 1016 m -23 Y s 1300 993 m 13 X s 1324 1076 m -9
 X s 1315 1070 m 13 Y s 1324 1076 m 9 X s 1333 1070 m 13 Y s 1324 1076 m 25 Y s 1318 1101 m 13 X s 1324 1076 m -24 Y s 1318 1052 m 13 X s 1342 1133 m -9 X s 1333 1127 m 13 Y s 1342 1133 m 10 X s 1352 1127 m 13 Y s 1342 1133 m 26 Y s 1336 1159 m 13 X
 s 1342 1133 m -25 Y s 1336 1108 m 13 X s 1361 1171 m -9 X s 1352 1164 m 13 Y s 1361 1171 m 9 X s 1370 1164 m 13 Y s 1361 1171 m 26 Y s 1354 1197 m 13 X s 1361 1171 m -26 Y s 1354 1145 m 13 X s 1379 1232 m -9 X s 1370 1225 m 13 Y s 1379 1232 m 9 X s
 1388 1225 m 13 Y s 1379 1232 m 27 Y s 1372 1259 m 13 X s 1379 1232 m -27 Y s 1372 1205 m 13 X s 1397 1185 m -9 X s 1388 1178 m 13 Y s 1397 1185 m 9 X s 1406 1178 m 13 Y s 1397 1185 m 26 Y s 1390 1211 m 13 X s 1397 1185 m -26 Y s 1390 1159 m 13 X s
 1415 1212 m -9 X s 1406 1206 m 13 Y s 1415 1212 m 9 X s 1424 1206 m 13 Y s 1415 1212 m 27 Y s 1409 1239 m 13 X s 1415 1212 m -26 Y s 1409 1186 m 13 X s 1433 1262 m -9 X s 1424 1256 m 13 Y s 1433 1262 m 9 X s 1442 1256 m 13 Y s 1433 1262 m 27 Y s
 1427 1289 m 13 X s 1433 1262 m -27 Y s 1427 1235 m 13 X s 1451 1235 m -9 X s 1442 1228 m 13 Y s 1451 1235 m 9 X s 1460 1228 m 13 Y s 1451 1235 m 27 Y s 1445 1262 m 13 X s 1451 1235 m -26 Y s 1445 1209 m 13 X s 1469 1251 m -9 X s 1460 1244 m 13 Y s
 1469 1251 m 10 X s 1479 1244 m 13 Y s 1469 1251 m 27 Y s 1463 1278 m 13 X s 1469 1251 m -27 Y s 1463 1224 m 13 X s 1488 1291 m -9 X s 1479 1285 m 13 Y s 1488 1291 m 9 X s 1497 1285 m 13 Y s 1488 1291 m 28 Y s 1481 1319 m 13 X s 1488 1291 m -27 Y s
 1481 1264 m 13 X s 1506 1216 m -9 X s 1497 1210 m 13 Y s 1506 1216 m 9 X s 1515 1210 m 13 Y s 1506 1216 m 27 Y s 1499 1243 m 13 X s 1506 1216 m -26 Y s 1499 1190 m 13 X s 1524 1239 m -9 X s 1515 1232 m 13 Y s 1524 1239 m 9 X s 1533 1232 m 13 Y s
 1524 1239 m 27 Y s 1517 1266 m 13 X s 1524 1239 m -27 Y s 1517 1212 m 13 X s 1542 1220 m -9 X s 1533 1213 m 13 Y s 1542 1220 m 9 X s 1551 1213 m 13 Y s 1542 1220 m 27 Y s 1536 1247 m 13 X s 1542 1220 m -26 Y s 1536 1194 m 13 X s 1560 1190 m -9 X s
 1551 1184 m 13 Y s 1560 1190 m 9 X s 1569 1184 m 13 Y s 1560 1190 m 27 Y s 1554 1217 m 13 X s 1560 1190 m -26 Y s 1554 1164 m 13 X s 1578 1183 m -9 X s 1569 1177 m 13 Y s 1578 1183 m 9 X s 1587 1177 m 13 Y s 1578 1183 m 27 Y s 1572 1210 m 13 X s
 1578 1183 m -25 Y s 1572 1158 m 13 X s 1596 1121 m -9 X s 1587 1114 m 13 Y s 1596 1121 m 10 X s 1606 1114 m 13 Y s 1596 1121 m 25 Y s 1590 1146 m 13 X s 1596 1121 m -25 Y s 1590 1096 m 13 X s 1615 1094 m -9 X s 1606 1088 m 13 Y s 1615 1094 m 9 X s
 1624 1088 m 13 Y s 1615 1094 m 25 Y s 1608 1119 m 13 X s 1615 1094 m -24 Y s 1608 1070 m 13 X s 1633 1032 m -9 X s 1624 1026 m 13 Y s 1633 1032 m 9 X s 1642 1026 m 13 Y s 1633 1032 m 24 Y s 1626 1056 m 13 X s 1633 1032 m -24 Y s 1626 1008 m 13 X s
 1651 1025 m -9 X s 1642 1019 m 13 Y s 1651 1025 m 9 X s 1660 1019 m 13 Y s 1651 1025 m 25 Y s 1644 1050 m 13 X s 1651 1025 m -23 Y s 1644 1002 m 13 X s 1669 951 m -9 X s 1660 944 m 13 Y s 1669 951 m 9 X s 1678 944 m 13 Y s 1669 951 m 23 Y s 1663 974
 m 13 X s 1669 951 m -23 Y s 1663 928 m 13 X s 1687 937 m -9 X s 1678 930 m 13 Y s 1687 937 m 9 X s 1696 930 m 13 Y s 1687 937 m 23 Y s 1681 960 m 13 X s 1687 937 m -23 Y s 1681 914 m 13 X s 1705 925 m -9 X s 1696 918 m 13 Y s 1705 925 m 9 X s 1714
 918 m 13 Y s 1705 925 m 23 Y s 1699 948 m 13 X s 1705 925 m -22 Y s 1699 903 m 13 X s 1723 873 m -9 X s 1714 867 m 13 Y s 1723 873 m 10 X s 1733 867 m 13 Y s 1723 873 m 23 Y s 1717 896 m 13 X s 1723 873 m -21 Y s 1717 852 m 13 X s 1742 843 m -9 X s
 1733 837 m 13 Y s 1742 843 m 9 X s 1751 837 m 13 Y s 1742 843 m 22 Y s 1735 865 m 13 X s 1742 843 m -21 Y s 1735 822 m 13 X s 1760 833 m -9 X s 1751 827 m 13 Y s 1760 833 m 9 X s 1769 827 m 13 Y s 1760 833 m 22 Y s 1753 855 m 13 X s 1760 833 m -21 Y
 s 1753 812 m 13 X s 1778 772 m -9 X s 1769 765 m 13 Y s 1778 772 m 9 X s 1787 765 m 13 Y s 1778 772 m 20 Y s 1771 792 m 13 X s 1778 772 m -20 Y s 1771 752 m 13 X s 1796 751 m -9 X s 1787 745 m 13 Y s 1796 751 m 9 X s 1805 745 m 13 Y s 1796 751 m 20
 Y s 1790 771 m 13 X s 1796 751 m -19 Y s 1790 732 m 13 X s 1814 711 m -9 X s 1805 704 m 13 Y s 1814 711 m 9 X s 1823 704 m 13 Y s 1814 711 m 19 Y s 1808 730 m 13 X s 1814 711 m -19 Y s 1808 692 m 13 X s 1832 658 m -9 X s 1823 651 m 13 Y s 1832 658 m
 9 X s 1841 651 m 13 Y s 1832 658 m 19 Y s 1826 677 m 13 X s 1832 658 m -18 Y s 1826 640 m 13 X s 1850 697 m -9 X s 1841 690 m 13 Y s 1850 697 m 10 X s 1860 690 m 13 Y s 1850 697 m 19 Y s 1844 716 m 13 X s 1850 697 m -19 Y s 1844 678 m 13 X s 1869
 624 m -9 X s 1860 618 m 13 Y s 1869 624 m 9 X s 1878 618 m 13 Y s 1869 624 m 18 Y s 1862 642 m 13 X s 1869 624 m -17 Y s 1862 607 m 13 X s 1887 620 m -9 X s 1878 613 m 13 Y s 1887 620 m 9 X s 1896 613 m 13 Y s 1887 620 m 18 Y s 1880 638 m 13 X s
 1887 620 m -18 Y s 1880 602 m 13 X s 1905 569 m -9 X s 1896 562 m 13 Y s 1905 569 m 9 X s 1914 562 m 13 Y s 1905 569 m 17 Y s 1898 586 m 13 X s 1905 569 m -17 Y s 1898 552 m 13 X s 1923 527 m -9 X s 1914 521 m 13 Y s 1923 527 m 9 X s 1932 521 m 13 Y
 s 1923 527 m 16 Y s 1917 543 m 13 X s 1923 527 m -15 Y s 1917 512 m 13 X s 1941 498 m -9 X s 1932 492 m 13 Y s 1941 498 m 9 X s 1950 492 m 13 Y s 1941 498 m 15 Y s 1935 513 m 13 X s 1941 498 m -15 Y s 1935 483 m 13 X s 1959 475 m -9 X s 1950 468 m
 13 Y s 1959 475 m 9 X s 1968 468 m 13 Y s 1959 475 m 15 Y s 1953 490 m 13 X s 1959 475 m -14 Y s 1953 461 m 13 X s 1977 417 m -9 X s 1968 410 m 13 Y s 1977 417 m 10 X s 1987 410 m 13 Y s 1977 417 m 13 Y s 1971 430 m 13 X s 1977 417 m -13 Y s 1971
 404 m 13 X s 1996 386 m -9 X s 1987 380 m 13 Y s 1996 386 m 9 X s 2005 380 m 13 Y s 1996 386 m 13 Y s 1989 399 m 13 X s 1996 386 m -12 Y s 1989 374 m 13 X s 2014 347 m -9 X s 2005 340 m 13 Y s 2014 347 m 9 X s 2023 340 m 13 Y s 2014 347 m 11 Y s
 2007 358 m 13 X s 2014 347 m -11 Y s 2007 336 m 13 X s 2032 310 m -9 X s 2023 303 m 13 Y s 2032 310 m 9 X s 2041 303 m 13 Y s 2032 310 m 10 Y s 2025 320 m 13 X s 2032 310 m -10 Y s 2025 300 m 13 X s 1 1 1 c black /w 26 def /w2 {w 2 div} def /w3 {w 3
 div} def 236 308 254 306 272 316 290 335 308 326 327 329 345 336 363 345 381 342 399 369 417 359 435 367 454 343 472 392 490 373 508 365 526 407 544 392 562 404 581 419 599 433 617 425 635 435 653 456 671 425 689 438 708 464 726 475 744 475 762 499
 780 486 798 495 816 478 835 514 853 526 871 511 889 520 907 530 925 554 943 560 962 580 980 620 998 634 1016 643 1034 615 1052 642 1070 643 1089 686 1107 723 1125 733 1143 725 1161 750 1179 767 1197 800 1215 877 1234 877 1252 908 1270 918 1288 1017
 1306 1016 1324 1076 1342 1133 1361 1171 1379 1232 1397 1185 1415 1212 1433 1262 1451 1235 1469 1251 1488 1291 1506 1216 1524 1239 1542 1220 1560 1190 1578 1183 1596 1121 1615 1094 1633 1032 1651 1025 1669 951 1687 937 1705 925 1723 873 1742 843 1760
 833 1778 772 1796 751 1814 711 1832 658 1850 697 1869 624 1887 620 1905 569 1923 527 1941 498 1959 475 1977 417 1996 386 2014 347 2032 310 100 { m20} R 227 153 m 1814 X s 227 190 m -37 Y s 287 171 m -18 Y s 348 171 m -18 Y s 408 171 m -18 Y s 469
 171 m -18 Y s 529 190 m -37 Y s 590 171 m -18 Y s 650 171 m -18 Y s 711 171 m -18 Y s 771 171 m -18 Y s 831 190 m -37 Y s 892 171 m -18 Y s 952 171 m -18 Y s 1013 171 m -18 Y s 1073 171 m -18 Y s 1134 190 m -37 Y s 1194 171 m -18 Y s 1255 171 m -18
 Y s 1315 171 m -18 Y s 1376 171 m -18 Y s 1436 190 m -37 Y s 1497 171 m -18 Y s 1557 171 m -18 Y s 1618 171 m -18 Y s 1678 171 m -18 Y s 1739 190 m -37 Y s 1799 171 m -18 Y s 1860 171 m -18 Y s 1920 171 m -18 Y s 1980 171 m -18 Y s 2041 190 m -37 Y
 s 227 153 m 1224 Y s 281 153 m -54 X s 254 186 m -27 X s 254 219 m -27 X s 254 252 m -27 X s 281 285 m -54 X s 254 318 m -27 X s 254 351 m -27 X s 254 384 m -27 X s 281 417 m -54 X s 254 450 m -27 X s 254 483 m -27 X s 254 517 m -27 X s 281 550 m
 -54 X s 254 583 m -27 X s 254 616 m -27 X s 254 649 m -27 X s 281 682 m -54 X s 254 715 m -27 X s 254 748 m -27 X s 254 781 m -27 X s 281 814 m -54 X s 254 847 m -27 X s 254 880 m -27 X s 254 913 m -27 X s 281 946 m -54 X s 254 979 m -27 X s 254
 1012 m -27 X s 254 1045 m -27 X s 281 1078 m -54 X s 254 1111 m -27 X s 254 1144 m -27 X s 254 1177 m -27 X s 281 1211 m -54 X s 254 1244 m -27 X s 254 1277 m -27 X s 254 1310 m -27 X s 281 1343 m -54 X s 281 1343 m -54 X s 254 1376 m -27 X s
 gr  gr showpage
end
%%EOF
