%!PS-Adobe-2.0 EPSF-2.0
%%BoundingBox:  0 0 567 383
%%Title: delta_E.eps: c1_n7
%%Creator: ROOT Version 6.13/01
%%CreationDate: Thu Dec 28 12:07:17 2017
%%DocumentNeededResources: ProcSet (FontSetInit)
%%EndComments
%%BeginProlog
80 dict begin
/s {stroke} def /l {lineto} def /m {moveto} def /t {translate} def
/r {rotate} def /rl {roll}  def /R {repeat} def
/d {rlineto} def /rm {rmoveto} def /gr {grestore} def /f {eofill} def
/c {setrgbcolor} def /black {0 setgray} def /sd {setdash} def
/cl {closepath} def /sf {scalefont setfont} def /lw {setlinewidth} def
/box {m dup 0 exch d exch 0 d 0 exch neg d cl} def
/NC{systemdict begin initclip end}def/C{NC box clip newpath}def
/bl {box s} def /bf {gsave box gsave f grestore 1 lw [] 0 sd s grestore} def /Y { 0 exch d} def /X { 0 d} def 
/K {{pop pop 0 moveto} exch kshow} bind def
/ita {/ang 15 def gsave [1 0 ang dup sin exch cos div 1 0 0] concat} def 
/mp {newpath /y exch def /x exch def} def
/side {[w .77 mul w .23 mul] .385 w mul sd w 0 l currentpoint t -144 r} def
/mr {mp x y w2 0 360 arc} def /m24 {mr s} def /m20 {mr f} def
/mb {mp x y w2 add m w2 neg 0 d 0 w neg d w 0 d 0 w d cl} def
/mt {mp x y w2 add m w2 neg w neg d w 0 d cl} def
/w4 {w 4 div} def
/w6 {w 6 div} def
/w8 {w 8 div} def
/m21 {mb f} def /m25 {mb s} def /m22 {mt f} def /m26{mt s} def
/m23 {mp x y w2 sub m w2 w d w neg 0 d cl f} def
/m27 {mp x y w2 add m w3 neg w2 neg d w3 w2 neg d w3 w2 d cl s} def
/m28 {mp x w2 sub y w2 sub w3 add m w3 0 d  0 w3 neg d w3 0 d 0 w3 d w3 0 d  0 w3 d w3 neg 0 d 0 w3 d w3 neg 0 d 0 w3 neg d w3 neg 0 d cl s } def
/m29 {mp gsave x w2 sub y w2 add w3 sub m currentpoint t 4 {side} repeat cl fill gr} def
/m30 {mp gsave x w2 sub y w2 add w3 sub m currentpoint t 4 {side} repeat cl s gr} def
/m31 {mp x y w2 sub m 0 w d x w2 sub y m w 0 d x w2 sub y w2 add m w w neg d x w2 sub y w2 sub m w w d s} def
/m32 {mp x y w2 sub m w2 w d w neg 0 d cl s} def
/m33 {mp x y w2 add m w3 neg w2 neg d w3 w2 neg d w3 w2 d cl f} def
/m34 {mp x w2 sub y w2 sub w3 add m w3 0 d  0 w3 neg d w3 0 d 0 w3 d w3 0 d  0 w3 d w3 neg 0 d 0 w3 d w3 neg 0 d 0 w3 neg d w3 neg 0 d cl f } def
/m35 {mp x y w2 add m w2 neg w2 neg d w2 w2 neg d w2 w2 d w2 neg w2 d x y w2 sub m 0 w d x w2 sub y m w 0 d s} def
/m36 {mb x w2 sub y w2 add m w w neg d x w2 sub y w2 sub m w w d s} def
/m37 {mp x y m w4 neg w2 d w4 neg w2 neg d w2 0 d  w4 neg w2 neg d w2 0 d w4 neg w2 d w2 0 d w4 neg w2 d w4 neg w2 neg d cl s} def
/m38 {mp x w4 sub y w2 add m w4 neg w4 neg d 0 w2 neg d w4 w4 neg d w2 0 d w4 w4 d 0 w2 d w4 neg w4 d w2 neg 0 d x y w2 sub m 0 w d x w2 sub y m w 0 d cl s} def
/m39 {mp x y m w4 neg w2 d w4 neg w2 neg d w2 0 d  w4 neg w2 neg d w2 0 d w4 neg w2 d w2 0 d w4 neg w2 d w4 neg w2 neg d cl f} def
/m40 {mp x y m w4 w2 d w4 w4 neg d w2 neg w4 neg d w2 w4 neg d w4 neg w4 neg d w4 neg w2 d w4 neg w2 neg d w4 neg w4 d w2 w4 d w2 neg w4 d w4 w4 d w4 w2 neg d cl s} def
/m41 {mp x y m w4 w2 d w4 w4 neg d w2 neg w4 neg d w2 w4 neg d w4 neg w4 neg d w4 neg w2 d w4 neg w2 neg d w4 neg w4 d w2 w4 d w2 neg w4 d w4 w4 d w4 w2 neg d cl f} def
/m42 {mp x y w2 add m w8 neg w2 -3 4 div mul d w2 -3 4 div mul w8 neg d w2 3 4 div mul w8 neg d w8 w2 -3 4 div mul d w8 w2 3 4 div mul d w2 3 4 div mul w8 d w2 -3 4 div mul w8 d w8 neg w2 3 4 div mul d cl s} def
/m43 {mp x y w2 add m w8 neg w2 -3 4 div mul d w2 -3 4 div mul w8 neg d w2 3 4 div mul w8 neg d w8 w2 -3 4 div mul d w8 w2 3 4 div mul d w2 3 4 div mul w8 d w2 -3 4 div mul w8 d w8 neg w2 3 4 div mul d cl f} def
/m44 {mp x y m w6 neg w2 d w2 2 3 div mul 0 d w6 neg w2 neg d w2 w6 d 0 w2 -2 3 div mul d w2 neg w6 d w6 w2 neg d w2 -2 3 div mul 0 d w6 w2 d w2 neg w6 neg d 0 w2 2 3 div mul d w2 w6 neg d cl s} def
/m45 {mp x y m w6 neg w2 d w2 2 3 div mul 0 d w6 neg w2 neg d w2 w6 d 0 w2 -2 3 div mul d w2 neg w6 d w6 w2 neg d w2 -2 3 div mul 0 d w6 w2 d w2 neg w6 neg d 0 w2 2 3 div mul d w2 w6 neg d cl f} def
/m46 {mp x y w4 add m w4 neg w4 d w4 neg w4 neg d  w4 w4 neg d w4 neg w4 neg d w4 w4 neg d w4 w4 d w4 w4 neg d w4 w4 d w4 neg w4 d w4 w4 d w4 neg w4 d w4 neg w4 neg d cl s} def
/m47 {mp x y w4 add m w4 neg w4 d w4 neg w4 neg d w4 w4 neg d w4 neg w4 neg d  w4 w4 neg d w4 w4 d w4 w4 neg d w4 w4 d w4 neg w4 d w4 w4 d w4 neg w4 d w4 neg w4 neg d cl f} def
/m48 {mp x y w4 add m w4 neg w4 d w4 neg w4 neg d w4 w4 neg d  w4 neg w4 neg d w4 w4 neg d w4 w4 d w4 w4 neg d w4 w4 d w4 neg w4 d w4 w4 d w4 neg w4 d w4 neg w4 neg d  w4 w4 neg d w4 neg w4 neg d w4 neg w4 d w4 w4 d cl f} def
/m49 {mp x w2 sub w3 add y w2 sub w3 add m  0 w3 neg d w3 0 d 0 w3 d w3 0 d 0 w3 d w3 neg 0 d 0 w3 d w3 neg 0 d 0 w3 neg d w3 neg 0 d 0 w3 neg d w3 0 d 0 w3 d w3 0 d 0 w3 neg d w3 neg 0 d cl f } def
/m2 {mp x y w2 sub m 0 w d x w2 sub y m w 0 d s} def
/m5 {mp x w2 sub y w2 sub m w w d x w2 sub y w2 add m w w neg d s} def
%%IncludeResource: ProcSet (FontSetInit)
%%IncludeResource: font Times-Roman
%%IncludeResource: font Times-Italic
%%IncludeResource: font Times-Bold
%%IncludeResource: font Times-BoldItalic
%%IncludeResource: font Helvetica
%%IncludeResource: font Helvetica-Oblique
%%IncludeResource: font Helvetica-Bold
%%IncludeResource: font Helvetica-BoldOblique
%%IncludeResource: font Courier
%%IncludeResource: font Courier-Oblique
%%IncludeResource: font Courier-Bold
%%IncludeResource: font Courier-BoldOblique
%%IncludeResource: font Symbol
%%IncludeResource: font ZapfDingbats
/reEncode {exch findfont dup length dict begin {1 index /FID eq  {pop pop} {def} ifelse } forall /Encoding exch def currentdict end dup /FontName get exch definefont pop } def [/Times-Bold /Times-Italic /Times-BoldItalic /Helvetica /Helvetica-Oblique
 /Helvetica-Bold /Helvetica-BoldOblique /Courier /Courier-Oblique /Courier-Bold /Courier-BoldOblique /Times-Roman /AvantGarde-Book /AvantGarde-BookOblique /AvantGarde-Demi /AvantGarde-DemiOblique /Bookman-Demi /Bookman-DemiItalic /Bookman-Light
 /Bookman-LightItalic /Helvetica-Narrow /Helvetica-Narrow-Bold /Helvetica-Narrow-BoldOblique /Helvetica-Narrow-Oblique /NewCenturySchlbk-Roman /NewCenturySchlbk-Bold /NewCenturySchlbk-BoldItalic /NewCenturySchlbk-Italic /Palatino-Bold
 /Palatino-BoldItalic /Palatino-Italic /Palatino-Roman ] {ISOLatin1Encoding reEncode } forall
%%EndProlog
%%BeginSetup
%%EndSetup
newpath  gsave  .25 .25 scale  gsave  0 0 t black[  ] 0 sd 3 lw 1 1 1 c 2268 1530 0 0 bf black 1 1 1 c 1814 1224 227 153 bf black 1814 1224 227 153 bl 227 153 m 1814 X s 227 190 m -37 Y s 263 171 m -18 Y s 299 171 m -18 Y s 336 171 m -18 Y s 372 171
 m -18 Y s 408 190 m -37 Y s 444 171 m -18 Y s 481 171 m -18 Y s 517 171 m -18 Y s 553 171 m -18 Y s 590 190 m -37 Y s 626 171 m -18 Y s 662 171 m -18 Y s 698 171 m -18 Y s 735 171 m -18 Y s 771 190 m -37 Y s 807 171 m -18 Y s 844 171 m -18 Y s 880
 171 m -18 Y s 916 171 m -18 Y s 952 190 m -37 Y s 989 171 m -18 Y s 1025 171 m -18 Y s 1061 171 m -18 Y s 1098 171 m -18 Y s 1134 190 m -37 Y s 1170 171 m -18 Y s 1206 171 m -18 Y s 1243 171 m -18 Y s 1279 171 m -18 Y s 1315 190 m -37 Y s 1352 171 m
 -18 Y s 1388 171 m -18 Y s 1424 171 m -18 Y s 1460 171 m -18 Y s 1497 190 m -37 Y s 1533 171 m -18 Y s 1569 171 m -18 Y s 1606 171 m -18 Y s 1642 171 m -18 Y s 1678 190 m -37 Y s 1714 171 m -18 Y s 1751 171 m -18 Y s 1787 171 m -18 Y s 1823 171 m
 -18 Y s 1860 190 m -37 Y s 1896 171 m -18 Y s 1932 171 m -18 Y s 1968 171 m -18 Y s 2005 171 m -18 Y s 2041 190 m -37 Y s 227 190 m -37 Y s
 gsave  2268 1530 0 0 C 201.43 103.964 t 0 r /Helvetica findfont 48.7332 sf 0 0 m (0.5) show NC gr 
 gsave  2268 1530 0 0 C 175.439 103.964 t 0 r /Symbol findfont 48.7332 sf 0 0 m (-) show NC gr 
 gsave  2268 1530 0 0 C 383.368 103.964 t 0 r /Helvetica findfont 48.7332 sf 0 0 m (0.4) show NC gr 
 gsave  2268 1530 0 0 C 357.377 103.964 t 0 r /Symbol findfont 48.7332 sf 0 0 m (-) show NC gr 
 gsave  2268 1530 0 0 C 565.305 103.964 t 0 r /Helvetica findfont 48.7332 sf 0 0 m (0.3) show NC gr 
 gsave  2268 1530 0 0 C 539.314 103.964 t 0 r /Symbol findfont 48.7332 sf 0 0 m (-) show NC gr 
 gsave  2268 1530 0 0 C 747.242 103.964 t 0 r /Helvetica findfont 48.7332 sf 0 0 m (0.2) show NC gr 
 gsave  2268 1530 0 0 C 721.251 103.964 t 0 r /Symbol findfont 48.7332 sf 0 0 m (-) show NC gr 
 gsave  2268 1530 0 0 C 935.677 103.964 t 0 r /Helvetica findfont 48.7332 sf 0 0 m (0.1) show NC gr 
 gsave  2268 1530 0 0 C 906.437 103.964 t 0 r /Symbol findfont 48.7332 sf 0 0 m (-) show NC gr 
 gsave  2268 1530 0 0 C 1120.86 103.964 t 0 r /Helvetica findfont 48.7332 sf 0 0 m (0) show NC gr 
 gsave  2268 1530 0 0 C 1283.31 103.964 t 0 r /Helvetica findfont 48.7332 sf 0 0 m (0.1) show NC gr 
 gsave  2268 1530 0 0 C 1458.75 103.964 t 0 r /Helvetica findfont 48.7332 sf 0 0 m (0.2) show NC gr 
 gsave  2268 1530 0 0 C 1640.68 103.964 t 0 r /Helvetica findfont 48.7332 sf 0 0 m (0.3) show NC gr 
 gsave  2268 1530 0 0 C 1822.62 103.964 t 0 r /Helvetica findfont 48.7332 sf 0 0 m (0.4) show NC gr 
 gsave  2268 1530 0 0 C 2004.56 103.964 t 0 r /Helvetica findfont 48.7332 sf 0 0 m (0.5) show NC gr 
 gsave  2268 1530 0 0 C 1881.1 51.982 t 0 r /Helvetica findfont 48.7332 sf 0 0 m (delta_e) show NC gr  227 153 m 1224 Y s 281 153 m -54 X s 254 181 m -27 X s 254 209 m -27 X s 254 237 m -27 X s 254 265 m -27 X s 281 293 m -54 X s 254 321 m -27 X s
 254 349 m -27 X s 254 377 m -27 X s 254 405 m -27 X s 281 433 m -54 X s 254 461 m -27 X s 254 489 m -27 X s 254 517 m -27 X s 254 545 m -27 X s 281 573 m -54 X s 254 601 m -27 X s 254 629 m -27 X s 254 657 m -27 X s 254 685 m -27 X s 281 713 m -54 X
 s 254 741 m -27 X s 254 769 m -27 X s 254 797 m -27 X s 254 825 m -27 X s 281 853 m -54 X s 254 881 m -27 X s 254 909 m -27 X s 254 937 m -27 X s 254 965 m -27 X s 281 993 m -54 X s 254 1021 m -27 X s 254 1049 m -27 X s 254 1077 m -27 X s 254 1105 m
 -27 X s 281 1133 m -54 X s 254 1161 m -27 X s 254 1189 m -27 X s 254 1217 m -27 X s 254 1245 m -27 X s 281 1273 m -54 X s 281 1273 m -54 X s 254 1301 m -27 X s 254 1329 m -27 X s 254 1357 m -27 X s
 gsave  2268 1530 0 0 C 188.435 136.453 t 0 r /Helvetica findfont 48.7332 sf 0 0 m (0) show NC gr 
 gsave  2268 1530 0 0 C 133.204 276.155 t 0 r /Helvetica findfont 48.7332 sf 0 0 m (500) show NC gr 
 gsave  2268 1530 0 0 C 107.213 415.856 t 0 r /Helvetica findfont 48.7332 sf 0 0 m (1000) show NC gr 
 gsave  2268 1530 0 0 C 107.213 555.558 t 0 r /Helvetica findfont 48.7332 sf 0 0 m (1500) show NC gr 
 gsave  2268 1530 0 0 C 107.213 695.26 t 0 r /Helvetica findfont 48.7332 sf 0 0 m (2000) show NC gr 
 gsave  2268 1530 0 0 C 107.213 834.962 t 0 r /Helvetica findfont 48.7332 sf 0 0 m (2500) show NC gr 
 gsave  2268 1530 0 0 C 107.213 974.663 t 0 r /Helvetica findfont 48.7332 sf 0 0 m (3000) show NC gr 
 gsave  2268 1530 0 0 C 107.213 1114.36 t 0 r /Helvetica findfont 48.7332 sf 0 0 m (3500) show NC gr 
 gsave  2268 1530 0 0 C 107.213 1254.07 t 0 r /Helvetica findfont 48.7332 sf 0 0 m (4000) show NC gr 
 gsave  2268 1530 0 0 C 51.982 1036.39 t 90 r /Helvetica findfont 48.7332 sf 0 0 m (Events / \( 0.01 \)) show NC gr  236 630 m -9 X s 227 624 m 13 Y s 236 630 m 9 X s 245 624 m 13 Y s 236 630 m 12 Y s 229 642 m 13 X s 236 630 m -11 Y s 229 619 m 13 X
 s 254 622 m -9 X s 245 616 m 13 Y s 254 622 m 9 X s 263 616 m 13 Y s 254 622 m 12 Y s 247 634 m 13 X s 254 622 m -11 Y s 247 611 m 13 X s 272 619 m -9 X s 263 612 m 13 Y s 272 619 m 9 X s 281 612 m 13 Y s 272 619 m 11 Y s 266 630 m 13 X s 272 619 m
 -12 Y s 266 607 m 13 X s 290 616 m -9 X s 281 610 m 13 Y s 290 616 m 9 X s 299 610 m 13 Y s 290 616 m 12 Y s 284 628 m 13 X s 290 616 m -11 Y s 284 605 m 13 X s 308 613 m -9 X s 299 606 m 13 Y s 308 613 m 9 X s 317 606 m 13 Y s 308 613 m 11 Y s 302
 624 m 13 X s 308 613 m -12 Y s 302 601 m 13 X s 327 593 m -10 X s 317 587 m 13 Y s 327 593 m 9 X s 336 587 m 13 Y s 327 593 m 11 Y s 320 604 m 13 X s 327 593 m -11 Y s 320 582 m 13 X s 345 595 m -9 X s 336 588 m 13 Y s 345 595 m 9 X s 354 588 m 13 Y
 s 345 595 m 11 Y s 338 606 m 13 X s 345 595 m -11 Y s 338 584 m 13 X s 363 584 m -9 X s 354 577 m 13 Y s 363 584 m 9 X s 372 577 m 13 Y s 363 584 m 11 Y s 356 595 m 13 X s 363 584 m -11 Y s 356 573 m 13 X s 381 570 m -9 X s 372 563 m 13 Y s 381 570
 m 9 X s 390 563 m 13 Y s 381 570 m 11 Y s 374 581 m 13 X s 381 570 m -11 Y s 374 559 m 13 X s 399 547 m -9 X s 390 540 m 13 Y s 399 547 m 9 X s 408 540 m 13 Y s 399 547 m 10 Y s 393 557 m 13 X s 399 547 m -11 Y s 393 536 m 13 X s 417 544 m -9 X s
 408 537 m 13 Y s 417 544 m 9 X s 426 537 m 13 Y s 417 544 m 11 Y s 411 555 m 13 X s 417 544 m -10 Y s 411 534 m 13 X s 435 544 m -9 X s 426 537 m 13 Y s 435 544 m 9 X s 444 537 m 13 Y s 435 544 m 10 Y s 429 554 m 13 X s 435 544 m -11 Y s 429 533 m
 13 X s 454 530 m -10 X s 444 523 m 13 Y s 454 530 m 9 X s 463 523 m 13 Y s 454 530 m 10 Y s 447 540 m 13 X s 454 530 m -10 Y s 447 520 m 13 X s 472 527 m -9 X s 463 521 m 13 Y s 472 527 m 9 X s 481 521 m 13 Y s 472 527 m 11 Y s 465 538 m 13 X s 472
 527 m -10 Y s 465 517 m 13 X s 490 497 m -9 X s 481 491 m 13 Y s 490 497 m 9 X s 499 491 m 13 Y s 490 497 m 10 Y s 483 507 m 13 X s 490 497 m -9 Y s 483 488 m 13 X s 508 506 m -9 X s 499 499 m 13 Y s 508 506 m 9 X s 517 499 m 13 Y s 508 506 m 10 Y s
 501 516 m 13 X s 508 506 m -10 Y s 501 496 m 13 X s 526 489 m -9 X s 517 483 m 13 Y s 526 489 m 9 X s 535 483 m 13 Y s 526 489 m 10 Y s 520 499 m 13 X s 526 489 m -9 Y s 520 480 m 13 X s 544 516 m -9 X s 535 509 m 13 Y s 544 516 m 9 X s 553 509 m 13
 Y s 544 516 m 10 Y s 538 526 m 13 X s 544 516 m -10 Y s 538 506 m 13 X s 562 506 m -9 X s 553 500 m 13 Y s 562 506 m 9 X s 571 500 m 13 Y s 562 506 m 10 Y s 556 516 m 13 X s 562 506 m -10 Y s 556 496 m 13 X s 581 498 m -10 X s 571 491 m 13 Y s 581
 498 m 9 X s 590 491 m 13 Y s 581 498 m 10 Y s 574 508 m 13 X s 581 498 m -10 Y s 574 488 m 13 X s 599 516 m -9 X s 590 509 m 13 Y s 599 516 m 9 X s 608 509 m 13 Y s 599 516 m 10 Y s 592 526 m 13 X s 599 516 m -10 Y s 592 506 m 13 X s 617 541 m -9 X
 s 608 535 m 13 Y s 617 541 m 9 X s 626 535 m 13 Y s 617 541 m 11 Y s 610 552 m 13 X s 617 541 m -10 Y s 610 531 m 13 X s 635 669 m -9 X s 626 662 m 13 Y s 635 669 m 9 X s 644 662 m 13 Y s 635 669 m 12 Y s 628 681 m 13 X s 635 669 m -12 Y s 628 657 m
 13 X s 653 812 m -9 X s 644 806 m 13 Y s 653 812 m 9 X s 662 806 m 13 Y s 653 812 m 14 Y s 647 826 m 13 X s 653 812 m -13 Y s 647 799 m 13 X s 671 918 m -9 X s 662 912 m 13 Y s 671 918 m 9 X s 680 912 m 13 Y s 671 918 m 15 Y s 665 933 m 13 X s 671
 918 m -14 Y s 665 904 m 13 X s 689 882 m -9 X s 680 875 m 13 Y s 689 882 m 9 X s 698 875 m 13 Y s 689 882 m 14 Y s 683 896 m 13 X s 689 882 m -14 Y s 683 868 m 13 X s 708 755 m -10 X s 698 749 m 13 Y s 708 755 m 9 X s 717 749 m 13 Y s 708 755 m 13 Y
 s 701 768 m 13 X s 708 755 m -13 Y s 701 742 m 13 X s 726 630 m -9 X s 717 624 m 13 Y s 726 630 m 9 X s 735 624 m 13 Y s 726 630 m 12 Y s 719 642 m 13 X s 726 630 m -11 Y s 719 619 m 13 X s 744 596 m -9 X s 735 589 m 13 Y s 744 596 m 9 X s 753 589 m
 13 Y s 744 596 m 11 Y s 737 607 m 13 X s 744 596 m -11 Y s 737 585 m 13 X s 762 639 m -9 X s 753 633 m 13 Y s 762 639 m 9 X s 771 633 m 13 Y s 762 639 m 12 Y s 755 651 m 13 X s 762 639 m -11 Y s 755 628 m 13 X s 780 767 m -9 X s 771 760 m 13 Y s 780
 767 m 9 X s 789 760 m 13 Y s 780 767 m 13 Y s 774 780 m 13 X s 780 767 m -13 Y s 774 754 m 13 X s 798 910 m -9 X s 789 903 m 13 Y s 798 910 m 9 X s 807 903 m 13 Y s 798 910 m 15 Y s 792 925 m 13 X s 798 910 m -14 Y s 792 896 m 13 X s 816 869 m -9 X
 s 807 863 m 13 Y s 816 869 m 9 X s 825 863 m 13 Y s 816 869 m 14 Y s 810 883 m 13 X s 816 869 m -14 Y s 810 855 m 13 X s 835 739 m -10 X s 825 733 m 13 Y s 835 739 m 9 X s 844 733 m 13 Y s 835 739 m 13 Y s 828 752 m 13 X s 835 739 m -13 Y s 828 726
 m 13 X s 853 572 m -9 X s 844 566 m 13 Y s 853 572 m 9 X s 862 566 m 13 Y s 853 572 m 11 Y s 846 583 m 13 X s 853 572 m -10 Y s 846 562 m 13 X s 871 418 m -9 X s 862 411 m 13 Y s 871 418 m 9 X s 880 411 m 13 Y s 871 418 m 8 Y s 864 426 m 13 X s 871
 418 m -9 Y s 864 409 m 13 X s 889 344 m -9 X s 880 338 m 12 Y s 889 344 m 9 X s 898 338 m 12 Y s 889 344 m 7 Y s 882 351 m 13 X s 889 344 m -7 Y s 882 337 m 13 X s 907 295 m -9 X s 898 288 m 13 Y s 907 295 m 9 X s 916 288 m 13 Y s 907 295 m 6 Y s
 901 301 m 13 X s 907 295 m -6 Y s 901 289 m 13 X s 925 255 m -9 X s 916 248 m 13 Y s 925 255 m 9 X s 934 248 m 13 Y s 925 255 m 5 Y s 919 260 m 13 X s 925 255 m -6 Y s 919 249 m 13 X s 943 249 m -9 X s 934 243 m 13 Y s 943 249 m 9 X s 952 243 m 13 Y
 s 943 249 m 6 Y s 937 255 m 13 X s 943 249 m -5 Y s 937 244 m 13 X s 962 240 m -10 X s 952 234 m 13 Y s 962 240 m 9 X s 971 234 m 13 Y s 962 240 m 5 Y s 955 245 m 13 X s 962 240 m -4 Y s 955 236 m 13 X s 980 238 m -9 X s 971 231 m 13 Y s 980 238 m 9
 X s 989 231 m 13 Y s 980 238 m 5 Y s 973 243 m 13 X s 980 238 m -5 Y s 973 233 m 13 X s 998 234 m -9 X s 989 227 m 13 Y s 998 234 m 9 X s 1007 227 m 13 Y s 998 234 m 5 Y s 991 239 m 13 X s 998 234 m -5 Y s 991 229 m 13 X s 1016 240 m -9 X s 1007 233
 m 13 Y s 1016 240 m 9 X s 1025 233 m 13 Y s 1016 240 m 5 Y s 1009 245 m 13 X s 1016 240 m -5 Y s 1009 235 m 13 X s 1034 240 m -9 X s 1025 234 m 13 Y s 1034 240 m 9 X s 1043 234 m 13 Y s 1034 240 m 5 Y s 1028 245 m 13 X s 1034 240 m -5 Y s 1028 235 m
 13 X s 1052 268 m -9 X s 1043 262 m 13 Y s 1052 268 m 9 X s 1061 262 m 13 Y s 1052 268 m 6 Y s 1046 274 m 13 X s 1052 268 m -5 Y s 1046 263 m 13 X s 1070 278 m -9 X s 1061 272 m 13 Y s 1070 278 m 9 X s 1079 272 m 13 Y s 1070 278 m 6 Y s 1064 284 m
 13 X s 1070 278 m -6 Y s 1064 272 m 13 X s 1089 402 m -10 X s 1079 396 m 13 Y s 1089 402 m 9 X s 1098 396 m 13 Y s 1089 402 m 9 Y s 1082 411 m 13 X s 1089 402 m -8 Y s 1082 394 m 13 X s 1107 811 m -9 X s 1098 804 m 13 Y s 1107 811 m 9 X s 1116 804 m
 13 Y s 1107 811 m 14 Y s 1100 825 m 13 X s 1107 811 m -14 Y s 1100 797 m 13 X s 1125 1301 m -9 X s 1116 1294 m 13 Y s 1125 1301 m 9 X s 1134 1294 m 13 Y s 1125 1301 m 18 Y s 1118 1319 m 13 X s 1125 1301 m -18 Y s 1118 1283 m 13 X s 1143 1259 m -9 X
 s 1134 1253 m 13 Y s 1143 1259 m 9 X s 1152 1253 m 13 Y s 1143 1259 m 18 Y s 1136 1277 m 13 X s 1143 1259 m -17 Y s 1136 1242 m 13 X s 1161 749 m -9 X s 1152 742 m 13 Y s 1161 749 m 9 X s 1170 742 m 13 Y s 1161 749 m 13 Y s 1155 762 m 13 X s 1161
 749 m -13 Y s 1155 736 m 13 X s 1179 377 m -9 X s 1170 370 m 13 Y s 1179 377 m 9 X s 1188 370 m 13 Y s 1179 377 m 8 Y s 1173 385 m 13 X s 1179 377 m -8 Y s 1173 369 m 13 X s 1197 240 m -9 X s 1188 233 m 13 Y s 1197 240 m 9 X s 1206 233 m 13 Y s 1197
 240 m 5 Y s 1191 245 m 13 X s 1197 240 m -5 Y s 1191 235 m 13 X s 1215 192 m -9 X s 1206 186 m 13 Y s 1215 192 m 10 X s 1225 186 m 13 Y s 1215 192 m 4 Y s 1209 196 m 13 X s 1215 192 m -3 Y s 1209 189 m 13 X s 1234 178 m -9 X s 1225 171 m 13 Y s 1234
 178 m 9 X s 1243 171 m 13 Y s 1234 178 m 3 Y s 1227 181 m 13 X s 1234 178 m -3 Y s 1227 175 m 13 X s 1252 173 m -9 X s 1243 167 m 13 Y s 1252 173 m 9 X s 1261 167 m 13 Y s 1252 173 m 3 Y s 1245 176 m 13 X s 1252 173 m -2 Y s 1245 171 m 13 X s 1270
 168 m -9 X s 1261 162 m 13 Y s 1270 168 m 9 X s 1279 162 m 13 Y s 1270 168 m 3 Y s 1263 171 m 13 X s 1270 168 m -2 Y s 1263 166 m 13 X s 1288 166 m -9 X s 1279 159 m 13 Y s 1288 166 m 9 X s 1297 159 m 13 Y s 1288 166 m 2 Y s 1282 168 m 13 X s 1288
 166 m -2 Y s 1282 164 m 13 X s 1306 167 m -9 X s 1297 161 m 13 Y s 1306 167 m 9 X s 1315 161 m 13 Y s 1306 167 m 3 Y s 1300 170 m 13 X s 1306 167 m -2 Y s 1300 165 m 13 X s 1324 161 m -9 X s 1315 155 m 13 Y s 1324 161 m 9 X s 1333 155 m 13 Y s 1324
 161 m 2 Y s 1318 163 m 13 X s 1324 161 m -1 Y s 1318 160 m 13 X s 1342 162 m -9 X s 1333 155 m 13 Y s 1342 162 m 10 X s 1352 155 m 13 Y s 1342 162 m 2 Y s 1336 164 m 13 X s 1342 162 m -2 Y s 1336 160 m 13 X s 1361 161 m -9 X s 1352 155 m 13 Y s 1361
 161 m 9 X s 1370 155 m 13 Y s 1361 161 m 2 Y s 1354 163 m 13 X s 1361 161 m -1 Y s 1354 160 m 13 X s 1379 162 m -9 X s 1370 155 m 13 Y s 1379 162 m 9 X s 1388 155 m 13 Y s 1379 162 m 2 Y s 1372 164 m 13 X s 1379 162 m -2 Y s 1372 160 m 13 X s 1397
 159 m -9 X s 1388 153 m 12 Y s 1397 159 m 9 X s 1406 153 m 12 Y s 1397 159 m 1 Y s 1390 160 m 13 X s 1397 159 m -1 Y s 1390 158 m 13 X s 1415 160 m -9 X s 1406 154 m 13 Y s 1415 160 m 9 X s 1424 154 m 13 Y s 1415 160 m 2 Y s 1409 162 m 13 X s 1415
 160 m -1 Y s 1409 159 m 13 X s 1433 157 m -9 X s 1424 153 m 10 Y s 1433 157 m 9 X s 1442 153 m 10 Y s 1433 157 m 1 Y s 1427 158 m 13 X s 1433 157 m -1 Y s 1427 156 m 13 X s 1451 157 m -9 X s 1442 153 m 11 Y s 1451 157 m 9 X s 1460 153 m 11 Y s 1451
 157 m 2 Y s 1445 159 m 13 X s 1451 157 m -1 Y s 1445 156 m 13 X s 1469 157 m -9 X s 1460 153 m 11 Y s 1469 157 m 10 X s 1479 153 m 11 Y s 1469 157 m 2 Y s 1463 159 m 13 X s 1469 157 m -1 Y s 1463 156 m 13 X s 1488 156 m -9 X s 1479 153 m 10 Y s 1488
 156 m 9 X s 1497 153 m 10 Y s 1488 156 m 2 Y s 1481 158 m 13 X s 1488 156 m -1 Y s 1481 155 m 13 X s 1506 157 m -9 X s 1497 153 m 11 Y s 1506 157 m 9 X s 1515 153 m 11 Y s 1506 157 m 2 Y s 1499 159 m 13 X s 1506 157 m -1 Y s 1499 156 m 13 X s 1524
 156 m -9 X s 1515 153 m 9 Y s 1524 156 m 9 X s 1533 153 m 9 Y s 1524 156 m 1 Y s 1517 157 m 13 X s 1524 156 m -1 Y s 1517 155 m 13 X s 1542 158 m -9 X s 1533 153 m 11 Y s 1542 158 m 9 X s 1551 153 m 11 Y s 1542 158 m 1 Y s 1536 159 m 13 X s 1542 158
 m -2 Y s 1536 156 m 13 X s 1560 156 m -9 X s 1551 153 m 9 Y s 1560 156 m 9 X s 1569 153 m 9 Y s 1560 156 m 1 Y s 1554 157 m 13 X s 1560 156 m -1 Y s 1554 155 m 13 X s 1578 156 m -9 X s 1569 153 m 10 Y s 1578 156 m 9 X s 1587 153 m 10 Y s 1578 156 m
 2 Y s 1572 158 m 13 X s 1578 156 m -1 Y s 1572 155 m 13 X s 1596 155 m -9 X s 1587 153 m 8 Y s 1596 155 m 10 X s 1606 153 m 8 Y s 1596 155 m 1 Y s 1590 156 m 13 X s 1596 155 m -1 Y s 1590 154 m 13 X s 1615 155 m -9 X s 1606 153 m 9 Y s 1615 155 m 9
 X s 1624 153 m 9 Y s 1615 155 m 1 Y s 1608 156 m 13 X s 1615 155 m -1 Y s 1608 154 m 13 X s 1633 154 m -9 X s 1624 153 m 7 Y s 1633 154 m 9 X s 1642 153 m 7 Y s 1633 154 m 1 Y s 1626 155 m 13 X s 1633 154 m -1 Y s 1626 153 m 13 X s 1651 155 m -9 X s
 1642 153 m 8 Y s 1651 155 m 9 X s 1660 153 m 8 Y s 1651 155 m 1 Y s 1644 156 m 13 X s 1651 155 m -1 Y s 1644 154 m 13 X s 1669 154 m -9 X s 1660 153 m 8 Y s 1669 154 m 9 X s 1678 153 m 8 Y s 1669 154 m 1 Y s 1663 155 m 13 X s 1669 154 m s 1663 154 m
 13 X s 1687 155 m -9 X s 1678 153 m 9 Y s 1687 155 m 9 X s 1696 153 m 9 Y s 1687 155 m 1 Y s 1681 156 m 13 X s 1687 155 m -1 Y s 1681 154 m 13 X s 1705 155 m -9 X s 1696 153 m 8 Y s 1705 155 m 9 X s 1714 153 m 8 Y s 1705 155 m 1 Y s 1699 156 m 13 X
 s 1705 155 m -1 Y s 1699 154 m 13 X s 1723 154 m -9 X s 1714 153 m 7 Y s 1723 154 m 10 X s 1733 153 m 7 Y s 1723 154 m 1 Y s 1717 155 m 13 X s 1723 154 m -1 Y s 1717 153 m 13 X s 1742 156 m -9 X s 1733 153 m 9 Y s 1742 156 m 9 X s 1751 153 m 9 Y s
 1742 156 m 1 Y s 1735 157 m 13 X s 1742 156 m -1 Y s 1735 155 m 13 X s 1760 154 m -9 X s 1751 153 m 8 Y s 1760 154 m 9 X s 1769 153 m 8 Y s 1760 154 m 1 Y s 1753 155 m 13 X s 1760 154 m s 1753 154 m 13 X s 1778 154 m -9 X s 1769 153 m 8 Y s 1778 154
 m 9 X s 1787 153 m 8 Y s 1778 154 m 1 Y s 1771 155 m 13 X s 1778 154 m s 1771 154 m 13 X s 1796 155 m -9 X s 1787 153 m 8 Y s 1796 155 m 9 X s 1805 153 m 8 Y s 1796 155 m 1 Y s 1790 156 m 13 X s 1796 155 m -1 Y s 1790 154 m 13 X s 1814 154 m -9 X s
 1805 153 m 7 Y s 1814 154 m 9 X s 1823 153 m 7 Y s 1814 154 m 1 Y s 1808 155 m 13 X s 1814 154 m -1 Y s 1808 153 m 13 X s 1832 154 m -9 X s 1823 153 m 7 Y s 1832 154 m 9 X s 1841 153 m 7 Y s 1832 154 m 1 Y s 1826 155 m 13 X s 1832 154 m -1 Y s 1826
 153 m 13 X s 1850 153 m -9 X s 1841 153 m 7 Y s 1850 153 m 10 X s 1860 153 m 7 Y s 1850 153 m 1 Y s 1844 154 m 13 X s 1850 153 m s 1844 153 m 13 X s 1869 154 m -9 X s 1860 153 m 8 Y s 1869 154 m 9 X s 1878 153 m 8 Y s 1869 154 m 1 Y s 1862 155 m 13
 X s 1869 154 m s 1862 154 m 13 X s 1887 153 m -9 X s 1878 153 m 7 Y s 1887 153 m 9 X s 1896 153 m 7 Y s 1887 153 m 1 Y s 1880 154 m 13 X s 1887 153 m s 1880 153 m 13 X s 1905 154 m -9 X s 1896 153 m 7 Y s 1905 154 m 9 X s 1914 153 m 7 Y s 1905 154 m
 s 1898 154 m 13 X s 1905 154 m -1 Y s 1898 153 m 13 X s 1923 156 m -9 X s 1914 153 m 10 Y s 1923 156 m 9 X s 1932 153 m 10 Y s 1923 156 m 1 Y s 1917 157 m 13 X s 1923 156 m -1 Y s 1917 155 m 13 X s 1941 155 m -9 X s 1932 153 m 9 Y s 1941 155 m 9 X s
 1950 153 m 9 Y s 1941 155 m 1 Y s 1935 156 m 13 X s 1941 155 m -1 Y s 1935 154 m 13 X s 1959 155 m -9 X s 1950 153 m 8 Y s 1959 155 m 9 X s 1968 153 m 8 Y s 1959 155 m 1 Y s 1953 156 m 13 X s 1959 155 m -1 Y s 1953 154 m 13 X s 1977 155 m -9 X s
 1968 153 m 9 Y s 1977 155 m 10 X s 1987 153 m 9 Y s 1977 155 m 1 Y s 1971 156 m 13 X s 1977 155 m -1 Y s 1971 154 m 13 X s 1996 158 m -9 X s 1987 153 m 12 Y s 1996 158 m 9 X s 2005 153 m 12 Y s 1996 158 m 2 Y s 1989 160 m 13 X s 1996 158 m -1 Y s
 1989 157 m 13 X s 2014 156 m -9 X s 2005 153 m 9 Y s 2014 156 m 9 X s 2023 153 m 9 Y s 2014 156 m 1 Y s 2007 157 m 13 X s 2014 156 m -1 Y s 2007 155 m 13 X s 2032 158 m -9 X s 2023 153 m 11 Y s 2032 158 m 9 X s 2041 153 m 11 Y s 2032 158 m 1 Y s
 2025 159 m 13 X s 2032 158 m -2 Y s 2025 156 m 13 X s 1 1 1 c black /w 26 def /w2 {w 2 div} def /w3 {w 3 div} def 236 630 254 622 272 619 290 616 308 613 327 593 345 595 363 584 381 570 399 547 417 544 435 544 454 530 472 527 490 497 508 506 526 489
 544 516 562 506 581 498 599 516 617 541 635 669 653 812 671 918 689 882 708 755 726 630 744 596 762 639 780 767 798 910 816 869 835 739 853 572 871 418 889 344 907 295 925 255 943 249 962 240 980 238 998 234 1016 240 1034 240 1052 268 1070 278 1089
 402 1107 811 1125 1301 1143 1259 1161 749 1179 377 1197 240 1215 192 1234 178 1252 173 1270 168 1288 166 1306 167 1324 161 1342 162 1361 161 1379 162 1397 159 1415 160 1433 157 1451 157 1469 157 1488 156 1506 157 1524 156 1542 158 1560 156 1578 156
 1596 155 1615 155 1633 154 1651 155 1669 154 1687 155 1705 155 1723 154 1742 156 1760 154 1778 154 1796 155 1814 154 1832 154 1850 153 1869 154 1887 153 1905 154 1923 156 1941 155 1959 155 1977 155 1996 158 2014 156 2032 158 100 { m20} R 227 153 m
 1814 X s 227 190 m -37 Y s 263 171 m -18 Y s 299 171 m -18 Y s 336 171 m -18 Y s 372 171 m -18 Y s 408 190 m -37 Y s 444 171 m -18 Y s 481 171 m -18 Y s 517 171 m -18 Y s 553 171 m -18 Y s 590 190 m -37 Y s 626 171 m -18 Y s 662 171 m -18 Y s 698
 171 m -18 Y s 735 171 m -18 Y s 771 190 m -37 Y s 807 171 m -18 Y s 844 171 m -18 Y s 880 171 m -18 Y s 916 171 m -18 Y s 952 190 m -37 Y s 989 171 m -18 Y s 1025 171 m -18 Y s 1061 171 m -18 Y s 1098 171 m -18 Y s 1134 190 m -37 Y s 1170 171 m -18
 Y s 1206 171 m -18 Y s 1243 171 m -18 Y s 1279 171 m -18 Y s 1315 190 m -37 Y s 1352 171 m -18 Y s 1388 171 m -18 Y s 1424 171 m -18 Y s 1460 171 m -18 Y s 1497 190 m -37 Y s 1533 171 m -18 Y s 1569 171 m -18 Y s 1606 171 m -18 Y s 1642 171 m -18 Y
 s 1678 190 m -37 Y s 1714 171 m -18 Y s 1751 171 m -18 Y s 1787 171 m -18 Y s 1823 171 m -18 Y s 1860 190 m -37 Y s 1896 171 m -18 Y s 1932 171 m -18 Y s 1968 171 m -18 Y s 2005 171 m -18 Y s 2041 190 m -37 Y s 227 190 m -37 Y s 227 153 m 1224 Y s
 281 153 m -54 X s 254 181 m -27 X s 254 209 m -27 X s 254 237 m -27 X s 254 265 m -27 X s 281 293 m -54 X s 254 321 m -27 X s 254 349 m -27 X s 254 377 m -27 X s 254 405 m -27 X s 281 433 m -54 X s 254 461 m -27 X s 254 489 m -27 X s 254 517 m -27 X
 s 254 545 m -27 X s 281 573 m -54 X s 254 601 m -27 X s 254 629 m -27 X s 254 657 m -27 X s 254 685 m -27 X s 281 713 m -54 X s 254 741 m -27 X s 254 769 m -27 X s 254 797 m -27 X s 254 825 m -27 X s 281 853 m -54 X s 254 881 m -27 X s 254 909 m -27
 X s 254 937 m -27 X s 254 965 m -27 X s 281 993 m -54 X s 254 1021 m -27 X s 254 1049 m -27 X s 254 1077 m -27 X s 254 1105 m -27 X s 281 1133 m -54 X s 254 1161 m -27 X s 254 1189 m -27 X s 254 1217 m -27 X s 254 1245 m -27 X s 281 1273 m -54 X s
 281 1273 m -54 X s 254 1301 m -27 X s 254 1329 m -27 X s 254 1357 m -27 X s
 gr  gr showpage
end
%%EOF
