%!PS-Adobe-2.0 EPSF-2.0
%%BoundingBox:  0 0 567 539
%%Title: real_12.eps: 
%%Creator: ROOT Version 6.13/01
%%CreationDate: Thu Dec 28 12:08:28 2017
%%DocumentNeededResources: ProcSet (FontSetInit)
%%EndComments
%%BeginProlog
80 dict begin
/s {stroke} def /l {lineto} def /m {moveto} def /t {translate} def
/r {rotate} def /rl {roll}  def /R {repeat} def
/d {rlineto} def /rm {rmoveto} def /gr {grestore} def /f {eofill} def
/c {setrgbcolor} def /black {0 setgray} def /sd {setdash} def
/cl {closepath} def /sf {scalefont setfont} def /lw {setlinewidth} def
/box {m dup 0 exch d exch 0 d 0 exch neg d cl} def
/NC{systemdict begin initclip end}def/C{NC box clip newpath}def
/bl {box s} def /bf {gsave box gsave f grestore 1 lw [] 0 sd s grestore} def /Y { 0 exch d} def /X { 0 d} def 
/K {{pop pop 0 moveto} exch kshow} bind def
/ita {/ang 15 def gsave [1 0 ang dup sin exch cos div 1 0 0] concat} def 
/mp {newpath /y exch def /x exch def} def
/side {[w .77 mul w .23 mul] .385 w mul sd w 0 l currentpoint t -144 r} def
/mr {mp x y w2 0 360 arc} def /m24 {mr s} def /m20 {mr f} def
/mb {mp x y w2 add m w2 neg 0 d 0 w neg d w 0 d 0 w d cl} def
/mt {mp x y w2 add m w2 neg w neg d w 0 d cl} def
/w4 {w 4 div} def
/w6 {w 6 div} def
/w8 {w 8 div} def
/m21 {mb f} def /m25 {mb s} def /m22 {mt f} def /m26{mt s} def
/m23 {mp x y w2 sub m w2 w d w neg 0 d cl f} def
/m27 {mp x y w2 add m w3 neg w2 neg d w3 w2 neg d w3 w2 d cl s} def
/m28 {mp x w2 sub y w2 sub w3 add m w3 0 d  0 w3 neg d w3 0 d 0 w3 d w3 0 d  0 w3 d w3 neg 0 d 0 w3 d w3 neg 0 d 0 w3 neg d w3 neg 0 d cl s } def
/m29 {mp gsave x w2 sub y w2 add w3 sub m currentpoint t 4 {side} repeat cl fill gr} def
/m30 {mp gsave x w2 sub y w2 add w3 sub m currentpoint t 4 {side} repeat cl s gr} def
/m31 {mp x y w2 sub m 0 w d x w2 sub y m w 0 d x w2 sub y w2 add m w w neg d x w2 sub y w2 sub m w w d s} def
/m32 {mp x y w2 sub m w2 w d w neg 0 d cl s} def
/m33 {mp x y w2 add m w3 neg w2 neg d w3 w2 neg d w3 w2 d cl f} def
/m34 {mp x w2 sub y w2 sub w3 add m w3 0 d  0 w3 neg d w3 0 d 0 w3 d w3 0 d  0 w3 d w3 neg 0 d 0 w3 d w3 neg 0 d 0 w3 neg d w3 neg 0 d cl f } def
/m35 {mp x y w2 add m w2 neg w2 neg d w2 w2 neg d w2 w2 d w2 neg w2 d x y w2 sub m 0 w d x w2 sub y m w 0 d s} def
/m36 {mb x w2 sub y w2 add m w w neg d x w2 sub y w2 sub m w w d s} def
/m37 {mp x y m w4 neg w2 d w4 neg w2 neg d w2 0 d  w4 neg w2 neg d w2 0 d w4 neg w2 d w2 0 d w4 neg w2 d w4 neg w2 neg d cl s} def
/m38 {mp x w4 sub y w2 add m w4 neg w4 neg d 0 w2 neg d w4 w4 neg d w2 0 d w4 w4 d 0 w2 d w4 neg w4 d w2 neg 0 d x y w2 sub m 0 w d x w2 sub y m w 0 d cl s} def
/m39 {mp x y m w4 neg w2 d w4 neg w2 neg d w2 0 d  w4 neg w2 neg d w2 0 d w4 neg w2 d w2 0 d w4 neg w2 d w4 neg w2 neg d cl f} def
/m40 {mp x y m w4 w2 d w4 w4 neg d w2 neg w4 neg d w2 w4 neg d w4 neg w4 neg d w4 neg w2 d w4 neg w2 neg d w4 neg w4 d w2 w4 d w2 neg w4 d w4 w4 d w4 w2 neg d cl s} def
/m41 {mp x y m w4 w2 d w4 w4 neg d w2 neg w4 neg d w2 w4 neg d w4 neg w4 neg d w4 neg w2 d w4 neg w2 neg d w4 neg w4 d w2 w4 d w2 neg w4 d w4 w4 d w4 w2 neg d cl f} def
/m42 {mp x y w2 add m w8 neg w2 -3 4 div mul d w2 -3 4 div mul w8 neg d w2 3 4 div mul w8 neg d w8 w2 -3 4 div mul d w8 w2 3 4 div mul d w2 3 4 div mul w8 d w2 -3 4 div mul w8 d w8 neg w2 3 4 div mul d cl s} def
/m43 {mp x y w2 add m w8 neg w2 -3 4 div mul d w2 -3 4 div mul w8 neg d w2 3 4 div mul w8 neg d w8 w2 -3 4 div mul d w8 w2 3 4 div mul d w2 3 4 div mul w8 d w2 -3 4 div mul w8 d w8 neg w2 3 4 div mul d cl f} def
/m44 {mp x y m w6 neg w2 d w2 2 3 div mul 0 d w6 neg w2 neg d w2 w6 d 0 w2 -2 3 div mul d w2 neg w6 d w6 w2 neg d w2 -2 3 div mul 0 d w6 w2 d w2 neg w6 neg d 0 w2 2 3 div mul d w2 w6 neg d cl s} def
/m45 {mp x y m w6 neg w2 d w2 2 3 div mul 0 d w6 neg w2 neg d w2 w6 d 0 w2 -2 3 div mul d w2 neg w6 d w6 w2 neg d w2 -2 3 div mul 0 d w6 w2 d w2 neg w6 neg d 0 w2 2 3 div mul d w2 w6 neg d cl f} def
/m46 {mp x y w4 add m w4 neg w4 d w4 neg w4 neg d  w4 w4 neg d w4 neg w4 neg d w4 w4 neg d w4 w4 d w4 w4 neg d w4 w4 d w4 neg w4 d w4 w4 d w4 neg w4 d w4 neg w4 neg d cl s} def
/m47 {mp x y w4 add m w4 neg w4 d w4 neg w4 neg d w4 w4 neg d w4 neg w4 neg d  w4 w4 neg d w4 w4 d w4 w4 neg d w4 w4 d w4 neg w4 d w4 w4 d w4 neg w4 d w4 neg w4 neg d cl f} def
/m48 {mp x y w4 add m w4 neg w4 d w4 neg w4 neg d w4 w4 neg d  w4 neg w4 neg d w4 w4 neg d w4 w4 d w4 w4 neg d w4 w4 d w4 neg w4 d w4 w4 d w4 neg w4 d w4 neg w4 neg d  w4 w4 neg d w4 neg w4 neg d w4 neg w4 d w4 w4 d cl f} def
/m49 {mp x w2 sub w3 add y w2 sub w3 add m  0 w3 neg d w3 0 d 0 w3 d w3 0 d 0 w3 d w3 neg 0 d 0 w3 d w3 neg 0 d 0 w3 neg d w3 neg 0 d 0 w3 neg d w3 0 d 0 w3 d w3 0 d 0 w3 neg d w3 neg 0 d cl f } def
/m2 {mp x y w2 sub m 0 w d x w2 sub y m w 0 d s} def
/m5 {mp x w2 sub y w2 sub m w w d x w2 sub y w2 add m w w neg d s} def
%%IncludeResource: ProcSet (FontSetInit)
%%IncludeResource: font Times-Roman
%%IncludeResource: font Times-Italic
%%IncludeResource: font Times-Bold
%%IncludeResource: font Times-BoldItalic
%%IncludeResource: font Helvetica
%%IncludeResource: font Helvetica-Oblique
%%IncludeResource: font Helvetica-Bold
%%IncludeResource: font Helvetica-BoldOblique
%%IncludeResource: font Courier
%%IncludeResource: font Courier-Oblique
%%IncludeResource: font Courier-Bold
%%IncludeResource: font Courier-BoldOblique
%%IncludeResource: font Symbol
%%IncludeResource: font ZapfDingbats
/reEncode {exch findfont dup length dict begin {1 index /FID eq  {pop pop} {def} ifelse } forall /Encoding exch def currentdict end dup /FontName get exch definefont pop } def [/Times-Bold /Times-Italic /Times-BoldItalic /Helvetica /Helvetica-Oblique
 /Helvetica-Bold /Helvetica-BoldOblique /Courier /Courier-Oblique /Courier-Bold /Courier-BoldOblique /Times-Roman /AvantGarde-Book /AvantGarde-BookOblique /AvantGarde-Demi /AvantGarde-DemiOblique /Bookman-Demi /Bookman-DemiItalic /Bookman-Light
 /Bookman-LightItalic /Helvetica-Narrow /Helvetica-Narrow-Bold /Helvetica-Narrow-BoldOblique /Helvetica-Narrow-Oblique /NewCenturySchlbk-Roman /NewCenturySchlbk-Bold /NewCenturySchlbk-BoldItalic /NewCenturySchlbk-Italic /Palatino-Bold
 /Palatino-BoldItalic /Palatino-Italic /Palatino-Roman ] {ISOLatin1Encoding reEncode } forall
%%EndProlog
%%BeginSetup
%%EndSetup
newpath  gsave  .25 .25 scale  gsave  0 0 t black[  ] 0 sd 3 lw 1 1 1 c 2268 2158 0 0 bf black 1 1 1 c 1814 1726 227 216 bf black 1814 1726 227 216 bl 227 216 m 1814 X s 227 268 m -52 Y s 272 242 m -26 Y s 317 242 m -26 Y s 363 242 m -26 Y s 408 242
 m -26 Y s 454 268 m -52 Y s 499 242 m -26 Y s 544 242 m -26 Y s 590 242 m -26 Y s 635 242 m -26 Y s 680 268 m -52 Y s 726 242 m -26 Y s 771 242 m -26 Y s 816 242 m -26 Y s 862 242 m -26 Y s 907 268 m -52 Y s 952 242 m -26 Y s 998 242 m -26 Y s 1043
 242 m -26 Y s 1089 242 m -26 Y s 1134 268 m -52 Y s 1179 242 m -26 Y s 1225 242 m -26 Y s 1270 242 m -26 Y s 1315 242 m -26 Y s 1361 268 m -52 Y s 1406 242 m -26 Y s 1451 242 m -26 Y s 1497 242 m -26 Y s 1542 242 m -26 Y s 1587 268 m -52 Y s 1633
 242 m -26 Y s 1678 242 m -26 Y s 1723 242 m -26 Y s 1769 242 m -26 Y s 1814 268 m -52 Y s 1860 242 m -26 Y s 1905 242 m -26 Y s 1950 242 m -26 Y s 1996 242 m -26 Y s 2041 268 m -52 Y s
 gsave  2268 2158 0 0 C 155.448 146.304 t 0 r /Helvetica findfont 68.5801 sf 0 0 m (5.25) show NC gr 
 gsave  2268 2158 0 0 C 365.761 146.304 t 0 r /Helvetica findfont 68.5801 sf 0 0 m (5.255) show NC gr 
 gsave  2268 2158 0 0 C 608.077 146.304 t 0 r /Helvetica findfont 68.5801 sf 0 0 m (5.26) show NC gr 
 gsave  2268 2158 0 0 C 818.39 146.304 t 0 r /Helvetica findfont 68.5801 sf 0 0 m (5.265) show NC gr 
 gsave  2268 2158 0 0 C 1065.28 146.304 t 0 r /Helvetica findfont 68.5801 sf 0 0 m (5.27) show NC gr 
 gsave  2268 2158 0 0 C 1271.02 146.304 t 0 r /Helvetica findfont 68.5801 sf 0 0 m (5.275) show NC gr 
 gsave  2268 2158 0 0 C 1517.91 146.304 t 0 r /Helvetica findfont 68.5801 sf 0 0 m (5.28) show NC gr 
 gsave  2268 2158 0 0 C 1723.65 146.304 t 0 r /Helvetica findfont 68.5801 sf 0 0 m (5.285) show NC gr 
 gsave  2268 2158 0 0 C 1970.54 146.304 t 0 r /Helvetica findfont 68.5801 sf 0 0 m (5.29) show NC gr 
 gsave  2268 2158 0 0 C 1714.5 77.7242 t 0 r /Helvetica findfont 68.5801 sf 0 0 m ( \(GeV/c^2\)) show NC gr 
 gsave  2268 2158 0 0 C 1664.21 59.4361 t 0 r /Helvetica findfont 45.7201 sf 0 0 m (bc) show NC gr 
 gsave  2268 2158 0 0 C 1609.35 77.7242 t 0 r /Helvetica findfont 68.5801 sf 0 0 m (m) show NC gr  227 216 m 1726 Y s 281 216 m -54 X s 254 275 m -27 X s 254 334 m -27 X s 254 393 m -27 X s 254 453 m -27 X s 281 512 m -54 X s 254 571 m -27 X s 254
 630 m -27 X s 254 689 m -27 X s 254 748 m -27 X s 281 808 m -54 X s 254 867 m -27 X s 254 926 m -27 X s 254 985 m -27 X s 254 1044 m -27 X s 281 1104 m -54 X s 254 1163 m -27 X s 254 1222 m -27 X s 254 1281 m -27 X s 254 1340 m -27 X s 281 1400 m
 -54 X s 254 1459 m -27 X s 254 1518 m -27 X s 254 1577 m -27 X s 254 1636 m -27 X s 281 1696 m -54 X s 281 1696 m -54 X s 254 1755 m -27 X s 254 1814 m -27 X s 254 1873 m -27 X s 254 1932 m -27 X s
 gsave  2268 2158 0 0 C 178.308 192.024 t 0 r /Helvetica findfont 68.5801 sf 0 0 m (0) show NC gr 
 gsave  2268 2158 0 0 C 100.584 484.633 t 0 r /Helvetica findfont 68.5801 sf 0 0 m (100) show NC gr 
 gsave  2268 2158 0 0 C 100.584 781.814 t 0 r /Helvetica findfont 68.5801 sf 0 0 m (200) show NC gr 
 gsave  2268 2158 0 0 C 100.584 1078.99 t 0 r /Helvetica findfont 68.5801 sf 0 0 m (300) show NC gr 
 gsave  2268 2158 0 0 C 100.584 1376.17 t 0 r /Helvetica findfont 68.5801 sf 0 0 m (400) show NC gr 
 gsave  2268 2158 0 0 C 100.584 1668.78 t 0 r /Helvetica findfont 68.5801 sf 0 0 m (500) show NC gr 
 gsave  2268 2158 0 0 C 50.2921 1385.32 t 90 r /Helvetica findfont 68.5801 sf 0 0 m (Events / \( 0.0004 \)) show NC gr  236 222 m -9 X s 227 216 m 15 Y s 236 222 m 9 X s 245 216 m 15 Y s 236 222 m 8 Y s 227 230 m 18 X s 236 222 m -4 Y s 227 218 m 18
 X s 254 248 m -9 X s 245 239 m 18 Y s 254 248 m 9 X s 263 239 m 18 Y s 254 248 m 13 Y s 245 261 m 18 X s 254 248 m -9 Y s 245 239 m 18 X s 272 245 m -9 X s 263 236 m 19 Y s 272 245 m 9 X s 281 236 m 19 Y s 272 245 m 13 Y s 263 258 m 18 X s 272 245 m
 -9 Y s 263 236 m 18 X s 290 219 m -9 X s 281 216 m 12 Y s 290 219 m 9 X s 299 216 m 12 Y s 290 219 m 7 Y s 281 226 m 18 X s 290 219 m -3 Y s 281 216 m 18 X s 308 248 m -9 X s 299 239 m 18 Y s 308 248 m 9 X s 317 239 m 18 Y s 308 248 m 13 Y s 299 261
 m 19 X s 308 248 m -9 Y s 299 239 m 19 X s 327 237 m -10 X s 317 227 m 19 Y s 327 237 m 9 X s 336 227 m 19 Y s 327 237 m 11 Y s 317 248 m 19 X s 327 237 m -8 Y s 317 229 m 19 X s 345 225 m -9 X s 336 216 m 18 Y s 345 225 m 9 X s 354 216 m 18 Y s 345
 225 m 8 Y s 336 233 m 18 X s 345 225 m -5 Y s 336 220 m 18 X s 363 237 m -9 X s 354 227 m 19 Y s 363 237 m 9 X s 372 227 m 19 Y s 363 237 m 11 Y s 354 248 m 18 X s 363 237 m -8 Y s 354 229 m 18 X s 381 234 m -9 X s 372 224 m 19 Y s 381 234 m 9 X s
 390 224 m 19 Y s 381 234 m 10 Y s 372 244 m 18 X s 381 234 m -7 Y s 372 227 m 18 X s 399 234 m -9 X s 390 224 m 19 Y s 399 234 m 9 X s 408 224 m 19 Y s 399 234 m 10 Y s 390 244 m 18 X s 399 234 m -7 Y s 390 227 m 18 X s 417 225 m -9 X s 408 216 m 18
 Y s 417 225 m 9 X s 426 216 m 18 Y s 417 225 m 8 Y s 408 233 m 18 X s 417 225 m -5 Y s 408 220 m 18 X s 435 231 m -9 X s 426 221 m 19 Y s 435 231 m 9 X s 444 221 m 19 Y s 435 231 m 10 Y s 426 241 m 19 X s 435 231 m -7 Y s 426 224 m 19 X s 454 237 m
 -10 X s 444 227 m 19 Y s 454 237 m 9 X s 463 227 m 19 Y s 454 237 m 11 Y s 444 248 m 19 X s 454 237 m -8 Y s 444 229 m 19 X s 472 228 m -9 X s 463 218 m 19 Y s 472 228 m 9 X s 481 218 m 19 Y s 472 228 m 9 Y s 463 237 m 18 X s 472 228 m -6 Y s 463
 222 m 18 X s 490 225 m -9 X s 481 216 m 18 Y s 490 225 m 9 X s 499 216 m 18 Y s 490 225 m 8 Y s 481 233 m 18 X s 490 225 m -5 Y s 481 220 m 18 X s 508 237 m -9 X s 499 227 m 19 Y s 508 237 m 9 X s 517 227 m 19 Y s 508 237 m 11 Y s 499 248 m 18 X s
 508 237 m -8 Y s 499 229 m 18 X s 526 239 m -9 X s 517 230 m 19 Y s 526 239 m 9 X s 535 230 m 19 Y s 526 239 m 12 Y s 517 251 m 18 X s 526 239 m -8 Y s 517 231 m 18 X s 544 234 m -9 X s 535 224 m 19 Y s 544 234 m 9 X s 553 224 m 19 Y s 544 234 m 10
 Y s 535 244 m 18 X s 544 234 m -7 Y s 535 227 m 18 X s 562 228 m -9 X s 553 218 m 19 Y s 562 228 m 9 X s 571 218 m 19 Y s 562 228 m 9 Y s 553 237 m 19 X s 562 228 m -6 Y s 553 222 m 19 X s 581 251 m -10 X s 571 242 m 18 Y s 581 251 m 9 X s 590 242 m
 18 Y s 581 251 m 14 Y s 571 265 m 19 X s 581 251 m -10 Y s 571 241 m 19 X s 599 225 m -9 X s 590 216 m 18 Y s 599 225 m 9 X s 608 216 m 18 Y s 599 225 m 8 Y s 590 233 m 18 X s 599 225 m -5 Y s 590 220 m 18 X s 617 231 m -9 X s 608 221 m 19 Y s 617
 231 m 9 X s 626 221 m 19 Y s 617 231 m 10 Y s 608 241 m 18 X s 617 231 m -7 Y s 608 224 m 18 X s 635 242 m -9 X s 626 233 m 19 Y s 635 242 m 9 X s 644 233 m 19 Y s 635 242 m 13 Y s 626 255 m 18 X s 635 242 m -8 Y s 626 234 m 18 X s 653 237 m -9 X s
 644 227 m 19 Y s 653 237 m 9 X s 662 227 m 19 Y s 653 237 m 11 Y s 644 248 m 18 X s 653 237 m -8 Y s 644 229 m 18 X s 671 245 m -9 X s 662 236 m 19 Y s 671 245 m 9 X s 680 236 m 19 Y s 671 245 m 13 Y s 662 258 m 18 X s 671 245 m -9 Y s 662 236 m 18
 X s 689 239 m -9 X s 680 230 m 19 Y s 689 239 m 9 X s 698 230 m 19 Y s 689 239 m 12 Y s 680 251 m 19 X s 689 239 m -8 Y s 680 231 m 19 X s 708 242 m -10 X s 698 233 m 19 Y s 708 242 m 9 X s 717 233 m 19 Y s 708 242 m 13 Y s 698 255 m 19 X s 708 242
 m -8 Y s 698 234 m 19 X s 726 234 m -9 X s 717 224 m 19 Y s 726 234 m 9 X s 735 224 m 19 Y s 726 234 m 10 Y s 717 244 m 18 X s 726 234 m -7 Y s 717 227 m 18 X s 744 237 m -9 X s 735 227 m 19 Y s 744 237 m 9 X s 753 227 m 19 Y s 744 237 m 11 Y s 735
 248 m 18 X s 744 237 m -8 Y s 735 229 m 18 X s 762 231 m -9 X s 753 221 m 19 Y s 762 231 m 9 X s 771 221 m 19 Y s 762 231 m 10 Y s 753 241 m 18 X s 762 231 m -7 Y s 753 224 m 18 X s 780 234 m -9 X s 771 224 m 19 Y s 780 234 m 9 X s 789 224 m 19 Y s
 780 234 m 10 Y s 771 244 m 18 X s 780 234 m -7 Y s 771 227 m 18 X s 798 239 m -9 X s 789 230 m 19 Y s 798 239 m 9 X s 807 230 m 19 Y s 798 239 m 12 Y s 789 251 m 18 X s 798 239 m -8 Y s 789 231 m 18 X s 816 231 m -9 X s 807 221 m 19 Y s 816 231 m 9
 X s 825 221 m 19 Y s 816 231 m 10 Y s 807 241 m 19 X s 816 231 m -7 Y s 807 224 m 19 X s 835 242 m -10 X s 825 233 m 19 Y s 835 242 m 9 X s 844 233 m 19 Y s 835 242 m 13 Y s 825 255 m 19 X s 835 242 m -8 Y s 825 234 m 19 X s 853 234 m -9 X s 844 224
 m 19 Y s 853 234 m 9 X s 862 224 m 19 Y s 853 234 m 10 Y s 844 244 m 18 X s 853 234 m -7 Y s 844 227 m 18 X s 871 234 m -9 X s 862 224 m 19 Y s 871 234 m 9 X s 880 224 m 19 Y s 871 234 m 10 Y s 862 244 m 18 X s 871 234 m -7 Y s 862 227 m 18 X s 889
 254 m -9 X s 880 245 m 18 Y s 889 254 m 9 X s 898 245 m 18 Y s 889 254 m 14 Y s 880 268 m 18 X s 889 254 m -10 Y s 880 244 m 18 X s 907 242 m -9 X s 898 233 m 19 Y s 907 242 m 9 X s 916 233 m 19 Y s 907 242 m 13 Y s 898 255 m 18 X s 907 242 m -8 Y s
 898 234 m 18 X s 925 242 m -9 X s 916 233 m 19 Y s 925 242 m 9 X s 934 233 m 19 Y s 925 242 m 13 Y s 916 255 m 18 X s 925 242 m -8 Y s 916 234 m 18 X s 943 231 m -9 X s 934 221 m 19 Y s 943 231 m 9 X s 952 221 m 19 Y s 943 231 m 10 Y s 934 241 m 19
 X s 943 231 m -7 Y s 934 224 m 19 X s 962 237 m -10 X s 952 227 m 19 Y s 962 237 m 9 X s 971 227 m 19 Y s 962 237 m 11 Y s 952 248 m 19 X s 962 237 m -8 Y s 952 229 m 19 X s 980 228 m -9 X s 971 218 m 19 Y s 980 228 m 9 X s 989 218 m 19 Y s 980 228
 m 9 Y s 971 237 m 18 X s 980 228 m -6 Y s 971 222 m 18 X s 998 245 m -9 X s 989 236 m 19 Y s 998 245 m 9 X s 1007 236 m 19 Y s 998 245 m 13 Y s 989 258 m 18 X s 998 245 m -9 Y s 989 236 m 18 X s 1016 239 m -9 X s 1007 230 m 19 Y s 1016 239 m 9 X s
 1025 230 m 19 Y s 1016 239 m 12 Y s 1007 251 m 18 X s 1016 239 m -8 Y s 1007 231 m 18 X s 1034 237 m -9 X s 1025 227 m 19 Y s 1034 237 m 9 X s 1043 227 m 19 Y s 1034 237 m 11 Y s 1025 248 m 18 X s 1034 237 m -8 Y s 1025 229 m 18 X s 1052 242 m -9 X
 s 1043 233 m 19 Y s 1052 242 m 9 X s 1061 233 m 19 Y s 1052 242 m 13 Y s 1043 255 m 18 X s 1052 242 m -8 Y s 1043 234 m 18 X s 1070 231 m -9 X s 1061 221 m 19 Y s 1070 231 m 9 X s 1079 221 m 19 Y s 1070 231 m 10 Y s 1061 241 m 19 X s 1070 231 m -7 Y
 s 1061 224 m 19 X s 1089 248 m -10 X s 1079 239 m 18 Y s 1089 248 m 9 X s 1098 239 m 18 Y s 1089 248 m 13 Y s 1079 261 m 19 X s 1089 248 m -9 Y s 1079 239 m 19 X s 1107 239 m -9 X s 1098 230 m 19 Y s 1107 239 m 9 X s 1116 230 m 19 Y s 1107 239 m 12
 Y s 1098 251 m 18 X s 1107 239 m -8 Y s 1098 231 m 18 X s 1125 242 m -9 X s 1116 233 m 19 Y s 1125 242 m 9 X s 1134 233 m 19 Y s 1125 242 m 13 Y s 1116 255 m 18 X s 1125 242 m -8 Y s 1116 234 m 18 X s 1143 239 m -9 X s 1134 230 m 19 Y s 1143 239 m 9
 X s 1152 230 m 19 Y s 1143 239 m 12 Y s 1134 251 m 18 X s 1143 239 m -8 Y s 1134 231 m 18 X s 1161 242 m -9 X s 1152 233 m 19 Y s 1161 242 m 9 X s 1170 233 m 19 Y s 1161 242 m 13 Y s 1152 255 m 18 X s 1161 242 m -8 Y s 1152 234 m 18 X s 1179 242 m
 -9 X s 1170 233 m 19 Y s 1179 242 m 9 X s 1188 233 m 19 Y s 1179 242 m 13 Y s 1170 255 m 18 X s 1179 242 m -8 Y s 1170 234 m 18 X s 1197 248 m -9 X s 1188 239 m 18 Y s 1197 248 m 9 X s 1206 239 m 18 Y s 1197 248 m 13 Y s 1188 261 m 18 X s 1197 248 m
 -9 Y s 1188 239 m 18 X s 1215 254 m -9 X s 1206 245 m 18 Y s 1215 254 m 10 X s 1225 245 m 18 Y s 1215 254 m 14 Y s 1206 268 m 19 X s 1215 254 m -10 Y s 1206 244 m 19 X s 1234 260 m -9 X s 1225 251 m 18 Y s 1234 260 m 9 X s 1243 251 m 18 Y s 1234 260
 m 15 Y s 1224 275 m 19 X s 1234 260 m -11 Y s 1224 249 m 19 X s 1252 281 m -9 X s 1243 272 m 18 Y s 1252 281 m 9 X s 1261 272 m 18 Y s 1252 281 m 17 Y s 1243 298 m 18 X s 1252 281 m -14 Y s 1243 267 m 18 X s 1270 284 m -9 X s 1261 275 m 18 Y s 1270
 284 m 9 X s 1279 275 m 18 Y s 1270 284 m 17 Y s 1261 301 m 18 X s 1270 284 m -14 Y s 1261 270 m 18 X s 1288 311 m -9 X s 1279 301 m 19 Y s 1288 311 m 9 X s 1297 301 m 19 Y s 1288 311 m 19 Y s 1279 330 m 18 X s 1288 311 m -17 Y s 1279 294 m 18 X s
 1306 305 m -9 X s 1297 295 m 19 Y s 1306 305 m 9 X s 1315 295 m 19 Y s 1306 305 m 19 Y s 1297 324 m 18 X s 1306 305 m -17 Y s 1297 288 m 18 X s 1324 361 m -9 X s 1315 352 m 18 Y s 1324 361 m 9 X s 1333 352 m 18 Y s 1324 361 m 24 Y s 1315 385 m 18 X
 s 1324 361 m -21 Y s 1315 340 m 18 X s 1342 358 m -9 X s 1333 349 m 18 Y s 1342 358 m 10 X s 1352 349 m 18 Y s 1342 358 m 23 Y s 1333 381 m 19 X s 1342 358 m -21 Y s 1333 337 m 19 X s 1361 405 m -9 X s 1352 396 m 18 Y s 1361 405 m 9 X s 1370 396 m
 18 Y s 1361 405 m 27 Y s 1351 432 m 19 X s 1361 405 m -23 Y s 1351 382 m 19 X s 1379 453 m -9 X s 1370 443 m 19 Y s 1379 453 m 9 X s 1388 443 m 19 Y s 1379 453 m 29 Y s 1370 482 m 18 X s 1379 453 m -27 Y s 1370 426 m 18 X s 1397 559 m -9 X s 1388
 550 m 18 Y s 1397 559 m 9 X s 1406 550 m 18 Y s 1397 559 m 33 Y s 1388 592 m 18 X s 1397 559 m -30 Y s 1388 529 m 18 X s 1415 669 m -9 X s 1406 659 m 19 Y s 1415 669 m 9 X s 1424 659 m 19 Y s 1415 669 m 38 Y s 1406 707 m 18 X s 1415 669 m -36 Y s
 1406 633 m 18 X s 1433 692 m -9 X s 1424 683 m 18 Y s 1433 692 m 9 X s 1442 683 m 18 Y s 1433 692 m 39 Y s 1424 731 m 18 X s 1433 692 m -36 Y s 1424 656 m 18 X s 1451 846 m -9 X s 1442 837 m 18 Y s 1451 846 m 9 X s 1460 837 m 18 Y s 1451 846 m 45 Y
 s 1442 891 m 18 X s 1451 846 m -42 Y s 1442 804 m 18 X s 1469 938 m -9 X s 1460 929 m 18 Y s 1469 938 m 10 X s 1479 929 m 18 Y s 1469 938 m 48 Y s 1460 986 m 19 X s 1469 938 m -45 Y s 1460 893 m 19 X s 1488 1104 m -9 X s 1479 1094 m 19 Y s 1488 1104
 m 9 X s 1497 1094 m 19 Y s 1488 1104 m 52 Y s 1478 1156 m 19 X s 1488 1104 m -50 Y s 1478 1054 m 19 X s 1506 1243 m -9 X s 1497 1234 m 18 Y s 1506 1243 m 9 X s 1515 1234 m 18 Y s 1506 1243 m 56 Y s 1497 1299 m 18 X s 1506 1243 m -54 Y s 1497 1189 m
 18 X s 1524 1290 m -9 X s 1515 1281 m 18 Y s 1524 1290 m 9 X s 1533 1281 m 18 Y s 1524 1290 m 58 Y s 1515 1348 m 18 X s 1524 1290 m -55 Y s 1515 1235 m 18 X s 1542 1624 m -9 X s 1533 1615 m 19 Y s 1542 1624 m 9 X s 1551 1615 m 19 Y s 1542 1624 m 67
 Y s 1533 1691 m 18 X s 1542 1624 m -63 Y s 1533 1561 m 18 X s 1560 1642 m -9 X s 1551 1633 m 18 Y s 1560 1642 m 9 X s 1569 1633 m 18 Y s 1560 1642 m 67 Y s 1551 1709 m 18 X s 1560 1642 m -63 Y s 1551 1579 m 18 X s 1578 1624 m -9 X s 1569 1615 m 19 Y
 s 1578 1624 m 9 X s 1587 1615 m 19 Y s 1578 1624 m 67 Y s 1569 1691 m 18 X s 1578 1624 m -63 Y s 1569 1561 m 18 X s 1596 1675 m -9 X s 1587 1666 m 18 Y s 1596 1675 m 10 X s 1606 1666 m 18 Y s 1596 1675 m 67 Y s 1587 1742 m 19 X s 1596 1675 m -64 Y s
 1587 1611 m 19 X s 1615 1619 m -9 X s 1606 1609 m 19 Y s 1615 1619 m 9 X s 1624 1609 m 19 Y s 1615 1619 m 66 Y s 1605 1685 m 19 X s 1615 1619 m -63 Y s 1605 1556 m 19 X s 1633 1790 m -9 X s 1624 1781 m 18 Y s 1633 1790 m 9 X s 1642 1781 m 18 Y s
 1633 1790 m 70 Y s 1624 1860 m 18 X s 1633 1790 m -67 Y s 1624 1723 m 18 X s 1651 1622 m -9 X s 1642 1612 m 19 Y s 1651 1622 m 9 X s 1660 1612 m 19 Y s 1651 1622 m 66 Y s 1642 1688 m 18 X s 1651 1622 m -64 Y s 1642 1558 m 18 X s 1669 1539 m -9 X s
 1660 1530 m 18 Y s 1669 1539 m 9 X s 1678 1530 m 18 Y s 1669 1539 m 64 Y s 1660 1603 m 18 X s 1669 1539 m -61 Y s 1660 1478 m 18 X s 1687 1426 m -9 X s 1678 1417 m 18 Y s 1687 1426 m 9 X s 1696 1417 m 18 Y s 1687 1426 m 62 Y s 1678 1488 m 18 X s
 1687 1426 m -58 Y s 1678 1368 m 18 X s 1705 1269 m -9 X s 1696 1260 m 19 Y s 1705 1269 m 9 X s 1714 1260 m 19 Y s 1705 1269 m 58 Y s 1696 1327 m 18 X s 1705 1269 m -54 Y s 1696 1215 m 18 X s 1723 1189 m -9 X s 1714 1180 m 19 Y s 1723 1189 m 10 X s
 1733 1180 m 19 Y s 1723 1189 m 56 Y s 1714 1245 m 19 X s 1723 1189 m -52 Y s 1714 1137 m 19 X s 1742 1065 m -9 X s 1733 1056 m 18 Y s 1742 1065 m 9 X s 1751 1056 m 18 Y s 1742 1065 m 52 Y s 1732 1117 m 19 X s 1742 1065 m -49 Y s 1732 1016 m 19 X s
 1760 822 m -9 X s 1751 813 m 19 Y s 1760 822 m 9 X s 1769 813 m 19 Y s 1760 822 m 44 Y s 1751 866 m 18 X s 1760 822 m -40 Y s 1751 782 m 18 X s 1778 784 m -9 X s 1769 775 m 18 Y s 1778 784 m 9 X s 1787 775 m 18 Y s 1778 784 m 43 Y s 1769 827 m 18 X
 s 1778 784 m -40 Y s 1769 744 m 18 X s 1796 651 m -9 X s 1787 642 m 18 Y s 1796 651 m 9 X s 1805 642 m 18 Y s 1796 651 m 37 Y s 1787 688 m 18 X s 1796 651 m -35 Y s 1787 616 m 18 X s 1814 556 m -9 X s 1805 547 m 18 Y s 1814 556 m 9 X s 1823 547 m 18
 Y s 1814 556 m 33 Y s 1805 589 m 18 X s 1814 556 m -30 Y s 1805 526 m 18 X s 1832 467 m -9 X s 1823 458 m 18 Y s 1832 467 m 9 X s 1841 458 m 18 Y s 1832 467 m 31 Y s 1823 498 m 18 X s 1832 467 m -27 Y s 1823 440 m 18 X s 1850 399 m -9 X s 1841 390 m
 18 Y s 1850 399 m 10 X s 1860 390 m 18 Y s 1850 399 m 27 Y s 1841 426 m 19 X s 1850 399 m -23 Y s 1841 376 m 19 X s 1869 352 m -9 X s 1860 343 m 18 Y s 1869 352 m 9 X s 1878 343 m 18 Y s 1869 352 m 23 Y s 1859 375 m 19 X s 1869 352 m -20 Y s 1859
 332 m 19 X s 1887 334 m -9 X s 1878 325 m 18 Y s 1887 334 m 9 X s 1896 325 m 18 Y s 1887 334 m 22 Y s 1878 356 m 18 X s 1887 334 m -18 Y s 1878 316 m 18 X s 1905 290 m -9 X s 1896 281 m 18 Y s 1905 290 m 9 X s 1914 281 m 18 Y s 1905 290 m 18 Y s
 1896 308 m 18 X s 1905 290 m -15 Y s 1896 275 m 18 X s 1923 266 m -9 X s 1914 257 m 18 Y s 1923 266 m 9 X s 1932 257 m 18 Y s 1923 266 m 16 Y s 1914 282 m 18 X s 1923 266 m -12 Y s 1914 254 m 18 X s 1941 260 m -9 X s 1932 251 m 18 Y s 1941 260 m 9 X
 s 1950 251 m 18 Y s 1941 260 m 15 Y s 1932 275 m 18 X s 1941 260 m -11 Y s 1932 249 m 18 X s 1959 231 m -9 X s 1950 221 m 19 Y s 1959 231 m 9 X s 1968 221 m 19 Y s 1959 231 m 10 Y s 1950 241 m 18 X s 1959 231 m -7 Y s 1950 224 m 18 X s 1977 234 m -9
 X s 1968 224 m 19 Y s 1977 234 m 10 X s 1987 224 m 19 Y s 1977 234 m 10 Y s 1968 244 m 19 X s 1977 234 m -7 Y s 1968 227 m 19 X s 1996 228 m -9 X s 1987 218 m 19 Y s 1996 228 m 9 X s 2005 218 m 19 Y s 1996 228 m 9 Y s 1986 237 m 19 X s 1996 228 m -6
 Y s 1986 222 m 19 X s 2014 234 m -9 X s 2005 224 m 19 Y s 2014 234 m 9 X s 2023 224 m 19 Y s 2014 234 m 10 Y s 2005 244 m 18 X s 2014 234 m -7 Y s 2005 227 m 18 X s 2032 225 m -9 X s 2023 216 m 18 Y s 2032 225 m 9 X s 2041 216 m 18 Y s 2032 225 m 8
 Y s 2023 233 m 18 X s 2032 225 m -5 Y s 2023 220 m 18 X s 1 1 1 c black /w 37 def /w2 {w 2 div} def /w3 {w 3 div} def 236 222 254 248 272 245 290 219 308 248 327 237 345 225 363 237 381 234 399 234 417 225 435 231 454 237 472 228 490 225 508 237 526
 239 544 234 562 228 581 251 599 225 617 231 635 242 653 237 671 245 689 239 708 242 726 234 744 237 762 231 780 234 798 239 816 231 835 242 853 234 871 234 889 254 907 242 925 242 943 231 962 237 980 228 998 245 1016 239 1034 237 1052 242 1070 231
 1089 248 1107 239 1125 242 1143 239 1161 242 1179 242 1197 248 1215 254 1234 260 1252 281 1270 284 1288 311 1306 305 1324 361 1342 358 1361 405 1379 453 1397 559 1415 669 1433 692 1451 846 1469 938 1488 1104 1506 1243 1524 1290 1542 1624 1560 1642
 1578 1624 1596 1675 1615 1619 1633 1790 1651 1622 1669 1539 1687 1426 1705 1269 1723 1189 1742 1065 1760 822 1778 784 1796 651 1814 556 1832 467 1850 399 1869 352 1887 334 1905 290 1923 266 1941 260 1959 231 1977 234 1996 228 2014 234 2032 225 100 {
 m20} R 0 0 1 c 9 lw 1 1 1 c black 0 0 1 c 227 232 m cl s 227 232 m 109 X 18 1 d 127 X 18 1 d 127 X 18 1 d 145 X 18 1 d 127 X 18 1 d 55 X 18 1 d 36 X 18 1 d 19 X 18 1 d 18 1 d 18 1 d 18 2 d 18 3 d 18 3 d 19 4 d 18 7 d 18 9 d 18 13 d 18 18 d 18 24 d
 18 33 d 19 42 d 9 26 d 9 29 d 9 32 d 9 35 d 9 39 d 9 43 d 9 46 d 9 50 d 9 53 d 9 57 d 18 120 d 19 129 d 18 131 d 18 128 d 9 60 d 9 58 d 9 53 d 9 48 d 9 42 d 9 36 d 9 29 d 9 21 d 9 14 d 10 5 d 9 -3 d 9 -11 d 9 -19 d 9 -27 d 9 -34 d 9 -41 d 9 -46 d 9
 -52 d 9 -57 d 9 -59 d 18 -128 d 19 -131 d 18 -130 d 18 -122 d 9 -58 d 9 -54 d 9 -51 d 9 -48 d 9 -44 d 9 -40 d 9 -37 d 9 -33 d 9 -30 d 10 -27 d 18 -45 d 18 -34 d 18 -27 d 18 -19 d 18 -15 d 18 -11 d 19 -8 d 18 -6 d 18 -6 d 18 -8 d s[ 12 12] 0 sd 1 1 1
 c black 0 0 1 c 227 232 m cl s 227 232 m 109 X 18 1 d 127 X 18 1 d 127 X 18 1 d 145 X 18 1 d 127 X 18 1 d 55 X 18 1 d 36 X 18 1 d 19 X 18 1 d 18 1 d 18 1 d 18 1 d 18 1 d 18 1 d 19 2 d 18 1 d 18 2 d 18 2 d 18 3 d 18 2 d 18 3 d 19 3 d 18 3 d 18 3 d 18
 3 d 18 3 d 18 3 d 18 3 d 19 2 d 18 3 d 18 2 d 18 2 d 18 1 d 18 1 d 18 1 d 19 X 18 -1 d 18 X 18 -2 d 18 -1 d 18 -3 d 18 -2 d 19 -3 d 18 -3 d 18 -3 d 18 -4 d 18 -3 d 18 -4 d 18 -3 d 19 -4 d 18 -3 d 18 -3 d 18 -4 d 18 -3 d 18 -3 d 18 -3 d 19 -3 d 18 -3
 d 9 -2 d 9 -2 d 9 -2 d 4 -2 d 3 -1 d 2 -2 d s black[  ] 0 sd 3 lw 227 216 m 1814 X s 227 268 m -52 Y s 272 242 m -26 Y s 317 242 m -26 Y s 363 242 m -26 Y s 408 242 m -26 Y s 454 268 m -52 Y s 499 242 m -26 Y s 544 242 m -26 Y s 590 242 m -26 Y s
 635 242 m -26 Y s 680 268 m -52 Y s 726 242 m -26 Y s 771 242 m -26 Y s 816 242 m -26 Y s 862 242 m -26 Y s 907 268 m -52 Y s 952 242 m -26 Y s 998 242 m -26 Y s 1043 242 m -26 Y s 1089 242 m -26 Y s 1134 268 m -52 Y s 1179 242 m -26 Y s 1225 242 m
 -26 Y s 1270 242 m -26 Y s 1315 242 m -26 Y s 1361 268 m -52 Y s 1406 242 m -26 Y s 1451 242 m -26 Y s 1497 242 m -26 Y s 1542 242 m -26 Y s 1587 268 m -52 Y s 1633 242 m -26 Y s 1678 242 m -26 Y s 1723 242 m -26 Y s 1769 242 m -26 Y s 1814 268 m
 -52 Y s 1860 242 m -26 Y s 1905 242 m -26 Y s 1950 242 m -26 Y s 1996 242 m -26 Y s 2041 268 m -52 Y s 227 216 m 1726 Y s 281 216 m -54 X s 254 275 m -27 X s 254 334 m -27 X s 254 393 m -27 X s 254 453 m -27 X s 281 512 m -54 X s 254 571 m -27 X s
 254 630 m -27 X s 254 689 m -27 X s 254 748 m -27 X s 281 808 m -54 X s 254 867 m -27 X s 254 926 m -27 X s 254 985 m -27 X s 254 1044 m -27 X s 281 1104 m -54 X s 254 1163 m -27 X s 254 1222 m -27 X s 254 1281 m -27 X s 254 1340 m -27 X s 281 1400
 m -54 X s 254 1459 m -27 X s 254 1518 m -27 X s 254 1577 m -27 X s 254 1636 m -27 X s 281 1696 m -54 X s 281 1696 m -54 X s 254 1755 m -27 X s 254 1814 m -27 X s 254 1873 m -27 X s 254 1932 m -27 X s
 gr  gr showpage
end
%%EOF
