%!PS-Adobe-2.0 EPSF-2.0
%%BoundingBox:  0 0 567 383
%%Title: delta_E.eps: c1_n6
%%Creator: ROOT Version 6.13/01
%%CreationDate: Thu Dec 28 12:05:40 2017
%%DocumentNeededResources: ProcSet (FontSetInit)
%%EndComments
%%BeginProlog
80 dict begin
/s {stroke} def /l {lineto} def /m {moveto} def /t {translate} def
/r {rotate} def /rl {roll}  def /R {repeat} def
/d {rlineto} def /rm {rmoveto} def /gr {grestore} def /f {eofill} def
/c {setrgbcolor} def /black {0 setgray} def /sd {setdash} def
/cl {closepath} def /sf {scalefont setfont} def /lw {setlinewidth} def
/box {m dup 0 exch d exch 0 d 0 exch neg d cl} def
/NC{systemdict begin initclip end}def/C{NC box clip newpath}def
/bl {box s} def /bf {gsave box gsave f grestore 1 lw [] 0 sd s grestore} def /Y { 0 exch d} def /X { 0 d} def 
/K {{pop pop 0 moveto} exch kshow} bind def
/ita {/ang 15 def gsave [1 0 ang dup sin exch cos div 1 0 0] concat} def 
/mp {newpath /y exch def /x exch def} def
/side {[w .77 mul w .23 mul] .385 w mul sd w 0 l currentpoint t -144 r} def
/mr {mp x y w2 0 360 arc} def /m24 {mr s} def /m20 {mr f} def
/mb {mp x y w2 add m w2 neg 0 d 0 w neg d w 0 d 0 w d cl} def
/mt {mp x y w2 add m w2 neg w neg d w 0 d cl} def
/w4 {w 4 div} def
/w6 {w 6 div} def
/w8 {w 8 div} def
/m21 {mb f} def /m25 {mb s} def /m22 {mt f} def /m26{mt s} def
/m23 {mp x y w2 sub m w2 w d w neg 0 d cl f} def
/m27 {mp x y w2 add m w3 neg w2 neg d w3 w2 neg d w3 w2 d cl s} def
/m28 {mp x w2 sub y w2 sub w3 add m w3 0 d  0 w3 neg d w3 0 d 0 w3 d w3 0 d  0 w3 d w3 neg 0 d 0 w3 d w3 neg 0 d 0 w3 neg d w3 neg 0 d cl s } def
/m29 {mp gsave x w2 sub y w2 add w3 sub m currentpoint t 4 {side} repeat cl fill gr} def
/m30 {mp gsave x w2 sub y w2 add w3 sub m currentpoint t 4 {side} repeat cl s gr} def
/m31 {mp x y w2 sub m 0 w d x w2 sub y m w 0 d x w2 sub y w2 add m w w neg d x w2 sub y w2 sub m w w d s} def
/m32 {mp x y w2 sub m w2 w d w neg 0 d cl s} def
/m33 {mp x y w2 add m w3 neg w2 neg d w3 w2 neg d w3 w2 d cl f} def
/m34 {mp x w2 sub y w2 sub w3 add m w3 0 d  0 w3 neg d w3 0 d 0 w3 d w3 0 d  0 w3 d w3 neg 0 d 0 w3 d w3 neg 0 d 0 w3 neg d w3 neg 0 d cl f } def
/m35 {mp x y w2 add m w2 neg w2 neg d w2 w2 neg d w2 w2 d w2 neg w2 d x y w2 sub m 0 w d x w2 sub y m w 0 d s} def
/m36 {mb x w2 sub y w2 add m w w neg d x w2 sub y w2 sub m w w d s} def
/m37 {mp x y m w4 neg w2 d w4 neg w2 neg d w2 0 d  w4 neg w2 neg d w2 0 d w4 neg w2 d w2 0 d w4 neg w2 d w4 neg w2 neg d cl s} def
/m38 {mp x w4 sub y w2 add m w4 neg w4 neg d 0 w2 neg d w4 w4 neg d w2 0 d w4 w4 d 0 w2 d w4 neg w4 d w2 neg 0 d x y w2 sub m 0 w d x w2 sub y m w 0 d cl s} def
/m39 {mp x y m w4 neg w2 d w4 neg w2 neg d w2 0 d  w4 neg w2 neg d w2 0 d w4 neg w2 d w2 0 d w4 neg w2 d w4 neg w2 neg d cl f} def
/m40 {mp x y m w4 w2 d w4 w4 neg d w2 neg w4 neg d w2 w4 neg d w4 neg w4 neg d w4 neg w2 d w4 neg w2 neg d w4 neg w4 d w2 w4 d w2 neg w4 d w4 w4 d w4 w2 neg d cl s} def
/m41 {mp x y m w4 w2 d w4 w4 neg d w2 neg w4 neg d w2 w4 neg d w4 neg w4 neg d w4 neg w2 d w4 neg w2 neg d w4 neg w4 d w2 w4 d w2 neg w4 d w4 w4 d w4 w2 neg d cl f} def
/m42 {mp x y w2 add m w8 neg w2 -3 4 div mul d w2 -3 4 div mul w8 neg d w2 3 4 div mul w8 neg d w8 w2 -3 4 div mul d w8 w2 3 4 div mul d w2 3 4 div mul w8 d w2 -3 4 div mul w8 d w8 neg w2 3 4 div mul d cl s} def
/m43 {mp x y w2 add m w8 neg w2 -3 4 div mul d w2 -3 4 div mul w8 neg d w2 3 4 div mul w8 neg d w8 w2 -3 4 div mul d w8 w2 3 4 div mul d w2 3 4 div mul w8 d w2 -3 4 div mul w8 d w8 neg w2 3 4 div mul d cl f} def
/m44 {mp x y m w6 neg w2 d w2 2 3 div mul 0 d w6 neg w2 neg d w2 w6 d 0 w2 -2 3 div mul d w2 neg w6 d w6 w2 neg d w2 -2 3 div mul 0 d w6 w2 d w2 neg w6 neg d 0 w2 2 3 div mul d w2 w6 neg d cl s} def
/m45 {mp x y m w6 neg w2 d w2 2 3 div mul 0 d w6 neg w2 neg d w2 w6 d 0 w2 -2 3 div mul d w2 neg w6 d w6 w2 neg d w2 -2 3 div mul 0 d w6 w2 d w2 neg w6 neg d 0 w2 2 3 div mul d w2 w6 neg d cl f} def
/m46 {mp x y w4 add m w4 neg w4 d w4 neg w4 neg d  w4 w4 neg d w4 neg w4 neg d w4 w4 neg d w4 w4 d w4 w4 neg d w4 w4 d w4 neg w4 d w4 w4 d w4 neg w4 d w4 neg w4 neg d cl s} def
/m47 {mp x y w4 add m w4 neg w4 d w4 neg w4 neg d w4 w4 neg d w4 neg w4 neg d  w4 w4 neg d w4 w4 d w4 w4 neg d w4 w4 d w4 neg w4 d w4 w4 d w4 neg w4 d w4 neg w4 neg d cl f} def
/m48 {mp x y w4 add m w4 neg w4 d w4 neg w4 neg d w4 w4 neg d  w4 neg w4 neg d w4 w4 neg d w4 w4 d w4 w4 neg d w4 w4 d w4 neg w4 d w4 w4 d w4 neg w4 d w4 neg w4 neg d  w4 w4 neg d w4 neg w4 neg d w4 neg w4 d w4 w4 d cl f} def
/m49 {mp x w2 sub w3 add y w2 sub w3 add m  0 w3 neg d w3 0 d 0 w3 d w3 0 d 0 w3 d w3 neg 0 d 0 w3 d w3 neg 0 d 0 w3 neg d w3 neg 0 d 0 w3 neg d w3 0 d 0 w3 d w3 0 d 0 w3 neg d w3 neg 0 d cl f } def
/m2 {mp x y w2 sub m 0 w d x w2 sub y m w 0 d s} def
/m5 {mp x w2 sub y w2 sub m w w d x w2 sub y w2 add m w w neg d s} def
%%IncludeResource: ProcSet (FontSetInit)
%%IncludeResource: font Times-Roman
%%IncludeResource: font Times-Italic
%%IncludeResource: font Times-Bold
%%IncludeResource: font Times-BoldItalic
%%IncludeResource: font Helvetica
%%IncludeResource: font Helvetica-Oblique
%%IncludeResource: font Helvetica-Bold
%%IncludeResource: font Helvetica-BoldOblique
%%IncludeResource: font Courier
%%IncludeResource: font Courier-Oblique
%%IncludeResource: font Courier-Bold
%%IncludeResource: font Courier-BoldOblique
%%IncludeResource: font Symbol
%%IncludeResource: font ZapfDingbats
/reEncode {exch findfont dup length dict begin {1 index /FID eq  {pop pop} {def} ifelse } forall /Encoding exch def currentdict end dup /FontName get exch definefont pop } def [/Times-Bold /Times-Italic /Times-BoldItalic /Helvetica /Helvetica-Oblique
 /Helvetica-Bold /Helvetica-BoldOblique /Courier /Courier-Oblique /Courier-Bold /Courier-BoldOblique /Times-Roman /AvantGarde-Book /AvantGarde-BookOblique /AvantGarde-Demi /AvantGarde-DemiOblique /Bookman-Demi /Bookman-DemiItalic /Bookman-Light
 /Bookman-LightItalic /Helvetica-Narrow /Helvetica-Narrow-Bold /Helvetica-Narrow-BoldOblique /Helvetica-Narrow-Oblique /NewCenturySchlbk-Roman /NewCenturySchlbk-Bold /NewCenturySchlbk-BoldItalic /NewCenturySchlbk-Italic /Palatino-Bold
 /Palatino-BoldItalic /Palatino-Italic /Palatino-Roman ] {ISOLatin1Encoding reEncode } forall
%%EndProlog
%%BeginSetup
%%EndSetup
newpath  gsave  .25 .25 scale  gsave  0 0 t black[  ] 0 sd 3 lw 1 1 1 c 2268 1530 0 0 bf black 1 1 1 c 1814 1224 227 153 bf black 1814 1224 227 153 bl 227 153 m 1814 X s 227 190 m -37 Y s 263 171 m -18 Y s 299 171 m -18 Y s 336 171 m -18 Y s 372 171
 m -18 Y s 408 190 m -37 Y s 444 171 m -18 Y s 481 171 m -18 Y s 517 171 m -18 Y s 553 171 m -18 Y s 590 190 m -37 Y s 626 171 m -18 Y s 662 171 m -18 Y s 698 171 m -18 Y s 735 171 m -18 Y s 771 190 m -37 Y s 807 171 m -18 Y s 844 171 m -18 Y s 880
 171 m -18 Y s 916 171 m -18 Y s 952 190 m -37 Y s 989 171 m -18 Y s 1025 171 m -18 Y s 1061 171 m -18 Y s 1098 171 m -18 Y s 1134 190 m -37 Y s 1170 171 m -18 Y s 1206 171 m -18 Y s 1243 171 m -18 Y s 1279 171 m -18 Y s 1315 190 m -37 Y s 1352 171 m
 -18 Y s 1388 171 m -18 Y s 1424 171 m -18 Y s 1460 171 m -18 Y s 1497 190 m -37 Y s 1533 171 m -18 Y s 1569 171 m -18 Y s 1606 171 m -18 Y s 1642 171 m -18 Y s 1678 190 m -37 Y s 1714 171 m -18 Y s 1751 171 m -18 Y s 1787 171 m -18 Y s 1823 171 m
 -18 Y s 1860 190 m -37 Y s 1896 171 m -18 Y s 1932 171 m -18 Y s 1968 171 m -18 Y s 2005 171 m -18 Y s 2041 190 m -37 Y s 227 190 m -37 Y s
 gsave  2268 1530 0 0 C 201.43 103.964 t 0 r /Helvetica findfont 48.7332 sf 0 0 m (0.5) show NC gr 
 gsave  2268 1530 0 0 C 175.439 103.964 t 0 r /Symbol findfont 48.7332 sf 0 0 m (-) show NC gr 
 gsave  2268 1530 0 0 C 383.368 103.964 t 0 r /Helvetica findfont 48.7332 sf 0 0 m (0.4) show NC gr 
 gsave  2268 1530 0 0 C 357.377 103.964 t 0 r /Symbol findfont 48.7332 sf 0 0 m (-) show NC gr 
 gsave  2268 1530 0 0 C 565.305 103.964 t 0 r /Helvetica findfont 48.7332 sf 0 0 m (0.3) show NC gr 
 gsave  2268 1530 0 0 C 539.314 103.964 t 0 r /Symbol findfont 48.7332 sf 0 0 m (-) show NC gr 
 gsave  2268 1530 0 0 C 747.242 103.964 t 0 r /Helvetica findfont 48.7332 sf 0 0 m (0.2) show NC gr 
 gsave  2268 1530 0 0 C 721.251 103.964 t 0 r /Symbol findfont 48.7332 sf 0 0 m (-) show NC gr 
 gsave  2268 1530 0 0 C 935.677 103.964 t 0 r /Helvetica findfont 48.7332 sf 0 0 m (0.1) show NC gr 
 gsave  2268 1530 0 0 C 906.437 103.964 t 0 r /Symbol findfont 48.7332 sf 0 0 m (-) show NC gr 
 gsave  2268 1530 0 0 C 1120.86 103.964 t 0 r /Helvetica findfont 48.7332 sf 0 0 m (0) show NC gr 
 gsave  2268 1530 0 0 C 1283.31 103.964 t 0 r /Helvetica findfont 48.7332 sf 0 0 m (0.1) show NC gr 
 gsave  2268 1530 0 0 C 1458.75 103.964 t 0 r /Helvetica findfont 48.7332 sf 0 0 m (0.2) show NC gr 
 gsave  2268 1530 0 0 C 1640.68 103.964 t 0 r /Helvetica findfont 48.7332 sf 0 0 m (0.3) show NC gr 
 gsave  2268 1530 0 0 C 1822.62 103.964 t 0 r /Helvetica findfont 48.7332 sf 0 0 m (0.4) show NC gr 
 gsave  2268 1530 0 0 C 2004.56 103.964 t 0 r /Helvetica findfont 48.7332 sf 0 0 m (0.5) show NC gr 
 gsave  2268 1530 0 0 C 1881.1 51.982 t 0 r /Helvetica findfont 48.7332 sf 0 0 m (delta_e) show NC gr  227 153 m 1224 Y s 281 153 m -54 X s 254 181 m -27 X s 254 208 m -27 X s 254 236 m -27 X s 254 263 m -27 X s 281 291 m -54 X s 254 318 m -27 X s
 254 346 m -27 X s 254 373 m -27 X s 254 401 m -27 X s 281 428 m -54 X s 254 456 m -27 X s 254 483 m -27 X s 254 511 m -27 X s 254 539 m -27 X s 281 566 m -54 X s 254 594 m -27 X s 254 621 m -27 X s 254 649 m -27 X s 254 676 m -27 X s 281 704 m -54 X
 s 254 731 m -27 X s 254 759 m -27 X s 254 786 m -27 X s 254 814 m -27 X s 281 841 m -54 X s 254 869 m -27 X s 254 896 m -27 X s 254 924 m -27 X s 254 952 m -27 X s 281 979 m -54 X s 254 1007 m -27 X s 254 1034 m -27 X s 254 1062 m -27 X s 254 1089 m
 -27 X s 281 1117 m -54 X s 254 1144 m -27 X s 254 1172 m -27 X s 254 1199 m -27 X s 254 1227 m -27 X s 281 1254 m -54 X s 281 1254 m -54 X s 254 1282 m -27 X s 254 1310 m -27 X s 254 1337 m -27 X s 254 1365 m -27 X s
 gsave  2268 1530 0 0 C 188.435 136.453 t 0 r /Helvetica findfont 48.7332 sf 0 0 m (0) show NC gr 
 gsave  2268 1530 0 0 C 133.204 272.906 t 0 r /Helvetica findfont 48.7332 sf 0 0 m (500) show NC gr 
 gsave  2268 1530 0 0 C 107.213 409.359 t 0 r /Helvetica findfont 48.7332 sf 0 0 m (1000) show NC gr 
 gsave  2268 1530 0 0 C 107.213 549.06 t 0 r /Helvetica findfont 48.7332 sf 0 0 m (1500) show NC gr 
 gsave  2268 1530 0 0 C 107.213 685.513 t 0 r /Helvetica findfont 48.7332 sf 0 0 m (2000) show NC gr 
 gsave  2268 1530 0 0 C 107.213 821.966 t 0 r /Helvetica findfont 48.7332 sf 0 0 m (2500) show NC gr 
 gsave  2268 1530 0 0 C 107.213 961.668 t 0 r /Helvetica findfont 48.7332 sf 0 0 m (3000) show NC gr 
 gsave  2268 1530 0 0 C 107.213 1098.12 t 0 r /Helvetica findfont 48.7332 sf 0 0 m (3500) show NC gr 
 gsave  2268 1530 0 0 C 107.213 1237.82 t 0 r /Helvetica findfont 48.7332 sf 0 0 m (4000) show NC gr 
 gsave  2268 1530 0 0 C 51.982 1036.39 t 90 r /Helvetica findfont 48.7332 sf 0 0 m (Events / \( 0.01 \)) show NC gr  236 863 m -9 X s 227 856 m 13 Y s 236 863 m 9 X s 245 856 m 13 Y s 236 863 m 14 Y s 229 877 m 13 X s 236 863 m -14 Y s 229 849 m 13 X
 s 254 829 m -9 X s 245 822 m 13 Y s 254 829 m 9 X s 263 822 m 13 Y s 254 829 m 14 Y s 247 843 m 13 X s 254 829 m -14 Y s 247 815 m 13 X s 272 828 m -9 X s 263 822 m 13 Y s 272 828 m 9 X s 281 822 m 13 Y s 272 828 m 14 Y s 266 842 m 13 X s 272 828 m
 -13 Y s 266 815 m 13 X s 290 818 m -9 X s 281 811 m 13 Y s 290 818 m 9 X s 299 811 m 13 Y s 290 818 m 13 Y s 284 831 m 13 X s 290 818 m -14 Y s 284 804 m 13 X s 308 811 m -9 X s 299 804 m 13 Y s 308 811 m 9 X s 317 804 m 13 Y s 308 811 m 13 Y s 302
 824 m 13 X s 308 811 m -14 Y s 302 797 m 13 X s 327 775 m -10 X s 317 768 m 13 Y s 327 775 m 9 X s 336 768 m 13 Y s 327 775 m 13 Y s 320 788 m 13 X s 327 775 m -13 Y s 320 762 m 13 X s 345 759 m -9 X s 336 753 m 13 Y s 345 759 m 9 X s 354 753 m 13 Y
 s 345 759 m 13 Y s 338 772 m 13 X s 345 759 m -13 Y s 338 746 m 13 X s 363 739 m -9 X s 354 733 m 13 Y s 363 739 m 9 X s 372 733 m 13 Y s 363 739 m 13 Y s 356 752 m 13 X s 363 739 m -12 Y s 356 727 m 13 X s 381 725 m -9 X s 372 719 m 13 Y s 381 725
 m 9 X s 390 719 m 13 Y s 381 725 m 13 Y s 374 738 m 13 X s 381 725 m -12 Y s 374 713 m 13 X s 399 695 m -9 X s 390 688 m 13 Y s 399 695 m 9 X s 408 688 m 13 Y s 399 695 m 12 Y s 393 707 m 13 X s 399 695 m -12 Y s 393 683 m 13 X s 417 678 m -9 X s
 408 671 m 13 Y s 417 678 m 9 X s 426 671 m 13 Y s 417 678 m 12 Y s 411 690 m 13 X s 417 678 m -12 Y s 411 666 m 13 X s 435 677 m -9 X s 426 671 m 13 Y s 435 677 m 9 X s 444 671 m 13 Y s 435 677 m 12 Y s 429 689 m 13 X s 435 677 m -12 Y s 429 665 m
 13 X s 454 657 m -10 X s 444 650 m 13 Y s 454 657 m 9 X s 463 650 m 13 Y s 454 657 m 12 Y s 447 669 m 13 X s 454 657 m -12 Y s 447 645 m 13 X s 472 649 m -9 X s 463 642 m 13 Y s 472 649 m 9 X s 481 642 m 13 Y s 472 649 m 12 Y s 465 661 m 13 X s 472
 649 m -12 Y s 465 637 m 13 X s 490 607 m -9 X s 481 600 m 13 Y s 490 607 m 9 X s 499 600 m 13 Y s 490 607 m 11 Y s 483 618 m 13 X s 490 607 m -11 Y s 483 596 m 13 X s 508 598 m -9 X s 499 591 m 13 Y s 508 598 m 9 X s 517 591 m 13 Y s 508 598 m 11 Y
 s 501 609 m 13 X s 508 598 m -11 Y s 501 587 m 13 X s 526 581 m -9 X s 517 575 m 13 Y s 526 581 m 9 X s 535 575 m 13 Y s 526 581 m 11 Y s 520 592 m 13 X s 526 581 m -11 Y s 520 570 m 13 X s 544 605 m -9 X s 535 599 m 13 Y s 544 605 m 9 X s 553 599 m
 13 Y s 544 605 m 12 Y s 538 617 m 13 X s 544 605 m -11 Y s 538 594 m 13 X s 562 594 m -9 X s 553 588 m 13 Y s 562 594 m 9 X s 571 588 m 13 Y s 562 594 m 12 Y s 556 606 m 13 X s 562 594 m -10 Y s 556 584 m 13 X s 581 585 m -10 X s 571 579 m 13 Y s
 581 585 m 9 X s 590 579 m 13 Y s 581 585 m 11 Y s 574 596 m 13 X s 581 585 m -10 Y s 574 575 m 13 X s 599 590 m -9 X s 590 584 m 13 Y s 599 590 m 9 X s 608 584 m 13 Y s 599 590 m 11 Y s 592 601 m 13 X s 599 590 m -11 Y s 592 579 m 13 X s 617 608 m
 -9 X s 608 601 m 13 Y s 617 608 m 9 X s 626 601 m 13 Y s 617 608 m 11 Y s 610 619 m 13 X s 617 608 m -11 Y s 610 597 m 13 X s 635 727 m -9 X s 626 720 m 13 Y s 635 727 m 9 X s 644 720 m 13 Y s 635 727 m 13 Y s 628 740 m 13 X s 635 727 m -13 Y s 628
 714 m 13 X s 653 867 m -9 X s 644 861 m 13 Y s 653 867 m 9 X s 662 861 m 13 Y s 653 867 m 14 Y s 647 881 m 13 X s 653 867 m -14 Y s 647 853 m 13 X s 671 969 m -9 X s 662 962 m 13 Y s 671 969 m 9 X s 680 962 m 13 Y s 671 969 m 15 Y s 665 984 m 13 X s
 671 969 m -15 Y s 665 954 m 13 X s 689 936 m -9 X s 680 929 m 13 Y s 689 936 m 9 X s 698 929 m 13 Y s 689 936 m 14 Y s 683 950 m 13 X s 689 936 m -15 Y s 683 921 m 13 X s 708 801 m -10 X s 698 795 m 13 Y s 708 801 m 9 X s 717 795 m 13 Y s 708 801 m
 14 Y s 701 815 m 13 X s 708 801 m -13 Y s 701 788 m 13 X s 726 676 m -9 X s 717 670 m 13 Y s 726 676 m 9 X s 735 670 m 13 Y s 726 676 m 13 Y s 719 689 m 13 X s 726 676 m -11 Y s 719 665 m 13 X s 744 642 m -9 X s 735 636 m 13 Y s 744 642 m 9 X s 753
 636 m 13 Y s 744 642 m 12 Y s 737 654 m 13 X s 744 642 m -11 Y s 737 631 m 13 X s 762 675 m -9 X s 753 668 m 13 Y s 762 675 m 9 X s 771 668 m 13 Y s 762 675 m 12 Y s 755 687 m 13 X s 762 675 m -12 Y s 755 663 m 13 X s 780 798 m -9 X s 771 791 m 13 Y
 s 780 798 m 9 X s 789 791 m 13 Y s 780 798 m 13 Y s 774 811 m 13 X s 780 798 m -14 Y s 774 784 m 13 X s 798 941 m -9 X s 789 935 m 13 Y s 798 941 m 9 X s 807 935 m 13 Y s 798 941 m 15 Y s 792 956 m 13 X s 798 941 m -14 Y s 792 927 m 13 X s 816 900 m
 -9 X s 807 894 m 13 Y s 816 900 m 9 X s 825 894 m 13 Y s 816 900 m 15 Y s 810 915 m 13 X s 816 900 m -14 Y s 810 886 m 13 X s 835 762 m -10 X s 825 755 m 13 Y s 835 762 m 9 X s 844 755 m 13 Y s 835 762 m 13 Y s 828 775 m 13 X s 835 762 m -13 Y s 828
 749 m 13 X s 853 605 m -9 X s 844 598 m 13 Y s 853 605 m 9 X s 862 598 m 13 Y s 853 605 m 11 Y s 846 616 m 13 X s 853 605 m -11 Y s 846 594 m 13 X s 871 455 m -9 X s 862 449 m 13 Y s 871 455 m 9 X s 880 449 m 13 Y s 871 455 m 10 Y s 864 465 m 13 X s
 871 455 m -9 Y s 864 446 m 13 X s 889 369 m -9 X s 880 363 m 13 Y s 889 369 m 9 X s 898 363 m 13 Y s 889 369 m 8 Y s 882 377 m 13 X s 889 369 m -7 Y s 882 362 m 13 X s 907 323 m -9 X s 898 317 m 13 Y s 907 323 m 9 X s 916 317 m 13 Y s 907 323 m 7 Y
 s 901 330 m 13 X s 907 323 m -7 Y s 901 316 m 13 X s 925 285 m -9 X s 916 279 m 13 Y s 925 285 m 9 X s 934 279 m 13 Y s 925 285 m 6 Y s 919 291 m 13 X s 925 285 m -6 Y s 919 279 m 13 X s 943 274 m -9 X s 934 267 m 13 Y s 943 274 m 9 X s 952 267 m 13
 Y s 943 274 m 6 Y s 937 280 m 13 X s 943 274 m -6 Y s 937 268 m 13 X s 962 266 m -10 X s 952 260 m 13 Y s 962 266 m 9 X s 971 260 m 13 Y s 962 266 m 6 Y s 955 272 m 13 X s 962 266 m -5 Y s 955 261 m 13 X s 980 260 m -9 X s 971 254 m 13 Y s 980 260 m
 9 X s 989 254 m 13 Y s 980 260 m 6 Y s 973 266 m 13 X s 980 260 m -5 Y s 973 255 m 13 X s 998 253 m -9 X s 989 247 m 13 Y s 998 253 m 9 X s 1007 247 m 13 Y s 998 253 m 6 Y s 991 259 m 13 X s 998 253 m -5 Y s 991 248 m 13 X s 1016 263 m -9 X s 1007
 257 m 13 Y s 1016 263 m 9 X s 1025 257 m 13 Y s 1016 263 m 6 Y s 1009 269 m 13 X s 1016 263 m -5 Y s 1009 258 m 13 X s 1034 260 m -9 X s 1025 253 m 13 Y s 1034 260 m 9 X s 1043 253 m 13 Y s 1034 260 m 5 Y s 1028 265 m 13 X s 1034 260 m -5 Y s 1028
 255 m 13 X s 1052 290 m -9 X s 1043 283 m 13 Y s 1052 290 m 9 X s 1061 283 m 13 Y s 1052 290 m 6 Y s 1046 296 m 13 X s 1052 290 m -6 Y s 1046 284 m 13 X s 1070 295 m -9 X s 1061 288 m 13 Y s 1070 295 m 9 X s 1079 288 m 13 Y s 1070 295 m 6 Y s 1064
 301 m 13 X s 1070 295 m -7 Y s 1064 288 m 13 X s 1089 419 m -10 X s 1079 412 m 13 Y s 1089 419 m 9 X s 1098 412 m 13 Y s 1089 419 m 8 Y s 1082 427 m 13 X s 1089 419 m -9 Y s 1082 410 m 13 X s 1107 819 m -9 X s 1098 812 m 13 Y s 1107 819 m 9 X s 1116
 812 m 13 Y s 1107 819 m 14 Y s 1100 833 m 13 X s 1107 819 m -14 Y s 1100 805 m 13 X s 1125 1301 m -9 X s 1116 1294 m 13 Y s 1125 1301 m 9 X s 1134 1294 m 13 Y s 1125 1301 m 18 Y s 1118 1319 m 13 X s 1125 1301 m -18 Y s 1118 1283 m 13 X s 1143 1260 m
 -9 X s 1134 1253 m 13 Y s 1143 1260 m 9 X s 1152 1253 m 13 Y s 1143 1260 m 18 Y s 1136 1278 m 13 X s 1143 1260 m -17 Y s 1136 1243 m 13 X s 1161 756 m -9 X s 1152 750 m 13 Y s 1161 756 m 9 X s 1170 750 m 13 Y s 1161 756 m 13 Y s 1155 769 m 13 X s
 1161 756 m -12 Y s 1155 744 m 13 X s 1179 387 m -9 X s 1170 380 m 13 Y s 1179 387 m 9 X s 1188 380 m 13 Y s 1179 387 m 8 Y s 1173 395 m 13 X s 1179 387 m -8 Y s 1173 379 m 13 X s 1197 254 m -9 X s 1188 247 m 13 Y s 1197 254 m 9 X s 1206 247 m 13 Y s
 1197 254 m 5 Y s 1191 259 m 13 X s 1197 254 m -5 Y s 1191 249 m 13 X s 1215 210 m -9 X s 1206 204 m 13 Y s 1215 210 m 10 X s 1225 204 m 13 Y s 1215 210 m 4 Y s 1209 214 m 13 X s 1215 210 m -4 Y s 1209 206 m 13 X s 1234 191 m -9 X s 1225 185 m 13 Y s
 1234 191 m 9 X s 1243 185 m 13 Y s 1234 191 m 3 Y s 1227 194 m 13 X s 1234 191 m -3 Y s 1227 188 m 13 X s 1252 186 m -9 X s 1243 179 m 13 Y s 1252 186 m 9 X s 1261 179 m 13 Y s 1252 186 m 3 Y s 1245 189 m 13 X s 1252 186 m -3 Y s 1245 183 m 13 X s
 1270 178 m -9 X s 1261 171 m 13 Y s 1270 178 m 9 X s 1279 171 m 13 Y s 1270 178 m 3 Y s 1263 181 m 13 X s 1270 178 m -3 Y s 1263 175 m 13 X s 1288 181 m -9 X s 1279 174 m 13 Y s 1288 181 m 9 X s 1297 174 m 13 Y s 1288 181 m 3 Y s 1282 184 m 13 X s
 1288 181 m -3 Y s 1282 178 m 13 X s 1306 179 m -9 X s 1297 172 m 13 Y s 1306 179 m 9 X s 1315 172 m 13 Y s 1306 179 m 3 Y s 1300 182 m 13 X s 1306 179 m -3 Y s 1300 176 m 13 X s 1324 170 m -9 X s 1315 164 m 13 Y s 1324 170 m 9 X s 1333 164 m 13 Y s
 1324 170 m 3 Y s 1318 173 m 13 X s 1324 170 m -2 Y s 1318 168 m 13 X s 1342 172 m -9 X s 1333 166 m 13 Y s 1342 172 m 10 X s 1352 166 m 13 Y s 1342 172 m 3 Y s 1336 175 m 13 X s 1342 172 m -2 Y s 1336 170 m 13 X s 1361 172 m -9 X s 1352 166 m 13 Y s
 1361 172 m 9 X s 1370 166 m 13 Y s 1361 172 m 3 Y s 1354 175 m 13 X s 1361 172 m -2 Y s 1354 170 m 13 X s 1379 170 m -9 X s 1370 164 m 13 Y s 1379 170 m 9 X s 1388 164 m 13 Y s 1379 170 m 3 Y s 1372 173 m 13 X s 1379 170 m -2 Y s 1372 168 m 13 X s
 1397 169 m -9 X s 1388 162 m 13 Y s 1397 169 m 9 X s 1406 162 m 13 Y s 1397 169 m 2 Y s 1390 171 m 13 X s 1397 169 m -2 Y s 1390 167 m 13 X s 1415 171 m -9 X s 1406 164 m 13 Y s 1415 171 m 9 X s 1424 164 m 13 Y s 1415 171 m 2 Y s 1409 173 m 13 X s
 1415 171 m -3 Y s 1409 168 m 13 X s 1433 164 m -9 X s 1424 158 m 13 Y s 1433 164 m 9 X s 1442 158 m 13 Y s 1433 164 m 2 Y s 1427 166 m 13 X s 1433 164 m -1 Y s 1427 163 m 13 X s 1451 163 m -9 X s 1442 157 m 13 Y s 1451 163 m 9 X s 1460 157 m 13 Y s
 1451 163 m 2 Y s 1445 165 m 13 X s 1451 163 m -1 Y s 1445 162 m 13 X s 1469 164 m -9 X s 1460 157 m 13 Y s 1469 164 m 10 X s 1479 157 m 13 Y s 1469 164 m 2 Y s 1463 166 m 13 X s 1469 164 m -2 Y s 1463 162 m 13 X s 1488 165 m -9 X s 1479 159 m 13 Y s
 1488 165 m 9 X s 1497 159 m 13 Y s 1488 165 m 2 Y s 1481 167 m 13 X s 1488 165 m -2 Y s 1481 163 m 13 X s 1506 165 m -9 X s 1497 159 m 13 Y s 1506 165 m 9 X s 1515 159 m 13 Y s 1506 165 m 3 Y s 1499 168 m 13 X s 1506 165 m -1 Y s 1499 164 m 13 X s
 1524 165 m -9 X s 1515 158 m 13 Y s 1524 165 m 9 X s 1533 158 m 13 Y s 1524 165 m 2 Y s 1517 167 m 13 X s 1524 165 m -2 Y s 1517 163 m 13 X s 1542 167 m -9 X s 1533 160 m 13 Y s 1542 167 m 9 X s 1551 160 m 13 Y s 1542 167 m 2 Y s 1536 169 m 13 X s
 1542 167 m -2 Y s 1536 165 m 13 X s 1560 160 m -9 X s 1551 154 m 13 Y s 1560 160 m 9 X s 1569 154 m 13 Y s 1560 160 m 2 Y s 1554 162 m 13 X s 1560 160 m -1 Y s 1554 159 m 13 X s 1578 162 m -9 X s 1569 155 m 13 Y s 1578 162 m 9 X s 1587 155 m 13 Y s
 1578 162 m 2 Y s 1572 164 m 13 X s 1578 162 m -2 Y s 1572 160 m 13 X s 1596 162 m -9 X s 1587 155 m 13 Y s 1596 162 m 10 X s 1606 155 m 13 Y s 1596 162 m 1 Y s 1590 163 m 13 X s 1596 162 m -2 Y s 1590 160 m 13 X s 1615 160 m -9 X s 1606 153 m 13 Y s
 1615 160 m 9 X s 1624 153 m 13 Y s 1615 160 m 1 Y s 1608 161 m 13 X s 1615 160 m -2 Y s 1608 158 m 13 X s 1633 159 m -9 X s 1624 153 m 12 Y s 1633 159 m 9 X s 1642 153 m 12 Y s 1633 159 m 1 Y s 1626 160 m 13 X s 1633 159 m -2 Y s 1626 157 m 13 X s
 1651 160 m -9 X s 1642 154 m 13 Y s 1651 160 m 9 X s 1660 154 m 13 Y s 1651 160 m 2 Y s 1644 162 m 13 X s 1651 160 m -1 Y s 1644 159 m 13 X s 1669 160 m -9 X s 1660 154 m 13 Y s 1669 160 m 9 X s 1678 154 m 13 Y s 1669 160 m 2 Y s 1663 162 m 13 X s
 1669 160 m -1 Y s 1663 159 m 13 X s 1687 159 m -9 X s 1678 153 m 12 Y s 1687 159 m 9 X s 1696 153 m 12 Y s 1687 159 m 1 Y s 1681 160 m 13 X s 1687 159 m -1 Y s 1681 158 m 13 X s 1705 159 m -9 X s 1696 153 m 13 Y s 1705 159 m 9 X s 1714 153 m 13 Y s
 1705 159 m 2 Y s 1699 161 m 13 X s 1705 159 m -1 Y s 1699 158 m 13 X s 1723 157 m -9 X s 1714 153 m 11 Y s 1723 157 m 10 X s 1733 153 m 11 Y s 1723 157 m 2 Y s 1717 159 m 13 X s 1723 157 m -1 Y s 1717 156 m 13 X s 1742 159 m -9 X s 1733 153 m 12 Y s
 1742 159 m 9 X s 1751 153 m 12 Y s 1742 159 m 1 Y s 1735 160 m 13 X s 1742 159 m -1 Y s 1735 158 m 13 X s 1760 159 m -9 X s 1751 153 m 12 Y s 1760 159 m 9 X s 1769 153 m 12 Y s 1760 159 m 1 Y s 1753 160 m 13 X s 1760 159 m -2 Y s 1753 157 m 13 X s
 1778 157 m -9 X s 1769 153 m 11 Y s 1778 157 m 9 X s 1787 153 m 11 Y s 1778 157 m 2 Y s 1771 159 m 13 X s 1778 157 m -1 Y s 1771 156 m 13 X s 1796 158 m -9 X s 1787 153 m 12 Y s 1796 158 m 9 X s 1805 153 m 12 Y s 1796 158 m 2 Y s 1790 160 m 13 X s
 1796 158 m -1 Y s 1790 157 m 13 X s 1814 159 m -9 X s 1805 153 m 12 Y s 1814 159 m 9 X s 1823 153 m 12 Y s 1814 159 m 1 Y s 1808 160 m 13 X s 1814 159 m -1 Y s 1808 158 m 13 X s 1832 159 m -9 X s 1823 153 m 12 Y s 1832 159 m 9 X s 1841 153 m 12 Y s
 1832 159 m 1 Y s 1826 160 m 13 X s 1832 159 m -2 Y s 1826 157 m 13 X s 1850 157 m -9 X s 1841 153 m 11 Y s 1850 157 m 10 X s 1860 153 m 11 Y s 1850 157 m 2 Y s 1844 159 m 13 X s 1850 157 m -1 Y s 1844 156 m 13 X s 1869 157 m -9 X s 1860 153 m 10 Y s
 1869 157 m 9 X s 1878 153 m 10 Y s 1869 157 m 1 Y s 1862 158 m 13 X s 1869 157 m -1 Y s 1862 156 m 13 X s 1887 157 m -9 X s 1878 153 m 10 Y s 1887 157 m 9 X s 1896 153 m 10 Y s 1887 157 m 1 Y s 1880 158 m 13 X s 1887 157 m -1 Y s 1880 156 m 13 X s
 1905 156 m -9 X s 1896 153 m 9 Y s 1905 156 m 9 X s 1914 153 m 9 Y s 1905 156 m 1 Y s 1898 157 m 13 X s 1905 156 m -1 Y s 1898 155 m 13 X s 1923 158 m -9 X s 1914 153 m 12 Y s 1923 158 m 9 X s 1932 153 m 12 Y s 1923 158 m 2 Y s 1917 160 m 13 X s
 1923 158 m -1 Y s 1917 157 m 13 X s 1941 159 m -9 X s 1932 153 m 12 Y s 1941 159 m 9 X s 1950 153 m 12 Y s 1941 159 m 1 Y s 1935 160 m 13 X s 1941 159 m -1 Y s 1935 158 m 13 X s 1959 156 m -9 X s 1950 153 m 9 Y s 1959 156 m 9 X s 1968 153 m 9 Y s
 1959 156 m 1 Y s 1953 157 m 13 X s 1959 156 m -1 Y s 1953 155 m 13 X s 1977 158 m -9 X s 1968 153 m 11 Y s 1977 158 m 10 X s 1987 153 m 11 Y s 1977 158 m 1 Y s 1971 159 m 13 X s 1977 158 m -1 Y s 1971 157 m 13 X s 1996 160 m -9 X s 1987 153 m 13 Y s
 1996 160 m 9 X s 2005 153 m 13 Y s 1996 160 m 2 Y s 1989 162 m 13 X s 1996 160 m -1 Y s 1989 159 m 13 X s 2014 157 m -9 X s 2005 153 m 11 Y s 2014 157 m 9 X s 2023 153 m 11 Y s 2014 157 m 2 Y s 2007 159 m 13 X s 2014 157 m -1 Y s 2007 156 m 13 X s
 2032 160 m -9 X s 2023 153 m 13 Y s 2032 160 m 9 X s 2041 153 m 13 Y s 2032 160 m 2 Y s 2025 162 m 13 X s 2032 160 m -1 Y s 2025 159 m 13 X s 1 1 1 c black /w 26 def /w2 {w 2 div} def /w3 {w 3 div} def 236 863 254 829 272 828 290 818 308 811 327 775
 345 759 363 739 381 725 399 695 417 678 435 677 454 657 472 649 490 607 508 598 526 581 544 605 562 594 581 585 599 590 617 608 635 727 653 867 671 969 689 936 708 801 726 676 744 642 762 675 780 798 798 941 816 900 835 762 853 605 871 455 889 369
 907 323 925 285 943 274 962 266 980 260 998 253 1016 263 1034 260 1052 290 1070 295 1089 419 1107 819 1125 1301 1143 1260 1161 756 1179 387 1197 254 1215 210 1234 191 1252 186 1270 178 1288 181 1306 179 1324 170 1342 172 1361 172 1379 170 1397 169
 1415 171 1433 164 1451 163 1469 164 1488 165 1506 165 1524 165 1542 167 1560 160 1578 162 1596 162 1615 160 1633 159 1651 160 1669 160 1687 159 1705 159 1723 157 1742 159 1760 159 1778 157 1796 158 1814 159 1832 159 1850 157 1869 157 1887 157 1905
 156 1923 158 1941 159 1959 156 1977 158 1996 160 2014 157 2032 160 100 { m20} R 227 153 m 1814 X s 227 190 m -37 Y s 263 171 m -18 Y s 299 171 m -18 Y s 336 171 m -18 Y s 372 171 m -18 Y s 408 190 m -37 Y s 444 171 m -18 Y s 481 171 m -18 Y s 517
 171 m -18 Y s 553 171 m -18 Y s 590 190 m -37 Y s 626 171 m -18 Y s 662 171 m -18 Y s 698 171 m -18 Y s 735 171 m -18 Y s 771 190 m -37 Y s 807 171 m -18 Y s 844 171 m -18 Y s 880 171 m -18 Y s 916 171 m -18 Y s 952 190 m -37 Y s 989 171 m -18 Y s
 1025 171 m -18 Y s 1061 171 m -18 Y s 1098 171 m -18 Y s 1134 190 m -37 Y s 1170 171 m -18 Y s 1206 171 m -18 Y s 1243 171 m -18 Y s 1279 171 m -18 Y s 1315 190 m -37 Y s 1352 171 m -18 Y s 1388 171 m -18 Y s 1424 171 m -18 Y s 1460 171 m -18 Y s
 1497 190 m -37 Y s 1533 171 m -18 Y s 1569 171 m -18 Y s 1606 171 m -18 Y s 1642 171 m -18 Y s 1678 190 m -37 Y s 1714 171 m -18 Y s 1751 171 m -18 Y s 1787 171 m -18 Y s 1823 171 m -18 Y s 1860 190 m -37 Y s 1896 171 m -18 Y s 1932 171 m -18 Y s
 1968 171 m -18 Y s 2005 171 m -18 Y s 2041 190 m -37 Y s 227 190 m -37 Y s 227 153 m 1224 Y s 281 153 m -54 X s 254 181 m -27 X s 254 208 m -27 X s 254 236 m -27 X s 254 263 m -27 X s 281 291 m -54 X s 254 318 m -27 X s 254 346 m -27 X s 254 373 m
 -27 X s 254 401 m -27 X s 281 428 m -54 X s 254 456 m -27 X s 254 483 m -27 X s 254 511 m -27 X s 254 539 m -27 X s 281 566 m -54 X s 254 594 m -27 X s 254 621 m -27 X s 254 649 m -27 X s 254 676 m -27 X s 281 704 m -54 X s 254 731 m -27 X s 254 759
 m -27 X s 254 786 m -27 X s 254 814 m -27 X s 281 841 m -54 X s 254 869 m -27 X s 254 896 m -27 X s 254 924 m -27 X s 254 952 m -27 X s 281 979 m -54 X s 254 1007 m -27 X s 254 1034 m -27 X s 254 1062 m -27 X s 254 1089 m -27 X s 281 1117 m -54 X s
 254 1144 m -27 X s 254 1172 m -27 X s 254 1199 m -27 X s 254 1227 m -27 X s 281 1254 m -54 X s 281 1254 m -54 X s 254 1282 m -27 X s 254 1310 m -27 X s 254 1337 m -27 X s 254 1365 m -27 X s
 gr  gr showpage
end
%%EOF
