%!PS-Adobe-2.0 EPSF-2.0
%%BoundingBox:  0 0 567 383
%%Title: delta_m_bc.eps: c1
%%Creator: ROOT Version 6.13/01
%%CreationDate: Thu Dec 28 12:05:40 2017
%%DocumentNeededResources: ProcSet (FontSetInit)
%%EndComments
%%BeginProlog
80 dict begin
/s {stroke} def /l {lineto} def /m {moveto} def /t {translate} def
/r {rotate} def /rl {roll}  def /R {repeat} def
/d {rlineto} def /rm {rmoveto} def /gr {grestore} def /f {eofill} def
/c {setrgbcolor} def /black {0 setgray} def /sd {setdash} def
/cl {closepath} def /sf {scalefont setfont} def /lw {setlinewidth} def
/box {m dup 0 exch d exch 0 d 0 exch neg d cl} def
/NC{systemdict begin initclip end}def/C{NC box clip newpath}def
/bl {box s} def /bf {gsave box gsave f grestore 1 lw [] 0 sd s grestore} def /Y { 0 exch d} def /X { 0 d} def 
/K {{pop pop 0 moveto} exch kshow} bind def
/ita {/ang 15 def gsave [1 0 ang dup sin exch cos div 1 0 0] concat} def 
/mp {newpath /y exch def /x exch def} def
/side {[w .77 mul w .23 mul] .385 w mul sd w 0 l currentpoint t -144 r} def
/mr {mp x y w2 0 360 arc} def /m24 {mr s} def /m20 {mr f} def
/mb {mp x y w2 add m w2 neg 0 d 0 w neg d w 0 d 0 w d cl} def
/mt {mp x y w2 add m w2 neg w neg d w 0 d cl} def
/w4 {w 4 div} def
/w6 {w 6 div} def
/w8 {w 8 div} def
/m21 {mb f} def /m25 {mb s} def /m22 {mt f} def /m26{mt s} def
/m23 {mp x y w2 sub m w2 w d w neg 0 d cl f} def
/m27 {mp x y w2 add m w3 neg w2 neg d w3 w2 neg d w3 w2 d cl s} def
/m28 {mp x w2 sub y w2 sub w3 add m w3 0 d  0 w3 neg d w3 0 d 0 w3 d w3 0 d  0 w3 d w3 neg 0 d 0 w3 d w3 neg 0 d 0 w3 neg d w3 neg 0 d cl s } def
/m29 {mp gsave x w2 sub y w2 add w3 sub m currentpoint t 4 {side} repeat cl fill gr} def
/m30 {mp gsave x w2 sub y w2 add w3 sub m currentpoint t 4 {side} repeat cl s gr} def
/m31 {mp x y w2 sub m 0 w d x w2 sub y m w 0 d x w2 sub y w2 add m w w neg d x w2 sub y w2 sub m w w d s} def
/m32 {mp x y w2 sub m w2 w d w neg 0 d cl s} def
/m33 {mp x y w2 add m w3 neg w2 neg d w3 w2 neg d w3 w2 d cl f} def
/m34 {mp x w2 sub y w2 sub w3 add m w3 0 d  0 w3 neg d w3 0 d 0 w3 d w3 0 d  0 w3 d w3 neg 0 d 0 w3 d w3 neg 0 d 0 w3 neg d w3 neg 0 d cl f } def
/m35 {mp x y w2 add m w2 neg w2 neg d w2 w2 neg d w2 w2 d w2 neg w2 d x y w2 sub m 0 w d x w2 sub y m w 0 d s} def
/m36 {mb x w2 sub y w2 add m w w neg d x w2 sub y w2 sub m w w d s} def
/m37 {mp x y m w4 neg w2 d w4 neg w2 neg d w2 0 d  w4 neg w2 neg d w2 0 d w4 neg w2 d w2 0 d w4 neg w2 d w4 neg w2 neg d cl s} def
/m38 {mp x w4 sub y w2 add m w4 neg w4 neg d 0 w2 neg d w4 w4 neg d w2 0 d w4 w4 d 0 w2 d w4 neg w4 d w2 neg 0 d x y w2 sub m 0 w d x w2 sub y m w 0 d cl s} def
/m39 {mp x y m w4 neg w2 d w4 neg w2 neg d w2 0 d  w4 neg w2 neg d w2 0 d w4 neg w2 d w2 0 d w4 neg w2 d w4 neg w2 neg d cl f} def
/m40 {mp x y m w4 w2 d w4 w4 neg d w2 neg w4 neg d w2 w4 neg d w4 neg w4 neg d w4 neg w2 d w4 neg w2 neg d w4 neg w4 d w2 w4 d w2 neg w4 d w4 w4 d w4 w2 neg d cl s} def
/m41 {mp x y m w4 w2 d w4 w4 neg d w2 neg w4 neg d w2 w4 neg d w4 neg w4 neg d w4 neg w2 d w4 neg w2 neg d w4 neg w4 d w2 w4 d w2 neg w4 d w4 w4 d w4 w2 neg d cl f} def
/m42 {mp x y w2 add m w8 neg w2 -3 4 div mul d w2 -3 4 div mul w8 neg d w2 3 4 div mul w8 neg d w8 w2 -3 4 div mul d w8 w2 3 4 div mul d w2 3 4 div mul w8 d w2 -3 4 div mul w8 d w8 neg w2 3 4 div mul d cl s} def
/m43 {mp x y w2 add m w8 neg w2 -3 4 div mul d w2 -3 4 div mul w8 neg d w2 3 4 div mul w8 neg d w8 w2 -3 4 div mul d w8 w2 3 4 div mul d w2 3 4 div mul w8 d w2 -3 4 div mul w8 d w8 neg w2 3 4 div mul d cl f} def
/m44 {mp x y m w6 neg w2 d w2 2 3 div mul 0 d w6 neg w2 neg d w2 w6 d 0 w2 -2 3 div mul d w2 neg w6 d w6 w2 neg d w2 -2 3 div mul 0 d w6 w2 d w2 neg w6 neg d 0 w2 2 3 div mul d w2 w6 neg d cl s} def
/m45 {mp x y m w6 neg w2 d w2 2 3 div mul 0 d w6 neg w2 neg d w2 w6 d 0 w2 -2 3 div mul d w2 neg w6 d w6 w2 neg d w2 -2 3 div mul 0 d w6 w2 d w2 neg w6 neg d 0 w2 2 3 div mul d w2 w6 neg d cl f} def
/m46 {mp x y w4 add m w4 neg w4 d w4 neg w4 neg d  w4 w4 neg d w4 neg w4 neg d w4 w4 neg d w4 w4 d w4 w4 neg d w4 w4 d w4 neg w4 d w4 w4 d w4 neg w4 d w4 neg w4 neg d cl s} def
/m47 {mp x y w4 add m w4 neg w4 d w4 neg w4 neg d w4 w4 neg d w4 neg w4 neg d  w4 w4 neg d w4 w4 d w4 w4 neg d w4 w4 d w4 neg w4 d w4 w4 d w4 neg w4 d w4 neg w4 neg d cl f} def
/m48 {mp x y w4 add m w4 neg w4 d w4 neg w4 neg d w4 w4 neg d  w4 neg w4 neg d w4 w4 neg d w4 w4 d w4 w4 neg d w4 w4 d w4 neg w4 d w4 w4 d w4 neg w4 d w4 neg w4 neg d  w4 w4 neg d w4 neg w4 neg d w4 neg w4 d w4 w4 d cl f} def
/m49 {mp x w2 sub w3 add y w2 sub w3 add m  0 w3 neg d w3 0 d 0 w3 d w3 0 d 0 w3 d w3 neg 0 d 0 w3 d w3 neg 0 d 0 w3 neg d w3 neg 0 d 0 w3 neg d w3 0 d 0 w3 d w3 0 d 0 w3 neg d w3 neg 0 d cl f } def
/m2 {mp x y w2 sub m 0 w d x w2 sub y m w 0 d s} def
/m5 {mp x w2 sub y w2 sub m w w d x w2 sub y w2 add m w w neg d s} def
%%IncludeResource: ProcSet (FontSetInit)
%%IncludeResource: font Times-Roman
%%IncludeResource: font Times-Italic
%%IncludeResource: font Times-Bold
%%IncludeResource: font Times-BoldItalic
%%IncludeResource: font Helvetica
%%IncludeResource: font Helvetica-Oblique
%%IncludeResource: font Helvetica-Bold
%%IncludeResource: font Helvetica-BoldOblique
%%IncludeResource: font Courier
%%IncludeResource: font Courier-Oblique
%%IncludeResource: font Courier-Bold
%%IncludeResource: font Courier-BoldOblique
%%IncludeResource: font Symbol
%%IncludeResource: font ZapfDingbats
/reEncode {exch findfont dup length dict begin {1 index /FID eq  {pop pop} {def} ifelse } forall /Encoding exch def currentdict end dup /FontName get exch definefont pop } def [/Times-Bold /Times-Italic /Times-BoldItalic /Helvetica /Helvetica-Oblique
 /Helvetica-Bold /Helvetica-BoldOblique /Courier /Courier-Oblique /Courier-Bold /Courier-BoldOblique /Times-Roman /AvantGarde-Book /AvantGarde-BookOblique /AvantGarde-Demi /AvantGarde-DemiOblique /Bookman-Demi /Bookman-DemiItalic /Bookman-Light
 /Bookman-LightItalic /Helvetica-Narrow /Helvetica-Narrow-Bold /Helvetica-Narrow-BoldOblique /Helvetica-Narrow-Oblique /NewCenturySchlbk-Roman /NewCenturySchlbk-Bold /NewCenturySchlbk-BoldItalic /NewCenturySchlbk-Italic /Palatino-Bold
 /Palatino-BoldItalic /Palatino-Italic /Palatino-Roman ] {ISOLatin1Encoding reEncode } forall
%%EndProlog
%%BeginSetup
%%EndSetup
newpath  gsave  .25 .25 scale  gsave  0 0 t black[  ] 0 sd 3 lw 1 1 1 c 2268 1530 0 0 bf black 1 1 1 c 1814 1224 227 153 bf black 1814 1224 227 153 bl 227 153 m 1814 X s 227 190 m -37 Y s 279 171 m -18 Y s 330 171 m -18 Y s 382 171 m -18 Y s 434 171
 m -18 Y s 486 190 m -37 Y s 538 171 m -18 Y s 590 171 m -18 Y s 641 171 m -18 Y s 693 171 m -18 Y s 745 190 m -37 Y s 797 171 m -18 Y s 849 171 m -18 Y s 901 171 m -18 Y s 952 171 m -18 Y s 1004 190 m -37 Y s 1056 171 m -18 Y s 1108 171 m -18 Y s
 1160 171 m -18 Y s 1212 171 m -18 Y s 1263 190 m -37 Y s 1315 171 m -18 Y s 1367 171 m -18 Y s 1419 171 m -18 Y s 1471 171 m -18 Y s 1523 190 m -37 Y s 1574 171 m -18 Y s 1626 171 m -18 Y s 1678 171 m -18 Y s 1730 171 m -18 Y s 1782 190 m -37 Y s
 1834 171 m -18 Y s 1885 171 m -18 Y s 1937 171 m -18 Y s 1989 171 m -18 Y s 2041 190 m -37 Y s
 gsave  2268 1530 0 0 C 175.439 103.964 t 0 r /Helvetica findfont 48.7332 sf 0 0 m (5.22) show NC gr 
 gsave  2268 1530 0 0 C 435.35 103.964 t 0 r /Helvetica findfont 48.7332 sf 0 0 m (5.23) show NC gr 
 gsave  2268 1530 0 0 C 695.26 103.964 t 0 r /Helvetica findfont 48.7332 sf 0 0 m (5.24) show NC gr 
 gsave  2268 1530 0 0 C 955.17 103.964 t 0 r /Helvetica findfont 48.7332 sf 0 0 m (5.25) show NC gr 
 gsave  2268 1530 0 0 C 1211.83 103.964 t 0 r /Helvetica findfont 48.7332 sf 0 0 m (5.26) show NC gr 
 gsave  2268 1530 0 0 C 1471.74 103.964 t 0 r /Helvetica findfont 48.7332 sf 0 0 m (5.27) show NC gr 
 gsave  2268 1530 0 0 C 1731.65 103.964 t 0 r /Helvetica findfont 48.7332 sf 0 0 m (5.28) show NC gr 
 gsave  2268 1530 0 0 C 1991.56 103.964 t 0 r /Helvetica findfont 48.7332 sf 0 0 m (5.29) show NC gr 
 gsave  2268 1530 0 0 C 1692.67 51.982 t 0 r /Helvetica findfont 48.7332 sf 0 0 m (m_bc \(GeV/c^2\)) show NC gr  227 153 m 1224 Y s 281 153 m -54 X s 254 183 m -27 X s 254 212 m -27 X s 254 242 m -27 X s 254 271 m -27 X s 281 301 m -54 X s 254 330 m
 -27 X s 254 360 m -27 X s 254 390 m -27 X s 254 419 m -27 X s 281 449 m -54 X s 254 478 m -27 X s 254 508 m -27 X s 254 537 m -27 X s 254 567 m -27 X s 281 596 m -54 X s 254 626 m -27 X s 254 656 m -27 X s 254 685 m -27 X s 254 715 m -27 X s 281 744
 m -54 X s 254 774 m -27 X s 254 803 m -27 X s 254 833 m -27 X s 254 863 m -27 X s 281 892 m -54 X s 254 922 m -27 X s 254 951 m -27 X s 254 981 m -27 X s 254 1010 m -27 X s 281 1040 m -54 X s 254 1069 m -27 X s 254 1099 m -27 X s 254 1129 m -27 X s
 254 1158 m -27 X s 281 1188 m -54 X s 254 1217 m -27 X s 254 1247 m -27 X s 254 1276 m -27 X s 254 1306 m -27 X s 281 1336 m -54 X s 281 1336 m -54 X s 254 1365 m -27 X s
 gsave  2268 1530 0 0 C 188.435 136.453 t 0 r /Helvetica findfont 48.7332 sf 0 0 m (0) show NC gr 
 gsave  2268 1530 0 0 C 133.204 282.652 t 0 r /Helvetica findfont 48.7332 sf 0 0 m (500) show NC gr 
 gsave  2268 1530 0 0 C 107.213 432.101 t 0 r /Helvetica findfont 48.7332 sf 0 0 m (1000) show NC gr 
 gsave  2268 1530 0 0 C 107.213 578.3 t 0 r /Helvetica findfont 48.7332 sf 0 0 m (1500) show NC gr 
 gsave  2268 1530 0 0 C 107.213 727.749 t 0 r /Helvetica findfont 48.7332 sf 0 0 m (2000) show NC gr 
 gsave  2268 1530 0 0 C 107.213 873.948 t 0 r /Helvetica findfont 48.7332 sf 0 0 m (2500) show NC gr 
 gsave  2268 1530 0 0 C 107.213 1023.4 t 0 r /Helvetica findfont 48.7332 sf 0 0 m (3000) show NC gr 
 gsave  2268 1530 0 0 C 107.213 1169.6 t 0 r /Helvetica findfont 48.7332 sf 0 0 m (3500) show NC gr 
 gsave  2268 1530 0 0 C 107.213 1319.04 t 0 r /Helvetica findfont 48.7332 sf 0 0 m (4000) show NC gr 
 gsave  2268 1530 0 0 C 51.982 782.979 t 90 r /Helvetica findfont 48.7332 sf 0 0 m (Events / \( 0.0007 GeV/c^2 \)) show NC gr  236 216 m -9 X s 227 209 m 13 Y s 236 216 m 9 X s 245 209 m 13 Y s 236 216 m 4 Y s 229 220 m 13 X s 236 216 m -4 Y s 229
 212 m 13 X s 254 204 m -9 X s 245 198 m 13 Y s 254 204 m 9 X s 263 198 m 13 Y s 254 204 m 5 Y s 247 209 m 13 X s 254 204 m -3 Y s 247 201 m 13 X s 272 208 m -9 X s 263 202 m 13 Y s 272 208 m 9 X s 281 202 m 13 Y s 272 208 m 4 Y s 266 212 m 13 X s
 272 208 m -4 Y s 266 204 m 13 X s 290 210 m -9 X s 281 203 m 13 Y s 290 210 m 9 X s 299 203 m 13 Y s 290 210 m 4 Y s 284 214 m 13 X s 290 210 m -4 Y s 284 206 m 13 X s 308 212 m -9 X s 299 206 m 13 Y s 308 212 m 9 X s 317 206 m 13 Y s 308 212 m 4 Y
 s 302 216 m 13 X s 308 212 m -4 Y s 302 208 m 13 X s 327 214 m -10 X s 317 208 m 13 Y s 327 214 m 9 X s 336 208 m 13 Y s 327 214 m 5 Y s 320 219 m 13 X s 327 214 m -4 Y s 320 210 m 13 X s 345 213 m -9 X s 336 206 m 13 Y s 345 213 m 9 X s 354 206 m
 13 Y s 345 213 m 4 Y s 338 217 m 13 X s 345 213 m -4 Y s 338 209 m 13 X s 363 212 m -9 X s 354 206 m 13 Y s 363 212 m 9 X s 372 206 m 13 Y s 363 212 m 5 Y s 356 217 m 13 X s 363 212 m -4 Y s 356 208 m 13 X s 381 213 m -9 X s 372 207 m 13 Y s 381 213
 m 9 X s 390 207 m 13 Y s 381 213 m 5 Y s 374 218 m 13 X s 381 213 m -4 Y s 374 209 m 13 X s 399 209 m -9 X s 390 203 m 13 Y s 399 209 m 9 X s 408 203 m 13 Y s 399 209 m 5 Y s 393 214 m 13 X s 399 209 m -3 Y s 393 206 m 13 X s 417 208 m -9 X s 408
 201 m 13 Y s 417 208 m 9 X s 426 201 m 13 Y s 417 208 m 4 Y s 411 212 m 13 X s 417 208 m -4 Y s 411 204 m 13 X s 435 215 m -9 X s 426 209 m 13 Y s 435 215 m 9 X s 444 209 m 13 Y s 435 215 m 5 Y s 429 220 m 13 X s 435 215 m -4 Y s 429 211 m 13 X s
 454 214 m -10 X s 444 207 m 13 Y s 454 214 m 9 X s 463 207 m 13 Y s 454 214 m 4 Y s 447 218 m 13 X s 454 214 m -4 Y s 447 210 m 13 X s 472 222 m -9 X s 463 216 m 13 Y s 472 222 m 9 X s 481 216 m 13 Y s 472 222 m 5 Y s 465 227 m 13 X s 472 222 m -4 Y
 s 465 218 m 13 X s 490 218 m -9 X s 481 212 m 13 Y s 490 218 m 9 X s 499 212 m 13 Y s 490 218 m 5 Y s 483 223 m 13 X s 490 218 m -4 Y s 483 214 m 13 X s 508 219 m -9 X s 499 213 m 13 Y s 508 219 m 9 X s 517 213 m 13 Y s 508 219 m 5 Y s 501 224 m 13
 X s 508 219 m -4 Y s 501 215 m 13 X s 526 220 m -9 X s 517 214 m 13 Y s 526 220 m 9 X s 535 214 m 13 Y s 526 220 m 5 Y s 520 225 m 13 X s 526 220 m -4 Y s 520 216 m 13 X s 544 218 m -9 X s 535 211 m 13 Y s 544 218 m 9 X s 553 211 m 13 Y s 544 218 m
 4 Y s 538 222 m 13 X s 544 218 m -4 Y s 538 214 m 13 X s 562 213 m -9 X s 553 207 m 13 Y s 562 213 m 9 X s 571 207 m 13 Y s 562 213 m 4 Y s 556 217 m 13 X s 562 213 m -4 Y s 556 209 m 13 X s 581 213 m -10 X s 571 207 m 13 Y s 581 213 m 9 X s 590 207
 m 13 Y s 581 213 m 4 Y s 574 217 m 13 X s 581 213 m -4 Y s 574 209 m 13 X s 599 220 m -9 X s 590 214 m 13 Y s 599 220 m 9 X s 608 214 m 13 Y s 599 220 m 5 Y s 592 225 m 13 X s 599 220 m -4 Y s 592 216 m 13 X s 617 228 m -9 X s 608 222 m 13 Y s 617
 228 m 9 X s 626 222 m 13 Y s 617 228 m 5 Y s 610 233 m 13 X s 617 228 m -4 Y s 610 224 m 13 X s 635 235 m -9 X s 626 229 m 13 Y s 635 235 m 9 X s 644 229 m 13 Y s 635 235 m 5 Y s 628 240 m 13 X s 635 235 m -5 Y s 628 230 m 13 X s 653 227 m -9 X s
 644 221 m 13 Y s 653 227 m 9 X s 662 221 m 13 Y s 653 227 m 5 Y s 647 232 m 13 X s 653 227 m -4 Y s 647 223 m 13 X s 671 233 m -9 X s 662 226 m 13 Y s 671 233 m 9 X s 680 226 m 13 Y s 671 233 m 5 Y s 665 238 m 13 X s 671 233 m -5 Y s 665 228 m 13 X
 s 689 220 m -9 X s 680 214 m 13 Y s 689 220 m 9 X s 698 214 m 13 Y s 689 220 m 5 Y s 683 225 m 13 X s 689 220 m -4 Y s 683 216 m 13 X s 708 235 m -10 X s 698 228 m 13 Y s 708 235 m 9 X s 717 228 m 13 Y s 708 235 m 5 Y s 701 240 m 13 X s 708 235 m -5
 Y s 701 230 m 13 X s 726 227 m -9 X s 717 220 m 13 Y s 726 227 m 9 X s 735 220 m 13 Y s 726 227 m 4 Y s 719 231 m 13 X s 726 227 m -5 Y s 719 222 m 13 X s 744 226 m -9 X s 735 220 m 13 Y s 744 226 m 9 X s 753 220 m 13 Y s 744 226 m 5 Y s 737 231 m
 13 X s 744 226 m -4 Y s 737 222 m 13 X s 762 230 m -9 X s 753 223 m 13 Y s 762 230 m 9 X s 771 223 m 13 Y s 762 230 m 4 Y s 755 234 m 13 X s 762 230 m -5 Y s 755 225 m 13 X s 780 232 m -9 X s 771 225 m 13 Y s 780 232 m 9 X s 789 225 m 13 Y s 780 232
 m 5 Y s 774 237 m 13 X s 780 232 m -5 Y s 774 227 m 13 X s 798 235 m -9 X s 789 229 m 13 Y s 798 235 m 9 X s 807 229 m 13 Y s 798 235 m 5 Y s 792 240 m 13 X s 798 235 m -5 Y s 792 230 m 13 X s 816 250 m -9 X s 807 243 m 13 Y s 816 250 m 9 X s 825
 243 m 13 Y s 816 250 m 5 Y s 810 255 m 13 X s 816 250 m -6 Y s 810 244 m 13 X s 835 231 m -10 X s 825 224 m 13 Y s 835 231 m 9 X s 844 224 m 13 Y s 835 231 m 5 Y s 828 236 m 13 X s 835 231 m -5 Y s 828 226 m 13 X s 853 236 m -9 X s 844 229 m 13 Y s
 853 236 m 9 X s 862 229 m 13 Y s 853 236 m 5 Y s 846 241 m 13 X s 853 236 m -5 Y s 846 231 m 13 X s 871 247 m -9 X s 862 241 m 13 Y s 871 247 m 9 X s 880 241 m 13 Y s 871 247 m 6 Y s 864 253 m 13 X s 871 247 m -5 Y s 864 242 m 13 X s 889 241 m -9 X
 s 880 234 m 13 Y s 889 241 m 9 X s 898 234 m 13 Y s 889 241 m 5 Y s 882 246 m 13 X s 889 241 m -5 Y s 882 236 m 13 X s 907 234 m -9 X s 898 228 m 13 Y s 907 234 m 9 X s 916 228 m 13 Y s 907 234 m 5 Y s 901 239 m 13 X s 907 234 m -5 Y s 901 229 m 13
 X s 925 244 m -9 X s 916 238 m 13 Y s 925 244 m 9 X s 934 238 m 13 Y s 925 244 m 6 Y s 919 250 m 13 X s 925 244 m -5 Y s 919 239 m 13 X s 943 252 m -9 X s 934 245 m 13 Y s 943 252 m 9 X s 952 245 m 13 Y s 943 252 m 5 Y s 937 257 m 13 X s 943 252 m
 -5 Y s 937 247 m 13 X s 962 257 m -10 X s 952 250 m 13 Y s 962 257 m 9 X s 971 250 m 13 Y s 962 257 m 5 Y s 955 262 m 13 X s 962 257 m -6 Y s 955 251 m 13 X s 980 257 m -9 X s 971 250 m 13 Y s 980 257 m 9 X s 989 250 m 13 Y s 980 257 m 5 Y s 973 262
 m 13 X s 980 257 m -6 Y s 973 251 m 13 X s 998 252 m -9 X s 989 246 m 13 Y s 998 252 m 9 X s 1007 246 m 13 Y s 998 252 m 6 Y s 991 258 m 13 X s 998 252 m -5 Y s 991 247 m 13 X s 1016 262 m -9 X s 1007 256 m 13 Y s 1016 262 m 9 X s 1025 256 m 13 Y s
 1016 262 m 6 Y s 1009 268 m 13 X s 1016 262 m -5 Y s 1009 257 m 13 X s 1034 257 m -9 X s 1025 251 m 13 Y s 1034 257 m 9 X s 1043 251 m 13 Y s 1034 257 m 6 Y s 1028 263 m 13 X s 1034 257 m -5 Y s 1028 252 m 13 X s 1052 266 m -9 X s 1043 259 m 13 Y s
 1052 266 m 9 X s 1061 259 m 13 Y s 1052 266 m 6 Y s 1046 272 m 13 X s 1052 266 m -6 Y s 1046 260 m 13 X s 1070 259 m -9 X s 1061 252 m 13 Y s 1070 259 m 9 X s 1079 252 m 13 Y s 1070 259 m 5 Y s 1064 264 m 13 X s 1070 259 m -6 Y s 1064 253 m 13 X s
 1089 264 m -10 X s 1079 258 m 13 Y s 1089 264 m 9 X s 1098 258 m 13 Y s 1089 264 m 6 Y s 1082 270 m 13 X s 1089 264 m -5 Y s 1082 259 m 13 X s 1107 272 m -9 X s 1098 266 m 13 Y s 1107 272 m 9 X s 1116 266 m 13 Y s 1107 272 m 6 Y s 1100 278 m 13 X s
 1107 272 m -6 Y s 1100 266 m 13 X s 1125 279 m -9 X s 1116 272 m 13 Y s 1125 279 m 9 X s 1134 272 m 13 Y s 1125 279 m 6 Y s 1118 285 m 13 X s 1125 279 m -6 Y s 1118 273 m 13 X s 1143 275 m -9 X s 1134 268 m 13 Y s 1143 275 m 9 X s 1152 268 m 13 Y s
 1143 275 m 6 Y s 1136 281 m 13 X s 1143 275 m -6 Y s 1136 269 m 13 X s 1161 283 m -9 X s 1152 277 m 13 Y s 1161 283 m 9 X s 1170 277 m 13 Y s 1161 283 m 6 Y s 1155 289 m 13 X s 1161 283 m -6 Y s 1155 277 m 13 X s 1179 293 m -9 X s 1170 286 m 13 Y s
 1179 293 m 9 X s 1188 286 m 13 Y s 1179 293 m 6 Y s 1173 299 m 13 X s 1179 293 m -6 Y s 1173 287 m 13 X s 1197 294 m -9 X s 1188 288 m 13 Y s 1197 294 m 9 X s 1206 288 m 13 Y s 1197 294 m 7 Y s 1191 301 m 13 X s 1197 294 m -6 Y s 1191 288 m 13 X s
 1215 304 m -9 X s 1206 297 m 13 Y s 1215 304 m 10 X s 1225 297 m 13 Y s 1215 304 m 7 Y s 1209 311 m 13 X s 1215 304 m -7 Y s 1209 297 m 13 X s 1234 313 m -9 X s 1225 307 m 13 Y s 1234 313 m 9 X s 1243 307 m 13 Y s 1234 313 m 7 Y s 1227 320 m 13 X s
 1234 313 m -6 Y s 1227 307 m 13 X s 1252 324 m -9 X s 1243 318 m 13 Y s 1252 324 m 9 X s 1261 318 m 13 Y s 1252 324 m 8 Y s 1245 332 m 13 X s 1252 324 m -6 Y s 1245 318 m 13 X s 1270 314 m -9 X s 1261 307 m 13 Y s 1270 314 m 9 X s 1279 307 m 13 Y s
 1270 314 m 7 Y s 1263 321 m 13 X s 1270 314 m -7 Y s 1263 307 m 13 X s 1288 333 m -9 X s 1279 326 m 13 Y s 1288 333 m 9 X s 1297 326 m 13 Y s 1288 333 m 7 Y s 1282 340 m 13 X s 1288 333 m -7 Y s 1282 326 m 13 X s 1306 337 m -9 X s 1297 331 m 13 Y s
 1306 337 m 9 X s 1315 331 m 13 Y s 1306 337 m 8 Y s 1300 345 m 13 X s 1306 337 m -7 Y s 1300 330 m 13 X s 1324 351 m -9 X s 1315 345 m 13 Y s 1324 351 m 9 X s 1333 345 m 13 Y s 1324 351 m 8 Y s 1318 359 m 13 X s 1324 351 m -7 Y s 1318 344 m 13 X s
 1342 372 m -9 X s 1333 365 m 13 Y s 1342 372 m 10 X s 1352 365 m 13 Y s 1342 372 m 8 Y s 1336 380 m 13 X s 1342 372 m -8 Y s 1336 364 m 13 X s 1361 373 m -9 X s 1352 366 m 13 Y s 1361 373 m 9 X s 1370 366 m 13 Y s 1361 373 m 8 Y s 1354 381 m 13 X s
 1361 373 m -8 Y s 1354 365 m 13 X s 1379 384 m -9 X s 1370 377 m 13 Y s 1379 384 m 9 X s 1388 377 m 13 Y s 1379 384 m 8 Y s 1372 392 m 13 X s 1379 384 m -8 Y s 1372 376 m 13 X s 1397 410 m -9 X s 1388 403 m 13 Y s 1397 410 m 9 X s 1406 403 m 13 Y s
 1397 410 m 9 Y s 1390 419 m 13 X s 1397 410 m -9 Y s 1390 401 m 13 X s 1415 437 m -9 X s 1406 430 m 13 Y s 1415 437 m 9 X s 1424 430 m 13 Y s 1415 437 m 9 Y s 1409 446 m 13 X s 1415 437 m -9 Y s 1409 428 m 13 X s 1433 437 m -9 X s 1424 431 m 13 Y s
 1433 437 m 9 X s 1442 431 m 13 Y s 1433 437 m 9 Y s 1427 446 m 13 X s 1433 437 m -9 Y s 1427 428 m 13 X s 1451 449 m -9 X s 1442 442 m 13 Y s 1451 449 m 9 X s 1460 442 m 13 Y s 1451 449 m 9 Y s 1445 458 m 13 X s 1451 449 m -9 Y s 1445 440 m 13 X s
 1469 477 m -9 X s 1460 470 m 13 Y s 1469 477 m 10 X s 1479 470 m 13 Y s 1469 477 m 10 Y s 1463 487 m 13 X s 1469 477 m -10 Y s 1463 467 m 13 X s 1488 500 m -9 X s 1479 494 m 13 Y s 1488 500 m 9 X s 1497 494 m 13 Y s 1488 500 m 10 Y s 1481 510 m 13 X
 s 1488 500 m -10 Y s 1481 490 m 13 X s 1506 500 m -9 X s 1497 494 m 13 Y s 1506 500 m 9 X s 1515 494 m 13 Y s 1506 500 m 11 Y s 1499 511 m 13 X s 1506 500 m -10 Y s 1499 490 m 13 X s 1524 526 m -9 X s 1515 520 m 13 Y s 1524 526 m 9 X s 1533 520 m 13
 Y s 1524 526 m 11 Y s 1517 537 m 13 X s 1524 526 m -10 Y s 1517 516 m 13 X s 1542 532 m -9 X s 1533 526 m 13 Y s 1542 532 m 9 X s 1551 526 m 13 Y s 1542 532 m 11 Y s 1536 543 m 13 X s 1542 532 m -10 Y s 1536 522 m 13 X s 1560 563 m -9 X s 1551 557 m
 13 Y s 1560 563 m 9 X s 1569 557 m 13 Y s 1560 563 m 11 Y s 1554 574 m 13 X s 1560 563 m -11 Y s 1554 552 m 13 X s 1578 605 m -9 X s 1569 598 m 13 Y s 1578 605 m 9 X s 1587 598 m 13 Y s 1578 605 m 11 Y s 1572 616 m 13 X s 1578 605 m -12 Y s 1572 593
 m 13 X s 1596 655 m -9 X s 1587 648 m 13 Y s 1596 655 m 10 X s 1606 648 m 13 Y s 1596 655 m 12 Y s 1590 667 m 13 X s 1596 655 m -12 Y s 1590 643 m 13 X s 1615 650 m -9 X s 1606 643 m 13 Y s 1615 650 m 9 X s 1624 643 m 13 Y s 1615 650 m 12 Y s 1608
 662 m 13 X s 1615 650 m -12 Y s 1608 638 m 13 X s 1633 707 m -9 X s 1624 701 m 13 Y s 1633 707 m 9 X s 1642 701 m 13 Y s 1633 707 m 13 Y s 1626 720 m 13 X s 1633 707 m -13 Y s 1626 694 m 13 X s 1651 756 m -9 X s 1642 749 m 13 Y s 1651 756 m 9 X s
 1660 749 m 13 Y s 1651 756 m 13 Y s 1644 769 m 13 X s 1651 756 m -13 Y s 1644 743 m 13 X s 1669 784 m -9 X s 1660 777 m 13 Y s 1669 784 m 9 X s 1678 777 m 13 Y s 1669 784 m 14 Y s 1663 798 m 13 X s 1669 784 m -14 Y s 1663 770 m 13 X s 1687 891 m -9
 X s 1678 884 m 13 Y s 1687 891 m 9 X s 1696 884 m 13 Y s 1687 891 m 15 Y s 1681 906 m 13 X s 1687 891 m -15 Y s 1681 876 m 13 X s 1705 942 m -9 X s 1696 936 m 13 Y s 1705 942 m 9 X s 1714 936 m 13 Y s 1705 942 m 16 Y s 1699 958 m 13 X s 1705 942 m
 -15 Y s 1699 927 m 13 X s 1723 1065 m -9 X s 1714 1059 m 13 Y s 1723 1065 m 10 X s 1733 1059 m 13 Y s 1723 1065 m 17 Y s 1717 1082 m 13 X s 1723 1065 m -16 Y s 1717 1049 m 13 X s 1742 1161 m -9 X s 1733 1154 m 13 Y s 1742 1161 m 9 X s 1751 1154 m 13
 Y s 1742 1161 m 17 Y s 1735 1178 m 13 X s 1742 1161 m -17 Y s 1735 1144 m 13 X s 1760 1256 m -9 X s 1751 1250 m 13 Y s 1760 1256 m 9 X s 1769 1250 m 13 Y s 1760 1256 m 19 Y s 1753 1275 m 13 X s 1760 1256 m -18 Y s 1753 1238 m 13 X s 1778 1288 m -9 X
 s 1769 1281 m 13 Y s 1778 1288 m 9 X s 1787 1281 m 13 Y s 1778 1288 m 18 Y s 1771 1306 m 13 X s 1778 1288 m -19 Y s 1771 1269 m 13 X s 1796 1300 m -9 X s 1787 1294 m 13 Y s 1796 1300 m 9 X s 1805 1294 m 13 Y s 1796 1300 m 19 Y s 1790 1319 m 13 X s
 1796 1300 m -18 Y s 1790 1282 m 13 X s 1814 1286 m -9 X s 1805 1280 m 13 Y s 1814 1286 m 9 X s 1823 1280 m 13 Y s 1814 1286 m 19 Y s 1808 1305 m 13 X s 1814 1286 m -18 Y s 1808 1268 m 13 X s 1832 1249 m -9 X s 1823 1243 m 13 Y s 1832 1249 m 9 X s
 1841 1243 m 13 Y s 1832 1249 m 18 Y s 1826 1267 m 13 X s 1832 1249 m -18 Y s 1826 1231 m 13 X s 1850 1181 m -9 X s 1841 1175 m 13 Y s 1850 1181 m 10 X s 1860 1175 m 13 Y s 1850 1181 m 18 Y s 1844 1199 m 13 X s 1850 1181 m -17 Y s 1844 1164 m 13 X s
 1869 1068 m -9 X s 1860 1061 m 13 Y s 1869 1068 m 9 X s 1878 1061 m 13 Y s 1869 1068 m 16 Y s 1862 1084 m 13 X s 1869 1068 m -17 Y s 1862 1051 m 13 X s 1887 977 m -9 X s 1878 970 m 13 Y s 1887 977 m 9 X s 1896 970 m 13 Y s 1887 977 m 16 Y s 1880 993
 m 13 X s 1887 977 m -16 Y s 1880 961 m 13 X s 1905 917 m -9 X s 1896 910 m 13 Y s 1905 917 m 9 X s 1914 910 m 13 Y s 1905 917 m 15 Y s 1898 932 m 13 X s 1905 917 m -15 Y s 1898 902 m 13 X s 1923 830 m -9 X s 1914 823 m 13 Y s 1923 830 m 9 X s 1932
 823 m 13 Y s 1923 830 m 14 Y s 1917 844 m 13 X s 1923 830 m -14 Y s 1917 816 m 13 X s 1941 743 m -9 X s 1932 736 m 13 Y s 1941 743 m 9 X s 1950 736 m 13 Y s 1941 743 m 13 Y s 1935 756 m 13 X s 1941 743 m -13 Y s 1935 730 m 13 X s 1959 694 m -9 X s
 1950 688 m 13 Y s 1959 694 m 9 X s 1968 688 m 13 Y s 1959 694 m 13 Y s 1953 707 m 13 X s 1959 694 m -12 Y s 1953 682 m 13 X s 1977 614 m -9 X s 1968 607 m 13 Y s 1977 614 m 10 X s 1987 607 m 13 Y s 1977 614 m 12 Y s 1971 626 m 13 X s 1977 614 m -12
 Y s 1971 602 m 13 X s 1996 532 m -9 X s 1987 525 m 13 Y s 1996 532 m 9 X s 2005 525 m 13 Y s 1996 532 m 10 Y s 1989 542 m 13 X s 1996 532 m -11 Y s 1989 521 m 13 X s 2014 431 m -9 X s 2005 424 m 13 Y s 2014 431 m 9 X s 2023 424 m 13 Y s 2014 431 m 9
 Y s 2007 440 m 13 X s 2014 431 m -9 Y s 2007 422 m 13 X s 2032 341 m -9 X s 2023 335 m 13 Y s 2032 341 m 9 X s 2041 335 m 13 Y s 2032 341 m 8 Y s 2025 349 m 13 X s 2032 341 m -7 Y s 2025 334 m 13 X s 1 1 1 c black /w 26 def /w2 {w 2 div} def /w3 {w
 3 div} def 236 216 254 204 272 208 290 210 308 212 327 214 345 213 363 212 381 213 399 209 417 208 435 215 454 214 472 222 490 218 508 219 526 220 544 218 562 213 581 213 599 220 617 228 635 235 653 227 671 233 689 220 708 235 726 227 744 226 762
 230 780 232 798 235 816 250 835 231 853 236 871 247 889 241 907 234 925 244 943 252 962 257 980 257 998 252 1016 262 1034 257 1052 266 1070 259 1089 264 1107 272 1125 279 1143 275 1161 283 1179 293 1197 294 1215 304 1234 313 1252 324 1270 314 1288
 333 1306 337 1324 351 1342 372 1361 373 1379 384 1397 410 1415 437 1433 437 1451 449 1469 477 1488 500 1506 500 1524 526 1542 532 1560 563 1578 605 1596 655 1615 650 1633 707 1651 756 1669 784 1687 891 1705 942 1723 1065 1742 1161 1760 1256 1778
 1288 1796 1300 1814 1286 1832 1249 1850 1181 1869 1068 1887 977 1905 917 1923 830 1941 743 1959 694 1977 614 1996 532 2014 431 2032 341 100 { m20} R 227 153 m 1814 X s 227 190 m -37 Y s 279 171 m -18 Y s 330 171 m -18 Y s 382 171 m -18 Y s 434 171 m
 -18 Y s 486 190 m -37 Y s 538 171 m -18 Y s 590 171 m -18 Y s 641 171 m -18 Y s 693 171 m -18 Y s 745 190 m -37 Y s 797 171 m -18 Y s 849 171 m -18 Y s 901 171 m -18 Y s 952 171 m -18 Y s 1004 190 m -37 Y s 1056 171 m -18 Y s 1108 171 m -18 Y s 1160
 171 m -18 Y s 1212 171 m -18 Y s 1263 190 m -37 Y s 1315 171 m -18 Y s 1367 171 m -18 Y s 1419 171 m -18 Y s 1471 171 m -18 Y s 1523 190 m -37 Y s 1574 171 m -18 Y s 1626 171 m -18 Y s 1678 171 m -18 Y s 1730 171 m -18 Y s 1782 190 m -37 Y s 1834
 171 m -18 Y s 1885 171 m -18 Y s 1937 171 m -18 Y s 1989 171 m -18 Y s 2041 190 m -37 Y s 227 153 m 1224 Y s 281 153 m -54 X s 254 183 m -27 X s 254 212 m -27 X s 254 242 m -27 X s 254 271 m -27 X s 281 301 m -54 X s 254 330 m -27 X s 254 360 m -27
 X s 254 390 m -27 X s 254 419 m -27 X s 281 449 m -54 X s 254 478 m -27 X s 254 508 m -27 X s 254 537 m -27 X s 254 567 m -27 X s 281 596 m -54 X s 254 626 m -27 X s 254 656 m -27 X s 254 685 m -27 X s 254 715 m -27 X s 281 744 m -54 X s 254 774 m
 -27 X s 254 803 m -27 X s 254 833 m -27 X s 254 863 m -27 X s 281 892 m -54 X s 254 922 m -27 X s 254 951 m -27 X s 254 981 m -27 X s 254 1010 m -27 X s 281 1040 m -54 X s 254 1069 m -27 X s 254 1099 m -27 X s 254 1129 m -27 X s 254 1158 m -27 X s
 281 1188 m -54 X s 254 1217 m -27 X s 254 1247 m -27 X s 254 1276 m -27 X s 254 1306 m -27 X s 281 1336 m -54 X s 281 1336 m -54 X s 254 1365 m -27 X s
 gr  gr showpage
end
%%EOF
