%!PS-Adobe-2.0 EPSF-2.0
%%BoundingBox: 0 0 567 709
%%Title: dr_dz.eps
%%Creator: HIGZ Version 1.23/07
%%CreationDate: :0/03/08   14.20
%%EndComments
%%BeginProlog
80 dict begin
/s {stroke} def /l {lineto} def /m {moveto} def /t {translate} def
/sw {stringwidth} def /r {rotate} def /rl {roll}  def /R {repeat} def
/d {rlineto} def /rm {rmoveto} def /gr {grestore} def /f {eofill} def
/c {setrgbcolor} def /lw {setlinewidth} def /sd {setdash} def
/cl {closepath} def /sf {scalefont setfont} def /black {0 setgray} def
/box {m dup 0 exch d exch 0 d 0 exch neg d cl} def
/NC{systemdict begin initclip end}def/C{NC box clip newpath}def
/bl {box s} def /bf {box f} def /Y { 0 exch d} def /X { 0 d} def 
/mp {newpath /y exch def /x exch def} def
/side {[w .77 mul w .23 mul] .385 w mul sd w 0 l currentpoint t -144 r} def
/mr {mp x y w2 0 360 arc} def /m24 {mr s} def /m20 {mr f} def
/mb {mp x y w2 add m w2 neg 0 d 0 w neg d w 0 d 0 w d cl} def
/mt {mp x y w2 add m w2 neg w neg d w 0 d cl} def
/m21 {mb f} def /m25 {mb s} def /m22 {mt f} def /m26 {mt s} def
/m23 {mp x y w2 sub m w2 w d w neg 0 d cl f} def
/m27 {mp x y w2 add m w3 neg w2 neg d w3 w2 neg d w3  w2 d cl s} def
/m28 {mp x w2 sub y w2 sub w3 add m w3 0 d 0 w3 neg d w3 0 d 0 w3 d w3 0 d
 0 w3 d w3 neg 0 d 0 w3 d w3 neg 0 d
 0 w3 neg d w3 neg 0 d cl s } def
/m29 {mp gsave x w2 sub y w2 add w3 sub m currentpoint t
 4 {side} repeat cl fill gr} def
/m30 {mp gsave x w2 sub y w2 add w3 sub m currentpoint t
 5 {side} repeat s gr} def
/m31 {mp x y w2 sub m 0 w d x w2 sub y m w 0 d
 x w2 sub y w2 add m w w neg d x w2 sub y w2
 sub m w w d s} def
/m2 {mp x y w2 sub m 0 w d x w2 sub y m w 0 d s} def
/m5 {mp x w2 sub y w2 sub m w w d x w2 sub y w2 add m w w neg d s} def
/DP {/PT exch def gsave 47.2 47.2 scale PT 1  eq { 16 16 1 [ 16 0 0 16 neg 0 16
] { < AA AA 55 55 AA AA 55 55 AA AA 55 55 AA AA 55 55 AA AA 55 55 AA AA 55 55
AA AA 55 55 AA AA 55 55 > } image } if PT 2 eq { 16 16 1 [ 16 0 0 16 neg 0 16
] { < BB BB EE EE BB BB EE EE BB BB EE EE BB BB EE EE BB BB EE EE BB BB EE EE
BB BB EE EE BB BB EE EE > } image } if PT 3 eq { 16 16 1 [ 16 0 0 16 neg 0 16
] { < FF FF BB BB FF FF EE EE FF FF BB BB FF FF EE EE FF FF BB BB FF FF EE EE
FF FF BB BB FF FF EE EE > } image } if PT 4 eq { 16 16 1 [ 16 0 0 16 neg 0 16
] { < DF DF BF BF 7F 7F FE FE FD FD FB FB F7 F7 EF EF DF DF BF BF 7F 7F FE FE
FD FD FB FB F7 F7 EF EF > } image } if PT 5 eq { 16 16 1 [ 16 0 0 16 neg 0 16
] { < 7F 7F BF B F DF DF EF EF F7 F7 FB FB FD FD FE FE 7F 7F BF BF DF DF EF
EF F7 F7 FB FB FD FD FE FE > } image } if PT 6 eq { 16 16 1 [ 16 0 0 16 neg 0
16 ] { < BB BB BB BB BB BB BB BB BB BB BB BB BB BB BB BB BB BB BB BB BB BB BB
BB BB BB BB BB BB BB BB BB > } image } if PT 7 eq { 16 16 1 [ 16 0 0 16 neg 0
16 ] { < FF FF FF FF FF FF 00 00 FF FF FF FF FF FF 00 00 FF FF FF FF FF FF 00
00 FF FF FF FF FF FF 00 00 > } image } if PT 8 eq { 16 16 1 [ 16 0 0 16 neg 0
16 ] { < EE EE 47 47 83 83 C5 C5 EE EE 5C 5C 38 38 74 74 EE EE 47 47 83 83 C5
C5 EE EE 5C 5C 38 38 74 74 > } image } if PT 9 eq { 16 16 1 [ 16 0 0 16 neg 0
16 ] { < EF EF EF EF D7 D7 38 38 FE FE FE FE 7D 7D 83 83 EF EF EF EF D7 D7 38
38  FE FE FE FE 7D 7D 83 83 > } image } if PT 10 eq { 16 16 1 [ 16 0 0 16 neg
0 16 ] { <  EF EF EF EF EF EF 00 00 FE FE FE FE FE FE 00 00 EF EF EF EF EF EF
00 00 FE FE FE FE FE FE 00 00 > } image } if PT 11 eq { 16 16 1 [ 16 0 0 16
neg 0 16 ] { < F7 F7 B6 B6 D5 D5 E3 E3 D5 D5 B6 B6 F7 F7 FF FF 7F 7F 6B 6B 5D
5D 3E 3E 5D 5D 6B 6B 7F 7F FF FF > } image } if PT 12 eq { 16 16 1 [ 16 0 0
16 neg 0 16 ] { < E3 E3 DD DD BE BE BE BE BE BE DD DD E3 E3 FF FF 3E 3E DD DD
EB EB EB EB EB EB DD DD 3E 3E FF FF > } image } if PT 13 eq { 16 16 1 [ 16 0
0 16 neg 0 16 ] { <  FE FE 7D 7D BB BB D7 D7 EF EF D7 D7 BB BB 7D 7D FE FE 7D
7D BB BB D7 D7 EF EF D7 D7 BB BB 7D 7D > } image } if PT 14 eq { 16 16 1 [ 16
0 0 16 neg 0 16 ] { < 00 00 EE EF EE EF EE EF 0E E0 EE EE EE EE EE EE 00 EE
FE EE FE EE FE EE 00 00 FE EF FE EF FE EF > } image } if PT 15 eq { 16 16 1 [
16 0 0 16 neg 0 16 ] { < DD DD AA AA DD DD FF FF 77 77 AA AA 77 77 FF FF DD
DD AA AA DD DD FF FF 77 77 AA AA 77 77 FF FF > } image } if PT 16 eq { 16 16
1 [ 16 0 0 16 neg 0 16 ] { <  F1 F1 EE EE 1F 1F FF FF F1 F1 EE EE 1F 1F FF FF
F1 F1 EE EE 1F 1F FF FF F1 F1 EE EE 1F 1F FF FF > } image } if PT 17 eq { 16
16 1 [ 16 0 0 16 neg 0 16 ] { <  EE EE DD DD BB BB FF FF EE EE DD DD BB BB FF
 FF EE EE DD DD BB BB FF FF EE EE DD DD BB BB FF FF > } image } if PT 18 eq {
16 16 1 [ 16 0 0 16 neg 0 16 ] { <  BB BB DD DD EE EE FF FF BB BB DD DD EE EE
FF FF BB BB DD DD EE EE FF FF BB BB DD DD EE EE FF FF > } image } if PT 19 eq
{ 16 16 1 [ 16 0 0 16 neg 0 16 ] { < 1F FC 67 F3 7B EF BD DE BD DE DE BD E6
B3 F8 0F E6 B3 DE BD BD DE BD DE 7B EF 67 F3 1F FC 7F FF > } image } if PT
20 eq { 16 16 1 [ 16 0 0 16 neg 0 16 ] { < DD DD EE EE EE EE EE EE DD DD BB
BB BB BB BB BB DD DD EE EE EE EE EE EE DD DD BB BB BB BB BB BB > } image }
if PT 21 eq { 16 16 1 [ 16 0 0 16 neg 0 16 ] { < 0E 0E EF EF EF EF EF EF E0
E0 FE FE FE FE FE FE 0E 0E EF EF EF EF EF EF E0 E0 FE FE FE FE FE FE > }
image }  if PT 22 eq { 16 16 1 [ 16 0 0 16 neg 0 16 ] { < 70 70 F7 F7 F7 F7 F7
F7 07 07 7F 7F 7F 7F 7F 7F 70 70 F7 F7 F7 F7 F7 F7 07 07 7F 7F 7F 7F 7F 7F >
} image } if PT 23 eq  { 16 16 1 [ 16 0 0 16 neg 0 16 ] { < AA AA 55 55 A9 A9
D1 D1 E1 E1 D1 D1 A9 A9 55 55 AA AA 55 55 A9 A9 D1 D1 E1 E1 D1 D1 A9 A9 55 55
> } image } if PT 24 eq { 16 16 1 [ 16 0 0 16 neg 0 16 ] { < FF FE FF FC EA
A8 D5 54 EA A8 D5 54 E8 28 D4 54 E8 E8 D4 D4 E8 EA 54 D5 A8 EA 54 D5 00 C0 00
80 > } image } if PT 25 eq {  16 16 1 [ 16 0 0 16 neg 0 16 ] { < FF FE FF FC
FF F8 FF F0 F0 00 F0 00 F0 20 F0 60 F0 E0 F1 E0 F3 E0 F0 00 E0 00 C0 00 80 00
00 00 > } image } if gr } def /FA { /PT exch def gsave clip 0 0 translate 1 1
54 { 1 sub 47.2 mul /Xcurr exch def 1 1 74 { 1 sub 47.2 mul /Ycurr exch def
gsave Xcurr Ycurr translate PT DP gr } for } for gr } def
/reencdict 24 dict def /ReEncode {reencdict begin /nco&na exch def
/nfnam exch def /basefontname exch def /basefontdict basefontname findfont def
/newfont basefontdict maxlength dict def basefontdict {exch dup /FID ne
{dup /Encoding eq {exch dup length array copy newfont 3 1 roll put} {exch
newfont 3 1 roll put} ifelse} {pop pop} ifelse } forall newfont
/FontName nfnam put nco&na aload pop nco&na length 2 idiv {newfont
/Encoding get 3 1 roll put} repeat nfnam newfont definefont pop end } def
/accvec [ 176 /agrave 181 /Agrave 190 /acircumflex 192 /Acircumflex
201 /adieresis 204 /Adieresis 209 /ccedilla 210 /Ccedilla 211 /eacute
212 /Eacute 213 /egrave 214 /Egrave 215 /ecircumflex 216 /Ecircumflex
217 /edieresis 218 /Edieresis 219 /icircumflex 220 /Icircumflex
221 /idieresis 222 /Idieresis 223 /ntilde 224 /Ntilde 226 /ocircumflex
228 /Ocircumflex 229 /odieresis 230 /Odieresis 231 /ucircumflex 236 /Ucircumflex
237 /udieresis 238 /Udieresis 239 /aring 242 /Aring 243 /ydieresis
244 /Ydieresis 246 /aacute 247 /Aacute 252 /ugrave 253 /Ugrave] def
/Times-Roman /Times-Roman accvec ReEncode
/Times-Italic /Times-Italic accvec ReEncode
/Times-Bold /Times-Bold accvec ReEncode
/Times-BoldItalic /Times-BoldItalic accvec ReEncode
/Helvetica /Helvetica accvec ReEncode
/Helvetica-Oblique /Helvetica-Oblique accvec ReEncode
/Helvetica-Bold /Helvetica-Bold accvec ReEncode
/Helvetica-BoldOblique /Helvetica-BoldOblique  accvec ReEncode
/Courier /Courier accvec ReEncode
/Courier-Oblique /Courier-Oblique accvec ReEncode
/Courier-Bold /Courier-Bold accvec ReEncode
/Courier-BoldOblique /Courier-BoldOblique accvec ReEncode
/oshow {gsave [] 0 sd true charpath stroke gr} def
/stwn { /fs exch def /fn exch def /text exch def fn findfont fs sf
 text sw pop xs add /xs exch def} def
/stwb { /fs exch def /fn exch def /nbas exch def /textf exch def
textf length /tlen exch def nbas tlen gt {/nbas tlen def} if
fn findfont fs sf textf dup length nbas sub nbas getinterval sw
pop neg xs add /xs exch def} def
/accspe [ 65 /plusminus 66 /bar 67 /existential 68 /universal
69 /exclam 70 /numbersign 71 /greater 72 /question 73 /integral
74 /colon 75 /semicolon 76 /less 77 /bracketleft 78 /bracketright
79 /greaterequal 80 /braceleft 81 /braceright 82 /radical
83 /spade 84 /heart 85 /diamond 86 /club 87 /lessequal
88 /multiply 89 /percent 90 /infinity 48 /circlemultiply 49 /circleplus
50 /emptyset 51 /lozenge 52 /bullet 53 /arrowright 54 /arrowup
55 /arrowleft 56 /arrowdown 57 /arrowboth 48 /degree 44 /comma 43 /plus
 45 /angle 42 /angleleft 47 /divide 61 /notequal 40 /equivalence 41 /second
 97 /approxequal 98 /congruent 99 /perpendicular 100 /partialdiff 101 /florin
 102 /intersection 103 /union 104 /propersuperset 105 /reflexsuperset
 106 /notsubset 107 /propersubset 108 /reflexsubset 109 /element 110 /notelement
 111 /gradient 112 /logicaland 113 /logicalor 114 /arrowdblboth
 115 /arrowdblleft 116 /arrowdblup 117 /arrowdblright 118 /arrowdbldown
 119 /ampersand 120 /omega1 121 /similar 122 /aleph ] def
/Symbol /Special accspe ReEncode
%%EndProlog
 gsave  .25 .25 scale  gsave 0 0 t black [] 0 sd 1 lw 1837 1078 318 1531 bl 1837
 1078 318 1531 C 5 lw 318 1531 m 10 Y 18 X 1 Y 18 X 5 Y 37 X 2 Y 19 X 1 Y 18 X 3
 Y 18 X 3 Y 19 X -1 Y 18 X 4 Y 18 X 2 Y 19 X 3 Y 37 X 1 Y 18 X 2 Y 18 X 1 Y 19 X
 7 Y 18 X 1 Y 18 X 2 Y 19 X 10 Y 18 X 4 Y 19 X 12 Y 18 X 9 Y 18 X 14 Y 19 X 18 Y
 18 X 25 Y 18 X 29 Y 19 X 36 Y 18 X 25 Y 19 X 31 Y 18 X 11 Y 18 X -3 Y 19 X -3 Y
 18 X -12 Y 18 X -8 Y 19 X -10 Y 18 X -2 Y 19 X -8 Y 18 X -8 Y 18 X 2 Y 19 X 2 Y
 18 X -1 Y 18 X -1 Y 19 X 8 Y 18 X 9 Y 19 X 7 Y 18 X 23 Y 18 X 56 Y 19 X 179 Y
 18 X 444 Y 18 X 25 Y 19 X -452 Y 18 X -202 Y 19 X -51 Y 18 X -23 Y 18 X -16 Y
 19 X -10 Y 18 X 7 Y 19 X -8 Y 18 X 5 Y 18 X -2 Y 19 X -6 Y 18 X 11 Y 18 X -1 Y
 19 X 13 Y 18 X 3 Y 19 X 4 Y 18 X 16 Y 18 X 11 Y 19 X 13 Y 18 X -7 Y 18 X -22 Y
 19 X -24 Y 18 X -23 Y 19 X -40 Y 18 X -27 Y 18 X -20 Y 19 X -17 Y 18 X -15 Y 18
 X -15 Y 19 X -2 Y 18 X -7 Y 19 X -6 Y 18 X -5 Y 18 X -7 Y 19 X -3 Y 18 X -4 Y
 18 X -3 Y 19 X -2 Y 18 X -1 Y 19 X -2 Y 18 X -4 Y 37 X 1 Y 18 X -4 Y 18 X -2 Y
 37 X -4 Y 19 X -3 Y 18 X -3 Y 18 X -11 Y s NC 1 lw 318 1531 m 1078 Y s 352 1531
 m -34 X s 335 1555 m -17 X s 335 1579 m -17 X s 335 1603 m -17 X s 335 1626 m
 -17 X s 352 1650 m -34 X s 335 1674 m -17 X s 335 1698 m -17 X s 335 1721 m -17
 X s 335 1745 m -17 X s 352 1769 m -34 X s 335 1793 m -17 X s 335 1816 m -17 X s
 335 1840 m -17 X s 335 1864 m -17 X s 352 1888 m -34 X s 335 1911 m -17 X s 335
 1935 m -17 X s 335 1959 m -17 X s 335 1982 m -17 X s 352 2006 m -34 X s 335
 2030 m -17 X s 335 2054 m -17 X s 335 2077 m -17 X s 335 2101 m -17 X s 352
 2125 m -34 X s 335 2149 m -17 X s 335 2172 m -17 X s 335 2196 m -17 X s 335
 2220 m -17 X s 352 2244 m -34 X s 335 2267 m -17 X s 335 2291 m -17 X s 335
 2315 m -17 X s 335 2339 m -17 X s 352 2362 m -34 X s 335 2386 m -17 X s 335
 2410 m -17 X s 335 2434 m -17 X s 335 2457 m -17 X s 352 2481 m -34 X s 335
 2505 m -17 X s 335 2529 m -17 X s 335 2552 m -17 X s 335 2576 m -17 X s 352
 2600 m -34 X s 352 2600 m -34 X s
 /xs 0 def 
(0)
 /Times-Italic     69 stwn 
 gsave  272 1509
 t   0 r  xs neg 0 t 0 0 m
 /Times-Italic findfont   69 sf 0    0 m 
(0)
 show 
 gr 
 /xs 0 def 
(2500)
 /Times-Italic     69 stwn 
 gsave  272 1627
 t   0 r  xs neg 0 t 0 0 m
 /Times-Italic findfont   69 sf 0    0 m 
(2500)
 show 
 gr 
 /xs 0 def 
(5000)
 /Times-Italic     69 stwn 
 gsave  272 1746
 t   0 r  xs neg 0 t 0 0 m
 /Times-Italic findfont   69 sf 0    0 m 
(5000)
 show 
 gr 
 /xs 0 def 
(7500)
 /Times-Italic     69 stwn 
 gsave  272 1865
 t   0 r  xs neg 0 t 0 0 m
 /Times-Italic findfont   69 sf 0    0 m 
(7500)
 show 
 gr 
 /xs 0 def 
(10000)
 /Times-Italic     69 stwn 
 gsave  272 1984
 t   0 r  xs neg 0 t 0 0 m
 /Times-Italic findfont   69 sf 0    0 m 
(10000)
 show 
 gr 
 /xs 0 def 
(12500)
 /Times-Italic     69 stwn 
 gsave  272 2102
 t   0 r  xs neg 0 t 0 0 m
 /Times-Italic findfont   69 sf 0    0 m 
(12500)
 show 
 gr 
 /xs 0 def 
(15000)
 /Times-Italic     69 stwn 
 gsave  272 2221
 t   0 r  xs neg 0 t 0 0 m
 /Times-Italic findfont   69 sf 0    0 m 
(15000)
 show 
 gr 
 /xs 0 def 
(17500)
 /Times-Italic     69 stwn 
 gsave  272 2340
 t   0 r  xs neg 0 t 0 0 m
 /Times-Italic findfont   69 sf 0    0 m 
(17500)
 show 
 gr 
 /xs 0 def 
(20000)
 /Times-Italic     69 stwn 
 gsave  272 2458
 t   0 r  xs neg 0 t 0 0 m
 /Times-Italic findfont   69 sf 0    0 m 
(20000)
 show 
 gr 
 /xs 0 def 
(22500)
 /Times-Italic     69 stwn 
 gsave  272 2577
 t   0 r  xs neg 0 t 0 0 m
 /Times-Italic findfont   69 sf 0    0 m 
(22500)
 show 
 gr  318 1531 m 1837 X s 318 1565 m -34 Y s 354 1548 m -17 Y s 391 1548 m -17 Y
 s 428 1548 m -17 Y s 465 1548 m -17 Y s 501 1565 m -34 Y s 538 1548 m -17 Y s
 575 1548 m -17 Y s 612 1548 m -17 Y s 648 1548 m -17 Y s 685 1565 m -34 Y s 722
 1548 m -17 Y s 759 1548 m -17 Y s 795 1548 m -17 Y s 832 1548 m -17 Y s 869
 1565 m -34 Y s 906 1548 m -17 Y s 942 1548 m -17 Y s 979 1548 m -17 Y s 1016
 1548 m -17 Y s 1053 1565 m -34 Y s 1089 1548 m -17 Y s 1126 1548 m -17 Y s 1163
 1548 m -17 Y s 1200 1548 m -17 Y s 1236 1565 m -34 Y s 1273 1548 m -17 Y s 1310
 1548 m -17 Y s 1347 1548 m -17 Y s 1384 1548 m -17 Y s 1420 1565 m -34 Y s 1457
 1548 m -17 Y s 1494 1548 m -17 Y s 1531 1548 m -17 Y s 1567 1548 m -17 Y s 1604
 1565 m -34 Y s 1641 1548 m -17 Y s 1678 1548 m -17 Y s 1714 1548 m -17 Y s 1751
 1548 m -17 Y s 1788 1565 m -34 Y s 1825 1548 m -17 Y s 1861 1548 m -17 Y s 1898
 1548 m -17 Y s 1935 1548 m -17 Y s 1972 1565 m -34 Y s 2008 1548 m -17 Y s 2045
 1548 m -17 Y s 2082 1548 m -17 Y s 2119 1548 m -17 Y s 2155 1565 m -34 Y s
 /xs 0 def 
(-5)
 /Times-Italic     69 stwn 
 gsave  318 1463
 t   0 r  xs 2 div neg 0 t 0 0 m
 /Times-Italic findfont   69 sf 0    0 m 
(-5)
 show 
 gr 
 /xs 0 def 
(-4)
 /Times-Italic     69 stwn 
 gsave  501 1463
 t   0 r  xs 2 div neg 0 t 0 0 m
 /Times-Italic findfont   69 sf 0    0 m 
(-4)
 show 
 gr 
 /xs 0 def 
(-3)
 /Times-Italic     69 stwn 
 gsave  685 1463
 t   0 r  xs 2 div neg 0 t 0 0 m
 /Times-Italic findfont   69 sf 0    0 m 
(-3)
 show 
 gr 
 /xs 0 def 
(-2)
 /Times-Italic     69 stwn 
 gsave  869 1463
 t   0 r  xs 2 div neg 0 t 0 0 m
 /Times-Italic findfont   69 sf 0    0 m 
(-2)
 show 
 gr 
 /xs 0 def 
(-1)
 /Times-Italic     69 stwn 
 gsave  1053 1463
 t   0 r  xs 2 div neg 0 t 0 0 m
 /Times-Italic findfont   69 sf 0    0 m 
(-1)
 show 
 gr 
 /xs 0 def 
(0)
 /Times-Italic     69 stwn 
 gsave  1236 1463
 t   0 r  xs 2 div neg 0 t 0 0 m
 /Times-Italic findfont   69 sf 0    0 m 
(0)
 show 
 gr 
 /xs 0 def 
(1)
 /Times-Italic     69 stwn 
 gsave  1420 1463
 t   0 r  xs 2 div neg 0 t 0 0 m
 /Times-Italic findfont   69 sf 0    0 m 
(1)
 show 
 gr 
 /xs 0 def 
(2)
 /Times-Italic     69 stwn 
 gsave  1604 1463
 t   0 r  xs 2 div neg 0 t 0 0 m
 /Times-Italic findfont   69 sf 0    0 m 
(2)
 show 
 gr 
 /xs 0 def 
(3)
 /Times-Italic     69 stwn 
 gsave  1788 1463
 t   0 r  xs 2 div neg 0 t 0 0 m
 /Times-Italic findfont   69 sf 0    0 m 
(3)
 show 
 gr 
 /xs 0 def 
(4)
 /Times-Italic     69 stwn 
 gsave  1972 1463
 t   0 r  xs 2 div neg 0 t 0 0 m
 /Times-Italic findfont   69 sf 0    0 m 
(4)
 show 
 gr 
 /xs 0 def 
(5)
 /Times-Italic     69 stwn 
 gsave  2155 1463
 t   0 r  xs 2 div neg 0 t 0 0 m
 /Times-Italic findfont   69 sf 0    0 m 
(5)
 show 
 gr  1837 1078 318 1531 C 2836 2836 -284 0 C 1218 1589 m -21 -58 d s 1218 1663 m
 -48 -132 d s 1218 1738 m -75 -207 d s 1218 1812 m -18 -50 d s 1191 1739 m -10
 -27 d s 1180 1708 m -64 -177 d s 1147 1692 m -2 -7 d s 1143 1682 m -54 -151 d s
 1112 1671 m -51 -140 d s 1080 1658 m -46 -127 d s 1050 1649 m -43 -118 d s 1021
 1643 m -41 -112 d s 991 1638 m -38 -107 d s 962 1631 m -36 -100 d s 935 1632 m
 -36 -101 d s 906 1628 m -2 Y s 905 1624 m -34 -93 d s 875 1617 m -31 -86 d s
 841 1597 m -24 -66 d s 808 1580 m -18 -49 d s 774 1562 m -11 -31 d s 745 1558 m
 -9 -27 d s 716 1552 m -8 -21 d s 688 1550 m -7 -19 d s 660 1547 m -6 -16 d s
 632 1545 m -5 -14 d s 604 1544 m -4 -13 d s 577 1544 m -4 -13 d s 549 1542 m -4
 -11 d s 523 1543 m -5 -12 d s 495 1542 m -4 -11 d s 467 1540 m -3 -9 d s 439
 1539 m -2 -8 d s 412 1537 m -2 -6 d s 384 1536 m -2 -5 d s 357 1535 m -2 -4 d s
 329 1535 m -1 -4 d s 1837 1078 318 1531 C 5 lw 318 1531 m 4 Y 18 X -1 Y 18 X 1
 Y 19 X 1 Y 18 X 2 Y 19 X -1 Y 18 X 2 Y 18 X 1 Y 37 X 2 Y 37 X 1 Y 18 X -1 Y 19
 X 1 Y 18 X 1 Y 37 X 1 Y 36 X 2 Y 19 X 2 Y 18 X 1 Y 19 X 2 Y 18 X 3 Y 18 X 3 Y
 19 X 4 Y 18 X 8 Y 18 X 10 Y 19 X 6 Y 18 X 11 Y 19 X 10 Y 18 X 10 Y 18 X 7 Y 19
 X 4 Y 18 X 4 Y 18 X -2 Y 19 X 1 Y 18 X 7 Y 19 X 2 Y 18 X 3 Y 18 X 6 Y 19 X 6 Y
 18 X 3 Y 18 X 5 Y 19 X 8 Y 18 X 11 Y 19 X 10 Y 18 X 16 Y 18 X 31 Y 19 X 84 Y 18
 X s 2836 2836 -284 0 C 1 lw 2096 1537 m -2 -6 d s 2069 1538 m -3 -7 d s 2042
 1539 m -3 -8 d s 2015 1538 m -3 -7 d s 1988 1540 m -3 -9 d s 1961 1541 m -3 -10
 d s 1934 1542 m -3 -11 d s 1908 1543 m -4 -12 d s 1881 1544 m -5 -13 d s 1854
 1545 m -5 -14 d s 1828 1547 m -6 -16 d s 1802 1550 m -7 -19 d s 1775 1550 m -7
 -19 d s 1749 1556 m -8 -25 d s 1724 1561 m -11 -30 d s 1698 1563 m -12 -32 d s
 1677 1579 m -18 -48 d s 1652 1588 m -20 -57 d s 1628 1595 m -23 -64 d s 1604
 1604 m -26 -73 d s 1582 1617 m -32 -86 d s 1555 1619 m -32 -88 d s 1530 1625 m
 -34 -94 d s 1504 1629 m -35 -98 d s 1477 1627 m -35 -96 d s 1452 1634 m -37
 -103 d s 1428 1643 m -41 -112 d s 1403 1650 m -43 -119 d s 1380 1661 m -47 -130
 d s 1354 1664 m -48 -133 d s 1330 1672 m -51 -141 d s 1310 1692 m -58 -161 d s
 1292 1716 m -68 -185 d s 1273 1740 m -55 -151 d s 1273 1815 m -55 -152 d s 1255
 1839 m -37 -101 d s 1255 1913 m -37 -101 d s 1255 1988 m -37 -101 d s 1255 2063
 m -37 -101 d s 1255 2137 m -37 -101 d s 1255 2212 m -37 -101 d s 1237 2238 m
 -19 -52 d s 1837 1078 318 1531 C 5 lw 1218 1823 m 416 Y 18 X -1 Y 19 X -419 Y
 18 X -86 Y 19 X -30 Y 18 X -14 Y 18 X -17 Y 19 X -8 Y 18 X -3 Y 19 X -6 Y 18 X
 -5 Y 18 X -7 Y 19 X -9 Y 18 X 1 Y 18 X -8 Y 19 X 2 Y 18 X -4 Y 19 X -5 Y 18 X
 -1 Y 18 X -2 Y 19 X -5 Y 18 X -11 Y 18 X -6 Y 19 X -7 Y 18 X -9 Y 19 X -9 Y 18
 X -7 Y 18 X -2 Y 19 X -5 Y 18 X -2 Y 18 X -4 Y 37 X -2 Y 19 X -1 Y 18 X -2 Y 18
 X -1 Y 37 X -1 Y 18 X -1 Y 19 X -1 Y 37 X -1 Y 36 X -2 Y 19 X 1 Y 18 X -1 Y 37
 X -1 Y 18 X -1 Y 19 X s 2836 2836 -284 0 C 1 lw 2149 1535 m -1 -4 d s 2122 1535
 m -1 -4 d s 1837 1078 318 1531 C 5 lw 2119 1536 m -1 Y 36 X s 2269 2836 0 0 C
 /xs 0 def 
(dr \(cm\))
 /Times-Italic     86 stwn 
 gsave  2155 1364
 t   0 r  xs neg 0 t 0 0 m
 /Times-Italic findfont   86 sf 0    0 m 
(dr \(cm\))
 show 
 gr 
 /xs 0 def 
(no. events / 0.1 cm)
 /Times-Italic     86 stwn 
 gsave  57 2609
 t  90 r  xs neg 0 t 0 0 m
 /Times-Italic findfont   86 sf 0    0 m 
(no. events / 0.1 cm)
 show 
 gr  1837 1078 318 1531 C NC 1 lw 1837 1078 318 227 bl 1837 1078 318 227 C 5 lw
 318 227 m 12 Y 18 X 1 Y 18 X 2 Y 19 X 1 Y 18 X 2 Y 37 X 5 Y 18 X -3 Y 19 X 2 Y
 18 X -1 Y 18 X 3 Y 19 X -2 Y 18 X 4 Y 37 X 4 Y 18 X -1 Y 19 X 2 Y 18 X 13 Y 18
 X 2 Y 19 X 6 Y 18 X 4 Y 19 X 2 Y 18 X 10 Y 18 X 7 Y 19 X 15 Y 18 X 15 Y 18 X 15
 Y 19 X 19 Y 18 X 23 Y 19 X 26 Y 18 X 30 Y 18 X 18 Y 19 X 23 Y 18 X 13 Y 18 X 8
 Y 19 X -2 Y 18 X -3 Y 19 X 13 Y 18 X 12 Y 18 X 16 Y 19 X 24 Y 18 X 18 Y 18 X 27
 Y 19 X -28 Y 18 X -31 Y 19 X -41 Y 18 X -13 Y 18 X 46 Y 19 X 189 Y 18 X 463 Y
 18 X -44 Y 19 X -450 Y 18 X -200 Y 19 X -62 Y 18 X -27 Y 18 X 3 Y 19 X -10 Y 18
 X 6 Y 37 X 9 Y 18 X 27 Y 19 X 27 Y 18 X 42 Y 18 X 38 Y 19 X -4 Y 18 X -8 Y 19 X
 1 Y 18 X -15 Y 18 X -2 Y 19 X 8 Y 18 X -14 Y 37 X -11 Y 18 X -20 Y 19 X -13 Y
 18 X -31 Y 18 X -2 Y 19 X -18 Y 18 X -18 Y 18 X -31 Y 19 X -20 Y 18 X -19 Y 19
 X -12 Y 18 X -10 Y 18 X -3 Y 19 X -15 Y 36 X -8 Y 19 X -4 Y 18 X -8 Y 19 X -1 Y
 18 X -3 Y 18 X -6 Y 19 X -6 Y 18 X 1 Y 18 X -6 Y 19 X -4 Y 18 X -2 Y 19 X -3 Y
 18 X -2 Y 18 X -20 Y s NC 1 lw 318 227 m 1078 Y s 352 227 m -34 X s 335 255 m
 -17 X s 335 284 m -17 X s 335 312 m -17 X s 352 341 m -34 X s 335 369 m -17 X s
 335 398 m -17 X s 335 426 m -17 X s 352 455 m -34 X s 335 484 m -17 X s 335 512
 m -17 X s 335 541 m -17 X s 352 569 m -34 X s 335 598 m -17 X s 335 626 m -17 X
 s 335 655 m -17 X s 352 683 m -34 X s 335 712 m -17 X s 335 740 m -17 X s 335
 769 m -17 X s 352 797 m -34 X s 335 826 m -17 X s 335 854 m -17 X s 335 883 m
 -17 X s 352 911 m -34 X s 335 940 m -17 X s 335 968 m -17 X s 335 997 m -17 X s
 352 1025 m -34 X s 335 1054 m -17 X s 335 1082 m -17 X s 335 1111 m -17 X s 352
 1139 m -34 X s 335 1168 m -17 X s 335 1196 m -17 X s 335 1225 m -17 X s 352
 1253 m -34 X s 352 1253 m -34 X s 335 1282 m -17 X s
 /xs 0 def 
(0)
 /Times-Italic     69 stwn 
 gsave  272 204
 t   0 r  xs neg 0 t 0 0 m
 /Times-Italic findfont   69 sf 0    0 m 
(0)
 show 
 gr 
 /xs 0 def 
(2000)
 /Times-Italic     69 stwn 
 gsave  272 318
 t   0 r  xs neg 0 t 0 0 m
 /Times-Italic findfont   69 sf 0    0 m 
(2000)
 show 
 gr 
 /xs 0 def 
(4000)
 /Times-Italic     69 stwn 
 gsave  272 432
 t   0 r  xs neg 0 t 0 0 m
 /Times-Italic findfont   69 sf 0    0 m 
(4000)
 show 
 gr 
 /xs 0 def 
(6000)
 /Times-Italic     69 stwn 
 gsave  272 546
 t   0 r  xs neg 0 t 0 0 m
 /Times-Italic findfont   69 sf 0    0 m 
(6000)
 show 
 gr 
 /xs 0 def 
(8000)
 /Times-Italic     69 stwn 
 gsave  272 660
 t   0 r  xs neg 0 t 0 0 m
 /Times-Italic findfont   69 sf 0    0 m 
(8000)
 show 
 gr 
 /xs 0 def 
(10000)
 /Times-Italic     69 stwn 
 gsave  272 774
 t   0 r  xs neg 0 t 0 0 m
 /Times-Italic findfont   69 sf 0    0 m 
(10000)
 show 
 gr 
 /xs 0 def 
(12000)
 /Times-Italic     69 stwn 
 gsave  272 889
 t   0 r  xs neg 0 t 0 0 m
 /Times-Italic findfont   69 sf 0    0 m 
(12000)
 show 
 gr 
 /xs 0 def 
(14000)
 /Times-Italic     69 stwn 
 gsave  272 1003
 t   0 r  xs neg 0 t 0 0 m
 /Times-Italic findfont   69 sf 0    0 m 
(14000)
 show 
 gr 
 /xs 0 def 
(16000)
 /Times-Italic     69 stwn 
 gsave  272 1117
 t   0 r  xs neg 0 t 0 0 m
 /Times-Italic findfont   69 sf 0    0 m 
(16000)
 show 
 gr 
 /xs 0 def 
(18000)
 /Times-Italic     69 stwn 
 gsave  272 1231
 t   0 r  xs neg 0 t 0 0 m
 /Times-Italic findfont   69 sf 0    0 m 
(18000)
 show 
 gr  318 227 m 1837 X s 318 261 m -34 Y s 354 244 m -17 Y s 391 244 m -17 Y s
 428 244 m -17 Y s 465 244 m -17 Y s 501 261 m -34 Y s 538 244 m -17 Y s 575 244
 m -17 Y s 612 244 m -17 Y s 648 244 m -17 Y s 685 261 m -34 Y s 722 244 m -17 Y
 s 759 244 m -17 Y s 795 244 m -17 Y s 832 244 m -17 Y s 869 261 m -34 Y s 906
 244 m -17 Y s 942 244 m -17 Y s 979 244 m -17 Y s 1016 244 m -17 Y s 1053 261 m
 -34 Y s 1089 244 m -17 Y s 1126 244 m -17 Y s 1163 244 m -17 Y s 1200 244 m -17
 Y s 1236 261 m -34 Y s 1273 244 m -17 Y s 1310 244 m -17 Y s 1347 244 m -17 Y s
 1384 244 m -17 Y s 1420 261 m -34 Y s 1457 244 m -17 Y s 1494 244 m -17 Y s
 1531 244 m -17 Y s 1567 244 m -17 Y s 1604 261 m -34 Y s 1641 244 m -17 Y s
 1678 244 m -17 Y s 1714 244 m -17 Y s 1751 244 m -17 Y s 1788 261 m -34 Y s
 1825 244 m -17 Y s 1861 244 m -17 Y s 1898 244 m -17 Y s 1935 244 m -17 Y s
 1972 261 m -34 Y s 2008 244 m -17 Y s 2045 244 m -17 Y s 2082 244 m -17 Y s
 2119 244 m -17 Y s 2155 261 m -34 Y s
 /xs 0 def 
(-50)
 /Times-Italic     69 stwn 
 gsave  318 159
 t   0 r  xs 2 div neg 0 t 0 0 m
 /Times-Italic findfont   69 sf 0    0 m 
(-50)
 show 
 gr 
 /xs 0 def 
(-40)
 /Times-Italic     69 stwn 
 gsave  501 159
 t   0 r  xs 2 div neg 0 t 0 0 m
 /Times-Italic findfont   69 sf 0    0 m 
(-40)
 show 
 gr 
 /xs 0 def 
(-30)
 /Times-Italic     69 stwn 
 gsave  685 159
 t   0 r  xs 2 div neg 0 t 0 0 m
 /Times-Italic findfont   69 sf 0    0 m 
(-30)
 show 
 gr 
 /xs 0 def 
(-20)
 /Times-Italic     69 stwn 
 gsave  869 159
 t   0 r  xs 2 div neg 0 t 0 0 m
 /Times-Italic findfont   69 sf 0    0 m 
(-20)
 show 
 gr 
 /xs 0 def 
(-10)
 /Times-Italic     69 stwn 
 gsave  1053 159
 t   0 r  xs 2 div neg 0 t 0 0 m
 /Times-Italic findfont   69 sf 0    0 m 
(-10)
 show 
 gr 
 /xs 0 def 
(0)
 /Times-Italic     69 stwn 
 gsave  1236 159
 t   0 r  xs 2 div neg 0 t 0 0 m
 /Times-Italic findfont   69 sf 0    0 m 
(0)
 show 
 gr 
 /xs 0 def 
(10)
 /Times-Italic     69 stwn 
 gsave  1420 159
 t   0 r  xs 2 div neg 0 t 0 0 m
 /Times-Italic findfont   69 sf 0    0 m 
(10)
 show 
 gr 
 /xs 0 def 
(20)
 /Times-Italic     69 stwn 
 gsave  1604 159
 t   0 r  xs 2 div neg 0 t 0 0 m
 /Times-Italic findfont   69 sf 0    0 m 
(20)
 show 
 gr 
 /xs 0 def 
(30)
 /Times-Italic     69 stwn 
 gsave  1788 159
 t   0 r  xs 2 div neg 0 t 0 0 m
 /Times-Italic findfont   69 sf 0    0 m 
(30)
 show 
 gr 
 /xs 0 def 
(40)
 /Times-Italic     69 stwn 
 gsave  1972 159
 t   0 r  xs 2 div neg 0 t 0 0 m
 /Times-Italic findfont   69 sf 0    0 m 
(40)
 show 
 gr 
 /xs 0 def 
(50)
 /Times-Italic     69 stwn 
 gsave  2155 159
 t   0 r  xs 2 div neg 0 t 0 0 m
 /Times-Italic findfont   69 sf 0    0 m 
(50)
 show 
 gr  1837 1078 318 227 C 2836 2836 -284 0 C 1218 245 m -7 -18 d s 1218 320 m -34
 -93 d s 1218 395 m -61 -168 d s 1215 460 m -15 -41 d s 1188 388 m -58 -161 d s
 1161 388 m -58 -161 d s 1143 413 m -67 -186 d s 1116 413 m -68 -186 d s 1077
 379 m -56 -152 d s 1044 365 m -50 -138 d s 1013 353 m -46 -126 d s 984 348 m
 -44 -121 d s 956 347 m -43 -120 d s 928 344 m -43 -117 d s 891 318 m -33 -91 d
 s 857 298 m -26 -71 d s 821 273 m -17 -46 d s 791 265 m -14 -38 d s 761 259 m
 -11 -32 d s 732 253 m -10 -26 d s 704 250 m -9 -23 d s 675 247 m -7 -20 d s 647
 243 m -6 -16 d s 618 237 m -4 -10 d s 591 237 m -4 -10 d s 564 238 m -4 -11 d s
 536 237 m -4 -10 d s 509 237 m -4 -10 d s 481 235 m -3 -8 d s 454 236 m -3 -9 d
 s 426 234 m -2 -7 d s 399 234 m -2 -7 d s 371 233 m -2 -6 d s 344 232 m -2 -5 d
 s 1837 1078 318 227 C 5 lw 318 227 m 4 Y 18 X 1 Y 18 X 1 Y 37 X 1 Y 37 X 1 Y 18
 X 1 Y 19 X -1 Y 18 X 1 Y 18 X 1 Y 37 X 1 Y 37 X -1 Y 55 X 6 Y 37 X 4 Y 18 X 3 Y
 37 X 3 Y 18 X 1 Y 19 X 5 Y 18 X 6 Y 18 X 6 Y 19 X 2 Y 18 X 12 Y 19 X 13 Y 18 X
 12 Y 18 X 8 Y 19 X 16 Y 18 X 10 Y 18 X 3 Y 37 X 1 Y 19 X 5 Y 18 X 2 Y 18 X 10 Y
 19 X 11 Y 18 X 3 Y 18 X 35 Y 19 X -1 Y 37 X -25 Y 18 X -11 Y 18 X 11 Y 19 X 72
 Y 18 X s 2836 2836 -284 0 C 1 lw 2111 235 m -3 -8 d s 2084 236 m -3 -9 d s 2057
 238 m -4 -11 d s 2031 239 m -5 -12 d s 2005 243 m -6 -16 d s 1978 245 m -6 -18
 d s 1952 248 m -7 -21 d s 1926 249 m -8 -22 d s 1900 254 m -10 -27 d s 1875 259
 m -12 -32 d s 1848 259 m -12 -32 d s 1822 264 m -13 -37 d s 1798 270 m -16 -43
 d s 1773 277 m -18 -50 d s 1751 292 m -24 -65 d s 1731 311 m -31 -84 d s 1704
 312 m -31 -85 d s 1682 325 m -36 -98 d s 1659 338 m -40 -111 d s 1637 351 m -45
 -124 d s 1612 357 m -47 -130 d s 1587 362 m -50 -135 d s 1560 364 m -50 -137 d
 s 1535 370 m -52 -143 d s 1511 377 m -55 -150 d s 1487 388 m -58 -161 d s 1451
 363 m -49 -136 d s 1413 333 m -39 -106 d s 1382 322 m -35 -95 d s 1352 316 m
 -32 -89 d s 1328 323 m -35 -96 d s 1304 333 m -38 -106 d s 1287 359 m -48 -132
 d s 1273 397 m -55 -152 d s 1267 454 m -49 -134 d s 1255 496 m -37 -101 d s
 1255 570 m -37 -101 d s 1255 645 m -37 -101 d s 1255 719 m -37 -101 d s 1255
 794 m -37 -101 d s 1255 869 m -37 -101 d s 1236 893 m -18 -51 d s 1837 1078 318
 227 C 5 lw 1218 460 m 447 Y 18 X -25 Y 19 X -428 Y 18 X -95 Y 19 X -26 Y 18 X
 -10 Y 18 X -1 Y 19 X -6 Y 18 X 6 Y 19 X 1 Y 18 X 10 Y 18 X 18 Y 19 X 12 Y 18 X
 14 Y 18 X 11 Y 19 X -11 Y 18 X -3 Y 19 X -4 Y 18 X -6 Y 18 X -3 Y 19 X 1 Y 18 X
 -5 Y 18 X -6 Y 19 X -9 Y 18 X -10 Y 19 X -7 Y 18 X -13 Y 18 X -1 Y 19 X -12 Y
 18 X -9 Y 18 X -13 Y 19 X -7 Y 18 X -6 Y 37 X -5 Y 37 X -4 Y 18 X -1 Y 18 X -5
 Y 19 X -1 Y 18 X -2 Y 19 X -1 Y 18 X -2 Y 18 X -2 Y 19 X -2 Y 18 X -1 Y 18 X -2
 Y 37 X -1 Y 19 X s 2836 2836 -284 0 C 1 lw 2137 233 m -2 -6 d s 1837 1078 318
 227 C 5 lw 2119 235 m -1 Y 18 X -1 Y 18 X s 2269 2836 0 0 C
 /xs 0 def 
(dz \(cm\))
 /Times-Italic     86 stwn 
 gsave  2155 59
 t   0 r  xs neg 0 t 0 0 m
 /Times-Italic findfont   86 sf 0    0 m 
(dz \(cm\))
 show 
 gr 
 /xs 0 def 
(no. events / 1 cm)
 /Times-Italic     86 stwn 
 gsave  57 1305
 t  90 r  xs neg 0 t 0 0 m
 /Times-Italic findfont   86 sf 0    0 m 
(no. events / 1 cm)
 show 
 gr  1837 1078 318 227 C
 gr  gr 
showpage
end
%%EOF
