%!PS-Adobe-2.0 EPSF-2.0
%%BoundingBox: 37 81 570 726
%%Title: /acchome/kazu/gsim/l4/log/l4_summary.ps (Portrait A 4)
%%Pages: (atend)
%%Creator: HIGZ Version 1.23/07
%%CreationDate: :0/10/02   14.02
%%EndComments
%%BeginProlog
/s {stroke} def /l {lineto} def /m {moveto} def /t {translate} def
/sw {stringwidth} def /r {rotate} def /rl {roll}  def /R {repeat} def
/d {rlineto} def /rm {rmoveto} def /gr {grestore} def /f {eofill} def
/c {setrgbcolor} def /lw {setlinewidth} def /sd {setdash} def
/cl {closepath} def /sf {scalefont setfont} def /black {0 setgray} def
/box {m dup 0 exch d exch 0 d 0 exch neg d cl} def
/NC{systemdict begin initclip end}def/C{NC box clip newpath}def
/bl {box s} def /bf {box f} def /Y { 0 exch d} def /X { 0 d} def 
/mp {newpath /y exch def /x exch def} def
/side {[w .77 mul w .23 mul] .385 w mul sd w 0 l currentpoint t -144 r} def
/mr {mp x y w2 0 360 arc} def /m24 {mr s} def /m20 {mr f} def
/mb {mp x y w2 add m w2 neg 0 d 0 w neg d w 0 d 0 w d cl} def
/mt {mp x y w2 add m w2 neg w neg d w 0 d cl} def
/m21 {mb f} def /m25 {mb s} def /m22 {mt f} def /m26 {mt s} def
/m23 {mp x y w2 sub m w2 w d w neg 0 d cl f} def
/m27 {mp x y w2 add m w3 neg w2 neg d w3 w2 neg d w3  w2 d cl s} def
/m28 {mp x w2 sub y w2 sub w3 add m w3 0 d 0 w3 neg d w3 0 d 0 w3 d w3 0 d
 0 w3 d w3 neg 0 d 0 w3 d w3 neg 0 d
 0 w3 neg d w3 neg 0 d cl s } def
/m29 {mp gsave x w2 sub y w2 add w3 sub m currentpoint t
 4 {side} repeat cl fill gr} def
/m30 {mp gsave x w2 sub y w2 add w3 sub m currentpoint t
 5 {side} repeat s gr} def
/m31 {mp x y w2 sub m 0 w d x w2 sub y m w 0 d
 x w2 sub y w2 add m w w neg d x w2 sub y w2
 sub m w w d s} def
/m2 {mp x y w2 sub m 0 w d x w2 sub y m w 0 d s} def
/m5 {mp x w2 sub y w2 sub m w w d x w2 sub y w2 add m w w neg d s} def
/DP {/PT exch def gsave 47.2 47.2 scale PT 1  eq { 16 16 1 [ 16 0 0 16 neg 0 16
] { < AA AA 55 55 AA AA 55 55 AA AA 55 55 AA AA 55 55 AA AA 55 55 AA AA 55 55
AA AA 55 55 AA AA 55 55 > } image } if PT 2 eq { 16 16 1 [ 16 0 0 16 neg 0 16
] { < BB BB EE EE BB BB EE EE BB BB EE EE BB BB EE EE BB BB EE EE BB BB EE EE
BB BB EE EE BB BB EE EE > } image } if PT 3 eq { 16 16 1 [ 16 0 0 16 neg 0 16
] { < FF FF BB BB FF FF EE EE FF FF BB BB FF FF EE EE FF FF BB BB FF FF EE EE
FF FF BB BB FF FF EE EE > } image } if PT 4 eq { 16 16 1 [ 16 0 0 16 neg 0 16
] { < DF DF BF BF 7F 7F FE FE FD FD FB FB F7 F7 EF EF DF DF BF BF 7F 7F FE FE
FD FD FB FB F7 F7 EF EF > } image } if PT 5 eq { 16 16 1 [ 16 0 0 16 neg 0 16
] { < 7F 7F BF B F DF DF EF EF F7 F7 FB FB FD FD FE FE 7F 7F BF BF DF DF EF
EF F7 F7 FB FB FD FD FE FE > } image } if PT 6 eq { 16 16 1 [ 16 0 0 16 neg 0
16 ] { < BB BB BB BB BB BB BB BB BB BB BB BB BB BB BB BB BB BB BB BB BB BB BB
BB BB BB BB BB BB BB BB BB > } image } if PT 7 eq { 16 16 1 [ 16 0 0 16 neg 0
16 ] { < FF FF FF FF FF FF 00 00 FF FF FF FF FF FF 00 00 FF FF FF FF FF FF 00
00 FF FF FF FF FF FF 00 00 > } image } if PT 8 eq { 16 16 1 [ 16 0 0 16 neg 0
16 ] { < EE EE 47 47 83 83 C5 C5 EE EE 5C 5C 38 38 74 74 EE EE 47 47 83 83 C5
C5 EE EE 5C 5C 38 38 74 74 > } image } if PT 9 eq { 16 16 1 [ 16 0 0 16 neg 0
16 ] { < EF EF EF EF D7 D7 38 38 FE FE FE FE 7D 7D 83 83 EF EF EF EF D7 D7 38
38  FE FE FE FE 7D 7D 83 83 > } image } if PT 10 eq { 16 16 1 [ 16 0 0 16 neg
0 16 ] { <  EF EF EF EF EF EF 00 00 FE FE FE FE FE FE 00 00 EF EF EF EF EF EF
00 00 FE FE FE FE FE FE 00 00 > } image } if PT 11 eq { 16 16 1 [ 16 0 0 16
neg 0 16 ] { < F7 F7 B6 B6 D5 D5 E3 E3 D5 D5 B6 B6 F7 F7 FF FF 7F 7F 6B 6B 5D
5D 3E 3E 5D 5D 6B 6B 7F 7F FF FF > } image } if PT 12 eq { 16 16 1 [ 16 0 0
16 neg 0 16 ] { < E3 E3 DD DD BE BE BE BE BE BE DD DD E3 E3 FF FF 3E 3E DD DD
EB EB EB EB EB EB DD DD 3E 3E FF FF > } image } if PT 13 eq { 16 16 1 [ 16 0
0 16 neg 0 16 ] { <  FE FE 7D 7D BB BB D7 D7 EF EF D7 D7 BB BB 7D 7D FE FE 7D
7D BB BB D7 D7 EF EF D7 D7 BB BB 7D 7D > } image } if PT 14 eq { 16 16 1 [ 16
0 0 16 neg 0 16 ] { < 00 00 EE EF EE EF EE EF 0E E0 EE EE EE EE EE EE 00 EE
FE EE FE EE FE EE 00 00 FE EF FE EF FE EF > } image } if PT 15 eq { 16 16 1 [
16 0 0 16 neg 0 16 ] { < DD DD AA AA DD DD FF FF 77 77 AA AA 77 77 FF FF DD
DD AA AA DD DD FF FF 77 77 AA AA 77 77 FF FF > } image } if PT 16 eq { 16 16
1 [ 16 0 0 16 neg 0 16 ] { <  F1 F1 EE EE 1F 1F FF FF F1 F1 EE EE 1F 1F FF FF
F1 F1 EE EE 1F 1F FF FF F1 F1 EE EE 1F 1F FF FF > } image } if PT 17 eq { 16
16 1 [ 16 0 0 16 neg 0 16 ] { <  EE EE DD DD BB BB FF FF EE EE DD DD BB BB FF
 FF EE EE DD DD BB BB FF FF EE EE DD DD BB BB FF FF > } image } if PT 18 eq {
16 16 1 [ 16 0 0 16 neg 0 16 ] { <  BB BB DD DD EE EE FF FF BB BB DD DD EE EE
FF FF BB BB DD DD EE EE FF FF BB BB DD DD EE EE FF FF > } image } if PT 19 eq
{ 16 16 1 [ 16 0 0 16 neg 0 16 ] { < 1F FC 67 F3 7B EF BD DE BD DE DE BD E6
B3 F8 0F E6 B3 DE BD BD DE BD DE 7B EF 67 F3 1F FC 7F FF > } image } if PT
20 eq { 16 16 1 [ 16 0 0 16 neg 0 16 ] { < DD DD EE EE EE EE EE EE DD DD BB
BB BB BB BB BB DD DD EE EE EE EE EE EE DD DD BB BB BB BB BB BB > } image }
if PT 21 eq { 16 16 1 [ 16 0 0 16 neg 0 16 ] { < 0E 0E EF EF EF EF EF EF E0
E0 FE FE FE FE FE FE 0E 0E EF EF EF EF EF EF E0 E0 FE FE FE FE FE FE > }
image }  if PT 22 eq { 16 16 1 [ 16 0 0 16 neg 0 16 ] { < 70 70 F7 F7 F7 F7 F7
F7 07 07 7F 7F 7F 7F 7F 7F 70 70 F7 F7 F7 F7 F7 F7 07 07 7F 7F 7F 7F 7F 7F >
} image } if PT 23 eq  { 16 16 1 [ 16 0 0 16 neg 0 16 ] { < AA AA 55 55 A9 A9
D1 D1 E1 E1 D1 D1 A9 A9 55 55 AA AA 55 55 A9 A9 D1 D1 E1 E1 D1 D1 A9 A9 55 55
> } image } if PT 24 eq { 16 16 1 [ 16 0 0 16 neg 0 16 ] { < FF FE FF FC EA
A8 D5 54 EA A8 D5 54 E8 28 D4 54 E8 E8 D4 D4 E8 EA 54 D5 A8 EA 54 D5 00 C0 00
80 > } image } if PT 25 eq {  16 16 1 [ 16 0 0 16 neg 0 16 ] { < FF FE FF FC
FF F8 FF F0 F0 00 F0 00 F0 20 F0 60 F0 E0 F1 E0 F3 E0 F0 00 E0 00 C0 00 80 00
00 00 > } image } if gr } def /FA { /PT exch def gsave clip 0 0 translate 1 1
54 { 1 sub 47.2 mul /Xcurr exch def 1 1 74 { 1 sub 47.2 mul /Ycurr exch def
gsave Xcurr Ycurr translate PT DP gr } for } for gr } def
/reencdict 24 dict def /ReEncode {reencdict begin /nco&na exch def
/nfnam exch def /basefontname exch def /basefontdict basefontname findfont def
/newfont basefontdict maxlength dict def basefontdict {exch dup /FID ne
{dup /Encoding eq {exch dup length array copy newfont 3 1 roll put} {exch
newfont 3 1 roll put} ifelse} {pop pop} ifelse } forall newfont
/FontName nfnam put nco&na aload pop nco&na length 2 idiv {newfont
/Encoding get 3 1 roll put} repeat nfnam newfont definefont pop end } def
/accvec [ 176 /agrave 181 /Agrave 190 /acircumflex 192 /Acircumflex
201 /adieresis 204 /Adieresis 209 /ccedilla 210 /Ccedilla 211 /eacute
212 /Eacute 213 /egrave 214 /Egrave 215 /ecircumflex 216 /Ecircumflex
217 /edieresis 218 /Edieresis 219 /icircumflex 220 /Icircumflex
221 /idieresis 222 /Idieresis 223 /ntilde 224 /Ntilde 226 /ocircumflex
228 /Ocircumflex 229 /odieresis 230 /Odieresis 231 /ucircumflex 236 /Ucircumflex
237 /udieresis 238 /Udieresis 239 /aring 242 /Aring 243 /ydieresis
244 /Ydieresis 246 /aacute 247 /Aacute 252 /ugrave 253 /Ugrave] def
/Times-Roman /Times-Roman accvec ReEncode
/Times-Italic /Times-Italic accvec ReEncode
/Times-Bold /Times-Bold accvec ReEncode
/Times-BoldItalic /Times-BoldItalic accvec ReEncode
/Helvetica /Helvetica accvec ReEncode
/Helvetica-Oblique /Helvetica-Oblique accvec ReEncode
/Helvetica-Bold /Helvetica-Bold accvec ReEncode
/Helvetica-BoldOblique /Helvetica-BoldOblique  accvec ReEncode
/Courier /Courier accvec ReEncode
/Courier-Oblique /Courier-Oblique accvec ReEncode
/Courier-Bold /Courier-Bold accvec ReEncode
/Courier-BoldOblique /Courier-BoldOblique accvec ReEncode
/oshow {gsave [] 0 sd true charpath stroke gr} def
/stwn { /fs exch def /fn exch def /text exch def fn findfont fs sf
 text sw pop xs add /xs exch def} def
/stwb { /fs exch def /fn exch def /nbas exch def /textf exch def
textf length /tlen exch def nbas tlen gt {/nbas tlen def} if
fn findfont fs sf textf dup length nbas sub nbas getinterval sw
pop neg xs add /xs exch def} def
/accspe [ 65 /plusminus 66 /bar 67 /existential 68 /universal
69 /exclam 70 /numbersign 71 /greater 72 /question 73 /integral
74 /colon 75 /semicolon 76 /less 77 /bracketleft 78 /bracketright
79 /greaterequal 80 /braceleft 81 /braceright 82 /radical
83 /spade 84 /heart 85 /diamond 86 /club 87 /lessequal
88 /multiply 89 /percent 90 /infinity 48 /circlemultiply 49 /circleplus
50 /emptyset 51 /lozenge 52 /bullet 53 /arrowright 54 /arrowup
55 /arrowleft 56 /arrowdown 57 /arrowboth 48 /degree 44 /comma 43 /plus
 45 /angle 42 /angleleft 47 /divide 61 /notequal 40 /equivalence 41 /second
 97 /approxequal 98 /congruent 99 /perpendicular 100 /partialdiff 101 /florin
 102 /intersection 103 /union 104 /propersuperset 105 /reflexsuperset
 106 /notsubset 107 /propersubset 108 /reflexsubset 109 /element 110 /notelement
 111 /gradient 112 /logicaland 113 /logicalor 114 /arrowdblboth
 115 /arrowdblleft 116 /arrowdblup 117 /arrowdblright 118 /arrowdbldown
 119 /ampersand 120 /omega1 121 /similar 122 /aleph ] def
/Symbol /Special accspe ReEncode
/Zone {/iy exch def /ix exch def  ix 1 sub  2224 mul  1 iy sub  3144
 mul t} def
%%EndProlog
 gsave  20 28 t .25 .25 scale  gsave 
%%Page: number 1
 gsave 
 1 1 Zone
 gsave 0 0 t black [] 0 sd 1 lw 1801 1056 311 1683 bl 1801 1056 311 1683 C 5 lw
 311 1683 m 180 X 8 Y 36 X -4 Y 108 X 4 Y 36 X -8 Y 108 X 16 Y 36 X 15 Y 36 X -4
 Y 36 X 39 Y 36 X 12 Y 36 X 20 Y 36 X 23 Y 36 X 125 Y 36 X 35 Y 37 X 151 Y 36 X
 203 Y 36 X -58 Y 36 X 210 Y 36 X 31 Y 36 X 82 Y 36 X 19 Y 36 X 31 Y 36 X -186 Y
 36 X -269 Y 36 X -172 Y 36 X -210 Y 36 X -86 Y 36 X -23 Y 36 X 4 Y 36 X -8 Y
 252 X 4 Y 36 X -4 Y 180 X s NC 1 lw 311 1683 m 1056 Y s 345 1683 m -34 X s
 [4 8] 0 sd 2112 1683 m -1801 X s [] 0 sd 328 1722 m -17 X s 328 1761 m -17 X s
 328 1800 m -17 X s 328 1839 m -17 X s 345 1878 m -34 X s [4 8] 0 sd 2112 1878 m
 -1801 X s [] 0 sd 328 1917 m -17 X s 328 1956 m -17 X s 328 1995 m -17 X s 328
 2034 m -17 X s 345 2073 m -34 X s [4 8] 0 sd 2112 2073 m -1801 X s [] 0 sd 328
 2112 m -17 X s 328 2151 m -17 X s 328 2189 m -17 X s 328 2228 m -17 X s 345
 2267 m -34 X s [4 8] 0 sd 2112 2267 m -1801 X s [] 0 sd 328 2306 m -17 X s 328
 2345 m -17 X s 328 2384 m -17 X s 328 2423 m -17 X s 345 2462 m -34 X s
 [4 8] 0 sd 2112 2462 m -1801 X s [] 0 sd 328 2501 m -17 X s 328 2540 m -17 X s
 328 2579 m -17 X s 328 2618 m -17 X s 345 2657 m -34 X s [4 8] 0 sd 2112 2657 m
 -1801 X s [] 0 sd 345 2657 m -34 X s [4 8] 0 sd 2112 2657 m -1801 X s [] 0 sd
 328 2696 m -17 X s 328 2735 m -17 X s
 /xs 0 def 
(0)
 /Times-Italic     67 stwn 
 gsave  267 1661
 t   0 r  xs neg 0 t 0 0 m
 /Times-Italic findfont   67 sf 0    0 m 
(0)
 show 
 gr 
 /xs 0 def 
(50)
 /Times-Italic     67 stwn 
 gsave  267 1856
 t   0 r  xs neg 0 t 0 0 m
 /Times-Italic findfont   67 sf 0    0 m 
(50)
 show 
 gr 
 /xs 0 def 
(100)
 /Times-Italic     67 stwn 
 gsave  267 2050
 t   0 r  xs neg 0 t 0 0 m
 /Times-Italic findfont   67 sf 0    0 m 
(100)
 show 
 gr 
 /xs 0 def 
(150)
 /Times-Italic     67 stwn 
 gsave  267 2245
 t   0 r  xs neg 0 t 0 0 m
 /Times-Italic findfont   67 sf 0    0 m 
(150)
 show 
 gr 
 /xs 0 def 
(200)
 /Times-Italic     67 stwn 
 gsave  267 2440
 t   0 r  xs neg 0 t 0 0 m
 /Times-Italic findfont   67 sf 0    0 m 
(200)
 show 
 gr 
 /xs 0 def 
(250)
 /Times-Italic     67 stwn 
 gsave  267 2635
 t   0 r  xs neg 0 t 0 0 m
 /Times-Italic findfont   67 sf 0    0 m 
(250)
 show 
 gr  311 1683 m 1801 X s 311 1716 m -33 Y s [4 8] 0 sd 311 2739 m -1056 Y s
 [] 0 sd 347 1700 m -17 Y s 383 1700 m -17 Y s 419 1700 m -17 Y s 455 1700 m -17
 Y s 491 1716 m -33 Y s [4 8] 0 sd 491 2739 m -1056 Y s [] 0 sd 527 1700 m -17 Y
 s 563 1700 m -17 Y s 599 1700 m -17 Y s 635 1700 m -17 Y s 671 1716 m -33 Y s
 [4 8] 0 sd 671 2739 m -1056 Y s [] 0 sd 707 1700 m -17 Y s 743 1700 m -17 Y s
 779 1700 m -17 Y s 815 1700 m -17 Y s 851 1716 m -33 Y s [4 8] 0 sd 851 2739 m
 -1056 Y s [] 0 sd 887 1700 m -17 Y s 923 1700 m -17 Y s 959 1700 m -17 Y s 995
 1700 m -17 Y s 1031 1716 m -33 Y s [4 8] 0 sd 1031 2739 m -1056 Y s [] 0 sd
 1067 1700 m -17 Y s 1104 1700 m -17 Y s 1140 1700 m -17 Y s 1176 1700 m -17 Y s
 1212 1716 m -33 Y s [4 8] 0 sd 1212 2739 m -1056 Y s [] 0 sd 1248 1700 m -17 Y
 s 1284 1700 m -17 Y s 1320 1700 m -17 Y s 1356 1700 m -17 Y s 1392 1716 m -33 Y
 s [4 8] 0 sd 1392 2739 m -1056 Y s [] 0 sd 1428 1700 m -17 Y s 1464 1700 m -17
 Y s 1500 1700 m -17 Y s 1536 1700 m -17 Y s 1572 1716 m -33 Y s [4 8] 0 sd 1572
 2739 m -1056 Y s [] 0 sd 1608 1700 m -17 Y s 1644 1700 m -17 Y s 1680 1700 m
 -17 Y s 1716 1700 m -17 Y s 1752 1716 m -33 Y s [4 8] 0 sd 1752 2739 m -1056 Y
 s [] 0 sd 1788 1700 m -17 Y s 1824 1700 m -17 Y s 1860 1700 m -17 Y s 1896 1700
 m -17 Y s 1932 1716 m -33 Y s [4 8] 0 sd 1932 2739 m -1056 Y s [] 0 sd 1968
 1700 m -17 Y s 2004 1700 m -17 Y s 2040 1700 m -17 Y s 2076 1700 m -17 Y s 2112
 1716 m -33 Y s [4 8] 0 sd 2112 2739 m -1056 Y s
 /xs 0 def 
(0)
 /Times-Italic     67 stwn 
 gsave  311 1616
 t   0 r  xs 2 div neg 0 t 0 0 m
 /Times-Italic findfont   67 sf 0    0 m 
(0)
 show 
 gr 
 /xs 0 def 
(5)
 /Times-Italic     67 stwn 
 gsave  491 1616
 t   0 r  xs 2 div neg 0 t 0 0 m
 /Times-Italic findfont   67 sf 0    0 m 
(5)
 show 
 gr 
 /xs 0 def 
(10)
 /Times-Italic     67 stwn 
 gsave  671 1616
 t   0 r  xs 2 div neg 0 t 0 0 m
 /Times-Italic findfont   67 sf 0    0 m 
(10)
 show 
 gr 
 /xs 0 def 
(15)
 /Times-Italic     67 stwn 
 gsave  851 1616
 t   0 r  xs 2 div neg 0 t 0 0 m
 /Times-Italic findfont   67 sf 0    0 m 
(15)
 show 
 gr 
 /xs 0 def 
(20)
 /Times-Italic     67 stwn 
 gsave  1031 1616
 t   0 r  xs 2 div neg 0 t 0 0 m
 /Times-Italic findfont   67 sf 0    0 m 
(20)
 show 
 gr 
 /xs 0 def 
(25)
 /Times-Italic     67 stwn 
 gsave  1212 1616
 t   0 r  xs 2 div neg 0 t 0 0 m
 /Times-Italic findfont   67 sf 0    0 m 
(25)
 show 
 gr 
 /xs 0 def 
(30)
 /Times-Italic     67 stwn 
 gsave  1392 1616
 t   0 r  xs 2 div neg 0 t 0 0 m
 /Times-Italic findfont   67 sf 0    0 m 
(30)
 show 
 gr 
 /xs 0 def 
(35)
 /Times-Italic     67 stwn 
 gsave  1572 1616
 t   0 r  xs 2 div neg 0 t 0 0 m
 /Times-Italic findfont   67 sf 0    0 m 
(35)
 show 
 gr 
 /xs 0 def 
(40)
 /Times-Italic     67 stwn 
 gsave  1752 1616
 t   0 r  xs 2 div neg 0 t 0 0 m
 /Times-Italic findfont   67 sf 0    0 m 
(40)
 show 
 gr 
 /xs 0 def 
(45)
 /Times-Italic     67 stwn 
 gsave  1932 1616
 t   0 r  xs 2 div neg 0 t 0 0 m
 /Times-Italic findfont   67 sf 0    0 m 
(45)
 show 
 gr 
 /xs 0 def 
(50)
 /Times-Italic     67 stwn 
 gsave  2112 1616
 t   0 r  xs 2 div neg 0 t 0 0 m
 /Times-Italic findfont   67 sf 0    0 m 
(50)
 show 
 gr  1801 1056 311 1683 C 2223 2778 0 183 C [] 0 sd 889 267 1223 2472 bl 889 267
 1223 2472 bl
 gsave  1267 2672
 t   0 r 0 0 m
 /Times-Italic findfont   67 sf 0    0 m 
(Entries)
 show 
 gr 
 gsave  1267 2583
 t   0 r 0 0 m
 /Times-Italic findfont   67 sf 0    0 m 
(Mean)
 show 
 gr 
 gsave  1267 2495
 t   0 r 0 0 m
 /Times-Italic findfont   67 sf 0    0 m 
(RMS)
 show 
 gr 
 /xs 0 def 
(           2245)
 /Times-Italic     67 stwn 
 gsave  2067 2672
 t   0 r  xs neg 0 t 0 0 m
 /Times-Italic findfont   67 sf 0    0 m 
(           2245)
 show 
 gr 
 /xs 0 def 
(  26.66)
 /Times-Italic     67 stwn 
 gsave  2067 2583
 t   0 r  xs neg 0 t 0 0 m
 /Times-Italic findfont   67 sf 0    0 m 
(  26.66)
 show 
 gr 
 /xs 0 def 
(  3.940)
 /Times-Italic     67 stwn 
 gsave  2067 2495
 t   0 r  xs neg 0 t 0 0 m
 /Times-Italic findfont   67 sf 0    0 m 
(  3.940)
 show 
 gr  1801 1056 311 1683 C 2223 2778 0 183 C
 /xs 0 def 
(fraction passing L4 \(%\))
 /Times-Italic     84 stwn 
 gsave  2112 1519
 t   0 r  xs neg 0 t 0 0 m
 /Times-Italic findfont   84 sf 0    0 m 
(fraction passing L4 \(%\))
 show 
 gr 
 /xs 0 def 
(no. of runs)
 /Times-Italic     84 stwn 
 gsave  156 2739
 t  90 r  xs neg 0 t 0 0 m
 /Times-Italic findfont   84 sf 0    0 m 
(no. of runs)
 show 
 gr  1801 1056 311 1683 C NC 1801 1056 311 405 bl 1801 1056 311 405 C NC 311 405
 m 1056 Y s 345 405 m -34 X s [4 8] 0 sd 2112 405 m -1801 X s [] 0 sd 328 431 m
 -17 X s 328 458 m -17 X s 328 484 m -17 X s 328 511 m -17 X s 345 537 m -34 X s
 [4 8] 0 sd 2112 537 m -1801 X s [] 0 sd 328 563 m -17 X s 328 590 m -17 X s 328
 616 m -17 X s 328 642 m -17 X s 345 669 m -34 X s [4 8] 0 sd 2112 669 m -1801 X
 s [] 0 sd 328 695 m -17 X s 328 722 m -17 X s 328 748 m -17 X s 328 774 m -17 X
 s 345 801 m -34 X s [4 8] 0 sd 2112 801 m -1801 X s [] 0 sd 328 827 m -17 X s
 328 854 m -17 X s 328 880 m -17 X s 328 906 m -17 X s 345 933 m -34 X s
 [4 8] 0 sd 2112 933 m -1801 X s [] 0 sd 328 959 m -17 X s 328 986 m -17 X s 328
 1012 m -17 X s 328 1038 m -17 X s 345 1065 m -34 X s [4 8] 0 sd 2112 1065 m
 -1801 X s [] 0 sd 328 1091 m -17 X s 328 1118 m -17 X s 328 1144 m -17 X s 328
 1170 m -17 X s 345 1197 m -34 X s [4 8] 0 sd 2112 1197 m -1801 X s [] 0 sd 328
 1223 m -17 X s 328 1250 m -17 X s 328 1276 m -17 X s 328 1302 m -17 X s 345
 1329 m -34 X s [4 8] 0 sd 2112 1329 m -1801 X s [] 0 sd 328 1355 m -17 X s 328
 1382 m -17 X s 328 1408 m -17 X s 328 1434 m -17 X s 345 1461 m -34 X s
 [4 8] 0 sd 2112 1461 m -1801 X s
 /xs 0 def 
(5)
 /Times-Italic     67 stwn 
 gsave  267 383
 t   0 r  xs neg 0 t 0 0 m
 /Times-Italic findfont   67 sf 0    0 m 
(5)
 show 
 gr 
 /xs 0 def 
(10)
 /Times-Italic     67 stwn 
 gsave  267 515
 t   0 r  xs neg 0 t 0 0 m
 /Times-Italic findfont   67 sf 0    0 m 
(10)
 show 
 gr 
 /xs 0 def 
(15)
 /Times-Italic     67 stwn 
 gsave  267 647
 t   0 r  xs neg 0 t 0 0 m
 /Times-Italic findfont   67 sf 0    0 m 
(15)
 show 
 gr 
 /xs 0 def 
(20)
 /Times-Italic     67 stwn 
 gsave  267 779
 t   0 r  xs neg 0 t 0 0 m
 /Times-Italic findfont   67 sf 0    0 m 
(20)
 show 
 gr 
 /xs 0 def 
(25)
 /Times-Italic     67 stwn 
 gsave  267 911
 t   0 r  xs neg 0 t 0 0 m
 /Times-Italic findfont   67 sf 0    0 m 
(25)
 show 
 gr 
 /xs 0 def 
(30)
 /Times-Italic     67 stwn 
 gsave  267 1043
 t   0 r  xs neg 0 t 0 0 m
 /Times-Italic findfont   67 sf 0    0 m 
(30)
 show 
 gr 
 /xs 0 def 
(35)
 /Times-Italic     67 stwn 
 gsave  267 1175
 t   0 r  xs neg 0 t 0 0 m
 /Times-Italic findfont   67 sf 0    0 m 
(35)
 show 
 gr 
 /xs 0 def 
(40)
 /Times-Italic     67 stwn 
 gsave  267 1307
 t   0 r  xs neg 0 t 0 0 m
 /Times-Italic findfont   67 sf 0    0 m 
(40)
 show 
 gr 
 /xs 0 def 
(45)
 /Times-Italic     67 stwn 
 gsave  267 1439
 t   0 r  xs neg 0 t 0 0 m
 /Times-Italic findfont   67 sf 0    0 m 
(45)
 show 
 gr  [] 0 sd 311 405 m 1801 X s 311 438 m -33 Y s [4 8] 0 sd 311 1461 m -1056 Y
 s [] 0 sd 371 422 m -17 Y s 431 422 m -17 Y s 491 422 m -17 Y s 551 422 m -17 Y
 s 611 438 m -33 Y s [4 8] 0 sd 611 1461 m -1056 Y s [] 0 sd 671 422 m -17 Y s
 731 422 m -17 Y s 791 422 m -17 Y s 851 422 m -17 Y s 911 438 m -33 Y s
 [4 8] 0 sd 911 1461 m -1056 Y s [] 0 sd 971 422 m -17 Y s 1031 422 m -17 Y s
 1092 422 m -17 Y s 1152 422 m -17 Y s 1212 438 m -33 Y s [4 8] 0 sd 1212 1461 m
 -1056 Y s [] 0 sd 1272 422 m -17 Y s 1332 422 m -17 Y s 1392 422 m -17 Y s 1452
 422 m -17 Y s 1512 438 m -33 Y s [4 8] 0 sd 1512 1461 m -1056 Y s [] 0 sd 1572
 422 m -17 Y s 1632 422 m -17 Y s 1692 422 m -17 Y s 1752 422 m -17 Y s 1812 438
 m -33 Y s [4 8] 0 sd 1812 1461 m -1056 Y s [] 0 sd 1872 422 m -17 Y s 1932 422
 m -17 Y s 1992 422 m -17 Y s 2052 422 m -17 Y s 2112 438 m -33 Y s [4 8] 0 sd
 2112 1461 m -1056 Y s
 /xs 0 def 
(0)
 /Times-Italic     67 stwn 
 gsave  311 338
 t   0 r  xs 2 div neg 0 t 0 0 m
 /Times-Italic findfont   67 sf 0    0 m 
(0)
 show 
 gr 
 /xs 0 def 
(500)
 /Times-Italic     67 stwn 
 gsave  611 338
 t   0 r  xs 2 div neg 0 t 0 0 m
 /Times-Italic findfont   67 sf 0    0 m 
(500)
 show 
 gr 
 /xs 0 def 
(1000)
 /Times-Italic     67 stwn 
 gsave  911 338
 t   0 r  xs 2 div neg 0 t 0 0 m
 /Times-Italic findfont   67 sf 0    0 m 
(1000)
 show 
 gr 
 /xs 0 def 
(1500)
 /Times-Italic     67 stwn 
 gsave  1212 338
 t   0 r  xs 2 div neg 0 t 0 0 m
 /Times-Italic findfont   67 sf 0    0 m 
(1500)
 show 
 gr 
 /xs 0 def 
(2000)
 /Times-Italic     67 stwn 
 gsave  1512 338
 t   0 r  xs 2 div neg 0 t 0 0 m
 /Times-Italic findfont   67 sf 0    0 m 
(2000)
 show 
 gr 
 /xs 0 def 
(2500)
 /Times-Italic     67 stwn 
 gsave  1812 338
 t   0 r  xs 2 div neg 0 t 0 0 m
 /Times-Italic findfont   67 sf 0    0 m 
(2500)
 show 
 gr 
 /xs 0 def 
(3000)
 /Times-Italic     67 stwn 
 gsave  2112 338
 t   0 r  xs 2 div neg 0 t 0 0 m
 /Times-Italic findfont   67 sf 0    0 m 
(3000)
 show 
 gr  1801 1056 311 405 C 2223 2778 0 183 C
 /xs 0 def 
(ratio VS. run)
 /Times-Italic     47 stwn 
 gsave  1212 -10630
 t   0 r  xs 2 div neg 0 t 0 0 m
 /Times-Italic findfont   47 sf 0    0 m 
(ratio VS. run)
 show 
 gr  1801 1056 311 405 C [] 0 sd /w 12 def /w2 {w 2 div} def /w3 {w 3 div} def
 315 720 315 721 315 759 317 766 317 855 318 853 318 870 319 893 320 893 321 987
 321 1038 322 916 324 957 324 701 325 839 326 850 327 772 327 783 328 825 329
 928 329 913 330 941 330 880 331 807 332 1046 333 884 333 889 334 892 335 887
 335 877 336 971 336 887 337 793 338 840 338 889 339 884 340 897 341 880 341 780
 342 889 344 838 345 899 346 883 347 810 347 898 348 736 348 855 349 859 350 864
 350 858 351 816 351 869 352 860 353 844 353 708 354 1436 354 652 355 837 356
 825 356 876 357 871 357 878 358 885 359 913 360 900 360 897 361 898 362 912 362
 924 363 909 363 792 364 888 365 914 366 806 366 856 367 882 368 872 368 874 369
 920 370 922 371 900 371 880 372 860 372 947 374 926 375 882 375 900 376 904 377
 904 377 915 378 907 378 900 379 928 380 939 381 818 381 941 382 837 383 924 383
 896 384 851 100 { m20} R 384 866 385 898 386 924 387 894 387 898 388 902 389
 871 390 944 399 896 400 817 401 852 401 879 402 823 402 803 403 848 404 781 405
 668 405 720 417 925 418 983 419 886 419 915 420 888 420 960 421 941 422 936 422
 909 423 869 423 894 424 904 425 879 425 735 426 767 426 909 427 928 428 937 429
 731 429 944 430 693 431 752 431 738 432 747 432 714 433 753 434 763 434 774 435
 727 435 756 436 681 437 684 437 726 438 680 438 815 439 742 440 808 441 749 441
 775 443 771 443 518 444 716 444 760 445 798 446 852 446 849 447 817 448 746 449
 822 449 793 450 760 451 658 452 840 452 751 453 775 453 826 454 936 455 851 455
 896 456 946 456 952 457 948 458 930 458 878 459 932 460 972 461 941 461 909 462
 953 462 965 463 977 464 951 464 945 465 927 465 941 466 922 467 907 467 885 468
 924 468 953 469 933 470 942 100 { m20} R 471 948 472 943 473 949 473 925 474
 969 474 960 475 963 476 937 476 933 477 950 477 981 478 967 479 869 479 892 480
 994 481 957 482 944 482 893 483 965 483 962 484 956 485 963 485 966 486 912 486
 1001 487 952 488 956 488 939 489 938 489 1007 490 972 491 885 492 986 492 952
 493 981 494 959 494 1037 495 965 495 886 496 1016 497 968 498 960 498 942 499
 961 500 812 500 943 501 984 502 957 503 1010 503 996 504 1033 504 957 505 1037
 506 945 506 983 507 1039 507 993 509 992 509 989 509 1048 510 787 510 1030 511
 1031 512 1085 512 1089 513 1073 513 1009 514 1052 515 1009 515 1061 516 945 516
 1027 518 1012 518 1066 519 1053 520 989 521 965 521 950 522 1024 522 1059 523
 1075 524 1027 524 1038 525 1109 526 956 527 942 527 910 528 933 529 974 529
 1052 530 924 530 897 531 956 532 878 532 988 533 1010 533 978 534 1028 535 1056
 535 1043 100 { m20} R 536 1054 536 740 537 535 538 906 539 1040 539 926 540
 1026 541 1019 541 975 542 924 542 983 544 903 545 1040 546 975 547 1031 547 980
 548 979 548 1015 549 959 550 1028 550 985 551 979 551 907 552 925 553 1001 553
 842 554 1001 554 828 555 1013 556 1004 556 1021 557 974 557 1034 559 1020 559
 993 560 1014 560 1047 561 1019 562 1042 562 1048 563 1026 563 1026 564 1027 564
 1028 565 1024 566 961 566 1063 567 1018 568 1012 569 1008 570 928 571 1021 571
 975 572 980 572 926 573 955 574 701 577 891 578 916 579 965 580 892 582 1003
 583 1019 583 847 584 844 584 707 585 870 586 869 586 816 587 889 587 880 588
 816 589 860 589 685 590 857 590 927 591 873 592 865 592 919 593 877 593 802 594
 886 595 862 595 855 596 913 596 957 597 890 598 947 599 892 600 904 601 914 601
 901 602 911 602 897 603 886 604 824 604 907 605 895 605 826 606 866 100 { m20
} R 607 845 608 831 608 899 609 838 610 955 610 638 611 813 611 893 612 931 613
 916 613 951 614 839 614 883 615 890 617 972 618 953 619 793 620 920 620 861 621
 940 622 877 622 904 623 899 623 928 624 926 625 891 627 942 628 782 628 865 629
 936 629 875 630 845 631 886 631 903 632 923 634 832 634 774 635 1054 635 895
 636 848 637 958 637 874 638 774 638 903 639 913 640 946 640 951 641 963 642 959
 643 956 643 975 644 647 645 921 647 820 647 1023 649 971 650 995 650 994 651
 1019 652 1006 652 1013 653 1008 653 998 654 996 655 991 656 978 656 895 657 966
 658 872 659 988 660 1007 661 982 662 983 663 981 664 981 665 976 665 988 667
 984 667 980 668 963 668 897 669 960 670 957 671 970 671 893 672 939 673 955 674
 879 674 971 675 981 676 987 677 941 677 983 678 964 679 960 679 978 680 959 681
 880 682 920 683 987 100 { m20} R 683 984 685 980 686 812 686 954 687 917 688
 906 688 903 689 908 689 959 690 991 691 971 691 994 692 955 692 958 693 960 694
 974 694 972 695 936 697 962 697 928 698 975 698 962 699 960 700 952 700 938 701
 885 701 856 702 899 703 879 703 909 705 881 706 901 706 902 707 890 707 956 708
 943 709 927 709 827 710 996 710 978 711 995 713 968 713 946 714 868 715 993 715
 924 716 886 716 970 717 834 718 431 718 1008 719 986 720 995 722 1007 722 988
 724 928 725 899 725 1041 726 929 727 1005 727 1044 728 1032 728 949 729 1036
 730 929 730 1045 731 1050 731 1018 732 1035 733 1006 733 1007 734 988 734 970
 735 936 736 946 736 847 737 1073 737 915 739 1019 739 868 740 915 740 953 741
 946 742 1003 742 984 743 953 743 844 744 946 745 913 745 993 746 1016 746 993
 747 814 748 620 749 931 749 733 751 940 751 895 752 971 752 660 100 { m20} R
 754 708 754 774 755 869 757 921 758 874 759 884 760 802 760 743 761 1010 762
 854 763 949 763 949 764 902 764 879 765 974 766 929 766 969 767 890 768 988 771
 1045 772 979 772 740 773 986 773 1018 774 1014 775 995 776 1130 778 959 778 989
 779 958 779 967 780 927 781 939 781 943 782 948 782 986 783 1009 784 877 784
 1012 785 850 785 983 786 883 787 915 788 817 788 949 789 864 790 840 790 951
 791 935 791 907 792 767 794 924 795 917 796 1079 797 729 798 864 799 717 799
 866 800 720 801 767 802 857 802 838 803 723 803 813 805 776 806 1000 806 686
 807 896 808 948 826 866 827 839 827 840 828 790 829 951 830 927 831 716 832 737
 833 807 834 758 835 811 835 675 836 763 836 721 837 786 838 484 838 791 839 776
 841 784 842 884 842 804 842 810 843 864 844 858 845 850 845 874 847 899 848 663
 848 856 854 855 855 803 100 { m20} R 856 861 856 862 857 792 857 893 858 890
 859 815 859 826 860 857 861 1056 862 834 863 818 863 872 865 735 865 880 866
 854 866 868 868 887 868 936 869 895 869 827 870 866 871 873 871 913 872 883 874
 879 875 854 875 891 876 905 877 792 877 926 878 956 878 870 879 1011 880 943
 881 1017 882 932 883 928 883 931 884 934 884 916 885 930 886 888 887 917 888
 898 889 880 889 882 890 830 890 932 891 966 892 837 892 936 893 869 893 804 895
 961 895 968 896 919 897 851 898 870 898 888 899 954 900 942 901 974 901 952 903
 915 904 858 905 936 906 897 907 883 908 974 908 920 909 936 910 921 910 982 911
 943 911 945 912 946 913 933 913 952 914 859 915 978 916 913 916 947 917 988 917
 960 919 852 920 1036 921 994 922 990 922 989 923 1032 923 988 924 975 925 864
 926 1000 927 889 928 986 928 956 929 1010 929 935 931 981 100 { m20} R 931 951
 932 938 932 875 933 979 934 915 934 1004 935 936 937 941 937 975 938 899 938
 963 939 1029 940 1028 940 991 941 990 941 969 942 1028 943 975 943 995 944 928
 944 1019 946 1004 947 992 947 881 948 990 949 972 950 944 950 995 951 923 952
 931 952 908 953 925 953 948 954 963 955 939 955 1014 956 903 956 955 957 897
 958 985 959 1028 959 1011 972 1056 973 1025 974 1071 977 997 979 1161 979 1069
 980 1046 980 1089 981 936 982 1140 983 1152 984 1121 985 1120 985 1084 989 1126
 990 1048 993 1195 994 1091 994 1054 996 1045 997 1199 998 1077 998 1086 999
 1118 1000 1141 1000 1133 1001 1100 1002 1067 1003 1078 1003 1020 1004 1150 1004
 1121 1005 906 1006 1074 1006 1084 1007 1163 1007 1136 1008 1144 1009 1103 1009
 1154 1010 1136 1010 1075 1011 1124 1012 1066 1012 1114 1013 1069 1013 1134 1014
 1106 1015 1047 1015 1090 1016 1071 1016 900 1017 1039 1018 1113 1018 1120 1019
 1001 1019 1123 1020 1235 100 { m20} R 1021 1183 1021 1146 1022 1057 1022 1151
 1023 1024 1024 1098 1024 949 1025 1088 1025 1084 1026 940 1027 1149 1027 919
 1028 1146 1028 1098 1029 1076 1030 1229 1030 1047 1031 992 1032 1125 1033 801
 1033 1055 1034 1154 1034 1097 1036 981 1037 1054 1038 1067 1039 1065 1039 1031
 1040 1067 1040 1003 1042 1073 1042 1046 1043 1054 1043 1006 1044 1013 1045 1081
 1045 994 1046 1078 1046 1097 1047 1110 1048 1082 1048 1136 1049 1075 1050 1082
 1051 1099 1052 1084 1052 1100 1053 1074 1054 1158 1054 1080 1055 1014 1055 1075
 1056 1046 1057 980 1057 1076 1058 1061 1058 1086 1059 1102 1060 1108 1062 1032
 1063 1163 1064 1026 1064 1137 1065 932 1066 1116 1066 1167 1067 1010 1067 936
 1068 1073 1069 1179 1070 1084 1070 1075 1072 1197 1072 994 1073 1058 1073 1141
 1074 1099 1075 1094 1076 1011 1076 1097 1077 1101 1079 1111 1081 1061 1082 1031
 1083 1036 1083 1032 1084 1038 1084 895 1085 837 1086 1048 1086 983 1087 878
 1087 1056 1089 1056 1090 889 1091 1083 1092 1133 1092 861 1096 1078 1097 878
 100 { m20} R 1098 1107 1098 1046 1099 856 1099 1084 1100 1068 1101 990 1101
 1059 1102 1107 1103 1064 1104 1002 1104 1066 1105 1062 1107 1042 1107 1068 1110
 1102 1111 1108 1112 1094 1113 955 1113 1128 1114 1087 1114 1049 1115 1122 1116
 1075 1116 1081 1117 1079 1117 1098 1118 1084 1119 998 1119 1110 1120 1125 1120
 1081 1121 1109 1122 1086 1122 1086 1123 1099 1124 1061 1125 1122 1125 1105 1126
 1108 1126 1097 1127 1101 1128 1119 1128 1133 1129 1117 1129 1115 1130 1110 1131
 1128 1132 1033 1132 1148 1133 1104 1134 1109 1134 1114 1135 1130 1135 1130 1136
 1141 1137 1114 1138 1119 1138 1130 1139 1127 1140 1148 1140 1111 1141 1106 1142
 1125 1143 1126 1143 1051 1144 1159 1144 1119 1145 1062 1146 1130 1146 1103 1147
 1108 1149 1113 1150 1126 1150 1117 1151 1111 1152 1108 1152 1135 1153 1121 1153
 1127 1154 1104 1155 1100 1155 1094 1156 1142 1156 1136 1157 1143 1158 984 1158
 1111 1159 1110 1160 944 1161 1049 1162 1024 1162 1013 1163 1018 1164 779 1164
 951 1165 914 1167 1096 1168 1069 1168 1054 1169 1063 100 { m20} R 1170 1067
 1170 1087 1171 1085 1171 1060 1173 1070 1173 1073 1174 1005 1174 990 1175 1076
 1176 1125 1177 1106 1177 1119 1178 1086 1179 1054 1179 1113 1180 1087 1180 1043
 1181 1111 1182 1064 1182 974 1183 1010 1183 1109 1184 1082 1185 1117 1185 1034
 1186 1084 1186 1061 1187 1033 1188 1106 1188 1054 1189 1068 1189 1058 1190 1057
 1191 1091 1191 1097 1192 1053 1192 1068 1193 1092 1194 1094 1196 1143 1197 1106
 1197 1141 1198 1129 1198 1131 1199 1114 1200 1116 1200 1135 1202 1162 1203 1150
 1203 1160 1206 862 1206 895 1207 990 1207 1029 1208 1002 1209 1059 1209 960
 1210 1034 1210 1018 1211 1062 1212 977 1212 1046 1213 1036 1213 1064 1214 1049
 1215 1042 1216 1076 1216 1043 1217 1064 1218 1066 1218 1052 1219 1044 1220 1007
 1221 991 1221 1027 1222 807 1222 1063 1223 1025 1224 876 1231 1075 1232 959
 1233 1047 1233 1008 1234 806 1235 893 1236 874 1236 911 1237 865 1237 820 1238
 809 1239 1017 1240 1055 1242 1002 1242 1004 1243 919 1244 901 1247 1004 1248
 967 1249 785 1250 928 100 { m20} R 1251 908 1251 912 1252 980 1252 897 1254
 1012 1255 941 1255 1027 1256 1103 1257 1089 1258 1065 1258 1012 1259 1070 1260
 1108 1261 1052 1261 1056 1262 1068 1263 1073 1264 1053 1264 1051 1265 989 1266
 1059 1266 1073 1267 1068 1269 1048 1270 1078 1270 1076 1271 1098 1272 1072 1272
 1068 1273 1055 1273 1087 1274 1062 1275 1057 1275 1045 1276 1040 1276 1044 1277
 1030 1278 1040 1278 1043 1279 1058 1279 1053 1280 982 1281 1001 1283 1119 1284
 1092 1285 965 1286 1058 1287 1062 1287 1018 1288 921 1288 987 1289 1033 1290
 968 1291 1053 1292 1007 1293 1019 1294 888 1295 801 1296 776 1297 820 1297 942
 1298 824 1299 895 1299 807 1301 950 1302 1045 1303 948 1304 865 1305 1039 1306
 980 1306 988 1307 954 1308 966 1308 1011 1309 963 1309 1009 1310 963 1311 1010
 1312 1005 1312 979 1313 1011 1314 1013 1314 978 1315 999 1315 989 1316 952 1317
 989 1318 1001 1318 974 1319 1034 1320 1030 1320 935 1321 989 1321 956 1322 851
 1323 986 1323 959 1324 955 1324 964 1326 1019 100 { m20} R 1326 992 1327 1021
 1327 926 1328 1056 1329 1050 1330 1052 1330 1058 1331 1022 1332 1021 1335 1037
 1335 1031 1336 925 1336 1055 1338 1056 1339 1038 1339 1032 1341 1030 1341 1024
 1342 946 1342 1001 1344 968 1344 998 1345 1105 1345 1148 1346 1137 1347 1197
 1348 1106 1349 1123 1350 1071 1350 1034 1351 956 1353 983 1353 1024 1354 1003
 1354 999 1356 1039 1356 1043 1357 1053 1357 1088 1358 1066 1359 1104 1359 1078
 1363 1101 1363 1104 1364 1091 1365 1069 1365 1096 1366 1058 1366 1074 1367 1089
 1368 1077 1369 1094 1369 1108 1370 434 1371 707 1371 1064 1372 1055 1373 1072
 1374 1048 1374 1052 1375 1035 1375 1058 1377 1051 1377 1057 1378 1052 1378 1046
 1379 899 1380 976 1380 998 1382 1029 1383 940 1384 1012 1385 1019 1386 1019
 1387 1025 1387 1037 1389 1027 1389 1022 1390 1010 1391 1010 1392 1036 1392 1024
 1393 951 1393 904 1394 978 1395 974 1395 960 1396 1098 1396 1046 1397 1051 1398
 996 1398 1058 1399 1091 1399 1029 1400 1019 1401 950 1401 1063 1402 1064 1402
 1057 1403 1070 100 { m20} R 1404 1079 1404 1044 1405 1001 1405 1052 1406 1021
 1407 1043 1407 1048 1408 1032 1408 1032 1409 1022 1410 1032 1410 1023 1411 1014
 1411 1086 1412 1026 1413 1033 1415 973 1416 1060 1416 1051 1417 1071 1418 1058
 1419 1062 1419 1064 1420 1070 1420 1089 1421 1087 1422 1086 1422 1075 1423 1057
 1423 1074 1424 1083 1425 1062 1425 1120 1426 1112 1426 1101 1427 1003 1428 1082
 1428 1126 1429 967 1430 1101 1432 1135 1432 1089 1433 1002 1434 959 1434 972
 1435 968 1435 972 1436 971 1437 962 1438 982 1439 986 1440 1015 1441 1040 1441
 1040 1442 1020 1443 1069 1443 1043 1444 1048 1444 1042 1446 1061 1446 1042 1447
 1042 1447 1034 1448 998 1449 1046 1449 1019 1450 1066 1459 956 1459 880 1460
 871 1461 896 1461 867 1463 886 1464 846 1464 884 1465 869 1466 620 1467 932
 1468 949 1468 1118 1469 1121 1470 1131 1470 1120 1471 1138 1471 909 1472 1108
 1473 642 1473 1057 1474 1036 1474 931 1475 974 1476 898 1476 900 1477 1017 1478
 1097 1479 1021 1479 1051 1480 848 1480 1016 1481 884 100 { m20} R 1482 1058
 1483 807 1483 1035 1484 1113 1485 1118 1485 1120 1486 1049 1486 1154 1487 1097
 1488 1143 1488 1063 1489 1053 1489 949 1490 949 1491 1009 1491 1090 1492 972
 1492 936 1494 972 1494 905 1495 939 1495 1031 1496 1086 1497 1188 1497 1149
 1498 1106 1498 1148 1499 1142 1500 1087 1500 1086 1500 895 1501 1052 1501 902
 1502 1037 1503 1003 1504 1003 1504 1038 1505 935 1506 943 1506 940 1507 1039
 1507 1097 1508 1062 1509 1132 1509 1062 1510 1049 1510 1025 1511 1150 1512 1146
 1515 976 1515 1060 1516 1059 1517 1086 1518 899 1518 1007 1519 1042 1519 1040
 1520 1031 1521 1051 1521 1080 1522 1023 1522 1025 1524 1067 1524 1046 1525 1120
 1526 1030 1527 1033 1527 1041 1528 1057 1528 1022 1529 1055 1530 972 1532 1067
 1533 1063 1533 1041 1534 1096 1534 1052 1535 1046 1536 967 1536 1072 1537 1034
 1538 1012 1539 964 1539 990 1540 953 1540 917 1541 816 1542 900 1542 1016 1543
 995 1543 997 1544 937 1545 1060 1545 1009 1546 990 1546 964 1547 1038 1549 1023
 1550 996 1551 990 100 { m20} R 1552 1033 1553 1038 1554 1029 1554 1022 1555 997
 1555 983 1558 939 1558 1000 1559 958 1560 927 1560 793 1561 869 1561 824 1562
 957 1563 871 1564 1017 1564 1001 1565 1010 1566 982 1566 1058 1567 1037 1568
 976 1569 1009 1569 1024 1570 999 1572 1090 1572 944 1573 984 1574 1025 1575
 1070 1575 964 1576 1061 1576 1052 1577 1015 1578 1027 1578 992 1579 1107 1579
 1065 1580 1098 1581 1075 1581 1053 1582 1137 1582 1057 1583 1058 1584 1047 1584
 1002 1585 1068 1586 1069 1587 1052 1587 1175 1588 1118 1588 1120 1589 1119 1590
 1109 1590 1123 1591 1111 1591 1030 1592 1107 1593 1112 1593 1059 1594 1069 1594
 1018 1595 1139 1597 1105 1597 1045 1598 995 1599 1046 1599 1057 1600 1079 1600
 1069 1601 1075 1602 968 1602 934 1603 1077 1603 1035 1605 1109 1605 1028 1609
 949 1610 928 1611 896 1611 956 1612 897 1612 925 1613 958 1614 958 1614 986
 1615 963 1615 989 1616 998 1617 998 1618 800 1620 1013 1620 1035 1621 907 1621
 797 1623 846 1623 963 1624 1062 1625 1023 1626 888 100 { m20} R 1626 1062 1627
 913 1627 1075 1628 867 1629 1017 1629 1020 1630 1005 1631 961 1632 1013 1632
 1014 1633 768 1633 932 1634 959 1635 1013 1635 1075 1636 1078 1637 1127 1637
 1075 1638 1060 1638 1059 1639 947 1640 1093 1641 911 1641 1016 1642 1080 1643
 1012 1643 1037 1644 1048 1644 1067 1645 1128 1646 1086 1646 1013 1647 1151 1647
 1072 1648 1038 1649 1074 1649 1055 1650 1064 1650 1060 1651 971 1652 1090 1652
 1029 1653 1037 1653 1045 1654 928 1655 989 1655 981 1656 1030 1656 884 1657 987
 1658 1032 1658 993 1659 1010 1659 1006 1660 1023 1661 1005 1661 1013 1662 1035
 1662 982 1663 1064 1664 1024 1664 916 1665 992 1665 1016 1666 955 1667 419 1667
 1088 1668 998 1668 1147 1669 1098 1670 1029 1670 988 1671 983 1671 845 1672 936
 1673 934 1673 945 1674 881 1674 999 1675 931 1676 939 1676 837 1677 992 1677
 961 1678 960 1679 877 1679 990 1680 876 1680 895 1681 964 1682 816 1682 845
 1683 982 1683 949 1684 1037 1685 994 1685 1001 1686 951 1686 1057 1687 1015 100
 { m20} R 1688 982 1688 696 1689 894 1691 990 1691 1005 1692 1000 1692 1004 1693
 1015 1694 1002 1695 913 1695 887 1697 998 1697 1000 1698 965 1698 971 1699 946
 1700 994 1700 1013 1701 1000 1702 884 1703 838 1703 880 1704 895 1704 1051 1705
 1017 1706 1017 1706 941 1707 1053 1707 1010 1708 1025 1709 930 1709 1016 1710
 970 1710 1047 1711 990 1712 991 1712 973 1713 1052 1713 841 1714 733 1715 900
 1716 961 1717 954 1718 1094 1718 878 1719 1070 1720 1085 1721 992 1721 859 1722
 892 1722 922 1724 648 1724 928 1725 898 1726 1004 1727 812 1728 1049 1728 1016
 1729 893 1730 982 1730 851 1731 969 1731 1036 1732 972 1733 844 1736 944 1736
 863 1737 765 1737 873 1738 1019 1739 981 1739 924 1740 798 1740 892 1741 864
 1742 887 1742 984 1743 972 1743 972 1744 965 1745 1022 1745 929 1746 831 1746
 984 1747 1011 1748 830 1749 738 1749 460 1750 1032 1751 1074 1751 955 1752 954
 1752 825 1754 862 1754 944 1755 796 1755 941 1756 977 1757 1032 1757 993 100 {
 m20} R 1759 986 1760 852 1760 1018 1761 809 1761 913 1762 782 1763 941 1763 932
 1764 820 1765 948 1766 974 1766 852 1767 1065 1767 824 1769 808 1770 1008 1771
 888 1772 848 1772 845 1773 927 1773 938 1774 924 1775 808 1776 936 1778 1045
 1778 838 1779 955 1780 1003 1781 1094 1782 1086 1782 884 1783 1022 1784 1037
 1784 1048 1785 1072 1785 1067 1786 1081 1787 1095 1787 1071 1788 1050 1789 1067
 1790 1059 1790 1054 1791 1026 1791 1030 1792 1029 1793 1092 1793 884 1794 930
 1794 1050 1795 1073 1796 1059 1803 933 1803 1073 1804 1066 1806 1061 1806 982
 1808 728 1811 983 1812 1056 1812 1051 1813 1007 1814 1026 1814 945 1815 1030
 1816 987 1817 1044 1817 1082 1818 1081 1818 1081 1819 1059 1820 1083 1820 1056
 1821 1087 1821 1066 1822 1060 1823 1044 1824 1098 1824 1100 1825 1115 1826 1085
 1826 1079 1827 1065 1827 1105 1829 1118 1829 1099 1830 1076 1830 1036 1831 1066
 1832 1019 1833 1051 1833 975 1834 984 1835 1055 1835 1079 1836 1067 1836 1074
 1837 988 1838 1080 1838 977 100 { m20} R 1839 851 1839 1051 1840 1105 1841 1090
 1841 1085 1842 1097 1843 1095 1844 1104 1844 1062 1845 1097 1845 1116 1847 1057
 1849 1141 1853 983 1853 991 1854 1107 1854 1049 1855 1035 1856 1035 1856 1042
 1857 1016 1857 978 1859 972 1859 992 1860 1037 1860 1002 1862 991 1862 1012
 1863 1010 1863 1007 1864 1005 1865 996 1865 983 1866 1025 1867 1011 1868 909
 1871 989 1872 1011 1873 978 1874 1041 1874 976 1875 973 1877 925 1877 972 1878
 1022 1878 1036 1879 1040 1880 1090 48 { m20} R 1880 1076 1881 1022 1882 1004
 1883 992 1883 1002 1884 999 1884 1023 1885 1055 1887 984 1887 966 1888 1043
 1889 1057 1889 1062 1890 1053 1890 1072 1892 1050 1893 1113 1893 1038 1894 1043
 1895 1017 1895 1015 1896 1039 1897 1061 1898 1015 1898 1015 1899 1002 1899 1048
 1900 1035 1901 1046 1901 925 1902 1085 1902 1084 1903 1094 1904 1083 1904 1115
 1905 1083 1905 1102 1906 1088 1907 1082 1907 1080 1908 1066 1908 1049 1909 1072
 1910 1037 1911 970 1913 956 1913 1007 1914 973 1915 1065 1916 1015 1916 914
 1917 822 1917 981 1918 908 1919 923 1919 850 1920 939 1921 879 1922 848 1925
 1050 1926 1000 1928 983 1929 1020 1929 999 1930 1023 1931 1031 1931 988 1932
 848 1933 1043 1934 989 1934 1006 1936 985 1937 850 1938 882 1940 948 1940 901
 1941 802 1943 1037 1943 851 1944 851 1944 820 1945 1008 1946 920 1946 890 1947
 992 1947 983 1948 1015 1949 988 1949 979 1950 891 1951 977 1952 1048 1952 1055
 1953 1029 1953 1073 1954 1127 1955 1101 1955 1099 1956 1048 1956 1008 100 { m20
} R 1957 856 1958 894 1958 982 1959 995 1959 914 1960 942 1961 920 1962 988 1962
 1006 1963 975 1964 946 1964 979 1966 1082 1967 919 1967 946 1968 937 1968 867
 1969 958 1970 1118 1970 1000 1971 1007 1973 1104 1973 1071 1974 1036 1974 1011
 1975 949 1976 1014 1976 918 1978 654 1980 810 1980 782 1981 751 1982 879 1983
 848 1983 857 1984 888 1985 909 1986 929 1986 1002 1987 1054 1988 1074 1989 1099
 1989 1082 1991 1071 1991 1005 1992 978 1992 847 1994 1024 1994 1059 1995 1012
 1995 1016 1996 981 1997 995 1997 964 1998 978 1998 955 1999 987 2000 784 2000
 942 2001 716 2002 876 2003 889 2003 758 2004 852 2004 847 2005 905 2006 961
 2006 971 2007 837 2007 860 2008 879 2009 917 2010 943 2010 900 2011 936 2012
 891 2012 913 2016 1038 2016 1055 2017 1089 2018 1035 2018 1072 2019 1014 2019
 1031 2020 935 2022 1014 2024 1168 2024 1147 2025 1128 2026 1085 2027 1076 2027
 1114 2028 1046 2028 1061 2030 1132 2030 1070 2031 1104 97 { m20} R 2223 2778 0
 183 C
 /xs 0 def 
(run no.)
 /Times-Italic     84 stwn 
 gsave  2112 240
 t   0 r  xs neg 0 t 0 0 m
 /Times-Italic findfont   84 sf 0    0 m 
(run no.)
 show 
 gr 
 /xs 0 def 
(frac. passing L4 \(%\))
 /Times-Italic     84 stwn 
 gsave  156 1461
 t  90 r  xs neg 0 t 0 0 m
 /Times-Italic findfont   84 sf 0    0 m 
(frac. passing L4 \(%\))
 show 
 gr  1801 1056 311 405 C gr 
showpage
 gr 
%%Trailer
%%Pages: 1
 gr  gr 
%%EOF
