%!PS-Adobe-2.0 EPSF-2.0
%%BoundingBox: 0 0 567 567
%%Title: bgob115k.eps
%%Creator: HIGZ Version 1.22/09
%%CreationDate: 98/01/08   18.37
%%EndComments
80 dict begin
/s {stroke} def /l {lineto} def /m {moveto} def /t {translate} def
/sw {stringwidth} def /r {rotate} def /rl {roll}  def /R {repeat} def
/d {rlineto} def /rm {rmoveto} def /gr {grestore} def /f {eofill} def
/c {setrgbcolor} def /lw {setlinewidth} def /sd {setdash} def
/cl {closepath} def /sf {scalefont setfont} def /black {0 setgray} def
/box {m dup 0 exch d exch 0 d 0 exch neg d cl} def
/NC{systemdict begin initclip end}def/C{NC box clip newpath}def
/bl {box s} def /bf {box f} def /Y { 0 exch d} def /X { 0 d} def 
/mp {newpath /y exch def /x exch def} def
/side {[w .77 mul w .23 mul] .385 w mul sd w 0 l currentpoint t -144 r} def
/mr {mp x y w2 0 360 arc} def /m24 {mr s} def /m20 {mr f} def
/mb {mp x y w2 add m w2 neg 0 d 0 w neg d w 0 d 0 w d cl} def
/mt {mp x y w2 add m w2 neg w neg d w 0 d cl} def
/m21 {mb f} def /m25 {mb s} def /m22 {mt f} def /m26 {mt s} def
/m23 {mp x y w2 sub m w2 w d w neg 0 d cl f} def
/m27 {mp x y w2 add m w3 neg w2 neg d w3 w2 neg d w3  w2 d cl s} def
/m28 {mp x w2 sub y w2 sub w3 add m w3 0 d 0 w3 neg d w3 0 d 0 w3 d w3 0 d
 0 w3 d w3 neg 0 d 0 w3 d w3 neg 0 d
 0 w3 neg d w3 neg 0 d cl s } def
/m29 {mp gsave x w2 sub y w2 add w3 sub m currentpoint t
 4 {side} repeat cl fill gr} def
/m30 {mp gsave x w2 sub y w2 add w3 sub m currentpoint t
 5 {side} repeat s gr} def
/m31 {mp x y w2 sub m 0 w d x w2 sub y m w 0 d
 x w2 sub y w2 add m w w neg d x w2 sub y w2
 sub m w w d s} def
/m2 {mp x y w2 sub m 0 w d x w2 sub y m w 0 d s} def
/m5 {mp x w2 sub y w2 sub m w w d x w2 sub y w2 add m w w neg d s} def
/DP {/PT exch def gsave 47.2 47.2 scale PT 1 eq { 16 16 1 [ 16 0 0 16 neg 0 16
] { < AA AA 55 55 AA AA 55 55 AA AA 55 55 AA AA 55 55 AA AA 55 55 AA AA 55 55
AA AA 55 55 AA AA 55 55 > } image } if PT 2 eq { 16 16 1 [ 16 0 0 16 neg 0 16
] { < BB BB EE EE BB BB EE EE BB BB EE EE BB BB EE EE BB BB EE EE BB BB EE EE
BB BB EE EE BB BB EE EE > } image } if PT 3 eq { 16 16 1 [ 16 0 0 16 neg 0 16
] { < FF FF BB BB FF FF EE EE FF FF BB BB FF FF EE EE FF FF BB BB FF FF EE EE
FF FF BB BB FF FF EE EE > } image } if PT 4 eq { 16 16 1 [ 16 0 0 16 neg 0 16
] { < DF DF BF BF 7F 7F FE FE FD FD FB FB F7 F7 EF EF DF DF BF BF 7F 7F FE FE
FD FD FB FB F7 F7 EF EF > } image } if PT 5 eq { 16 16 1 [ 16 0 0 16 neg 0 16
] { < 7F 7F BF B F DF DF EF EF F7 F7 FB FB FD FD FE FE 7F 7F BF BF DF DF EF
EF F7 F7 FB FB FD FD FE FE > } image } if PT 6 eq { 16 16 1 [ 16 0 0 16 neg 0
16 ] { < BB BB BB BB BB BB BB BB BB BB BB BB BB BB BB BB BB BB BB BB BB BB BB
BB BB BB BB BB BB BB BB BB > } image } if PT 7 eq { 16 16 1 [ 16 0 0 16 neg 0
16 ] { < FF FF FF FF FF FF 00 00 FF FF FF FF FF FF 00 00 FF FF FF FF FF FF 00
00 FF FF FF FF FF FF 00 00 > } image } if PT 8 eq { 16 16 1 [ 16 0 0 16 neg 0
16 ] { < EE EE 47 47 83 83 C5 C5 EE EE 5C 5C 38 38 74 74 EE EE 47 47 83 83 C5
C5 EE EE 5C 5C 38 38 74 74 > } image } if PT 9 eq { 16 16 1 [ 16 0 0 16 neg 0
16 ] { < EF EF EF EF D7 D7 38 38 FE FE FE FE 7D 7D 83 83 EF EF EF EF D7 D7 38
38 FE FE FE FE 7D 7D 83 83 > } image } if PT 10 eq { 16 16 1 [ 16 0 0 16 neg
0 16 ] { < EF EF EF EF EF EF 00 00 FE FE FE FE FE FE 00 00 EF EF EF EF EF EF
00 00 FE FE FE FE FE FE 00 00 > } image } if PT 11 eq { 16 16 1 [ 16 0 0 16
neg 0 16 ] { < F7 F7 B6 B6 D5 D5 E3 E3 D5 D5 B6 B6 F7 F7 FF FF 7F 7F 6B 6B 5D
5D 3E 3E 5D 5D 6B 6B 7F 7F FF FF > } image } if PT 12 eq { 16 16 1 [ 16 0 0
16 neg 0 16 ] { < E3 E3 DD DD BE BE BE BE BE BE DD DD E3 E3 FF FF 3E 3E DD DD
EB EB EB EB EB EB DD DD 3E 3E FF FF > } image } if PT 13 eq { 16 16 1 [ 16 0
0 16 neg 0 16 ] { < FE FE 7D 7D BB BB D7 D7 EF EF D7 D7 BB BB 7D 7D FE FE 7D
7D BB BB D7 D7 EF EF D7 D7 BB BB 7D 7D > } image } if PT 14 eq { 16 16 1 [ 16
0 0 16 neg 0 16 ] { < 00 00 EE EF EE EF EE EF 0E E0 EE EE EE EE EE EE 00 EE
FE EE FE EE FE EE 00 00 FE EF FE EF FE EF > } image } if PT 15 eq { 16 16 1 [
16 0 0 16 neg 0 16 ] { < DD DD AA AA DD DD FF FF 77 77 AA AA 77 77 FF FF DD
DD AA AA DD DD FF FF 77 77 AA AA 77 77 FF FF > } image } if PT 16 eq { 16 16
1 [ 16 0 0 16 neg 0 16 ] { < F1 F1 EE EE 1F 1F FF FF F1 F1 EE EE 1F 1F FF FF
F1 F1 EE EE 1F 1F FF FF F1 F1 EE EE 1F 1F FF FF > } image } if PT 17 eq { 16
16 1 [ 16 0 0 16 neg 0 16 ] { < EE EE DD DD BB BB FF FF EE EE DD DD BB BB FF
FF EE EE DD DD BB BB FF FF EE EE DD DD BB BB FF FF > } image } if PT 18 eq {
16 16 1 [ 16 0 0 16 neg 0 16 ] { < BB BB DD DD EE EE FF FF BB BB DD DD EE EE
FF FF BB BB DD DD EE EE FF FF BB BB DD DD EE EE FF FF > } image } if PT 19 eq
{ 16 16 1 [ 16 0 0 16 neg 0 16 ] { < 1F FC 67 F3 7B EF BD DE BD DE DE BD E6
B3 F8 0F E6 B3 DE BD BD DE BD DE 7B EF 67 F3 1F FC 7F FF > } image } if PT
20 eq { 16 16 1 [ 16 0 0 16 neg 0 16 ] { < DD DD EE EE EE EE EE EE DD DD BB
BB BB BB BB BB DD DD EE EE EE EE EE EE DD DD BB BB BB BB BB BB > } image }
if PT 21 eq { 16 16 1 [ 16 0 0 16 neg 0 16 ] { < 0E 0E EF EF EF EF EF EF E0
E0 FE FE FE FE FE FE 0E 0E EF EF EF EF EF EF E0 E0 FE FE FE FE FE FE > }
image } if PT 22 eq { 16 16 1 [ 16 0 0 16 neg 0 16 ] { < 70 70 F7 F7 F7 F7 F7
F7 07 07 7F 7F 7F 7F 7F 7F 70 70 F7 F7 F7 F7 F7 F7 07 07 7F 7F 7F 7F 7F 7F >
} image } if PT 23 eq { 16 16 1 [ 16 0 0 16 neg 0 16 ] { < AA AA 55 55 A9 A9
D1 D1 E1 E1 D1 D1 A9 A9 55 55 AA AA 55 55 A9 A9 D1 D1 E1 E1 D1 D1 A9 A9 55 55
> } image } if PT 24 eq { 16 16 1 [ 16 0 0 16 neg 0 16 ] { < FF FE FF FC EA
A8 D5 54 EA A8 D5 54 E8 28 D4 54 E8 E8 D4 D4 E8 EA 54 D5 A8 EA 54 D5 00 C0 00
80 > } image } if PT 25 eq { 16 16 1 [ 16 0 0 16 neg 0 16 ] { < FF FE FF FC
FF F8 FF F0 F0 00 F0 00 F0 20 F0 60 F0 E0 F1 E0 F3 E0 F0 00 E0 00 C0 00 80 00
00 00 > } image } if gr } def /FA { /PT exch def gsave clip 0 0 translate 1 1
54 { 1 sub 47.2 mul /Xcurr exch def 1 1 74 { 1 sub 47.2 mul /Ycurr exch def
gsave Xcurr Ycurr translate PT DP gr } for } for gr } def
/reencdict 24 dict def /ReEncode {reencdict begin /nco&na exch def
/nfnam exch def /basefontname exch def /basefontdict basefontname findfont def
/newfont basefontdict maxlength dict def basefontdict {exch dup /FID ne
{dup /Encoding eq {exch dup length array copy newfont 3 1 roll put} {exch
newfont 3 1 roll put} ifelse} {pop pop} ifelse } forall newfont
/FontName nfnam put nco&na aload pop nco&na length 2 idiv {newfont
/Encoding get 3 1 roll put} repeat nfnam newfont definefont pop end } def
/accvec [ 176 /agrave 181 /Agrave 190 /acircumflex 192 /Acircumflex
201 /adieresis 204 /Adieresis 209 /ccedilla 210 /Ccedilla 211 /eacute
212 /Eacute 213 /egrave 214 /Egrave 215 /ecircumflex 216 /Ecircumflex
217 /edieresis 218 /Edieresis 219 /icircumflex 220 /Icircumflex
221 /idieresis 222 /Idieresis 223 /ntilde 224 /Ntilde 226 /ocircumflex
228 /Ocircumflex 229 /odieresis 230 /Odieresis 231 /ucircumflex 236 /Ucircumflex
237 /udieresis 238 /Udieresis 239 /aring 242 /Aring 243 /ydieresis
244 /Ydieresis 246 /aacute 247 /Aacute 252 /ugrave 253 /Ugrave] def
/Times-Roman /Times-Roman accvec ReEncode
/Times-Italic /Times-Italic accvec ReEncode
/Times-Bold /Times-Bold accvec ReEncode
/Times-BoldItalic /Times-BoldItalic accvec ReEncode
/Helvetica /Helvetica accvec ReEncode
/Helvetica-Oblique /Helvetica-Oblique accvec ReEncode
/Helvetica-Bold /Helvetica-Bold accvec ReEncode
/Helvetica-BoldOblique /Helvetica-BoldOblique  accvec ReEncode
/Courier /Courier accvec ReEncode
/Courier-Oblique /Courier-Oblique accvec ReEncode
/Courier-Bold /Courier-Bold accvec ReEncode
/Courier-BoldOblique /Courier-BoldOblique accvec ReEncode
/oshow {gsave [] 0 sd true charpath stroke gr} def
/stwn { /fs exch def /fn exch def /text exch def fn findfont fs sf
 text sw pop xs add /xs exch def} def
/stwb { /fs exch def /fn exch def /nbas exch def /textf exch def
textf length /tlen exch def nbas tlen gt {/nbas tlen def} if
fn findfont fs sf textf dup length nbas sub nbas getinterval sw
pop neg xs add /xs exch def} def
/accspe [ 65 /plusminus 66 /bar 67 /existential 68 /universal
69 /exclam 70 /numbersign 71 /greater 72 /question 73 /integral
74 /colon 75 /semicolon 76 /less 77 /bracketleft 78 /bracketright
79 /greaterequal 80 /braceleft 81 /braceright 82 /radical
83 /spade 84 /heart 85 /diamond 86 /club 87 /lessequal
88 /multiply 89 /percent 90 /infinity 48 /circlemultiply 49 /circleplus
50 /emptyset 51 /lozenge 52 /bullet 53 /arrowright 54 /arrowup
55 /arrowleft 56 /arrowdown 57 /arrowboth 48 /degree 44 /comma 43 /plus
 45 /angle 42 /angleleft 47 /divide 61 /notequal 40 /equivalence 41 /second
 97 /approxequal 98 /congruent 99 /perpendicular 100 /partialdiff 101 /florin
 102 /intersection 103 /union 104 /propersuperset 105 /reflexsuperset
 106 /notsubset 107 /propersubset 108 /reflexsubset 109 /element 110 /notelement
 111 /gradient 112 /logicaland 113 /logicalor 114 /arrowdblboth
 115 /arrowdblleft 116 /arrowdblup 117 /arrowdblright 118 /arrowdbldown
 119 /ampersand 120 /omega1 121 /similar 122 /aleph ] def
/Symbol /Special accspe ReEncode
gsave .25 .25 scale 
%%EndProlog
 gsave 0 0 t black [] 0 sd 1 lw 2268 2268 0 0 bl 2268 2268 0 0 C NC 1814 1814
 227 227 bl 1814 1814 227 227 C 2268 2268 0 0 C 549 68 m -45 Y s 547 67 m -46 Y
 s 550 69 m -45 Y s 546 65 m -45 Y s 551 71 m -46 Y s 534 68 m 30 X s 532 67 m
 30 X s 535 69 m 30 X s 531 65 m 30 X s 536 71 m 30 X s 572 68 m 3 -2 d 2 2 d -2
 2 d -3 -2 d cl s 571 67 m 2 -2 d 2 2 d -2 2 d -2 -2 d cl s 574 69 m 2 -2 d 2 2
 d -2 3 d -2 -3 d cl s 570 65 m 2 -2 d 2 2 d -2 2 d -2 -2 d cl s 575 71 m 2 -2 d
 2 2 d -2 2 d -2 -2 d cl s 575 53 m -30 Y s 573 52 m -31 Y s 576 54 m -30 Y s
 572 50 m -30 Y s 577 56 m -31 Y s 592 53 m -30 Y s 590 52 m -31 Y s 593 54 m
 -30 Y s 589 50 m -30 Y s 595 56 m -31 Y s 592 44 m 6 7 d 5 2 d 6 X 4 -2 d 3 -7
 d -21 Y s 590 43 m 7 6 d 4 3 d 7 X 4 -3 d 2 -6 d -22 Y s 593 46 m 7 6 d 4 2 d 6
 X 5 -2 d 2 -6 d -22 Y s 589 42 m 7 6 d 4 2 d 6 X 5 -2 d 2 -6 d -22 Y s 595 47 m
 6 6 d 4 3 d 7 X 4 -3 d 2 -6 d -22 Y s 616 44 m 6 7 d 4 2 d 7 X 4 -2 d 2 -7 d
 -21 Y s 614 43 m 7 6 d 4 3 d 7 X 4 -3 d 2 -6 d -22 Y s 617 46 m 6 6 d 5 2 d 6 X
 5 -2 d 2 -6 d -22 Y s 613 42 m 6 6 d 5 2 d 6 X 4 -2 d 3 -6 d -22 Y s 618 47 m 7
 6 d 4 3 d 7 X 4 -3 d 2 -6 d -22 Y s 654 40 m 26 X 4 Y -2 5 d -2 2 d -4 2 d -7 X
 -4 -2 d -4 -5 d -3 -6 d -4 Y 3 -7 d 4 -4 d 4 -2 d 7 X 4 2 d 4 4 d s 653 39 m 26
 X 4 Y -2 4 d -2 2 d -5 3 d -6 X -4 -3 d -5 -4 d -2 -6 d -5 Y 2 -6 d 5 -5 d 4 -2
 d 6 X 5 2 d 4 5 d s 656 41 m 26 X 5 Y -2 4 d -3 2 d -4 2 d -6 X -5 -2 d -4 -4 d
 -2 -7 d -4 Y 2 -6 d 4 -5 d 5 -2 d 6 X 4 2 d 5 5 d s 652 37 m 26 X 5 Y -2 4 d -3
 2 d -4 2 d -6 X -5 -2 d -4 -4 d -2 -7 d -4 Y 2 -7 d 4 -4 d 5 -2 d 6 X 4 2 d 5 4
 d s 657 43 m 26 X 4 Y -2 4 d -2 2 d -5 3 d -6 X -4 -3 d -5 -4 d -2 -6 d -5 Y 2
 -6 d 5 -4 d 4 -3 d 6 X 5 3 d 4 4 d s 730 68 m -4 X -5 -2 d -2 -7 d -36 Y s 729
 67 m -5 X -4 -2 d -2 -7 d -37 Y s 731 69 m -4 X -4 -2 d -2 -6 d -37 Y s 727 65
 m -4 X -4 -2 d -2 -6 d -37 Y s 733 71 m -5 X -4 -2 d -2 -7 d -37 Y s 713 53 m
 15 X s 711 52 m 16 X s 714 54 m 15 X s 710 50 m 15 X s 716 56 m 15 X s 743 53 m
 -30 Y s 742 52 m -31 Y s 744 54 m -30 Y s 740 50 m -30 Y s 746 56 m -31 Y s 743
 40 m 2 6 d 5 5 d 4 2 d 6 X s 742 39 m 2 6 d 4 4 d 4 3 d 7 X s 744 41 m 3 7 d 4
 4 d 4 2 d 7 X s 740 37 m 2 7 d 5 4 d 4 2 d 7 X s 746 43 m 2 6 d 4 4 d 5 3 d 6 X
 s 780 53 m -5 -2 d -4 -5 d -2 -6 d -4 Y 2 -7 d 4 -4 d 5 -2 d 6 X 5 2 d 4 4 d 2
 7 d 4 Y -2 6 d -4 5 d -5 2 d -6 X cl s 778 52 m -4 -3 d -4 -4 d -2 -6 d -5 Y 2
 -6 d 4 -5 d 4 -2 d 7 X 4 2 d 5 5 d 2 6 d 5 Y -2 6 d -5 4 d -4 3 d -7 X cl s 781
 54 m -4 -2 d -5 -4 d -2 -7 d -4 Y 2 -6 d 5 -5 d 4 -2 d 7 X 4 2 d 4 5 d 2 6 d 4
 Y -2 7 d -4 4 d -4 2 d -7 X cl s 777 50 m -4 -2 d -5 -4 d -2 -7 d -4 Y 2 -7 d 5
 -4 d 4 -2 d 7 X 4 2 d 4 4 d 2 7 d 4 Y -2 7 d -4 4 d -4 2 d -7 X cl s 782 56 m
 -4 -3 d -4 -4 d -2 -6 d -5 Y 2 -6 d 4 -4 d 4 -3 d 7 X 4 3 d 5 4 d 2 6 d 5 Y -2
 6 d -5 4 d -4 3 d -7 X cl s 812 53 m -30 Y s 811 52 m -31 Y s 814 54 m -30 Y s
 809 50 m -30 Y s 815 56 m -31 Y s 812 44 m 7 7 d 4 2 d 6 X 5 -2 d 2 -7 d -21 Y
 s 811 43 m 6 6 d 5 3 d 6 X 4 -3 d 3 -6 d -22 Y s 814 46 m 6 6 d 4 2 d 7 X 4 -2
 d 2 -6 d -22 Y s 809 42 m 7 6 d 4 2 d 7 X 4 -2 d 2 -6 d -22 Y s 815 47 m 6 6 d
 5 3 d 6 X 4 -3 d 3 -6 d -22 Y s 836 44 m 6 7 d 5 2 d 6 X 5 -2 d 2 -7 d -21 Y s
 835 43 m 6 6 d 4 3 d 7 X 4 -3 d 2 -6 d -22 Y s 837 46 m 7 6 d 4 2 d 7 X 4 -2 d
 2 -6 d -22 Y s 833 42 m 7 6 d 4 2 d 6 X 5 -2 d 2 -6 d -22 Y s 839 47 m 6 6 d 4
 3 d 7 X 4 -3 d 2 -6 d -22 Y s 901 68 m -37 Y 2 -6 d 4 -2 d 5 X s 899 67 m -37 Y
 3 -7 d 4 -2 d 4 X s 902 69 m -36 Y 2 -7 d 5 -2 d 4 X s 898 65 m -36 Y 2 -7 d 4
 -2 d 5 X s 903 71 m -37 Y 3 -6 d 4 -3 d 4 X s 894 53 m 15 X s 893 52 m 15 X s
 896 54 m 15 X s 892 50 m 15 X s 897 56 m 15 X s 924 68 m -45 Y s 923 67 m -46 Y
 s 926 69 m -45 Y s 922 65 m -45 Y s 927 71 m -46 Y s 924 44 m 7 7 d 4 2 d 7 X 4
 -2 d 2 -7 d -21 Y s 923 43 m 7 6 d 4 3 d 6 X 5 -3 d 2 -6 d -22 Y s 926 46 m 6 6
 d 5 2 d 6 X 4 -2 d 3 -6 d -22 Y s 922 42 m 6 6 d 5 2 d 6 X 4 -2 d 3 -6 d -22 Y
 s 927 47 m 7 6 d 4 3 d 6 X 5 -3 d 2 -6 d -22 Y s 963 40 m 26 X 4 Y -2 5 d -2 2
 d -4 2 d -7 X -4 -2 d -4 -5 d -3 -6 d -4 Y 3 -7 d 4 -4 d 4 -2 d 7 X 4 2 d 4 4 d
 s 962 39 m 26 X 4 Y -2 4 d -2 2 d -5 3 d -6 X -5 -3 d -4 -4 d -2 -6 d -5 Y 2 -6
 d 4 -5 d 5 -2 d 6 X 5 2 d 4 5 d s 965 41 m 26 X 5 Y -3 4 d -2 2 d -4 2 d -6 X
 -5 -2 d -4 -4 d -2 -7 d -4 Y 2 -6 d 4 -5 d 5 -2 d 6 X 4 2 d 5 5 d s 961 37 m 26
 X 5 Y -3 4 d -2 2 d -4 2 d -7 X -4 -2 d -4 -4 d -2 -7 d -4 Y 2 -7 d 4 -4 d 4 -2
 d 7 X 4 2 d 5 4 d s 966 43 m 26 X 4 Y -2 4 d -2 2 d -5 3 d -6 X -4 -3 d -5 -4 d
 -2 -6 d -5 Y 2 -6 d 5 -4 d 4 -3 d 6 X 5 3 d 4 4 d s 1026 53 m -45 Y s 1025 52 m
 -46 Y s 1027 54 m -45 Y s 1023 50 m -45 Y s 1029 56 m -46 Y s 1026 46 m 4 5 d 5
 2 d 6 X 4 -2 d 5 -5 d 2 -6 d -4 Y -2 -7 d -5 -4 d -4 -2 d -6 X -5 2 d -4 4 d s
 1025 45 m 4 4 d 4 3 d 7 X 4 -3 d 4 -4 d 3 -6 d -5 Y -3 -6 d -4 -5 d -4 -2 d -7
 X -4 2 d -4 5 d s 1027 48 m 5 4 d 4 2 d 6 X 5 -2 d 4 -4 d 2 -7 d -4 Y -2 -6 d
 -4 -5 d -5 -2 d -6 X -4 2 d -5 5 d s 1023 44 m 5 4 d 4 2 d 6 X 5 -2 d 4 -4 d 2
 -7 d -4 Y -2 -7 d -4 -4 d -5 -2 d -6 X -4 2 d -5 4 d s 1029 49 m 4 4 d 4 3 d 7
 X 4 -3 d 4 -4 d 3 -6 d -5 Y -3 -6 d -4 -4 d -4 -3 d -7 X -4 3 d -4 4 d s 1067
 53 m -30 Y s 1066 52 m -31 Y s 1068 54 m -30 Y s 1064 50 m -30 Y s 1070 56 m
 -31 Y s 1067 40 m 2 6 d 5 5 d 4 2 d 6 X s 1066 39 m 2 6 d 4 4 d 4 3 d 7 X s
 1068 41 m 3 7 d 4 4 d 4 2 d 7 X s 1064 37 m 2 7 d 5 4 d 4 2 d 7 X s 1070 43 m 2
 6 d 4 4 d 5 3 d 6 X s 1093 40 m 26 X 4 Y -2 5 d -2 2 d -5 2 d -6 X -5 -2 d -4
 -5 d -2 -6 d -4 Y 2 -7 d 4 -4 d 5 -2 d 6 X 5 2 d 4 4 d s 1092 39 m 26 X 4 Y -3
 4 d -2 2 d -4 3 d -7 X -4 -3 d -4 -4 d -2 -6 d -5 Y 2 -6 d 4 -5 d 4 -2 d 7 X 4
 2 d 5 5 d s 1094 41 m 26 X 5 Y -2 4 d -2 2 d -4 2 d -7 X -4 -2 d -5 -4 d -2 -7
 d -4 Y 2 -6 d 5 -5 d 4 -2 d 7 X 4 2 d 4 5 d s 1090 37 m 26 X 5 Y -2 4 d -2 2 d
 -4 2 d -7 X -4 -2 d -5 -4 d -2 -7 d -4 Y 2 -7 d 5 -4 d 4 -2 d 7 X 4 2 d 4 4 d s
 1096 43 m 26 X 4 Y -3 4 d -2 2 d -4 3 d -7 X -4 -3 d -4 -4 d -2 -6 d -5 Y 2 -6
 d 4 -4 d 4 -3 d 7 X 4 3 d 5 4 d s 1134 42 m 39 X s 1133 41 m 39 X s 1135 43 m
 39 X s 1131 39 m 39 X s 1137 45 m 39 X s 1188 40 m 26 X 4 Y -2 5 d -2 2 d -5 2
 d -6 X -5 -2 d -4 -5 d -2 -6 d -4 Y 2 -7 d 4 -4 d 5 -2 d 6 X 5 2 d 4 4 d s 1187
 39 m 26 X 4 Y -3 4 d -2 2 d -4 3 d -7 X -4 -3 d -4 -4 d -2 -6 d -5 Y 2 -6 d 4
 -5 d 4 -2 d 7 X 4 2 d 5 5 d s 1189 41 m 26 X 5 Y -2 4 d -2 2 d -4 2 d -7 X -4
 -2 d -4 -4 d -3 -7 d -4 Y 3 -6 d 4 -5 d 4 -2 d 7 X 4 2 d 4 5 d s 1185 37 m 26 X
 5 Y -2 4 d -2 2 d -4 2 d -7 X -4 -2 d -5 -4 d -2 -7 d -4 Y 2 -7 d 5 -4 d 4 -2 d
 7 X 4 2 d 4 4 d s 1191 43 m 26 X 4 Y -3 4 d -2 2 d -4 3 d -6 X -5 -3 d -4 -4 d
 -2 -6 d -5 Y 2 -6 d 4 -4 d 5 -3 d 6 X 4 3 d 5 4 d s 1227 53 m 24 -30 d s 1226
 52 m 23 -31 d s 1228 54 m 24 -30 d s 1224 50 m 24 -30 d s 1230 56 m 23 -31 d s
 1251 53 m -24 -30 d s 1249 52 m -23 -31 d s 1252 54 m -24 -30 d s 1248 50 m -24
 -30 d s 1253 56 m -23 -31 d s 1266 53 m -45 Y s 1264 52 m -46 Y s 1267 54 m -45
 Y s 1263 50 m -45 Y s 1268 56 m -46 Y s 1266 46 m 4 5 d 4 2 d 7 X 4 -2 d 5 -5 d
 2 -6 d -4 Y -2 -7 d -5 -4 d -4 -2 d -7 X -4 2 d -4 4 d s 1264 45 m 5 4 d 4 3 d
 7 X 4 -3 d 4 -4 d 2 -6 d -5 Y -2 -6 d -4 -5 d -4 -2 d -7 X -4 2 d -5 5 d s 1267
 48 m 4 4 d 5 2 d 6 X 5 -2 d 4 -4 d 2 -7 d -4 Y -2 -6 d -4 -5 d -5 -2 d -6 X -5
 2 d -4 5 d s 1263 44 m 4 4 d 5 2 d 6 X 4 -2 d 5 -4 d 2 -7 d -4 Y -2 -7 d -5 -4
 d -4 -2 d -6 X -5 2 d -4 4 d s 1268 49 m 5 4 d 4 3 d 7 X 4 -3 d 4 -4 d 2 -6 d
 -5 Y -2 -6 d -4 -4 d -4 -3 d -7 X -4 3 d -5 4 d s 1315 53 m -4 -2 d -4 -5 d -2
 -6 d -4 Y 2 -7 d 4 -4 d 4 -2 d 7 X 4 2 d 5 4 d 2 7 d 4 Y -2 6 d -5 5 d -4 2 d
 -7 X cl s 1314 52 m -4 -3 d -5 -4 d -2 -6 d -5 Y 2 -6 d 5 -5 d 4 -2 d 7 X 4 2 d
 4 5 d 2 6 d 5 Y -2 6 d -4 4 d -4 3 d -7 X cl s 1317 54 m -5 -2 d -4 -4 d -2 -7
 d -4 Y 2 -6 d 4 -5 d 5 -2 d 6 X 5 2 d 4 5 d 2 6 d 4 Y -2 7 d -4 4 d -5 2 d -6 X
 cl s 1313 50 m -5 -2 d -4 -4 d -2 -7 d -4 Y 2 -7 d 4 -4 d 5 -2 d 6 X 5 2 d 4 4
 d 2 7 d 4 Y -2 7 d -4 4 d -5 2 d -6 X cl s 1318 56 m -4 -3 d -4 -4 d -3 -6 d -5
 Y 3 -6 d 4 -4 d 4 -3 d 7 X 4 3 d 4 4 d 2 6 d 5 Y -2 6 d -4 4 d -4 3 d -7 X cl s
 1369 46 m -2 5 d -6 2 d -7 X -6 -2 d -2 -5 d 2 -4 d 4 -2 d 11 -2 d 4 -2 d 2 -5
 d -2 Y -2 -4 d -6 -2 d -7 X -6 2 d -2 4 d s 1368 45 m -2 4 d -7 3 d -6 X -7 -3
 d -2 -4 d 2 -4 d 5 -2 d 11 -3 d 4 -2 d 2 -4 d -2 Y -2 -5 d -7 -2 d -6 X -7 2 d
 -2 5 d s 1371 48 m -2 4 d -7 2 d -6 X -7 -2 d -2 -4 d 2 -5 d 5 -2 d 10 -2 d 5
 -2 d 2 -4 d -2 Y -2 -5 d -7 -2 d -6 X -7 2 d -2 5 d s 1367 44 m -2 4 d -7 2 d
 -6 X -7 -2 d -2 -4 d 2 -5 d 4 -2 d 11 -2 d 5 -2 d 2 -4 d -3 Y -2 -4 d -7 -2 d
 -6 X -7 2 d -2 4 d s 1372 49 m -2 4 d -6 3 d -7 X -6 -3 d -3 -4 d 3 -4 d 4 -2 d
 11 -2 d 4 -3 d 2 -4 d -2 Y -2 -4 d -6 -3 d -7 X -6 3 d -3 4 d s 1385 53 m -22 Y
 2 -6 d 4 -2 d 7 X 4 2 d 6 6 d s 1383 52 m -22 Y 2 -7 d 5 -2 d 6 X 4 2 d 7 7 d s
 1386 54 m -21 Y 2 -7 d 4 -2 d 7 X 4 2 d 7 7 d s 1382 50 m -21 Y 2 -7 d 4 -2 d 7
 X 4 2 d 7 7 d s 1387 56 m -22 Y 2 -6 d 5 -3 d 6 X 5 3 d 6 6 d s 1408 53 m -30 Y
 s 1407 52 m -31 Y s 1410 54 m -30 Y s 1406 50 m -30 Y s 1411 56 m -31 Y s 1426
 53 m -30 Y s 1424 52 m -31 Y s 1427 54 m -30 Y s 1423 50 m -30 Y s 1428 56 m
 -31 Y s 1426 40 m 2 6 d 4 5 d 4 2 d 7 X s 1424 39 m 2 6 d 5 4 d 4 3 d 7 X s
 1427 41 m 2 7 d 4 4 d 5 2 d 6 X s 1423 37 m 2 7 d 4 4 d 5 2 d 6 X s 1428 43 m 2
 6 d 5 4 d 4 3 d 7 X s 1452 40 m 25 X 4 Y -2 5 d -2 2 d -4 2 d -7 X -4 -2 d -4
 -5 d -2 -6 d -4 Y 2 -7 d 4 -4 d 4 -2 d 7 X 4 2 d 4 4 d s 1450 39 m 26 X 4 Y -2
 4 d -2 2 d -5 3 d -6 X -4 -3 d -5 -4 d -2 -6 d -5 Y 2 -6 d 5 -5 d 4 -2 d 6 X 5
 2 d 4 5 d s 1453 41 m 26 X 5 Y -2 4 d -3 2 d -4 2 d -6 X -5 -2 d -4 -4 d -2 -7
 d -4 Y 2 -6 d 4 -5 d 5 -2 d 6 X 4 2 d 5 5 d s 1449 37 m 26 X 5 Y -2 4 d -3 2 d
 -4 2 d -6 X -5 -2 d -4 -4 d -2 -7 d -4 Y 2 -7 d 4 -4 d 5 -2 d 6 X 4 2 d 5 4 d s
 1454 43 m 26 X 4 Y -2 4 d -2 2 d -4 3 d -7 X -4 -3 d -5 -4 d -2 -6 d -5 Y 2 -6
 d 5 -4 d 4 -3 d 7 X 4 3 d 4 4 d s 1512 68 m 2 -2 d 2 2 d -2 2 d -2 -2 d cl s
 1511 67 m 2 -2 d 2 2 d -2 2 d -2 -2 d cl s 1513 69 m 3 -2 d 2 2 d -2 3 d -3 -3
 d cl s 1509 65 m 2 -2 d 3 2 d -3 2 d -2 -2 d cl s 1515 71 m 2 -2 d 2 2 d -2 2 d
 -2 -2 d cl s 1514 53 m -30 Y s 1513 52 m -31 Y s 1516 54 m -30 Y s 1511 50 m
 -30 Y s 1517 56 m -31 Y s 1531 53 m -30 Y s 1530 52 m -31 Y s 1533 54 m -30 Y s
 1529 50 m -30 Y s 1534 56 m -31 Y s 1531 44 m 7 7 d 4 2 d 7 X 4 -2 d 2 -7 d -21
 Y s 1530 43 m 7 6 d 4 3 d 6 X 5 -3 d 2 -6 d -22 Y s 1533 46 m 6 6 d 5 2 d 6 X 4
 -2 d 3 -6 d -22 Y s 1529 42 m 6 6 d 5 2 d 6 X 4 -2 d 2 -6 d -22 Y s 1534 47 m 7
 6 d 4 3 d 6 X 5 -3 d 2 -6 d -22 Y s 1594 68 m -45 Y s 1593 67 m -46 Y s 1595 69
 m -45 Y s 1591 65 m -45 Y s 1597 71 m -46 Y s 1594 44 m 7 7 d 4 2 d 6 X 5 -2 d
 2 -7 d -21 Y s 1593 43 m 6 6 d 5 3 d 6 X 4 -3 d 2 -6 d -22 Y s 1595 46 m 7 6 d
 4 2 d 7 X 4 -2 d 2 -6 d -22 Y s 1591 42 m 7 6 d 4 2 d 7 X 4 -2 d 2 -6 d -22 Y s
 1597 47 m 6 6 d 5 3 d 6 X 4 -3 d 3 -6 d -22 Y s 1644 53 m -5 -2 d -4 -5 d -2 -6
 d -4 Y 2 -7 d 4 -4 d 5 -2 d 6 X 5 2 d 4 4 d 2 7 d 4 Y -2 6 d -4 5 d -5 2 d -6 X
 cl s 1642 52 m -4 -3 d -4 -4 d -2 -6 d -5 Y 2 -6 d 4 -5 d 4 -2 d 7 X 4 2 d 5 5
 d 2 6 d 5 Y -2 6 d -5 4 d -4 3 d -7 X cl s 1645 54 m -4 -2 d -5 -4 d -2 -7 d -4
 Y 2 -6 d 5 -5 d 4 -2 d 7 X 4 2 d 4 5 d 2 6 d 4 Y -2 7 d -4 4 d -4 2 d -7 X cl s
 1641 50 m -4 -2 d -5 -4 d -2 -7 d -4 Y 2 -7 d 5 -4 d 4 -2 d 7 X 4 2 d 4 4 d 2 7
 d 4 Y -2 7 d -4 4 d -4 2 d -7 X cl s 1646 56 m -4 -3 d -4 -4 d -2 -6 d -5 Y 2
 -6 d 4 -4 d 4 -3 d 7 X 4 3 d 5 4 d 2 6 d 5 Y -2 6 d -5 4 d -4 3 d -7 X cl s
 1676 53 m -22 Y 2 -6 d 5 -2 d 6 X 4 2 d 7 6 d s 1675 52 m -22 Y 2 -7 d 4 -2 d 7
 X 4 2 d 7 7 d s 1678 54 m -21 Y 2 -7 d 4 -2 d 6 X 5 2 d 6 7 d s 1673 50 m -21 Y
 3 -7 d 4 -2 d 6 X 5 2 d 6 7 d s 1679 56 m -22 Y 2 -6 d 4 -3 d 7 X 4 3 d 7 6 d s
 1700 53 m -30 Y s 1699 52 m -31 Y s 1701 54 m -30 Y s 1697 50 m -30 Y s 1703 56
 m -31 Y s 1717 53 m -30 Y s 1716 52 m -31 Y s 1719 54 m -30 Y s 1714 50 m -30 Y
 s 1720 56 m -31 Y s 1717 40 m 2 6 d 5 5 d 4 2 d 6 X s 1716 39 m 2 6 d 4 4 d 5 3
 d 6 X s 1719 41 m 2 7 d 4 4 d 4 2 d 7 X s 1714 37 m 3 7 d 4 4 d 4 2 d 7 X s
 1720 43 m 2 6 d 4 4 d 5 3 d 6 X s 1814 1814 227 227 C 5 lw 1 0 0 c 265 1418 m 3
 Y s 265 1452 m 3 Y s 227 1436 m 22 X s 280 1436 m 22 X s 249 1418 m 31 X s 249
 1455 m 31 X s 227 1421 m 31 Y s 302 1421 m 31 Y s black /w 32
 def /w2 {w 2 div} def /w3 {w 3 div} def 265 1436 m27 1 0 0 c 340 463 m 1 Y s
 340 496 m 1 Y s 302 480 m 22 X s 356 480 m 22 X s 324 463 m 32 X s 324 497 m 32
 X s 302 465 m 31 Y s 378 465 m 31 Y s black 340 480 m27 1 0 0 c 416 1093 m 3 Y
 s 416 1128 m 4 Y s 378 1112 m 22 X s 432 1112 m 22 X s 400 1093 m 32 X s 400
 1132 m 32 X s 378 1096 m 32 Y s 454 1096 m 32 Y s black 416 1112 m27 1 0 0 c
 491 1351 m 4 Y s 491 1387 m 4 Y s 454 1371 m 22 X s 507 1371 m 22 X s 476 1351
 m 31 X s 476 1391 m 31 X s 454 1355 m 32 Y s 529 1355 m 32 Y s black 491 1371
 m27 1 0 0 c 567 1420 m 4 Y s 567 1456 m 4 Y s 529 1440 m 22 X s 583 1440 m 22 X
 s 551 1420 m 32 X s 551 1460 m 32 X s 529 1424 m 32 Y s 605 1424 m 32 Y s black
 567 1440 m27 1 0 0 c 643 1453 m 2 Y s 643 1486 m 2 Y s 605 1470 m 22 X s 658
 1470 m 22 X s 627 1453 m 31 X s 627 1488 m 31 X s 605 1455 m 31 Y s 680 1455 m
 31 Y s black 643 1470 m27 1 0 0 c 718 1436 m 1 Y s 718 1468 m 2 Y s 680 1453 m
 22 X s 734 1453 m 22 X s 702 1436 m 32 X s 702 1470 m 32 X s 680 1437 m 31 Y s
 756 1437 m 31 Y s black 718 1453 m27 1 0 0 c 794 1411 m 2 Y s 794 1445 m 3 Y s
 756 1429 m 22 X s 810 1429 m 22 X s 778 1411 m 32 X s 778 1448 m 32 X s 756
 1413 m 32 Y s 832 1413 m 32 Y s black 794 1429 m27 1 0 0 c 869 1457 m 3 Y s 869
 1491 m 3 Y s 832 1475 m 22 X s 885 1475 m 22 X s 854 1457 m 31 X s 854 1494 m
 31 X s 832 1460 m 31 Y s 907 1460 m 31 Y s black 869 1475 m27 1 0 0 c 945 1499
 m 2 Y s 945 1533 m 2 Y s 907 1517 m 22 X s 961 1517 m 22 X s 929 1499 m 32 X s
 929 1535 m 32 X s 907 1501 m 32 Y s 983 1501 m 32 Y s black 945 1517 m27 1 0 0
 c 1021 1397 m 1 Y s 1021 1430 m 2 Y s 983 1414 m 22 X s 1036 1414 m 22 X s 1005
 1397 m 31 X s 1005 1432 m 31 X s 983 1398 m 32 Y s 1058 1398 m 32 Y s black
 1021 1414 m27 1 0 0 c 1096 1500 m 2 Y s 1096 1534 m 2 Y s 1058 1518 m 22 X s
 1112 1518 m 22 X s 1080 1500 m 32 X s 1080 1536 m 32 X s 1058 1502 m 32 Y s
 1134 1502 m 32 Y s black 1096 1518 m27 1 0 0 c 1172 1395 m 1 Y s 1172 1428 m 1
 Y s 1134 1412 m 22 X s 1188 1412 m 22 X s 1156 1395 m 32 X s 1156 1429 m 32 X s
 1134 1396 m 31 Y s 1210 1396 m 31 Y s black 1172 1412 m27 1 0 0 c 1247 1524 m 2
 Y s 1247 1558 m 2 Y s 1210 1542 m 22 X s 1263 1542 m 22 X s 1232 1524 m 31 X s
 1232 1560 m 31 X s 1210 1526 m 32 Y s 1285 1526 m 32 Y s black 1247 1542 m27 1
 0 0 c 1323 1375 m 2 Y s 1323 1408 m 2 Y s 1285 1393 m 22 X s 1339 1393 m 22 X s
 1307 1375 m 32 X s 1307 1410 m 32 X s 1285 1377 m 31 Y s 1361 1377 m 31 Y s
 black 1323 1393 m27 1 0 0 c 1399 1454 m 2 Y s 1399 1488 m 2 Y s 1361 1472 m 22
 X s 1414 1472 m 22 X s 1383 1454 m 31 X s 1383 1490 m 31 X s 1361 1456 m 32 Y s
 1436 1456 m 32 Y s black 1399 1472 m27 1 0 0 c 1474 1443 m 2 Y s 1474 1477 m 2
 Y s 1436 1461 m 22 X s 1490 1461 m 22 X s 1458 1443 m 32 X s 1458 1479 m 32 X s
 1436 1445 m 32 Y s 1512 1445 m 32 Y s black 1474 1461 m27 1 0 0 c 1550 1436 m 2
 Y s 1550 1469 m 2 Y s 1512 1453 m 22 X s 1566 1453 m 22 X s 1534 1436 m 32 X s
 1534 1471 m 32 X s 1512 1438 m 31 Y s 1588 1438 m 31 Y s black 1550 1453 m27 1
 0 0 c 1625 1429 m 2 Y s 1625 1463 m 2 Y s 1588 1447 m 22 X s 1641 1447 m 22 X s
 1610 1429 m 31 X s 1610 1465 m 31 X s 1588 1431 m 32 Y s 1663 1431 m 32 Y s
 black 1625 1447 m27 1 0 0 c 1701 1498 m 2 Y s 1701 1532 m 2 Y s 1663 1516 m 22
 X s 1717 1516 m 22 X s 1685 1498 m 32 X s 1685 1534 m 32 X s 1663 1500 m 32 Y s
 1739 1500 m 32 Y s black 1701 1516 m27 1 0 0 c 1777 1428 m 2 Y s 1777 1462 m 1
 Y s 1739 1446 m 22 X s 1792 1446 m 22 X s 1761 1428 m 31 X s 1761 1463 m 31 X s
 1739 1430 m 32 Y s 1814 1430 m 32 Y s black 1777 1446 m27 1 0 0 c 1852 1449 m 2
 Y s 1852 1483 m 2 Y s 1814 1467 m 22 X s 1868 1467 m 22 X s 1836 1449 m 32 X s
 1836 1485 m 32 X s 1814 1451 m 32 Y s 1890 1451 m 32 Y s black 1852 1467 m27 1
 0 0 c 1928 1449 m 2 Y s 1928 1482 m 2 Y s 1890 1466 m 22 X s 1944 1466 m 22 X s
 1912 1449 m 32 X s 1912 1484 m 32 X s 1890 1451 m 31 Y s 1966 1451 m 31 Y s
 black 1928 1466 m27 1 0 0 c 2003 1421 m 3 Y s 2003 1456 m 2 Y s 1966 1440 m 22
 X s 2019 1440 m 22 X s 1988 1421 m 31 X s 1988 1458 m 31 X s 1966 1424 m 32 Y s
 2041 1424 m 32 Y s black 2003 1440 m27 0 0 1 c 340 477 m 5 62 d 5 61 d 5 60 d 6
 58 d 6 57 d 6 55 d 6 54 d 5 43 d 7 48 d 6 45 d 7 42 d 6 38 d 6 31 d 5 28 d 6 26
 d 7 26 d 7 24 d 8 23 d 8 23 d 11 24 d 16 33 d 7 14 d 9 15 d 11 15 d 10 11 d 11
 10 d 35 23 d 13 7 d 19 8 d 44 10 d 29 5 d 46 3 d 76 3 d 75 1 d 76 X 76 1 d 982
 X s NC 1 lw black 227 227 m 1814 Y s 284 227 m -57 X s 284 529 m -57 X s 284
 832 m -57 X s 284 1134 m -57 X s 284 1436 m -57 X s 284 1739 m -57 X s 284 2041
 m -57 X s 149 241 m -4 -1 d -3 -4 d -1 -7 d -4 Y 1 -7 d 3 -4 d 4 -1 d 2 X 5 1 d
 2 4 d 2 7 d 4 Y -2 7 d -2 4 d -5 1 d -2 X cl s 148 240 m -4 -1 d -3 -4 d -1 -7
 d -4 Y 1 -7 d 3 -4 d 4 -1 d 3 X 4 1 d 2 4 d 2 7 d 4 Y -2 7 d -2 4 d -4 1 d -3 X
 cl s 150 242 m -4 -2 d -3 -4 d -1 -6 d -4 Y 1 -7 d 3 -4 d 4 -2 d 2 X 4 2 d 3 4
 d 1 7 d 4 Y -1 6 d -3 4 d -4 2 d -2 X cl s 147 239 m -4 -1 d -3 -4 d -1 -7 d -4
 Y 1 -7 d 3 -4 d 4 -1 d 3 X 4 1 d 3 4 d 1 7 d 4 Y -1 7 d -3 4 d -4 1 d -3 X cl s
 150 243 m -4 -2 d -2 -4 d -2 -6 d -5 Y 2 -6 d 2 -4 d 4 -2 d 3 X 4 2 d 3 4 d 1 6
 d 5 Y -1 6 d -3 4 d -4 2 d -3 X cl s 170 215 m -1 -1 d 1 -1 d 2 1 d -2 1 d cl s
 170 214 m -2 -1 d 2 -1 d 1 1 d -1 1 d cl s 171 216 m -1 -1 d 1 -2 d 2 2 d -2 1
 d cl s 169 214 m -2 -2 d 2 -1 d 1 1 d -1 2 d cl s 172 217 m -1 -1 d 1 -2 d 1 2
 d -1 1 d cl s 199 237 m -2 3 d -4 1 d -2 X -4 -1 d -3 -4 d -1 -7 d -7 Y 1 -5 d
 3 -3 d 4 -1 d 1 X 4 1 d 3 3 d 1 4 d 1 Y -1 4 d -3 3 d -4 1 d -1 X -4 -1 d -3 -3
 d -1 -4 d s 198 236 m -1 3 d -5 1 d -2 X -4 -1 d -3 -4 d -1 -7 d -7 Y 1 -5 d 3
 -3 d 4 -1 d 1 X 4 1 d 3 3 d 1 4 d 1 Y -1 4 d -3 3 d -4 1 d -1 X -4 -1 d -3 -3 d
 -1 -4 d s 200 238 m -2 2 d -4 2 d -3 X -4 -2 d -2 -4 d -2 -6 d -7 Y 2 -5 d 2 -3
 d 4 -2 d 2 X 4 2 d 3 3 d 1 4 d 1 Y -1 4 d -3 3 d -4 1 d -2 X -4 -1 d -2 -3 d -2
 -4 d s 197 235 m -1 3 d -4 1 d -3 X -4 -1 d -3 -4 d -1 -7 d -7 Y 1 -5 d 3 -3 d
 4 -1 d 1 X 4 1 d 3 3 d 1 4 d 1 Y -1 4 d -3 3 d -4 1 d -1 X -4 -1 d -3 -3 d -1
 -4 d s 200 239 m -1 2 d -4 2 d -3 X -4 -2 d -2 -4 d -2 -6 d -7 Y 2 -6 d 2 -2 d
 4 -2 d 2 X 4 2 d 2 2 d 2 4 d 2 Y -2 4 d -2 3 d -4 1 d -2 X -4 -1 d -2 -3 d -2
 -4 d s 149 543 m -4 -1 d -3 -4 d -1 -7 d -4 Y 1 -7 d 3 -4 d 4 -1 d 2 X 5 1 d 2
 4 d 2 7 d 4 Y -2 7 d -2 4 d -5 1 d -2 X cl s 148 543 m -4 -2 d -3 -4 d -1 -7 d
 -4 Y 1 -6 d 3 -4 d 4 -2 d 3 X 4 2 d 2 4 d 2 6 d 4 Y -2 7 d -2 4 d -4 2 d -3 X
 cl s 150 544 m -4 -1 d -3 -4 d -1 -7 d -4 Y 1 -7 d 3 -4 d 4 -1 d 2 X 4 1 d 3 4
 d 1 7 d 4 Y -1 7 d -3 4 d -4 1 d -2 X cl s 147 542 m -4 -2 d -3 -4 d -1 -6 d -5
 Y 1 -6 d 3 -4 d 4 -2 d 3 X 4 2 d 3 4 d 1 6 d 5 Y -1 6 d -3 4 d -4 2 d -3 X cl s
 150 545 m -4 -1 d -2 -4 d -2 -7 d -4 Y 2 -7 d 2 -4 d 4 -1 d 3 X 4 1 d 3 4 d 1 7
 d 4 Y -1 7 d -3 4 d -4 1 d -3 X cl s 170 518 m -1 -2 d 1 -1 d 2 1 d -2 2 d cl s
 170 517 m -2 -1 d 2 -2 d 1 2 d -1 1 d cl s 171 519 m -1 -2 d 1 -1 d 2 1 d -2 2
 d cl s 169 516 m -2 -1 d 2 -2 d 1 2 d -1 1 d cl s 172 519 m -1 -1 d 1 -1 d 1 1
 d -1 1 d cl s 200 543 m -13 -28 d s 199 543 m -13 -29 d s 201 544 m -14 -28 d s
 198 542 m -13 -29 d s 202 545 m -14 -28 d s 181 543 m 19 X s 180 543 m 19 X s
 182 544 m 19 X s 179 542 m 19 X s 183 545 m 19 X s 149 846 m -4 -2 d -3 -4 d -1
 -6 d -4 Y 1 -7 d 3 -4 d 4 -2 d 2 X 5 2 d 2 4 d 2 7 d 4 Y -2 6 d -2 4 d -5 2 d
 -2 X cl s 148 845 m -4 -1 d -3 -4 d -1 -7 d -4 Y 1 -7 d 3 -4 d 4 -1 d 3 X 4 1 d
 2 4 d 2 7 d 4 Y -2 7 d -2 4 d -4 1 d -3 X cl s 150 847 m -4 -2 d -3 -4 d -1 -7
 d -4 Y 1 -6 d 3 -4 d 4 -2 d 2 X 4 2 d 3 4 d 1 6 d 4 Y -1 7 d -3 4 d -4 2 d -2 X
 cl s 147 844 m -4 -1 d -3 -4 d -1 -7 d -4 Y 1 -7 d 3 -4 d 4 -1 d 3 X 4 1 d 3 4
 d 1 7 d 4 Y -1 7 d -3 4 d -4 1 d -3 X cl s 150 847 m -4 -1 d -2 -4 d -2 -7 d -4
 Y 2 -6 d 2 -5 d 4 -1 d 3 X 4 1 d 3 5 d 1 6 d 4 Y -1 7 d -3 4 d -4 1 d -3 X cl s
 170 820 m -1 -1 d 1 -2 d 2 2 d -2 1 d cl s 170 819 m -2 -1 d 2 -1 d 1 1 d -1 1
 d cl s 171 821 m -1 -1 d 1 -2 d 2 2 d -2 1 d cl s 169 818 m -2 -1 d 2 -1 d 1 1
 d -1 1 d cl s 172 822 m -1 -2 d 1 -1 d 1 1 d -1 2 d cl s 188 846 m -4 -2 d -1
 -2 d -3 Y 1 -3 d 3 -1 d 5 -1 d 4 -2 d 3 -2 d 1 -3 d -4 Y -1 -3 d -2 -1 d -4 -2
 d -5 X -4 2 d -1 1 d -2 3 d 4 Y 2 3 d 2 2 d 4 2 d 6 1 d 2 1 d 2 3 d 3 Y -2 2 d
 -4 2 d -5 X cl s 187 845 m -4 -1 d -1 -3 d -3 Y 1 -3 d 3 -1 d 5 -1 d 4 -2 d 3
 -2 d 1 -3 d -4 Y -1 -3 d -1 -1 d -5 -1 d -5 X -4 1 d -1 1 d -2 3 d 4 Y 2 3 d 2
 2 d 4 2 d 6 1 d 3 1 d 1 3 d 3 Y -1 3 d -5 1 d -5 X cl s 189 847 m -4 -2 d -2 -2
 d -3 Y 2 -3 d 2 -1 d 6 -2 d 4 -1 d 3 -3 d 1 -2 d -4 Y -1 -3 d -2 -1 d -4 -2 d
 -5 X -4 2 d -2 1 d -1 3 d 4 Y 1 2 d 3 3 d 4 1 d 6 2 d 2 1 d 2 3 d 3 Y -2 2 d -4
 2 d -5 X cl s 186 844 m -4 -1 d -1 -3 d -3 Y 1 -2 d 3 -2 d 5 -1 d 4 -1 d 3 -3 d
 1 -3 d -4 Y -1 -3 d -1 -1 d -4 -1 d -6 X -4 1 d -1 1 d -2 3 d 4 Y 2 3 d 3 3 d 4
 1 d 5 1 d 3 2 d 1 2 d 3 Y -1 3 d -4 1 d -6 X cl s 190 847 m -4 -1 d -2 -3 d -2
 Y 2 -3 d 2 -1 d 6 -2 d 4 -1 d 2 -3 d 2 -2 d -4 Y -2 -3 d -1 -2 d -4 -1 d -5 X
 -4 1 d -2 2 d -1 3 d 4 Y 1 2 d 3 3 d 4 1 d 5 2 d 3 1 d 1 3 d 2 Y -1 3 d -4 1 d
 -5 X cl s 149 1148 m -4 -1 d -3 -4 d -1 -7 d -4 Y 1 -7 d 3 -4 d 4 -1 d 2 X 5 1
 d 2 4 d 2 7 d 4 Y -2 7 d -2 4 d -5 1 d -2 X cl s 148 1147 m -4 -1 d -3 -4 d -1
 -7 d -4 Y 1 -7 d 3 -4 d 4 -1 d 3 X 4 1 d 2 4 d 2 7 d 4 Y -2 7 d -2 4 d -4 1 d
 -3 X cl s 150 1149 m -4 -1 d -3 -4 d -1 -7 d -4 Y 1 -7 d 3 -4 d 4 -1 d 2 X 4 1
 d 3 4 d 1 7 d 4 Y -1 7 d -3 4 d -4 1 d -2 X cl s 147 1146 m -4 -1 d -3 -4 d -1
 -7 d -4 Y 1 -6 d 3 -5 d 4 -1 d 3 X 4 1 d 3 5 d 1 6 d 4 Y -1 7 d -3 4 d -4 1 d
 -3 X cl s 150 1150 m -4 -1 d -2 -5 d -2 -6 d -4 Y 2 -7 d 2 -4 d 4 -1 d 3 X 4 1
 d 3 4 d 1 7 d 4 Y -1 6 d -3 5 d -4 1 d -3 X cl s 170 1123 m -1 -2 d 1 -1 d 2 1
 d -2 2 d cl s 170 1122 m -2 -2 d 2 -1 d 1 1 d -1 2 d cl s 171 1123 m -1 -1 d 1
 -1 d 2 1 d -2 1 d cl s 169 1121 m -2 -2 d 2 -1 d 1 1 d -1 2 d cl s 172 1124 m
 -1 -1 d 1 -1 d 1 1 d -1 1 d cl s 199 1139 m -2 -4 d -2 -3 d -4 -1 d -2 X -4 1 d
 -2 3 d -2 4 d 1 Y 2 4 d 2 3 d 4 1 d 2 X 4 -1 d 2 -3 d 2 -5 d -7 Y -2 -7 d -2 -4
 d -4 -1 d -3 X -4 1 d -1 3 d s 198 1138 m -1 -4 d -3 -3 d -4 -1 d -2 X -4 1 d
 -2 3 d -2 4 d 1 Y 2 4 d 2 3 d 4 1 d 2 X 4 -1 d 3 -3 d 1 -5 d -7 Y -1 -7 d -3 -4
 d -4 -1 d -3 X -4 1 d -1 3 d s 200 1140 m -2 -4 d -2 -3 d -5 -2 d -1 X -4 2 d
 -3 3 d -1 4 d 1 Y 1 4 d 3 3 d 4 1 d 1 X 5 -1 d 2 -3 d 2 -5 d -7 Y -2 -7 d -2 -4
 d -5 -1 d -2 X -4 1 d -2 3 d s 197 1137 m -1 -4 d -3 -3 d -4 -1 d -1 X -4 1 d
 -3 3 d -2 4 d 1 Y 2 4 d 3 3 d 4 1 d 1 X 4 -1 d 3 -3 d 1 -5 d -7 Y -1 -6 d -3 -5
 d -4 -1 d -3 X -4 1 d -1 3 d s 200 1140 m -1 -4 d -3 -2 d -4 -2 d -1 X -4 2 d
 -3 2 d -1 4 d 2 Y 1 4 d 3 3 d 4 1 d 1 X 4 -1 d 3 -3 d 1 -6 d -6 Y -1 -7 d -3 -4
 d -4 -1 d -2 X -4 1 d -2 3 d s 185 1445 m 3 2 d 4 4 d -29 Y s 184 1444 m 3 2 d
 4 4 d -29 Y s 186 1446 m 3 1 d 4 4 d -28 Y s 184 1443 m 2 2 d 4 4 d -28 Y s 187
 1447 m 3 1 d 4 4 d -28 Y s 145 1748 m 2 1 d 4 4 d -28 Y s 144 1747 m 3 1 d 4 4
 d -28 Y s 146 1748 m 2 2 d 4 4 d -29 Y s 143 1746 m 3 1 d 4 4 d -28 Y s 146
 1749 m 3 2 d 4 4 d -29 Y s 170 1727 m -1 -1 d 1 -1 d 2 1 d -2 1 d cl s 170 1726
 m -2 -1 d 2 -1 d 1 1 d -1 1 d cl s 171 1728 m -1 -1 d 1 -2 d 2 2 d -2 1 d cl s
 169 1726 m -2 -2 d 2 -1 d 1 1 d -1 2 d cl s 172 1729 m -1 -1 d 1 -2 d 1 2 d -1
 1 d cl s 185 1748 m 3 1 d 4 4 d -28 Y s 184 1747 m 3 1 d 4 4 d -28 Y s 186 1748
 m 3 2 d 4 4 d -29 Y s 184 1746 m 2 1 d 4 4 d -28 Y s 187 1749 m 3 2 d 4 4 d -29
 Y s 145 2050 m 2 1 d 4 4 d -28 Y s 144 2049 m 3 1 d 4 5 d -29 Y s 146 2051 m 2
 1 d 4 4 d -28 Y s 143 2048 m 3 2 d 4 4 d -29 Y s 146 2052 m 3 1 d 4 4 d -28 Y s
 170 2030 m -1 -2 d 1 -1 d 2 1 d -2 2 d cl s 170 2029 m -2 -1 d 2 -2 d 1 2 d -1
 1 d cl s 171 2031 m -1 -2 d 1 -1 d 2 1 d -2 2 d cl s 169 2028 m -2 -1 d 2 -2 d
 1 2 d -1 1 d cl s 172 2031 m -1 -1 d 1 -1 d 1 1 d -1 1 d cl s 183 2049 m 1 Y 1
 3 d 1 1 d 3 1 d 5 X 3 -1 d 1 -1 d 2 -3 d -3 Y -2 -2 d -2 -4 d -14 -14 d 19 X s
 182 2048 m 1 Y 1 3 d 1 1 d 3 2 d 5 X 3 -2 d 2 -1 d 1 -3 d -3 Y -1 -2 d -3 -4 d
 -14 -14 d 19 X s 183 2049 m 2 Y 2 3 d 1 1 d 3 1 d 5 X 3 -1 d 1 -1 d 2 -3 d -3 Y
 -2 -3 d -2 -4 d -14 -13 d 19 X s 181 2047 m 1 Y 1 3 d 2 1 d 2 2 d 6 X 2 -2 d 2
 -1 d 1 -3 d -2 Y -1 -3 d -3 -4 d -14 -14 d 19 X s 184 2050 m 2 Y 2 2 d 1 2 d 3
 1 d 5 X 3 -1 d 1 -2 d 1 -2 d -3 Y -1 -3 d -3 -4 d -13 -13 d 19 X s 227 227 m
 1814 X s 227 284 m -57 Y s 605 284 m -57 Y s 983 284 m -57 Y s 1361 284 m -57 Y
 s 1739 284 m -57 Y s 1739 284 m -57 Y s 225 204 m -4 -1 d -2 -4 d -2 -7 d -4 Y
 2 -7 d 2 -4 d 4 -1 d 3 X 4 1 d 3 4 d 1 7 d 4 Y -1 7 d -3 4 d -4 1 d -3 X cl s
 225 203 m -4 -1 d -3 -4 d -2 -7 d -4 Y 2 -7 d 3 -4 d 4 -1 d 2 X 4 1 d 3 4 d 1 7
 d 4 Y -1 7 d -3 4 d -4 1 d -2 X cl s 226 205 m -4 -1 d -2 -4 d -2 -7 d -4 Y 2
 -7 d 2 -4 d 4 -1 d 3 X 4 1 d 3 4 d 1 7 d 4 Y -1 7 d -3 4 d -4 1 d -3 X cl s 224
 202 m -4 -1 d -3 -4 d -1 -7 d -4 Y 1 -7 d 3 -4 d 4 -1 d 2 X 4 1 d 3 4 d 2 7 d 4
 Y -2 7 d -3 4 d -4 1 d -2 X cl s 227 206 m -4 -2 d -3 -4 d -1 -6 d -4 Y 1 -7 d
 3 -4 d 4 -2 d 3 X 4 2 d 3 4 d 1 7 d 4 Y -1 6 d -3 4 d -4 2 d -3 X cl s 612 204
 m -14 X -1 -12 d 1 1 d 4 2 d 4 X 4 -2 d 3 -2 d 1 -4 d -3 Y -1 -4 d -3 -3 d -4
 -1 d -4 X -4 1 d -1 1 d -2 3 d s 611 203 m -14 X -1 -12 d 1 1 d 4 2 d 4 X 4 -2
 d 3 -2 d 1 -4 d -3 Y -1 -4 d -3 -3 d -4 -1 d -4 X -4 1 d -1 2 d -2 2 d s 612
 205 m -13 X -1 -12 d 1 1 d 4 2 d 4 X 4 -2 d 3 -3 d 1 -4 d -2 Y -1 -4 d -3 -3 d
 -4 -1 d -4 X -4 1 d -1 1 d -2 3 d s 610 202 m -14 X -1 -12 d 1 2 d 4 1 d 4 X 4
 -1 d 3 -3 d 2 -4 d -3 Y -2 -4 d -3 -3 d -4 -1 d -4 X -4 1 d -1 2 d -1 2 d s 613
 206 m -13 X -2 -12 d 2 1 d 4 1 d 4 X 4 -1 d 3 -3 d 1 -4 d -2 Y -1 -4 d -3 -3 d
 -4 -2 d -4 X -4 2 d -2 1 d -1 3 d s 964 199 m 3 1 d 4 4 d -28 Y s 963 198 m 3 1
 d 4 4 d -28 Y s 965 200 m 2 1 d 5 4 d -28 Y s 962 197 m 3 1 d 4 4 d -28 Y s 966
 200 m 2 2 d 4 4 d -29 Y s 995 204 m -4 -1 d -3 -4 d -1 -7 d -4 Y 1 -7 d 3 -4 d
 4 -1 d 3 X 4 1 d 2 4 d 2 7 d 4 Y -2 7 d -2 4 d -4 1 d -3 X cl s 994 203 m -4 -1
 d -3 -4 d -1 -7 d -4 Y 1 -7 d 3 -4 d 4 -1 d 3 X 4 1 d 3 4 d 1 7 d 4 Y -1 7 d -3
 4 d -4 1 d -3 X cl s 996 205 m -4 -1 d -3 -4 d -1 -7 d -4 Y 1 -7 d 3 -4 d 4 -1
 d 3 X 4 1 d 2 4 d 2 7 d 4 Y -2 7 d -2 4 d -4 1 d -3 X cl s 993 202 m -4 -1 d -3
 -4 d -1 -7 d -4 Y 1 -7 d 3 -4 d 4 -1 d 3 X 4 1 d 3 4 d 1 7 d 4 Y -1 7 d -3 4 d
 -4 1 d -3 X cl s 997 206 m -4 -2 d -3 -4 d -1 -6 d -4 Y 1 -7 d 3 -4 d 4 -2 d 2
 X 4 2 d 3 4 d 1 7 d 4 Y -1 6 d -3 4 d -4 2 d -2 X cl s 1342 199 m 3 1 d 4 4 d
 -28 Y s 1341 198 m 3 1 d 4 4 d -28 Y s 1343 200 m 2 1 d 5 4 d -28 Y s 1340 197
 m 3 1 d 4 4 d -28 Y s 1344 200 m 2 2 d 4 4 d -29 Y s 1381 204 m -13 X -2 -12 d
 2 1 d 4 2 d 4 X 4 -2 d 2 -2 d 2 -4 d -3 Y -2 -4 d -2 -3 d -4 -1 d -4 X -4 1 d
 -2 1 d -1 3 d s 1380 203 m -13 X -2 -12 d 2 1 d 4 2 d 4 X 4 -2 d 3 -2 d 1 -4 d
 -3 Y -1 -4 d -3 -3 d -4 -1 d -4 X -4 1 d -2 2 d -1 2 d s 1382 205 m -14 X -1
 -12 d 1 1 d 4 2 d 5 X 4 -2 d 2 -3 d 2 -4 d -2 Y -2 -4 d -2 -3 d -4 -1 d -5 X -4
 1 d -1 1 d -1 3 d s 1379 202 m -13 X -2 -12 d 2 2 d 4 1 d 4 X 4 -1 d 3 -3 d 1
 -4 d -3 Y -1 -4 d -3 -3 d -4 -1 d -4 X -4 1 d -2 2 d -1 2 d s 1383 206 m -14 X
 -1 -12 d 1 1 d 4 1 d 4 X 4 -1 d 3 -3 d 1 -4 d -2 Y -1 -4 d -3 -3 d -4 -2 d -4 X
 -4 2 d -1 1 d -1 3 d s 1717 197 m 2 Y 2 2 d 1 2 d 3 1 d 5 X 3 -1 d 1 -2 d 1 -2
 d -3 Y -1 -3 d -3 -4 d -13 -13 d 19 X s 1716 197 m 1 Y 2 3 d 1 1 d 3 1 d 5 X 3
 -1 d 1 -1 d 2 -3 d -3 Y -2 -3 d -3 -4 d -13 -13 d 19 X s 1718 198 m 2 Y 1 2 d 2
 2 d 2 1 d 6 X 3 -1 d 1 -2 d 1 -2 d -3 Y -1 -3 d -3 -4 d -13 -13 d 19 X s 1715
 196 m 1 Y 2 3 d 1 1 d 3 1 d 5 X 3 -1 d 1 -1 d 2 -3 d -3 Y -2 -2 d -2 -4 d -14
 -14 d 19 X s 1719 199 m 1 Y 1 3 d 2 1 d 2 2 d 6 X 2 -2 d 2 -1 d 1 -3 d -2 Y -1
 -3 d -3 -4 d -13 -14 d 18 X s 1751 204 m -4 -1 d -3 -4 d -1 -7 d -4 Y 1 -7 d 3
 -4 d 4 -1 d 3 X 4 1 d 2 4 d 2 7 d 4 Y -2 7 d -2 4 d -4 1 d -3 X cl s 1750 203 m
 -4 -1 d -3 -4 d -1 -7 d -4 Y 1 -7 d 3 -4 d 4 -1 d 3 X 4 1 d 3 4 d 1 7 d 4 Y -1
 7 d -3 4 d -4 1 d -3 X cl s 1752 205 m -4 -1 d -3 -4 d -1 -7 d -4 Y 1 -7 d 3 -4
 d 4 -1 d 3 X 4 1 d 2 4 d 2 7 d 4 Y -2 7 d -2 4 d -4 1 d -3 X cl s 1749 202 m -4
 -1 d -3 -4 d -1 -7 d -4 Y 1 -7 d 3 -4 d 4 -1 d 3 X 4 1 d 3 4 d 1 7 d 4 Y -1 7 d
 -3 4 d -4 1 d -3 X cl s 1753 206 m -4 -2 d -3 -4 d -1 -6 d -4 Y 1 -7 d 3 -4 d 4
 -2 d 2 X 4 2 d 3 4 d 1 7 d 4 Y -1 6 d -3 4 d -4 2 d -2 X cl s 1814 1814 227 227
 C 2268 2268 0 0 C 1134 340 907 1701 bl 1134 340 907 1701 bl 975 2013 m -57 Y s
 973 2011 m -57 Y s 976 2015 m -57 Y s 971 2009 m -56 Y s 978 2016 m -56 Y s 975
 2013 m 24 X 8 -3 d 3 -3 d 3 -5 d -8 Y -3 -5 d -3 -3 d -8 -3 d -24 X s 973 2011
 m 24 X 8 -3 d 3 -2 d 3 -6 d -8 Y -3 -5 d -3 -3 d -8 -3 d -24 X s 976 2015 m 25
 X 8 -3 d 3 -3 d 2 -5 d -8 Y -2 -6 d -3 -2 d -8 -3 d -25 X s 971 2009 m 25 X 8
 -2 d 2 -3 d 3 -5 d -8 Y -3 -6 d -2 -3 d -8 -2 d -25 X s 978 2016 m 24 X 9 -2 d
 2 -3 d 3 -6 d -8 Y -3 -5 d -2 -3 d -9 -2 d -24 X s 1037 2002 m 5 3 d 8 8 d -57
 Y s 1035 2000 m 5 3 d 9 8 d -57 Y s 1039 2004 m 5 2 d 8 9 d -57 Y s 1033 1999 m
 6 2 d 8 8 d -56 Y s 1040 2005 m 6 3 d 8 8 d -56 Y s 1758 2002 m 5 3 d 8 8 d -57
 Y s 1756 2000 m 5 3 d 8 8 d -57 Y s 1759 2004 m 6 2 d 8 9 d -57 Y s 1754 1999 m
 6 2 d 8 8 d -56 Y s 1761 2005 m 6 3 d 8 8 d -56 Y s 1809 1962 m -3 -3 d 3 -3 d
 3 3 d -3 3 d cl s 1807 1960 m -2 -3 d 2 -3 d 3 3 d -3 3 d cl s 1811 1963 m -3
 -2 d 3 -3 d 2 3 d -2 2 d cl s 1806 1958 m -3 -3 d 3 -2 d 2 2 d -2 3 d cl s 1812
 1965 m -2 -3 d 2 -2 d 3 2 d -3 3 d cl s 1847 2013 m -8 -3 d -6 -8 d -2 -13 d -9
 Y 2 -13 d 6 -8 d 8 -3 d 5 X 8 3 d 6 8 d 2 13 d 9 Y -2 13 d -6 8 d -8 3 d -5 X
 cl s 1845 2011 m -8 -3 d -5 -8 d -3 -13 d -8 Y 3 -14 d 5 -8 d 8 -3 d 5 X 9 3 d
 5 8 d 3 14 d 8 Y -3 13 d -5 8 d -9 3 d -5 X cl s 1849 2015 m -9 -3 d -5 -8 d -3
 -14 d -8 Y 3 -13 d 5 -8 d 9 -3 d 5 X 8 3 d 5 8 d 3 13 d 8 Y -3 14 d -5 8 d -8 3
 d -5 X cl s 1843 2009 m -8 -2 d -5 -8 d -3 -14 d -8 Y 3 -13 d 5 -9 d 8 -2 d 6 X
 8 2 d 5 9 d 3 13 d 8 Y -3 14 d -5 8 d -8 2 d -6 X cl s 1850 2016 m -8 -2 d -5
 -9 d -3 -13 d -8 Y 3 -14 d 5 -8 d 8 -2 d 6 X 8 2 d 5 8 d 3 14 d 8 Y -3 13 d -5
 9 d -8 2 d -6 X cl s 1901 2013 m -8 -3 d -6 -8 d -2 -13 d -9 Y 2 -13 d 6 -8 d 8
 -3 d 5 X 8 3 d 6 8 d 2 13 d 9 Y -2 13 d -6 8 d -8 3 d -5 X cl s 1899 2011 m -8
 -3 d -5 -8 d -3 -13 d -8 Y 3 -14 d 5 -8 d 8 -3 d 5 X 9 3 d 5 8 d 3 14 d 8 Y -3
 13 d -5 8 d -9 3 d -5 X cl s 1903 2015 m -9 -3 d -5 -8 d -3 -14 d -8 Y 3 -13 d
 5 -8 d 9 -3 d 5 X 8 3 d 5 8 d 3 13 d 8 Y -3 14 d -5 8 d -8 3 d -5 X cl s 1897
 2009 m -8 -2 d -5 -8 d -3 -14 d -8 Y 3 -13 d 5 -9 d 8 -2 d 6 X 8 2 d 5 9 d 3 13
 d 8 Y -3 14 d -5 8 d -8 2 d -6 X cl s 1904 2016 m -8 -2 d -5 -9 d -3 -13 d -8 Y
 3 -14 d 5 -8 d 8 -2 d 6 X 8 2 d 5 8 d 3 14 d 8 Y -3 13 d -5 9 d -8 2 d -6 X cl
 s 1974 1994 m -3 -8 d -5 -6 d -8 -2 d -3 X -8 2 d -6 6 d -2 8 d 3 Y 2 8 d 6 5 d
 8 3 d 3 X 8 -3 d 5 -5 d 3 -11 d -14 Y -3 -13 d -5 -8 d -8 -3 d -6 X -8 3 d -3 5
 d s 1972 1992 m -3 -8 d -5 -5 d -8 -3 d -3 X -8 3 d -5 5 d -3 8 d 3 Y 3 8 d 5 5
 d 8 3 d 3 X 8 -3 d 5 -5 d 3 -11 d -13 Y -3 -14 d -5 -8 d -8 -3 d -6 X -8 3 d -2
 6 d s 1975 1996 m -2 -8 d -6 -6 d -8 -3 d -2 X -9 3 d -5 6 d -3 8 d 2 Y 3 8 d 5
 6 d 9 3 d 2 X 8 -3 d 6 -6 d 2 -10 d -14 Y -2 -13 d -6 -8 d -8 -3 d -5 X -8 3 d
 -3 5 d s 1970 1991 m -2 -9 d -6 -5 d -8 -3 d -3 X -8 3 d -5 5 d -3 9 d 2 Y 3 8
 d 5 6 d 8 2 d 3 X 8 -2 d 6 -6 d 2 -10 d -14 Y -2 -13 d -6 -9 d -8 -2 d -5 X -8
 2 d -3 6 d s 1977 1997 m -3 -8 d -5 -5 d -8 -3 d -3 X -8 3 d -5 5 d -3 8 d 3 Y
 3 8 d 5 6 d 8 2 d 3 X 8 -2 d 5 -6 d 3 -11 d -13 Y -3 -14 d -5 -8 d -8 -2 d -5 X
 -9 2 d -2 6 d s 975 1899 m -56 Y s 973 1898 m -57 Y s 976 1901 m -57 Y s 971
 1896 m -57 Y s 978 1903 m -57 Y s 975 1899 m 24 X 8 -2 d 3 -3 d 3 -5 d -8 Y -3
 -6 d -3 -3 d -8 -2 d -24 X s 973 1898 m 24 X 8 -3 d 3 -3 d 3 -5 d -8 Y -3 -6 d
 -3 -2 d -8 -3 d -24 X s 976 1901 m 25 X 8 -3 d 3 -2 d 2 -6 d -8 Y -2 -5 d -3 -3
 d -8 -3 d -25 X s 971 1896 m 25 X 8 -3 d 2 -2 d 3 -6 d -8 Y -3 -5 d -2 -3 d -8
 -3 d -25 X s 978 1903 m 24 X 9 -3 d 2 -3 d 3 -5 d -8 Y -3 -5 d -2 -3 d -9 -3 d
 -24 X s 1031 1886 m 3 Y 3 5 d 3 3 d 5 2 d 11 X 5 -2 d 3 -3 d 3 -5 d -6 Y -3 -5
 d -5 -8 d -27 -27 d 38 X s 1030 1884 m 3 Y 2 5 d 3 3 d 5 3 d 11 X 6 -3 d 2 -3 d
 3 -5 d -5 Y -3 -6 d -5 -8 d -27 -27 d 38 X s 1033 1888 m 2 Y 3 6 d 3 2 d 5 3 d
 11 X 5 -3 d 3 -2 d 3 -6 d -5 Y -3 -5 d -6 -9 d -27 -27 d 38 X s 1028 1883 m 2 Y
 3 6 d 2 2 d 6 3 d 11 X 5 -3 d 3 -2 d 2 -6 d -5 Y -2 -6 d -6 -8 d -27 -27 d 38 X
 s 1035 1889 m 3 Y 3 5 d 2 3 d 6 3 d 10 X 6 -3 d 3 -3 d 2 -5 d -5 Y -2 -6 d -6
 -8 d -27 -27 d 38 X s 1712 1899 m -8 -2 d -6 -8 d -2 -14 d -8 Y 2 -13 d 6 -9 d
 8 -2 d 5 X 8 2 d 6 9 d 2 13 d 8 Y -2 14 d -6 8 d -8 2 d -5 X cl s 1710 1898 m
 -8 -3 d -5 -8 d -3 -14 d -8 Y 3 -13 d 5 -8 d 8 -3 d 5 X 9 3 d 5 8 d 3 13 d 8 Y
 -3 14 d -5 8 d -9 3 d -5 X cl s 1714 1901 m -9 -3 d -5 -8 d -3 -13 d -8 Y 3 -14
 d 5 -8 d 9 -3 d 5 X 8 3 d 5 8 d 3 14 d 8 Y -3 13 d -5 8 d -8 3 d -5 X cl s 1708
 1896 m -8 -3 d -5 -8 d -3 -13 d -8 Y 3 -14 d 5 -8 d 8 -3 d 6 X 8 3 d 5 8 d 3 14
 d 8 Y -3 13 d -5 8 d -8 3 d -6 X cl s 1715 1903 m -8 -3 d -5 -8 d -3 -13 d -9 Y
 3 -13 d 5 -8 d 8 -3 d 6 X 8 3 d 5 8 d 3 13 d 9 Y -3 13 d -5 8 d -8 3 d -6 X cl
 s 1755 1848 m -3 -3 d 3 -2 d 3 2 d -3 3 d cl s 1753 1846 m -2 -2 d 2 -3 d 3 3 d
 -3 2 d cl s 1757 1850 m -3 -3 d 3 -3 d 2 3 d -2 3 d cl s 1752 1845 m -3 -3 d 3
 -3 d 2 3 d -2 3 d cl s 1758 1852 m -2 -3 d 2 -3 d 3 3 d -3 3 d cl s 1812 1881 m
 -3 -9 d -5 -5 d -8 -3 d -3 X -8 3 d -6 5 d -2 9 d 2 Y 2 8 d 6 6 d 8 2 d 3 X 8
 -2 d 5 -6 d 3 -10 d -14 Y -3 -13 d -5 -9 d -8 -2 d -6 X -8 2 d -3 6 d s 1810
 1879 m -3 -8 d -5 -6 d -8 -2 d -3 X -8 2 d -5 6 d -3 8 d 3 Y 3 8 d 5 5 d 8 3 d
 3 X 8 -3 d 5 -5 d 3 -11 d -14 Y -3 -13 d -5 -8 d -8 -3 d -6 X -8 3 d -2 5 d s
 1813 1882 m -2 -8 d -6 -5 d -8 -3 d -2 X -9 3 d -5 5 d -3 8 d 3 Y 3 8 d 5 5 d 9
 3 d 2 X 8 -3 d 6 -5 d 2 -11 d -13 Y -2 -14 d -6 -8 d -8 -3 d -5 X -8 3 d -3 6 d
 s 1808 1877 m -2 -8 d -6 -5 d -8 -3 d -3 X -8 3 d -5 5 d -3 8 d 3 Y 3 8 d 5 5 d
 8 3 d 3 X 8 -3 d 6 -5 d 2 -11 d -13 Y -2 -14 d -6 -8 d -8 -3 d -5 X -8 3 d -3 5
 d s 1815 1884 m -3 -8 d -5 -6 d -8 -2 d -3 X -8 2 d -5 6 d -3 8 d 3 Y 3 8 d 5 5
 d 8 3 d 3 X 8 -3 d 5 -5 d 3 -11 d -14 Y -3 -13 d -5 -8 d -8 -3 d -5 X -9 3 d -2
 5 d s 1839 1889 m 5 2 d 8 8 d -56 Y s 1837 1887 m 5 3 d 8 8 d -57 Y s 1840 1890
 m 6 3 d 8 8 d -57 Y s 1835 1885 m 6 3 d 8 8 d -57 Y s 1842 1892 m 6 3 d 8 8 d
 -57 Y s 1920 1881 m -3 -9 d -5 -5 d -9 -3 d -2 X -8 3 d -6 5 d -2 9 d 2 Y 2 8 d
 6 6 d 8 2 d 2 X 9 -2 d 5 -6 d 3 -10 d -14 Y -3 -13 d -5 -9 d -9 -2 d -5 X -8 2
 d -3 6 d s 1918 1879 m -3 -8 d -5 -6 d -8 -2 d -3 X -8 2 d -5 6 d -3 8 d 3 Y 3
 8 d 5 5 d 8 3 d 3 X 8 -3 d 5 -5 d 3 -11 d -14 Y -3 -13 d -5 -8 d -8 -3 d -6 X
 -8 3 d -2 5 d s 1921 1882 m -2 -8 d -6 -5 d -8 -3 d -2 X -9 3 d -5 5 d -3 8 d 3
 Y 3 8 d 5 5 d 9 3 d 2 X 8 -3 d 6 -5 d 2 -11 d -13 Y -2 -14 d -6 -8 d -8 -3 d -5
 X -8 3 d -3 6 d s 1916 1877 m -2 -8 d -6 -5 d -8 -3 d -3 X -8 3 d -5 5 d -3 8 d
 3 Y 3 8 d 5 5 d 8 3 d 3 X 8 -3 d 6 -5 d 2 -11 d -13 Y -2 -14 d -6 -8 d -8 -3 d
 -5 X -8 3 d -3 5 d s 1923 1884 m -3 -8 d -5 -6 d -8 -2 d -3 X -8 2 d -5 6 d -3
 8 d 3 Y 3 8 d 5 5 d 8 3 d 3 X 8 -3 d 5 -5 d 3 -11 d -14 Y -3 -13 d -5 -8 d -8
 -3 d -5 X -9 3 d -2 5 d s 1941 1886 m 3 Y 3 5 d 3 3 d 5 2 d 11 X 5 -2 d 3 -3 d
 3 -5 d -6 Y -3 -5 d -5 -8 d -27 -27 d 37 X s 1940 1884 m 3 Y 2 5 d 3 3 d 5 3 d
 11 X 6 -3 d 2 -3 d 3 -5 d -5 Y -3 -6 d -5 -8 d -27 -27 d 38 X s 1943 1888 m 2 Y
 3 6 d 2 2 d 6 3 d 11 X 5 -3 d 3 -2 d 2 -6 d -5 Y -2 -5 d -6 -9 d -27 -27 d 38 X
 s 1938 1883 m 2 Y 3 6 d 2 2 d 6 3 d 10 X 6 -3 d 3 -2 d 2 -6 d -5 Y -2 -6 d -6
 -8 d -27 -27 d 38 X s 1945 1889 m 3 Y 2 5 d 3 3 d 6 3 d 10 X 6 -3 d 2 -3 d 3 -5
 d -5 Y -3 -6 d -5 -8 d -27 -27 d 38 X s 975 1786 m -57 Y s 973 1784 m -56 Y s
 976 1788 m -57 Y s 971 1783 m -57 Y s 978 1789 m -56 Y s 975 1786 m 24 X 8 -3 d
 3 -2 d 3 -6 d -8 Y -3 -5 d -3 -3 d -8 -3 d -24 X s 973 1784 m 24 X 8 -2 d 3 -3
 d 3 -5 d -9 Y -3 -5 d -3 -3 d -8 -2 d -24 X s 976 1788 m 25 X 8 -3 d 3 -3 d 2
 -5 d -8 Y -2 -6 d -3 -2 d -8 -3 d -25 X s 971 1783 m 25 X 8 -3 d 2 -3 d 3 -5 d
 -8 Y -3 -6 d -2 -2 d -8 -3 d -25 X s 978 1789 m 24 X 9 -2 d 2 -3 d 3 -5 d -8 Y
 -3 -6 d -2 -3 d -9 -2 d -24 X s 1034 1786 m 30 X -16 -22 d 8 X 5 -2 d 3 -3 d 3
 -8 d -5 Y -3 -9 d -6 -5 d -8 -3 d -8 X -8 3 d -3 3 d -2 5 d s 1032 1784 m 30 X
 -16 -21 d 8 X 5 -3 d 3 -3 d 3 -8 d -5 Y -3 -8 d -5 -6 d -8 -2 d -9 X -8 2 d -2
 3 d -3 5 d s 1036 1788 m 30 X -17 -22 d 8 X 6 -3 d 3 -2 d 2 -8 d -6 Y -2 -8 d
 -6 -5 d -8 -3 d -8 X -8 3 d -3 2 d -3 6 d s 1031 1783 m 29 X -16 -22 d 8 X 6 -3
 d 2 -2 d 3 -8 d -6 Y -3 -8 d -5 -5 d -8 -3 d -8 X -8 3 d -3 2 d -3 6 d s 1038
 1789 m 29 X -16 -21 d 8 X 6 -3 d 2 -3 d 3 -8 d -5 Y -3 -8 d -5 -6 d -8 -2 d -8
 X -8 2 d -3 3 d -3 6 d s 1628 1754 m 49 X s 1626 1752 m 49 X s 1630 1755 m 48 X
 s 1625 1750 m 48 X s 1632 1757 m 48 X s 1712 1786 m -8 -3 d -6 -8 d -2 -13 d -8
 Y 2 -14 d 6 -8 d 8 -3 d 5 X 8 3 d 6 8 d 2 14 d 8 Y -2 13 d -6 8 d -8 3 d -5 X
 cl s 1710 1784 m -8 -2 d -5 -8 d -3 -14 d -8 Y 3 -14 d 5 -8 d 8 -2 d 5 X 9 2 d
 5 8 d 3 14 d 8 Y -3 14 d -5 8 d -9 2 d -5 X cl s 1714 1788 m -9 -3 d -5 -8 d -3
 -14 d -8 Y 3 -13 d 5 -8 d 9 -3 d 5 X 8 3 d 5 8 d 3 13 d 8 Y -3 14 d -5 8 d -8 3
 d -5 X cl s 1708 1783 m -8 -3 d -5 -8 d -3 -14 d -8 Y 3 -13 d 5 -8 d 8 -3 d 6 X
 8 3 d 5 8 d 3 13 d 8 Y -3 14 d -5 8 d -8 3 d -6 X cl s 1715 1789 m -8 -2 d -5
 -8 d -3 -14 d -8 Y 3 -13 d 5 -9 d 8 -2 d 6 X 8 2 d 5 9 d 3 13 d 8 Y -3 14 d -5
 8 d -8 2 d -6 X cl s 1755 1735 m -3 -3 d 3 -3 d 3 3 d -3 3 d cl s 1753 1733 m
 -2 -3 d 2 -2 d 3 2 d -3 3 d cl s 1757 1736 m -3 -2 d 3 -3 d 2 3 d -2 2 d cl s
 1752 1731 m -3 -2 d 3 -3 d 2 3 d -2 2 d cl s 1758 1738 m -2 -3 d 2 -2 d 3 2 d
 -3 3 d cl s 1804 1786 m -27 -38 d 40 X s 1802 1784 m -27 -37 d 40 X s 1805 1788
 m -27 -38 d 41 X s 1800 1783 m -27 -38 d 41 X s 1807 1789 m -27 -37 d 41 X s
 1804 1786 m -57 Y s 1802 1784 m -56 Y s 1805 1788 m -57 Y s 1800 1783 m -57 Y s
 1807 1789 m -56 Y s 1866 1778 m -3 5 d -8 3 d -6 X -8 -3 d -5 -8 d -3 -13 d -14
 Y 3 -11 d 5 -5 d 8 -3 d 3 X 8 3 d 6 5 d 2 9 d 2 Y -2 8 d -6 6 d -8 2 d -3 X -8
 -2 d -5 -6 d -3 -8 d s 1864 1776 m -3 6 d -8 2 d -5 X -8 -2 d -6 -8 d -2 -14 d
 -13 Y 2 -11 d 6 -6 d 8 -2 d 2 X 9 2 d 5 6 d 3 8 d 3 Y -3 8 d -5 5 d -9 3 d -2 X
 -8 -3 d -6 -5 d -2 -8 d s 1867 1780 m -2 5 d -8 3 d -6 X -8 -3 d -5 -8 d -3 -14
 d -13 Y 3 -11 d 5 -5 d 8 -3 d 3 X 8 3 d 5 5 d 3 8 d 3 Y -3 8 d -5 5 d -8 3 d -3
 X -8 -3 d -5 -5 d -3 -8 d s 1862 1775 m -2 5 d -9 3 d -5 X -8 -3 d -5 -8 d -3
 -14 d -13 Y 3 -11 d 5 -5 d 8 -3 d 3 X 8 3 d 5 5 d 3 8 d 3 Y -3 8 d -5 5 d -8 3
 d -3 X -8 -3 d -5 -5 d -3 -8 d s 1869 1781 m -3 6 d -8 2 d -5 X -8 -2 d -6 -8 d
 -2 -14 d -13 Y 2 -11 d 6 -6 d 8 -2 d 3 X 8 2 d 5 6 d 3 8 d 3 Y -3 8 d -5 5 d -8
 3 d -3 X -8 -3 d -6 -5 d -2 -8 d s 1893 1775 m 5 3 d 8 8 d -57 Y s 1891 1774 m
 5 2 d 8 8 d -56 Y s 1894 1777 m 6 3 d 8 8 d -57 Y s 1889 1772 m 6 3 d 8 8 d -57
 Y s 1896 1779 m 6 2 d 8 8 d -56 Y s 1952 1786 m -8 -3 d -3 -5 d -5 Y 3 -6 d 5
 -3 d 11 -2 d 8 -3 d 6 -5 d 2 -6 d -8 Y -2 -5 d -3 -3 d -8 -3 d -11 X -8 3 d -3
 3 d -2 5 d 8 Y 2 6 d 6 5 d 8 3 d 11 2 d 5 3 d 3 6 d 5 Y -3 5 d -8 3 d -11 X cl
 s 1950 1784 m -8 -2 d -2 -6 d -5 Y 2 -6 d 6 -2 d 10 -3 d 9 -3 d 5 -5 d 3 -5 d
 -9 Y -3 -5 d -3 -3 d -8 -2 d -11 X -8 2 d -2 3 d -3 5 d 9 Y 3 5 d 5 5 d 8 3 d
 11 3 d 5 2 d 3 6 d 5 Y -3 6 d -8 2 d -11 X cl s 1954 1788 m -8 -3 d -3 -5 d -6
 Y 3 -5 d 5 -3 d 11 -3 d 8 -2 d 5 -6 d 3 -5 d -8 Y -3 -6 d -2 -2 d -8 -3 d -11 X
 -8 3 d -3 2 d -3 6 d 8 Y 3 5 d 5 6 d 9 2 d 10 3 d 6 3 d 2 5 d 6 Y -2 5 d -8 3 d
 -11 X cl s 1949 1783 m -8 -3 d -3 -5 d -6 Y 3 -5 d 5 -3 d 11 -3 d 8 -2 d 5 -6 d
 3 -5 d -8 Y -3 -6 d -2 -2 d -9 -3 d -10 X -8 3 d -3 2 d -3 6 d 8 Y 3 5 d 5 6 d
 8 2 d 11 3 d 6 3 d 2 5 d 6 Y -2 5 d -9 3 d -10 X cl s 1956 1789 m -9 -2 d -2 -6
 d -5 Y 2 -5 d 6 -3 d 11 -3 d 8 -3 d 5 -5 d 3 -5 d -8 Y -3 -6 d -3 -3 d -8 -2 d
 -10 X -9 2 d -2 3 d -3 6 d 8 Y 3 5 d 5 5 d 8 3 d 11 3 d 5 3 d 3 5 d 5 Y -3 6 d
 -8 2 d -10 X cl s 1814 1814 227 227 C 2268 2268 0 0 C 26 1406 m 31 X s 25 1405
 m 30 X s 28 1408 m 30 X s 24 1403 m 30 X s 29 1409 m 30 X s 39 1406 m -6 2 d -4
 5 d -3 4 d 6 Y s 38 1405 m -6 2 d -5 4 d -2 5 d 6 Y s 41 1408 m -7 2 d -4 4 d
 -2 4 d 7 Y s 37 1403 m -7 3 d -4 4 d -2 4 d 7 Y s 42 1409 m -6 2 d -5 4 d -2 5
 d 6 Y s 39 1432 m 26 Y -4 X -4 -2 d -2 -2 d -3 -5 d -6 Y 3 -4 d 4 -5 d 6 -2 d 5
 X 6 2 d 5 5 d 2 4 d 6 Y -2 5 d -5 4 d s 38 1431 m 26 Y -4 X -5 -3 d -2 -2 d -2
 -4 d -6 Y 2 -5 d 5 -4 d 6 -2 d 4 X 7 2 d 4 4 d 2 5 d 6 Y -2 4 d -4 5 d s 41
 1433 m 26 Y -5 X -4 -2 d -2 -2 d -2 -4 d -7 Y 2 -4 d 4 -4 d 7 -3 d 4 X 7 3 d 4
 4 d 2 4 d 7 Y -2 4 d -4 4 d s 37 1429 m 26 Y -5 X -4 -2 d -2 -2 d -2 -4 d -7 Y
 2 -4 d 4 -4 d 7 -3 d 4 X 6 3 d 5 4 d 2 4 d 7 Y -2 4 d -5 4 d s 42 1435 m 26 Y
 -4 X -4 -2 d -3 -3 d -2 -4 d -6 Y 2 -5 d 5 -4 d 6 -2 d 4 X 7 2 d 4 4 d 2 5 d 6
 Y -2 4 d -4 5 d s 11 1473 m 46 X s 10 1472 m 45 X s 13 1474 m 45 X s 9 1470 m
 45 X s 14 1476 m 45 X s 26 1514 m 31 X s 25 1513 m 30 X s 28 1516 m 30 X s 24
 1511 m 30 X s 29 1517 m 30 X s 33 1514 m -4 -4 d -3 -4 d -7 Y 3 -4 d 4 -5 d 6
 -2 d 5 X 6 2 d 5 5 d 2 4 d 7 Y -2 4 d -5 4 d s 32 1513 m -5 -5 d -2 -4 d -6 Y 2
 -5 d 5 -4 d 6 -2 d 4 X 7 2 d 4 4 d 2 5 d 6 Y -2 4 d -4 5 d s 34 1516 m -4 -5 d
 -2 -4 d -7 Y 2 -4 d 4 -4 d 7 -2 d 4 X 7 2 d 4 4 d 2 4 d 7 Y -2 4 d -4 5 d s 30
 1511 m -4 -4 d -2 -4 d -7 Y 2 -4 d 4 -4 d 7 -2 d 4 X 6 2 d 5 4 d 2 4 d 7 Y -2 4
 d -5 4 d s 36 1517 m -5 -4 d -2 -5 d -6 Y 2 -5 d 5 -4 d 6 -2 d 4 X 7 2 d 4 4 d
 2 5 d 6 Y -2 5 d -4 4 d s 11 1534 m 37 X 7 2 d 2 4 d 4 Y s 10 1532 m 37 X 6 2 d
 2 5 d 4 Y s 13 1535 m 36 X 7 2 d 2 4 d 5 Y s 9 1531 m 36 X 7 2 d 2 4 d 5 Y s 14
 1536 m 37 X 6 2 d 2 5 d 4 Y s 26 1527 m 15 Y s 25 1526 m 15 Y s 28 1528 m 16 Y
 s 24 1524 m 16 Y s 29 1530 m 15 Y s 11 1555 m 3 2 d -3 3 d -2 -3 d 2 -2 d cl s
 10 1554 m 2 2 d -2 2 d -2 -2 d 2 -2 d cl s 13 1557 m 2 2 d -2 2 d -2 -2 d 2 -2
 d cl s 9 1552 m 2 3 d -2 2 d -3 -2 d 3 -3 d cl s 14 1558 m 2 2 d -2 2 d -2 -2 d
 2 -2 d cl s 26 1557 m 31 X s 25 1556 m 30 X s 28 1559 m 30 X s 24 1555 m 30 X s
 29 1560 m 30 X s 26 1570 m 31 13 d s 25 1569 m 30 13 d s 28 1572 m 30 13 d s 24
 1568 m 30 13 d s 29 1573 m 30 13 d s 26 1596 m 31 -13 d s 25 1595 m 30 -13 d s
 28 1598 m 30 -13 d s 24 1594 m 30 -13 d s 29 1599 m 30 -13 d s 39 1607 m 26 Y
 -4 X -4 -2 d -2 -2 d -3 -5 d -6 Y 3 -4 d 4 -5 d 6 -2 d 5 X 6 2 d 5 5 d 2 4 d 6
 Y -2 5 d -5 4 d s 38 1606 m 26 Y -4 X -5 -3 d -2 -2 d -2 -4 d -7 Y 2 -4 d 5 -4
 d 6 -2 d 4 X 7 2 d 4 4 d 2 4 d 7 Y -2 4 d -4 5 d s 41 1608 m 26 Y -5 X -4 -2 d
 -2 -2 d -2 -4 d -7 Y 2 -4 d 4 -4 d 7 -3 d 4 X 7 3 d 4 4 d 2 4 d 7 Y -2 4 d -4 4
 d s 37 1604 m 26 Y -5 X -4 -2 d -2 -2 d -2 -4 d -7 Y 2 -4 d 4 -5 d 7 -2 d 4 X 6
 2 d 5 5 d 2 4 d 7 Y -2 4 d -5 4 d s 42 1610 m 26 Y -4 X -4 -2 d -3 -3 d -2 -4 d
 -6 Y 2 -5 d 5 -4 d 6 -2 d 4 X 7 2 d 4 4 d 2 5 d 6 Y -2 4 d -4 5 d s 11 1670 m
 46 X s 10 1668 m 45 X s 13 1671 m 45 X s 9 1667 m 45 X s 14 1672 m 45 X s 11
 1685 m 3 2 d -3 2 d -2 -2 d 2 -2 d cl s 10 1683 m 2 3 d -2 2 d -2 -2 d 2 -3 d
 cl s 13 1686 m 2 2 d -2 2 d -2 -2 d 2 -2 d cl s 9 1682 m 2 2 d -2 2 d -3 -2 d 3
 -2 d cl s 14 1688 m 2 2 d -2 2 d -2 -2 d 2 -2 d cl s 26 1687 m 31 X s 25 1686 m
 30 X s 28 1688 m 30 X s 24 1684 m 30 X s 29 1690 m 30 X s 26 1728 m 35 X 7 -2 d
 2 -2 d 2 -5 d -6 Y -2 -4 d s 25 1727 m 35 X 6 -3 d 2 -2 d 2 -4 d -6 Y -2 -5 d s
 28 1729 m 34 X 7 -2 d 2 -2 d 2 -4 d -7 Y -2 -4 d s 24 1725 m 34 X 7 -2 d 2 -2 d
 2 -4 d -7 Y -2 -4 d s 29 1731 m 35 X 6 -2 d 2 -3 d 3 -4 d -6 Y -3 -5 d s 33
 1728 m -4 -4 d -3 -5 d -6 Y 3 -4 d 4 -5 d 6 -2 d 5 X 6 2 d 5 5 d 2 4 d 6 Y -2 5
 d -5 4 d s 32 1727 m -5 -5 d -2 -4 d -6 Y 2 -5 d 5 -4 d 6 -2 d 4 X 7 2 d 4 4 d
 2 5 d 6 Y -2 4 d -4 5 d s 34 1729 m -4 -4 d -2 -4 d -7 Y 2 -4 d 4 -4 d 7 -3 d 4
 X 7 3 d 4 4 d 2 4 d 7 Y -2 4 d -4 4 d s 30 1725 m -4 -4 d -2 -4 d -7 Y 2 -4 d 4
 -4 d 7 -3 d 4 X 6 3 d 5 4 d 2 4 d 7 Y -2 4 d -5 4 d s 36 1731 m -5 -5 d -2 -4 d
 -6 Y 2 -5 d 5 -4 d 6 -2 d 4 X 7 2 d 4 4 d 2 5 d 6 Y -2 4 d -4 5 d s 11 1745 m
 46 X s 10 1744 m 45 X s 13 1747 m 45 X s 9 1743 m 45 X s 14 1748 m 45 X s 35
 1745 m -6 7 d -3 4 d 7 Y 3 4 d 6 2 d 22 X s 34 1744 m -7 6 d -2 5 d 6 Y 2 5 d 7
 2 d 21 X s 36 1747 m -6 6 d -2 4 d 7 Y 2 4 d 6 2 d 22 X s 32 1743 m -6 6 d -2 4
 d 7 Y 2 4 d 6 2 d 22 X s 38 1748 m -7 6 d -2 5 d 6 Y 2 5 d 7 2 d 21 X s 11 1788
 m 37 X 7 3 d 2 4 d 4 Y s 10 1787 m 37 X 6 2 d 2 5 d 4 Y s 13 1790 m 36 X 7 2 d
 2 4 d 5 Y s 9 1786 m 36 X 7 2 d 2 4 d 5 Y s 14 1791 m 37 X 6 2 d 2 5 d 4 Y s 26
 1782 m 15 Y s 25 1781 m 15 Y s 28 1783 m 15 Y s 24 1779 m 15 Y s 29 1785 m 15 Y
 s 26 1842 m 3 -4 d 4 -4 d 6 -2 d 5 X 6 2 d 5 4 d 2 4 d 7 Y -2 4 d -5 5 d -6 2 d
 -5 X -6 -2 d -4 -5 d -3 -4 d -7 Y cl s 25 1841 m 2 -4 d 5 -5 d 6 -2 d 4 X 7 2 d
 4 5 d 2 4 d 7 Y -2 4 d -4 4 d -7 2 d -4 X -6 -2 d -5 -4 d -2 -4 d -7 Y cl s 28
 1844 m 2 -4 d 4 -5 d 7 -2 d 4 X 7 2 d 4 5 d 2 4 d 6 Y -2 5 d -4 4 d -7 2 d -4 X
 -7 -2 d -4 -4 d -2 -5 d -6 Y cl s 24 1840 m 2 -5 d 4 -4 d 7 -2 d 4 X 6 2 d 5 4
 d 2 5 d 6 Y -2 5 d -5 4 d -6 2 d -4 X -7 -2 d -4 -4 d -2 -5 d -6 Y cl s 29 1845
 m 2 -4 d 5 -4 d 6 -3 d 4 X 7 3 d 4 4 d 2 4 d 7 Y -2 4 d -4 4 d -7 2 d -4 X -6
 -2 d -5 -4 d -2 -4 d -7 Y cl s 26 1875 m 22 X 7 2 d 2 4 d 7 Y -2 4 d -7 7 d s
 25 1874 m 22 X 6 2 d 2 4 d 6 Y -2 5 d -6 6 d s 28 1876 m 21 X 7 2 d 2 5 d 6 Y
 -2 5 d -7 6 d s 24 1872 m 21 X 7 2 d 2 5 d 6 Y -2 4 d -7 7 d s 29 1878 m 22 X 6
 2 d 2 4 d 7 Y -2 4 d -6 6 d s 26 1899 m 31 X s 25 1897 m 30 X s 28 1900 m 30 X
 s 24 1896 m 30 X s 29 1901 m 30 X s 11 1918 m 37 X 7 2 d 2 5 d 4 Y s 10 1917 m
 37 X 6 2 d 2 4 d 5 Y s 13 1919 m 36 X 7 3 d 2 4 d 4 Y s 9 1915 m 36 X 7 3 d 2 4
 d 4 Y s 14 1921 m 37 X 6 2 d 2 4 d 5 Y s 26 1912 m 15 Y s 25 1910 m 15 Y s 28
 1913 m 15 Y s 24 1909 m 15 Y s 29 1914 m 15 Y s 26 1942 m 46 X s 25 1940 m 45 X
 s 28 1943 m 45 X s 24 1939 m 45 X s 29 1945 m 46 X s 33 1942 m -4 4 d -3 4 d 7
 Y 3 4 d 4 5 d 6 2 d 5 X 6 -2 d 5 -5 d 2 -4 d -7 Y -2 -4 d -5 -4 d s 32 1940 m
 -5 5 d -2 4 d 7 Y 2 4 d 5 4 d 6 2 d 4 X 7 -2 d 4 -4 d 2 -4 d -7 Y -2 -4 d -4 -5
 d s 34 1943 m -4 5 d -2 4 d 6 Y 2 5 d 4 4 d 7 2 d 4 X 7 -2 d 4 -4 d 2 -5 d -6 Y
 -2 -4 d -4 -5 d s 30 1939 m -4 4 d -2 5 d 6 Y 2 5 d 4 4 d 7 2 d 4 X 6 -2 d 5 -4
 d 2 -5 d -6 Y -2 -5 d -5 -4 d s 36 1945 m -5 4 d -2 4 d 7 Y 2 4 d 5 4 d 6 2 d 4
 X 7 -2 d 4 -4 d 2 -4 d -7 Y -2 -4 d -4 -4 d s 26 1983 m 22 X 7 2 d 2 4 d 7 Y -2
 4 d -7 7 d s 25 1982 m 22 X 6 2 d 2 4 d 6 Y -2 5 d -6 6 d s 28 1984 m 21 X 7 2
 d 2 5 d 6 Y -2 5 d -7 6 d s 24 1980 m 21 X 7 2 d 2 5 d 6 Y -2 4 d -7 7 d s 29
 1986 m 22 X 6 2 d 2 4 d 7 Y -2 4 d -6 6 d s 26 2007 m 31 X s 25 2005 m 30 X s
 28 2008 m 30 X s 24 2004 m 30 X s 29 2009 m 30 X s 11 2026 m 37 X 7 2 d 2 5 d 4
 Y s 10 2025 m 37 X 6 2 d 2 4 d 5 Y s 13 2027 m 36 X 7 3 d 2 4 d 4 Y s 9 2023 m
 36 X 7 3 d 2 4 d 4 Y s 14 2029 m 37 X 6 2 d 2 4 d 5 Y s 26 2020 m 15 Y s 25
 2018 m 15 Y s 28 2021 m 15 Y s 24 2017 m 15 Y s 29 2022 m 15 Y s 1814 1814 227
 227 C
gr gr showpage
end
%%EOF
