%!PS-Adobe-2.0 EPSF-2.0
%%BoundingBox: 0 0 567 567
%%Title: bgorad.eps
%%Creator: HIGZ Version 1.22/09
%%CreationDate: 97/04/09   17.23
%%EndComments
80 dict begin
/s {stroke} def /l {lineto} def /m {moveto} def /t {translate} def
/sw {stringwidth} def /r {rotate} def /rl {roll}  def /R {repeat} def
/d {rlineto} def /rm {rmoveto} def /gr {grestore} def /f {eofill} def
/c {setrgbcolor} def /lw {setlinewidth} def /sd {setdash} def
/cl {closepath} def /sf {scalefont setfont} def /black {0 setgray} def
/box {m dup 0 exch d exch 0 d 0 exch neg d cl} def
/NC{systemdict begin initclip end}def/C{NC box clip newpath}def
/bl {box s} def /bf {box f} def /Y { 0 exch d} def /X { 0 d} def 
/mp {newpath /y exch def /x exch def} def
/side {[w .77 mul w .23 mul] .385 w mul sd w 0 l currentpoint t -144 r} def
/mr {mp x y w2 0 360 arc} def /m24 {mr s} def /m20 {mr f} def
/mb {mp x y w2 add m w2 neg 0 d 0 w neg d w 0 d 0 w d cl} def
/mt {mp x y w2 add m w2 neg w neg d w 0 d cl} def
/m21 {mb f} def /m25 {mb s} def /m22 {mt f} def /m26 {mt s} def
/m23 {mp x y w2 sub m w2 w d w neg 0 d cl f} def
/m27 {mp x y w2 add m w3 neg w2 neg d w3 w2 neg d w3  w2 d cl s} def
/m28 {mp x w2 sub y w2 sub w3 add m w3 0 d 0 w3 neg d w3 0 d 0 w3 d w3 0 d
 0 w3 d w3 neg 0 d 0 w3 d w3 neg 0 d
 0 w3 neg d w3 neg 0 d cl s } def
/m29 {mp gsave x w2 sub y w2 add w3 sub m currentpoint t
 4 {side} repeat cl fill gr} def
/m30 {mp gsave x w2 sub y w2 add w3 sub m currentpoint t
 5 {side} repeat s gr} def
/m31 {mp x y w2 sub m 0 w d x w2 sub y m w 0 d
 x w2 sub y w2 add m w w neg d x w2 sub y w2
 sub m w w d s} def
/m2 {mp x y w2 sub m 0 w d x w2 sub y m w 0 d s} def
/m5 {mp x w2 sub y w2 sub m w w d x w2 sub y w2 add m w w neg d s} def
/DP {/PT exch def gsave 47.2 47.2 scale PT 1 eq { 16 16 1 [ 16 0 0 16 neg 0 16
] { < AA AA 55 55 AA AA 55 55 AA AA 55 55 AA AA 55 55 AA AA 55 55 AA AA 55 55
AA AA 55 55 AA AA 55 55 > } image } if PT 2 eq { 16 16 1 [ 16 0 0 16 neg 0 16
] { < BB BB EE EE BB BB EE EE BB BB EE EE BB BB EE EE BB BB EE EE BB BB EE EE
BB BB EE EE BB BB EE EE > } image } if PT 3 eq { 16 16 1 [ 16 0 0 16 neg 0 16
] { < FF FF BB BB FF FF EE EE FF FF BB BB FF FF EE EE FF FF BB BB FF FF EE EE
FF FF BB BB FF FF EE EE > } image } if PT 4 eq { 16 16 1 [ 16 0 0 16 neg 0 16
] { < DF DF BF BF 7F 7F FE FE FD FD FB FB F7 F7 EF EF DF DF BF BF 7F 7F FE FE
FD FD FB FB F7 F7 EF EF > } image } if PT 5 eq { 16 16 1 [ 16 0 0 16 neg 0 16
] { < 7F 7F BF B F DF DF EF EF F7 F7 FB FB FD FD FE FE 7F 7F BF BF DF DF EF
EF F7 F7 FB FB FD FD FE FE > } image } if PT 6 eq { 16 16 1 [ 16 0 0 16 neg 0
16 ] { < BB BB BB BB BB BB BB BB BB BB BB BB BB BB BB BB BB BB BB BB BB BB BB
BB BB BB BB BB BB BB BB BB > } image } if PT 7 eq { 16 16 1 [ 16 0 0 16 neg 0
16 ] { < FF FF FF FF FF FF 00 00 FF FF FF FF FF FF 00 00 FF FF FF FF FF FF 00
00 FF FF FF FF FF FF 00 00 > } image } if PT 8 eq { 16 16 1 [ 16 0 0 16 neg 0
16 ] { < EE EE 47 47 83 83 C5 C5 EE EE 5C 5C 38 38 74 74 EE EE 47 47 83 83 C5
C5 EE EE 5C 5C 38 38 74 74 > } image } if PT 9 eq { 16 16 1 [ 16 0 0 16 neg 0
16 ] { < EF EF EF EF D7 D7 38 38 FE FE FE FE 7D 7D 83 83 EF EF EF EF D7 D7 38
38 FE FE FE FE 7D 7D 83 83 > } image } if PT 10 eq { 16 16 1 [ 16 0 0 16 neg
0 16 ] { < EF EF EF EF EF EF 00 00 FE FE FE FE FE FE 00 00 EF EF EF EF EF EF
00 00 FE FE FE FE FE FE 00 00 > } image } if PT 11 eq { 16 16 1 [ 16 0 0 16
neg 0 16 ] { < F7 F7 B6 B6 D5 D5 E3 E3 D5 D5 B6 B6 F7 F7 FF FF 7F 7F 6B 6B 5D
5D 3E 3E 5D 5D 6B 6B 7F 7F FF FF > } image } if PT 12 eq { 16 16 1 [ 16 0 0
16 neg 0 16 ] { < E3 E3 DD DD BE BE BE BE BE BE DD DD E3 E3 FF FF 3E 3E DD DD
EB EB EB EB EB EB DD DD 3E 3E FF FF > } image } if PT 13 eq { 16 16 1 [ 16 0
0 16 neg 0 16 ] { < FE FE 7D 7D BB BB D7 D7 EF EF D7 D7 BB BB 7D 7D FE FE 7D
7D BB BB D7 D7 EF EF D7 D7 BB BB 7D 7D > } image } if PT 14 eq { 16 16 1 [ 16
0 0 16 neg 0 16 ] { < 00 00 EE EF EE EF EE EF 0E E0 EE EE EE EE EE EE 00 EE
FE EE FE EE FE EE 00 00 FE EF FE EF FE EF > } image } if PT 15 eq { 16 16 1 [
16 0 0 16 neg 0 16 ] { < DD DD AA AA DD DD FF FF 77 77 AA AA 77 77 FF FF DD
DD AA AA DD DD FF FF 77 77 AA AA 77 77 FF FF > } image } if PT 16 eq { 16 16
1 [ 16 0 0 16 neg 0 16 ] { < F1 F1 EE EE 1F 1F FF FF F1 F1 EE EE 1F 1F FF FF
F1 F1 EE EE 1F 1F FF FF F1 F1 EE EE 1F 1F FF FF > } image } if PT 17 eq { 16
16 1 [ 16 0 0 16 neg 0 16 ] { < EE EE DD DD BB BB FF FF EE EE DD DD BB BB FF
FF EE EE DD DD BB BB FF FF EE EE DD DD BB BB FF FF > } image } if PT 18 eq {
16 16 1 [ 16 0 0 16 neg 0 16 ] { < BB BB DD DD EE EE FF FF BB BB DD DD EE EE
FF FF BB BB DD DD EE EE FF FF BB BB DD DD EE EE FF FF > } image } if PT 19 eq
{ 16 16 1 [ 16 0 0 16 neg 0 16 ] { < 1F FC 67 F3 7B EF BD DE BD DE DE BD E6
B3 F8 0F E6 B3 DE BD BD DE BD DE 7B EF 67 F3 1F FC 7F FF > } image } if PT
20 eq { 16 16 1 [ 16 0 0 16 neg 0 16 ] { < DD DD EE EE EE EE EE EE DD DD BB
BB BB BB BB BB DD DD EE EE EE EE EE EE DD DD BB BB BB BB BB BB > } image }
if PT 21 eq { 16 16 1 [ 16 0 0 16 neg 0 16 ] { < 0E 0E EF EF EF EF EF EF E0
E0 FE FE FE FE FE FE 0E 0E EF EF EF EF EF EF E0 E0 FE FE FE FE FE FE > }
image } if PT 22 eq { 16 16 1 [ 16 0 0 16 neg 0 16 ] { < 70 70 F7 F7 F7 F7 F7
F7 07 07 7F 7F 7F 7F 7F 7F 70 70 F7 F7 F7 F7 F7 F7 07 07 7F 7F 7F 7F 7F 7F >
} image } if PT 23 eq { 16 16 1 [ 16 0 0 16 neg 0 16 ] { < AA AA 55 55 A9 A9
D1 D1 E1 E1 D1 D1 A9 A9 55 55 AA AA 55 55 A9 A9 D1 D1 E1 E1 D1 D1 A9 A9 55 55
> } image } if PT 24 eq { 16 16 1 [ 16 0 0 16 neg 0 16 ] { < FF FE FF FC EA
A8 D5 54 EA A8 D5 54 E8 28 D4 54 E8 E8 D4 D4 E8 EA 54 D5 A8 EA 54 D5 00 C0 00
80 > } image } if PT 25 eq { 16 16 1 [ 16 0 0 16 neg 0 16 ] { < FF FE FF FC
FF F8 FF F0 F0 00 F0 00 F0 20 F0 60 F0 E0 F1 E0 F3 E0 F0 00 E0 00 C0 00 80 00
00 00 > } image } if gr } def /FA { /PT exch def gsave clip 0 0 translate 1 1
54 { 1 sub 47.2 mul /Xcurr exch def 1 1 74 { 1 sub 47.2 mul /Ycurr exch def
gsave Xcurr Ycurr translate PT DP gr } for } for gr } def
/reencdict 24 dict def /ReEncode {reencdict begin /nco&na exch def
/nfnam exch def /basefontname exch def /basefontdict basefontname findfont def
/newfont basefontdict maxlength dict def basefontdict {exch dup /FID ne
{dup /Encoding eq {exch dup length array copy newfont 3 1 roll put} {exch
newfont 3 1 roll put} ifelse} {pop pop} ifelse } forall newfont
/FontName nfnam put nco&na aload pop nco&na length 2 idiv {newfont
/Encoding get 3 1 roll put} repeat nfnam newfont definefont pop end } def
/accvec [ 176 /agrave 181 /Agrave 190 /acircumflex 192 /Acircumflex
201 /adieresis 204 /Adieresis 209 /ccedilla 210 /Ccedilla 211 /eacute
212 /Eacute 213 /egrave 214 /Egrave 215 /ecircumflex 216 /Ecircumflex
217 /edieresis 218 /Edieresis 219 /icircumflex 220 /Icircumflex
221 /idieresis 222 /Idieresis 223 /ntilde 224 /Ntilde 226 /ocircumflex
228 /Ocircumflex 229 /odieresis 230 /Odieresis 231 /ucircumflex 236 /Ucircumflex
237 /udieresis 238 /Udieresis 239 /aring 242 /Aring 243 /ydieresis
244 /Ydieresis 246 /aacute 247 /Aacute 252 /ugrave 253 /Ugrave] def
/Times-Roman /Times-Roman accvec ReEncode
/Times-Italic /Times-Italic accvec ReEncode
/Times-Bold /Times-Bold accvec ReEncode
/Times-BoldItalic /Times-BoldItalic accvec ReEncode
/Helvetica /Helvetica accvec ReEncode
/Helvetica-Oblique /Helvetica-Oblique accvec ReEncode
/Helvetica-Bold /Helvetica-Bold accvec ReEncode
/Helvetica-BoldOblique /Helvetica-BoldOblique  accvec ReEncode
/Courier /Courier accvec ReEncode
/Courier-Oblique /Courier-Oblique accvec ReEncode
/Courier-Bold /Courier-Bold accvec ReEncode
/Courier-BoldOblique /Courier-BoldOblique accvec ReEncode
/oshow {gsave [] 0 sd true charpath stroke gr} def
/stwn { /fs exch def /fn exch def /text exch def fn findfont fs sf
 text sw pop xs add /xs exch def} def
/stwb { /fs exch def /fn exch def /nbas exch def /textf exch def
textf length /tlen exch def nbas tlen gt {/nbas tlen def} if
fn findfont fs sf textf dup length nbas sub nbas getinterval sw
pop neg xs add /xs exch def} def
/accspe [ 65 /plusminus 66 /bar 67 /existential 68 /universal
69 /exclam 70 /numbersign 71 /greater 72 /question 73 /integral
74 /colon 75 /semicolon 76 /less 77 /bracketleft 78 /bracketright
79 /greaterequal 80 /braceleft 81 /braceright 82 /radical
83 /spade 84 /heart 85 /diamond 86 /club 87 /lessequal
88 /multiply 89 /percent 90 /infinity 48 /circlemultiply 49 /circleplus
50 /emptyset 51 /lozenge 52 /bullet 53 /arrowright 54 /arrowup
55 /arrowleft 56 /arrowdown 57 /arrowboth 48 /degree 44 /comma 43 /plus
 45 /angle 42 /angleleft 47 /divide 61 /notequal 40 /equivalence 41 /second
 97 /approxequal 98 /congruent 99 /perpendicular 100 /partialdiff 101 /florin
 102 /intersection 103 /union 104 /propersuperset 105 /reflexsuperset
 106 /notsubset 107 /propersubset 108 /reflexsubset 109 /element 110 /notelement
 111 /gradient 112 /logicaland 113 /logicalor 114 /arrowdblboth
 115 /arrowdblleft 116 /arrowdblup 117 /arrowdblright 118 /arrowdbldown
 119 /ampersand 120 /omega1 121 /similar 122 /aleph ] def
/Symbol /Special accspe ReEncode
gsave .25 .25 scale 
%%EndProlog
 gsave 0 0 t black [] 0 sd 1 lw 5 lw 0 0 1 c 794 794 227 1247 bl 794 794 227
 1247 C 1 lw 1 0 0 c /w 51 def /w2 {w 2 div} def /w3 {w 3 div} def 406 1627 975
 1638 617 1661 320 1721 320 1720 227 1921 6 { m20} R NC 0 0 1 c 227 1247 m 794 Y
 s 284 1247 m -57 X s [4 8] 0 sd 1021 1247 m -794 X s [] 0 sd 284 1361 m -57 X s
 [4 8] 0 sd 1021 1361 m -794 X s [] 0 sd 284 1474 m -57 X s [4 8] 0 sd 1021 1474
 m -794 X s [] 0 sd 284 1588 m -57 X s [4 8] 0 sd 1021 1588 m -794 X s [] 0 sd
 284 1701 m -57 X s [4 8] 0 sd 1021 1701 m -794 X s [] 0 sd 284 1814 m -57 X s
 [4 8] 0 sd 1021 1814 m -794 X s [] 0 sd 284 1928 m -57 X s [4 8] 0 sd 1021 1928
 m -794 X s [] 0 sd 284 2041 m -57 X s [4 8] 0 sd 1021 2041 m -794 X s [] 0 sd
 149 1262 m -4 -2 d -3 -4 d -1 -7 d -4 Y 1 -6 d 3 -4 d 4 -2 d 2 X 5 2 d 2 4 d 2
 6 d 4 Y -2 7 d -2 4 d -5 2 d -2 X cl s 148 1261 m -4 -2 d -3 -4 d -1 -6 d -4 Y
 1 -7 d 3 -4 d 4 -2 d 3 X 4 2 d 2 4 d 2 7 d 4 Y -2 6 d -2 4 d -4 2 d -3 X cl s
 150 1262 m -4 -1 d -3 -4 d -1 -7 d -4 Y 1 -7 d 3 -4 d 4 -1 d 2 X 4 1 d 3 4 d 1
 7 d 4 Y -1 7 d -3 4 d -4 1 d -2 X cl s 147 1260 m -4 -1 d -3 -5 d -1 -6 d -4 Y
 1 -7 d 3 -4 d 4 -1 d 3 X 4 1 d 3 4 d 1 7 d 4 Y -1 6 d -3 5 d -4 1 d -3 X cl s
 150 1263 m -4 -1 d -2 -4 d -2 -7 d -4 Y 2 -7 d 2 -4 d 4 -1 d 3 X 4 1 d 3 4 d 1
 7 d 4 Y -1 7 d -3 4 d -4 1 d -3 X cl s 170 1236 m -1 -1 d 1 -2 d 2 2 d -2 1 d
 cl s 170 1235 m -2 -1 d 2 -2 d 1 2 d -1 1 d cl s 171 1237 m -1 -2 d 1 -1 d 2 1
 d -2 2 d cl s 169 1234 m -2 -1 d 2 -1 d 1 1 d -1 1 d cl s 172 1238 m -1 -2 d 1
 -1 d 1 1 d -1 2 d cl s 195 1262 m -14 -19 d 20 X s 194 1261 m -14 -19 d 21 X s
 196 1262 m -14 -18 d 20 X s 193 1260 m -14 -19 d 21 X s 196 1263 m -13 -19 d 20
 X s 195 1262 m -29 Y s 194 1261 m -29 Y s 196 1262 m -28 Y s 193 1260 m -28 Y s
 196 1263 m -28 Y s 149 1375 m -4 -1 d -3 -4 d -1 -7 d -4 Y 1 -7 d 3 -4 d 4 -1 d
 2 X 5 1 d 2 4 d 2 7 d 4 Y -2 7 d -2 4 d -5 1 d -2 X cl s 148 1374 m -4 -1 d -3
 -4 d -1 -7 d -4 Y 1 -7 d 3 -4 d 4 -1 d 3 X 4 1 d 2 4 d 2 7 d 4 Y -2 7 d -2 4 d
 -4 1 d -3 X cl s 150 1376 m -4 -2 d -3 -4 d -1 -6 d -4 Y 1 -7 d 3 -4 d 4 -2 d 2
 X 4 2 d 3 4 d 1 7 d 4 Y -1 6 d -3 4 d -4 2 d -2 X cl s 147 1373 m -4 -1 d -3 -4
 d -1 -7 d -4 Y 1 -7 d 3 -4 d 4 -1 d 3 X 4 1 d 3 4 d 1 7 d 4 Y -1 7 d -3 4 d -4
 1 d -3 X cl s 150 1377 m -4 -2 d -2 -4 d -2 -6 d -5 Y 2 -6 d 2 -4 d 4 -2 d 3 X
 4 2 d 3 4 d 1 6 d 5 Y -1 6 d -3 4 d -4 2 d -3 X cl s 170 1349 m -1 -1 d 1 -1 d
 2 1 d -2 1 d cl s 170 1348 m -2 -1 d 2 -1 d 1 1 d -1 1 d cl s 171 1350 m -1 -1
 d 1 -2 d 2 2 d -2 1 d cl s 169 1348 m -2 -2 d 2 -1 d 1 1 d -1 2 d cl s 172 1351
 m -1 -1 d 1 -2 d 1 2 d -1 1 d cl s 197 1375 m -13 X -1 -12 d 1 1 d 4 2 d 4 X 4
 -2 d 3 -3 d 1 -4 d -2 Y -1 -4 d -3 -3 d -4 -1 d -4 X -4 1 d -1 1 d -2 3 d s 197
 1374 m -14 X -1 -12 d 1 1 d 4 2 d 4 X 4 -2 d 3 -2 d 1 -4 d -3 Y -1 -4 d -3 -3 d
 -4 -1 d -4 X -4 1 d -1 1 d -2 3 d s 198 1376 m -13 X -2 -12 d 2 1 d 4 1 d 4 X 4
 -1 d 3 -3 d 1 -4 d -2 Y -1 -4 d -3 -3 d -4 -2 d -4 X -4 2 d -2 1 d -1 3 d s 196
 1373 m -14 X -1 -12 d 1 1 d 4 2 d 4 X 4 -2 d 3 -2 d 1 -4 d -3 Y -1 -4 d -3 -3 d
 -4 -1 d -4 X -4 1 d -1 2 d -2 2 d s 199 1377 m -13 X -2 -12 d 2 1 d 4 1 d 4 X 4
 -1 d 2 -3 d 2 -4 d -3 Y -2 -4 d -2 -2 d -4 -2 d -4 X -4 2 d -2 1 d -1 3 d s 149
 1488 m -4 -1 d -3 -4 d -1 -7 d -4 Y 1 -7 d 3 -4 d 4 -1 d 2 X 5 1 d 2 4 d 2 7 d
 4 Y -2 7 d -2 4 d -5 1 d -2 X cl s 148 1488 m -4 -2 d -3 -4 d -1 -7 d -4 Y 1 -6
 d 3 -4 d 4 -2 d 3 X 4 2 d 2 4 d 2 6 d 4 Y -2 7 d -2 4 d -4 2 d -3 X cl s 150
 1489 m -4 -1 d -3 -4 d -1 -7 d -4 Y 1 -7 d 3 -4 d 4 -1 d 2 X 4 1 d 3 4 d 1 7 d
 4 Y -1 7 d -3 4 d -4 1 d -2 X cl s 147 1487 m -4 -2 d -3 -4 d -1 -6 d -5 Y 1 -6
 d 3 -4 d 4 -2 d 3 X 4 2 d 3 4 d 1 6 d 5 Y -1 6 d -3 4 d -4 2 d -3 X cl s 150
 1490 m -4 -1 d -2 -4 d -2 -7 d -4 Y 2 -7 d 2 -4 d 4 -1 d 3 X 4 1 d 3 4 d 1 7 d
 4 Y -1 7 d -3 4 d -4 1 d -3 X cl s 170 1463 m -1 -2 d 1 -1 d 2 1 d -2 2 d cl s
 170 1462 m -2 -1 d 2 -2 d 1 2 d -1 1 d cl s 171 1464 m -1 -2 d 1 -1 d 2 1 d -2
 2 d cl s 169 1461 m -2 -1 d 2 -2 d 1 2 d -1 1 d cl s 172 1464 m -1 -1 d 1 -1 d
 1 1 d -1 1 d cl s 199 1484 m -2 3 d -4 1 d -2 X -4 -1 d -3 -4 d -1 -7 d -7 Y 1
 -5 d 3 -3 d 4 -1 d 1 X 4 1 d 3 3 d 1 4 d 1 Y -1 5 d -3 2 d -4 2 d -1 X -4 -2 d
 -3 -2 d -1 -5 d s 198 1483 m -1 3 d -5 2 d -2 X -4 -2 d -3 -4 d -1 -7 d -6 Y 1
 -6 d 3 -2 d 4 -2 d 1 X 4 2 d 3 2 d 1 4 d 2 Y -1 4 d -3 2 d -4 2 d -1 X -4 -2 d
 -3 -2 d -1 -4 d s 200 1485 m -2 3 d -4 1 d -3 X -4 -1 d -2 -4 d -2 -7 d -7 Y 2
 -5 d 2 -3 d 4 -1 d 2 X 4 1 d 3 3 d 1 4 d 1 Y -1 4 d -3 3 d -4 1 d -2 X -4 -1 d
 -2 -3 d -2 -4 d s 197 1483 m -1 2 d -4 2 d -3 X -4 -2 d -3 -4 d -1 -6 d -7 Y 1
 -6 d 3 -2 d 4 -2 d 1 X 4 2 d 3 2 d 1 4 d 2 Y -1 4 d -3 3 d -4 1 d -1 X -4 -1 d
 -3 -3 d -1 -4 d s 200 1486 m -1 3 d -4 1 d -3 X -4 -1 d -2 -4 d -2 -7 d -7 Y 2
 -5 d 2 -3 d 4 -1 d 2 X 4 1 d 2 3 d 2 4 d 1 Y -2 4 d -2 3 d -4 1 d -2 X -4 -1 d
 -2 -3 d -2 -4 d s 149 1602 m -4 -2 d -3 -4 d -1 -6 d -4 Y 1 -7 d 3 -4 d 4 -2 d
 2 X 5 2 d 2 4 d 2 7 d 4 Y -2 6 d -2 4 d -5 2 d -2 X cl s 148 1601 m -4 -1 d -3
 -4 d -1 -7 d -4 Y 1 -7 d 3 -4 d 4 -1 d 3 X 4 1 d 2 4 d 2 7 d 4 Y -2 7 d -2 4 d
 -4 1 d -3 X cl s 150 1603 m -4 -2 d -3 -4 d -1 -7 d -4 Y 1 -6 d 3 -4 d 4 -2 d 2
 X 4 2 d 3 4 d 1 6 d 4 Y -1 7 d -3 4 d -4 2 d -2 X cl s 147 1600 m -4 -1 d -3 -4
 d -1 -7 d -4 Y 1 -7 d 3 -4 d 4 -1 d 3 X 4 1 d 3 4 d 1 7 d 4 Y -1 7 d -3 4 d -4
 1 d -3 X cl s 150 1603 m -4 -1 d -2 -4 d -2 -7 d -4 Y 2 -6 d 2 -5 d 4 -1 d 3 X
 4 1 d 3 5 d 1 6 d 4 Y -1 7 d -3 4 d -4 1 d -3 X cl s 170 1576 m -1 -1 d 1 -2 d
 2 2 d -2 1 d cl s 170 1575 m -2 -1 d 2 -1 d 1 1 d -1 1 d cl s 171 1577 m -1 -1
 d 1 -2 d 2 2 d -2 1 d cl s 169 1574 m -2 -1 d 2 -1 d 1 1 d -1 1 d cl s 172 1578
 m -1 -2 d 1 -1 d 1 1 d -1 2 d cl s 200 1602 m -13 -29 d s 199 1601 m -13 -28 d
 s 201 1603 m -14 -29 d s 198 1600 m -13 -28 d s 202 1603 m -14 -28 d s 181 1602
 m 19 X s 180 1601 m 19 X s 182 1603 m 19 X s 179 1600 m 19 X s 183 1603 m 19 X
 s 149 1715 m -4 -1 d -3 -4 d -1 -7 d -4 Y 1 -7 d 3 -4 d 4 -1 d 2 X 5 1 d 2 4 d
 2 7 d 4 Y -2 7 d -2 4 d -5 1 d -2 X cl s 148 1714 m -4 -1 d -3 -4 d -1 -7 d -4
 Y 1 -7 d 3 -4 d 4 -1 d 3 X 4 1 d 2 4 d 2 7 d 4 Y -2 7 d -2 4 d -4 1 d -3 X cl s
 150 1716 m -4 -1 d -3 -4 d -1 -7 d -4 Y 1 -7 d 3 -4 d 4 -1 d 2 X 4 1 d 3 4 d 1
 7 d 4 Y -1 7 d -3 4 d -4 1 d -2 X cl s 147 1713 m -4 -1 d -3 -4 d -1 -7 d -4 Y
 1 -6 d 3 -5 d 4 -1 d 3 X 4 1 d 3 5 d 1 6 d 4 Y -1 7 d -3 4 d -4 1 d -3 X cl s
 150 1717 m -4 -1 d -2 -5 d -2 -6 d -4 Y 2 -7 d 2 -4 d 4 -1 d 3 X 4 1 d 3 4 d 1
 7 d 4 Y -1 6 d -3 5 d -4 1 d -3 X cl s 170 1690 m -1 -2 d 1 -1 d 2 1 d -2 2 d
 cl s 170 1689 m -2 -2 d 2 -1 d 1 1 d -1 2 d cl s 171 1690 m -1 -1 d 1 -1 d 2 1
 d -2 1 d cl s 169 1688 m -2 -2 d 2 -1 d 1 1 d -1 2 d cl s 172 1691 m -1 -1 d 1
 -1 d 1 1 d -1 1 d cl s 188 1715 m -4 -1 d -1 -3 d -3 Y 1 -2 d 3 -2 d 5 -1 d 4
 -1 d 3 -3 d 1 -3 d -4 Y -1 -2 d -2 -2 d -4 -1 d -5 X -4 1 d -1 2 d -2 2 d 4 Y 2
 3 d 2 3 d 4 1 d 6 1 d 2 2 d 2 2 d 3 Y -2 3 d -4 1 d -5 X cl s 187 1714 m -4 -1
 d -1 -3 d -2 Y 1 -3 d 3 -1 d 5 -2 d 4 -1 d 3 -3 d 1 -3 d -4 Y -1 -2 d -1 -2 d
 -5 -1 d -5 X -4 1 d -1 2 d -2 2 d 4 Y 2 3 d 2 3 d 4 1 d 6 2 d 3 1 d 1 3 d 2 Y
 -1 3 d -5 1 d -5 X cl s 189 1716 m -4 -1 d -2 -3 d -3 Y 2 -2 d 2 -2 d 6 -1 d 4
 -1 d 3 -3 d 1 -3 d -4 Y -1 -3 d -2 -1 d -4 -1 d -5 X -4 1 d -2 1 d -1 3 d 4 Y 1
 3 d 3 3 d 4 1 d 6 1 d 2 2 d 2 2 d 3 Y -2 3 d -4 1 d -5 X cl s 186 1713 m -4 -1
 d -1 -3 d -2 Y 1 -3 d 3 -1 d 5 -2 d 4 -1 d 3 -3 d 1 -2 d -4 Y -1 -3 d -1 -2 d
 -4 -1 d -6 X -4 1 d -1 2 d -2 3 d 4 Y 2 2 d 3 3 d 4 1 d 5 2 d 3 1 d 1 3 d 2 Y
 -1 3 d -4 1 d -6 X cl s 190 1717 m -4 -1 d -2 -3 d -3 Y 2 -3 d 2 -1 d 6 -1 d 4
 -2 d 2 -2 d 2 -3 d -4 Y -2 -3 d -1 -1 d -4 -1 d -5 X -4 1 d -2 1 d -1 3 d 4 Y 1
 3 d 3 2 d 4 2 d 5 1 d 3 1 d 1 3 d 3 Y -1 3 d -4 1 d -5 X cl s 149 1829 m -4 -2
 d -3 -4 d -1 -7 d -4 Y 1 -6 d 3 -4 d 4 -2 d 2 X 5 2 d 2 4 d 2 6 d 4 Y -2 7 d -2
 4 d -5 2 d -2 X cl s 148 1828 m -4 -2 d -3 -4 d -1 -6 d -4 Y 1 -7 d 3 -4 d 4 -2
 d 3 X 4 2 d 2 4 d 2 7 d 4 Y -2 6 d -2 4 d -4 2 d -3 X cl s 150 1829 m -4 -1 d
 -3 -4 d -1 -7 d -4 Y 1 -7 d 3 -4 d 4 -1 d 2 X 4 1 d 3 4 d 1 7 d 4 Y -1 7 d -3 4
 d -4 1 d -2 X cl s 147 1827 m -4 -1 d -3 -5 d -1 -6 d -4 Y 1 -7 d 3 -4 d 4 -1 d
 3 X 4 1 d 3 4 d 1 7 d 4 Y -1 6 d -3 5 d -4 1 d -3 X cl s 150 1830 m -4 -1 d -2
 -4 d -2 -7 d -4 Y 2 -7 d 2 -4 d 4 -1 d 3 X 4 1 d 3 4 d 1 7 d 4 Y -1 7 d -3 4 d
 -4 1 d -3 X cl s 170 1803 m -1 -1 d 1 -2 d 2 2 d -2 1 d cl s 170 1802 m -2 -1 d
 2 -2 d 1 2 d -1 1 d cl s 171 1804 m -1 -2 d 1 -1 d 2 1 d -2 2 d cl s 169 1801 m
 -2 -1 d 2 -1 d 1 1 d -1 1 d cl s 172 1805 m -1 -2 d 1 -1 d 1 1 d -1 2 d cl s
 199 1819 m -2 -4 d -2 -3 d -4 -1 d -2 X -4 1 d -2 3 d -2 4 d 1 Y 2 5 d 2 2 d 4
 2 d 2 X 4 -2 d 2 -2 d 2 -6 d -7 Y -2 -6 d -2 -4 d -4 -2 d -3 X -4 2 d -1 2 d s
 198 1818 m -1 -4 d -3 -2 d -4 -2 d -2 X -4 2 d -2 2 d -2 4 d 2 Y 2 4 d 2 2 d 4
 2 d 2 X 4 -2 d 3 -2 d 1 -6 d -6 Y -1 -7 d -3 -4 d -4 -2 d -3 X -4 2 d -1 2 d s
 200 1820 m -2 -4 d -2 -3 d -5 -1 d -1 X -4 1 d -3 3 d -1 4 d 1 Y 1 4 d 3 3 d 4
 1 d 1 X 5 -1 d 2 -3 d 2 -5 d -7 Y -2 -7 d -2 -4 d -5 -1 d -2 X -4 1 d -2 3 d s
 197 1817 m -1 -4 d -3 -2 d -4 -2 d -1 X -4 2 d -3 2 d -2 4 d 2 Y 2 4 d 3 3 d 4
 1 d 1 X 4 -1 d 3 -3 d 1 -6 d -6 Y -1 -7 d -3 -4 d -4 -1 d -3 X -4 1 d -1 3 d s
 200 1821 m -1 -4 d -3 -3 d -4 -1 d -1 X -4 1 d -3 3 d -1 4 d 1 Y 1 4 d 3 3 d 4
 1 d 1 X 4 -1 d 3 -3 d 1 -5 d -7 Y -1 -7 d -3 -4 d -4 -1 d -2 X -4 1 d -2 3 d s
 145 1937 m 2 1 d 4 4 d -28 Y s 144 1936 m 3 1 d 4 4 d -28 Y s 146 1937 m 2 2 d
 4 4 d -29 Y s 143 1935 m 3 1 d 4 4 d -28 Y s 146 1938 m 3 2 d 4 4 d -29 Y s 170
 1916 m -1 -1 d 1 -1 d 2 1 d -2 1 d cl s 170 1915 m -2 -1 d 2 -1 d 1 1 d -1 1 d
 cl s 171 1917 m -1 -1 d 1 -2 d 2 2 d -2 1 d cl s 169 1915 m -2 -2 d 2 -1 d 1 1
 d -1 2 d cl s 172 1918 m -1 -1 d 1 -2 d 1 2 d -1 1 d cl s 189 1942 m -4 -1 d -2
 -4 d -2 -7 d -4 Y 2 -7 d 2 -4 d 4 -1 d 3 X 4 1 d 3 4 d 1 7 d 4 Y -1 7 d -3 4 d
 -4 1 d -3 X cl s 188 1941 m -4 -1 d -2 -4 d -2 -7 d -4 Y 2 -7 d 2 -4 d 4 -1 d 3
 X 4 1 d 3 4 d 1 7 d 4 Y -1 7 d -3 4 d -4 1 d -3 X cl s 190 1943 m -4 -2 d -3 -4
 d -1 -6 d -4 Y 1 -7 d 3 -4 d 4 -2 d 3 X 4 2 d 3 4 d 1 7 d 4 Y -1 6 d -3 4 d -4
 2 d -3 X cl s 188 1940 m -4 -1 d -3 -4 d -2 -7 d -4 Y 2 -7 d 3 -4 d 4 -1 d 2 X
 4 1 d 3 4 d 1 7 d 4 Y -1 7 d -3 4 d -4 1 d -2 X cl s 191 1944 m -4 -2 d -3 -4 d
 -1 -6 d -5 Y 1 -6 d 3 -4 d 4 -2 d 3 X 4 2 d 2 4 d 2 6 d 5 Y -2 6 d -2 4 d -4 2
 d -3 X cl s 227 1247 m 794 X s 227 1304 m -57 Y s [4 8] 0 sd 227 2041 m -794 Y
 s [] 0 sd 386 1304 m -57 Y s [4 8] 0 sd 386 2041 m -794 Y s [] 0 sd 544 1304 m
 -57 Y s [4 8] 0 sd 544 2041 m -794 Y s [] 0 sd 703 1304 m -57 Y s [4 8] 0 sd
 703 2041 m -794 Y s [] 0 sd 862 1304 m -57 Y s [4 8] 0 sd 862 2041 m -794 Y s
 [] 0 sd 1021 1304 m -57 Y s [4 8] 0 sd 1021 2041 m -794 Y s [] 0 sd 225 1230 m
 -4 -1 d -2 -4 d -2 -7 d -4 Y 2 -7 d 2 -4 d 4 -1 d 3 X 4 1 d 3 4 d 1 7 d 4 Y -1
 7 d -3 4 d -4 1 d -3 X cl s 225 1230 m -4 -2 d -3 -4 d -2 -7 d -4 Y 2 -6 d 3 -4
 d 4 -2 d 2 X 4 2 d 3 4 d 1 6 d 4 Y -1 7 d -3 4 d -4 2 d -2 X cl s 226 1231 m -4
 -1 d -2 -4 d -2 -7 d -4 Y 2 -7 d 2 -4 d 4 -1 d 3 X 4 1 d 3 4 d 1 7 d 4 Y -1 7 d
 -3 4 d -4 1 d -3 X cl s 224 1229 m -4 -2 d -3 -4 d -1 -6 d -5 Y 1 -6 d 3 -4 d 4
 -2 d 2 X 4 2 d 3 4 d 2 6 d 5 Y -2 6 d -3 4 d -4 2 d -2 X cl s 227 1232 m -4 -1
 d -3 -4 d -1 -7 d -4 Y 1 -7 d 3 -4 d 4 -1 d 3 X 4 1 d 3 4 d 1 7 d 4 Y -1 7 d -3
 4 d -4 1 d -3 X cl s 364 1224 m 1 Y 1 3 d 2 1 d 2 1 d 6 X 2 -1 d 2 -1 d 1 -3 d
 -3 Y -1 -2 d -3 -4 d -13 -14 d 19 X s 363 1223 m 1 Y 1 3 d 2 1 d 3 2 d 5 X 3 -2
 d 1 -1 d 1 -3 d -3 Y -1 -2 d -3 -4 d -13 -14 d 19 X s 365 1224 m 2 Y 1 3 d 2 1
 d 2 1 d 6 X 2 -1 d 2 -1 d 1 -3 d -3 Y -1 -3 d -3 -4 d -14 -13 d 19 X s 362 1222
 m 1 Y 2 3 d 1 1 d 3 2 d 5 X 3 -2 d 1 -1 d 1 -3 d -2 Y -1 -3 d -3 -4 d -13 -14 d
 19 X s 366 1225 m 2 Y 1 2 d 1 2 d 3 1 d 5 X 3 -1 d 2 -2 d 1 -2 d -3 Y -1 -3 d
 -3 -4 d -14 -13 d 19 X s 398 1230 m -4 -1 d -3 -4 d -1 -7 d -4 Y 1 -7 d 3 -4 d
 4 -1 d 2 X 4 1 d 3 4 d 2 7 d 4 Y -2 7 d -3 4 d -4 1 d -2 X cl s 397 1230 m -4
 -2 d -3 -4 d -1 -7 d -4 Y 1 -6 d 3 -4 d 4 -2 d 3 X 4 2 d 2 4 d 2 6 d 4 Y -2 7 d
 -2 4 d -4 2 d -3 X cl s 399 1231 m -4 -1 d -3 -4 d -2 -7 d -4 Y 2 -7 d 3 -4 d 4
 -1 d 2 X 4 1 d 3 4 d 1 7 d 4 Y -1 7 d -3 4 d -4 1 d -2 X cl s 396 1229 m -4 -2
 d -3 -4 d -1 -6 d -5 Y 1 -6 d 3 -4 d 4 -2 d 3 X 4 2 d 2 4 d 2 6 d 5 Y -2 6 d -2
 4 d -4 2 d -3 X cl s 399 1232 m -4 -1 d -2 -4 d -2 -7 d -4 Y 2 -7 d 2 -4 d 4 -1
 d 3 X 4 1 d 3 4 d 1 7 d 4 Y -1 7 d -3 4 d -4 1 d -3 X cl s 535 1230 m -14 -19 d
 21 X s 534 1230 m -13 -19 d 20 X s 536 1231 m -14 -19 d 20 X s 533 1229 m -13
 -19 d 20 X s 537 1232 m -14 -19 d 20 X s 535 1230 m -28 Y s 534 1230 m -29 Y s
 536 1231 m -28 Y s 533 1229 m -29 Y s 537 1232 m -28 Y s 556 1230 m -4 -1 d -2
 -4 d -2 -7 d -4 Y 2 -7 d 2 -4 d 4 -1 d 3 X 4 1 d 3 4 d 1 7 d 4 Y -1 7 d -3 4 d
 -4 1 d -3 X cl s 556 1230 m -4 -2 d -3 -4 d -1 -7 d -4 Y 1 -6 d 3 -4 d 4 -2 d 2
 X 4 2 d 3 4 d 1 6 d 4 Y -1 7 d -3 4 d -4 2 d -2 X cl s 557 1231 m -4 -1 d -2 -4
 d -2 -7 d -4 Y 2 -7 d 2 -4 d 4 -1 d 3 X 4 1 d 3 4 d 1 7 d 4 Y -1 7 d -3 4 d -4
 1 d -3 X cl s 555 1229 m -4 -2 d -3 -4 d -1 -6 d -5 Y 1 -6 d 3 -4 d 4 -2 d 2 X
 5 2 d 2 4 d 2 6 d 5 Y -2 6 d -2 4 d -5 2 d -2 X cl s 558 1232 m -4 -1 d -3 -4 d
 -1 -7 d -4 Y 1 -7 d 3 -4 d 4 -1 d 3 X 4 1 d 3 4 d 1 7 d 4 Y -1 7 d -3 4 d -4 1
 d -3 X cl s 698 1226 m -2 3 d -4 1 d -2 X -4 -1 d -3 -4 d -2 -7 d -7 Y 2 -5 d 3
 -3 d 4 -1 d 1 X 4 1 d 3 3 d 1 4 d 1 Y -1 5 d -3 2 d -4 2 d -1 X -4 -2 d -3 -2 d
 -2 -5 d s 697 1225 m -2 3 d -4 2 d -2 X -4 -2 d -3 -4 d -1 -7 d -6 Y 1 -6 d 3
 -2 d 4 -2 d 1 X 4 2 d 3 2 d 1 4 d 2 Y -1 4 d -3 2 d -4 2 d -1 X -4 -2 d -3 -2 d
 -1 -4 d s 699 1227 m -2 3 d -4 1 d -3 X -4 -1 d -2 -4 d -2 -7 d -7 Y 2 -5 d 2
 -3 d 4 -1 d 2 X 4 1 d 3 3 d 1 4 d 1 Y -1 4 d -3 3 d -4 1 d -2 X -4 -1 d -2 -3 d
 -2 -4 d s 696 1225 m -1 2 d -4 2 d -3 X -4 -2 d -3 -4 d -1 -6 d -7 Y 1 -6 d 3
 -2 d 4 -2 d 1 X 4 2 d 3 2 d 1 4 d 2 Y -1 4 d -3 3 d -4 1 d -1 X -4 -1 d -3 -3 d
 -1 -4 d s 699 1228 m -1 3 d -4 1 d -3 X -4 -1 d -2 -4 d -2 -7 d -7 Y 2 -5 d 2
 -3 d 4 -1 d 2 X 4 1 d 2 3 d 2 4 d 1 Y -2 4 d -2 3 d -4 1 d -2 X -4 -1 d -2 -3 d
 -2 -4 d s 715 1230 m -4 -1 d -3 -4 d -1 -7 d -4 Y 1 -7 d 3 -4 d 4 -1 d 3 X 4 1
 d 3 4 d 1 7 d 4 Y -1 7 d -3 4 d -4 1 d -3 X cl s 714 1230 m -4 -2 d -2 -4 d -2
 -7 d -4 Y 2 -6 d 2 -4 d 4 -2 d 3 X 4 2 d 3 4 d 1 6 d 4 Y -1 7 d -3 4 d -4 2 d
 -3 X cl s 716 1231 m -4 -1 d -3 -4 d -1 -7 d -4 Y 1 -7 d 3 -4 d 4 -1 d 3 X 4 1
 d 3 4 d 1 7 d 4 Y -1 7 d -3 4 d -4 1 d -3 X cl s 714 1229 m -5 -2 d -2 -4 d -2
 -6 d -5 Y 2 -6 d 2 -4 d 5 -2 d 2 X 4 2 d 3 4 d 1 6 d 5 Y -1 6 d -3 4 d -4 2 d
 -2 X cl s 717 1232 m -4 -1 d -3 -4 d -1 -7 d -4 Y 1 -7 d 3 -4 d 4 -1 d 3 X 4 1
 d 2 4 d 2 7 d 4 Y -2 7 d -2 4 d -4 1 d -3 X cl s 846 1230 m -4 -1 d -2 -3 d -2
 Y 2 -3 d 2 -1 d 6 -2 d 4 -1 d 2 -3 d 2 -3 d -4 Y -2 -2 d -1 -2 d -4 -1 d -5 X
 -4 1 d -2 2 d -1 2 d 4 Y 1 3 d 3 3 d 4 1 d 5 2 d 3 1 d 1 3 d 2 Y -1 3 d -4 1 d
 -5 X cl s 845 1230 m -4 -2 d -2 -3 d -2 Y 2 -3 d 2 -1 d 6 -2 d 4 -1 d 3 -3 d 1
 -2 d -4 Y -1 -3 d -2 -1 d -4 -2 d -5 X -4 2 d -2 1 d -1 3 d 4 Y 1 2 d 3 3 d 4 1
 d 6 2 d 2 1 d 2 3 d 2 Y -2 3 d -4 2 d -5 X cl s 846 1231 m -4 -1 d -1 -3 d -3 Y
 1 -2 d 3 -2 d 6 -1 d 4 -1 d 2 -3 d 2 -3 d -4 Y -2 -2 d -1 -2 d -4 -1 d -6 X -4
 1 d -1 2 d -1 2 d 4 Y 1 3 d 3 3 d 4 1 d 5 1 d 3 2 d 1 2 d 3 Y -1 3 d -4 1 d -6
 X cl s 844 1229 m -4 -2 d -1 -2 d -3 Y 1 -3 d 3 -1 d 5 -1 d 4 -2 d 3 -3 d 1 -2
 d -4 Y -1 -3 d -2 -1 d -4 -2 d -5 X -4 2 d -1 1 d -2 3 d 4 Y 2 2 d 2 3 d 4 2 d
 6 1 d 2 1 d 2 3 d 3 Y -2 2 d -4 2 d -5 X cl s 847 1232 m -4 -1 d -1 -3 d -3 Y 1
 -2 d 3 -2 d 5 -1 d 4 -1 d 3 -3 d 1 -3 d -4 Y -1 -3 d -1 -1 d -4 -1 d -6 X -4 1
 d -1 1 d -1 3 d 4 Y 1 3 d 3 3 d 4 1 d 5 1 d 3 2 d 1 2 d 3 Y -1 3 d -4 1 d -6 X
 cl s 874 1230 m -4 -1 d -3 -4 d -1 -7 d -4 Y 1 -7 d 3 -4 d 4 -1 d 3 X 4 1 d 2 4
 d 2 7 d 4 Y -2 7 d -2 4 d -4 1 d -3 X cl s 873 1230 m -4 -2 d -3 -4 d -1 -7 d
 -4 Y 1 -6 d 3 -4 d 4 -2 d 3 X 4 2 d 3 4 d 1 6 d 4 Y -1 7 d -3 4 d -4 2 d -3 X
 cl s 875 1231 m -4 -1 d -3 -4 d -1 -7 d -4 Y 1 -7 d 3 -4 d 4 -1 d 3 X 4 1 d 2 4
 d 2 7 d 4 Y -2 7 d -2 4 d -4 1 d -3 X cl s 872 1229 m -4 -2 d -2 -4 d -2 -6 d
 -5 Y 2 -6 d 2 -4 d 4 -2 d 3 X 4 2 d 3 4 d 1 6 d 5 Y -1 6 d -3 4 d -4 2 d -3 X
 cl s 876 1232 m -4 -1 d -3 -4 d -1 -7 d -4 Y 1 -7 d 3 -4 d 4 -1 d 2 X 4 1 d 3 4
 d 1 7 d 4 Y -1 7 d -3 4 d -4 1 d -2 X cl s 1015 1221 m -1 -4 d -3 -3 d -4 -1 d
 -1 X -4 1 d -3 3 d -1 4 d 1 Y 1 4 d 3 3 d 4 1 d 1 X 4 -1 d 3 -3 d 1 -5 d -7 Y
 -1 -7 d -3 -4 d -4 -1 d -3 X -4 1 d -1 3 d s 1014 1220 m -1 -4 d -3 -3 d -4 -1
 d -1 X -4 1 d -3 3 d -1 4 d 1 Y 1 4 d 3 3 d 4 2 d 1 X 4 -2 d 3 -3 d 1 -5 d -7 Y
 -1 -6 d -3 -4 d -4 -2 d -2 X -5 2 d -1 2 d s 1016 1222 m -1 -4 d -3 -3 d -4 -1
 d -1 X -4 1 d -3 3 d -1 4 d 1 Y 1 4 d 3 3 d 4 1 d 1 X 4 -1 d 3 -3 d 1 -5 d -7 Y
 -1 -7 d -3 -4 d -4 -1 d -3 X -4 1 d -1 3 d s 1013 1219 m -1 -4 d -3 -3 d -4 -1
 d -1 X -4 1 d -3 3 d -1 4 d 2 Y 1 4 d 3 2 d 4 2 d 1 X 4 -2 d 3 -2 d 1 -6 d -7 Y
 -1 -6 d -3 -4 d -4 -2 d -2 X -4 2 d -2 2 d s 1017 1223 m -1 -4 d -3 -3 d -4 -1
 d -2 X -4 1 d -2 3 d -2 4 d 1 Y 2 4 d 2 3 d 4 1 d 2 X 4 -1 d 3 -3 d 1 -5 d -7 Y
 -1 -7 d -3 -4 d -4 -1 d -3 X -4 1 d -1 3 d s 1033 1230 m -4 -1 d -3 -4 d -1 -7
 d -4 Y 1 -7 d 3 -4 d 4 -1 d 2 X 5 1 d 2 4 d 2 7 d 4 Y -2 7 d -2 4 d -5 1 d -2 X
 cl s 1032 1230 m -4 -2 d -3 -4 d -1 -7 d -4 Y 1 -6 d 3 -4 d 4 -2 d 3 X 4 2 d 2
 4 d 2 6 d 4 Y -2 7 d -2 4 d -4 2 d -3 X cl s 1034 1231 m -4 -1 d -3 -4 d -1 -7
 d -4 Y 1 -7 d 3 -4 d 4 -1 d 2 X 4 1 d 3 4 d 1 7 d 4 Y -1 7 d -3 4 d -4 1 d -2 X
 cl s 1031 1229 m -4 -2 d -3 -4 d -1 -6 d -5 Y 1 -6 d 3 -4 d 4 -2 d 3 X 4 2 d 2
 4 d 2 6 d 5 Y -2 6 d -2 4 d -4 2 d -3 X cl s 1034 1232 m -4 -1 d -2 -4 d -2 -7
 d -4 Y 2 -7 d 2 -4 d 4 -1 d 3 X 4 1 d 3 4 d 1 7 d 4 Y -1 7 d -3 4 d -4 1 d -3 X
 cl s 794 794 227 1247 C 2268 2268 0 0 C black 534 1100 m -45 Y s 533 1099 m -46
 Y s 535 1101 m -45 Y s 531 1097 m -45 Y s 537 1103 m -46 Y s 534 1055 m 26 X s
 533 1053 m 26 X s 535 1056 m 26 X s 531 1052 m 26 X s 537 1057 m 26 X s 571
 1100 m -45 Y s 569 1099 m -46 Y s 572 1101 m -45 Y s 568 1097 m -45 Y s 574
 1103 m -46 Y s 571 1100 m 19 X 7 -2 d 2 -2 d 2 -5 d -4 Y -2 -4 d -2 -2 d -7 -3
 d s 569 1099 m 20 X 6 -3 d 2 -2 d 3 -4 d -4 Y -3 -5 d -2 -2 d -6 -2 d s 572
 1101 m 20 X 6 -2 d 2 -2 d 2 -4 d -5 Y -2 -4 d -2 -2 d -6 -2 d s 568 1097 m 19 X
 7 -2 d 2 -2 d 2 -4 d -5 Y -2 -4 d -2 -2 d -7 -2 d s 574 1103 m 19 X 6 -2 d 3 -3
 d 2 -4 d -4 Y -2 -5 d -3 -2 d -6 -2 d s 571 1078 m 19 X 7 -2 d 2 -2 d 2 -4 d -7
 Y -2 -4 d -2 -2 d -7 -2 d -19 X s 569 1077 m 20 X 6 -2 d 2 -2 d 3 -5 d -6 Y -3
 -4 d -2 -3 d -6 -2 d -20 X s 572 1080 m 20 X 6 -2 d 2 -3 d 2 -4 d -6 Y -2 -5 d
 -2 -2 d -6 -2 d -20 X s 568 1076 m 19 X 7 -3 d 2 -2 d 2 -4 d -6 Y -2 -5 d -2 -2
 d -7 -2 d -19 X s 574 1081 m 19 X 6 -2 d 3 -2 d 2 -5 d -6 Y -2 -4 d -3 -2 d -6
 -3 d -19 X s 646 1089 m -2 5 d -4 4 d -4 2 d -9 X -4 -2 d -5 -4 d -2 -5 d -2 -6
 d -11 Y 2 -7 d 2 -4 d 5 -4 d 4 -2 d 9 X 4 2 d 4 4 d 2 4 d 7 Y s 645 1088 m -2 4
 d -4 4 d -5 3 d -8 X -5 -3 d -4 -4 d -2 -4 d -2 -7 d -10 Y 2 -7 d 2 -4 d 4 -5 d
 5 -2 d 8 X 5 2 d 4 5 d 2 4 d 7 Y s 648 1091 m -2 4 d -5 4 d -4 2 d -9 X -4 -2 d
 -4 -4 d -2 -4 d -3 -7 d -11 Y 3 -6 d 2 -5 d 4 -4 d 4 -2 d 9 X 4 2 d 5 4 d 2 5 d
 6 Y s 644 1086 m -3 5 d -4 4 d -4 2 d -9 X -4 -2 d -4 -4 d -3 -5 d -2 -6 d -11
 Y 2 -6 d 3 -5 d 4 -4 d 4 -2 d 9 X 4 2 d 4 4 d 3 5 d 6 Y s 649 1092 m -2 4 d -4
 5 d -5 2 d -8 X -5 -2 d -4 -5 d -2 -4 d -2 -7 d -10 Y 2 -7 d 2 -4 d 4 -4 d 5 -3
 d 8 X 5 3 d 4 4 d 2 4 d 7 Y s 636 1072 m 10 X s 634 1071 m 11 X s 637 1073 m 11
 X s 633 1069 m 11 X s 638 1075 m 11 X s 672 1100 m -4 -2 d -4 -4 d -2 -5 d -3
 -6 d -11 Y 3 -7 d 2 -4 d 4 -4 d 4 -2 d 9 X 4 2 d 5 4 d 2 4 d 2 7 d 11 Y -2 6 d
 -2 5 d -5 4 d -4 2 d -9 X cl s 671 1099 m -4 -3 d -5 -4 d -2 -4 d -2 -7 d -10 Y
 2 -7 d 2 -4 d 5 -5 d 4 -2 d 9 X 4 2 d 4 5 d 2 4 d 3 7 d 10 Y -3 7 d -2 4 d -4 4
 d -4 3 d -9 X cl s 674 1101 m -5 -2 d -4 -4 d -2 -4 d -2 -7 d -11 Y 2 -6 d 2 -5
 d 4 -4 d 5 -2 d 8 X 5 2 d 4 4 d 2 5 d 2 6 d 11 Y -2 7 d -2 4 d -4 4 d -5 2 d -8
 X cl s 670 1097 m -5 -2 d -4 -4 d -2 -5 d -2 -6 d -11 Y 2 -6 d 2 -5 d 4 -4 d 5
 -2 d 8 X 5 2 d 4 4 d 2 5 d 2 6 d 11 Y -2 6 d -2 5 d -4 4 d -5 2 d -8 X cl s 675
 1103 m -4 -2 d -5 -5 d -2 -4 d -2 -7 d -10 Y 2 -7 d 2 -4 d 5 -4 d 4 -3 d 9 X 4
 3 d 4 4 d 2 4 d 3 7 d 10 Y -3 7 d -2 4 d -4 5 d -4 2 d -9 X cl s 707 1062 m 2 1
 d 3 3 d -23 Y s 705 1060 m 3 1 d 3 4 d -23 Y s 708 1063 m 2 1 d 4 3 d -22 Y s
 704 1059 m 2 1 d 4 3 d -22 Y s 710 1064 m 2 1 d 3 4 d -23 Y s 794 794 227 1247
 C 2268 2268 0 0 C
 /xs 0 def 
(M Rad)
 /Courier-Bold     68 stwn 
 gsave  1021 1123
 t   0 r  xs neg 0 t 0 0 m
 /Courier-Bold findfont   68 sf 0    0 m 
(M Rad)
 show 
 gr
 /xs 0 def 
(ratio)
 /Courier-Bold     68 stwn 
 gsave  79 2041
 t  90 r  xs neg 0 t 0 0 m
 /Courier-Bold findfont   68 sf 0    0 m 
(ratio)
 show 
 gr
 794 794 227 1247 C 2268 2268 0 0 C 794 794 227 1247 C 2268 2268 0 0 C 886 1936
 m -5 -4 d -4 -6 d -4 -9 d -3 -11 d -8 Y 3 -11 d 4 -9 d 4 -6 d 5 -5 d s 884 1935
 m -4 -4 d -4 -7 d -5 -8 d -2 -11 d -9 Y 2 -11 d 5 -8 d 4 -7 d 4 -4 d s 887 1938
 m -4 -5 d -5 -6 d -4 -9 d -2 -10 d -9 Y 2 -11 d 4 -9 d 5 -6 d 4 -4 d s 883 1934
 m -4 -5 d -5 -6 d -4 -9 d -2 -11 d -8 Y 2 -11 d 4 -9 d 5 -6 d 4 -4 d s 888 1939
 m -4 -4 d -4 -7 d -5 -8 d -2 -11 d -9 Y 2 -11 d 5 -8 d 4 -7 d 4 -4 d s 924 1913
 m -31 Y s 923 1911 m -30 Y s 926 1914 m -30 Y s 922 1910 m -30 Y s 927 1915 m
 -30 Y s 924 1906 m -4 5 d -4 2 d -7 X -4 -2 d -4 -5 d -2 -6 d -5 Y 2 -6 d 4 -4
 d 4 -3 d 7 X 4 3 d 4 4 d s 923 1905 m -4 4 d -5 2 d -6 X -4 -2 d -5 -4 d -2 -7
 d -4 Y 2 -6 d 5 -5 d 4 -2 d 6 X 5 2 d 4 5 d s 926 1908 m -4 4 d -5 2 d -6 X -5
 -2 d -4 -4 d -2 -7 d -4 Y 2 -7 d 4 -4 d 5 -2 d 6 X 5 2 d 4 4 d s 922 1903 m -5
 5 d -4 2 d -6 X -5 -2 d -4 -5 d -2 -6 d -4 Y 2 -7 d 4 -4 d 5 -2 d 6 X 4 2 d 5 4
 d s 927 1909 m -4 4 d -4 2 d -7 X -4 -2 d -5 -4 d -2 -7 d -4 Y 2 -6 d 5 -5 d 4
 -2 d 7 X 4 2 d 4 5 d s 940 1936 m 4 -4 d 4 -6 d 5 -9 d 2 -11 d -8 Y -2 -11 d -5
 -9 d -4 -6 d -4 -5 d s 938 1935 m 5 -4 d 4 -7 d 4 -8 d 2 -11 d -9 Y -2 -11 d -4
 -8 d -4 -7 d -5 -4 d s 941 1938 m 4 -5 d 5 -6 d 4 -9 d 2 -10 d -9 Y -2 -11 d -4
 -9 d -5 -6 d -4 -4 d s 937 1934 m 4 -5 d 5 -6 d 4 -9 d 2 -11 d -8 Y -2 -11 d -4
 -9 d -5 -6 d -4 -4 d s 942 1939 m 5 -4 d 4 -7 d 4 -8 d 2 -11 d -9 Y -2 -11 d -4
 -8 d -4 -7 d -5 -4 d s 794 794 227 1247 C NC 5 lw 0 0 1 c 794 794 1247 1247 bl
 794 794 1247 1247 C 1 lw 1 0 0 c 1427 1449 1637 1504 1996 1543 1340 1551 1340
 1557 1247 1923 6 { m20} R NC 0 0 1 c 1247 1247 m 794 Y s 1304 1247 m -57 X s
 [4 8] 0 sd 2041 1247 m -794 X s [] 0 sd 1304 1361 m -57 X s [4 8] 0 sd 2041
 1361 m -794 X s [] 0 sd 1304 1474 m -57 X s [4 8] 0 sd 2041 1474 m -794 X s
 [] 0 sd 1304 1588 m -57 X s [4 8] 0 sd 2041 1588 m -794 X s [] 0 sd 1304 1701 m
 -57 X s [4 8] 0 sd 2041 1701 m -794 X s [] 0 sd 1304 1814 m -57 X s [4 8] 0 sd
 2041 1814 m -794 X s [] 0 sd 1304 1928 m -57 X s [4 8] 0 sd 2041 1928 m -794 X
 s [] 0 sd 1304 2041 m -57 X s [4 8] 0 sd 2041 2041 m -794 X s [] 0 sd 1169 1262
 m -4 -2 d -2 -4 d -2 -7 d -4 Y 2 -6 d 2 -4 d 4 -2 d 3 X 4 2 d 3 4 d 1 6 d 4 Y
 -1 7 d -3 4 d -4 2 d -3 X cl s 1169 1261 m -5 -2 d -2 -4 d -2 -6 d -4 Y 2 -7 d
 2 -4 d 5 -2 d 2 X 4 2 d 3 4 d 1 7 d 4 Y -1 6 d -3 4 d -4 2 d -2 X cl s 1170
 1262 m -4 -1 d -3 -4 d -1 -7 d -4 Y 1 -7 d 3 -4 d 4 -1 d 3 X 4 1 d 3 4 d 1 7 d
 4 Y -1 7 d -3 4 d -4 1 d -3 X cl s 1168 1260 m -4 -1 d -3 -5 d -1 -6 d -4 Y 1
 -7 d 3 -4 d 4 -1 d 2 X 4 1 d 3 4 d 1 7 d 4 Y -1 6 d -3 5 d -4 1 d -2 X cl s
 1171 1263 m -4 -1 d -3 -4 d -1 -7 d -4 Y 1 -7 d 3 -4 d 4 -1 d 3 X 4 1 d 3 4 d 1
 7 d 4 Y -1 7 d -3 4 d -4 1 d -3 X cl s 1191 1236 m -1 -1 d 1 -2 d 1 2 d -1 1 d
 cl s 1190 1235 m -1 -1 d 1 -2 d 1 2 d -1 1 d cl s 1192 1237 m -2 -2 d 2 -1 d 1
 1 d -1 2 d cl s 1189 1234 m -1 -1 d 1 -1 d 2 1 d -2 1 d cl s 1193 1238 m -2 -2
 d 2 -1 d 1 1 d -1 2 d cl s 1215 1262 m -13 -19 d 20 X s 1214 1261 m -13 -19 d
 20 X s 1216 1262 m -13 -18 d 20 X s 1214 1260 m -14 -19 d 20 X s 1217 1263 m
 -14 -19 d 21 X s 1215 1262 m -29 Y s 1214 1261 m -29 Y s 1216 1262 m -28 Y s
 1214 1260 m -28 Y s 1217 1263 m -28 Y s 1169 1375 m -4 -1 d -2 -4 d -2 -7 d -4
 Y 2 -7 d 2 -4 d 4 -1 d 3 X 4 1 d 3 4 d 1 7 d 4 Y -1 7 d -3 4 d -4 1 d -3 X cl s
 1169 1374 m -5 -1 d -2 -4 d -2 -7 d -4 Y 2 -7 d 2 -4 d 5 -1 d 2 X 4 1 d 3 4 d 1
 7 d 4 Y -1 7 d -3 4 d -4 1 d -2 X cl s 1170 1376 m -4 -2 d -3 -4 d -1 -6 d -4 Y
 1 -7 d 3 -4 d 4 -2 d 3 X 4 2 d 3 4 d 1 7 d 4 Y -1 6 d -3 4 d -4 2 d -3 X cl s
 1168 1373 m -4 -1 d -3 -4 d -1 -7 d -4 Y 1 -7 d 3 -4 d 4 -1 d 2 X 4 1 d 3 4 d 1
 7 d 4 Y -1 7 d -3 4 d -4 1 d -2 X cl s 1171 1377 m -4 -2 d -3 -4 d -1 -6 d -5 Y
 1 -6 d 3 -4 d 4 -2 d 3 X 4 2 d 3 4 d 1 6 d 5 Y -1 6 d -3 4 d -4 2 d -3 X cl s
 1191 1349 m -1 -1 d 1 -1 d 1 1 d -1 1 d cl s 1190 1348 m -1 -1 d 1 -1 d 1 1 d
 -1 1 d cl s 1192 1350 m -2 -1 d 2 -2 d 1 2 d -1 1 d cl s 1189 1348 m -1 -2 d 1
 -1 d 2 1 d -2 2 d cl s 1193 1351 m -2 -1 d 2 -2 d 1 2 d -1 1 d cl s 1218 1375 m
 -14 X -1 -12 d 1 1 d 5 2 d 4 X 4 -2 d 2 -3 d 2 -4 d -2 Y -2 -4 d -2 -3 d -4 -1
 d -4 X -5 1 d -1 1 d -1 3 d s 1217 1374 m -13 X -2 -12 d 2 1 d 4 2 d 4 X 4 -2 d
 2 -2 d 2 -4 d -3 Y -2 -4 d -2 -3 d -4 -1 d -4 X -4 1 d -2 1 d -1 3 d s 1219
 1376 m -14 X -1 -12 d 1 1 d 4 1 d 4 X 4 -1 d 3 -3 d 2 -4 d -2 Y -2 -4 d -3 -3 d
 -4 -2 d -4 X -4 2 d -1 1 d -1 3 d s 1216 1373 m -13 X -2 -12 d 2 1 d 4 2 d 4 X
 4 -2 d 3 -2 d 1 -4 d -3 Y -1 -4 d -3 -3 d -4 -1 d -4 X -4 1 d -2 2 d -1 2 d s
 1220 1377 m -14 X -1 -12 d 1 1 d 4 1 d 4 X 4 -1 d 3 -3 d 1 -4 d -3 Y -1 -4 d -3
 -2 d -4 -2 d -4 X -4 2 d -1 1 d -2 3 d s 1169 1488 m -4 -1 d -2 -4 d -2 -7 d -4
 Y 2 -7 d 2 -4 d 4 -1 d 3 X 4 1 d 3 4 d 1 7 d 4 Y -1 7 d -3 4 d -4 1 d -3 X cl s
 1169 1488 m -5 -2 d -2 -4 d -2 -7 d -4 Y 2 -6 d 2 -4 d 5 -2 d 2 X 4 2 d 3 4 d 1
 6 d 4 Y -1 7 d -3 4 d -4 2 d -2 X cl s 1170 1489 m -4 -1 d -3 -4 d -1 -7 d -4 Y
 1 -7 d 3 -4 d 4 -1 d 3 X 4 1 d 3 4 d 1 7 d 4 Y -1 7 d -3 4 d -4 1 d -3 X cl s
 1168 1487 m -4 -2 d -3 -4 d -1 -6 d -5 Y 1 -6 d 3 -4 d 4 -2 d 2 X 4 2 d 3 4 d 1
 6 d 5 Y -1 6 d -3 4 d -4 2 d -2 X cl s 1171 1490 m -4 -1 d -3 -4 d -1 -7 d -4 Y
 1 -7 d 3 -4 d 4 -1 d 3 X 4 1 d 3 4 d 1 7 d 4 Y -1 7 d -3 4 d -4 1 d -3 X cl s
 1191 1463 m -1 -2 d 1 -1 d 1 1 d -1 2 d cl s 1190 1462 m -1 -1 d 1 -2 d 1 2 d
 -1 1 d cl s 1192 1464 m -2 -2 d 2 -1 d 1 1 d -1 2 d cl s 1189 1461 m -1 -1 d 1
 -2 d 2 2 d -2 1 d cl s 1193 1464 m -2 -1 d 2 -1 d 1 1 d -1 1 d cl s 1219 1484 m
 -1 3 d -4 1 d -3 X -4 -1 d -3 -4 d -1 -7 d -7 Y 1 -5 d 3 -3 d 4 -1 d 2 X 4 1 d
 2 3 d 2 4 d 1 Y -2 5 d -2 2 d -4 2 d -2 X -4 -2 d -3 -2 d -1 -5 d s 1218 1483 m
 -1 3 d -4 2 d -3 X -4 -2 d -2 -4 d -2 -7 d -6 Y 2 -6 d 2 -2 d 4 -2 d 2 X 4 2 d
 2 2 d 2 4 d 2 Y -2 4 d -2 2 d -4 2 d -2 X -4 -2 d -2 -2 d -2 -4 d s 1220 1485 m
 -1 3 d -4 1 d -3 X -4 -1 d -3 -4 d -1 -7 d -7 Y 1 -5 d 3 -3 d 4 -1 d 1 X 4 1 d
 3 3 d 2 4 d 1 Y -2 4 d -3 3 d -4 1 d -1 X -4 -1 d -3 -3 d -1 -4 d s 1218 1483 m
 -2 2 d -4 2 d -2 X -5 -2 d -2 -4 d -2 -6 d -7 Y 2 -6 d 2 -2 d 5 -2 d 1 X 4 2 d
 3 2 d 1 4 d 2 Y -1 4 d -3 3 d -4 1 d -1 X -5 -1 d -2 -3 d -2 -4 d s 1221 1486 m
 -1 3 d -4 1 d -3 X -4 -1 d -3 -4 d -1 -7 d -7 Y 1 -5 d 3 -3 d 4 -1 d 1 X 4 1 d
 3 3 d 1 4 d 1 Y -1 4 d -3 3 d -4 1 d -1 X -4 -1 d -3 -3 d -1 -4 d s 1169 1602 m
 -4 -2 d -2 -4 d -2 -6 d -4 Y 2 -7 d 2 -4 d 4 -2 d 3 X 4 2 d 3 4 d 1 7 d 4 Y -1
 6 d -3 4 d -4 2 d -3 X cl s 1169 1601 m -5 -1 d -2 -4 d -2 -7 d -4 Y 2 -7 d 2
 -4 d 5 -1 d 2 X 4 1 d 3 4 d 1 7 d 4 Y -1 7 d -3 4 d -4 1 d -2 X cl s 1170 1603
 m -4 -2 d -3 -4 d -1 -7 d -4 Y 1 -6 d 3 -4 d 4 -2 d 3 X 4 2 d 3 4 d 1 6 d 4 Y
 -1 7 d -3 4 d -4 2 d -3 X cl s 1168 1600 m -4 -1 d -3 -4 d -1 -7 d -4 Y 1 -7 d
 3 -4 d 4 -1 d 2 X 4 1 d 3 4 d 1 7 d 4 Y -1 7 d -3 4 d -4 1 d -2 X cl s 1171
 1603 m -4 -1 d -3 -4 d -1 -7 d -4 Y 1 -6 d 3 -5 d 4 -1 d 3 X 4 1 d 3 5 d 1 6 d
 4 Y -1 7 d -3 4 d -4 1 d -3 X cl s 1191 1576 m -1 -1 d 1 -2 d 1 2 d -1 1 d cl s
 1190 1575 m -1 -1 d 1 -1 d 1 1 d -1 1 d cl s 1192 1577 m -2 -1 d 2 -2 d 1 2 d
 -1 1 d cl s 1189 1574 m -1 -1 d 1 -1 d 2 1 d -2 1 d cl s 1193 1578 m -2 -2 d 2
 -1 d 1 1 d -1 2 d cl s 1221 1602 m -14 -29 d s 1220 1601 m -14 -28 d s 1222
 1603 m -14 -29 d s 1219 1600 m -14 -28 d s 1222 1603 m -13 -28 d s 1202 1602 m
 19 X s 1201 1601 m 19 X s 1203 1603 m 19 X s 1200 1600 m 19 X s 1203 1603 m 19
 X s 1169 1715 m -4 -1 d -2 -4 d -2 -7 d -4 Y 2 -7 d 2 -4 d 4 -1 d 3 X 4 1 d 3 4
 d 1 7 d 4 Y -1 7 d -3 4 d -4 1 d -3 X cl s 1169 1714 m -5 -1 d -2 -4 d -2 -7 d
 -4 Y 2 -7 d 2 -4 d 5 -1 d 2 X 4 1 d 3 4 d 1 7 d 4 Y -1 7 d -3 4 d -4 1 d -2 X
 cl s 1170 1716 m -4 -1 d -3 -4 d -1 -7 d -4 Y 1 -7 d 3 -4 d 4 -1 d 3 X 4 1 d 3
 4 d 1 7 d 4 Y -1 7 d -3 4 d -4 1 d -3 X cl s 1168 1713 m -4 -1 d -3 -4 d -1 -7
 d -4 Y 1 -6 d 3 -5 d 4 -1 d 2 X 4 1 d 3 5 d 1 6 d 4 Y -1 7 d -3 4 d -4 1 d -2 X
 cl s 1171 1717 m -4 -1 d -3 -5 d -1 -6 d -4 Y 1 -7 d 3 -4 d 4 -1 d 3 X 4 1 d 3
 4 d 1 7 d 4 Y -1 6 d -3 5 d -4 1 d -3 X cl s 1191 1690 m -1 -2 d 1 -1 d 1 1 d
 -1 2 d cl s 1190 1689 m -1 -2 d 1 -1 d 1 1 d -1 2 d cl s 1192 1690 m -2 -1 d 2
 -1 d 1 1 d -1 1 d cl s 1189 1688 m -1 -2 d 1 -1 d 2 1 d -2 2 d cl s 1193 1691 m
 -2 -1 d 2 -1 d 1 1 d -1 1 d cl s 1209 1715 m -5 -1 d -1 -3 d -3 Y 1 -2 d 3 -2 d
 6 -1 d 4 -1 d 2 -3 d 2 -3 d -4 Y -2 -2 d -1 -2 d -4 -1 d -5 X -5 1 d -1 2 d -1
 2 d 4 Y 1 3 d 3 3 d 4 1 d 5 1 d 3 2 d 1 2 d 3 Y -1 3 d -4 1 d -5 X cl s 1208
 1714 m -4 -1 d -2 -3 d -2 Y 2 -3 d 2 -1 d 6 -2 d 4 -1 d 2 -3 d 2 -3 d -4 Y -2
 -2 d -1 -2 d -4 -1 d -5 X -4 1 d -2 2 d -1 2 d 4 Y 1 3 d 3 3 d 4 1 d 5 2 d 3 1
 d 1 3 d 2 Y -1 3 d -4 1 d -5 X cl s 1209 1716 m -4 -1 d -1 -3 d -3 Y 1 -2 d 3
 -2 d 5 -1 d 4 -1 d 3 -3 d 2 -3 d -4 Y -2 -3 d -1 -1 d -4 -1 d -6 X -4 1 d -1 1
 d -1 3 d 4 Y 1 3 d 3 3 d 4 1 d 5 1 d 3 2 d 1 2 d 3 Y -1 3 d -4 1 d -6 X cl s
 1207 1713 m -4 -1 d -2 -3 d -2 Y 2 -3 d 2 -1 d 6 -2 d 4 -1 d 3 -3 d 1 -2 d -4 Y
 -1 -3 d -2 -2 d -4 -1 d -5 X -4 1 d -2 2 d -1 3 d 4 Y 1 2 d 3 3 d 4 1 d 6 2 d 2
 1 d 2 3 d 2 Y -2 3 d -4 1 d -5 X cl s 1210 1717 m -4 -1 d -1 -3 d -3 Y 1 -3 d 3
 -1 d 5 -1 d 4 -2 d 3 -2 d 1 -3 d -4 Y -1 -3 d -1 -1 d -4 -1 d -6 X -4 1 d -1 1
 d -2 3 d 4 Y 2 3 d 3 2 d 4 2 d 5 1 d 3 1 d 1 3 d 3 Y -1 3 d -4 1 d -6 X cl s
 1169 1829 m -4 -2 d -2 -4 d -2 -7 d -4 Y 2 -6 d 2 -4 d 4 -2 d 3 X 4 2 d 3 4 d 1
 6 d 4 Y -1 7 d -3 4 d -4 2 d -3 X cl s 1169 1828 m -5 -2 d -2 -4 d -2 -6 d -4 Y
 2 -7 d 2 -4 d 5 -2 d 2 X 4 2 d 3 4 d 1 7 d 4 Y -1 6 d -3 4 d -4 2 d -2 X cl s
 1170 1829 m -4 -1 d -3 -4 d -1 -7 d -4 Y 1 -7 d 3 -4 d 4 -1 d 3 X 4 1 d 3 4 d 1
 7 d 4 Y -1 7 d -3 4 d -4 1 d -3 X cl s 1168 1827 m -4 -1 d -3 -5 d -1 -6 d -4 Y
 1 -7 d 3 -4 d 4 -1 d 2 X 4 1 d 3 4 d 1 7 d 4 Y -1 6 d -3 5 d -4 1 d -2 X cl s
 1171 1830 m -4 -1 d -3 -4 d -1 -7 d -4 Y 1 -7 d 3 -4 d 4 -1 d 3 X 4 1 d 3 4 d 1
 7 d 4 Y -1 7 d -3 4 d -4 1 d -3 X cl s 1191 1803 m -1 -1 d 1 -2 d 1 2 d -1 1 d
 cl s 1190 1802 m -1 -1 d 1 -2 d 1 2 d -1 1 d cl s 1192 1804 m -2 -2 d 2 -1 d 1
 1 d -1 2 d cl s 1189 1801 m -1 -1 d 1 -1 d 2 1 d -2 1 d cl s 1193 1805 m -2 -2
 d 2 -1 d 1 1 d -1 2 d cl s 1219 1819 m -1 -4 d -3 -3 d -4 -1 d -1 X -4 1 d -3 3
 d -1 4 d 1 Y 1 5 d 3 2 d 4 2 d 1 X 4 -2 d 3 -2 d 1 -6 d -7 Y -1 -6 d -3 -4 d -4
 -2 d -2 X -5 2 d -1 2 d s 1218 1818 m -1 -4 d -3 -2 d -4 -2 d -1 X -4 2 d -3 2
 d -1 4 d 2 Y 1 4 d 3 2 d 4 2 d 1 X 4 -2 d 3 -2 d 1 -6 d -6 Y -1 -7 d -3 -4 d -4
 -2 d -2 X -4 2 d -2 2 d s 1220 1820 m -1 -4 d -3 -3 d -4 -1 d -1 X -4 1 d -3 3
 d -1 4 d 1 Y 1 4 d 3 3 d 4 1 d 1 X 4 -1 d 3 -3 d 1 -5 d -7 Y -1 -7 d -3 -4 d -4
 -1 d -3 X -4 1 d -1 3 d s 1218 1817 m -2 -4 d -2 -2 d -4 -2 d -2 X -4 2 d -3 2
 d -1 4 d 2 Y 1 4 d 3 3 d 4 1 d 2 X 4 -1 d 2 -3 d 2 -6 d -6 Y -2 -7 d -2 -4 d -4
 -1 d -3 X -4 1 d -2 3 d s 1221 1821 m -1 -4 d -3 -3 d -4 -1 d -1 X -4 1 d -3 3
 d -2 4 d 1 Y 2 4 d 3 3 d 4 1 d 1 X 4 -1 d 3 -3 d 1 -5 d -7 Y -1 -7 d -3 -4 d -4
 -1 d -3 X -4 1 d -1 3 d s 1165 1937 m 3 1 d 4 4 d -28 Y s 1164 1936 m 3 1 d 4 4
 d -28 Y s 1166 1937 m 3 2 d 4 4 d -29 Y s 1164 1935 m 2 1 d 4 4 d -28 Y s 1167
 1938 m 3 2 d 4 4 d -29 Y s 1191 1916 m -1 -1 d 1 -1 d 1 1 d -1 1 d cl s 1190
 1915 m -1 -1 d 1 -1 d 1 1 d -1 1 d cl s 1192 1917 m -2 -1 d 2 -2 d 1 2 d -1 1 d
 cl s 1189 1915 m -1 -2 d 1 -1 d 2 1 d -2 2 d cl s 1193 1918 m -2 -1 d 2 -2 d 1
 2 d -1 1 d cl s 1210 1942 m -4 -1 d -3 -4 d -1 -7 d -4 Y 1 -7 d 3 -4 d 4 -1 d 3
 X 4 1 d 2 4 d 2 7 d 4 Y -2 7 d -2 4 d -4 1 d -3 X cl s 1209 1941 m -4 -1 d -3
 -4 d -1 -7 d -4 Y 1 -7 d 3 -4 d 4 -1 d 3 X 4 1 d 2 4 d 2 7 d 4 Y -2 7 d -2 4 d
 -4 1 d -3 X cl s 1211 1943 m -4 -2 d -3 -4 d -1 -6 d -4 Y 1 -7 d 3 -4 d 4 -2 d
 2 X 4 2 d 3 4 d 2 7 d 4 Y -2 6 d -3 4 d -4 2 d -2 X cl s 1208 1940 m -4 -1 d -3
 -4 d -1 -7 d -4 Y 1 -7 d 3 -4 d 4 -1 d 3 X 4 1 d 3 4 d 1 7 d 4 Y -1 7 d -3 4 d
 -4 1 d -3 X cl s 1212 1944 m -4 -2 d -3 -4 d -2 -6 d -5 Y 2 -6 d 3 -4 d 4 -2 d
 2 X 4 2 d 3 4 d 1 6 d 5 Y -1 6 d -3 4 d -4 2 d -2 X cl s 1247 1247 m 794 X s
 1247 1304 m -57 Y s [4 8] 0 sd 1247 2041 m -794 Y s [] 0 sd 1406 1304 m -57 Y s
 [4 8] 0 sd 1406 2041 m -794 Y s [] 0 sd 1565 1304 m -57 Y s [4 8] 0 sd 1565
 2041 m -794 Y s [] 0 sd 1724 1304 m -57 Y s [4 8] 0 sd 1724 2041 m -794 Y s
 [] 0 sd 1882 1304 m -57 Y s [4 8] 0 sd 1882 2041 m -794 Y s [] 0 sd 2041 1304 m
 -57 Y s [4 8] 0 sd 2041 2041 m -794 Y s [] 0 sd 1246 1230 m -4 -1 d -3 -4 d -1
 -7 d -4 Y 1 -7 d 3 -4 d 4 -1 d 3 X 4 1 d 3 4 d 1 7 d 4 Y -1 7 d -3 4 d -4 1 d
 -3 X cl s 1245 1230 m -4 -2 d -3 -4 d -1 -7 d -4 Y 1 -6 d 3 -4 d 4 -2 d 3 X 4 2
 d 3 4 d 1 6 d 4 Y -1 7 d -3 4 d -4 2 d -3 X cl s 1247 1231 m -4 -1 d -3 -4 d -1
 -7 d -4 Y 1 -7 d 3 -4 d 4 -1 d 3 X 4 1 d 2 4 d 2 7 d 4 Y -2 7 d -2 4 d -4 1 d
 -3 X cl s 1244 1229 m -4 -2 d -2 -4 d -2 -6 d -5 Y 2 -6 d 2 -4 d 4 -2 d 3 X 4 2
 d 3 4 d 1 6 d 5 Y -1 6 d -3 4 d -4 2 d -3 X cl s 1248 1232 m -4 -1 d -3 -4 d -1
 -7 d -4 Y 1 -7 d 3 -4 d 4 -1 d 2 X 5 1 d 2 4 d 2 7 d 4 Y -2 7 d -2 4 d -5 1 d
 -2 X cl s 1385 1224 m 1 Y 1 3 d 1 1 d 3 1 d 5 X 3 -1 d 1 -1 d 2 -3 d -3 Y -2 -2
 d -2 -4 d -14 -14 d 19 X s 1384 1223 m 1 Y 1 3 d 1 1 d 3 2 d 6 X 2 -2 d 2 -1 d
 1 -3 d -3 Y -1 -2 d -3 -4 d -14 -14 d 19 X s 1385 1224 m 2 Y 2 3 d 1 1 d 3 1 d
 5 X 3 -1 d 1 -1 d 2 -3 d -3 Y -2 -3 d -2 -4 d -14 -13 d 19 X s 1383 1222 m 1 Y
 1 3 d 2 1 d 2 2 d 6 X 2 -2 d 2 -1 d 1 -3 d -2 Y -1 -3 d -3 -4 d -13 -14 d 18 X
 s 1386 1225 m 2 Y 2 2 d 1 2 d 3 1 d 5 X 3 -1 d 1 -2 d 1 -2 d -3 Y -1 -3 d -3 -4
 d -13 -13 d 19 X s 1418 1230 m -4 -1 d -2 -4 d -2 -7 d -4 Y 2 -7 d 2 -4 d 4 -1
 d 3 X 4 1 d 3 4 d 1 7 d 4 Y -1 7 d -3 4 d -4 1 d -3 X cl s 1417 1230 m -4 -2 d
 -2 -4 d -2 -7 d -4 Y 2 -6 d 2 -4 d 4 -2 d 3 X 4 2 d 3 4 d 1 6 d 4 Y -1 7 d -3 4
 d -4 2 d -3 X cl s 1419 1231 m -4 -1 d -3 -4 d -1 -7 d -4 Y 1 -7 d 3 -4 d 4 -1
 d 3 X 4 1 d 3 4 d 1 7 d 4 Y -1 7 d -3 4 d -4 1 d -3 X cl s 1417 1229 m -4 -2 d
 -3 -4 d -1 -6 d -5 Y 1 -6 d 3 -4 d 4 -2 d 2 X 4 2 d 3 4 d 1 6 d 5 Y -1 6 d -3 4
 d -4 2 d -2 X cl s 1420 1232 m -4 -1 d -3 -4 d -1 -7 d -4 Y 1 -7 d 3 -4 d 4 -1
 d 3 X 4 1 d 2 4 d 2 7 d 4 Y -2 7 d -2 4 d -4 1 d -3 X cl s 1555 1230 m -13 -19
 d 20 X s 1555 1230 m -14 -19 d 20 X s 1556 1231 m -13 -19 d 20 X s 1554 1229 m
 -14 -19 d 21 X s 1557 1232 m -13 -19 d 20 X s 1555 1230 m -28 Y s 1555 1230 m
 -29 Y s 1556 1231 m -28 Y s 1554 1229 m -29 Y s 1557 1232 m -28 Y s 1577 1230 m
 -4 -1 d -3 -4 d -1 -7 d -4 Y 1 -7 d 3 -4 d 4 -1 d 3 X 4 1 d 3 4 d 1 7 d 4 Y -1
 7 d -3 4 d -4 1 d -3 X cl s 1576 1230 m -4 -2 d -3 -4 d -1 -7 d -4 Y 1 -6 d 3
 -4 d 4 -2 d 3 X 4 2 d 3 4 d 1 6 d 4 Y -1 7 d -3 4 d -4 2 d -3 X cl s 1578 1231
 m -4 -1 d -3 -4 d -1 -7 d -4 Y 1 -7 d 3 -4 d 4 -1 d 3 X 4 1 d 2 4 d 2 7 d 4 Y
 -2 7 d -2 4 d -4 1 d -3 X cl s 1575 1229 m -4 -2 d -2 -4 d -2 -6 d -5 Y 2 -6 d
 2 -4 d 4 -2 d 3 X 4 2 d 3 4 d 1 6 d 5 Y -1 6 d -3 4 d -4 2 d -3 X cl s 1579
 1232 m -4 -1 d -3 -4 d -1 -7 d -4 Y 1 -7 d 3 -4 d 4 -1 d 2 X 5 1 d 2 4 d 2 7 d
 4 Y -2 7 d -2 4 d -5 1 d -2 X cl s 1718 1226 m -1 3 d -4 1 d -3 X -4 -1 d -3 -4
 d -1 -7 d -7 Y 1 -5 d 3 -3 d 4 -1 d 2 X 4 1 d 2 3 d 2 4 d 1 Y -2 5 d -2 2 d -4
 2 d -2 X -4 -2 d -3 -2 d -1 -5 d s 1717 1225 m -1 3 d -4 2 d -3 X -4 -2 d -2 -4
 d -2 -7 d -6 Y 2 -6 d 2 -2 d 4 -2 d 2 X 4 2 d 2 2 d 2 4 d 2 Y -2 4 d -2 2 d -4
 2 d -2 X -4 -2 d -2 -2 d -2 -4 d s 1719 1227 m -1 3 d -4 1 d -3 X -4 -1 d -3 -4
 d -1 -7 d -7 Y 1 -5 d 3 -3 d 4 -1 d 1 X 4 1 d 3 3 d 1 4 d 1 Y -1 4 d -3 3 d -4
 1 d -1 X -4 -1 d -3 -3 d -1 -4 d s 1717 1225 m -2 2 d -4 2 d -3 X -4 -2 d -2 -4
 d -2 -6 d -7 Y 2 -6 d 2 -2 d 4 -2 d 2 X 4 2 d 3 2 d 1 4 d 2 Y -1 4 d -3 3 d -4
 1 d -2 X -4 -1 d -2 -3 d -2 -4 d s 1720 1228 m -1 3 d -4 1 d -3 X -4 -1 d -3 -4
 d -1 -7 d -7 Y 1 -5 d 3 -3 d 4 -1 d 1 X 4 1 d 3 3 d 1 4 d 1 Y -1 4 d -3 3 d -4
 1 d -1 X -4 -1 d -3 -3 d -1 -4 d s 1736 1230 m -4 -1 d -3 -4 d -1 -7 d -4 Y 1
 -7 d 3 -4 d 4 -1 d 3 X 4 1 d 2 4 d 2 7 d 4 Y -2 7 d -2 4 d -4 1 d -3 X cl s
 1735 1230 m -4 -2 d -3 -4 d -1 -7 d -4 Y 1 -6 d 3 -4 d 4 -2 d 3 X 4 2 d 2 4 d 2
 6 d 4 Y -2 7 d -2 4 d -4 2 d -3 X cl s 1737 1231 m -4 -1 d -3 -4 d -1 -7 d -4 Y
 1 -7 d 3 -4 d 4 -1 d 2 X 4 1 d 3 4 d 1 7 d 4 Y -1 7 d -3 4 d -4 1 d -2 X cl s
 1734 1229 m -4 -2 d -3 -4 d -1 -6 d -5 Y 1 -6 d 3 -4 d 4 -2 d 3 X 4 2 d 3 4 d 1
 6 d 5 Y -1 6 d -3 4 d -4 2 d -3 X cl s 1738 1232 m -5 -1 d -2 -4 d -2 -7 d -4 Y
 2 -7 d 2 -4 d 5 -1 d 2 X 4 1 d 3 4 d 1 7 d 4 Y -1 7 d -3 4 d -4 1 d -2 X cl s
 1866 1230 m -4 -1 d -1 -3 d -2 Y 1 -3 d 3 -1 d 5 -2 d 4 -1 d 3 -3 d 1 -3 d -4 Y
 -1 -2 d -1 -2 d -4 -1 d -6 X -4 1 d -1 2 d -2 2 d 4 Y 2 3 d 3 3 d 4 1 d 5 2 d 3
 1 d 1 3 d 2 Y -1 3 d -4 1 d -6 X cl s 1865 1230 m -4 -2 d -1 -3 d -2 Y 1 -3 d 3
 -1 d 5 -2 d 4 -1 d 3 -3 d 2 -2 d -4 Y -2 -3 d -1 -1 d -4 -2 d -6 X -4 2 d -1 1
 d -1 3 d 4 Y 1 2 d 3 3 d 4 1 d 5 2 d 3 1 d 1 3 d 2 Y -1 3 d -4 2 d -6 X cl s
 1867 1231 m -4 -1 d -1 -3 d -3 Y 1 -2 d 3 -2 d 5 -1 d 4 -1 d 3 -3 d 1 -3 d -4 Y
 -1 -2 d -1 -2 d -5 -1 d -5 X -4 1 d -1 2 d -2 2 d 4 Y 2 3 d 2 3 d 4 1 d 6 1 d 3
 2 d 1 2 d 3 Y -1 3 d -5 1 d -5 X cl s 1865 1229 m -5 -2 d -1 -2 d -3 Y 1 -3 d 3
 -1 d 6 -1 d 4 -2 d 2 -3 d 2 -2 d -4 Y -2 -3 d -1 -1 d -4 -2 d -5 X -5 2 d -1 1
 d -1 3 d 4 Y 1 2 d 3 3 d 4 2 d 5 1 d 3 1 d 1 3 d 3 Y -1 2 d -4 2 d -5 X cl s
 1868 1232 m -4 -1 d -1 -3 d -3 Y 1 -2 d 3 -2 d 5 -1 d 4 -1 d 3 -3 d 1 -3 d -4 Y
 -1 -3 d -2 -1 d -4 -1 d -5 X -4 1 d -1 1 d -2 3 d 4 Y 2 3 d 2 3 d 4 1 d 6 1 d 2
 2 d 2 2 d 3 Y -2 3 d -4 1 d -5 X cl s 1895 1230 m -4 -1 d -3 -4 d -2 -7 d -4 Y
 2 -7 d 3 -4 d 4 -1 d 2 X 4 1 d 3 4 d 1 7 d 4 Y -1 7 d -3 4 d -4 1 d -2 X cl s
 1894 1230 m -4 -2 d -3 -4 d -1 -7 d -4 Y 1 -6 d 3 -4 d 4 -2 d 2 X 4 2 d 3 4 d 2
 6 d 4 Y -2 7 d -3 4 d -4 2 d -2 X cl s 1895 1231 m -4 -1 d -2 -4 d -2 -7 d -4 Y
 2 -7 d 2 -4 d 4 -1 d 3 X 4 1 d 3 4 d 1 7 d 4 Y -1 7 d -3 4 d -4 1 d -3 X cl s
 1893 1229 m -4 -2 d -3 -4 d -1 -6 d -5 Y 1 -6 d 3 -4 d 4 -2 d 3 X 4 2 d 2 4 d 2
 6 d 5 Y -2 6 d -2 4 d -4 2 d -3 X cl s 1896 1232 m -4 -1 d -2 -4 d -2 -7 d -4 Y
 2 -7 d 2 -4 d 4 -1 d 3 X 4 1 d 3 4 d 1 7 d 4 Y -1 7 d -3 4 d -4 1 d -3 X cl s
 2036 1221 m -2 -4 d -2 -3 d -4 -1 d -2 X -4 1 d -2 3 d -2 4 d 1 Y 2 4 d 2 3 d 4
 1 d 2 X 4 -1 d 2 -3 d 2 -5 d -7 Y -2 -7 d -2 -4 d -4 -1 d -3 X -4 1 d -1 3 d s
 2035 1220 m -1 -4 d -3 -3 d -4 -1 d -2 X -4 1 d -2 3 d -2 4 d 1 Y 2 4 d 2 3 d 4
 2 d 2 X 4 -2 d 3 -3 d 1 -5 d -7 Y -1 -6 d -3 -4 d -4 -2 d -3 X -4 2 d -1 2 d s
 2037 1222 m -2 -4 d -2 -3 d -4 -1 d -2 X -4 1 d -3 3 d -1 4 d 1 Y 1 4 d 3 3 d 4
 1 d 2 X 4 -1 d 2 -3 d 2 -5 d -7 Y -2 -7 d -2 -4 d -4 -1 d -3 X -4 1 d -2 3 d s
 2034 1219 m -1 -4 d -3 -3 d -4 -1 d -1 X -4 1 d -3 3 d -1 4 d 2 Y 1 4 d 3 2 d 4
 2 d 1 X 4 -2 d 3 -2 d 1 -6 d -7 Y -1 -6 d -3 -4 d -4 -2 d -3 X -4 2 d -1 2 d s
 2038 1223 m -2 -4 d -3 -3 d -4 -1 d -1 X -4 1 d -3 3 d -1 4 d 1 Y 1 4 d 3 3 d 4
 1 d 1 X 4 -1 d 3 -3 d 2 -5 d -7 Y -2 -7 d -3 -4 d -4 -1 d -2 X -4 1 d -2 3 d s
 2053 1230 m -4 -1 d -2 -4 d -2 -7 d -4 Y 2 -7 d 2 -4 d 4 -1 d 3 X 4 1 d 3 4 d 1
 7 d 4 Y -1 7 d -3 4 d -4 1 d -3 X cl s 2052 1230 m -4 -2 d -2 -4 d -2 -7 d -4 Y
 2 -6 d 2 -4 d 4 -2 d 3 X 4 2 d 3 4 d 1 6 d 4 Y -1 7 d -3 4 d -4 2 d -3 X cl s
 2054 1231 m -4 -1 d -3 -4 d -1 -7 d -4 Y 1 -7 d 3 -4 d 4 -1 d 3 X 4 1 d 3 4 d 1
 7 d 4 Y -1 7 d -3 4 d -4 1 d -3 X cl s 2052 1229 m -4 -2 d -3 -4 d -1 -6 d -5 Y
 1 -6 d 3 -4 d 4 -2 d 2 X 4 2 d 3 4 d 1 6 d 5 Y -1 6 d -3 4 d -4 2 d -2 X cl s
 2055 1232 m -4 -1 d -3 -4 d -1 -7 d -4 Y 1 -7 d 3 -4 d 4 -1 d 3 X 4 1 d 3 4 d 1
 7 d 4 Y -1 7 d -3 4 d -4 1 d -3 X cl s 794 794 1247 1247 C 2268 2268 0 0 C
 black 1555 1100 m -45 Y s 1553 1099 m -46 Y s 1556 1101 m -45 Y s 1552 1097 m
 -45 Y s 1557 1103 m -46 Y s 1555 1055 m 26 X s 1553 1053 m 26 X s 1556 1056 m
 26 X s 1552 1052 m 26 X s 1557 1057 m 26 X s 1591 1100 m -45 Y s 1590 1099 m
 -46 Y s 1593 1101 m -45 Y s 1589 1097 m -45 Y s 1594 1103 m -46 Y s 1591 1100 m
 20 X 6 -2 d 2 -2 d 3 -5 d -4 Y -3 -4 d -2 -2 d -6 -3 d s 1590 1099 m 19 X 7 -3
 d 2 -2 d 2 -4 d -4 Y -2 -5 d -2 -2 d -7 -2 d s 1593 1101 m 19 X 7 -2 d 2 -2 d 2
 -4 d -5 Y -2 -4 d -2 -2 d -7 -2 d s 1589 1097 m 19 X 7 -2 d 2 -2 d 2 -4 d -5 Y
 -2 -4 d -2 -2 d -7 -2 d s 1594 1103 m 20 X 6 -2 d 2 -3 d 2 -4 d -4 Y -2 -5 d -2
 -2 d -6 -2 d s 1591 1078 m 20 X 6 -2 d 2 -2 d 3 -4 d -7 Y -3 -4 d -2 -2 d -6 -2
 d -20 X s 1590 1077 m 19 X 7 -2 d 2 -2 d 2 -5 d -6 Y -2 -4 d -2 -3 d -7 -2 d
 -19 X s 1593 1080 m 19 X 7 -2 d 2 -3 d 2 -4 d -6 Y -2 -5 d -2 -2 d -7 -2 d -19
 X s 1589 1076 m 19 X 7 -3 d 2 -2 d 2 -4 d -6 Y -2 -5 d -2 -2 d -7 -2 d -19 X s
 1594 1081 m 20 X 6 -2 d 2 -2 d 2 -5 d -6 Y -2 -4 d -2 -2 d -6 -3 d -20 X s 1667
 1089 m -2 5 d -4 4 d -5 2 d -8 X -5 -2 d -4 -4 d -2 -5 d -2 -6 d -11 Y 2 -7 d 2
 -4 d 4 -4 d 5 -2 d 8 X 5 2 d 4 4 d 2 4 d 7 Y s 1666 1088 m -3 4 d -4 4 d -4 3 d
 -9 X -4 -3 d -4 -4 d -3 -4 d -2 -7 d -10 Y 2 -7 d 3 -4 d 4 -5 d 4 -2 d 9 X 4 2
 d 4 5 d 3 4 d 7 Y s 1668 1091 m -2 4 d -4 4 d -4 2 d -9 X -4 -2 d -5 -4 d -2 -4
 d -2 -7 d -11 Y 2 -6 d 2 -5 d 5 -4 d 4 -2 d 9 X 4 2 d 4 4 d 2 5 d 6 Y s 1664
 1086 m -2 5 d -4 4 d -5 2 d -8 X -5 -2 d -4 -4 d -2 -5 d -2 -6 d -11 Y 2 -6 d 2
 -5 d 4 -4 d 5 -2 d 8 X 5 2 d 4 4 d 2 5 d 6 Y s 1670 1092 m -2 4 d -5 5 d -4 2 d
 -9 X -4 -2 d -4 -5 d -3 -4 d -2 -7 d -10 Y 2 -7 d 3 -4 d 4 -4 d 4 -3 d 9 X 4 3
 d 5 4 d 2 4 d 7 Y s 1656 1072 m 11 X s 1655 1071 m 11 X s 1658 1073 m 10 X s
 1653 1069 m 11 X s 1659 1075 m 11 X s 1693 1100 m -4 -2 d -5 -4 d -2 -5 d -2 -6
 d -11 Y 2 -7 d 2 -4 d 5 -4 d 4 -2 d 9 X 4 2 d 4 4 d 2 4 d 3 7 d 11 Y -3 6 d -2
 5 d -4 4 d -4 2 d -9 X cl s 1692 1099 m -5 -3 d -4 -4 d -2 -4 d -2 -7 d -10 Y 2
 -7 d 2 -4 d 4 -5 d 5 -2 d 8 X 4 2 d 5 5 d 2 4 d 2 7 d 10 Y -2 7 d -2 4 d -5 4 d
 -4 3 d -8 X cl s 1694 1101 m -4 -2 d -4 -4 d -3 -4 d -2 -7 d -11 Y 2 -6 d 3 -5
 d 4 -4 d 4 -2 d 9 X 4 2 d 5 4 d 2 5 d 2 6 d 11 Y -2 7 d -2 4 d -5 4 d -4 2 d -9
 X cl s 1690 1097 m -4 -2 d -4 -4 d -3 -5 d -2 -6 d -11 Y 2 -6 d 3 -5 d 4 -4 d 4
 -2 d 9 X 4 2 d 4 4 d 3 5 d 2 6 d 11 Y -2 6 d -3 5 d -4 4 d -4 2 d -9 X cl s
 1696 1103 m -5 -2 d -4 -5 d -2 -4 d -2 -7 d -10 Y 2 -7 d 2 -4 d 4 -4 d 5 -3 d 8
 X 5 3 d 4 4 d 2 4 d 2 7 d 10 Y -2 7 d -2 4 d -4 5 d -5 2 d -8 X cl s 1725 1061
 m 1 Y 1 2 d 1 1 d 3 1 d 4 X 2 -1 d 1 -1 d 1 -2 d -3 Y -1 -2 d -2 -3 d -11 -11 d
 15 X s 1724 1059 m 1 Y 1 2 d 1 2 d 2 1 d 5 X 2 -1 d 1 -2 d 1 -2 d -2 Y -1 -2 d
 -2 -3 d -11 -11 d 15 X s 1727 1062 m 1 Y 1 2 d 1 1 d 2 1 d 4 X 2 -1 d 2 -1 d 1
 -2 d -2 Y -1 -2 d -3 -4 d -10 -10 d 15 X s 1723 1058 m 1 Y 1 2 d 1 1 d 2 1 d 4
 X 2 -1 d 1 -1 d 2 -2 d -2 Y -2 -2 d -2 -4 d -11 -10 d 16 X s 1728 1063 m 1 Y 1
 3 d 1 1 d 2 1 d 5 X 2 -1 d 1 -1 d 1 -3 d -2 Y -1 -2 d -2 -3 d -11 -11 d 15 X s
 794 794 1247 1247 C 2268 2268 0 0 C
 /xs 0 def 
(M Rad)
 /Courier-Bold     68 stwn 
 gsave  2041 1123
 t   0 r  xs neg 0 t 0 0 m
 /Courier-Bold findfont   68 sf 0    0 m 
(M Rad)
 show 
 gr
 /xs 0 def 
(ratio)
 /Courier-Bold     68 stwn 
 gsave  1100 2041
 t  90 r  xs neg 0 t 0 0 m
 /Courier-Bold findfont   68 sf 0    0 m 
(ratio)
 show 
 gr
 794 794 1247 1247 C 2268 2268 0 0 C 794 794 1247 1247 C 2268 2268 0 0 C 1906
 1936 m -4 -4 d -4 -6 d -5 -9 d -2 -11 d -8 Y 2 -11 d 5 -9 d 4 -6 d 4 -5 d s
 1905 1935 m -4 -4 d -5 -7 d -4 -8 d -2 -11 d -9 Y 2 -11 d 4 -8 d 5 -7 d 4 -4 d
 s 1908 1938 m -5 -5 d -4 -6 d -4 -9 d -3 -10 d -9 Y 3 -11 d 4 -9 d 4 -6 d 5 -4
 d s 1903 1934 m -4 -5 d -4 -6 d -4 -9 d -3 -11 d -8 Y 3 -11 d 4 -9 d 4 -6 d 4
 -4 d s 1909 1939 m -4 -4 d -5 -7 d -4 -8 d -2 -11 d -9 Y 2 -11 d 4 -8 d 5 -7 d
 4 -4 d s 1921 1928 m -46 Y s 1920 1926 m -45 Y s 1923 1929 m -45 Y s 1919 1925
 m -45 Y s 1924 1931 m -46 Y s 1921 1906 m 5 5 d 4 2 d 6 X 5 -2 d 4 -5 d 2 -6 d
 -5 Y -2 -6 d -4 -4 d -5 -3 d -6 X -4 3 d -5 4 d s 1920 1905 m 4 4 d 5 2 d 6 X 4
 -2 d 5 -4 d 2 -7 d -4 Y -2 -6 d -5 -5 d -4 -2 d -6 X -5 2 d -4 5 d s 1923 1908
 m 4 4 d 4 2 d 7 X 4 -2 d 4 -4 d 3 -7 d -4 Y -3 -7 d -4 -4 d -4 -2 d -7 X -4 2 d
 -4 4 d s 1919 1903 m 4 5 d 4 2 d 7 X 4 -2 d 4 -5 d 3 -6 d -4 Y -3 -7 d -4 -4 d
 -4 -2 d -7 X -4 2 d -4 4 d s 1924 1909 m 4 4 d 5 2 d 6 X 4 -2 d 5 -4 d 2 -7 d
 -4 Y -2 -6 d -5 -5 d -4 -2 d -6 X -5 2 d -4 5 d s 1960 1936 m 5 -4 d 4 -6 d 4
 -9 d 2 -11 d -8 Y -2 -11 d -4 -9 d -4 -6 d -5 -5 d s 1959 1935 m 4 -4 d 4 -7 d
 5 -8 d 2 -11 d -9 Y -2 -11 d -5 -8 d -4 -7 d -4 -4 d s 1962 1938 m 4 -5 d 4 -6
 d 5 -9 d 2 -10 d -9 Y -2 -11 d -5 -9 d -4 -6 d -4 -4 d s 1957 1934 m 5 -5 d 4
 -6 d 4 -9 d 3 -11 d -8 Y -3 -11 d -4 -9 d -4 -6 d -5 -4 d s 1963 1939 m 4 -4 d
 5 -7 d 4 -8 d 2 -11 d -9 Y -2 -11 d -4 -8 d -5 -7 d -4 -4 d s 794 794 1247 1247
 C NC 5 lw 0 0 1 c 794 794 227 227 bl 794 794 227 227 C 1 lw 1 0 0 c 406 289 975
 303 617 311 320 324 320 329 227 908 6 { m20} R NC 0 0 1 c 227 227 m 794 Y s 284
 227 m -57 X s [4 8] 0 sd 1021 227 m -794 X s [] 0 sd 284 340 m -57 X s
 [4 8] 0 sd 1021 340 m -794 X s [] 0 sd 284 454 m -57 X s [4 8] 0 sd 1021 454 m
 -794 X s [] 0 sd 284 567 m -57 X s [4 8] 0 sd 1021 567 m -794 X s [] 0 sd 284
 680 m -57 X s [4 8] 0 sd 1021 680 m -794 X s [] 0 sd 284 794 m -57 X s
 [4 8] 0 sd 1021 794 m -794 X s [] 0 sd 284 907 m -57 X s [4 8] 0 sd 1021 907 m
 -794 X s [] 0 sd 284 1021 m -57 X s [4 8] 0 sd 1021 1021 m -794 X s [] 0 sd 149
 241 m -4 -1 d -3 -4 d -1 -7 d -4 Y 1 -7 d 3 -4 d 4 -1 d 2 X 5 1 d 2 4 d 2 7 d 4
 Y -2 7 d -2 4 d -5 1 d -2 X cl s 148 240 m -4 -1 d -3 -4 d -1 -7 d -4 Y 1 -7 d
 3 -4 d 4 -1 d 3 X 4 1 d 2 4 d 2 7 d 4 Y -2 7 d -2 4 d -4 1 d -3 X cl s 150 242
 m -4 -2 d -3 -4 d -1 -6 d -4 Y 1 -7 d 3 -4 d 4 -2 d 2 X 4 2 d 3 4 d 1 7 d 4 Y
 -1 6 d -3 4 d -4 2 d -2 X cl s 147 239 m -4 -1 d -3 -4 d -1 -7 d -4 Y 1 -7 d 3
 -4 d 4 -1 d 3 X 4 1 d 3 4 d 1 7 d 4 Y -1 7 d -3 4 d -4 1 d -3 X cl s 150 243 m
 -4 -2 d -2 -4 d -2 -6 d -5 Y 2 -6 d 2 -4 d 4 -2 d 3 X 4 2 d 3 4 d 1 6 d 5 Y -1
 6 d -3 4 d -4 2 d -3 X cl s 170 215 m -1 -1 d 1 -1 d 2 1 d -2 1 d cl s 170 214
 m -2 -1 d 2 -1 d 1 1 d -1 1 d cl s 171 216 m -1 -1 d 1 -2 d 2 2 d -2 1 d cl s
 169 214 m -2 -2 d 2 -1 d 1 1 d -1 2 d cl s 172 217 m -1 -1 d 1 -2 d 1 2 d -1 1
 d cl s 195 241 m -14 -19 d 20 X s 194 240 m -14 -19 d 21 X s 196 242 m -14 -19
 d 20 X s 193 239 m -14 -19 d 21 X s 196 243 m -13 -19 d 20 X s 195 241 m -28 Y
 s 194 240 m -28 Y s 196 242 m -29 Y s 193 239 m -28 Y s 196 243 m -29 Y s 149
 354 m -4 -1 d -3 -4 d -1 -7 d -4 Y 1 -7 d 3 -4 d 4 -1 d 2 X 5 1 d 2 4 d 2 7 d 4
 Y -2 7 d -2 4 d -5 1 d -2 X cl s 148 354 m -4 -2 d -3 -4 d -1 -7 d -4 Y 1 -6 d
 3 -4 d 4 -2 d 3 X 4 2 d 2 4 d 2 6 d 4 Y -2 7 d -2 4 d -4 2 d -3 X cl s 150 355
 m -4 -1 d -3 -4 d -1 -7 d -4 Y 1 -7 d 3 -4 d 4 -1 d 2 X 4 1 d 3 4 d 1 7 d 4 Y
 -1 7 d -3 4 d -4 1 d -2 X cl s 147 353 m -4 -2 d -3 -4 d -1 -6 d -5 Y 1 -6 d 3
 -4 d 4 -2 d 3 X 4 2 d 3 4 d 1 6 d 5 Y -1 6 d -3 4 d -4 2 d -3 X cl s 150 356 m
 -4 -1 d -2 -4 d -2 -7 d -4 Y 2 -7 d 2 -4 d 4 -1 d 3 X 4 1 d 3 4 d 1 7 d 4 Y -1
 7 d -3 4 d -4 1 d -3 X cl s 170 329 m -1 -2 d 1 -1 d 2 1 d -2 2 d cl s 170 328
 m -2 -1 d 2 -2 d 1 2 d -1 1 d cl s 171 330 m -1 -2 d 1 -1 d 2 1 d -2 2 d cl s
 169 327 m -2 -1 d 2 -2 d 1 2 d -1 1 d cl s 172 330 m -1 -1 d 1 -1 d 1 1 d -1 1
 d cl s 197 354 m -13 X -1 -12 d 1 2 d 4 1 d 4 X 4 -1 d 3 -3 d 1 -4 d -3 Y -1 -4
 d -3 -3 d -4 -1 d -4 X -4 1 d -1 2 d -2 2 d s 197 354 m -14 X -1 -13 d 1 2 d 4
 1 d 4 X 4 -1 d 3 -3 d 1 -4 d -3 Y -1 -4 d -3 -2 d -4 -2 d -4 X -4 2 d -1 1 d -2
 3 d s 198 355 m -13 X -2 -12 d 2 1 d 4 2 d 4 X 4 -2 d 3 -2 d 1 -4 d -3 Y -1 -4
 d -3 -3 d -4 -1 d -4 X -4 1 d -2 2 d -1 2 d s 196 353 m -14 X -1 -12 d 1 1 d 4
 1 d 4 X 4 -1 d 3 -3 d 1 -4 d -3 Y -1 -4 d -3 -2 d -4 -2 d -4 X -4 2 d -1 1 d -2
 3 d s 199 356 m -13 X -2 -12 d 2 1 d 4 2 d 4 X 4 -2 d 2 -2 d 2 -4 d -3 Y -2 -4
 d -2 -3 d -4 -1 d -4 X -4 1 d -2 1 d -1 3 d s 149 468 m -4 -2 d -3 -4 d -1 -6 d
 -4 Y 1 -7 d 3 -4 d 4 -2 d 2 X 5 2 d 2 4 d 2 7 d 4 Y -2 6 d -2 4 d -5 2 d -2 X
 cl s 148 467 m -4 -1 d -3 -4 d -1 -7 d -4 Y 1 -7 d 3 -4 d 4 -1 d 3 X 4 1 d 2 4
 d 2 7 d 4 Y -2 7 d -2 4 d -4 1 d -3 X cl s 150 469 m -4 -2 d -3 -4 d -1 -7 d -4
 Y 1 -6 d 3 -4 d 4 -2 d 2 X 4 2 d 3 4 d 1 6 d 4 Y -1 7 d -3 4 d -4 2 d -2 X cl s
 147 466 m -4 -1 d -3 -4 d -1 -7 d -4 Y 1 -7 d 3 -4 d 4 -1 d 3 X 4 1 d 3 4 d 1 7
 d 4 Y -1 7 d -3 4 d -4 1 d -3 X cl s 150 469 m -4 -1 d -2 -4 d -2 -7 d -4 Y 2
 -6 d 2 -5 d 4 -1 d 3 X 4 1 d 3 5 d 1 6 d 4 Y -1 7 d -3 4 d -4 1 d -3 X cl s 170
 442 m -1 -1 d 1 -2 d 2 2 d -2 1 d cl s 170 441 m -2 -1 d 2 -1 d 1 1 d -1 1 d cl
 s 171 443 m -1 -1 d 1 -2 d 2 2 d -2 1 d cl s 169 440 m -2 -1 d 2 -1 d 1 1 d -1
 1 d cl s 172 444 m -1 -2 d 1 -1 d 1 1 d -1 2 d cl s 199 464 m -2 2 d -4 2 d -2
 X -4 -2 d -3 -4 d -1 -6 d -7 Y 1 -6 d 3 -2 d 4 -2 d 1 X 4 2 d 3 2 d 1 5 d 1 Y
 -1 4 d -3 3 d -4 1 d -1 X -4 -1 d -3 -3 d -1 -4 d s 198 463 m -1 3 d -5 1 d -2
 X -4 -1 d -3 -4 d -1 -7 d -7 Y 1 -5 d 3 -3 d 4 -1 d 1 X 4 1 d 3 3 d 1 4 d 1 Y
 -1 4 d -3 3 d -4 1 d -1 X -4 -1 d -3 -3 d -1 -4 d s 200 465 m -2 2 d -4 2 d -3
 X -4 -2 d -2 -4 d -2 -7 d -6 Y 2 -6 d 2 -2 d 4 -2 d 2 X 4 2 d 3 2 d 1 4 d 2 Y
 -1 4 d -3 2 d -4 2 d -2 X -4 -2 d -2 -2 d -2 -4 d s 197 462 m -1 3 d -4 1 d -3
 X -4 -1 d -3 -4 d -1 -7 d -7 Y 1 -5 d 3 -3 d 4 -1 d 1 X 4 1 d 3 3 d 1 4 d 1 Y
 -1 4 d -3 3 d -4 1 d -1 X -4 -1 d -3 -3 d -1 -4 d s 200 465 m -1 3 d -4 1 d -3
 X -4 -1 d -2 -4 d -2 -7 d -6 Y 2 -6 d 2 -3 d 4 -1 d 2 X 4 1 d 2 3 d 2 4 d 2 Y
 -2 4 d -2 2 d -4 2 d -2 X -4 -2 d -2 -2 d -2 -4 d s 149 581 m -4 -1 d -3 -4 d
 -1 -7 d -4 Y 1 -7 d 3 -4 d 4 -1 d 2 X 5 1 d 2 4 d 2 7 d 4 Y -2 7 d -2 4 d -5 1
 d -2 X cl s 148 580 m -4 -1 d -3 -4 d -1 -7 d -4 Y 1 -7 d 3 -4 d 4 -1 d 3 X 4 1
 d 2 4 d 2 7 d 4 Y -2 7 d -2 4 d -4 1 d -3 X cl s 150 582 m -4 -1 d -3 -4 d -1
 -7 d -4 Y 1 -7 d 3 -4 d 4 -1 d 2 X 4 1 d 3 4 d 1 7 d 4 Y -1 7 d -3 4 d -4 1 d
 -2 X cl s 147 579 m -4 -1 d -3 -4 d -1 -7 d -4 Y 1 -6 d 3 -5 d 4 -1 d 3 X 4 1 d
 3 5 d 1 6 d 4 Y -1 7 d -3 4 d -4 1 d -3 X cl s 150 583 m -4 -1 d -2 -5 d -2 -6
 d -4 Y 2 -7 d 2 -4 d 4 -1 d 3 X 4 1 d 3 4 d 1 7 d 4 Y -1 6 d -3 5 d -4 1 d -3 X
 cl s 170 556 m -1 -2 d 1 -1 d 2 1 d -2 2 d cl s 170 555 m -2 -2 d 2 -1 d 1 1 d
 -1 2 d cl s 171 556 m -1 -1 d 1 -1 d 2 1 d -2 1 d cl s 169 554 m -2 -2 d 2 -1 d
 1 1 d -1 2 d cl s 172 557 m -1 -1 d 1 -1 d 1 1 d -1 1 d cl s 200 581 m -13 -28
 d s 199 580 m -13 -28 d s 201 582 m -14 -28 d s 198 579 m -13 -28 d s 202 583 m
 -14 -28 d s 181 581 m 19 X s 180 580 m 19 X s 182 582 m 19 X s 179 579 m 19 X s
 183 583 m 19 X s 149 695 m -4 -2 d -3 -4 d -1 -7 d -4 Y 1 -6 d 3 -4 d 4 -2 d 2
 X 5 2 d 2 4 d 2 6 d 4 Y -2 7 d -2 4 d -5 2 d -2 X cl s 148 694 m -4 -2 d -3 -4
 d -1 -6 d -4 Y 1 -7 d 3 -4 d 4 -2 d 3 X 4 2 d 2 4 d 2 7 d 4 Y -2 6 d -2 4 d -4
 2 d -3 X cl s 150 695 m -4 -1 d -3 -4 d -1 -7 d -4 Y 1 -7 d 3 -4 d 4 -1 d 2 X 4
 1 d 3 4 d 1 7 d 4 Y -1 7 d -3 4 d -4 1 d -2 X cl s 147 693 m -4 -1 d -3 -5 d -1
 -6 d -4 Y 1 -7 d 3 -4 d 4 -1 d 3 X 4 1 d 3 4 d 1 7 d 4 Y -1 6 d -3 5 d -4 1 d
 -3 X cl s 150 696 m -4 -1 d -2 -4 d -2 -7 d -4 Y 2 -7 d 2 -4 d 4 -1 d 3 X 4 1 d
 3 4 d 1 7 d 4 Y -1 7 d -3 4 d -4 1 d -3 X cl s 170 669 m -1 -1 d 1 -2 d 2 2 d
 -2 1 d cl s 170 668 m -2 -1 d 2 -2 d 1 2 d -1 1 d cl s 171 670 m -1 -2 d 1 -1 d
 2 1 d -2 2 d cl s 169 667 m -2 -1 d 2 -1 d 1 1 d -1 1 d cl s 172 671 m -1 -2 d
 1 -1 d 1 1 d -1 2 d cl s 188 695 m -4 -2 d -1 -2 d -3 Y 1 -3 d 3 -1 d 5 -2 d 4
 -1 d 3 -3 d 1 -2 d -4 Y -1 -3 d -2 -1 d -4 -2 d -5 X -4 2 d -1 1 d -2 3 d 4 Y 2
 2 d 2 3 d 4 1 d 6 2 d 2 1 d 2 3 d 3 Y -2 2 d -4 2 d -5 X cl s 187 694 m -4 -2 d
 -1 -2 d -3 Y 1 -3 d 3 -1 d 5 -1 d 4 -2 d 3 -2 d 1 -3 d -4 Y -1 -3 d -1 -1 d -5
 -2 d -5 X -4 2 d -1 1 d -2 3 d 4 Y 2 3 d 2 2 d 4 2 d 6 1 d 3 1 d 1 3 d 3 Y -1 2
 d -5 2 d -5 X cl s 189 695 m -4 -1 d -2 -3 d -2 Y 2 -3 d 2 -1 d 6 -2 d 4 -1 d 3
 -3 d 1 -2 d -5 Y -1 -2 d -2 -2 d -4 -1 d -5 X -4 1 d -2 2 d -1 2 d 5 Y 1 2 d 3
 3 d 4 1 d 6 2 d 2 1 d 2 3 d 2 Y -2 3 d -4 1 d -5 X cl s 186 693 m -4 -1 d -1 -3
 d -3 Y 1 -3 d 3 -1 d 5 -1 d 4 -2 d 3 -2 d 1 -3 d -4 Y -1 -3 d -1 -1 d -4 -1 d
 -6 X -4 1 d -1 1 d -2 3 d 4 Y 2 3 d 3 2 d 4 2 d 5 1 d 3 1 d 1 3 d 3 Y -1 3 d -4
 1 d -6 X cl s 190 696 m -4 -1 d -2 -3 d -2 Y 2 -3 d 2 -2 d 6 -1 d 4 -1 d 2 -3 d
 2 -3 d -4 Y -2 -2 d -1 -2 d -4 -1 d -5 X -4 1 d -2 2 d -1 2 d 4 Y 1 3 d 3 3 d 4
 1 d 5 1 d 3 2 d 1 3 d 2 Y -1 3 d -4 1 d -5 X cl s 149 808 m -4 -1 d -3 -4 d -1
 -7 d -4 Y 1 -7 d 3 -4 d 4 -1 d 2 X 5 1 d 2 4 d 2 7 d 4 Y -2 7 d -2 4 d -5 1 d
 -2 X cl s 148 807 m -4 -1 d -3 -4 d -1 -7 d -4 Y 1 -7 d 3 -4 d 4 -1 d 3 X 4 1 d
 2 4 d 2 7 d 4 Y -2 7 d -2 4 d -4 1 d -3 X cl s 150 809 m -4 -2 d -3 -4 d -1 -6
 d -4 Y 1 -7 d 3 -4 d 4 -2 d 2 X 4 2 d 3 4 d 1 7 d 4 Y -1 6 d -3 4 d -4 2 d -2 X
 cl s 147 806 m -4 -1 d -3 -4 d -1 -7 d -4 Y 1 -7 d 3 -4 d 4 -1 d 3 X 4 1 d 3 4
 d 1 7 d 4 Y -1 7 d -3 4 d -4 1 d -3 X cl s 150 810 m -4 -2 d -2 -4 d -2 -6 d -5
 Y 2 -6 d 2 -4 d 4 -2 d 3 X 4 2 d 3 4 d 1 6 d 5 Y -1 6 d -3 4 d -4 2 d -3 X cl s
 170 782 m -1 -1 d 1 -1 d 2 1 d -2 1 d cl s 170 781 m -2 -1 d 2 -1 d 1 1 d -1 1
 d cl s 171 783 m -1 -1 d 1 -2 d 2 2 d -2 1 d cl s 169 781 m -2 -2 d 2 -1 d 1 1
 d -1 2 d cl s 172 784 m -1 -1 d 1 -2 d 1 2 d -1 1 d cl s 199 799 m -2 -5 d -2
 -2 d -4 -2 d -2 X -4 2 d -2 2 d -2 5 d 1 Y 2 4 d 2 3 d 4 1 d 2 X 4 -1 d 2 -3 d
 2 -5 d -7 Y -2 -7 d -2 -4 d -4 -1 d -3 X -4 1 d -1 3 d s 198 798 m -1 -4 d -3
 -3 d -4 -1 d -2 X -4 1 d -2 3 d -2 4 d 1 Y 2 4 d 2 3 d 4 1 d 2 X 4 -1 d 3 -3 d
 1 -5 d -7 Y -1 -7 d -3 -4 d -4 -1 d -3 X -4 1 d -1 3 d s 200 799 m -2 -4 d -2
 -2 d -5 -2 d -1 X -4 2 d -3 2 d -1 4 d 2 Y 1 4 d 3 2 d 4 2 d 1 X 5 -2 d 2 -2 d
 2 -6 d -6 Y -2 -7 d -2 -4 d -5 -2 d -2 X -4 2 d -2 3 d s 197 797 m -1 -4 d -3
 -3 d -4 -1 d -1 X -4 1 d -3 3 d -2 4 d 1 Y 2 4 d 3 3 d 4 1 d 1 X 4 -1 d 3 -3 d
 1 -5 d -7 Y -1 -7 d -3 -4 d -4 -1 d -3 X -4 1 d -1 3 d s 200 800 m -1 -4 d -3
 -3 d -4 -1 d -1 X -4 1 d -3 3 d -1 4 d 2 Y 1 4 d 3 2 d 4 2 d 1 X 4 -2 d 3 -2 d
 1 -6 d -7 Y -1 -6 d -3 -4 d -4 -2 d -2 X -4 2 d -2 2 d s 145 916 m 2 1 d 4 4 d
 -28 Y s 144 915 m 3 1 d 4 5 d -29 Y s 146 917 m 2 1 d 4 4 d -28 Y s 143 914 m 3
 2 d 4 4 d -29 Y s 146 918 m 3 1 d 4 4 d -28 Y s 170 896 m -1 -2 d 1 -1 d 2 1 d
 -2 2 d cl s 170 895 m -2 -1 d 2 -2 d 1 2 d -1 1 d cl s 171 897 m -1 -2 d 1 -1 d
 2 1 d -2 2 d cl s 169 894 m -2 -1 d 2 -2 d 1 2 d -1 1 d cl s 172 897 m -1 -1 d
 1 -1 d 1 1 d -1 1 d cl s 189 921 m -4 -1 d -2 -4 d -2 -7 d -4 Y 2 -7 d 2 -4 d 4
 -1 d 3 X 4 1 d 3 4 d 1 7 d 4 Y -1 7 d -3 4 d -4 1 d -3 X cl s 188 921 m -4 -2 d
 -2 -4 d -2 -7 d -4 Y 2 -6 d 2 -4 d 4 -2 d 3 X 4 2 d 3 4 d 1 6 d 4 Y -1 7 d -3 4
 d -4 2 d -3 X cl s 190 922 m -4 -1 d -3 -4 d -1 -7 d -4 Y 1 -7 d 3 -4 d 4 -1 d
 3 X 4 1 d 3 4 d 1 7 d 4 Y -1 7 d -3 4 d -4 1 d -3 X cl s 188 920 m -4 -2 d -3
 -4 d -2 -6 d -5 Y 2 -6 d 3 -4 d 4 -2 d 2 X 4 2 d 3 4 d 1 6 d 5 Y -1 6 d -3 4 d
 -4 2 d -2 X cl s 191 923 m -4 -1 d -3 -4 d -1 -7 d -4 Y 1 -7 d 3 -4 d 4 -1 d 3
 X 4 1 d 2 4 d 2 7 d 4 Y -2 7 d -2 4 d -4 1 d -3 X cl s 227 227 m 794 X s 227
 284 m -57 Y s [4 8] 0 sd 227 1021 m -794 Y s [] 0 sd 386 284 m -57 Y s
 [4 8] 0 sd 386 1021 m -794 Y s [] 0 sd 544 284 m -57 Y s [4 8] 0 sd 544 1021 m
 -794 Y s [] 0 sd 703 284 m -57 Y s [4 8] 0 sd 703 1021 m -794 Y s [] 0 sd 862
 284 m -57 Y s [4 8] 0 sd 862 1021 m -794 Y s [] 0 sd 1021 284 m -57 Y s
 [4 8] 0 sd 1021 1021 m -794 Y s [] 0 sd 225 210 m -4 -2 d -2 -4 d -2 -6 d -4 Y
 2 -7 d 2 -4 d 4 -2 d 3 X 4 2 d 3 4 d 1 7 d 4 Y -1 6 d -3 4 d -4 2 d -3 X cl s
 225 209 m -4 -1 d -3 -4 d -2 -7 d -4 Y 2 -7 d 3 -4 d 4 -1 d 2 X 4 1 d 3 4 d 1 7
 d 4 Y -1 7 d -3 4 d -4 1 d -2 X cl s 226 211 m -4 -2 d -2 -4 d -2 -7 d -4 Y 2
 -6 d 2 -4 d 4 -2 d 3 X 4 2 d 3 4 d 1 6 d 4 Y -1 7 d -3 4 d -4 2 d -3 X cl s 224
 208 m -4 -1 d -3 -4 d -1 -7 d -4 Y 1 -7 d 3 -4 d 4 -1 d 2 X 4 1 d 3 4 d 2 7 d 4
 Y -2 7 d -3 4 d -4 1 d -2 X cl s 227 211 m -4 -1 d -3 -4 d -1 -7 d -4 Y 1 -6 d
 3 -5 d 4 -1 d 3 X 4 1 d 3 5 d 1 6 d 4 Y -1 7 d -3 4 d -4 1 d -3 X cl s 364 203
 m 1 Y 1 3 d 2 1 d 2 2 d 6 X 2 -2 d 2 -1 d 1 -3 d -2 Y -1 -3 d -3 -4 d -13 -14 d
 19 X s 363 202 m 2 Y 1 2 d 2 2 d 3 1 d 5 X 3 -1 d 1 -2 d 1 -2 d -3 Y -1 -3 d -3
 -4 d -13 -13 d 19 X s 365 204 m 1 Y 1 3 d 2 1 d 2 2 d 6 X 2 -2 d 2 -1 d 1 -3 d
 -2 Y -1 -3 d -3 -4 d -14 -14 d 19 X s 362 201 m 2 Y 2 2 d 1 2 d 3 1 d 5 X 3 -1
 d 1 -2 d 1 -2 d -3 Y -1 -3 d -3 -4 d -13 -13 d 19 X s 366 205 m 1 Y 1 3 d 1 1 d
 3 1 d 5 X 3 -1 d 2 -1 d 1 -3 d -3 Y -1 -2 d -3 -4 d -14 -14 d 19 X s 398 210 m
 -4 -2 d -3 -4 d -1 -6 d -4 Y 1 -7 d 3 -4 d 4 -2 d 2 X 4 2 d 3 4 d 2 7 d 4 Y -2
 6 d -3 4 d -4 2 d -2 X cl s 397 209 m -4 -1 d -3 -4 d -1 -7 d -4 Y 1 -7 d 3 -4
 d 4 -1 d 3 X 4 1 d 2 4 d 2 7 d 4 Y -2 7 d -2 4 d -4 1 d -3 X cl s 399 211 m -4
 -2 d -3 -4 d -2 -7 d -4 Y 2 -6 d 3 -4 d 4 -2 d 2 X 4 2 d 3 4 d 1 6 d 4 Y -1 7 d
 -3 4 d -4 2 d -2 X cl s 396 208 m -4 -1 d -3 -4 d -1 -7 d -4 Y 1 -7 d 3 -4 d 4
 -1 d 3 X 4 1 d 2 4 d 2 7 d 4 Y -2 7 d -2 4 d -4 1 d -3 X cl s 399 211 m -4 -1 d
 -2 -4 d -2 -7 d -4 Y 2 -6 d 2 -5 d 4 -1 d 3 X 4 1 d 3 5 d 1 6 d 4 Y -1 7 d -3 4
 d -4 1 d -3 X cl s 535 210 m -14 -19 d 21 X s 534 209 m -13 -19 d 20 X s 536
 211 m -14 -19 d 20 X s 533 208 m -13 -19 d 20 X s 537 211 m -14 -18 d 20 X s
 535 210 m -29 Y s 534 209 m -28 Y s 536 211 m -29 Y s 533 208 m -28 Y s 537 211
 m -28 Y s 556 210 m -4 -2 d -2 -4 d -2 -6 d -4 Y 2 -7 d 2 -4 d 4 -2 d 3 X 4 2 d
 3 4 d 1 7 d 4 Y -1 6 d -3 4 d -4 2 d -3 X cl s 556 209 m -4 -1 d -3 -4 d -1 -7
 d -4 Y 1 -7 d 3 -4 d 4 -1 d 2 X 4 1 d 3 4 d 1 7 d 4 Y -1 7 d -3 4 d -4 1 d -2 X
 cl s 557 211 m -4 -2 d -2 -4 d -2 -7 d -4 Y 2 -6 d 2 -4 d 4 -2 d 3 X 4 2 d 3 4
 d 1 6 d 4 Y -1 7 d -3 4 d -4 2 d -3 X cl s 555 208 m -4 -1 d -3 -4 d -1 -7 d -4
 Y 1 -7 d 3 -4 d 4 -1 d 2 X 5 1 d 2 4 d 2 7 d 4 Y -2 7 d -2 4 d -5 1 d -2 X cl s
 558 211 m -4 -1 d -3 -4 d -1 -7 d -4 Y 1 -6 d 3 -5 d 4 -1 d 3 X 4 1 d 3 5 d 1 6
 d 4 Y -1 7 d -3 4 d -4 1 d -3 X cl s 698 206 m -2 2 d -4 2 d -2 X -4 -2 d -3 -4
 d -2 -6 d -7 Y 2 -6 d 3 -2 d 4 -2 d 1 X 4 2 d 3 2 d 1 5 d 1 Y -1 4 d -3 3 d -4
 1 d -1 X -4 -1 d -3 -3 d -2 -4 d s 697 205 m -2 3 d -4 1 d -2 X -4 -1 d -3 -4 d
 -1 -7 d -7 Y 1 -5 d 3 -3 d 4 -1 d 1 X 4 1 d 3 3 d 1 4 d 1 Y -1 4 d -3 3 d -4 1
 d -1 X -4 -1 d -3 -3 d -1 -4 d s 699 207 m -2 2 d -4 2 d -3 X -4 -2 d -2 -4 d
 -2 -7 d -6 Y 2 -6 d 2 -2 d 4 -2 d 2 X 4 2 d 3 2 d 1 4 d 2 Y -1 4 d -3 2 d -4 2
 d -2 X -4 -2 d -2 -2 d -2 -4 d s 696 204 m -1 3 d -4 1 d -3 X -4 -1 d -3 -4 d
 -1 -7 d -7 Y 1 -5 d 3 -3 d 4 -1 d 1 X 4 1 d 3 3 d 1 4 d 1 Y -1 4 d -3 3 d -4 1
 d -1 X -4 -1 d -3 -3 d -1 -4 d s 699 207 m -1 3 d -4 1 d -3 X -4 -1 d -2 -4 d
 -2 -7 d -6 Y 2 -6 d 2 -3 d 4 -1 d 2 X 4 1 d 2 3 d 2 4 d 2 Y -2 4 d -2 2 d -4 2
 d -2 X -4 -2 d -2 -2 d -2 -4 d s 715 210 m -4 -2 d -3 -4 d -1 -6 d -4 Y 1 -7 d
 3 -4 d 4 -2 d 3 X 4 2 d 3 4 d 1 7 d 4 Y -1 6 d -3 4 d -4 2 d -3 X cl s 714 209
 m -4 -1 d -2 -4 d -2 -7 d -4 Y 2 -7 d 2 -4 d 4 -1 d 3 X 4 1 d 3 4 d 1 7 d 4 Y
 -1 7 d -3 4 d -4 1 d -3 X cl s 716 211 m -4 -2 d -3 -4 d -1 -7 d -4 Y 1 -6 d 3
 -4 d 4 -2 d 3 X 4 2 d 3 4 d 1 6 d 4 Y -1 7 d -3 4 d -4 2 d -3 X cl s 714 208 m
 -5 -1 d -2 -4 d -2 -7 d -4 Y 2 -7 d 2 -4 d 5 -1 d 2 X 4 1 d 3 4 d 1 7 d 4 Y -1
 7 d -3 4 d -4 1 d -2 X cl s 717 211 m -4 -1 d -3 -4 d -1 -7 d -4 Y 1 -6 d 3 -5
 d 4 -1 d 3 X 4 1 d 2 5 d 2 6 d 4 Y -2 7 d -2 4 d -4 1 d -3 X cl s 846 210 m -4
 -2 d -2 -2 d -3 Y 2 -3 d 2 -1 d 6 -1 d 4 -2 d 2 -2 d 2 -3 d -4 Y -2 -3 d -1 -1
 d -4 -2 d -5 X -4 2 d -2 1 d -1 3 d 4 Y 1 3 d 3 2 d 4 2 d 5 1 d 3 1 d 1 3 d 3 Y
 -1 2 d -4 2 d -5 X cl s 845 209 m -4 -1 d -2 -3 d -3 Y 2 -3 d 2 -1 d 6 -1 d 4
 -2 d 3 -2 d 1 -3 d -4 Y -1 -3 d -2 -1 d -4 -1 d -5 X -4 1 d -2 1 d -1 3 d 4 Y 1
 3 d 3 2 d 4 2 d 6 1 d 2 1 d 2 3 d 3 Y -2 3 d -4 1 d -5 X cl s 846 211 m -4 -2 d
 -1 -2 d -3 Y 1 -3 d 3 -1 d 6 -2 d 4 -1 d 2 -3 d 2 -2 d -4 Y -2 -3 d -1 -1 d -4
 -2 d -6 X -4 2 d -1 1 d -1 3 d 4 Y 1 2 d 3 3 d 4 1 d 5 2 d 3 1 d 1 3 d 3 Y -1 2
 d -4 2 d -6 X cl s 844 208 m -4 -1 d -1 -3 d -3 Y 1 -2 d 3 -2 d 5 -1 d 4 -1 d 3
 -3 d 1 -3 d -4 Y -1 -3 d -2 -1 d -4 -1 d -5 X -4 1 d -1 1 d -2 3 d 4 Y 2 3 d 2
 3 d 4 1 d 6 1 d 2 2 d 2 2 d 3 Y -2 3 d -4 1 d -5 X cl s 847 211 m -4 -1 d -1 -3
 d -2 Y 1 -3 d 3 -1 d 5 -2 d 4 -1 d 3 -3 d 1 -2 d -4 Y -1 -3 d -1 -2 d -4 -1 d
 -6 X -4 1 d -1 2 d -1 3 d 4 Y 1 2 d 3 3 d 4 1 d 5 2 d 3 1 d 1 3 d 2 Y -1 3 d -4
 1 d -6 X cl s 874 210 m -4 -2 d -3 -4 d -1 -6 d -4 Y 1 -7 d 3 -4 d 4 -2 d 3 X 4
 2 d 2 4 d 2 7 d 4 Y -2 6 d -2 4 d -4 2 d -3 X cl s 873 209 m -4 -1 d -3 -4 d -1
 -7 d -4 Y 1 -7 d 3 -4 d 4 -1 d 3 X 4 1 d 3 4 d 1 7 d 4 Y -1 7 d -3 4 d -4 1 d
 -3 X cl s 875 211 m -4 -2 d -3 -4 d -1 -7 d -4 Y 1 -6 d 3 -4 d 4 -2 d 3 X 4 2 d
 2 4 d 2 6 d 4 Y -2 7 d -2 4 d -4 2 d -3 X cl s 872 208 m -4 -1 d -2 -4 d -2 -7
 d -4 Y 2 -7 d 2 -4 d 4 -1 d 3 X 4 1 d 3 4 d 1 7 d 4 Y -1 7 d -3 4 d -4 1 d -3 X
 cl s 876 211 m -4 -1 d -3 -4 d -1 -7 d -4 Y 1 -6 d 3 -5 d 4 -1 d 2 X 4 1 d 3 5
 d 1 6 d 4 Y -1 7 d -3 4 d -4 1 d -2 X cl s 1015 200 m -1 -4 d -3 -2 d -4 -2 d
 -1 X -4 2 d -3 2 d -1 4 d 2 Y 1 4 d 3 2 d 4 2 d 1 X 4 -2 d 3 -2 d 1 -6 d -6 Y
 -1 -7 d -3 -4 d -4 -2 d -3 X -4 2 d -1 2 d s 1014 199 m -1 -4 d -3 -2 d -4 -2 d
 -1 X -4 2 d -3 2 d -1 4 d 2 Y 1 4 d 3 3 d 4 1 d 1 X 4 -1 d 3 -3 d 1 -6 d -6 Y
 -1 -7 d -3 -4 d -4 -1 d -2 X -5 1 d -1 3 d s 1016 201 m -1 -4 d -3 -3 d -4 -1 d
 -1 X -4 1 d -3 3 d -1 4 d 2 Y 1 4 d 3 2 d 4 2 d 1 X 4 -2 d 3 -2 d 1 -6 d -7 Y
 -1 -6 d -3 -4 d -4 -2 d -3 X -4 2 d -1 2 d s 1013 199 m -1 -4 d -3 -3 d -4 -1 d
 -1 X -4 1 d -3 3 d -1 4 d 1 Y 1 4 d 3 3 d 4 1 d 1 X 4 -1 d 3 -3 d 1 -5 d -7 Y
 -1 -7 d -3 -4 d -4 -1 d -2 X -4 1 d -2 3 d s 1017 202 m -1 -4 d -3 -3 d -4 -1 d
 -2 X -4 1 d -2 3 d -2 4 d 1 Y 2 4 d 2 3 d 4 1 d 2 X 4 -1 d 3 -3 d 1 -5 d -7 Y
 -1 -6 d -3 -5 d -4 -1 d -3 X -4 1 d -1 3 d s 1033 210 m -4 -2 d -3 -4 d -1 -6 d
 -4 Y 1 -7 d 3 -4 d 4 -2 d 2 X 5 2 d 2 4 d 2 7 d 4 Y -2 6 d -2 4 d -5 2 d -2 X
 cl s 1032 209 m -4 -1 d -3 -4 d -1 -7 d -4 Y 1 -7 d 3 -4 d 4 -1 d 3 X 4 1 d 2 4
 d 2 7 d 4 Y -2 7 d -2 4 d -4 1 d -3 X cl s 1034 211 m -4 -2 d -3 -4 d -1 -7 d
 -4 Y 1 -6 d 3 -4 d 4 -2 d 2 X 4 2 d 3 4 d 1 6 d 4 Y -1 7 d -3 4 d -4 2 d -2 X
 cl s 1031 208 m -4 -1 d -3 -4 d -1 -7 d -4 Y 1 -7 d 3 -4 d 4 -1 d 3 X 4 1 d 2 4
 d 2 7 d 4 Y -2 7 d -2 4 d -4 1 d -3 X cl s 1034 211 m -4 -1 d -2 -4 d -2 -7 d
 -4 Y 2 -6 d 2 -5 d 4 -1 d 3 X 4 1 d 3 5 d 1 6 d 4 Y -1 7 d -3 4 d -4 1 d -3 X
 cl s 794 794 227 227 C 2268 2268 0 0 C black 544 79 m -45 Y s 542 78 m -45 Y s
 545 81 m -46 Y s 541 77 m -46 Y s 547 82 m -45 Y s 529 79 m 30 X s 527 78 m 31
 X s 530 81 m 30 X s 526 77 m 30 X s 531 82 m 31 X s 570 79 m -45 Y s 568 78 m
 -45 Y s 571 81 m -46 Y s 567 77 m -46 Y s 572 82 m -45 Y s 570 79 m 19 X 7 -2 d
 2 -2 d 2 -4 d -5 Y -2 -4 d -2 -2 d -7 -2 d s 568 78 m 20 X 6 -2 d 2 -2 d 3 -5 d
 -4 Y -3 -4 d -2 -2 d -6 -3 d s 571 81 m 20 X 6 -2 d 2 -3 d 2 -4 d -4 Y -2 -5 d
 -2 -2 d -6 -2 d s 567 77 m 19 X 7 -3 d 2 -2 d 2 -4 d -4 Y -2 -5 d -2 -2 d -7 -2
 d s 572 82 m 20 X 6 -2 d 3 -2 d 2 -5 d -4 Y -2 -4 d -3 -2 d -6 -2 d s 570 58 m
 19 X 7 -2 d 2 -3 d 2 -4 d -6 Y -2 -5 d -2 -2 d -7 -2 d -19 X s 568 56 m 20 X 6
 -2 d 2 -2 d 3 -4 d -7 Y -3 -4 d -2 -2 d -6 -2 d -20 X s 571 59 m 20 X 6 -2 d 2
 -2 d 2 -4 d -7 Y -2 -4 d -2 -2 d -6 -3 d -20 X s 567 55 m 19 X 7 -2 d 2 -2 d 2
 -5 d -6 Y -2 -4 d -2 -3 d -7 -2 d -19 X s 572 61 m 20 X 6 -3 d 3 -2 d 2 -4 d -7
 Y -2 -4 d -3 -2 d -6 -2 d -20 X s 645 69 m -2 4 d -4 4 d -4 2 d -9 X -4 -2 d -5
 -4 d -2 -4 d -2 -7 d -11 Y 2 -6 d 2 -4 d 5 -5 d 4 -2 d 9 X 4 2 d 4 5 d 2 4 d 6
 Y s 644 67 m -2 5 d -5 4 d -4 2 d -9 X -4 -2 d -4 -4 d -2 -5 d -2 -6 d -11 Y 2
 -7 d 2 -4 d 4 -4 d 4 -2 d 9 X 4 2 d 5 4 d 2 4 d 7 Y s 647 70 m -2 4 d -5 5 d -4
 2 d -9 X -4 -2 d -4 -5 d -3 -4 d -2 -7 d -10 Y 2 -7 d 3 -4 d 4 -4 d 4 -3 d 9 X
 4 3 d 5 4 d 2 4 d 7 Y s 643 66 m -3 4 d -4 4 d -4 3 d -9 X -4 -3 d -5 -4 d -2
 -4 d -2 -7 d -10 Y 2 -7 d 2 -4 d 5 -5 d 4 -2 d 9 X 4 2 d 4 5 d 3 4 d 7 Y s 648
 71 m -2 5 d -4 4 d -5 2 d -8 X -5 -2 d -4 -4 d -2 -5 d -2 -6 d -11 Y 2 -6 d 2
 -5 d 4 -4 d 5 -2 d 8 X 5 2 d 4 4 d 2 5 d 6 Y s 635 51 m 10 X s 633 50 m 11 X s
 636 53 m 11 X s 632 49 m 11 X s 637 54 m 11 X s 671 79 m -4 -2 d -4 -4 d -3 -4
 d -2 -7 d -11 Y 2 -6 d 3 -4 d 4 -5 d 4 -2 d 9 X 4 2 d 5 5 d 2 4 d 2 6 d 11 Y -2
 7 d -2 4 d -5 4 d -4 2 d -9 X cl s 670 78 m -4 -2 d -5 -4 d -2 -5 d -2 -6 d -11
 Y 2 -7 d 2 -4 d 5 -4 d 4 -2 d 8 X 5 2 d 4 4 d 2 4 d 2 7 d 11 Y -2 6 d -2 5 d -4
 4 d -5 2 d -8 X cl s 673 81 m -5 -2 d -4 -5 d -2 -4 d -2 -7 d -10 Y 2 -7 d 2 -4
 d 4 -4 d 5 -3 d 8 X 5 3 d 4 4 d 2 4 d 2 7 d 10 Y -2 7 d -2 4 d -4 5 d -5 2 d -8
 X cl s 668 77 m -4 -3 d -4 -4 d -2 -4 d -2 -7 d -10 Y 2 -7 d 2 -4 d 4 -5 d 4 -2
 d 9 X 4 2 d 5 5 d 2 4 d 2 7 d 10 Y -2 7 d -2 4 d -5 4 d -4 3 d -9 X cl s 674 82
 m -4 -2 d -5 -4 d -2 -5 d -2 -6 d -11 Y 2 -6 d 2 -5 d 5 -4 d 4 -2 d 9 X 4 2 d 4
 4 d 2 5 d 3 6 d 11 Y -3 6 d -2 5 d -4 4 d -4 2 d -9 X cl s 706 41 m 2 1 d 3 3 d
 -22 Y s 704 40 m 3 1 d 3 3 d -23 Y s 707 42 m 2 1 d 4 4 d -23 Y s 703 38 m 2 1
 d 3 4 d -23 Y s 709 44 m 2 1 d 3 3 d -23 Y s 794 794 227 227 C 2268 2268 0 0 C
 /xs 0 def 
(M Rad)
 /Courier-Bold     68 stwn 
 gsave  1021 102
 t   0 r  xs neg 0 t 0 0 m
 /Courier-Bold findfont   68 sf 0    0 m 
(M Rad)
 show 
 gr
 /xs 0 def 
(ratio)
 /Courier-Bold     68 stwn 
 gsave  79 1021
 t  90 r  xs neg 0 t 0 0 m
 /Courier-Bold findfont   68 sf 0    0 m 
(ratio)
 show 
 gr
 794 794 227 227 C 2268 2268 0 0 C 794 794 227 227 C 2268 2268 0 0 C 886 916 m
 -5 -4 d -4 -7 d -4 -9 d -3 -10 d -9 Y 3 -11 d 4 -8 d 4 -7 d 5 -4 d s 884 914 m
 -4 -4 d -4 -6 d -5 -9 d -2 -11 d -8 Y 2 -11 d 5 -9 d 4 -6 d 4 -5 d s 887 917 m
 -4 -4 d -5 -7 d -4 -8 d -2 -11 d -9 Y 2 -10 d 4 -9 d 5 -7 d 4 -4 d s 883 913 m
 -4 -4 d -5 -7 d -4 -8 d -2 -11 d -9 Y 2 -11 d 4 -8 d 5 -7 d 4 -4 d s 888 919 m
 -4 -5 d -4 -6 d -5 -9 d -2 -11 d -8 Y 2 -11 d 5 -9 d 4 -6 d 4 -5 d s 924 886 m
 -4 4 d -4 2 d -7 X -4 -2 d -4 -4 d -2 -7 d -4 Y 2 -7 d 4 -4 d 4 -2 d 7 X 4 2 d
 4 4 d s 923 884 m -4 5 d -5 2 d -6 X -4 -2 d -5 -5 d -2 -6 d -5 Y 2 -6 d 5 -4 d
 4 -3 d 6 X 5 3 d 4 4 d s 926 887 m -4 4 d -5 2 d -6 X -5 -2 d -4 -4 d -2 -7 d
 -4 Y 2 -6 d 4 -5 d 5 -2 d 6 X 5 2 d 4 5 d s 922 883 m -5 4 d -4 2 d -6 X -5 -2
 d -4 -4 d -2 -7 d -4 Y 2 -6 d 4 -5 d 5 -2 d 6 X 4 2 d 5 5 d s 927 888 m -4 5 d
 -4 2 d -7 X -4 -2 d -5 -5 d -2 -6 d -4 Y 2 -7 d 5 -4 d 4 -2 d 7 X 4 2 d 4 4 d s
 937 916 m 5 -4 d 4 -7 d 4 -9 d 3 -10 d -9 Y -3 -11 d -4 -8 d -4 -7 d -5 -4 d s
 936 914 m 4 -4 d 5 -6 d 4 -9 d 2 -11 d -8 Y -2 -11 d -4 -9 d -5 -6 d -4 -5 d s
 939 917 m 4 -4 d 4 -7 d 5 -8 d 2 -11 d -9 Y -2 -10 d -5 -9 d -4 -7 d -4 -4 d s
 935 913 m 4 -4 d 4 -7 d 5 -8 d 2 -11 d -9 Y -2 -11 d -5 -8 d -4 -7 d -4 -4 d s
 940 919 m 4 -5 d 5 -6 d 4 -9 d 2 -11 d -8 Y -2 -11 d -4 -9 d -5 -6 d -4 -5 d s
 794 794 227 227 C NC 5 lw 0 0 1 c 794 794 1247 227 bl 794 794 1247 227 C 1 lw 1
 0 0 c 1427 535 1340 556 1341 551 1995 557 1637 585 1248 903 6 { m20} R NC 0 0 1
 c 1247 227 m 794 Y s 1304 227 m -57 X s [4 8] 0 sd 2041 227 m -794 X s [] 0 sd
 1304 340 m -57 X s [4 8] 0 sd 2041 340 m -794 X s [] 0 sd 1304 454 m -57 X s
 [4 8] 0 sd 2041 454 m -794 X s [] 0 sd 1304 567 m -57 X s [4 8] 0 sd 2041 567 m
 -794 X s [] 0 sd 1304 680 m -57 X s [4 8] 0 sd 2041 680 m -794 X s [] 0 sd 1304
 794 m -57 X s [4 8] 0 sd 2041 794 m -794 X s [] 0 sd 1304 907 m -57 X s
 [4 8] 0 sd 2041 907 m -794 X s [] 0 sd 1304 1021 m -57 X s [4 8] 0 sd 2041 1021
 m -794 X s [] 0 sd 1169 241 m -4 -1 d -2 -4 d -2 -7 d -4 Y 2 -7 d 2 -4 d 4 -1 d
 3 X 4 1 d 3 4 d 1 7 d 4 Y -1 7 d -3 4 d -4 1 d -3 X cl s 1169 240 m -5 -1 d -2
 -4 d -2 -7 d -4 Y 2 -7 d 2 -4 d 5 -1 d 2 X 4 1 d 3 4 d 1 7 d 4 Y -1 7 d -3 4 d
 -4 1 d -2 X cl s 1170 242 m -4 -2 d -3 -4 d -1 -6 d -4 Y 1 -7 d 3 -4 d 4 -2 d 3
 X 4 2 d 3 4 d 1 7 d 4 Y -1 6 d -3 4 d -4 2 d -3 X cl s 1168 239 m -4 -1 d -3 -4
 d -1 -7 d -4 Y 1 -7 d 3 -4 d 4 -1 d 2 X 4 1 d 3 4 d 1 7 d 4 Y -1 7 d -3 4 d -4
 1 d -2 X cl s 1171 243 m -4 -2 d -3 -4 d -1 -6 d -5 Y 1 -6 d 3 -4 d 4 -2 d 3 X
 4 2 d 3 4 d 1 6 d 5 Y -1 6 d -3 4 d -4 2 d -3 X cl s 1191 215 m -1 -1 d 1 -1 d
 1 1 d -1 1 d cl s 1190 214 m -1 -1 d 1 -1 d 1 1 d -1 1 d cl s 1192 216 m -2 -1
 d 2 -2 d 1 2 d -1 1 d cl s 1189 214 m -1 -2 d 1 -1 d 2 1 d -2 2 d cl s 1193 217
 m -2 -1 d 2 -2 d 1 2 d -1 1 d cl s 1215 241 m -13 -19 d 20 X s 1214 240 m -13
 -19 d 20 X s 1216 242 m -13 -19 d 20 X s 1214 239 m -14 -19 d 20 X s 1217 243 m
 -14 -19 d 21 X s 1215 241 m -28 Y s 1214 240 m -28 Y s 1216 242 m -29 Y s 1214
 239 m -28 Y s 1217 243 m -29 Y s 1169 354 m -4 -1 d -2 -4 d -2 -7 d -4 Y 2 -7 d
 2 -4 d 4 -1 d 3 X 4 1 d 3 4 d 1 7 d 4 Y -1 7 d -3 4 d -4 1 d -3 X cl s 1169 354
 m -5 -2 d -2 -4 d -2 -7 d -4 Y 2 -6 d 2 -4 d 5 -2 d 2 X 4 2 d 3 4 d 1 6 d 4 Y
 -1 7 d -3 4 d -4 2 d -2 X cl s 1170 355 m -4 -1 d -3 -4 d -1 -7 d -4 Y 1 -7 d 3
 -4 d 4 -1 d 3 X 4 1 d 3 4 d 1 7 d 4 Y -1 7 d -3 4 d -4 1 d -3 X cl s 1168 353 m
 -4 -2 d -3 -4 d -1 -6 d -5 Y 1 -6 d 3 -4 d 4 -2 d 2 X 4 2 d 3 4 d 1 6 d 5 Y -1
 6 d -3 4 d -4 2 d -2 X cl s 1171 356 m -4 -1 d -3 -4 d -1 -7 d -4 Y 1 -7 d 3 -4
 d 4 -1 d 3 X 4 1 d 3 4 d 1 7 d 4 Y -1 7 d -3 4 d -4 1 d -3 X cl s 1191 329 m -1
 -2 d 1 -1 d 1 1 d -1 2 d cl s 1190 328 m -1 -1 d 1 -2 d 1 2 d -1 1 d cl s 1192
 330 m -2 -2 d 2 -1 d 1 1 d -1 2 d cl s 1189 327 m -1 -1 d 1 -2 d 2 2 d -2 1 d
 cl s 1193 330 m -2 -1 d 2 -1 d 1 1 d -1 1 d cl s 1218 354 m -14 X -1 -12 d 1 2
 d 5 1 d 4 X 4 -1 d 2 -3 d 2 -4 d -3 Y -2 -4 d -2 -3 d -4 -1 d -4 X -5 1 d -1 2
 d -1 2 d s 1217 354 m -13 X -2 -13 d 2 2 d 4 1 d 4 X 4 -1 d 2 -3 d 2 -4 d -3 Y
 -2 -4 d -2 -2 d -4 -2 d -4 X -4 2 d -2 1 d -1 3 d s 1219 355 m -14 X -1 -12 d 1
 1 d 4 2 d 4 X 4 -2 d 3 -2 d 2 -4 d -3 Y -2 -4 d -3 -3 d -4 -1 d -4 X -4 1 d -1
 2 d -1 2 d s 1216 353 m -13 X -2 -12 d 2 1 d 4 1 d 4 X 4 -1 d 3 -3 d 1 -4 d -3
 Y -1 -4 d -3 -2 d -4 -2 d -4 X -4 2 d -2 1 d -1 3 d s 1220 356 m -14 X -1 -12 d
 1 1 d 4 2 d 4 X 4 -2 d 3 -2 d 1 -4 d -3 Y -1 -4 d -3 -3 d -4 -1 d -4 X -4 1 d
 -1 1 d -2 3 d s 1169 468 m -4 -2 d -2 -4 d -2 -6 d -4 Y 2 -7 d 2 -4 d 4 -2 d 3
 X 4 2 d 3 4 d 1 7 d 4 Y -1 6 d -3 4 d -4 2 d -3 X cl s 1169 467 m -5 -1 d -2 -4
 d -2 -7 d -4 Y 2 -7 d 2 -4 d 5 -1 d 2 X 4 1 d 3 4 d 1 7 d 4 Y -1 7 d -3 4 d -4
 1 d -2 X cl s 1170 469 m -4 -2 d -3 -4 d -1 -7 d -4 Y 1 -6 d 3 -4 d 4 -2 d 3 X
 4 2 d 3 4 d 1 6 d 4 Y -1 7 d -3 4 d -4 2 d -3 X cl s 1168 466 m -4 -1 d -3 -4 d
 -1 -7 d -4 Y 1 -7 d 3 -4 d 4 -1 d 2 X 4 1 d 3 4 d 1 7 d 4 Y -1 7 d -3 4 d -4 1
 d -2 X cl s 1171 469 m -4 -1 d -3 -4 d -1 -7 d -4 Y 1 -6 d 3 -5 d 4 -1 d 3 X 4
 1 d 3 5 d 1 6 d 4 Y -1 7 d -3 4 d -4 1 d -3 X cl s 1191 442 m -1 -1 d 1 -2 d 1
 2 d -1 1 d cl s 1190 441 m -1 -1 d 1 -1 d 1 1 d -1 1 d cl s 1192 443 m -2 -1 d
 2 -2 d 1 2 d -1 1 d cl s 1189 440 m -1 -1 d 1 -1 d 2 1 d -2 1 d cl s 1193 444 m
 -2 -2 d 2 -1 d 1 1 d -1 2 d cl s 1219 464 m -1 2 d -4 2 d -3 X -4 -2 d -3 -4 d
 -1 -6 d -7 Y 1 -6 d 3 -2 d 4 -2 d 2 X 4 2 d 2 2 d 2 5 d 1 Y -2 4 d -2 3 d -4 1
 d -2 X -4 -1 d -3 -3 d -1 -4 d s 1218 463 m -1 3 d -4 1 d -3 X -4 -1 d -2 -4 d
 -2 -7 d -7 Y 2 -5 d 2 -3 d 4 -1 d 2 X 4 1 d 2 3 d 2 4 d 1 Y -2 4 d -2 3 d -4 1
 d -2 X -4 -1 d -2 -3 d -2 -4 d s 1220 465 m -1 2 d -4 2 d -3 X -4 -2 d -3 -4 d
 -1 -7 d -6 Y 1 -6 d 3 -2 d 4 -2 d 1 X 4 2 d 3 2 d 2 4 d 2 Y -2 4 d -3 2 d -4 2
 d -1 X -4 -2 d -3 -2 d -1 -4 d s 1218 462 m -2 3 d -4 1 d -2 X -5 -1 d -2 -4 d
 -2 -7 d -7 Y 2 -5 d 2 -3 d 5 -1 d 1 X 4 1 d 3 3 d 1 4 d 1 Y -1 4 d -3 3 d -4 1
 d -1 X -5 -1 d -2 -3 d -2 -4 d s 1221 465 m -1 3 d -4 1 d -3 X -4 -1 d -3 -4 d
 -1 -7 d -6 Y 1 -6 d 3 -3 d 4 -1 d 1 X 4 1 d 3 3 d 1 4 d 2 Y -1 4 d -3 2 d -4 2
 d -1 X -4 -2 d -3 -2 d -1 -4 d s 1169 581 m -4 -1 d -2 -4 d -2 -7 d -4 Y 2 -7 d
 2 -4 d 4 -1 d 3 X 4 1 d 3 4 d 1 7 d 4 Y -1 7 d -3 4 d -4 1 d -3 X cl s 1169 580
 m -5 -1 d -2 -4 d -2 -7 d -4 Y 2 -7 d 2 -4 d 5 -1 d 2 X 4 1 d 3 4 d 1 7 d 4 Y
 -1 7 d -3 4 d -4 1 d -2 X cl s 1170 582 m -4 -1 d -3 -4 d -1 -7 d -4 Y 1 -7 d 3
 -4 d 4 -1 d 3 X 4 1 d 3 4 d 1 7 d 4 Y -1 7 d -3 4 d -4 1 d -3 X cl s 1168 579 m
 -4 -1 d -3 -4 d -1 -7 d -4 Y 1 -6 d 3 -5 d 4 -1 d 2 X 4 1 d 3 5 d 1 6 d 4 Y -1
 7 d -3 4 d -4 1 d -2 X cl s 1171 583 m -4 -1 d -3 -5 d -1 -6 d -4 Y 1 -7 d 3 -4
 d 4 -1 d 3 X 4 1 d 3 4 d 1 7 d 4 Y -1 6 d -3 5 d -4 1 d -3 X cl s 1191 556 m -1
 -2 d 1 -1 d 1 1 d -1 2 d cl s 1190 555 m -1 -2 d 1 -1 d 1 1 d -1 2 d cl s 1192
 556 m -2 -1 d 2 -1 d 1 1 d -1 1 d cl s 1189 554 m -1 -2 d 1 -1 d 2 1 d -2 2 d
 cl s 1193 557 m -2 -1 d 2 -1 d 1 1 d -1 1 d cl s 1221 581 m -14 -28 d s 1220
 580 m -14 -28 d s 1222 582 m -14 -28 d s 1219 579 m -14 -28 d s 1222 583 m -13
 -28 d s 1202 581 m 19 X s 1201 580 m 19 X s 1203 582 m 19 X s 1200 579 m 19 X s
 1203 583 m 19 X s 1169 695 m -4 -2 d -2 -4 d -2 -7 d -4 Y 2 -6 d 2 -4 d 4 -2 d
 3 X 4 2 d 3 4 d 1 6 d 4 Y -1 7 d -3 4 d -4 2 d -3 X cl s 1169 694 m -5 -2 d -2
 -4 d -2 -6 d -4 Y 2 -7 d 2 -4 d 5 -2 d 2 X 4 2 d 3 4 d 1 7 d 4 Y -1 6 d -3 4 d
 -4 2 d -2 X cl s 1170 695 m -4 -1 d -3 -4 d -1 -7 d -4 Y 1 -7 d 3 -4 d 4 -1 d 3
 X 4 1 d 3 4 d 1 7 d 4 Y -1 7 d -3 4 d -4 1 d -3 X cl s 1168 693 m -4 -1 d -3 -5
 d -1 -6 d -4 Y 1 -7 d 3 -4 d 4 -1 d 2 X 4 1 d 3 4 d 1 7 d 4 Y -1 6 d -3 5 d -4
 1 d -2 X cl s 1171 696 m -4 -1 d -3 -4 d -1 -7 d -4 Y 1 -7 d 3 -4 d 4 -1 d 3 X
 4 1 d 3 4 d 1 7 d 4 Y -1 7 d -3 4 d -4 1 d -3 X cl s 1191 669 m -1 -1 d 1 -2 d
 1 2 d -1 1 d cl s 1190 668 m -1 -1 d 1 -2 d 1 2 d -1 1 d cl s 1192 670 m -2 -2
 d 2 -1 d 1 1 d -1 2 d cl s 1189 667 m -1 -1 d 1 -1 d 2 1 d -2 1 d cl s 1193 671
 m -2 -2 d 2 -1 d 1 1 d -1 2 d cl s 1209 695 m -5 -2 d -1 -2 d -3 Y 1 -3 d 3 -1
 d 6 -2 d 4 -1 d 2 -3 d 2 -2 d -4 Y -2 -3 d -1 -1 d -4 -2 d -5 X -5 2 d -1 1 d
 -1 3 d 4 Y 1 2 d 3 3 d 4 1 d 5 2 d 3 1 d 1 3 d 3 Y -1 2 d -4 2 d -5 X cl s 1208
 694 m -4 -2 d -2 -2 d -3 Y 2 -3 d 2 -1 d 6 -1 d 4 -2 d 2 -2 d 2 -3 d -4 Y -2 -3
 d -1 -1 d -4 -2 d -5 X -4 2 d -2 1 d -1 3 d 4 Y 1 3 d 3 2 d 4 2 d 5 1 d 3 1 d 1
 3 d 3 Y -1 2 d -4 2 d -5 X cl s 1209 695 m -4 -1 d -1 -3 d -2 Y 1 -3 d 3 -1 d 5
 -2 d 4 -1 d 3 -3 d 2 -2 d -5 Y -2 -2 d -1 -2 d -4 -1 d -6 X -4 1 d -1 2 d -1 2
 d 5 Y 1 2 d 3 3 d 4 1 d 5 2 d 3 1 d 1 3 d 2 Y -1 3 d -4 1 d -6 X cl s 1207 693
 m -4 -1 d -2 -3 d -3 Y 2 -3 d 2 -1 d 6 -1 d 4 -2 d 3 -2 d 1 -3 d -4 Y -1 -3 d
 -2 -1 d -4 -1 d -5 X -4 1 d -2 1 d -1 3 d 4 Y 1 3 d 3 2 d 4 2 d 6 1 d 2 1 d 2 3
 d 3 Y -2 3 d -4 1 d -5 X cl s 1210 696 m -4 -1 d -1 -3 d -2 Y 1 -3 d 3 -2 d 5
 -1 d 4 -1 d 3 -3 d 1 -3 d -4 Y -1 -2 d -1 -2 d -4 -1 d -6 X -4 1 d -1 2 d -2 2
 d 4 Y 2 3 d 3 3 d 4 1 d 5 1 d 3 2 d 1 3 d 2 Y -1 3 d -4 1 d -6 X cl s 1169 808
 m -4 -1 d -2 -4 d -2 -7 d -4 Y 2 -7 d 2 -4 d 4 -1 d 3 X 4 1 d 3 4 d 1 7 d 4 Y
 -1 7 d -3 4 d -4 1 d -3 X cl s 1169 807 m -5 -1 d -2 -4 d -2 -7 d -4 Y 2 -7 d 2
 -4 d 5 -1 d 2 X 4 1 d 3 4 d 1 7 d 4 Y -1 7 d -3 4 d -4 1 d -2 X cl s 1170 809 m
 -4 -2 d -3 -4 d -1 -6 d -4 Y 1 -7 d 3 -4 d 4 -2 d 3 X 4 2 d 3 4 d 1 7 d 4 Y -1
 6 d -3 4 d -4 2 d -3 X cl s 1168 806 m -4 -1 d -3 -4 d -1 -7 d -4 Y 1 -7 d 3 -4
 d 4 -1 d 2 X 4 1 d 3 4 d 1 7 d 4 Y -1 7 d -3 4 d -4 1 d -2 X cl s 1171 810 m -4
 -2 d -3 -4 d -1 -6 d -5 Y 1 -6 d 3 -4 d 4 -2 d 3 X 4 2 d 3 4 d 1 6 d 5 Y -1 6 d
 -3 4 d -4 2 d -3 X cl s 1191 782 m -1 -1 d 1 -1 d 1 1 d -1 1 d cl s 1190 781 m
 -1 -1 d 1 -1 d 1 1 d -1 1 d cl s 1192 783 m -2 -1 d 2 -2 d 1 2 d -1 1 d cl s
 1189 781 m -1 -2 d 1 -1 d 2 1 d -2 2 d cl s 1193 784 m -2 -1 d 2 -2 d 1 2 d -1
 1 d cl s 1219 799 m -1 -5 d -3 -2 d -4 -2 d -1 X -4 2 d -3 2 d -1 5 d 1 Y 1 4 d
 3 3 d 4 1 d 1 X 4 -1 d 3 -3 d 1 -5 d -7 Y -1 -7 d -3 -4 d -4 -1 d -2 X -5 1 d
 -1 3 d s 1218 798 m -1 -4 d -3 -3 d -4 -1 d -1 X -4 1 d -3 3 d -1 4 d 1 Y 1 4 d
 3 3 d 4 1 d 1 X 4 -1 d 3 -3 d 1 -5 d -7 Y -1 -7 d -3 -4 d -4 -1 d -2 X -4 1 d
 -2 3 d s 1220 799 m -1 -4 d -3 -2 d -4 -2 d -1 X -4 2 d -3 2 d -1 4 d 2 Y 1 4 d
 3 2 d 4 2 d 1 X 4 -2 d 3 -2 d 1 -6 d -6 Y -1 -7 d -3 -4 d -4 -2 d -3 X -4 2 d
 -1 3 d s 1218 797 m -2 -4 d -2 -3 d -4 -1 d -2 X -4 1 d -3 3 d -1 4 d 1 Y 1 4 d
 3 3 d 4 1 d 2 X 4 -1 d 2 -3 d 2 -5 d -7 Y -2 -7 d -2 -4 d -4 -1 d -3 X -4 1 d
 -2 3 d s 1221 800 m -1 -4 d -3 -3 d -4 -1 d -1 X -4 1 d -3 3 d -2 4 d 2 Y 2 4 d
 3 2 d 4 2 d 1 X 4 -2 d 3 -2 d 1 -6 d -7 Y -1 -6 d -3 -4 d -4 -2 d -3 X -4 2 d
 -1 2 d s 1165 916 m 3 1 d 4 4 d -28 Y s 1164 915 m 3 1 d 4 5 d -29 Y s 1166 917
 m 3 1 d 4 4 d -28 Y s 1164 914 m 2 2 d 4 4 d -29 Y s 1167 918 m 3 1 d 4 4 d -28
 Y s 1191 896 m -1 -2 d 1 -1 d 1 1 d -1 2 d cl s 1190 895 m -1 -1 d 1 -2 d 1 2 d
 -1 1 d cl s 1192 897 m -2 -2 d 2 -1 d 1 1 d -1 2 d cl s 1189 894 m -1 -1 d 1 -2
 d 2 2 d -2 1 d cl s 1193 897 m -2 -1 d 2 -1 d 1 1 d -1 1 d cl s 1210 921 m -4
 -1 d -3 -4 d -1 -7 d -4 Y 1 -7 d 3 -4 d 4 -1 d 3 X 4 1 d 2 4 d 2 7 d 4 Y -2 7 d
 -2 4 d -4 1 d -3 X cl s 1209 921 m -4 -2 d -3 -4 d -1 -7 d -4 Y 1 -6 d 3 -4 d 4
 -2 d 3 X 4 2 d 2 4 d 2 6 d 4 Y -2 7 d -2 4 d -4 2 d -3 X cl s 1211 922 m -4 -1
 d -3 -4 d -1 -7 d -4 Y 1 -7 d 3 -4 d 4 -1 d 2 X 4 1 d 3 4 d 2 7 d 4 Y -2 7 d -3
 4 d -4 1 d -2 X cl s 1208 920 m -4 -2 d -3 -4 d -1 -6 d -5 Y 1 -6 d 3 -4 d 4 -2
 d 3 X 4 2 d 3 4 d 1 6 d 5 Y -1 6 d -3 4 d -4 2 d -3 X cl s 1212 923 m -4 -1 d
 -3 -4 d -2 -7 d -4 Y 2 -7 d 3 -4 d 4 -1 d 2 X 4 1 d 3 4 d 1 7 d 4 Y -1 7 d -3 4
 d -4 1 d -2 X cl s 1247 227 m 794 X s 1247 284 m -57 Y s [4 8] 0 sd 1247 1021 m
 -794 Y s [] 0 sd 1406 284 m -57 Y s [4 8] 0 sd 1406 1021 m -794 Y s [] 0 sd
 1565 284 m -57 Y s [4 8] 0 sd 1565 1021 m -794 Y s [] 0 sd 1724 284 m -57 Y s
 [4 8] 0 sd 1724 1021 m -794 Y s [] 0 sd 1882 284 m -57 Y s [4 8] 0 sd 1882 1021
 m -794 Y s [] 0 sd 2041 284 m -57 Y s [4 8] 0 sd 2041 1021 m -794 Y s [] 0 sd
 1246 210 m -4 -2 d -3 -4 d -1 -6 d -4 Y 1 -7 d 3 -4 d 4 -2 d 3 X 4 2 d 3 4 d 1
 7 d 4 Y -1 6 d -3 4 d -4 2 d -3 X cl s 1245 209 m -4 -1 d -3 -4 d -1 -7 d -4 Y
 1 -7 d 3 -4 d 4 -1 d 3 X 4 1 d 3 4 d 1 7 d 4 Y -1 7 d -3 4 d -4 1 d -3 X cl s
 1247 211 m -4 -2 d -3 -4 d -1 -7 d -4 Y 1 -6 d 3 -4 d 4 -2 d 3 X 4 2 d 2 4 d 2
 6 d 4 Y -2 7 d -2 4 d -4 2 d -3 X cl s 1244 208 m -4 -1 d -2 -4 d -2 -7 d -4 Y
 2 -7 d 2 -4 d 4 -1 d 3 X 4 1 d 3 4 d 1 7 d 4 Y -1 7 d -3 4 d -4 1 d -3 X cl s
 1248 211 m -4 -1 d -3 -4 d -1 -7 d -4 Y 1 -6 d 3 -5 d 4 -1 d 2 X 5 1 d 2 5 d 2
 6 d 4 Y -2 7 d -2 4 d -5 1 d -2 X cl s 1385 203 m 1 Y 1 3 d 1 1 d 3 2 d 5 X 3
 -2 d 1 -1 d 2 -3 d -2 Y -2 -3 d -2 -4 d -14 -14 d 19 X s 1384 202 m 2 Y 1 2 d 1
 2 d 3 1 d 6 X 2 -1 d 2 -2 d 1 -2 d -3 Y -1 -3 d -3 -4 d -14 -13 d 19 X s 1385
 204 m 1 Y 2 3 d 1 1 d 3 2 d 5 X 3 -2 d 1 -1 d 2 -3 d -2 Y -2 -3 d -2 -4 d -14
 -14 d 19 X s 1383 201 m 2 Y 1 2 d 2 2 d 2 1 d 6 X 2 -1 d 2 -2 d 1 -2 d -3 Y -1
 -3 d -3 -4 d -13 -13 d 18 X s 1386 205 m 1 Y 2 3 d 1 1 d 3 1 d 5 X 3 -1 d 1 -1
 d 1 -3 d -3 Y -1 -2 d -3 -4 d -13 -14 d 19 X s 1418 210 m -4 -2 d -2 -4 d -2 -6
 d -4 Y 2 -7 d 2 -4 d 4 -2 d 3 X 4 2 d 3 4 d 1 7 d 4 Y -1 6 d -3 4 d -4 2 d -3 X
 cl s 1417 209 m -4 -1 d -2 -4 d -2 -7 d -4 Y 2 -7 d 2 -4 d 4 -1 d 3 X 4 1 d 3 4
 d 1 7 d 4 Y -1 7 d -3 4 d -4 1 d -3 X cl s 1419 211 m -4 -2 d -3 -4 d -1 -7 d
 -4 Y 1 -6 d 3 -4 d 4 -2 d 3 X 4 2 d 3 4 d 1 6 d 4 Y -1 7 d -3 4 d -4 2 d -3 X
 cl s 1417 208 m -4 -1 d -3 -4 d -1 -7 d -4 Y 1 -7 d 3 -4 d 4 -1 d 2 X 4 1 d 3 4
 d 1 7 d 4 Y -1 7 d -3 4 d -4 1 d -2 X cl s 1420 211 m -4 -1 d -3 -4 d -1 -7 d
 -4 Y 1 -6 d 3 -5 d 4 -1 d 3 X 4 1 d 2 5 d 2 6 d 4 Y -2 7 d -2 4 d -4 1 d -3 X
 cl s 1555 210 m -13 -19 d 20 X s 1555 209 m -14 -19 d 20 X s 1556 211 m -13 -19
 d 20 X s 1554 208 m -14 -19 d 21 X s 1557 211 m -13 -18 d 20 X s 1555 210 m -29
 Y s 1555 209 m -28 Y s 1556 211 m -29 Y s 1554 208 m -28 Y s 1557 211 m -28 Y s
 1577 210 m -4 -2 d -3 -4 d -1 -6 d -4 Y 1 -7 d 3 -4 d 4 -2 d 3 X 4 2 d 3 4 d 1
 7 d 4 Y -1 6 d -3 4 d -4 2 d -3 X cl s 1576 209 m -4 -1 d -3 -4 d -1 -7 d -4 Y
 1 -7 d 3 -4 d 4 -1 d 3 X 4 1 d 3 4 d 1 7 d 4 Y -1 7 d -3 4 d -4 1 d -3 X cl s
 1578 211 m -4 -2 d -3 -4 d -1 -7 d -4 Y 1 -6 d 3 -4 d 4 -2 d 3 X 4 2 d 2 4 d 2
 6 d 4 Y -2 7 d -2 4 d -4 2 d -3 X cl s 1575 208 m -4 -1 d -2 -4 d -2 -7 d -4 Y
 2 -7 d 2 -4 d 4 -1 d 3 X 4 1 d 3 4 d 1 7 d 4 Y -1 7 d -3 4 d -4 1 d -3 X cl s
 1579 211 m -4 -1 d -3 -4 d -1 -7 d -4 Y 1 -6 d 3 -5 d 4 -1 d 2 X 5 1 d 2 5 d 2
 6 d 4 Y -2 7 d -2 4 d -5 1 d -2 X cl s 1718 206 m -1 2 d -4 2 d -3 X -4 -2 d -3
 -4 d -1 -6 d -7 Y 1 -6 d 3 -2 d 4 -2 d 2 X 4 2 d 2 2 d 2 5 d 1 Y -2 4 d -2 3 d
 -4 1 d -2 X -4 -1 d -3 -3 d -1 -4 d s 1717 205 m -1 3 d -4 1 d -3 X -4 -1 d -2
 -4 d -2 -7 d -7 Y 2 -5 d 2 -3 d 4 -1 d 2 X 4 1 d 2 3 d 2 4 d 1 Y -2 4 d -2 3 d
 -4 1 d -2 X -4 -1 d -2 -3 d -2 -4 d s 1719 207 m -1 2 d -4 2 d -3 X -4 -2 d -3
 -4 d -1 -7 d -6 Y 1 -6 d 3 -2 d 4 -2 d 1 X 4 2 d 3 2 d 1 4 d 2 Y -1 4 d -3 2 d
 -4 2 d -1 X -4 -2 d -3 -2 d -1 -4 d s 1717 204 m -2 3 d -4 1 d -3 X -4 -1 d -2
 -4 d -2 -7 d -7 Y 2 -5 d 2 -3 d 4 -1 d 2 X 4 1 d 3 3 d 1 4 d 1 Y -1 4 d -3 3 d
 -4 1 d -2 X -4 -1 d -2 -3 d -2 -4 d s 1720 207 m -1 3 d -4 1 d -3 X -4 -1 d -3
 -4 d -1 -7 d -6 Y 1 -6 d 3 -3 d 4 -1 d 1 X 4 1 d 3 3 d 1 4 d 2 Y -1 4 d -3 2 d
 -4 2 d -1 X -4 -2 d -3 -2 d -1 -4 d s 1736 210 m -4 -2 d -3 -4 d -1 -6 d -4 Y 1
 -7 d 3 -4 d 4 -2 d 3 X 4 2 d 2 4 d 2 7 d 4 Y -2 6 d -2 4 d -4 2 d -3 X cl s
 1735 209 m -4 -1 d -3 -4 d -1 -7 d -4 Y 1 -7 d 3 -4 d 4 -1 d 3 X 4 1 d 2 4 d 2
 7 d 4 Y -2 7 d -2 4 d -4 1 d -3 X cl s 1737 211 m -4 -2 d -3 -4 d -1 -7 d -4 Y
 1 -6 d 3 -4 d 4 -2 d 2 X 4 2 d 3 4 d 1 6 d 4 Y -1 7 d -3 4 d -4 2 d -2 X cl s
 1734 208 m -4 -1 d -3 -4 d -1 -7 d -4 Y 1 -7 d 3 -4 d 4 -1 d 3 X 4 1 d 3 4 d 1
 7 d 4 Y -1 7 d -3 4 d -4 1 d -3 X cl s 1738 211 m -5 -1 d -2 -4 d -2 -7 d -4 Y
 2 -6 d 2 -5 d 5 -1 d 2 X 4 1 d 3 5 d 1 6 d 4 Y -1 7 d -3 4 d -4 1 d -2 X cl s
 1866 210 m -4 -2 d -1 -2 d -3 Y 1 -3 d 3 -1 d 5 -1 d 4 -2 d 3 -2 d 1 -3 d -4 Y
 -1 -3 d -1 -1 d -4 -2 d -6 X -4 2 d -1 1 d -2 3 d 4 Y 2 3 d 3 2 d 4 2 d 5 1 d 3
 1 d 1 3 d 3 Y -1 2 d -4 2 d -6 X cl s 1865 209 m -4 -1 d -1 -3 d -3 Y 1 -3 d 3
 -1 d 5 -1 d 4 -2 d 3 -2 d 2 -3 d -4 Y -2 -3 d -1 -1 d -4 -1 d -6 X -4 1 d -1 1
 d -1 3 d 4 Y 1 3 d 3 2 d 4 2 d 5 1 d 3 1 d 1 3 d 3 Y -1 3 d -4 1 d -6 X cl s
 1867 211 m -4 -2 d -1 -2 d -3 Y 1 -3 d 3 -1 d 5 -2 d 4 -1 d 3 -3 d 1 -2 d -4 Y
 -1 -3 d -1 -1 d -5 -2 d -5 X -4 2 d -1 1 d -2 3 d 4 Y 2 2 d 2 3 d 4 1 d 6 2 d 3
 1 d 1 3 d 3 Y -1 2 d -5 2 d -5 X cl s 1865 208 m -5 -1 d -1 -3 d -3 Y 1 -2 d 3
 -2 d 6 -1 d 4 -1 d 2 -3 d 2 -3 d -4 Y -2 -3 d -1 -1 d -4 -1 d -5 X -5 1 d -1 1
 d -1 3 d 4 Y 1 3 d 3 3 d 4 1 d 5 1 d 3 2 d 1 2 d 3 Y -1 3 d -4 1 d -5 X cl s
 1868 211 m -4 -1 d -1 -3 d -2 Y 1 -3 d 3 -1 d 5 -2 d 4 -1 d 3 -3 d 1 -2 d -4 Y
 -1 -3 d -2 -2 d -4 -1 d -5 X -4 1 d -1 2 d -2 3 d 4 Y 2 2 d 2 3 d 4 1 d 6 2 d 2
 1 d 2 3 d 2 Y -2 3 d -4 1 d -5 X cl s 1895 210 m -4 -2 d -3 -4 d -2 -6 d -4 Y 2
 -7 d 3 -4 d 4 -2 d 2 X 4 2 d 3 4 d 1 7 d 4 Y -1 6 d -3 4 d -4 2 d -2 X cl s
 1894 209 m -4 -1 d -3 -4 d -1 -7 d -4 Y 1 -7 d 3 -4 d 4 -1 d 2 X 4 1 d 3 4 d 2
 7 d 4 Y -2 7 d -3 4 d -4 1 d -2 X cl s 1895 211 m -4 -2 d -2 -4 d -2 -7 d -4 Y
 2 -6 d 2 -4 d 4 -2 d 3 X 4 2 d 3 4 d 1 6 d 4 Y -1 7 d -3 4 d -4 2 d -3 X cl s
 1893 208 m -4 -1 d -3 -4 d -1 -7 d -4 Y 1 -7 d 3 -4 d 4 -1 d 3 X 4 1 d 2 4 d 2
 7 d 4 Y -2 7 d -2 4 d -4 1 d -3 X cl s 1896 211 m -4 -1 d -2 -4 d -2 -7 d -4 Y
 2 -6 d 2 -5 d 4 -1 d 3 X 4 1 d 3 5 d 1 6 d 4 Y -1 7 d -3 4 d -4 1 d -3 X cl s
 2036 200 m -2 -4 d -2 -2 d -4 -2 d -2 X -4 2 d -2 2 d -2 4 d 2 Y 2 4 d 2 2 d 4
 2 d 2 X 4 -2 d 2 -2 d 2 -6 d -6 Y -2 -7 d -2 -4 d -4 -2 d -3 X -4 2 d -1 2 d s
 2035 199 m -1 -4 d -3 -2 d -4 -2 d -2 X -4 2 d -2 2 d -2 4 d 2 Y 2 4 d 2 3 d 4
 1 d 2 X 4 -1 d 3 -3 d 1 -6 d -6 Y -1 -7 d -3 -4 d -4 -1 d -3 X -4 1 d -1 3 d s
 2037 201 m -2 -4 d -2 -3 d -4 -1 d -2 X -4 1 d -3 3 d -1 4 d 2 Y 1 4 d 3 2 d 4
 2 d 2 X 4 -2 d 2 -2 d 2 -6 d -7 Y -2 -6 d -2 -4 d -4 -2 d -3 X -4 2 d -2 2 d s
 2034 199 m -1 -4 d -3 -3 d -4 -1 d -1 X -4 1 d -3 3 d -1 4 d 1 Y 1 4 d 3 3 d 4
 1 d 1 X 4 -1 d 3 -3 d 1 -5 d -7 Y -1 -7 d -3 -4 d -4 -1 d -3 X -4 1 d -1 3 d s
 2038 202 m -2 -4 d -3 -3 d -4 -1 d -1 X -4 1 d -3 3 d -1 4 d 1 Y 1 4 d 3 3 d 4
 1 d 1 X 4 -1 d 3 -3 d 2 -5 d -7 Y -2 -6 d -3 -5 d -4 -1 d -2 X -4 1 d -2 3 d s
 2053 210 m -4 -2 d -2 -4 d -2 -6 d -4 Y 2 -7 d 2 -4 d 4 -2 d 3 X 4 2 d 3 4 d 1
 7 d 4 Y -1 6 d -3 4 d -4 2 d -3 X cl s 2052 209 m -4 -1 d -2 -4 d -2 -7 d -4 Y
 2 -7 d 2 -4 d 4 -1 d 3 X 4 1 d 3 4 d 1 7 d 4 Y -1 7 d -3 4 d -4 1 d -3 X cl s
 2054 211 m -4 -2 d -3 -4 d -1 -7 d -4 Y 1 -6 d 3 -4 d 4 -2 d 3 X 4 2 d 3 4 d 1
 6 d 4 Y -1 7 d -3 4 d -4 2 d -3 X cl s 2052 208 m -4 -1 d -3 -4 d -1 -7 d -4 Y
 1 -7 d 3 -4 d 4 -1 d 2 X 4 1 d 3 4 d 1 7 d 4 Y -1 7 d -3 4 d -4 1 d -2 X cl s
 2055 211 m -4 -1 d -3 -4 d -1 -7 d -4 Y 1 -6 d 3 -5 d 4 -1 d 3 X 4 1 d 3 5 d 1
 6 d 4 Y -1 7 d -3 4 d -4 1 d -3 X cl s 794 794 1247 227 C 2268 2268 0 0 C black
 1564 79 m -45 Y s 1563 78 m -45 Y s 1566 81 m -46 Y s 1562 77 m -46 Y s 1567 82
 m -45 Y s 1549 79 m 31 X s 1548 78 m 30 X s 1551 81 m 30 X s 1547 77 m 30 X s
 1552 82 m 30 X s 1590 79 m -45 Y s 1589 78 m -45 Y s 1592 81 m -46 Y s 1588 77
 m -46 Y s 1593 82 m -45 Y s 1590 79 m 20 X 6 -2 d 2 -2 d 3 -4 d -5 Y -3 -4 d -2
 -2 d -6 -2 d s 1589 78 m 19 X 7 -2 d 2 -2 d 2 -5 d -4 Y -2 -4 d -2 -2 d -7 -3 d
 s 1592 81 m 19 X 7 -2 d 2 -3 d 2 -4 d -4 Y -2 -5 d -2 -2 d -7 -2 d s 1588 77 m
 19 X 6 -3 d 3 -2 d 2 -4 d -4 Y -2 -5 d -3 -2 d -6 -2 d s 1593 82 m 19 X 7 -2 d
 2 -2 d 2 -5 d -4 Y -2 -4 d -2 -2 d -7 -2 d s 1590 58 m 20 X 6 -2 d 2 -3 d 3 -4
 d -6 Y -3 -5 d -2 -2 d -6 -2 d -20 X s 1589 56 m 19 X 7 -2 d 2 -2 d 2 -4 d -7 Y
 -2 -4 d -2 -2 d -7 -2 d -19 X s 1592 59 m 19 X 7 -2 d 2 -2 d 2 -4 d -7 Y -2 -4
 d -2 -2 d -7 -3 d -19 X s 1588 55 m 19 X 6 -2 d 3 -2 d 2 -5 d -6 Y -2 -4 d -3
 -3 d -6 -2 d -19 X s 1593 61 m 19 X 7 -3 d 2 -2 d 2 -4 d -7 Y -2 -4 d -2 -2 d
 -7 -2 d -19 X s 1666 69 m -2 4 d -5 4 d -4 2 d -9 X -4 -2 d -4 -4 d -2 -4 d -2
 -7 d -11 Y 2 -6 d 2 -4 d 4 -5 d 4 -2 d 9 X 4 2 d 5 5 d 2 4 d 6 Y s 1665 67 m -3
 5 d -4 4 d -4 2 d -9 X -4 -2 d -5 -4 d -2 -5 d -2 -6 d -11 Y 2 -7 d 2 -4 d 5 -4
 d 4 -2 d 9 X 4 2 d 4 4 d 3 4 d 7 Y s 1667 70 m -2 4 d -4 5 d -5 2 d -8 X -4 -2
 d -5 -5 d -2 -4 d -2 -7 d -10 Y 2 -7 d 2 -4 d 5 -4 d 4 -3 d 8 X 5 3 d 4 4 d 2 4
 d 7 Y s 1663 66 m -2 4 d -4 4 d -5 3 d -8 X -5 -3 d -4 -4 d -2 -4 d -2 -7 d -10
 Y 2 -7 d 2 -4 d 4 -5 d 5 -2 d 8 X 5 2 d 4 5 d 2 4 d 7 Y s 1669 71 m -3 5 d -4 4
 d -4 2 d -9 X -4 -2 d -4 -4 d -3 -5 d -2 -6 d -11 Y 2 -6 d 3 -5 d 4 -4 d 4 -2 d
 9 X 4 2 d 4 4 d 3 5 d 6 Y s 1655 51 m 11 X s 1654 50 m 11 X s 1656 53 m 11 X s
 1652 49 m 11 X s 1658 54 m 11 X s 1692 79 m -5 -2 d -4 -4 d -2 -4 d -2 -7 d -11
 Y 2 -6 d 2 -4 d 4 -5 d 5 -2 d 8 X 5 2 d 4 5 d 2 4 d 2 6 d 11 Y -2 7 d -2 4 d -4
 4 d -5 2 d -8 X cl s 1690 78 m -4 -2 d -4 -4 d -2 -5 d -3 -6 d -11 Y 3 -7 d 2
 -4 d 4 -4 d 4 -2 d 9 X 4 2 d 5 4 d 2 4 d 2 7 d 11 Y -2 6 d -2 5 d -5 4 d -4 2 d
 -9 X cl s 1693 81 m -4 -2 d -4 -5 d -3 -4 d -2 -7 d -10 Y 2 -7 d 3 -4 d 4 -4 d
 4 -3 d 9 X 4 3 d 4 4 d 3 4 d 2 7 d 10 Y -2 7 d -3 4 d -4 5 d -4 2 d -9 X cl s
 1689 77 m -4 -3 d -5 -4 d -2 -4 d -2 -7 d -10 Y 2 -7 d 2 -4 d 5 -5 d 4 -2 d 9 X
 4 2 d 4 5 d 3 4 d 2 7 d 10 Y -2 7 d -3 4 d -4 4 d -4 3 d -9 X cl s 1695 82 m -5
 -2 d -4 -4 d -2 -5 d -2 -6 d -11 Y 2 -6 d 2 -5 d 4 -4 d 5 -2 d 8 X 5 2 d 4 4 d
 2 5 d 2 6 d 11 Y -2 6 d -2 5 d -4 4 d -5 2 d -8 X cl s 1724 40 m 1 Y 1 2 d 1 1
 d 3 1 d 4 X 2 -1 d 1 -1 d 1 -2 d -2 Y -1 -2 d -2 -4 d -11 -10 d 15 X s 1723 39
 m 1 Y 1 2 d 1 1 d 2 1 d 4 X 3 -1 d 1 -1 d 1 -2 d -2 Y -1 -3 d -2 -3 d -11 -11 d
 15 X s 1726 41 m 1 Y 1 3 d 1 1 d 2 1 d 4 X 2 -1 d 1 -1 d 2 -3 d -2 Y -2 -2 d -2
 -3 d -10 -11 d 15 X s 1721 37 m 1 Y 2 2 d 1 2 d 2 1 d 4 X 2 -1 d 1 -2 d 1 -2 d
 -2 Y -1 -2 d -2 -3 d -11 -11 d 16 X s 1727 43 m 1 Y 1 2 d 1 1 d 2 1 d 5 X 2 -1
 d 1 -1 d 1 -2 d -2 Y -1 -3 d -2 -3 d -11 -11 d 15 X s 794 794 1247 227 C 2268
 2268 0 0 C
 /xs 0 def 
(M Rad)
 /Courier-Bold     68 stwn 
 gsave  2041 102
 t   0 r  xs neg 0 t 0 0 m
 /Courier-Bold findfont   68 sf 0    0 m 
(M Rad)
 show 
 gr
 /xs 0 def 
(ratio)
 /Courier-Bold     68 stwn 
 gsave  1100 1021
 t  90 r  xs neg 0 t 0 0 m
 /Courier-Bold findfont   68 sf 0    0 m 
(ratio)
 show 
 gr
 794 794 1247 227 C 2268 2268 0 0 C 794 794 1247 227 C 2268 2268 0 0 C 1906 916
 m -4 -4 d -4 -7 d -5 -9 d -2 -10 d -9 Y 2 -11 d 5 -8 d 4 -7 d 4 -4 d s 1905 914
 m -4 -4 d -5 -6 d -4 -9 d -2 -11 d -8 Y 2 -11 d 4 -9 d 5 -6 d 4 -5 d s 1908 917
 m -5 -4 d -4 -7 d -4 -8 d -3 -11 d -9 Y 3 -10 d 4 -9 d 4 -7 d 5 -4 d s 1903 913
 m -4 -4 d -4 -7 d -4 -8 d -3 -11 d -9 Y 3 -11 d 4 -8 d 4 -7 d 4 -4 d s 1909 919
 m -4 -5 d -5 -6 d -4 -9 d -2 -11 d -8 Y 2 -11 d 4 -9 d 5 -6 d 4 -5 d s 1945 907
 m -45 Y s 1944 906 m -46 Y s 1946 909 m -46 Y s 1942 904 m -45 Y s 1948 910 m
 -45 Y s 1945 886 m -4 4 d -5 2 d -6 X -4 -2 d -5 -4 d -2 -7 d -4 Y 2 -7 d 5 -4
 d 4 -2 d 6 X 5 2 d 4 4 d s 1944 884 m -5 5 d -4 2 d -6 X -5 -2 d -4 -5 d -2 -6
 d -5 Y 2 -6 d 4 -4 d 5 -3 d 6 X 4 3 d 5 4 d s 1946 887 m -4 4 d -4 2 d -7 X -4
 -2 d -4 -4 d -2 -7 d -4 Y 2 -6 d 4 -5 d 4 -2 d 7 X 4 2 d 4 5 d s 1942 883 m -4
 4 d -4 2 d -7 X -4 -2 d -4 -4 d -3 -7 d -4 Y 3 -6 d 4 -5 d 4 -2 d 7 X 4 2 d 4 5
 d s 1948 888 m -5 5 d -4 2 d -6 X -5 -2 d -4 -5 d -2 -6 d -4 Y 2 -7 d 4 -4 d 5
 -2 d 6 X 4 2 d 5 4 d s 1960 916 m 5 -4 d 4 -7 d 4 -9 d 2 -10 d -9 Y -2 -11 d -4
 -8 d -4 -7 d -5 -4 d s 1959 914 m 4 -4 d 4 -6 d 5 -9 d 2 -11 d -8 Y -2 -11 d -5
 -9 d -4 -6 d -4 -5 d s 1962 917 m 4 -4 d 4 -7 d 5 -8 d 2 -11 d -9 Y -2 -10 d -5
 -9 d -4 -7 d -4 -4 d s 1957 913 m 5 -4 d 4 -7 d 4 -8 d 3 -11 d -9 Y -3 -11 d -4
 -8 d -4 -7 d -5 -4 d s 1963 919 m 4 -5 d 5 -6 d 4 -9 d 2 -11 d -8 Y -2 -11 d -4
 -9 d -5 -6 d -4 -5 d s 794 794 1247 227 C
gr gr showpage
end
%%EOF
