%!PS-Adobe-2.0 EPSF-2.0
%%BoundingBox: 0 0 567 567
%%Title: efcdet.eps
%%Creator: HIGZ Version 1.21/10
%%CreationDate: 99/08/23   14.32
%%EndComments
80 dict begin
/s {stroke} def /l {lineto} def /m {moveto} def /t {translate} def
/sw {stringwidth} def /r {rotate} def /rl {roll}  def /R {repeat} def
/d {rlineto} def /rm {rmoveto} def /gr {grestore} def /f {eofill} def
/c {setrgbcolor} def /lw {setlinewidth} def /sd {setdash} def
/cl {closepath} def /sf {scalefont setfont} def /black {0 setgray} def
/box {m dup 0 exch d exch 0 d 0 exch neg d cl} def
/C {initclip box clip newpath} def /NC {initclip} def
/bl {box s} def /bf {box f} def /Y { 0 exch d} def /X { 0 d} def 
/mp {newpath /y exch def /x exch def} def
/side {[w .77 mul w .23 mul] .385 w mul sd w 0 l currentpoint t -144 r} def
/mr {mp x y w2 0 360 arc} def /m24 {mr s} def /m20 {mr f} def
/mb {mp x y w2 add m w2 neg 0 d 0 w neg d w 0 d 0 w d cl} def
/mt {mp x y w2 add m w2 neg w neg d w 0 d cl} def
/m21 {mb f} def /m25 {mb s} def /m22 {mt f} def /m26 {mt s} def
/m23 {mp x y w2 sub m w2 w d w neg 0 d cl f} def
/m27 {mp x y w2 add m w3 neg w2 neg d w3 w2 neg d w3  w2 d cl s} def
/m28 {mp x w2 sub y w2 sub w3 add m w3 0 d 0 w3 neg d w3 0 d 0 w3 d w3 0 d
 0 w3 d w3 neg 0 d 0 w3 d w3 neg 0 d
 0 w3 neg d w3 neg 0 d cl s } def
/m29 {mp gsave x w2 sub y w2 add w3 sub m currentpoint t
 4 {side} repeat cl fill gr} def
/m30 {mp gsave x w2 sub y w2 add w3 sub m currentpoint t
 5 {side} repeat s gr} def
/m31 {mp x y w2 sub m 0 w d x w2 sub y m w 0 d
 x w2 sub y w2 add m w w neg d x w2 sub y w2
 sub m w w d s} def
/m2 {mp x y w2 sub m 0 w d x w2 sub y m w 0 d s} def
/m5 {mp x w2 sub y w2 sub m w w d x w2 sub y w2 add m w w neg d s} def
/DP {/PT exch def gsave 47.2 47.2 scale PT 1 eq { 16 16 1 [ 16 0 0 16 neg 0 16
] { < AA AA 55 55 AA AA 55 55 AA AA 55 55 AA AA 55 55 AA AA 55 55 AA AA 55 55
AA AA 55 55 AA AA 55 55 > } image } if PT 2 eq { 16 16 1 [ 16 0 0 16 neg 0 16
] { < BB BB EE EE BB BB EE EE BB BB EE EE BB BB EE EE BB BB EE EE BB BB EE EE
BB BB EE EE BB BB EE EE > } image } if PT 3 eq { 16 16 1 [ 16 0 0 16 neg 0 16
] { < FF FF BB BB FF FF EE EE FF FF BB BB FF FF EE EE FF FF BB BB FF FF EE EE
FF FF BB BB FF FF EE EE > } image } if PT 4 eq { 16 16 1 [ 16 0 0 16 neg 0 16
] { < DF DF BF BF 7F 7F FE FE FD FD FB FB F7 F7 EF EF DF DF BF BF 7F 7F FE FE
FD FD FB FB F7 F7 EF EF > } image } if PT 5 eq { 16 16 1 [ 16 0 0 16 neg 0 16
] { < 7F 7F BF B F DF DF EF EF F7 F7 FB FB FD FD FE FE 7F 7F BF BF DF DF EF
EF F7 F7 FB FB FD FD FE FE > } image } if PT 6 eq { 16 16 1 [ 16 0 0 16 neg 0
16 ] { < BB BB BB BB BB BB BB BB BB BB BB BB BB BB BB BB BB BB BB BB BB BB BB
BB BB BB BB BB BB BB BB BB > } image } if PT 7 eq { 16 16 1 [ 16 0 0 16 neg 0
16 ] { < FF FF FF FF FF FF 00 00 FF FF FF FF FF FF 00 00 FF FF FF FF FF FF 00
00 FF FF FF FF FF FF 00 00 > } image } if PT 8 eq { 16 16 1 [ 16 0 0 16 neg 0
16 ] { < EE EE 47 47 83 83 C5 C5 EE EE 5C 5C 38 38 74 74 EE EE 47 47 83 83 C5
C5 EE EE 5C 5C 38 38 74 74 > } image } if PT 9 eq { 16 16 1 [ 16 0 0 16 neg 0
16 ] { < EF EF EF EF D7 D7 38 38 FE FE FE FE 7D 7D 83 83 EF EF EF EF D7 D7 38
38 FE FE FE FE 7D 7D 83 83 > } image } if PT 10 eq { 16 16 1 [ 16 0 0 16 neg
0 16 ] { < EF EF EF EF EF EF 00 00 FE FE FE FE FE FE 00 00 EF EF EF EF EF EF
00 00 FE FE FE FE FE FE 00 00 > } image } if PT 11 eq { 16 16 1 [ 16 0 0 16
neg 0 16 ] { < F7 F7 B6 B6 D5 D5 E3 E3 D5 D5 B6 B6 F7 F7 FF FF 7F 7F 6B 6B 5D
5D 3E 3E 5D 5D 6B 6B 7F 7F FF FF > } image } if PT 12 eq { 16 16 1 [ 16 0 0
16 neg 0 16 ] { < E3 E3 DD DD BE BE BE BE BE BE DD DD E3 E3 FF FF 3E 3E DD DD
EB EB EB EB EB EB DD DD 3E 3E FF FF > } image } if PT 13 eq { 16 16 1 [ 16 0
0 16 neg 0 16 ] { < FE FE 7D 7D BB BB D7 D7 EF EF D7 D7 BB BB 7D 7D FE FE 7D
7D BB BB D7 D7 EF EF D7 D7 BB BB 7D 7D > } image } if PT 14 eq { 16 16 1 [ 16
0 0 16 neg 0 16 ] { < 00 00 EE EF EE EF EE EF 0E E0 EE EE EE EE EE EE 00 EE
FE EE FE EE FE EE 00 00 FE EF FE EF FE EF > } image } if PT 15 eq { 16 16 1 [
16 0 0 16 neg 0 16 ] { < DD DD AA AA DD DD FF FF 77 77 AA AA 77 77 FF FF DD
DD AA AA DD DD FF FF 77 77 AA AA 77 77 FF FF > } image } if PT 16 eq { 16 16
1 [ 16 0 0 16 neg 0 16 ] { < F1 F1 EE EE 1F 1F FF FF F1 F1 EE EE 1F 1F FF FF
F1 F1 EE EE 1F 1F FF FF F1 F1 EE EE 1F 1F FF FF > } image } if PT 17 eq { 16
16 1 [ 16 0 0 16 neg 0 16 ] { < EE EE DD DD BB BB FF FF EE EE DD DD BB BB FF
FF EE EE DD DD BB BB FF FF EE EE DD DD BB BB FF FF > } image } if PT 18 eq {
16 16 1 [ 16 0 0 16 neg 0 16 ] { < BB BB DD DD EE EE FF FF BB BB DD DD EE EE
FF FF BB BB DD DD EE EE FF FF BB BB DD DD EE EE FF FF > } image } if PT 19 eq
{ 16 16 1 [ 16 0 0 16 neg 0 16 ] { < 1F FC 67 F3 7B EF BD DE BD DE DE BD E6
B3 F8 0F E6 B3 DE BD BD DE BD DE 7B EF 67 F3 1F FC 7F FF > } image } if PT
20 eq { 16 16 1 [ 16 0 0 16 neg 0 16 ] { < DD DD EE EE EE EE EE EE DD DD BB
BB BB BB BB BB DD DD EE EE EE EE EE EE DD DD BB BB BB BB BB BB > } image }
if PT 21 eq { 16 16 1 [ 16 0 0 16 neg 0 16 ] { < 0E 0E EF EF EF EF EF EF E0
E0 FE FE FE FE FE FE 0E 0E EF EF EF EF EF EF E0 E0 FE FE FE FE FE FE > }
image } if PT 22 eq { 16 16 1 [ 16 0 0 16 neg 0 16 ] { < 70 70 F7 F7 F7 F7 F7
F7 07 07 7F 7F 7F 7F 7F 7F 70 70 F7 F7 F7 F7 F7 F7 07 07 7F 7F 7F 7F 7F 7F >
} image } if PT 23 eq { 16 16 1 [ 16 0 0 16 neg 0 16 ] { < AA AA 55 55 A9 A9
D1 D1 E1 E1 D1 D1 A9 A9 55 55 AA AA 55 55 A9 A9 D1 D1 E1 E1 D1 D1 A9 A9 55 55
> } image } if PT 24 eq { 16 16 1 [ 16 0 0 16 neg 0 16 ] { < FF FE FF FC EA
A8 D5 54 EA A8 D5 54 E8 28 D4 54 E8 E8 D4 D4 E8 EA 54 D5 A8 EA 54 D5 00 C0 00
80 > } image } if PT 25 eq { 16 16 1 [ 16 0 0 16 neg 0 16 ] { < FF FE FF FC
FF F8 FF F0 F0 00 F0 00 F0 20 F0 60 F0 E0 F1 E0 F3 E0 F0 00 E0 00 C0 00 80 00
00 00 > } image } if gr } def /FA { /PT exch def gsave clip 0 0 translate 1 1
54 { 1 sub 47.2 mul /Xcurr exch def 1 1 74 { 1 sub 47.2 mul /Ycurr exch def
gsave Xcurr Ycurr translate PT DP gr } for } for gr } def
/reencdict 24 dict def /ReEncode {reencdict begin /nco&na exch def
/nfnam exch def /basefontname exch def /basefontdict basefontname findfont def
/newfont basefontdict maxlength dict def basefontdict {exch dup /FID ne
{dup /Encoding eq {exch dup length array copy newfont 3 1 roll put} {exch
newfont 3 1 roll put} ifelse} {pop pop} ifelse } forall newfont
/FontName nfnam put nco&na aload pop nco&na length 2 idiv {newfont
/Encoding get 3 1 roll put} repeat nfnam newfont definefont pop end } def
/accvec [ 176 /agrave 181 /Agrave 190 /acircumflex 192 /Acircumflex
201 /adieresis 204 /Adieresis 209 /ccedilla 210 /Ccedilla 211 /eacute
212 /Eacute 213 /egrave 214 /Egrave 215 /ecircumflex 216 /Ecircumflex
217 /edieresis 218 /Edieresis 219 /icircumflex 220 /Icircumflex
221 /idieresis 222 /Idieresis 223 /ntilde 224 /Ntilde 226 /ocircumflex
228 /Ocircumflex 229 /odieresis 230 /Odieresis 231 /ucircumflex 236 /Ucircumflex
237 /udieresis 238 /Udieresis 239 /aring 242 /Aring 243 /ydieresis
244 /Ydieresis 246 /aacute 247 /Aacute 252 /ugrave 253 /Ugrave] def
/Times-Roman /Times-Roman accvec ReEncode
/Times-Italic /Times-Italic accvec ReEncode
/Times-Bold /Times-Bold accvec ReEncode
/Times-BoldItalic /Times-BoldItalic accvec ReEncode
/Helvetica /Helvetica accvec ReEncode
/Helvetica-Oblique /Helvetica-Oblique accvec ReEncode
/Helvetica-Bold /Helvetica-Bold accvec ReEncode
/Helvetica-BoldOblique /Helvetica-BoldOblique  accvec ReEncode
/Courier /Courier accvec ReEncode
/Courier-Oblique /Courier-Oblique accvec ReEncode
/Courier-Bold /Courier-Bold accvec ReEncode
/Courier-BoldOblique /Courier-BoldOblique accvec ReEncode
/oshow {gsave [] 0 sd true charpath stroke gr} def
/stwn { /fs exch def /fn exch def /text exch def fn findfont fs sf
 text sw pop xs add /xs exch def} def
/stwb { /fs exch def /fn exch def /nbas exch def /textf exch def
textf length /tlen exch def nbas tlen gt {/nbas tlen def} if
fn findfont fs sf textf dup length nbas sub nbas getinterval sw
pop neg xs add /xs exch def} def
/accspe [ 65 /plusminus 66 /bar 67 /existential 68 /universal
69 /exclam 70 /numbersign 71 /greater 72 /question 73 /integral
74 /colon 75 /semicolon 76 /less 77 /bracketleft 78 /bracketright
79 /greaterequal 80 /braceleft 81 /braceright 82 /radical
83 /spade 84 /heart 85 /diamond 86 /club 87 /lessequal
88 /multiply 89 /percent 90 /infinity 48 /circlemultiply 49 /circleplus
50 /emptyset 51 /lozenge 52 /bullet 53 /arrowright 54 /arrowup
55 /arrowleft 56 /arrowdown 57 /arrowboth 48 /degree 44 /comma 43 /plus
 45 /angle 42 /angleleft 47 /divide 61 /notequal 40 /equivalence 41 /second
 97 /approxequal 98 /congruent 99 /perpendicular 100 /partialdiff 101 /florin
 102 /intersection 103 /union 104 /propersuperset 105 /reflexsuperset
 106 /notsubset 107 /propersubset 108 /reflexsubset 109 /element 110 /notelement
 111 /gradient 112 /logicaland 113 /logicalor 114 /arrowdblboth
 115 /arrowdblleft 116 /arrowdblup 117 /arrowdblright 118 /arrowdbldown
 119 /ampersand 120 /omega1 121 /similar 122 /aleph ] def
/Symbol /Special accspe ReEncode
gsave .25 .25 scale 
%%EndProlog
 2268 2268 0 0 C NC gsave 0 0 t black [] 0 sd 1 lw 2268 2268 0 0 bl 2268 2268 0
 0 C 438 693 m s 438 693 m 4 -45 d s 438 693 m 50 -7 d s 442 648 m 41 -6 d s 483
 642 m s 483 642 m 5 44 d s 488 686 m s 455 661 m 15 Y s 455 661 m 15 -2 d s 455
 676 m s 455 676 m 15 -2 d s 455 676 m 15 -2 d s 470 659 m s 470 659 m 15 Y s
 470 659 m 15 Y s 470 674 m s 389 691 m s 389 691 m 13 -45 d s 389 691 m 49 2 d
 s 402 646 m 40 2 d s 438 693 m s 438 693 m 4 -45 d s 442 648 m s 409 677 m -1 Y
 s 409 677 m 14 X s 409 676 m 3 -14 d s 409 676 m 14 1 d s 412 662 m 14 X s 423
 677 m s 423 677 m 3 -14 d s 423 677 m 3 -15 d s 426 663 m -1 Y s 343 678 m 1 Y
 s 343 678 m 21 -42 d s 343 678 m 46 12 d s 364 636 m 38 10 d s 389 690 m 1 Y s
 389 690 m 13 -44 d s 402 646 m s 364 668 m s 364 668 m 14 4 d s 364 668 m 6 -14
 d s 364 668 m 14 4 d s 370 654 m 14 3 d s 378 672 m s 378 672 m 6 -15 d s 378
 672 m 6 -15 d s 384 657 m s 301 657 m 2 1 d s 301 657 m 29 -39 d s 301 657 m 41
 21 d s 330 618 m 34 18 d s 342 678 m 1 1 d s 342 678 m 22 -42 d s 364 636 m s
 324 651 m s 324 651 m 8 -14 d s 324 651 m 12 6 d s 332 637 m 12 7 d s 336 657 m
 s 336 657 m 8 -13 d s 336 657 m 8 -13 d s 344 644 m s 266 627 m 35 -33 d s 266
 627 m 35 30 d s 301 594 m 40 30 d s 301 594 m 29 24 d s 301 657 m 2 1 d s 301
 657 m 29 -39 d s 330 618 m s 288 625 m 11 -12 d s 288 625 m 11 9 d s 299 613 m
 10 9 d s 299 634 m s 299 634 m 11 -12 d s 299 634 m 10 -12 d s 310 622 m -1 X s
 238 590 m 27 37 d s 238 590 m 40 -27 d s 265 627 m 1 X s 265 627 m 35 -33 d s
 278 563 m 22 31 d s 278 563 m 99 76 d s 300 594 m 41 30 d s 260 593 m 8 11 d s
 260 593 m 12 -10 d s 268 604 m s 268 604 m 13 -10 d s 268 604 m 12 -10 d s 272
 583 m 8 11 d s 281 594 m -1 X s 219 547 m 19 43 d s 219 547 m 43 -19 d s 238
 590 m s 238 590 m 40 -27 d s 262 528 m 16 35 d s 262 528 m 151 119 d s 278 563
 m 100 76 d s 239 554 m 6 13 d s 239 554 m 14 -7 d s 245 567 m s 245 567 m 14 -7
 d s 245 567 m 13 -8 d s 253 547 m s 253 547 m 5 12 d s 259 560 m -1 -1 d s 209
 500 m 10 47 d s 209 500 m 45 -11 d s 219 547 m s 219 547 m 43 -19 d s 254 489 m
 8 39 d s 254 489 m 164 133 d s 262 528 m 151 119 d s 418 622 m 5 25 d s 227 511
 m 3 14 d s 227 511 m 14 -4 d s 230 526 m -1 Y s 230 526 m 14 -5 d s 230 525 m
 14 -5 d s 242 507 m -1 X s 242 507 m 2 14 d s 241 507 m 3 13 d s 244 521 m -1 Y
 s 209 451 m 49 Y s 209 451 m 45 -2 d s 209 500 m s 209 500 m 45 -11 d s 417 622
 m 1 X s 254 449 m 40 Y s 254 449 m 164 138 d s 254 489 m 164 133 d s 418 587 m
 35 Y s 224 466 m 14 Y s 224 466 m 15 -2 d s 224 481 m -1 Y s 224 481 m 15 -2 d
 s 224 480 m 15 -2 d s 239 464 m s 239 464 m 15 Y s 239 464 m 14 Y s 239 479 m
 -1 Y s 209 451 m 10 -50 d s 209 451 m s 209 451 m 45 -2 d s 219 401 m 43 7 d s
 417 587 m 1 X s 254 449 m 8 -41 d s 254 449 m 164 138 d s 262 408 m 162 144 d s
 418 587 m 6 -35 d s 227 434 m s 227 434 m 15 1 d s 227 434 m 3 -15 d s 227 434
 m 14 1 d s 230 419 m 14 1 d s 242 435 m -1 X s 242 435 m 2 -15 d s 241 435 m 3
 -15 d s 244 420 m s 219 401 m 19 -48 d s 219 401 m s 219 401 m 43 7 d s 238 353
 m 40 15 d s 424 552 m s 262 408 m 16 -40 d s 262 408 m 162 144 d s 278 368 m
 160 150 d s 424 552 m 14 -34 d s 239 388 m s 239 388 m 14 4 d s 239 388 m 6 -15
 d s 239 388 m 14 3 d s 245 373 m 13 4 d s 253 392 m -1 Y s 253 392 m 6 -15 d s
 253 391 m 5 -14 d s 259 377 m -1 X s 238 353 m 27 -45 d s 238 353 m s 238 353 m
 40 15 d s 265 308 m 35 23 d s 438 517 m s 278 368 m 22 -37 d s 278 368 m 160
 149 d s 300 331 m 158 155 d s 438 517 m 20 -31 d s 260 344 m -1 Y s 260 343 m 8
 -13 d s 260 343 m 12 7 d s 268 330 m 12 6 d s 272 350 m s 272 350 m 9 -13 d s
 272 350 m 8 -14 d s 281 337 m -1 -1 d s 266 308 m 1 Y s 266 308 m 35 23 d s 266
 308 m 35 -40 d s 457 485 m 1 X s 301 331 m 157 154 d s 301 331 m 29 -32 d s 301
 268 m 14 15 d s 301 268 m 29 31 d s 458 485 m 25 -28 d s 470 443 m 13 14 d s
 330 299 m 153 158 d s 288 303 m 11 -12 d s 288 303 m 11 9 d s 299 291 m 10 9 d
 s 299 312 m s 299 312 m 11 -12 d s 299 312 m 10 -12 d s 310 300 m -1 X s 301
 268 m 29 30 d s 301 268 m 41 -33 d s 330 298 m 153 159 d s 330 298 m 34 -27 d s
 342 235 m 1 1 d s 342 235 m 22 36 d s 483 457 m 29 -23 d s 512 433 m 1 Y s 364
 271 m 148 163 d s 324 267 m 8 11 d s 324 267 m 12 -10 d s 332 278 m s 332 278 m
 12 -9 d s 332 278 m 12 -10 d s 336 257 m 8 11 d s 344 269 m -1 Y s 343 235 m 21
 36 d s 343 235 m 46 -26 d s 364 271 m 149 162 d s 364 271 m 38 -21 d s 513 433
 m 32 -18 d s 389 209 m 1 Y s 389 209 m 13 41 d s 545 415 m s 402 250 m 143 165
 d s 364 238 m 6 13 d s 364 238 m 14 -7 d s 370 251 m s 370 251 m 14 -7 d s 370
 251 m 14 -7 d s 378 231 m s 378 231 m 6 13 d s 384 244 m s 389 209 m 13 41 d s
 389 209 m 49 -16 d s 402 250 m 143 165 d s 402 250 m 40 -13 d s 545 415 m 35
 -11 d s 438 193 m s 438 193 m 4 44 d s 580 403 m 1 Y s 442 237 m 138 167 d s
 409 217 m 3 14 d s 409 217 m 14 -5 d s 412 232 m -1 Y s 412 232 m 14 -5 d s 412
 231 m 14 -5 d s 423 213 m -1 Y s 423 213 m 3 14 d s 423 212 m 3 14 d s 426 227
 m -1 Y s 438 193 m 4 44 d s 438 193 m 50 -7 d s 442 237 m 138 167 d s 442 237 m
 41 -6 d s 580 404 m 36 -5 d s 616 399 m -133 -168 d s 616 399 m -1 Y s 483 231
 m 5 -45 d s 488 186 m s 455 205 m 14 Y s 455 205 m 15 -2 d s 455 220 m -1 Y s
 455 220 m 15 -2 d s 455 219 m 15 -2 d s 470 203 m s 470 203 m 15 Y s 470 203 m
 14 Y s 470 218 m -1 Y s 616 399 m -133 -168 d s 616 399 m 34 1 d s 483 231 m 5
 -45 d s 483 231 m 41 2 d s 488 186 m 49 2 d s 650 400 m -126 -167 d s 650 400 m
 s 524 233 m 13 -45 d s 537 188 m s 499 216 m s 499 216 m 15 1 d s 499 216 m 3
 -15 d s 499 216 m 15 1 d s 502 201 m 14 1 d s 514 217 m s 514 217 m 3 -15 d s
 514 217 m 2 -15 d s 517 202 m -1 X s 651 401 m -127 -168 d s 651 401 m 21 5 d s
 524 233 m 13 -45 d s 524 233 m 38 10 d s 537 188 m 46 13 d s 672 393 m -110
 -150 d s 562 243 m 21 -42 d s 583 201 m s 542 221 m -1 X s 542 221 m 13 4 d s
 541 221 m 6 -14 d s 541 221 m 14 4 d s 547 207 m 14 4 d s 555 225 m s 555 225 m
 6 -14 d s 555 225 m 6 -14 d s 561 211 m s 672 393 m -110 -150 d s 562 243 m 21
 -42 d s 562 243 m 34 18 d s 665 357 m -69 -96 d s 583 201 m 42 21 d s 596 261 m
 29 -39 d s 625 222 m s 581 235 m s 581 235 m 8 -14 d s 581 235 m 12 6 d s 589
 221 m 12 7 d s 593 241 m s 593 241 m 9 -13 d s 593 241 m 8 -13 d s 602 228 m -1
 X s 665 357 m -69 -96 d s 596 261 m 29 -39 d s 596 261 m 29 24 d s 650 321 m
 -25 -36 d s 625 222 m 35 30 d s 625 285 m 35 -33 d s 660 252 m s 616 256 m 10
 -12 d s 616 256 m 10 9 d s 626 244 m 11 9 d s 626 265 m s 626 265 m 11 -12 d s
 626 265 m 11 -12 d s 637 253 m s 650 321 m -25 -36 d s 648 316 m s 625 285 m 23
 31 d s 625 285 m 35 -33 d s 648 316 m 40 -27 d s 689 291 m -1 -2 d s 660 252 m
 28 37 d s 645 285 m 8 11 d s 645 285 m 12 -10 d s 653 296 m s 653 296 m 13 -10
 d s 653 296 m 12 -10 d s 657 275 m 8 11 d s 666 286 m -1 X s 664 351 m s 648
 316 m 16 35 d s 648 316 m 40 -27 d s 689 291 m -1 -2 d s 664 351 m 43 -19 d s
 707 332 m s 688 289 m 19 43 d s 667 319 m 5 13 d s 667 319 m 13 -8 d s 673 332
 m -1 X s 673 332 m 13 -8 d s 672 332 m 14 -8 d s 681 312 m -1 -1 d s 680 311 m
 6 13 d s 686 324 m s 672 389 m s 664 351 m 8 38 d s 664 351 m 43 -19 d s 707
 332 m s 672 389 m 45 -10 d s 717 379 m s 707 332 m 10 47 d s 681 358 m 3 14 d s
 681 358 m 14 -5 d s 684 372 m s 684 372 m 15 -5 d s 684 372 m 14 -5 d s 696 353
 m -1 X s 696 353 m 3 14 d s 695 353 m 3 14 d s 699 367 m -1 X s 672 430 m s 672
 390 m 40 Y s 672 390 m 45 -11 d s 672 430 m 45 -2 d s 717 379 m s 717 428 m s
 717 379 m 49 Y s 687 400 m 15 Y s 687 400 m 14 -2 d s 687 415 m s 687 415 m 15
 -2 d s 687 415 m 14 -2 d s 702 398 m -1 X s 702 398 m 15 Y s 701 398 m 15 Y s
 702 413 m -1 X s 664 471 m s 664 471 m 8 -41 d s 664 471 m 43 7 d s 707 478 m s
 672 430 m 45 -2 d s 717 428 m s 707 478 m 10 -50 d s 681 459 m -1 Y s 681 459 m
 15 X s 681 458 m 3 -14 d s 681 458 m 14 1 d s 684 444 m 14 X s 696 459 m -1 X s
 696 459 m 3 -14 d s 695 459 m 3 -15 d s 699 445 m -1 -1 d s 648 511 m -1 Y s
 648 510 m 16 -39 d s 648 510 m 40 16 d s 688 526 m s 664 471 m 43 7 d s 707 478
 m s 688 526 m 19 -48 d s 667 502 m -1 Y s 667 502 m 14 3 d s 667 501 m 5 -14 d
 s 667 501 m 13 4 d s 672 487 m 14 4 d s 681 505 m -1 X s 681 505 m 5 -14 d s
 680 505 m 6 -14 d s 686 491 m s 626 548 m -1 -1 d s 625 547 m 23 -36 d s 625
 547 m 35 24 d s 661 571 m -1 X s 648 511 m 40 15 d s 688 526 m s 660 571 m 28
 -45 d s 645 542 m s 645 542 m 8 -13 d s 645 542 m 12 6 d s 653 529 m 12 6 d s
 657 549 m -1 Y s 657 549 m 9 -14 d s 657 548 m 8 -13 d s 666 535 m -1 X s 596
 580 m 29 31 d s 596 580 m 29 -32 d s 625 611 m s 625 611 m 35 -40 d s 625 548 m
 35 23 d s 660 571 m s 616 579 m 10 -12 d s 616 579 m 10 9 d s 626 567 m 11 9 d
 s 626 588 m s 626 588 m 11 -12 d s 626 588 m 11 -12 d s 637 576 m s 562 608 m
 21 36 d s 562 608 m 34 -28 d s 583 644 m s 606 591 m -10 -11 d s 583 644 m 42
 -33 d s 596 580 m 29 31 d s 635 621 m -10 -10 d s 581 610 m 8 11 d s 581 610 m
 12 -10 d s 589 621 m s 589 621 m 13 -10 d s 589 621 m 12 -10 d s 593 600 m 8 11
 d s 602 611 m -1 X s 524 629 m 13 40 d s 524 629 m 38 -21 d s 537 669 m s 537
 669 m 46 -25 d s 562 608 m s 562 608 m 21 36 d s 584 645 m -1 -1 d s 541 635 m
 6 12 d s 541 635 m 14 -8 d s 547 648 m -1 Y s 547 648 m 14 -8 d s 547 647 m 14
 -7 d s 555 627 m s 555 627 m 6 13 d s 561 640 m s 483 642 m 5 44 d s 483 642 m
 41 -13 d s 488 686 m s 488 686 m 49 -17 d s 524 629 m s 524 629 m 13 40 d s 537
 670 m -1 Y s 499 652 m 3 14 d s 499 652 m 15 -5 d s 502 666 m s 502 666 m 15 -5
 d s 502 666 m 14 -5 d s 514 647 m s 514 647 m 3 14 d s 514 647 m 2 14 d s 517
 661 m -1 X s 433 738 m 5 -45 d s 433 738 m 1 X s 433 738 m 59 -8 d s 438 693 m
 50 -7 d s 488 686 m s 492 730 m s 488 686 m 4 44 d s 455 706 m 14 Y s 455 706 m
 15 -3 d s 455 720 m s 455 720 m 15 -2 d s 455 720 m 15 -2 d s 470 704 m -1 Y s
 470 704 m 14 Y s 470 703 m 15 Y s 470 718 m s 376 735 m 13 -44 d s 376 735 m s
 376 735 m 57 3 d s 389 691 m 49 2 d s 433 738 m 5 -45 d s 433 738 m s 438 693 m
 s 400 722 m -1 Y s 400 722 m 15 X s 400 721 m 3 -14 d s 400 721 m 14 1 d s 403
 707 m 14 X s 415 722 m -1 X s 415 722 m 3 -14 d s 414 722 m 3 -15 d s 418 708 m
 -1 -1 d s 321 721 m 22 -43 d s 321 721 m 1 X s 321 721 m 54 14 d s 343 678 m 46
 13 d s 375 735 m 14 -44 d s 375 735 m 1 X s 389 691 m s 347 712 m s 347 712 m
 14 3 d s 347 712 m 6 -15 d s 347 712 m 14 3 d s 353 697 m 13 4 d s 361 715 m s
 361 715 m 6 -14 d s 361 715 m 5 -14 d s 367 701 m -1 X s 272 696 m 29 -39 d s
 272 696 m 49 25 d s 301 657 m 41 21 d s 321 721 m 21 -43 d s 321 721 m 1 X s
 342 678 m s 299 691 m -1 X s 298 691 m 9 -13 d s 298 691 m 13 7 d s 307 678 m
 12 6 d s 311 698 m s 311 698 m 8 -13 d s 311 698 m 8 -14 d s 319 685 m -1 Y s
 230 660 m 35 -33 d s 230 660 m 42 35 d s 265 627 m 2 1 d s 265 627 m 36 30 d s
 272 695 m 29 -38 d s 272 695 m s 301 657 m s 256 661 m 11 -12 d s 256 661 m 11
 9 d s 267 649 m 10 9 d s 267 670 m s 267 670 m 11 -11 d s 267 670 m 10 -12 d s
 278 659 m -1 -1 d s 198 617 m 32 43 d s 198 617 m 40 -27 d s 230 660 m 35 -33 d
 s 230 660 m s 238 590 m 27 37 d s 238 590 m s 265 627 m 1 1 d s 222 623 m 8 11
 d s 222 623 m 12 -10 d s 231 634 m -1 X s 231 634 m 12 -10 d s 230 634 m 13 -10
 d s 234 613 m 9 11 d s 243 624 m s 175 566 m 23 51 d s 175 566 m 43 -19 d s 198
 617 m 40 -27 d s 198 617 m s 218 547 m 20 43 d s 218 547 m 1 X s 238 590 m s
 197 577 m 6 13 d s 197 577 m 14 -7 d s 203 590 m s 203 590 m 14 -7 d s 203 590
 m 14 -8 d s 211 570 m s 211 570 m 6 12 d s 217 583 m -1 Y s 164 511 m 11 55 d s
 164 511 m 45 -11 d s 175 566 m 43 -19 d s 175 566 m s 209 500 m 9 47 d s 209
 500 m s 218 547 m 1 X s 182 526 m 3 14 d s 182 526 m 15 -4 d s 185 541 m -1 Y s
 185 541 m 15 -5 d s 185 540 m 15 -5 d s 197 522 m s 197 522 m 3 14 d s 197 522
 m 3 13 d s 200 536 m -1 Y s 164 453 m 58 Y s 164 453 m 45 -2 d s 164 511 m 45
 -11 d s 164 511 m s 209 451 m 49 Y s 209 451 m s 209 500 m s 178 472 m 15 Y s
 178 472 m 15 -2 d s 179 487 m -1 X s 179 487 m 14 -2 d s 178 487 m 15 -2 d s
 193 470 m s 193 470 m 15 Y s 193 470 m 15 Y s 193 485 m s 164 453 m 11 -59 d s
 164 453 m 45 -2 d s 164 453 m s 175 394 m 43 7 d s 209 451 m 9 -50 d s 209 451
 m s 218 401 m 1 X s 183 432 m -1 X s 183 432 m 14 1 d s 182 432 m 3 -15 d s 182
 432 m 15 X s 185 417 m 15 1 d s 197 433 m -1 Y s 197 433 m 3 -15 d s 197 432 m
 3 -14 d s 200 418 m s 175 394 m 23 -56 d s 175 394 m 43 7 d s 175 394 m 1 X s
 198 338 m 40 15 d s 218 401 m 20 -48 d s 218 401 m 1 X s 238 353 m s 197 377 m
 s 197 377 m 14 3 d s 197 377 m 6 -15 d s 197 377 m 14 3 d s 203 362 m 14 4 d s
 211 380 m s 211 380 m 6 -14 d s 211 380 m 6 -14 d s 217 366 m s 198 337 m 32
 -52 d s 198 337 m 40 16 d s 198 337 m 1 Y s 230 285 m 35 23 d s 238 353 m 27
 -45 d s 238 353 m s 265 308 m s 222 324 m s 222 324 m 8 -13 d s 222 324 m 12 6
 d s 230 311 m 13 6 d s 235 330 m -1 X s 235 330 m 8 -13 d s 234 330 m 9 -13 d s
 243 317 m s 230 284 m 35 24 d s 230 284 m 42 -46 d s 230 284 m 2 1 d s 265 308
 m 1 1 d s 265 308 m 36 -40 d s 272 238 m 29 30 d s 272 238 m 18 18 d s 301 268
 m 15 16 d s 256 276 m 11 -12 d s 256 276 m 11 9 d s 267 264 m 10 9 d s 267 285
 m s 267 285 m 11 -12 d s 267 285 m 10 -12 d s 278 273 m -1 X s 272 237 m 29 31
 d s 272 237 m 49 -39 d s 301 268 m s 301 268 m 41 -33 d s 321 198 m 21 37 d s
 321 198 m 1 1 d s 342 235 m 1 1 d s 298 234 m 9 11 d s 298 234 m 13 -10 d s 307
 245 m s 307 245 m 12 -10 d s 307 245 m 12 -10 d s 311 224 m 8 11 d s 319 235 m
 s 321 198 m 22 37 d s 321 198 m 54 -30 d s 343 235 m s 343 235 m 46 -26 d s 375
 168 m 14 41 d s 375 168 m 1 1 d s 389 209 m 1 Y s 347 200 m 6 12 d s 347 200 m
 14 -8 d s 353 213 m -1 Y s 353 213 m 14 -8 d s 353 212 m 13 -7 d s 361 192 m s
 361 192 m 5 13 d s 367 205 m -1 X s 376 168 m 13 41 d s 376 168 m 57 -19 d s
 389 209 m s 389 209 m 49 -16 d s 433 149 m 5 44 d s 433 149 m s 438 193 m s 400
 175 m 3 14 d s 400 175 m 14 -5 d s 403 189 m s 403 189 m 15 -5 d s 403 189 m 14
 -5 d s 415 170 m -1 X s 415 170 m 3 14 d s 414 170 m 3 14 d s 418 184 m -1 X s
 433 149 m 5 44 d s 433 149 m 59 -9 d s 438 193 m s 438 193 m 50 -8 d s 488 186
 m -1 Y s 492 141 m -1 Y s 488 185 m 4 -45 d s 455 160 m 15 Y s 455 160 m 15 -2
 d s 455 175 m s 455 175 m 15 -2 d s 455 175 m 15 -2 d s 470 158 m s 470 158 m
 15 Y s 470 158 m 15 Y s 470 173 m s 488 186 m -1 Y s 488 185 m 4 -45 d s 488
 185 m 49 3 d s 492 140 m 58 4 d s 537 188 m s 550 144 m s 537 188 m 13 -44 d s
 508 171 m s 508 171 m 15 1 d s 508 171 m 3 -15 d s 508 171 m 14 1 d s 511 156 m
 14 1 d s 523 172 m -1 X s 523 172 m 3 -15 d s 522 172 m 3 -15 d s 526 157 m -1
 X s 537 188 m s 537 188 m 13 -44 d s 537 188 m 46 12 d s 550 144 m 54 14 d s
 583 201 m -1 Y s 604 158 m s 583 200 m 21 -42 d s 559 178 m s 559 178 m 14 3 d
 s 559 178 m 5 -15 d s 559 178 m 14 3 d s 564 163 m 14 4 d s 573 181 m s 573 181
 m 5 -14 d s 573 181 m 5 -14 d s 578 167 m s 583 201 m -1 Y s 583 200 m 22 -42 d
 s 583 200 m 42 22 d s 625 222 m s 605 158 m 48 25 d s 653 183 m s 625 222 m 28
 -39 d s 606 194 m s 619 201 m s 606 194 m 8 -13 d s 606 194 m 12 6 d s 614 181
 m 13 6 d s 619 201 m -1 -1 d s 619 201 m 8 -14 d s 618 200 m 9 -13 d s 627 187
 m s 625 222 m s 625 222 m 29 -39 d s 625 222 m 35 30 d s 661 253 m -1 -1 d s
 695 219 m -1 Y s 654 183 m 41 35 d s 660 252 m 35 -34 d s 648 220 m 10 -12 d s
 648 220 m 10 9 d s 658 208 m 11 9 d s 658 229 m s 658 229 m 11 -12 d s 658 229
 m 11 -12 d s 669 217 m s 661 253 m -1 -1 d s 688 289 m s 660 252 m 28 37 d s
 660 252 m 35 -33 d s 736 280 m -8 -18 d s 688 289 m 40 -27 d s 695 219 m 33 43
 d s 682 254 m 9 11 d s 682 254 m 13 -9 d s 691 266 m -1 Y s 691 266 m 12 -10 d
 s 691 265 m 12 -9 d s 695 245 m 8 11 d s 703 256 m s 707 332 m s 735 278 m -7
 -16 d s 688 289 m 19 43 d s 688 289 m 40 -27 d s 751 313 m -1 -1 d s 707 332 m
 43 -20 d s 728 262 m 22 50 d s 709 296 m 5 13 d s 709 296 m 13 -8 d s 714 309 m
 s 714 309 m 14 -8 d s 714 309 m 14 -8 d s 722 289 m -1 Y s 722 288 m 6 13 d s
 728 301 m s 717 379 m s 751 313 m -1 X s 762 368 m s 707 332 m 10 47 d s 707
 332 m 43 -19 d s 717 379 m 45 -11 d s 750 313 m 12 55 d s 725 343 m 3 14 d s
 725 343 m 15 -5 d s 728 357 m s 728 357 m 15 -5 d s 728 357 m 15 -5 d s 740 338
 m s 740 338 m 3 14 d s 740 338 m 3 14 d s 743 352 m s 717 428 m s 762 368 m s
 762 426 m s 717 379 m 49 Y s 717 379 m 45 -11 d s 717 428 m 45 -2 d s 762 368 m
 58 Y s 732 394 m 14 Y s 732 394 m 15 -3 d s 732 408 m s 732 408 m 15 -2 d s 732
 408 m 15 -2 d s 747 392 m -1 Y s 747 392 m 14 Y s 747 391 m 15 Y s 747 406 m s
 707 478 m s 751 485 m -1 -1 d s 762 426 m s 707 478 m 10 -50 d s 707 478 m 43 6
 d s 717 428 m 45 -2 d s 750 484 m 12 -58 d s 725 461 m s 725 461 m 15 1 d s 725
 461 m 3 -15 d s 725 461 m 15 1 d s 728 446 m 15 1 d s 740 462 m s 740 462 m 3
 -15 d s 740 462 m 3 -15 d s 743 447 m s 688 526 m s 728 542 m -1 Y s 688 526 m
 19 -48 d s 688 526 m 40 15 d s 750 485 m s 707 478 m 43 7 d s 728 541 m 22 -56
 d s 709 513 m s 709 513 m 13 3 d s 709 513 m 5 -15 d s 709 513 m 13 3 d s 714
 498 m 14 4 d s 722 516 m s 722 516 m 6 -14 d s 722 516 m 6 -14 d s 728 502 m s
 661 572 m -1 -1 d s 696 595 m -1 -1 d s 660 571 m 28 -45 d s 660 571 m 35 23 d
 s 728 542 m -1 Y s 688 526 m 40 15 d s 695 594 m 33 -53 d s 683 562 m -1 -1 d s
 682 561 m 9 -13 d s 682 561 m 13 7 d s 691 548 m 12 6 d s 695 568 m s 695 568 m
 8 -13 d s 695 568 m 8 -14 d s 703 555 m -1 Y s 654 641 m s 625 611 m 29 30 d s
 625 611 m 35 -40 d s 695 594 m s 654 641 m 41 -47 d s 660 571 m 35 23 d s 648
 606 m 10 -12 d s 648 606 m 10 9 d s 658 594 m 11 9 d s 658 615 m s 658 615 m 11
 -12 d s 658 615 m 11 -12 d s 669 603 m s 605 680 m s 583 644 m 22 36 d s 583
 644 m 42 -33 d s 636 622 m -11 -11 d s 605 680 m 48 -39 d s 664 652 m -11 -11 d
 s 625 611 m 28 30 d s 606 644 m 8 11 d s 606 644 m 12 -10 d s 614 655 m s 614
 655 m 13 -10 d s 614 655 m 13 -10 d s 618 634 m 9 11 d s 627 645 m s 550 710 m
 s 537 670 m 13 40 d s 537 670 m 46 -26 d s 550 710 m 54 -29 d s 584 645 m -1 -1
 d s 605 681 m -1 X s 583 644 m 21 37 d s 559 673 m 5 13 d s 559 673 m 13 -7 d s
 565 686 m -1 X s 565 686 m 13 -7 d s 564 686 m 14 -7 d s 573 666 m -1 X s 572
 666 m 6 13 d s 578 679 m s 493 730 m -1 X s 488 686 m 4 44 d s 488 686 m 49 -16
 d s 492 730 m 58 -20 d s 537 670 m s 550 711 m -1 Y s 537 670 m 13 40 d s 508
 694 m 3 14 d s 508 694 m 14 -4 d s 511 709 m -1 Y s 511 709 m 15 -5 d s 511 708
 m 14 -5 d s 523 690 m -1 X s 523 690 m 3 14 d s 522 690 m 3 13 d s 526 704 m -1
 -1 d s 429 784 m 4 -45 d s 429 784 m s 429 784 m 68 -10 d s 433 739 m 59 -9 d s
 492 730 m s 497 774 m s 492 730 m 5 44 d s 455 750 m 15 Y s 455 750 m 15 -2 d s
 455 765 m s 455 765 m 15 -2 d s 455 765 m 15 -2 d s 470 748 m s 470 748 m 15 Y
 s 470 748 m 15 Y s 470 763 m s 362 780 m 14 -45 d s 362 780 m 1 X s 362 780 m
 67 4 d s 376 735 m 57 4 d s 429 784 m 4 -45 d s 429 784 m s 433 739 m s 391 767
 m -1 Y s 391 767 m 15 X s 391 766 m 3 -14 d s 391 766 m 15 1 d s 394 752 m 14 X
 s 406 767 m s 406 767 m 3 -14 d s 406 767 m 2 -15 d s 409 753 m -1 -1 d s 300
 763 m 21 -42 d s 300 763 m 1 1 d s 300 763 m 62 17 d s 321 721 m 54 14 d s 362
 780 m 13 -45 d s 362 780 m 1 X s 375 735 m 1 X s 330 755 m s 330 755 m 14 4 d s
 330 755 m 5 -14 d s 330 755 m 13 4 d s 335 741 m 14 4 d s 344 759 m -1 X s 344
 759 m 5 -14 d s 343 759 m 6 -14 d s 349 745 m s 243 734 m 29 -38 d s 243 734 m
 57 29 d s 272 696 m 13 6 d s 272 696 m 49 25 d s 300 763 m 21 -42 d s 300 763 m
 1 1 d s 321 721 m s 274 732 m -1 X s 273 732 m 9 -13 d s 273 732 m 13 6 d s 282
 719 m 12 6 d s 286 739 m -1 Y s 286 739 m 8 -14 d s 286 738 m 8 -13 d s 294 725
 m s 195 694 m 35 -33 d s 195 694 m 48 40 d s 230 661 m 42 35 d s 230 661 m 1 X
 s 243 734 m 29 -38 d s 243 734 m s 272 696 m 11 5 d s 224 697 m 11 -11 d s 224
 697 m 11 9 d s 235 686 m 10 8 d s 235 707 m -1 Y s 235 707 m 11 -12 d s 235 706
 m 10 -12 d s 246 695 m -1 -1 d s 158 644 m 37 50 d s 158 644 m 40 -27 d s 195
 694 m 35 -34 d s 195 694 m s 198 617 m 32 43 d s 198 617 m s 230 660 m s 184
 653 m 9 11 d s 184 653 m 13 -10 d s 193 664 m s 193 664 m 12 -10 d s 193 664 m
 12 -10 d s 197 643 m 8 11 d s 205 654 m s 132 586 m 26 57 d s 132 586 m 43 -20
 d s 158 643 m 39 -26 d s 158 643 m 1 Y s 175 566 m 22 51 d s 175 566 m 1 Y s
 197 617 m 1 X s 155 600 m 6 13 d s 155 600 m 14 -7 d s 161 613 m s 161 613 m 14
 -7 d s 161 613 m 14 -8 d s 169 593 m s 169 593 m 6 12 d s 175 606 m -1 Y s 118
 522 m 14 63 d s 118 522 m 45 -11 d s 132 585 m 43 -19 d s 132 585 m s 163 511 m
 12 55 d s 163 511 m 1 X s 175 566 m s 138 541 m 3 14 d s 138 541 m 15 -4 d s
 141 556 m -1 Y s 141 556 m 15 -5 d s 141 555 m 14 -4 d s 153 537 m s 153 537 m
 3 14 d s 153 537 m 2 14 d s 156 551 m -1 X s 118 455 m 67 Y s 118 455 m 45 -2 d
 s 118 522 m 45 -11 d s 118 522 m 1 X s 163 453 m 58 Y s 163 453 m 1 X s 163 511
 m 1 X s 133 479 m 14 Y s 133 479 m 15 -2 d s 133 494 m -1 Y s 133 494 m 15 -3 d
 s 133 493 m 15 -2 d s 148 477 m s 148 477 m 14 Y s 148 477 m 14 Y s 148 491 m s
 118 455 m 14 -67 d s 118 455 m 45 -2 d s 118 455 m 1 X s 132 388 m 43 6 d s 163
 453 m 12 -59 d s 163 453 m 1 X s 175 394 m 1 Y s 138 429 m s 138 429 m 15 1 d s
 138 429 m 3 -15 d s 138 429 m 15 1 d s 141 414 m 14 1 d s 153 430 m s 153 430 m
 3 -15 d s 153 430 m 2 -15 d s 156 415 m -1 X s 132 387 m 26 -65 d s 132 387 m
 43 7 d s 132 387 m 1 Y s 158 322 m 39 16 d s 175 394 m 22 -56 d s 175 394 m s
 197 338 m 1 X s 156 366 m -1 -1 d s 156 366 m 13 3 d s 155 365 m 6 -14 d s 155
 365 m 14 4 d s 161 351 m 14 4 d s 169 369 m s 169 369 m 6 -14 d s 169 369 m 6
 -14 d s 175 355 m s 158 322 m 37 -61 d s 158 322 m 40 15 d s 158 322 m s 195
 261 m 35 24 d s 198 337 m 32 -52 d s 198 337 m 1 Y s 230 285 m s 185 305 m -1
 -1 d s 184 304 m 9 -13 d s 184 304 m 13 7 d s 193 291 m 12 6 d s 197 311 m s
 197 311 m 8 -13 d s 197 311 m 8 -14 d s 205 298 m -1 Y s 195 261 m 35 23 d s
 195 261 m 48 -54 d s 195 261 m 2 1 d s 230 284 m 42 -46 d s 230 284 m 2 1 d s
 243 207 m 29 31 d s 243 207 m 29 30 d s 272 238 m 19 20 d s 224 249 m 11 -12 d
 s 224 249 m 11 9 d s 235 237 m 10 9 d s 235 258 m s 235 258 m 11 -12 d s 235
 258 m 10 -12 d s 246 246 m -1 X s 243 207 m 29 30 d s 243 207 m 57 -45 d s 272
 237 m s 272 237 m 49 -39 d s 300 162 m 21 36 d s 300 162 m 1 1 d s 321 198 m 1
 1 d s 273 200 m 9 11 d s 273 200 m 13 -10 d s 282 211 m s 282 211 m 12 -9 d s
 282 211 m 12 -10 d s 286 190 m 8 11 d s 294 202 m -1 Y s 300 162 m 21 36 d s
 300 162 m 62 -35 d s 321 198 m s 321 198 m 54 -30 d s 362 127 m 13 41 d s 362
 127 m 1 1 d s 375 168 m 1 1 d s 330 161 m 5 13 d s 330 161 m 13 -8 d s 335 174
 m s 335 174 m 14 -8 d s 335 174 m 14 -8 d s 344 154 m -1 -1 d s 343 153 m 6 13
 d s 349 166 m s 362 127 m 14 41 d s 362 127 m 67 -22 d s 376 168 m s 376 168 m
 57 -19 d s 429 105 m 4 44 d s 429 105 m s 433 149 m s 391 132 m 3 14 d s 391
 132 m 15 -5 d s 394 147 m -1 Y s 394 147 m 15 -5 d s 394 146 m 14 -5 d s 406
 128 m -1 Y s 406 128 m 3 14 d s 406 127 m 2 14 d s 409 142 m -1 -1 d s 429 105
 m 4 44 d s 429 105 m 68 -10 d s 433 149 m s 433 149 m 59 -9 d s 492 141 m -1 Y
 s 497 96 m -1 Y s 492 140 m 5 -45 d s 455 116 m 14 Y s 455 116 m 15 -3 d s 455
 130 m s 455 130 m 15 -2 d s 455 130 m 15 -2 d s 470 114 m -1 Y s 470 114 m 14 Y
 s 470 113 m 15 Y s 470 128 m s 492 140 m s 492 140 m 5 -45 d s 492 140 m 58 3 d
 s 497 95 m 66 4 d s 550 144 m -1 Y s 563 99 m s 550 143 m 13 -44 d s 517 126 m
 s 517 126 m 14 1 d s 517 126 m 3 -15 d s 517 126 m 14 1 d s 520 111 m 14 1 d s
 531 127 m s 531 127 m 3 -15 d s 531 127 m 3 -15 d s 534 112 m s 550 144 m -1 Y
 s 550 143 m 13 -44 d s 550 143 m 54 15 d s 563 99 m 63 16 d s 605 158 m -1 X s
 626 116 m -1 Y s 604 158 m 22 -43 d s 576 134 m s 576 134 m 14 4 d s 576 134 m
 6 -14 d s 576 134 m 14 4 d s 582 120 m 14 3 d s 590 138 m s 590 138 m 6 -15 d s
 590 138 m 6 -15 d s 596 123 m s 605 158 m s 605 158 m 21 -42 d s 605 158 m 48
 25 d s 654 183 m -1 X s 626 116 m 56 29 d s 682 145 m s 653 183 m 29 -38 d s
 631 154 m -1 Y s 631 153 m 8 -13 d s 631 153 m 13 7 d s 639 140 m 13 6 d s 644
 160 m s 644 160 m 8 -13 d s 644 160 m 8 -14 d s 652 147 m -1 Y s 654 184 m -1 Y
 s 695 219 m -1 Y s 654 183 m 28 -38 d s 654 183 m 41 35 d s 730 185 m s 682 145
 m 48 40 d s 695 218 m 35 -33 d s 680 184 m 10 -12 d s 680 184 m 10 9 d s 690
 172 m 11 9 d s 690 193 m s 690 193 m 11 -12 d s 690 193 m 11 -12 d s 701 181 m
 s 696 219 m -1 -1 d s 728 262 m s 695 218 m 33 44 d s 695 218 m 35 -33 d s 768
 235 m s 728 262 m 40 -27 d s 730 185 m 38 50 d s 720 224 m 8 11 d s 720 224 m
 12 -10 d s 728 236 m -1 Y s 728 236 m 13 -10 d s 728 235 m 13 -10 d s 732 214 m
 9 11 d s 741 226 m -1 Y s 751 313 m -1 Y s 794 295 m -2 Y s 728 262 m 23 50 d s
 728 262 m 40 -27 d s 751 312 m 43 -19 d s 768 235 m 26 58 d s 750 273 m 6 13 d
 s 750 273 m 14 -8 d s 756 286 m s 756 286 m 14 -8 d s 756 286 m 14 -8 d s 764
 266 m -1 Y s 764 265 m 6 13 d s 770 278 m s 762 368 m s 794 295 m -2 Y s 807
 357 m s 751 313 m 11 55 d s 751 313 m 43 -20 d s 762 368 m 45 -11 d s 794 293 m
 13 64 d s 770 328 m 3 14 d s 770 328 m 14 -5 d s 773 342 m s 773 342 m 14 -5 d
 s 773 342 m 14 -5 d s 784 323 m s 784 323 m 3 14 d s 784 323 m 3 14 d s 787 337
 m s 762 426 m s 807 358 m -1 Y s 807 424 m s 762 368 m 58 Y s 762 368 m 45 -11
 d s 762 426 m 45 -2 d s 807 357 m 67 Y s 777 387 m 15 Y s 777 387 m 15 -2 d s
 777 402 m s 777 402 m 15 -2 d s 777 402 m 15 -2 d s 792 385 m s 792 385 m 15 Y
 s 792 385 m 15 Y s 792 400 m s 751 485 m -1 Y s 794 491 m s 807 424 m s 751 484
 m 11 -58 d s 751 484 m 43 7 d s 762 426 m 45 -2 d s 794 491 m 13 -67 d s 770
 463 m s 770 463 m 14 1 d s 770 463 m 3 -15 d s 770 463 m 14 1 d s 773 448 m 14
 1 d s 784 464 m s 784 464 m 3 -15 d s 784 464 m 3 -15 d s 787 449 m s 728 542 m
 -1 Y s 768 557 m s 794 492 m -1 Y s 728 541 m 23 -56 d s 728 541 m 40 16 d s
 751 485 m 43 6 d s 768 557 m 26 -66 d s 751 524 m -1 X s 751 524 m 13 4 d s 750
 524 m 6 -15 d s 750 524 m 14 3 d s 756 509 m 14 4 d s 764 528 m -1 Y s 764 528
 m 6 -15 d s 764 527 m 6 -14 d s 770 513 m s 696 595 m -1 -1 d s 731 618 m -1 X
 s 695 594 m 33 -52 d s 695 594 m 35 24 d s 768 557 m s 728 542 m 40 15 d s 730
 618 m 38 -61 d s 720 581 m s 720 581 m 8 -13 d s 720 581 m 12 6 d s 728 568 m
 13 6 d s 733 588 m -1 -1 d s 733 588 m 8 -14 d s 732 587 m 9 -13 d s 741 574 m
 s 683 672 m -1 X s 654 641 m 28 31 d s 654 641 m 41 -47 d s 730 618 m s 682 672
 m 48 -54 d s 695 594 m 35 24 d s 680 633 m 10 -12 d s 680 633 m 10 9 d s 690
 621 m 11 9 d s 690 642 m s 690 642 m 11 -12 d s 690 642 m 11 -12 d s 701 630 m
 s 626 717 m s 605 681 m 21 36 d s 605 681 m 48 -40 d s 665 653 m -12 -12 d s
 626 717 m 56 -45 d s 693 683 m -11 -11 d s 653 641 m 29 31 d s 631 677 m 8 11 d
 s 631 677 m 13 -10 d s 640 688 m -1 X s 640 688 m 12 -10 d s 639 688 m 13 -10 d
 s 644 667 m 8 11 d s 652 678 m s 563 751 m s 550 711 m 13 40 d s 550 711 m 54
 -30 d s 563 751 m 63 -34 d s 605 681 m -1 X s 626 718 m -1 Y s 604 681 m 22 36
 d s 576 712 m 6 13 d s 576 712 m 14 -7 d s 582 725 m s 582 725 m 14 -7 d s 582
 725 m 14 -8 d s 590 705 m s 590 705 m 6 12 d s 596 718 m -1 Y s 497 774 m s 492
 730 m 5 44 d s 492 730 m 58 -19 d s 497 774 m 66 -23 d s 550 711 m s 563 752 m
 -1 Y s 550 711 m 13 40 d s 517 737 m 3 14 d s 517 737 m 14 -5 d s 520 751 m s
 520 751 m 14 -5 d s 520 751 m 14 -5 d s 531 732 m s 531 732 m 3 14 d s 531 732
 m 3 14 d s 534 746 m s 425 829 m 4 -45 d s 425 829 m s 425 829 m 76 -11 d s 429
 784 m 68 -10 d s 497 774 m s 501 818 m s 497 774 m 4 44 d s 455 795 m 14 Y s
 455 795 m 15 -2 d s 455 810 m -1 Y s 455 810 m 15 -2 d s 455 809 m 15 -2 d s
 470 793 m s 470 793 m 15 Y s 470 793 m 14 Y s 470 808 m -1 Y s 349 825 m 13 -45
 d s 349 825 m 1 X s 349 825 m 75 4 d s 362 780 m 67 4 d s 424 829 m 5 -45 d s
 424 829 m 1 X s 429 784 m s 382 812 m -1 Y s 382 812 m 15 X s 382 811 m 3 -14 d
 s 382 811 m 15 1 d s 385 797 m 15 X s 397 812 m s 397 812 m 3 -14 d s 397 812 m
 3 -15 d s 400 798 m -1 Y s 278 806 m 22 -42 d s 278 806 m 10 3 d s 278 806 m 71
 19 d s 300 764 m 62 16 d s 349 825 m 13 -45 d s 349 825 m 1 X s 362 780 m s 312
 799 m s 312 799 m 14 4 d s 312 799 m 6 -14 d s 312 799 m 14 4 d s 318 785 m 14
 3 d s 326 803 m s 326 803 m 6 -15 d s 326 803 m 6 -15 d s 332 788 m s 215 773 m
 28 -39 d s 215 773 m 63 33 d s 243 734 m 2 1 d s 243 734 m 56 29 d s 278 806 m
 21 -43 d s 278 806 m 12 3 d s 299 763 m 1 1 d s 248 773 m s 248 773 m 8 -14 d s
 248 773 m 13 6 d s 256 759 m 13 7 d s 261 779 m s 261 779 m 8 -13 d s 261 779 m
 8 -13 d s 269 766 m s 160 727 m 35 -33 d s 160 727 m 54 46 d s 195 694 m 48 40
 d s 195 694 m 1 X s 214 773 m 29 -39 d s 214 773 m 1 X s 243 734 m 1 1 d s 192
 734 m 11 -12 d s 192 734 m 11 8 d s 203 722 m 10 9 d s 203 743 m -1 Y s 203 743
 m 11 -12 d s 203 742 m 10 -11 d s 214 731 m -1 X s 118 670 m 39 -26 d s 118 670
 m 42 57 d s 157 644 m 38 50 d s 157 644 m 1 X s 160 727 m 35 -33 d s 160 727 m
 s 195 694 m s 147 683 m 8 11 d s 147 683 m 12 -10 d s 155 694 m s 155 694 m 13
 -10 d s 155 694 m 12 -10 d s 159 673 m 8 11 d s 168 684 m -1 X s 88 605 m 29 65
 d s 88 605 m 43 -19 d s 117 670 m 40 -27 d s 117 670 m 1 X s 131 586 m 26 57 d
 s 131 586 m 1 X s 157 643 m 1 1 d s 113 623 m 6 13 d s 113 623 m 14 -7 d s 119
 636 m s 119 636 m 14 -7 d s 119 636 m 14 -7 d s 127 616 m s 127 616 m 6 13 d s
 133 629 m s 73 533 m 15 71 d s 73 533 m 45 -11 d s 88 604 m 43 -19 d s 88 604 m
 1 Y s 118 522 m 13 63 d s 118 522 m s 131 585 m 1 1 d s 94 556 m 2 14 d s 94
 556 m 14 -4 d s 97 571 m -1 -1 d s 97 571 m 14 -5 d s 96 570 m 15 -4 d s 108
 552 m s 108 552 m 3 14 d s 108 552 m 3 14 d s 111 566 m s 73 457 m 75 Y s 73
 457 m 45 -2 d s 73 532 m 45 -10 d s 73 532 m 1 1 d s 118 455 m 67 Y s 118 455 m
 s 118 522 m s 88 485 m 15 Y s 88 485 m 15 -2 d s 88 500 m s 88 500 m 15 -2 d s
 88 500 m 15 -2 d s 103 483 m s 103 483 m 15 Y s 103 483 m 15 Y s 103 498 m s 73
 457 m 15 -76 d s 73 457 m 45 -2 d s 73 457 m 1 X s 88 381 m 43 7 d s 118 455 m
 13 -67 d s 118 455 m 1 X s 131 388 m 1 X s 94 427 m s 94 427 m 14 1 d s 94 427
 m 2 -15 d s 94 427 m 14 1 d s 96 412 m 15 1 d s 108 428 m s 108 428 m 3 -15 d s
 108 428 m 3 -15 d s 111 413 m s 88 381 m 29 -74 d s 88 381 m 43 6 d s 88 381 m
 1 X s 117 307 m 40 15 d s 131 387 m 26 -65 d s 131 387 m 1 1 d s 157 322 m s
 114 354 m -1 X s 114 354 m 13 4 d s 113 354 m 6 -14 d s 113 354 m 14 4 d s 119
 340 m 14 4 d s 127 358 m s 127 358 m 6 -14 d s 127 358 m 6 -14 d s 133 344 m s
 118 306 m 39 16 d s 118 306 m 42 -68 d s 118 306 m 1 Y s 157 322 m 38 -61 d s
 157 322 m 1 X s 160 238 m 35 23 d s 195 261 m s 147 285 m s 147 285 m 8 -13 d s
 147 285 m 12 6 d s 155 272 m 12 6 d s 159 292 m -1 Y s 159 292 m 9 -14 d s 159
 291 m 8 -13 d s 168 278 m -1 X s 160 238 m 35 23 d s 160 238 m 54 -61 d s 160
 238 m 2 1 d s 195 261 m 48 -54 d s 195 261 m 2 1 d s 214 177 m 29 30 d s 214
 177 m 29 30 d s 243 207 m 29 30 d s 192 222 m 11 -12 d s 192 222 m 11 9 d s 203
 210 m 10 9 d s 203 231 m s 203 231 m 11 -12 d s 203 231 m 10 -12 d s 214 219 m
 -1 X s 215 176 m 28 31 d s 215 176 m 63 -50 d s 243 207 m s 243 207 m 56 -45 d
 s 278 126 m 21 36 d s 278 126 m 1 1 d s 299 162 m 2 1 d s 248 167 m 8 11 d s
 248 167 m 13 -10 d s 257 178 m -1 X s 257 178 m 12 -10 d s 256 178 m 13 -10 d s
 261 157 m 8 11 d s 269 168 m s 278 125 m 22 37 d s 278 125 m 71 -39 d s 300 162
 m s 300 162 m 62 -35 d s 349 86 m 13 41 d s 349 86 m 1 1 d s 362 127 m 1 1 d s
 312 122 m 6 13 d s 312 122 m 14 -7 d s 318 135 m s 318 135 m 14 -7 d s 318 135
 m 14 -8 d s 326 115 m s 326 115 m 6 12 d s 332 128 m -1 Y s 349 86 m 13 41 d s
 349 86 m 75 -25 d s 362 127 m s 362 127 m 67 -22 d s 424 61 m 5 44 d s 424 61 m
 1 1 d s 429 105 m s 382 90 m 3 14 d s 382 90 m 15 -5 d s 385 104 m s 385 104 m
 15 -5 d s 385 104 m 15 -5 d s 397 85 m s 397 85 m 3 14 d s 397 85 m 3 14 d s
 400 99 m s 425 61 m 4 44 d s 425 61 m 76 -11 d s 429 105 m s 429 105 m 68 -10 d
 s 497 95 m s 501 51 m -1 Y s 497 95 m 4 -45 d s 455 71 m 15 Y s 455 71 m 15 -2
 d s 455 86 m s 455 86 m 15 -2 d s 455 86 m 15 -2 d s 470 69 m s 470 69 m 15 Y s
 470 69 m 15 Y s 470 84 m s 497 95 m s 497 95 m 4 -45 d s 497 95 m 66 4 d s 501
 50 m 75 4 d s 563 99 m s 576 54 m s 563 99 m 13 -45 d s 526 81 m -1 X s 526 81
 m 14 1 d s 525 81 m 3 -15 d s 525 81 m 15 1 d s 528 66 m 15 1 d s 540 82 m s
 540 82 m 3 -15 d s 540 82 m 3 -15 d s 543 67 m s 564 99 m -1 X s 563 99 m 14
 -45 d s 563 99 m 63 16 d s 577 54 m 70 19 d s 626 116 m -1 Y s 647 73 m s 626
 115 m 21 -42 d s 594 90 m -1 X s 594 90 m 13 4 d s 593 90 m 6 -14 d s 593 90 m
 14 4 d s 599 76 m 14 3 d s 607 94 m s 607 94 m 6 -14 d s 607 94 m 6 -15 d s 613
 80 m -1 Y s 626 116 m -1 Y s 626 115 m 21 -42 d s 626 115 m 56 29 d s 682 145 m
 -1 Y s 647 73 m 64 33 d s 711 106 m s 682 144 m 29 -38 d s 657 113 m -1 X s 656
 113 m 9 -14 d s 656 113 m 13 6 d s 665 99 m 12 7 d s 669 119 m s 669 119 m 8
 -13 d s 669 119 m 8 -13 d s 677 106 m s 683 145 m s 730 185 m s 683 145 m 28
 -39 d s 683 145 m 47 40 d s 765 152 m s 711 106 m 54 46 d s 730 185 m 35 -33 d
 s 712 148 m 10 -12 d s 712 148 m 10 9 d s 722 136 m 11 9 d s 722 157 m s 722
 157 m 11 -12 d s 722 157 m 11 -12 d s 733 145 m s 731 186 m -1 -1 d s 769 237 m
 -1 -2 d s 808 209 m -1 Y s 730 185 m 35 -33 d s 730 185 m 38 50 d s 765 152 m
 43 56 d s 768 235 m 40 -27 d s 758 194 m 8 11 d s 758 194 m 12 -10 d s 766 205
 m s 766 205 m 12 -10 d s 766 205 m 12 -10 d s 770 184 m 8 11 d s 778 195 m s
 769 238 m -1 -3 d s 794 293 m s 839 279 m -2 -5 d s 768 235 m 26 58 d s 768 235
 m 40 -26 d s 794 293 m 43 -19 d s 808 209 m 29 65 d s 792 250 m 6 13 d s 792
 250 m 14 -8 d s 798 263 m s 798 263 m 14 -8 d s 798 263 m 14 -8 d s 806 243 m
 -1 Y s 806 242 m 6 13 d s 812 255 m s 807 357 m s 839 279 m -2 -5 d s 853 347 m
 -1 -1 d s 794 293 m 13 64 d s 794 293 m 43 -19 d s 807 357 m 45 -11 d s 837 274
 m 15 72 d s 814 313 m 3 14 d s 814 313 m 15 -5 d s 817 327 m s 817 327 m 15 -5
 d s 817 327 m 15 -5 d s 829 308 m s 829 308 m 3 14 d s 829 308 m 3 14 d s 832
 322 m s 807 424 m s 853 347 m -1 -1 d s 852 422 m s 807 357 m 67 Y s 807 357 m
 45 -11 d s 807 424 m 45 -2 d s 852 346 m 76 Y s 822 381 m 14 Y s 822 381 m 15
 -2 d s 823 396 m -1 -1 d s 823 396 m 15 -3 d s 822 395 m 15 -2 d s 838 379 m -1
 X s 838 379 m 14 Y s 837 379 m 14 Y s 838 393 m -1 X s 794 492 m -1 Y s 838 498
 m -1 X s 852 422 m s 794 491 m 13 -67 d s 794 491 m 43 7 d s 807 424 m 45 -2 d
 s 837 498 m 15 -76 d s 814 466 m s 814 466 m 15 1 d s 814 466 m 3 -15 d s 814
 466 m 15 X s 817 451 m 15 1 d s 829 467 m -1 Y s 829 467 m 3 -15 d s 829 466 m
 3 -14 d s 832 452 m s 768 557 m s 808 572 m s 837 499 m -1 Y s 768 557 m 26 -66
 d s 768 557 m 40 15 d s 794 491 m 43 7 d s 808 572 m 29 -74 d s 792 535 m s 792
 535 m 14 4 d s 792 535 m 6 -15 d s 792 535 m 14 3 d s 798 520 m 14 4 d s 806
 539 m -1 Y s 806 539 m 6 -15 d s 806 538 m 6 -14 d s 812 524 m s 731 618 m -1 X
 s 766 642 m -1 -1 d s 808 572 m s 730 618 m 35 23 d s 730 618 m 38 -61 d s 765
 641 m 43 -69 d s 768 557 m 40 15 d s 758 601 m -1 Y s 770 607 m s 758 600 m 8
 -13 d s 758 600 m 12 7 d s 766 587 m 12 6 d s 770 607 m s 770 607 m 8 -13 d s
 770 607 m 8 -14 d s 778 594 m -1 Y s 711 702 m s 683 672 m 28 30 d s 683 672 m
 47 -54 d s 765 641 m s 711 702 m 54 -61 d s 730 618 m 35 23 d s 712 660 m 10
 -12 d s 712 660 m 10 9 d s 722 648 m 11 9 d s 722 669 m s 722 669 m 11 -12 d s
 722 669 m 11 -12 d s 733 657 m s 648 753 m -1 X s 626 717 m 21 36 d s 626 717 m
 56 -45 d s 694 684 m -12 -12 d s 647 753 m 64 -51 d s 722 713 m -11 -11 d s 682
 672 m 29 30 d s 656 711 m 9 11 d s 656 711 m 13 -10 d s 665 722 m s 665 722 m
 12 -10 d s 665 722 m 12 -10 d s 669 701 m 8 11 d s 677 712 m s 577 792 m s 563
 751 m 14 41 d s 563 751 m 63 -34 d s 577 792 m 70 -39 d s 627 718 m -1 -1 d s
 648 754 m -1 -1 d s 626 717 m 21 36 d s 593 751 m 6 13 d s 593 751 m 14 -8 d s
 599 764 m s 599 764 m 14 -8 d s 599 764 m 14 -8 d s 607 744 m -1 Y s 607 743 m
 6 13 d s 613 756 m s 502 818 m -1 X s 497 774 m 4 44 d s 497 774 m 66 -22 d s
 501 818 m 75 -26 d s 564 752 m -1 X s 577 793 m -1 -1 d s 563 752 m 13 40 d s
 525 779 m 3 14 d s 525 779 m 15 -4 d s 529 794 m -1 -1 d s 529 794 m 14 -5 d s
 528 793 m 15 -5 d s 540 775 m s 540 775 m 3 14 d s 540 775 m 3 13 d s 543 789 m
 -1 Y s 420 874 m 5 -45 d s 420 874 m 146 29 d s 420 874 m 85 -12 d s 425 829 m
 76 -11 d s 566 903 m 64 -9 d s 630 894 m s 501 818 m s 630 894 m -125 -32 d s
 501 818 m 4 44 d s 455 839 m 15 Y s 455 839 m 15 -2 d s 455 854 m s 455 854 m
 15 -2 d s 455 854 m 15 -2 d s 470 838 m -1 Y s 470 838 m 14 Y s 470 837 m 15 Y
 s 470 852 m s 336 869 m 13 -44 d s 336 869 m 167 31 d s 336 869 m 84 5 d s 349
 825 m 75 4 d s 503 900 m 63 3 d s 420 874 m 4 -45 d s 420 874 m 146 29 d s 424
 829 m 1 X s 566 903 m s 374 857 m -1 -1 d s 374 857 m 14 X s 373 856 m 3 -14 d
 s 373 856 m 15 1 d s 376 842 m 15 X s 388 857 m s 388 857 m 3 -14 d s 388 857 m
 3 -15 d s 391 843 m -1 Y s 257 848 m 21 -42 d s 257 848 m 79 21 d s 278 806 m
 71 19 d s 336 869 m 13 -44 d s 336 869 m 167 31 d s 349 825 m s 295 843 m s 295
 843 m 14 3 d s 295 843 m 6 -15 d s 295 843 m 14 3 d s 301 828 m 13 4 d s 309
 846 m s 309 846 m 6 -14 d s 309 846 m 5 -14 d s 315 832 m -1 X s 186 812 m 28
 -39 d s 186 812 m 71 36 d s 214 773 m 1 X s 214 773 m 64 33 d s 257 848 m 21
 -42 d s 257 848 m s 278 806 m s 223 813 m s 223 813 m 8 -13 d s 223 813 m 12 7
 d s 231 800 m 13 6 d s 236 820 m -1 X s 236 820 m 8 -13 d s 235 820 m 9 -14 d s
 244 807 m -1 Y s 125 761 m 35 -34 d s 125 761 m 60 51 d s 160 727 m 54 46 d s
 160 727 m 1 1 d s 185 812 m 29 -39 d s 185 812 m 1 X s 214 773 m s 160 770 m 11
 -12 d s 160 770 m 11 8 d s 171 758 m 10 9 d s 171 779 m -1 Y s 171 779 m 11 -12
 d s 171 778 m 10 -11 d s 182 767 m -1 X s 77 697 m 40 -26 d s 77 697 m 48 63 d
 s 117 671 m 43 56 d s 117 671 m 1 X s 125 760 m 35 -33 d s 125 760 m 1 Y s 160
 727 m s 109 713 m 8 11 d s 109 713 m 13 -10 d s 118 724 m -1 X s 118 724 m 12
 -9 d s 117 724 m 13 -10 d s 122 703 m 8 11 d s 130 715 m -1 Y s 45 624 m 32 73
 d s 45 624 m 43 -19 d s 77 697 m 40 -27 d s 77 697 m 1 X s 88 605 m 29 65 d s
 88 605 m s 117 670 m 1 X s 72 646 m 5 13 d s 72 646 m 13 -7 d s 78 659 m -1 X s
 78 659 m 13 -7 d s 77 659 m 14 -7 d s 86 639 m -1 X s 85 639 m 6 13 d s 91 652
 m s 28 544 m 17 80 d s 28 544 m 45 -11 d s 45 624 m 43 -19 d s 45 624 m s 73
 533 m 15 72 d s 73 533 m s 88 605 m s 49 572 m 3 13 d s 49 572 m 15 -5 d s 52
 586 m -1 Y s 52 586 m 15 -5 d s 52 585 m 15 -4 d s 64 567 m s 64 567 m 3 14 d s
 64 567 m 3 14 d s 67 581 m s 28 459 m 84 Y s 28 459 m 45 -2 d s 28 543 m 45 -11
 d s 28 543 m s 73 457 m 75 Y s 73 457 m s 73 532 m 1 Y s 43 492 m 14 Y s 43 492
 m 14 -3 d s 43 506 m s 43 506 m 15 -2 d s 43 506 m 14 -2 d s 58 490 m -1 -1 d s
 58 490 m 14 Y s 57 489 m 15 Y s 58 504 m -1 X s 28 459 m 17 -85 d s 28 459 m 45
 -2 d s 28 459 m s 45 374 m 43 7 d s 73 457 m 15 -76 d s 73 457 m s 88 381 m s
 49 425 m -1 Y s 49 425 m 15 X s 49 424 m 3 -14 d s 49 424 m 15 1 d s 52 410 m
 15 X s 64 425 m s 64 425 m 3 -14 d s 64 425 m 3 -15 d s 67 411 m -1 Y s 45 374
 m 32 -83 d s 45 374 m 43 6 d s 45 374 m s 77 291 m 40 16 d s 88 380 m 29 -73 d
 s 88 380 m 1 1 d s 117 307 m s 72 343 m s 72 343 m 14 4 d s 72 343 m 5 -14 d s
 72 343 m 13 4 d s 77 329 m 14 3 d s 86 347 m -1 X s 86 347 m 5 -14 d s 85 347 m
 6 -15 d s 91 333 m -1 Y s 77 291 m 40 15 d s 77 291 m 48 -77 d s 77 291 m 1 1 d
 s 117 306 m 43 -68 d s 117 306 m 1 1 d s 125 214 m 35 24 d s 160 238 m s 109
 266 m s 109 266 m 8 -14 d s 109 266 m 13 6 d s 117 252 m 13 7 d s 122 272 m s
 122 272 m 8 -13 d s 122 272 m 8 -13 d s 130 259 m s 125 214 m 35 23 d s 125 214
 m 60 -68 d s 125 214 m 2 2 d s 160 237 m 54 -60 d s 160 237 m 2 2 d s 185 146 m
 29 31 d s 185 146 m 30 30 d s 214 177 m 29 30 d s 160 195 m 11 -12 d s 160 195
 m 11 9 d s 171 183 m 10 9 d s 171 204 m s 171 204 m 11 -12 d s 171 204 m 10 -12
 d s 182 192 m -1 X s 186 146 m 28 30 d s 186 146 m 71 -57 d s 214 176 m 1 X s
 214 176 m 64 -51 d s 257 89 m 21 36 d s 257 89 m 1 2 d s 278 125 m 1 2 d s 223
 133 m 8 11 d s 223 133 m 12 -10 d s 231 144 m s 231 144 m 13 -9 d s 231 144 m
 13 -10 d s 235 123 m 9 11 d s 244 135 m -1 Y s 257 89 m 21 36 d s 257 89 m 79
 -43 d s 278 125 m s 278 125 m 71 -39 d s 336 46 m 13 40 d s 336 46 m s 349 86 m
 1 1 d s 295 83 m 6 13 d s 295 83 m 14 -7 d s 301 96 m s 301 96 m 14 -7 d s 301
 96 m 13 -7 d s 309 76 m s 309 76 m 5 13 d s 315 89 m -1 X s 336 45 m 13 41 d s
 336 45 m 84 -28 d s 349 86 m s 349 86 m 75 -25 d s 420 17 m 4 44 d s 420 17 m 1
 Y s 424 61 m 1 X s 373 47 m 3 14 d s 373 47 m 15 -5 d s 376 62 m -1 Y s 376 62
 m 15 -5 d s 376 61 m 15 -5 d s 388 43 m -1 Y s 388 43 m 3 14 d s 388 42 m 3 14
 d s 391 57 m -1 Y s 420 17 m 5 44 d s 420 17 m 85 -12 d s 425 61 m s 425 61 m
 76 -11 d s 501 50 m s 506 5 m -1 X s 501 50 m 4 -45 d s 455 26 m 15 Y s 455 26
 m 15 -2 d s 455 41 m s 455 41 m 15 -2 d s 455 41 m 15 -2 d s 470 24 m s 470 24
 m 15 Y s 470 24 m 15 Y s 470 39 m s 501 50 m s 501 50 m 5 -45 d s 501 50 m 75 4
 d s 506 5 m 83 4 d s 576 54 m s 590 10 m -1 -1 d s 576 54 m 13 -45 d s 534 36 m
 s 534 36 m 15 1 d s 534 36 m 3 -15 d s 534 36 m 15 1 d s 537 21 m 15 1 d s 549
 37 m s 549 37 m 3 -15 d s 549 37 m 3 -15 d s 552 22 m s 577 54 m s 577 54 m 13
 -45 d s 577 54 m 70 19 d s 590 9 m 79 21 d s 647 73 m s 669 31 m -1 Y s 647 73
 m 22 -43 d s 611 47 m s 611 47 m 14 3 d s 611 47 m 5 -15 d s 611 47 m 13 3 d s
 616 32 m 14 4 d s 625 50 m -1 X s 625 50 m 5 -14 d s 624 50 m 6 -14 d s 630 36
 m s 648 73 m s 648 73 m 21 -43 d s 648 73 m 63 33 d s 711 106 m s 669 30 m 71
 37 d s 740 67 m s 711 106 m 29 -39 d s 682 72 m -1 X s 681 72 m 9 -13 d s 681
 72 m 13 6 d s 690 59 m 12 6 d s 694 79 m -1 Y s 694 79 m 8 -14 d s 694 78 m 8
 -13 d s 702 65 m s 711 106 m s 766 152 m -1 -1 d s 711 106 m 29 -39 d s 711 106
 m 54 45 d s 801 119 m -1 -1 d s 740 67 m 60 51 d s 765 151 m 35 -33 d s 744 112
 m 10 -12 d s 744 112 m 10 9 d s 754 100 m 11 9 d s 755 121 m -1 X s 755 121 m
 10 -12 d s 754 121 m 11 -12 d s 765 109 m s 766 152 m s 808 209 m -1 Y s 848
 182 m s 766 152 m 35 -34 d s 766 152 m 42 56 d s 801 118 m 47 64 d s 808 208 m
 40 -26 d s 795 164 m 9 11 d s 795 164 m 13 -10 d s 804 175 m s 804 175 m 12 -10
 d s 804 175 m 12 -10 d s 808 154 m 8 11 d s 816 165 m s 809 210 m -1 -1 d s 838
 274 m s 881 255 m s 808 209 m 30 65 d s 808 209 m 40 -27 d s 838 274 m 43 -19 d
 s 848 182 m 33 73 d s 834 227 m 6 13 d s 834 227 m 14 -8 d s 840 240 m s 840
 240 m 14 -8 d s 840 240 m 13 -8 d s 848 219 m s 848 219 m 5 13 d s 854 232 m -1
 X s 853 346 m s 922 501 m -24 -166 d s 838 274 m 15 72 d s 838 274 m 43 -19 d s
 853 346 m 45 -11 d s 881 255 m 17 80 d s 858 298 m 3 14 d s 858 298 m 15 -5 d s
 862 312 m -1 X s 862 312 m 14 -5 d s 861 312 m 15 -5 d s 873 293 m s 873 293 m
 3 14 d s 873 293 m 3 14 d s 876 307 m s 922 564 m s 853 422 m s 922 501 m 63 Y
 s 922 501 m -24 -165 d s 922 564 m -24 -144 d s 853 346 m 76 Y s 853 346 m 45
 -10 d s 853 422 m 45 -2 d s 898 336 m 84 Y s 868 374 m 15 Y s 868 374 m 15 -2 d
 s 868 389 m s 868 389 m 15 -2 d s 868 389 m 15 -2 d s 883 372 m s 883 372 m 15
 Y s 883 372 m 15 Y s 883 387 m s 910 628 m s 838 498 m s 910 628 m 12 -64 d s
 910 628 m -29 -123 d s 922 564 m -24 -144 d s 838 498 m 15 -76 d s 838 498 m 43
 7 d s 853 422 m 45 -2 d s 881 505 m 17 -85 d s 859 468 m -1 X s 859 468 m 14 1
 d s 858 468 m 3 -15 d s 858 468 m 15 1 d s 861 453 m 15 1 d s 873 469 m s 873
 469 m 2 -8 d s 873 469 m 1 -7 d s 885 689 m 1 X s 808 573 m -1 Y s 886 689 m 24
 -61 d s 886 689 m -38 -102 d s 910 628 m -29 -123 d s 808 572 m 30 -74 d s 808
 572 m 40 15 d s 838 498 m 43 7 d s 848 587 m 33 -82 d s 834 546 m s 834 546 m
 14 4 d s 834 546 m 6 -14 d s 834 546 m 14 4 d s 840 532 m 13 3 d s 848 550 m s
 848 550 m 6 -15 d s 848 550 m 5 -15 d s 854 535 m -1 X s 849 746 m 1 1 d s 766
 642 m -1 Y s 850 747 m 35 -57 d s 850 747 m -49 -83 d s 885 690 m -37 -102 d s
 766 641 m 35 23 d s 766 641 m 42 -69 d s 801 664 m 47 -76 d s 808 572 m 40 16 d
 s 795 620 m s 795 620 m 9 -14 d s 795 620 m 13 6 d s 804 606 m 12 7 d s 808 626
 m s 808 626 m 8 -13 d s 808 626 m 8 -13 d s 816 613 m s 805 798 m 45 -51 d s
 805 798 m -65 -65 d s 711 702 m 29 31 d s 711 702 m 54 -61 d s 850 747 m -50
 -82 d s 740 733 m 60 -68 d s 765 641 m 35 24 d s 744 687 m 10 -12 d s 744 687 m
 10 9 d s 754 675 m 11 9 d s 755 696 m -1 X s 755 696 m 10 -12 d s 754 696 m 11
 -12 d s 765 684 m s 752 840 m -83 -50 d s 752 840 m 53 -42 d s 648 753 m 21 37
 d s 648 753 m 63 -50 d s 795 788 m 10 10 d s 722 714 m -11 -11 d s 669 790 m 71
 -57 d s 805 798 m -65 -65 d s 711 703 m 29 30 d s 681 744 m 9 11 d s 681 744 m
 13 -10 d s 690 755 m s 690 755 m 12 -10 d s 690 755 m 12 -10 d s 694 734 m 8 11
 d s 702 745 m s 693 873 m -103 -40 d s 693 873 m 58 -32 d s 577 792 m 13 41 d s
 577 792 m 70 -38 d s 590 833 m 79 -43 d s 751 840 m 1 Y s 648 754 m -1 X s 751
 841 m -82 -51 d s 647 754 m 22 36 d s 611 790 m 5 12 d s 611 790 m 13 -8 d s
 617 803 m -1 -1 d s 617 803 m 13 -8 d s 616 802 m 14 -7 d s 625 782 m -1 X s
 624 782 m 6 13 d s 630 795 m s 630 894 m -124 -32 d s 630 894 m 62 -21 d s 501
 818 m 5 44 d s 501 818 m 75 -25 d s 506 862 m 83 -29 d s 692 873 m s 577 793 m
 -1 X s 692 873 m -103 -40 d s 576 793 m 13 40 d s 534 822 m 3 14 d s 534 822 m
 15 -5 d s 537 836 m s 537 836 m 15 -5 d s 537 836 m 15 -5 d s 549 817 m s 549
 817 m 3 14 d s 549 817 m 3 14 d s 552 831 m s 1600 1848 m s 1600 1848 m 3 -33 d
 s 1600 1848 m 42 -6 d s 1603 1815 m 35 -5 d s 1638 1810 m 1 X s 1638 1810 m 4
 32 d s 1642 1842 m 1 Y s 1559 1846 m -1 X s 1558 1846 m 10 -33 d s 1558 1846 m
 42 2 d s 1568 1813 m 35 2 d s 1600 1849 m -1 Y s 1600 1848 m 3 -33 d s 1603
 1815 m s 1520 1836 m s 1520 1836 m 15 -32 d s 1520 1836 m 38 10 d s 1535 1804 m
 33 9 d s 1558 1846 m s 1558 1846 m 10 -33 d s 1568 1813 m s 1485 1818 m -1 X s
 1484 1818 m 22 -29 d s 1484 1818 m 35 18 d s 1519 1836 m s 1506 1789 m 29 15 d
 s 1519 1836 m 16 -32 d s 1535 1804 m s 1455 1793 m s 1484 1818 m s 1455 1793 m
 26 -25 d s 1455 1793 m 29 25 d s 1481 1768 m 25 21 d s 1484 1818 m 22 -29 d s
 1506 1789 m s 1432 1763 m -1 -2 d s 1455 1793 m -1 Y s 1431 1761 m 24 31 d s
 1431 1761 m 30 -19 d s 1455 1792 m 26 -24 d s 1481 1768 m s 1461 1742 m 20 26 d
 s 1432 1763 m -1 -2 d s 1415 1725 m 16 36 d s 1415 1725 m 32 -14 d s 1494 1779
 m -47 -68 d s 1431 1761 m 30 -20 d s 1461 1742 m -1 Y s 1447 1711 m 14 30 d s
 1415 1725 m s 1407 1686 m 8 39 d s 1407 1686 m 33 -8 d s 1526 1800 m -86 -122 d
 s 1415 1725 m 32 -14 d s 1494 1779 m -47 -68 d s 1440 1678 m 7 33 d s 1407 1686
 m s 1407 1644 m 42 Y s 1407 1644 m 33 -1 d s 1407 1686 m 33 -8 d s 1534 1770 m
 34 Y s 1534 1770 m -94 -127 d s 1526 1800 m -86 -122 d s 1440 1643 m 35 Y s
 1407 1644 m s 1534 1770 m s 1407 1644 m 8 -42 d s 1407 1644 m 33 -1 d s 1534
 1770 m 8 -41 d s 1534 1770 m -94 -127 d s 1415 1602 m 32 5 d s 1542 1729 m -95
 -122 d s 1440 1643 m 7 -36 d s 1415 1602 m s 1542 1729 m s 1415 1602 m 16 -40 d
 s 1415 1602 m 32 5 d s 1542 1729 m 16 -39 d s 1542 1729 m -95 -122 d s 1431
 1562 m 30 11 d s 1558 1690 m -97 -117 d s 1447 1607 m 14 -34 d s 1431 1562 m s
 1558 1689 m 1 Y s 1431 1562 m 24 -38 d s 1431 1562 m 30 11 d s 1558 1690 m 23
 -37 d s 1558 1690 m -97 -117 d s 1455 1524 m 26 17 d s 1581 1653 m -100 -112 d
 s 1461 1573 m 20 -32 d s 1455 1524 m s 1580 1652 m 1 1 d s 1493 1500 m -9 -10 d
 s 1600 1609 m 10 11 d s 1455 1524 m 26 17 d s 1455 1524 m 29 -34 d s 1581 1653
 m -100 -112 d s 1581 1653 m 29 -33 d s 1481 1541 m 25 -28 d s 1484 1490 m 22 23
 d s 1610 1620 m -104 -107 d s 1484 1490 m 22 23 d s 1484 1490 m 35 -28 d s 1610
 1620 m -104 -107 d s 1610 1620 m 34 -27 d s 1520 1463 m -1 -1 d s 1644 1592 m 1
 Y s 1506 1513 m 29 -24 d s 1519 1462 m 16 27 d s 1644 1593 m -109 -104 d s 1520
 1462 m 15 27 d s 1520 1462 m 38 -21 d s 1644 1592 m -109 -103 d s 1644 1592 m
 38 -20 d s 1535 1489 m 33 -18 d s 1559 1441 m -1 X s 1682 1571 m 1 Y s 1558
 1441 m 10 30 d s 1682 1572 m -114 -101 d s 1558 1441 m 10 30 d s 1558 1441 m 42
 -14 d s 1682 1572 m -114 -101 d s 1682 1572 m 40 -14 d s 1568 1471 m 35 -12 d s
 1600 1427 m s 1722 1558 m s 1600 1427 m 3 32 d s 1722 1558 m -119 -99 d s 1600
 1427 m 3 32 d s 1600 1427 m 42 -6 d s 1723 1558 m -120 -99 d s 1723 1558 m 41
 -6 d s 1603 1459 m 35 -5 d s 1638 1454 m 126 98 d s 1638 1454 m 4 -33 d s 1764
 1552 m s 1642 1421 m s 1639 1454 m 125 98 d s 1639 1454 m 3 -33 d s 1639 1454 m
 34 2 d s 1764 1552 m 28 2 d s 1642 1421 m 41 2 d s 1673 1456 m 114 85 d s 1673
 1456 m 10 -33 d s 1683 1423 m s 1673 1456 m 114 85 d s 1673 1456 m 10 -33 d s
 1673 1456 m 33 9 d s 1683 1423 m 39 10 d s 1706 1465 m 61 44 d s 1706 1465 m 16
 -32 d s 1722 1433 m s 1706 1465 m 61 44 d s 1706 1465 m 16 -32 d s 1706 1465 m
 30 15 d s 1722 1433 m 35 18 d s 1736 1480 m s 1736 1480 m 21 -29 d s 1757 1451
 m 1 1 d s 1736 1480 m 21 -28 d s 1736 1480 m 25 21 d s 1757 1452 m 30 25 d s
 1757 1452 m 1 X s 1761 1501 m s 1761 1501 m 26 -24 d s 1787 1477 m s 1761 1501
 m 20 27 d s 1761 1501 m 26 -24 d s 1781 1528 m s 1781 1528 m 29 -20 d s 1787
 1477 m 23 31 d s 1787 1477 m s 1810 1508 m 1 X s 1781 1528 m 13 30 d s 1781
 1528 m 29 -20 d s 1794 1558 m s 1794 1558 m 32 -14 d s 1810 1508 m 16 36 d s
 1810 1508 m 1 X s 1826 1544 m 1 X s 1794 1558 m 7 33 d s 1794 1558 m 32 -14 d s
 1801 1591 m s 1801 1591 m 34 -8 d s 1826 1544 m 9 39 d s 1826 1544 m 1 X s 1835
 1583 m s 1801 1592 m 34 Y s 1801 1592 m 34 -9 d s 1801 1626 m 1 Y s 1801 1626 m
 34 -1 d s 1835 1583 m 42 Y s 1835 1583 m 1 Y s 1835 1625 m s 1794 1662 m 7 -35
 d s 1794 1662 m 1 X s 1794 1662 m 32 5 d s 1801 1627 m 34 -2 d s 1826 1667 m 9
 -42 d s 1826 1667 m 1 X s 1835 1625 m s 1781 1696 m 13 -34 d s 1781 1696 m s
 1781 1696 m 29 11 d s 1794 1662 m 32 5 d s 1810 1707 m 16 -40 d s 1810 1707 m 1
 1 d s 1826 1667 m 1 X s 1761 1728 m 20 -32 d s 1761 1728 m 1 1 d s 1761 1728 m
 26 17 d s 1781 1696 m 29 12 d s 1787 1745 m 23 -37 d s 1787 1745 m 1 1 d s 1810
 1708 m s 1736 1756 m 21 23 d s 1736 1756 m 25 -28 d s 1757 1779 m 30 -34 d s
 1757 1779 m s 1761 1728 m 26 17 d s 1787 1745 m 1 Y s 1706 1780 m 16 27 d s
 1706 1780 m 30 -24 d s 1722 1807 m s 1722 1807 m 35 -28 d s 1736 1756 m 14 15 d
 s 1736 1756 m 21 23 d s 1757 1779 m 22 22 d s 1673 1798 m 10 30 d s 1673 1798 m
 33 -18 d s 1683 1828 m s 1683 1828 m 39 -21 d s 1706 1780 m 1 1 d s 1706 1780 m
 16 27 d s 1722 1807 m 1 1 d s 1639 1810 m 3 32 d s 1639 1810 m 34 -12 d s 1642
 1842 m s 1642 1842 m 41 -14 d s 1673 1798 m 1 X s 1673 1798 m 10 30 d s 1683
 1828 m 1 Y s 1597 1882 m -1 X s 1596 1882 m 4 -33 d s 1596 1882 m 49 -7 d s
 1600 1849 m 42 -6 d s 1642 1843 m 3 32 d s 1642 1843 m s 1645 1875 m 1 Y s 1549
 1880 m -1 Y s 1549 1879 m 9 -33 d s 1549 1879 m 47 3 d s 1558 1846 m 42 3 d s
 1596 1882 m s 1600 1849 m s 1596 1882 m 4 -33 d s 1504 1868 m -1 Y s 1504 1867
 m 15 -31 d s 1504 1867 m 44 12 d s 1519 1836 m 39 10 d s 1549 1880 m -1 -1 d s
 1558 1847 m -1 Y s 1548 1879 m 10 -33 d s 1463 1847 m s 1463 1847 m 21 -29 d s
 1463 1847 m 40 20 d s 1504 1868 m -1 -1 d s 1484 1818 m 35 18 d s 1519 1836 m s
 1503 1867 m 16 -31 d s 1429 1818 m -1 Y s 1463 1847 m -1 Y s 1429 1817 m 26 -24
 d s 1429 1817 m 34 29 d s 1484 1818 m s 1455 1793 m 29 25 d s 1463 1846 m 21
 -28 d s 1402 1782 m -1 -1 d s 1429 1818 m -1 -1 d s 1401 1781 m 27 36 d s 1401
 1781 m 30 -19 d s 1454 1793 m s 1428 1817 m 26 -24 d s 1431 1762 m 23 31 d s
 1384 1743 m -1 -3 d s 1402 1782 m -1 -1 d s 1417 1729 m -2 -4 d s 1383 1740 m
 18 41 d s 1383 1740 m 32 -15 d s 1431 1762 m -1 Y s 1401 1781 m 30 -20 d s 1415
 1725 m 16 36 d s 1384 1743 m -1 -4 d s 1407 1687 m -1 Y s 1416 1728 m -1 -3 d s
 1373 1694 m 10 45 d s 1373 1694 m 34 -8 d s 1383 1739 m 32 -14 d s 1407 1686 m
 8 39 d s 1373 1694 m s 1407 1645 m -1 Y s 1407 1686 m s 1373 1646 m 48 Y s 1373
 1646 m 34 -2 d s 1373 1694 m 34 -8 d s 1407 1644 m 42 Y s 1373 1646 m s 1407
 1644 m s 1415 1603 m -1 Y s 1373 1646 m 10 -49 d s 1373 1646 m 34 -2 d s 1383
 1597 m 32 5 d s 1407 1644 m 8 -42 d s 1383 1597 m s 1415 1602 m s 1383 1597 m
 18 -47 d s 1383 1597 m 32 5 d s 1431 1562 m s 1401 1550 m 30 12 d s 1415 1602 m
 16 -40 d s 1402 1550 m -1 X s 1431 1562 m -1 Y s 1401 1550 m 27 -44 d s 1401
 1550 m 30 11 d s 1454 1524 m s 1428 1506 m 26 18 d s 1431 1561 m 23 -37 d s
 1429 1507 m -1 Y s 1455 1524 m s 1472 1477 m -9 -9 d s 1429 1506 m 26 18 d s
 1429 1506 m 34 -38 d s 1494 1500 m -10 -10 d s 1455 1524 m 29 -34 d s 1463 1468
 m 21 22 d s 1485 1490 m -1 X s 1463 1467 m 21 23 d s 1463 1467 m 40 -32 d s
 1504 1436 m -1 -1 d s 1484 1490 m 35 -28 d s 1520 1463 m -1 -1 d s 1503 1435 m
 16 27 d s 1520 1462 m -1 X s 1504 1435 m 15 27 d s 1504 1435 m 44 -25 d s 1519
 1462 m 39 -21 d s 1549 1411 m -1 -1 d s 1558 1441 m s 1548 1410 m 10 31 d s
 1559 1441 m -1 X s 1549 1410 m 9 31 d s 1549 1410 m 47 -16 d s 1558 1441 m 42
 -14 d s 1597 1394 m -1 X s 1600 1427 m s 1596 1394 m 4 33 d s 1600 1427 m s
 1596 1394 m 4 33 d s 1596 1394 m 49 -7 d s 1600 1427 m 42 -6 d s 1642 1421 m 3
 -34 d s 1642 1421 m s 1645 1387 m s 1642 1421 m 3 -34 d s 1642 1421 m s 1642
 1421 m 41 2 d s 1645 1387 m 48 3 d s 1683 1423 m 10 -33 d s 1683 1423 m 1 X s
 1693 1390 m s 1683 1423 m 10 -33 d s 1683 1423 m 1 X s 1683 1423 m 39 10 d s
 1693 1390 m 45 12 d s 1722 1433 m 16 -31 d s 1722 1433 m 5 3 d s 1738 1402 m 2
 1 d s 1722 1433 m 16 -31 d s 1722 1433 m 6 3 d s 1722 1433 m 35 18 d s 1738
 1402 m 2 1 d s 1738 1402 m 40 21 d s 1757 1451 m 21 -28 d s 1757 1451 m s 1778
 1423 m 1 X s 1757 1451 m 22 -28 d s 1757 1451 m 30 25 d s 1779 1423 m 34 29 d s
 1779 1423 m s 1787 1476 m 26 -24 d s 1787 1476 m s 1813 1452 m s 1787 1477 m 23
 31 d s 1787 1477 m 26 -25 d s 1810 1508 m 30 -20 d s 1810 1508 m 1 X s 1813
 1452 m 27 36 d s 1813 1452 m 1 X s 1840 1488 m s 1811 1508 m 16 36 d s 1811
 1508 m 29 -20 d s 1827 1544 m 32 -15 d s 1827 1544 m s 1840 1488 m 19 41 d s
 1840 1488 m 1 X s 1859 1529 m 1 Y s 1827 1544 m 8 39 d s 1827 1544 m 32 -14 d s
 1835 1583 m 33 -8 d s 1835 1583 m s 1859 1530 m 9 45 d s 1859 1530 m s 1868
 1575 m 1 X s 1835 1583 m 42 Y s 1835 1583 m 33 -8 d s 1835 1625 m 33 -2 d s
 1835 1625 m s 1868 1575 m 48 Y s 1868 1575 m 1 1 d s 1868 1623 m 1 1 d s 1827
 1667 m 8 -42 d s 1827 1667 m 32 5 d s 1827 1667 m s 1835 1625 m 33 -1 d s 1859
 1672 m 9 -48 d s 1859 1672 m s 1868 1624 m s 1811 1707 m 16 -40 d s 1811 1707 m
 29 12 d s 1811 1707 m 1 Y s 1827 1667 m 32 5 d s 1840 1719 m 19 -47 d s 1840
 1719 m 1 X s 1859 1672 m s 1787 1745 m 23 -37 d s 1787 1745 m 26 18 d s 1787
 1745 m 1 1 d s 1810 1708 m 30 11 d s 1813 1763 m 27 -44 d s 1813 1763 m 1 1 d s
 1840 1719 m s 1757 1779 m 22 23 d s 1757 1779 m 30 -33 d s 1779 1802 m 34 -39 d
 s 1779 1802 m s 1787 1746 m 26 17 d s 1813 1763 m s 1722 1807 m 16 27 d s 1722
 1807 m 35 -28 d s 1738 1834 m s 1738 1834 m 40 -32 d s 1757 1779 m 21 23 d s
 1757 1779 m 22 22 d s 1778 1802 m 22 22 d s 1683 1828 m 10 31 d s 1683 1828 m
 39 -21 d s 1693 1859 m s 1693 1859 m 45 -25 d s 1722 1807 m 16 27 d s 1722 1807
 m 1 1 d s 1738 1834 m 1 1 d s 1642 1842 m 3 33 d s 1642 1842 m 41 -13 d s 1645
 1875 m s 1645 1875 m 48 -16 d s 1683 1829 m 10 30 d s 1683 1829 m 1 X s 1693
 1859 m 1 Y s 1593 1916 m s 1593 1916 m 3 -34 d s 1593 1916 m 55 -8 d s 1596
 1882 m 49 -7 d s 1645 1875 m 3 33 d s 1645 1875 m 1 Y s 1648 1908 m 1 X s 1539
 1913 m s 1539 1913 m 10 -33 d s 1539 1913 m 54 3 d s 1549 1880 m 47 2 d s 1593
 1916 m s 1596 1883 m -1 Y s 1593 1916 m 3 -34 d s 1488 1899 m s 1488 1899 m 16
 -31 d s 1488 1899 m 51 14 d s 1504 1868 m 44 12 d s 1539 1913 m s 1549 1880 m
 -1 X s 1539 1913 m 9 -33 d s 1442 1876 m -1 Y s 1442 1875 m 21 -28 d s 1442
 1875 m 45 24 d s 1488 1899 m -1 X s 1463 1847 m 40 21 d s 1503 1868 m s 1487
 1899 m 16 -31 d s 1402 1843 m -1 Y s 1441 1876 m -1 Y s 1402 1842 m 26 -24 d s
 1402 1842 m 39 33 d s 1463 1847 m s 1428 1818 m 35 29 d s 1441 1875 m 22 -28 d
 s 1372 1802 m -1 Y s 1402 1843 m -1 Y s 1372 1801 m 29 -19 d s 1372 1801 m 30
 41 d s 1428 1818 m -1 Y s 1401 1782 m 27 35 d s 1402 1842 m 26 -25 d s 1351
 1755 m -1 -1 d s 1372 1802 m -1 -1 d s 1401 1782 m -1 Y s 1350 1754 m 21 47 d s
 1350 1754 m 33 -14 d s 1371 1801 m 30 -20 d s 1383 1740 m 18 41 d s 1351 1755 m
 -1 -1 d s 1373 1695 m -1 Y s 1383 1740 m -1 X s 1339 1702 m 11 52 d s 1339 1702
 m 34 -8 d s 1350 1754 m 32 -14 d s 1373 1694 m 9 46 d s 1340 1702 m -1 X s 1373
 1646 m s 1373 1695 m -1 Y s 1339 1647 m 55 Y s 1339 1647 m 34 -1 d s 1339 1702
 m 34 -8 d s 1373 1646 m 48 Y s 1340 1647 m -1 X s 1373 1646 m s 1383 1598 m -1
 -1 d s 1339 1647 m 11 -55 d s 1339 1647 m 34 -1 d s 1350 1592 m 32 5 d s 1373
 1646 m 9 -49 d s 1350 1592 m s 1383 1597 m s 1401 1550 m s 1350 1592 m 21 -53 d
 s 1350 1592 m 33 5 d s 1371 1539 m 30 11 d s 1383 1597 m 18 -47 d s 1372 1539 m
 s 1401 1550 m s 1372 1539 m 29 11 d s 1372 1539 m 30 -50 d s 1428 1507 m -1 Y s
 1401 1550 m 27 -44 d s 1402 1489 m 26 17 d s 1403 1489 m -1 X s 1429 1507 m -1
 -1 d s 1451 1454 m -10 -9 d s 1402 1489 m 26 17 d s 1402 1489 m 39 -44 d s 1473
 1478 m -10 -11 d s 1428 1506 m 35 -39 d s 1441 1445 m 22 22 d s 1463 1467 m s
 1442 1445 m 21 22 d s 1442 1445 m 45 -37 d s 1488 1408 m -1 X s 1463 1467 m 40
 -32 d s 1504 1435 m -1 X s 1487 1408 m 16 27 d s 1504 1435 m s 1488 1408 m 16
 27 d s 1488 1408 m 51 -28 d s 1504 1435 m 44 -25 d s 1539 1380 m s 1549 1410 m
 -1 X s 1539 1380 m 9 30 d s 1549 1410 m s 1539 1380 m 10 30 d s 1539 1380 m 54
 -19 d s 1549 1410 m 47 -16 d s 1593 1362 m -1 Y s 1596 1394 m s 1593 1361 m 3
 33 d s 1597 1394 m -1 X s 1593 1361 m 3 33 d s 1593 1361 m 55 -8 d s 1596 1394
 m 49 -7 d s 1645 1387 m 3 -34 d s 1645 1387 m s 1648 1353 m 1 1 d s 1645 1387 m
 4 -34 d s 1645 1387 m 1 X s 1645 1387 m 48 2 d s 1649 1353 m 54 3 d s 1693 1389
 m 10 -33 d s 1693 1389 m 1 1 d s 1703 1356 m s 1693 1390 m 10 -34 d s 1693 1390
 m 2 X s 1693 1390 m 45 11 d s 1703 1356 m 51 14 d s 1738 1401 m 16 -31 d s 1738
 1401 m 1 Y s 1754 1370 m 1 X s 1738 1402 m 16 -32 d s 1738 1402 m 41 20 d s
 1754 1370 m 1 X s 1754 1370 m 46 24 d s 1779 1422 m 21 -28 d s 1779 1422 m s
 1800 1394 m 1 X s 1779 1423 m 21 -29 d s 1779 1423 m 34 28 d s 1800 1394 m 39
 33 d s 1800 1394 m 1 X s 1813 1451 m 26 -24 d s 1813 1451 m 1 Y s 1839 1427 m s
 1813 1452 m 26 -25 d s 1813 1452 m 27 36 d s 1839 1427 m 31 41 d s 1839 1427 m
 1 X s 1840 1488 m 30 -20 d s 1840 1488 m 1 X s 1870 1468 m s 1840 1488 m 19 41
 d s 1840 1488 m 30 -20 d s 1859 1529 m 32 -14 d s 1859 1529 m 1 Y s 1870 1468 m
 21 47 d s 1870 1468 m s 1891 1515 m s 1859 1530 m 10 45 d s 1859 1530 m 32 -15
 d s 1869 1575 m 33 -8 d s 1869 1575 m s 1891 1515 m 11 52 d s 1891 1515 m 1 1 d
 s 1902 1567 m s 1869 1575 m 48 Y s 1869 1575 m 33 -8 d s 1869 1623 m 33 -1 d s
 1869 1623 m 1 Y s 1902 1567 m 55 Y s 1902 1567 m 1 Y s 1902 1622 m 1 X s 1859
 1672 m 10 -48 d s 1859 1672 m 32 5 d s 1859 1672 m 1 X s 1869 1624 m 33 -2 d s
 1891 1677 m 11 -55 d s 1891 1677 m 1 X s 1902 1622 m s 1840 1719 m 19 -47 d s
 1840 1719 m 30 11 d s 1840 1719 m 1 X s 1859 1672 m 32 5 d s 1870 1730 m 21 -53
 d s 1870 1730 m 1 1 d s 1891 1677 m s 1813 1763 m 26 17 d s 1813 1763 m 27 -44
 d s 1813 1763 m 2 1 d s 1839 1780 m 31 -49 d s 1839 1780 m 2 2 d s 1840 1719 m
 30 12 d s 1870 1731 m s 1779 1802 m 21 22 d s 1779 1802 m 34 -39 d s 1800 1824
 m 39 -44 d s 1800 1824 m s 1813 1763 m 26 17 d s 1839 1780 m s 1738 1834 m 16
 27 d s 1738 1834 m 41 -32 d s 1754 1861 m s 1754 1861 m 46 -37 d s 1779 1802 m
 21 22 d s 1779 1802 m 21 22 d s 1800 1824 m 22 23 d s 1693 1859 m 10 30 d s
 1693 1859 m 45 -25 d s 1703 1889 m s 1703 1889 m 51 -28 d s 1738 1834 m 16 27 d
 s 1738 1834 m 1 2 d s 1754 1861 m 1 2 d s 1645 1875 m 4 33 d s 1645 1875 m 48
 -16 d s 1649 1908 m s 1649 1908 m 54 -19 d s 1693 1859 m 10 30 d s 1693 1859 m
 1 Y s 1703 1889 m 1 Y s 1590 1949 m s 1590 1949 m 3 -33 d s 1590 1949 m 62 -8 d
 s 1593 1916 m 55 -8 d s 1648 1908 m 4 33 d s 1648 1908 m 1 1 d s 1652 1941 m s
 1529 1946 m s 1529 1946 m 10 -33 d s 1529 1946 m 61 3 d s 1539 1913 m 54 3 d s
 1590 1950 m -1 Y s 1593 1916 m s 1590 1949 m 3 -33 d s 1472 1931 m s 1472 1931
 m 16 -32 d s 1472 1931 m 57 15 d s 1488 1899 m 50 14 d s 1529 1947 m -1 Y s
 1539 1913 m -1 X s 1529 1946 m 9 -33 d s 1420 1905 m -1 Y s 1420 1904 m 21 -28
 d s 1420 1904 m 51 27 d s 1472 1931 m -1 X s 1441 1876 m 46 23 d s 1487 1900 m
 -1 Y s 1471 1931 m 16 -32 d s 1376 1868 m -1 Y s 1420 1904 m s 1376 1867 m 26
 -24 d s 1376 1867 m 44 37 d s 1441 1876 m -1 Y s 1402 1843 m 39 32 d s 1420
 1904 m 21 -29 d s 1342 1822 m -1 Y s 1376 1867 m s 1402 1843 m -1 Y s 1342 1821
 m 29 -19 d s 1342 1821 m 34 46 d s 1371 1802 m 31 40 d s 1376 1867 m 26 -25 d s
 1318 1769 m -1 Y s 1342 1821 m s 1371 1802 m -1 Y s 1318 1768 m 24 53 d s 1318
 1768 m 32 -14 d s 1342 1821 m 29 -20 d s 1350 1754 m 21 47 d s 1306 1712 m -2 Y
 s 1318 1769 m -1 Y s 1341 1709 m -2 -7 d s 1350 1754 m s 1306 1710 m 12 58 d s
 1306 1710 m 33 -8 d s 1318 1768 m 32 -14 d s 1339 1702 m 11 52 d s 1306 1712 m
 -2 Y s 1339 1648 m -1 Y s 1341 1707 m -2 -5 d s 1306 1649 m 61 Y s 1306 1649 m
 33 -2 d s 1306 1710 m 33 -8 d s 1339 1647 m 55 Y s 1306 1649 m s 1339 1647 m s
 1350 1593 m -1 Y s 1306 1649 m 12 -62 d s 1306 1649 m 33 -2 d s 1318 1587 m 32
 5 d s 1339 1647 m 11 -55 d s 1318 1587 m s 1350 1592 m s 1371 1539 m s 1318
 1587 m 24 -60 d s 1318 1587 m 32 5 d s 1342 1527 m 29 12 d s 1350 1592 m 21 -53
 d s 1342 1527 m s 1372 1539 m -1 -1 d s 1402 1489 m s 1342 1527 m 29 11 d s
 1342 1527 m 34 -55 d s 1371 1538 m 31 -49 d s 1376 1472 m 26 17 d s 1377 1472 m
 -1 -1 d s 1403 1489 m -1 X s 1428 1431 m -8 -9 d s 1376 1471 m 26 18 d s 1376
 1471 m 44 -49 d s 1451 1455 m -10 -10 d s 1402 1489 m 39 -44 d s 1420 1422 m 21
 23 d s 1442 1445 m -1 X s 1420 1422 m 21 23 d s 1420 1422 m 51 -41 d s 1472
 1381 m -1 X s 1441 1445 m 46 -37 d s 1488 1408 m -1 X s 1471 1381 m 16 27 d s
 1488 1408 m s 1472 1381 m 16 27 d s 1472 1381 m 57 -32 d s 1488 1408 m 50 -28 d
 s 1529 1349 m s 1539 1380 m -1 X s 1529 1349 m 9 31 d s 1539 1380 m -1 Y s 1529
 1349 m 10 30 d s 1529 1349 m 61 -20 d s 1539 1379 m 54 -18 d s 1590 1329 m s
 1593 1361 m s 1590 1329 m 3 32 d s 1594 1361 m -1 X s 1590 1329 m 3 32 d s 1590
 1329 m 62 -9 d s 1593 1361 m 55 -8 d s 1648 1353 m 4 -33 d s 1648 1353 m 1 X s
 1652 1320 m s 1649 1353 m 3 -33 d s 1649 1353 m 1 Y s 1649 1353 m 54 3 d s 1652
 1320 m 60 3 d s 1703 1356 m 9 -33 d s 1703 1356 m 29 8 d s 1712 1323 m 2 X s
 1703 1356 m 10 -33 d s 1703 1356 m 51 14 d s 1703 1356 m 51 14 d s 1713 1323 m
 2 X s 1713 1323 m 57 15 d s 1754 1370 m 16 -32 d s 1754 1370 m s 1770 1338 m 1
 X s 1754 1370 m 16 -32 d s 1754 1370 m 46 24 d s 1770 1338 m 1 X s 1770 1338 m
 51 27 d s 1800 1394 m 21 -29 d s 1800 1394 m s 1821 1365 m 1 X s 1800 1394 m 22
 -29 d s 1800 1394 m 39 33 d s 1822 1365 m 43 37 d s 1822 1365 m s 1839 1427 m
 26 -25 d s 1839 1427 m 1 X s 1865 1402 m 1 X s 1840 1427 m 26 -25 d s 1840 1427
 m 30 41 d s 1866 1402 m 34 46 d s 1866 1402 m s 1870 1468 m 30 -20 d s 1870
 1468 m s 1900 1448 m s 1870 1468 m 21 47 d s 1870 1468 m 30 -20 d s 1891 1515 m
 33 -14 d s 1891 1515 m 1 X s 1900 1448 m 24 53 d s 1900 1448 m s 1924 1501 m s
 1891 1515 m 11 52 d s 1891 1515 m 33 -14 d s 1902 1567 m 34 -8 d s 1902 1567 m
 1 X s 1924 1501 m 12 58 d s 1924 1501 m s 1936 1559 m s 1902 1567 m 55 Y s 1902
 1567 m 34 -8 d s 1902 1622 m 34 -2 d s 1902 1622 m 1 X s 1936 1559 m 61 Y s
 1936 1559 m s 1936 1620 m 1 Y s 1891 1677 m 11 -55 d s 1891 1677 m 33 5 d s
 1891 1677 m 1 X s 1902 1622 m 34 -1 d s 1924 1682 m 12 -61 d s 1924 1682 m s
 1936 1621 m s 1870 1730 m 21 -53 d s 1870 1730 m 30 12 d s 1870 1730 m 1 1 d s
 1891 1677 m 33 5 d s 1900 1742 m 24 -60 d s 1900 1742 m 1 1 d s 1924 1682 m s
 1840 1780 m 26 17 d s 1840 1780 m 30 -49 d s 1840 1780 m 1 2 d s 1866 1797 m 34
 -55 d s 1866 1797 m 2 2 d s 1870 1731 m 30 11 d s 1900 1742 m s 1800 1824 m 22
 23 d s 1800 1824 m 39 -44 d s 1822 1847 m 43 -49 d s 1822 1847 m s 1839 1780 m
 26 18 d s 1865 1798 m s 1754 1861 m 16 27 d s 1754 1861 m 46 -36 d s 1770 1888
 m s 1770 1888 m 51 -41 d s 1800 1825 m 21 22 d s 1800 1825 m 22 22 d s 1821
 1847 m 191 198 d s 1703 1890 m 10 30 d s 1703 1890 m 51 -29 d s 1713 1920 m s
 1713 1920 m 57 -32 d s 1754 1861 m 16 27 d s 1754 1861 m 1 2 d s 1770 1888 m 1
 2 d s 1649 1908 m 3 32 d s 1649 1908 m 54 -18 d s 1652 1940 m 1 Y s 1652 1940 m
 60 -20 d s 1703 1890 m 9 30 d s 1703 1890 m 1 Y s 1712 1920 m 1 1 d s 1697 2235
 m -110 -252 d s 1697 2235 m 93 -13 d s 1587 1983 m 3 -33 d s 1587 1983 m 68 -10
 d s 1590 1950 m 62 -9 d s 1652 1941 m 3 32 d s 1652 1941 m 1 Y s 1655 1973 m
 135 249 d s 1790 2221 m 1 Y s 1605 2230 m -86 -251 d s 1605 2230 m 91 5 d s
 1519 1979 m 10 -33 d s 1519 1979 m 67 4 d s 1529 1946 m 61 4 d s 1696 2235 m -1
 Y s 1696 2235 m -110 -252 d s 1590 1950 m s 1586 1983 m 4 -33 d s 1518 2207 m
 -62 -244 d s 1518 2207 m 86 23 d s 1456 1963 m 16 -32 d s 1456 1963 m 63 16 d s
 1472 1931 m 57 15 d s 1604 2230 m 1 X s 1604 2230 m -85 -251 d s 1529 1947 m -1
 Y s 1519 1979 m 10 -33 d s 1441 2167 m 77 40 d s 1441 2167 m -42 -234 d s 1518
 2207 m s 1518 2207 m -63 -245 d s 1399 1933 m 21 -29 d s 1399 1933 m 56 29 d s
 1420 1904 m 51 27 d s 1471 1931 m s 1455 1962 m 16 -31 d s 1375 2111 m 65 56 d
 s 1375 2111 m -25 -219 d s 1440 2167 m 1 X s 1440 2167 m -42 -234 d s 1350 1892
 m 26 -25 d s 1350 1892 m 48 41 d s 1420 1905 m -1 Y s 1376 1867 m 44 37 d s
 1398 1933 m 22 -29 d s 1323 2042 m 51 69 d s 1323 2042 m -11 -201 d s 1374 2111
 m s 1374 2111 m -24 -219 d s 1376 1868 m -1 Y s 1312 1841 m 30 -19 d s 1312
 1841 m 38 51 d s 1342 1822 m 34 45 d s 1350 1892 m 26 -25 d s 1287 1962 m 35 80
 d s 1287 1962 m -1 -179 d s 1322 2042 m 1 X s 1322 2042 m -10 -201 d s 1341
 1822 m -1 Y s 1286 1783 m 26 58 d s 1286 1783 m 32 -15 d s 1312 1841 m 29 -20 d
 s 1318 1768 m 23 53 d s 1268 1874 m 19 88 d s 1268 1874 m 4 -156 d s 1287 1962
 m s 1287 1962 m -2 -180 d s 1318 1768 m s 1272 1718 m 13 64 d s 1272 1718 m 34
 -8 d s 1285 1782 m 33 -14 d s 1306 1710 m 12 58 d s 1268 1782 m 92 Y s 1268
 1782 m 4 -132 d s 1268 1874 m 4 -156 d s 1306 1651 m -2 Y s 1306 1710 m s 1272
 1650 m 68 Y s 1272 1650 m 34 -1 d s 1272 1718 m 34 -8 d s 1306 1649 m 61 Y s
 1268 1782 m 4 -132 d s 1306 1650 m -1 Y s 1318 1588 m -1 Y s 1272 1650 m 13 -68
 d s 1272 1650 m 34 -1 d s 1285 1582 m 33 5 d s 1306 1649 m 12 -62 d s 1286 1582
 m s 1318 1587 m s 1341 1528 m -1 Y s 1286 1582 m 26 -66 d s 1286 1582 m 32 5 d
 s 1312 1516 m 29 11 d s 1318 1587 m 23 -60 d s 1312 1516 m s 1342 1527 m s 1376
 1472 m s 1312 1516 m 30 11 d s 1312 1516 m 38 -62 d s 1342 1527 m 34 -55 d s
 1350 1454 m 26 18 d s 1350 1455 m -1 Y s 1376 1472 m -1 Y s 1406 1407 m -8 -8 d
 s 1350 1454 m 26 17 d s 1350 1454 m 48 -55 d s 1429 1431 m -9 -9 d s 1376 1471
 m 44 -49 d s 1398 1399 m 22 23 d s 1420 1422 m s 1456 1354 m -1 X s 1399 1399 m
 21 23 d s 1399 1399 m 56 -45 d s 1420 1422 m 51 -41 d s 1472 1381 m -1 X s 1455
 1354 m 16 27 d s 1472 1381 m -1 Y s 1456 1353 m 16 27 d s 1456 1353 m 63 -34 d
 s 1472 1380 m 57 -31 d s 1519 1319 m s 1529 1349 m s 1519 1319 m 10 30 d s 1529
 1349 m s 1519 1319 m 10 30 d s 1519 1319 m 67 -23 d s 1529 1349 m 61 -21 d s
 1587 1296 m -1 X s 1590 1329 m -1 Y s 1586 1296 m 4 32 d s 1590 1329 m -1 Y s
 1587 1296 m 3 32 d s 1587 1296 m 68 -10 d s 1590 1328 m 62 -8 d s 1652 1320 m 3
 -34 d s 1652 1320 m 1 X s 1655 1286 m 135 1 d s 1652 1320 m 3 -34 d s 1652 1320
 m 2 X s 1652 1320 m 61 3 d s 1655 1286 m 135 1 d s 1655 1286 m 67 4 d s 1790
 1287 m 91 4 d s 1713 1323 m 9 -33 d s 1713 1323 m s 1722 1290 m 159 1 d s 1713
 1323 m 10 -33 d s 1713 1323 m 57 15 d s 1723 1290 m 159 1 d s 1723 1290 m 63 17
 d s 1882 1291 m 86 23 d s 1770 1338 m 16 -31 d s 1770 1338 m s 1786 1307 m 182
 7 d s 1968 1314 m s 1770 1338 m 16 -31 d s 1770 1338 m 52 27 d s 1786 1307 m 57
 29 d s 1786 1307 m 182 7 d s 1822 1365 m 21 -29 d s 1822 1365 m s 1843 1336 m
 202 18 d s 1968 1314 m 77 40 d s 2045 1355 m -1 Y s 1822 1365 m 21 -29 d s 1822
 1365 m 43 37 d s 1843 1336 m 48 41 d s 1843 1336 m 203 19 d s 1865 1402 m 26
 -25 d s 1865 1402 m 1 X s 1891 1377 m 221 33 d s 2046 1355 m 66 55 d s 2111
 1410 m 1 X s 1866 1402 m 26 -25 d s 1866 1402 m 34 46 d s 1892 1377 m 38 51 d s
 1892 1377 m 220 33 d s 1900 1448 m 30 -20 d s 1900 1448 m s 1930 1428 m 234 51
 d s 2112 1410 m 52 69 d s 2163 1480 m 1 -1 d s 1900 1448 m 24 53 d s 1900 1448
 m 30 -20 d s 1924 1501 m 32 -14 d s 1924 1501 m s 1930 1428 m 26 59 d s 1930
 1428 m 234 52 d s 1956 1487 m 243 72 d s 2199 1560 m -1 Y s 2164 1480 m 35 79 d
 s 1924 1501 m 12 58 d s 1924 1501 m 32 -14 d s 1936 1559 m 33 -8 d s 1936 1559
 m s 1956 1487 m 13 64 d s 1956 1487 m 243 73 d s 1969 1551 m 249 96 d s 2217
 1647 m 1 X s 2199 1560 m 19 87 d s 1936 1559 m 61 Y s 1936 1559 m 33 -8 d s
 1936 1620 m 33 -1 d s 1936 1620 m 1 X s 1969 1551 m 68 Y s 1969 1551 m 249 96 d
 s 1969 1619 m 249 120 d s 2217 1739 m 1 X s 2218 1647 m 92 Y s 1924 1682 m 12
 -61 d s 1924 1682 m 32 5 d s 1924 1682 m 1 X s 1936 1621 m 33 -2 d s 1956 1687
 m 13 -68 d s 1956 1687 m 243 145 d s 1969 1619 m 249 121 d s 2199 1832 m s 2199
 1832 m 19 -92 d s 1900 1742 m 24 -60 d s 1900 1742 m 30 11 d s 1900 1742 m 1 1
 d s 1924 1682 m 32 5 d s 1930 1753 m 26 -66 d s 1930 1753 m 234 169 d s 1956
 1687 m 243 146 d s 2162 1922 m 2 X s 2164 1922 m 35 -89 d s 1866 1798 m 26 17 d
 s 1866 1798 m 34 -56 d s 1866 1798 m 2 1 d s 1892 1815 m 38 -61 d s 1892 1815 m
 220 191 d s 1900 1742 m 30 12 d s 1930 1754 m 234 169 d s 2109 2005 m 3 1 d s
 2112 2006 m 52 -83 d s 1822 1847 m 21 23 d s 1822 1847 m 43 -49 d s 1843 1870 m
 48 -55 d s 1843 1870 m 203 211 d s 1865 1798 m 26 17 d s 1891 1815 m 221 192 d
 s 2046 2081 m 66 -74 d s 1770 1888 m 16 27 d s 1770 1888 m 52 -41 d s 1786 1915
 m 57 -45 d s 1786 1915 m 182 228 d s 1822 1847 m 21 23 d s 1822 1847 m 190 198
 d s 1843 1870 m 202 211 d s 1968 2143 m 77 -62 d s 2012 2045 m 33 36 d s 1713
 1920 m 10 30 d s 1713 1920 m 57 -31 d s 1723 1950 m 159 241 d s 1723 1950 m 63
 -34 d s 1882 2191 m 86 -48 d s 1770 1889 m 16 27 d s 1770 1889 m 2 2 d s 1786
 1916 m 182 227 d s 1966 2141 m 2 2 d s 1652 1941 m 3 32 d s 1652 1941 m 61 -21
 d s 1655 1973 m 135 249 d s 1655 1973 m 67 -22 d s 1790 2222 m 91 -31 d s 1713
 1920 m 9 31 d s 1713 1920 m 1 Y s 1722 1951 m 159 240 d s 1881 2190 m 1 Y s
 1191 1191 m 265 -38 d s 1422 1181 m 34 -28 d -41 -17 d s
 /xs 0 def 
(x)
 /Helvetica-Bold     53 stwn 
 gsave  1532 1142
 t   0 r  xs 2 div neg 0 t 0 0 m
 /Helvetica-Bold findfont   53 sf 0    0 m 
(x)
 show 
 gr
 1191 1191 m 262 Y s 1168 1414 m 23 39 d 23 -39 d s
 /xs 0 def 
(y)
 /Helvetica-Bold     53 stwn 
 gsave  1191 1529
 t   0 r  xs 2 div neg 0 t 0 0 m
 /Helvetica-Bold findfont   53 sf 0    0 m 
(y)
 show 
 gr
 1191 1191 m -99 -102 d s 1135 1100 m -43 -11 d 10 43 d s
 /xs 0 def 
(z)
 /Helvetica-Bold     53 stwn 
 gsave  1039 1034
 t   0 r  xs 2 div neg 0 t 0 0 m
 /Helvetica-Bold findfont   53 sf 0    0 m 
(z)
 show 
 gr
gr gr showpage
end
%%EOF
