<?xml version="1.0" encoding="UTF-8" standalone="no"?>
<!-- Created with Inkscape (http://www.inkscape.org/) -->
<svg xmlns:i="http://ns.adobe.com/AdobeIllustrator/10.0/" xmlns:dc="http://purl.org/dc/elements/1.1/" xmlns:cc="http://creativecommons.org/ns#" xmlns:rdf="http://www.w3.org/1999/02/22-rdf-syntax-ns#" xmlns:svg="http://www.w3.org/2000/svg" xmlns="http://www.w3.org/2000/svg" xmlns:xlink="http://www.w3.org/1999/xlink" xmlns:sodipodi="http://sodipodi.sourceforge.net/DTD/sodipodi-0.dtd" xmlns:inkscape="http://www.inkscape.org/namespaces/inkscape" version="1.0" width="720" height="690" viewBox="0 0 720 690" id="svg2" xml:space="preserve" sodipodi:version="0.32" inkscape:version="0.48.3.1 r9886" sodipodi:docname="Standard_Model_of_Elementary_Particles-de.svg.sav.svg" inkscape:output_extension="org.inkscape.output.svg.inkscape"><metadata id="metadata177"><rdf:RDF><cc:Work rdf:about=""><dc:format>image/svg+xml</dc:format><dc:type rdf:resource="http://purl.org/dc/dcmitype/StillImage"/></cc:Work><cc:Work rdf:about=""><dc:format>image/svg+xml</dc:format><dc:type rdf:resource="http://purl.org/dc/dcmitype/StillImage"/></cc:Work></rdf:RDF></metadata><sodipodi:namedview inkscape:window-height="750" inkscape:window-width="1366" inkscape:pageshadow="2" inkscape:pageopacity="0.0" guidetolerance="10.0" gridtolerance="10.0" objecttolerance="4" borderopacity="1.0" bordercolor="#666666" pagecolor="#ffffff" id="base" showgrid="false" inkscape:zoom="1.0818427" inkscape:cx="443.74488" inkscape:cy="537.90787" inkscape:window-x="0" inkscape:window-y="0" inkscape:current-layer="svg2" inkscape:window-maximized="1" showguides="true" inkscape:snap-global="true" inkscape:snap-bbox="true" inkscape:object-paths="true" inkscape:bbox-paths="false" inkscape:bbox-nodes="false" inkscape:snap-bbox-edge-midpoints="true" inkscape:snap-bbox-midpoints="false" inkscape:guide-bbox="true" inkscape:snap-from-guide="true" inkscape:snap-intersection-paths="false" inkscape:object-nodes="false" inkscape:snap-smooth-nodes="false" inkscape:snap-center="false" inkscape:snap-object-midpoints="false" inkscape:snap-midpoints="false" inkscape:snap-nodes="false"/><defs id="defs339"><inkscape:perspective sodipodi:type="inkscape:persp3d" inkscape:vp_x="0 : 325 : 1" inkscape:vp_y="0 : 1000 : 0" inkscape:vp_z="600 : 325 : 1" inkscape:persp3d-origin="300 : 216.66667 : 1" id="perspective179"/><foreignObject requiredExtensions="http://ns.adobe.com/AdobeIllustrator/10.0/" x="0" y="0" width="1" height="1" id="foreignObject6"><i:pgfRef xlink:href="#adobe_illustrator_pgf"/></foreignObject></defs>



















































































































































<text style="font-size:18px;font-family:MSReferenceSansSerif" id="text314" y="136.86136" x="37.060043"><tspan style="font-style:normal;font-variant:normal;font-weight:normal;font-stretch:normal;font-family:Arial;-inkscape-font-specification:Arial" id="tspan3197">Masse→</tspan></text>


<text style="font-size:18px;font-family:MSReferenceSansSerif" id="text316" y="189.55032" x="54.040512"><tspan style="font-style:normal;font-variant:normal;font-weight:normal;font-stretch:normal;font-family:Arial;-inkscape-font-specification:Arial" id="tspan3201">Spin→</tspan></text>


<text style="font-size:18px;font-family:MSReferenceSansSerif" id="text318" y="160.82939" x="29.993637"><tspan style="font-style:normal;font-variant:normal;font-weight:normal;font-stretch:normal;font-family:Arial;-inkscape-font-specification:Arial" id="tspan3199">Ladung→</tspan></text>


<text style="font-size:24px;fill:#8041ff;fill-opacity:1;font-family:MSReferenceSansSerif-Bold" id="text320" transform="matrix(0,-1,1,0,0,0)" y="92.181976" x="-384.16525"><tspan style="font-style:normal;font-variant:normal;font-weight:normal;font-stretch:normal;font-family:Arial;-inkscape-font-specification:Arial" id="tspan3202">Quarks</tspan></text>


<text style="font-size:24px;fill:#2aa92a;fill-opacity:1;font-family:MSReferenceSansSerif-Bold" id="text322" transform="matrix(0,-1,1,0,0,0)" y="91.877289" x="-672.89185"><tspan style="font-style:normal;font-variant:normal;font-weight:normal;font-stretch:normal;font-family:Arial;-inkscape-font-specification:Arial" id="tspan3198">Leptonen</tspan></text>


<text style="font-size:24px;fill:#ff3e3e;fill-opacity:1;font-family:MSReferenceSansSerif-Bold" id="text330" transform="matrix(0,-1,1,0,0,0)" y="608.45068" x="-672.89185"><tspan style="font-style:normal;font-variant:normal;font-weight:normal;font-stretch:normal;font-family:Arial;-inkscape-font-specification:Arial" id="tspan3200">Eichbosonen</tspan></text>


<text style="font-size:24px;font-family:MSReferenceSansSerif-Bold" id="text332" y="91.647995" x="159.5329"><tspan style="font-style:normal;font-variant:normal;font-weight:normal;font-stretch:normal;font-family:Arial;-inkscape-font-specification:Arial" id="tspan3204">I</tspan></text>


<text style="font-size:24px;font-family:MSReferenceSansSerif-Bold" id="text334" y="91.647995" x="276.14413"><tspan style="font-style:normal;font-variant:normal;font-weight:normal;font-stretch:normal;font-family:Arial;-inkscape-font-specification:Arial" id="tspan3206">II</tspan></text>


<text style="font-size:24px;font-family:MSReferenceSansSerif-Bold" id="text336" y="91.647995" x="392.75537"><tspan style="font-style:normal;font-variant:normal;font-weight:normal;font-stretch:normal;font-family:Arial;-inkscape-font-specification:Arial" id="tspan3208">III</tspan></text>


<text style="font-size:18px;font-family:MSReferenceSansSerif" id="text3084" y="225.90921" x="42.052231"><tspan style="font-style:normal;font-variant:normal;font-weight:normal;font-stretch:normal;font-family:Arial;-inkscape-font-specification:Arial" id="tspan3203">Name→</tspan></text>












<text xml:space="preserve" style="font-size:40px;font-style:normal;font-weight:normal;text-align:center;line-height:125%;letter-spacing:0px;word-spacing:0px;text-anchor:middle;fill:#000000;fill-opacity:1;stroke:none;font-family:Sans" x="282.87802" y="33.145603" id="text3309" sodipodi:linespacing="125%"><tspan sodipodi:role="line" id="tspan3311" x="285.79013" y="33.145603" style="font-size:21px;font-style:normal;font-variant:normal;font-weight:normal;font-stretch:normal;font-family:Arial;-inkscape-font-specification:Arial">Drei Generationen </tspan><tspan sodipodi:role="line" x="282.87802" y="59.395603" id="tspan3313" style="font-size:21px;font-style:normal;font-variant:normal;font-weight:normal;font-stretch:normal;font-family:Arial;-inkscape-font-specification:Arial">der Materie (Fermionen)</tspan></text>






<g id="g3293" transform="translate(0.93977124,0)"><rect style="fill:#cc99ff;stroke:#000000;stroke-linejoin:round" id="rect24" y="113.634" x="226.90739" height="125" width="100.001"/><text y="192.952" x="257.83563" style="font-size:72px;font-family:Arial" id="text26">c</text>
<text y="222.543" x="252.11395" style="font-size:18px;text-align:start;text-anchor:start;font-family:MSReferenceSansSerif" id="text28"><tspan id="tspan3170" style="font-style:normal;font-variant:normal;font-weight:normal;font-stretch:normal;text-align:start;text-anchor:start;font-family:Arial;-inkscape-font-specification:Arial">charm</tspan></text>
<text sodipodi:linespacing="125%" style="font-size:14px;font-style:normal;font-variant:normal;font-weight:normal;font-stretch:normal;text-align:start;line-height:125%;writing-mode:lr-tb;text-anchor:start;font-family:Verdana" y="133.543" x="232.0304" id="text30"><tspan style="font-size:14px;font-style:normal;font-variant:normal;font-weight:normal;font-stretch:normal;text-align:start;line-height:125%;writing-mode:lr-tb;text-anchor:start;font-family:Verdana" id="tspan32" y="133.543" x="232.0304">1,275 GeV</tspan></text>
<text y="163.03299" x="232.0314" style="font-size:21px;font-family:MSReferenceSansSerif" id="_x32__x2F_3_1_">⅔</text>
<text y="191.543" x="232.0304" style="font-size:21px;font-family:MSReferenceSansSerif" id="text39">½</text>
<g transform="translate(119,10)" id="g4151-7"><path style="fill:#644b7f;fill-opacity:1;stroke:#000000;stroke-width:1;stroke-linecap:butt;stroke-linejoin:round;stroke-miterlimit:0;stroke-opacity:1;stroke-dasharray:none" d="m 107.907,103.93669 10,-9.99969 100.001,-0.303 -9.9997,10 z" id="path3379-1" inkscape:connector-curvature="0" sodipodi:nodetypes="ccccc"/><path style="fill:#644b7f;fill-opacity:1;stroke:#000000;stroke-width:1px;stroke-linecap:butt;stroke-linejoin:round;stroke-opacity:1" d="m 207.87338,228.634 10.03462,-10 0,-125 -10.38635,10 z" id="path4149-1" inkscape:connector-curvature="0" sodipodi:nodetypes="ccccc"/></g></g><g id="g3306" transform="translate(1.7695742e-6,0)"><rect style="fill:#cc99ff;stroke:#000000;stroke-linejoin:round" id="rect12" y="113.634" x="107.9077" height="125" width="100.001"/><text y="192.952" x="138.16797" style="font-size:72px;font-family:Arial" id="text14">u</text>
<text y="222.543" x="147.67773" style="font-size:18px;text-align:start;text-anchor:start;font-family:MSReferenceSansSerif" id="text16"><tspan id="tspan3168" style="font-style:normal;font-variant:normal;font-weight:normal;font-stretch:normal;text-align:start;text-anchor:start;font-family:Arial;-inkscape-font-specification:Arial">up</tspan></text>
<text sodipodi:linespacing="125%" y="134.543" x="113.03069" style="font-size:14px;font-style:normal;font-variant:normal;font-weight:normal;font-stretch:normal;text-align:start;line-height:125%;writing-mode:lr-tb;text-anchor:start;font-family:Verdana" id="text18">2,3 MeV</text>
<text y="164.03299" x="114.40868" style="font-size:21px;font-family:MSReferenceSansSerif" id="_x32__x2F_3">⅔</text>
<text y="192.543" x="114.03069" style="font-size:21px;font-family:MSReferenceSansSerif" id="text21">½</text>
<g transform="translate(4.00269e-4,10)" id="g4151"><path style="fill:#644b7f;fill-opacity:1;stroke:#000000;stroke-width:1;stroke-linecap:butt;stroke-linejoin:round;stroke-miterlimit:0;stroke-opacity:1;stroke-dasharray:none" d="m 107.907,103.93669 10,-9.99969 100.001,-0.303 -9.9997,10 z" id="path3379" inkscape:connector-curvature="0" sodipodi:nodetypes="ccccc"/><path style="fill:#644b7f;fill-opacity:1;stroke:#000000;stroke-width:1px;stroke-linecap:butt;stroke-linejoin:round;stroke-opacity:1" d="m 207.87338,228.634 10.03462,-10 0,-125 -10.38635,10 z" id="path4149" inkscape:connector-curvature="0" sodipodi:nodetypes="ccccc"/></g></g><g id="g3280" transform="translate(1.8791328,0)"><rect style="fill:#cc99ff;stroke:#000000;stroke-width:1;stroke-linejoin:round" id="rect42" y="113.634" x="345.90741" height="125" width="100.001"/><text y="192.952" x="385.5368" style="font-size:72px;font-family:Arial" id="text44">t</text>
<text y="222.543" x="383.59882" style="font-size:18px;text-align:start;text-anchor:start;font-family:MSReferenceSansSerif" id="text46"><tspan id="tspan3172" style="font-style:normal;font-variant:normal;font-weight:normal;font-stretch:normal;text-align:start;text-anchor:start;font-family:Arial;-inkscape-font-specification:Arial">top</tspan></text>
<text sodipodi:linespacing="125%" style="font-size:14px;font-style:normal;font-variant:normal;font-weight:normal;font-stretch:normal;text-align:start;line-height:125%;writing-mode:lr-tb;text-anchor:start;font-family:Verdana" y="133.543" x="351.03043" id="text48"><tspan style="font-size:14px;font-style:normal;font-variant:normal;font-weight:normal;font-stretch:normal;text-align:start;line-height:125%;writing-mode:lr-tb;text-anchor:start;font-family:Verdana" id="tspan50" y="133.543" x="351.03043">173,07 GeV </tspan></text>
<text y="163.03299" x="351.03043" style="font-size:21px;font-family:MSReferenceSansSerif" id="_x32__x2F_3_2_">⅔</text>
<text y="191.543" x="351.03043" style="font-size:21px;font-family:MSReferenceSansSerif" id="text57">½</text>
<g transform="translate(238,10)" id="g4151-7-5"><path style="fill:#644b7f;fill-opacity:1;stroke:#000000;stroke-width:1;stroke-linecap:butt;stroke-linejoin:round;stroke-miterlimit:0;stroke-opacity:1;stroke-dasharray:none" d="m 107.907,103.93669 10,-9.99969 100.001,-0.303 -9.9997,10 z" id="path3379-1-2" inkscape:connector-curvature="0" sodipodi:nodetypes="ccccc"/><path style="fill:#644b7f;fill-opacity:1;stroke:#000000;stroke-width:1px;stroke-linecap:butt;stroke-linejoin:round;stroke-opacity:1" d="m 207.87338,228.634 10.03462,-10 0,-125 -10.38635,10 z" id="path4149-1-7" inkscape:connector-curvature="0" sodipodi:nodetypes="ccccc"/></g></g><g id="g3268" transform="translate(1.8185249,0)"><rect style="fill:#ff6c6c;fill-opacity:1;stroke:#000000;stroke-width:1;stroke-linejoin:round" id="rect230" y="113.634" x="465.90741" height="125" width="100.001"/><text y="179.952" x="500.3161" style="font-size:72px;font-family:Times New Roman" id="text232">γ</text>
<text y="222.543" x="487.29071" style="font-size:18px;text-align:start;text-anchor:start;font-family:MSReferenceSansSerif" id="text234"><tspan id="tspan3174" style="font-style:normal;font-variant:normal;font-weight:normal;font-stretch:normal;text-align:start;text-anchor:start;font-family:Arial;-inkscape-font-specification:Arial">Photon</tspan></text>
<text y="133.543" x="473.03043" style="font-size:18px;font-family:MSReferenceSansSerif" id="text236">0 </text>
<text y="163.03299" x="473.03043" style="font-size:18px;font-family:MSReferenceSansSerif" id="_x32__x2F_3_7_">0</text>
<text y="191.543" x="473.03043" style="font-size:18px;font-family:MSReferenceSansSerif" id="text239">1</text>
<g style="fill:#803636;fill-opacity:1" transform="translate(358,10)" id="g4151-7-5-6"><path style="fill:#803636;fill-opacity:1;stroke:#000000;stroke-width:1;stroke-linecap:butt;stroke-linejoin:round;stroke-miterlimit:0;stroke-opacity:1;stroke-dasharray:none" d="m 107.907,103.93669 10,-9.99969 100.001,-0.303 -9.9997,10 z" id="path3379-1-2-1" inkscape:connector-curvature="0" sodipodi:nodetypes="ccccc"/><path style="fill:#803636;fill-opacity:1;stroke:#000000;stroke-width:1px;stroke-linecap:butt;stroke-linejoin:round;stroke-opacity:1" d="m 207.87338,228.634 10.03462,-10 0,-125 -10.38635,10 z" id="path4149-1-7-4" inkscape:connector-curvature="0" sodipodi:nodetypes="ccccc"/></g></g><g id="g3318" transform="translate(6.8664551e-5,0)"><rect style="fill:#cc99ff;stroke:#000000;stroke-linejoin:round" id="rect60" y="257.634" x="107.9073" height="125" width="100.001"/><text y="338.952" x="139.25742" style="font-size:72px;font-family:Arial" id="text62">d</text>
<text y="366.543" x="136.69141" style="font-size:18px;text-align:start;text-anchor:start;font-family:MSReferenceSansSerif" id="text64"><tspan id="tspan3176" style="font-style:normal;font-variant:normal;font-weight:normal;font-stretch:normal;text-align:start;text-anchor:start;font-family:Arial;-inkscape-font-specification:Arial">down</tspan></text>
<text sodipodi:linespacing="125%" y="278.543" x="113.03029" style="font-size:14px;font-style:normal;font-variant:normal;font-weight:normal;font-stretch:normal;text-align:start;line-height:125%;writing-mode:lr-tb;text-anchor:start;font-family:Verdana" id="text66">4,8 MeV</text>
<text y="309.53299" x="113.03129" id="_x2D_1_x2F_3_1_"><tspan style="font-size:21px;letter-spacing:-2;font-family:MSReferenceSansSerif" id="tspan69" y="309.53299" x="113.03129">-</tspan><tspan style="font-size:21px;font-family:MSReferenceSansSerif" id="tspan71" y="309.53299" x="120.46729">⅓</tspan></text>
<text y="339.543" x="113.03029" style="font-size:21px;font-family:MSReferenceSansSerif" id="text73">½</text>
<g transform="translate(3.03e-4,154)" id="g4151-2"><path style="fill:#644b7f;fill-opacity:1;stroke:#000000;stroke-width:1;stroke-linecap:butt;stroke-linejoin:round;stroke-miterlimit:0;stroke-opacity:1;stroke-dasharray:none" d="m 107.907,103.93669 10,-9.99969 100.001,-0.303 -9.9997,10 z" id="path3379-3" inkscape:connector-curvature="0" sodipodi:nodetypes="ccccc"/><path style="fill:#644b7f;fill-opacity:1;stroke:#000000;stroke-width:1px;stroke-linecap:butt;stroke-linejoin:round;stroke-opacity:1" d="m 207.87338,228.634 10.03462,-10 0,-125 -10.38635,10 z" id="path4149-2" inkscape:connector-curvature="0" sodipodi:nodetypes="ccccc"/></g></g><g id="g3332" transform="translate(0.73770142,0)"><rect style="fill:#cc99ff;stroke:#000000;stroke-linejoin:round" id="rect76" y="257.634" x="226.907" height="125" width="100.001"/><text y="336.952" x="259.18875" style="font-size:72px;font-family:Arial" id="text78">s</text>
<text y="366.543" x="246.96796" style="font-size:18px;text-align:start;text-anchor:start;font-family:MSReferenceSansSerif" id="text80"><tspan id="tspan3178" style="font-style:normal;font-variant:normal;font-weight:normal;font-stretch:normal;text-align:start;text-anchor:start;font-family:Arial;-inkscape-font-specification:Arial">strange</tspan></text>
<text sodipodi:linespacing="125%" y="278.543" x="232.03" style="font-size:14px;font-style:normal;font-variant:normal;font-weight:normal;font-stretch:normal;text-align:start;line-height:125%;writing-mode:lr-tb;text-anchor:start;font-family:Verdana" id="text82">95 MeV</text>
<text y="338.328" x="232.03" style="font-size:21px;font-family:MSReferenceSansSerif" id="text84">½</text>
<text y="308.92599" x="232.03" id="_x2D_1_x2F_3"><tspan style="font-size:21px;letter-spacing:-2;font-family:MSReferenceSansSerif" id="tspan87" y="308.92599" x="232.03">-</tspan><tspan style="font-size:21px;font-family:MSReferenceSansSerif" id="tspan89" y="308.92599" x="239.466">⅓</tspan></text>
<g transform="translate(119,154)" id="g4151-7-2"><path style="fill:#644b7f;fill-opacity:1;stroke:#000000;stroke-width:1;stroke-linecap:butt;stroke-linejoin:round;stroke-miterlimit:0;stroke-opacity:1;stroke-dasharray:none" d="m 107.907,103.93669 10,-9.99969 100.001,-0.303 -9.9997,10 z" id="path3379-1-1" inkscape:connector-curvature="0" sodipodi:nodetypes="ccccc"/><path style="fill:#644b7f;fill-opacity:1;stroke:#000000;stroke-width:1px;stroke-linecap:butt;stroke-linejoin:round;stroke-opacity:1" d="m 207.87338,228.634 10.03462,-10 0,-125 -10.38635,10 z" id="path4149-1-6" inkscape:connector-curvature="0" sodipodi:nodetypes="ccccc"/></g></g><g id="g3346" transform="translate(1.475019,0)"><rect style="fill:#cc99ff;stroke:#000000;stroke-width:1;stroke-linejoin:round" id="rect92" y="257.634" x="345.90701" height="125" width="100.001"/><text y="338.952" x="375.00711" style="font-size:72px;font-family:Arial" id="text94">b</text>
<text y="366.543" x="368.38055" style="font-size:18px;text-align:start;text-anchor:start;font-family:MSReferenceSansSerif" id="text96"><tspan id="tspan3180" style="font-style:normal;font-variant:normal;font-weight:normal;font-stretch:normal;text-align:start;text-anchor:start;font-family:Arial;-inkscape-font-specification:Arial">bottom</tspan></text>
<text sodipodi:linespacing="125%" style="font-size:14px;font-style:normal;font-variant:normal;font-weight:normal;font-stretch:normal;text-align:start;line-height:125%;writing-mode:lr-tb;text-anchor:start;font-family:Verdana;-inkscape-font-specification:Verdana" y="278.543" x="351.03003" id="text98"><tspan style="font-size:14px;font-style:normal;font-variant:normal;font-weight:normal;font-stretch:normal;text-align:start;line-height:125%;writing-mode:lr-tb;text-anchor:start;font-family:Verdana;-inkscape-font-specification:Verdana" id="tspan100" y="278.543" x="351.03003">4,18 GeV</tspan></text>
<text y="338.328" x="351.03003" style="font-size:21px;font-family:MSReferenceSansSerif" id="text106">½</text>
<text style="font-size:12px" y="308.92599" x="351.03003" id="_x2D_1_x2F_3_2_"><tspan style="font-size:21px;letter-spacing:-2;font-family:MSReferenceSansSerif" id="tspan109" y="308.92599" x="351.03003">-</tspan><tspan style="font-size:21px;font-family:MSReferenceSansSerif" id="tspan111" y="308.92599" x="358.466">⅓</tspan></text>
<g transform="translate(238,154)" id="g4151-7-5-8"><path style="fill:#644b7f;fill-opacity:1;stroke:#000000;stroke-width:1;stroke-linecap:butt;stroke-linejoin:round;stroke-miterlimit:0;stroke-opacity:1;stroke-dasharray:none" d="m 107.907,103.93669 10,-9.99969 100.001,-0.303 -9.9997,10 z" id="path3379-1-2-5" inkscape:connector-curvature="0" sodipodi:nodetypes="ccccc"/><path style="fill:#644b7f;fill-opacity:1;stroke:#000000;stroke-width:1px;stroke-linecap:butt;stroke-linejoin:round;stroke-opacity:1" d="m 207.87338,228.634 10.03462,-10 0,-125 -10.38635,10 z" id="path4149-1-7-7" inkscape:connector-curvature="0" sodipodi:nodetypes="ccccc"/></g></g><g id="g3361" transform="translate(1.2123542,0)"><rect style="fill:#ff6c6c;fill-opacity:1;stroke:#000000;stroke-width:1;stroke-linejoin:round" id="rect242" y="257.634" x="465.90701" height="125" width="100.001"/><text y="325.952" x="497.13406" style="font-size:72px;font-family:Arial" id="text244">g</text>
<text y="366.543" x="492.02362" style="font-size:18px;text-align:start;text-anchor:start;font-family:MSReferenceSansSerif" id="text246"><tspan id="tspan3182" style="font-style:normal;font-variant:normal;font-weight:normal;font-stretch:normal;text-align:start;text-anchor:start;font-family:Arial;-inkscape-font-specification:Arial">Gluon</tspan></text>
<text y="278.543" x="471.03003" style="font-size:18px;font-family:MSReferenceSansSerif" id="text248">0</text>
<text y="338.328" x="471.03003" style="font-size:18px;font-family:MSReferenceSansSerif" id="text250">1</text>
<text y="308.92599" x="471.03003" style="font-size:18px;font-family:MSReferenceSansSerif" id="_x2D_1_x2F_3_7_">0</text>
<g style="fill:#803636;fill-opacity:1" transform="translate(358,154)" id="g4151-7-5-6-6"><path style="fill:#803636;fill-opacity:1;stroke:#000000;stroke-width:1;stroke-linecap:butt;stroke-linejoin:round;stroke-miterlimit:0;stroke-opacity:1;stroke-dasharray:none" d="m 107.907,103.93669 10,-9.99969 100.001,-0.303 -9.9997,10 z" id="path3379-1-2-1-1" inkscape:connector-curvature="0" sodipodi:nodetypes="ccccc"/><path style="fill:#803636;fill-opacity:1;stroke:#000000;stroke-width:1px;stroke-linecap:butt;stroke-linejoin:round;stroke-opacity:1" d="m 207.87338,228.634 10.03462,-10 0,-125 -10.38635,10 z" id="path4149-1-7-4-8" inkscape:connector-curvature="0" sodipodi:nodetypes="ccccc"/></g></g><g id="g3423" transform="translate(3.0517578e-5,0)"><rect style="fill:#99ff66;stroke:#000000;stroke-width:1;stroke-linejoin:round" id="rect115" y="401.634" x="107.9073" height="125" width="100.001"/><text style="font-size:12px;font-family:Times New Roman" y="473.952" x="134.60632" id="text117"><tspan style="font-size:72px;letter-spacing:-2;font-family:Times New Roman" id="tspan119" y="473.952" x="134.60632">ν</tspan><tspan style="font-size:36px;font-family:Times New Roman" id="tspan121" y="478.952" x="167.83232">e</tspan></text>
<text sodipodi:linespacing="125%" y="422.543" x="115.03029" style="font-size:14px;font-style:normal;font-variant:normal;font-weight:normal;font-stretch:normal;text-align:start;line-height:125%;writing-mode:lr-tb;text-anchor:start;font-family:Verdana" id="text129">&lt;2 eV</text>
<text y="452.03299" x="115.03029" style="font-size:18px;font-family:MSReferenceSansSerif" id="_x32__x2F_3_9_">0</text>
<text y="480.543" x="114.03029" style="font-size:21px;font-family:MSReferenceSansSerif" id="text132">½</text>
<text sodipodi:linespacing="100%" id="text3184" y="503.543" x="157.48593" style="font-size:40px;font-style:normal;font-weight:normal;text-align:center;line-height:100%;letter-spacing:0px;word-spacing:0px;text-anchor:middle;fill:#000000;fill-opacity:1;stroke:none;font-family:Sans" xml:space="preserve"><tspan style="font-size:18px;font-style:normal;font-variant:normal;font-weight:normal;font-stretch:normal;line-height:100%;font-family:Arial;-inkscape-font-specification:Arial" y="503.543" x="157.48593" id="tspan3186" sodipodi:role="line">Elektron-</tspan><tspan style="font-size:18px;font-style:normal;font-variant:normal;font-weight:normal;font-stretch:normal;line-height:100%;font-family:Arial;-inkscape-font-specification:Arial" id="tspan3188" y="521.54297" x="157.48593" sodipodi:role="line">Neutrino</tspan></text>
<g style="fill:#4d8033;fill-opacity:1" transform="translate(4.00125e-4,298)" id="g4151-27"><path style="fill:#4d8033;fill-opacity:1;stroke:#000000;stroke-width:1;stroke-linecap:butt;stroke-linejoin:round;stroke-miterlimit:0;stroke-opacity:1;stroke-dasharray:none" d="m 107.907,103.93669 10,-9.99969 100.001,-0.303 -9.9997,10 z" id="path3379-9" inkscape:connector-curvature="0" sodipodi:nodetypes="ccccc"/><path style="fill:#4d8033;fill-opacity:1;stroke:#000000;stroke-width:1px;stroke-linecap:butt;stroke-linejoin:round;stroke-opacity:1" d="m 207.87338,228.634 10.03462,-10 0,-125 -10.38635,10 z" id="path4149-5" inkscape:connector-curvature="0" sodipodi:nodetypes="ccccc"/></g></g><g id="g3438" transform="translate(0.31326294,0)"><rect style="fill:#99ff66;stroke:#000000;stroke-width:1;stroke-linejoin:round" id="rect135" y="401.634" x="226.907" height="125" width="100.001"/><text style="font-size:12px;font-family:Times New Roman" y="473.952" x="251.44392" id="text137"><tspan style="font-size:72px;letter-spacing:-2;font-family:Times New Roman" id="tspan139" y="473.952" x="251.44392">ν</tspan><tspan style="font-size:36px;font-family:Times New Roman" id="tspan141" y="478.952" x="284.66992">μ</tspan></text>
<text sodipodi:linespacing="125%" y="421.543" x="232.03" style="font-size:14px;font-style:normal;font-variant:normal;font-weight:normal;font-stretch:normal;text-align:start;line-height:125%;writing-mode:lr-tb;text-anchor:start;font-family:Verdana" id="text151">&lt;0,19 MeV</text>
<text y="451.03299" x="232.03101" style="font-size:18px;font-family:MSReferenceSansSerif" id="_x32__x2F_3_8_">0</text>
<text y="479.543" x="232.03" style="font-size:21px;font-family:MSReferenceSansSerif" id="text154">½</text>
<text sodipodi:linespacing="100%" id="text3184-1" y="503.543" x="276.56033" style="font-size:40px;font-style:normal;font-weight:normal;text-align:center;line-height:100%;letter-spacing:0px;word-spacing:0px;text-anchor:middle;fill:#000000;fill-opacity:1;stroke:none;font-family:Sans" xml:space="preserve"><tspan style="font-size:18px;font-style:normal;font-variant:normal;font-weight:normal;font-stretch:normal;line-height:100%;font-family:Arial;-inkscape-font-specification:Arial" y="503.543" x="276.56033" id="tspan3186-7" sodipodi:role="line">Myon-</tspan><tspan style="font-size:18px;font-style:normal;font-variant:normal;font-weight:normal;font-stretch:normal;line-height:100%;font-family:Arial;-inkscape-font-specification:Arial" id="tspan3188-4" y="521.54297" x="276.56033" sodipodi:role="line">Neutrino</tspan></text>
<g style="fill:#4d8033;fill-opacity:1" transform="translate(119,298)" id="g4151-7-4"><path style="fill:#4d8033;fill-opacity:1;stroke:#000000;stroke-width:1;stroke-linecap:butt;stroke-linejoin:round;stroke-miterlimit:0;stroke-opacity:1;stroke-dasharray:none" d="m 107.907,103.93669 10,-9.99969 100.001,-0.303 -9.9997,10 z" id="path3379-1-3" inkscape:connector-curvature="0" sodipodi:nodetypes="ccccc"/><path style="fill:#4d8033;fill-opacity:1;stroke:#000000;stroke-width:1px;stroke-linecap:butt;stroke-linejoin:round;stroke-opacity:1" d="m 207.87338,228.634 10.03462,-10 0,-125 -10.38635,10 z" id="path4149-1-1" inkscape:connector-curvature="0" sodipodi:nodetypes="ccccc"/></g></g><g id="g3407" transform="translate(0.62637329,0)"><rect style="fill:#99ff66;stroke:#000000;stroke-width:1;stroke-linejoin:round" id="rect157" y="401.634" x="345.90701" height="125" width="100.001"/><text style="font-size:12px;font-family:Times New Roman" y="473.952" x="373.20319" id="text159"><tspan style="font-size:72px;letter-spacing:-2;font-family:Times New Roman" id="tspan161" y="473.952" x="373.20319">ν</tspan><tspan style="font-size:36px;font-family:Times New Roman" id="tspan163" y="478.952" x="406.43018">τ</tspan></text>
<text sodipodi:linespacing="125%" style="font-size:14px;font-style:normal;font-variant:normal;font-weight:normal;font-stretch:normal;text-align:start;line-height:125%;writing-mode:lr-tb;text-anchor:start;font-family:Verdana" y="421.543" x="351.03003" id="text173"><tspan style="font-size:14px;font-style:normal;font-variant:normal;font-weight:normal;font-stretch:normal;text-align:start;line-height:125%;writing-mode:lr-tb;text-anchor:start;font-family:Verdana" id="tspan175" y="421.543" x="351.03003">&lt;18.2 MeV </tspan></text>
<text y="451.03299" x="351.03003" style="font-size:18px;font-family:MSReferenceSansSerif" id="_x32__x2F_3_5_">0</text>
<text y="479.543" x="351.03003" style="font-size:21px;font-family:MSReferenceSansSerif" id="text182">½</text>
<text sodipodi:linespacing="100%" id="text3184-1-0" y="503.543" x="395.56033" style="font-size:40px;font-style:normal;font-weight:normal;text-align:center;line-height:100%;letter-spacing:0px;word-spacing:0px;text-anchor:middle;fill:#000000;fill-opacity:1;stroke:none;font-family:Sans" xml:space="preserve"><tspan style="font-size:18px;font-style:normal;font-variant:normal;font-weight:normal;font-stretch:normal;line-height:100%;font-family:Arial;-inkscape-font-specification:Arial" y="503.543" x="395.56033" id="tspan3186-7-9" sodipodi:role="line">Tau-</tspan><tspan style="font-size:18px;font-style:normal;font-variant:normal;font-weight:normal;font-stretch:normal;line-height:100%;font-family:Arial;-inkscape-font-specification:Arial" id="tspan3188-4-4" y="521.54297" x="395.56033" sodipodi:role="line">Neutrino</tspan></text>
<g style="fill:#4d8033;fill-opacity:1" transform="translate(238,298)" id="g4151-7-5-2"><path style="fill:#4d8033;fill-opacity:1;stroke:#000000;stroke-width:1;stroke-linecap:butt;stroke-linejoin:round;stroke-miterlimit:0;stroke-opacity:1;stroke-dasharray:none" d="m 107.907,103.93669 10,-9.99969 100.001,-0.303 -9.9997,10 z" id="path3379-1-2-3" inkscape:connector-curvature="0" sodipodi:nodetypes="ccccc"/><path style="fill:#4d8033;fill-opacity:1;stroke:#000000;stroke-width:1px;stroke-linecap:butt;stroke-linejoin:round;stroke-opacity:1" d="m 207.87338,228.634 10.03462,-10 0,-125 -10.38635,10 z" id="path4149-1-7-3" inkscape:connector-curvature="0" sodipodi:nodetypes="ccccc"/></g></g><g id="g3453"><rect style="fill:#99ff66;stroke:#000000;stroke-linejoin:round" id="rect185" y="545.63403" x="107.9073" height="125" width="100.001"/><text y="624.95203" x="138.0621" style="font-size:72px;font-family:Arial" id="text187">e</text>
<text y="654.54303" x="124.77344" style="font-size:18px;text-align:start;text-anchor:start;font-family:MSReferenceSansSerif" id="text189"><tspan id="tspan3266" style="font-style:normal;font-variant:normal;font-weight:normal;font-stretch:normal;text-align:start;text-anchor:start;font-family:Arial;-inkscape-font-specification:Arial">Elektron</tspan></text>
<text sodipodi:linespacing="125%" y="566.54303" x="113.03029" style="font-size:14px;font-style:normal;font-variant:normal;font-weight:normal;font-stretch:normal;text-align:start;line-height:125%;writing-mode:lr-tb;text-anchor:start;font-family:Verdana;-inkscape-font-specification:Verdana" id="text191">0,511 MeV</text>
<text y="597.53302" x="113.03129" id="_x2D_1_x2F_3_9_"><tspan style="font-size:18px;letter-spacing:-1;font-family:MSReferenceSansSerif" id="tspan194" y="597.53302" x="113.03129">-</tspan><tspan style="font-size:18px;font-family:MSReferenceSansSerif" id="tspan196" y="597.53302" x="119.40529">1</tspan></text>
<text y="627.54303" x="113.03029" style="font-size:21px;font-family:MSReferenceSansSerif" id="text198">½</text>
<g style="fill:#4d8033;fill-opacity:1" transform="translate(3.03e-4,442)" id="g4151-2-7"><path style="fill:#4d8033;fill-opacity:1;stroke:#000000;stroke-width:1;stroke-linecap:butt;stroke-linejoin:round;stroke-miterlimit:0;stroke-opacity:1;stroke-dasharray:none" d="m 107.907,103.93669 10,-9.99969 100.001,-0.303 -9.9997,10 z" id="path3379-3-4" inkscape:connector-curvature="0" sodipodi:nodetypes="ccccc"/><path style="fill:#4d8033;fill-opacity:1;stroke:#000000;stroke-width:1px;stroke-linecap:butt;stroke-linejoin:round;stroke-opacity:1" d="m 207.87338,228.634 10.03462,-10 0,-125 -10.38635,10 z" id="path4149-2-2" inkscape:connector-curvature="0" sodipodi:nodetypes="ccccc"/></g></g><g id="g3467"><rect style="fill:#99ff66;stroke:#000000;stroke-linejoin:round" id="rect201" y="545.63403" x="226.907" height="125" width="100.001"/><text y="623.95203" x="255.58524" style="font-size:72px;font-family:Times New Roman" id="text203">μ</text>
<text y="654.54303" x="254.83856" style="font-size:18px;text-align:start;text-anchor:start;font-family:MSReferenceSansSerif" id="text205"><tspan id="tspan3268" style="font-style:normal;font-variant:normal;font-weight:normal;font-stretch:normal;text-align:start;text-anchor:start;font-family:Arial;-inkscape-font-specification:Arial">Myon</tspan></text>
<text sodipodi:linespacing="125%" y="566.54303" x="232.03" style="font-size:14px;font-style:normal;font-variant:normal;font-weight:normal;font-stretch:normal;text-align:start;line-height:125%;writing-mode:lr-tb;text-anchor:start;font-family:Verdana" id="text207">105,7 MeV</text>
<text y="626.328" x="232.03" style="font-size:21px;font-family:MSReferenceSansSerif" id="text209">½</text>
<text y="596.92603" x="232.03" id="_x2D_1_x2F_3_8_"><tspan style="font-size:18px;letter-spacing:-1;font-family:MSReferenceSansSerif" id="tspan212" y="596.92603" x="232.03">-</tspan><tspan style="font-size:18px;font-family:MSReferenceSansSerif" id="tspan214" y="596.92603" x="238.40401">1</tspan></text>
<text id="text3363" style="font-size:72px;font-family:Times New Roman" x="255.58524" y="623.95203">μ</text>
<g style="fill:#4d8033;fill-opacity:1" transform="translate(119,442)" id="g4151-7-2-7"><path style="fill:#4d8033;fill-opacity:1;stroke:#000000;stroke-width:1;stroke-linecap:butt;stroke-linejoin:round;stroke-miterlimit:0;stroke-opacity:1;stroke-dasharray:none" d="m 107.907,103.93669 10,-9.99969 100.001,-0.303 -9.9997,10 z" id="path3379-1-1-7" inkscape:connector-curvature="0" sodipodi:nodetypes="ccccc"/><path style="fill:#4d8033;fill-opacity:1;stroke:#000000;stroke-width:1px;stroke-linecap:butt;stroke-linejoin:round;stroke-opacity:1" d="m 207.87338,228.634 10.03462,-10 0,-125 -10.38635,10 z" id="path4149-1-6-9" inkscape:connector-curvature="0" sodipodi:nodetypes="ccccc"/></g></g><g id="g3482"><rect style="fill:#99ff66;stroke:#000000;stroke-width:1;stroke-linejoin:round" id="rect217" y="545.63403" x="345.90701" height="125" width="100.001"/><text y="624.95203" x="381.93289" style="font-size:72px;font-family:Times New Roman" id="text219">τ</text>
<text y="654.54303" x="380.82587" style="font-size:18px;text-align:start;text-anchor:start;font-family:MSReferenceSansSerif" id="text221"><tspan id="tspan3270" style="font-style:normal;font-variant:normal;font-weight:normal;font-stretch:normal;text-align:start;text-anchor:start;font-family:Arial;-inkscape-font-specification:Arial">Tau</tspan></text>
<text sodipodi:linespacing="125%" y="566.54303" x="351.03003" style="font-size:14px;font-style:normal;font-variant:normal;font-weight:normal;font-stretch:normal;text-align:start;line-height:125%;writing-mode:lr-tb;text-anchor:start;font-family:Verdana" id="text223">1,777 GeV</text>
<text y="626.328" x="351.03003" style="font-size:21px;font-family:MSReferenceSansSerif" id="text225">½</text>
<text y="596.92603" x="351.03003" style="font-size:18px;font-family:MSReferenceSansSerif" id="_x2D_1_x2F_3_5_">-1</text>
<g style="fill:#4d8033;fill-opacity:1" transform="translate(238,442)" id="g4151-7-5-8-3"><path style="fill:#4d8033;fill-opacity:1;stroke:#000000;stroke-width:1;stroke-linecap:butt;stroke-linejoin:round;stroke-miterlimit:0;stroke-opacity:1;stroke-dasharray:none" d="m 107.907,103.93669 10,-9.99969 100.001,-0.303 -9.9997,10 z" id="path3379-1-2-5-1" inkscape:connector-curvature="0" sodipodi:nodetypes="ccccc"/><path style="fill:#4d8033;fill-opacity:1;stroke:#000000;stroke-width:1px;stroke-linecap:butt;stroke-linejoin:round;stroke-opacity:1" d="m 207.87338,228.634 10.03462,-10 0,-125 -10.38635,10 z" id="path4149-1-7-7-9" inkscape:connector-curvature="0" sodipodi:nodetypes="ccccc"/></g></g><g id="g3390" transform="translate(0.60617065,0)"><rect style="fill:#ff6c6c;fill-opacity:1;stroke:#000000;stroke-width:1;stroke-linejoin:round" id="rect254" y="401.634" x="465.90701" height="125" width="100.001"/><text style="font-size:12px;font-family:Arial" y="479.952" x="497.72882" id="text256"><tspan style="font-size:60px;font-family:Arial" id="tspan258" y="479.952" x="497.72882">Z<tspan id="tspan3331" style="font-size:39.00054932px;baseline-shift:super"/></tspan></text>
<text sodipodi:linespacing="125%" style="font-size:14px;font-style:normal;font-variant:normal;font-weight:normal;font-stretch:normal;text-align:start;line-height:125%;writing-mode:lr-tb;text-anchor:start;font-family:Verdana" y="421.543" x="471.03003" id="text262"><tspan style="font-size:14px;font-style:normal;font-variant:normal;font-weight:normal;font-stretch:normal;text-align:start;line-height:125%;writing-mode:lr-tb;text-anchor:start;font-family:Verdana" id="tspan264" y="421.543" x="471.03003">91,2 GeV</tspan></text>
<text y="451.03299" x="471.03003" style="font-size:18px;font-family:MSReferenceSansSerif" id="_x32__x2F_3_6_">0</text>
<text y="479.543" x="471.03003" style="font-size:18px;font-family:MSReferenceSansSerif" id="text271">1</text>
<text sodipodi:linespacing="100%" id="text3184-1-0-8" y="507.76376" x="516.00854" style="font-size:40px;font-style:normal;font-weight:normal;text-align:center;line-height:100%;letter-spacing:0px;word-spacing:0px;text-anchor:middle;fill:#000000;fill-opacity:1;stroke:none;font-family:Sans" xml:space="preserve"><tspan id="tspan3264" style="font-size:18px;font-style:normal;font-variant:normal;font-weight:normal;font-stretch:normal;line-height:100%;font-family:Arial;-inkscape-font-specification:Arial" y="507.76376" x="516.00854" sodipodi:role="line">Z Boson</tspan></text>
<g style="fill:#803636;fill-opacity:1" transform="translate(358,298)" id="g4151-7-5-6-4"><path style="fill:#803636;fill-opacity:1;stroke:#000000;stroke-width:1;stroke-linecap:butt;stroke-linejoin:round;stroke-miterlimit:0;stroke-opacity:1;stroke-dasharray:none" d="m 107.907,103.93669 10,-9.99969 100.001,-0.303 -9.9997,10 z" id="path3379-1-2-1-11" inkscape:connector-curvature="0" sodipodi:nodetypes="ccccc"/><path style="fill:#803636;fill-opacity:1;stroke:#000000;stroke-width:1px;stroke-linecap:butt;stroke-linejoin:round;stroke-opacity:1" d="m 207.87338,228.634 10.03462,-10 0,-125 -10.38635,10 z" id="path4149-1-7-4-3" inkscape:connector-curvature="0" sodipodi:nodetypes="ccccc"/></g><text sodipodi:linespacing="125%" id="text3205" y="448.65121" x="545.43756" style="font-size:40px;font-style:normal;font-weight:normal;text-align:center;line-height:125%;letter-spacing:0px;word-spacing:0px;text-anchor:middle;fill:#000000;fill-opacity:1;stroke:none;font-family:Sans" xml:space="preserve"><tspan style="font-size:32px" y="448.65121" x="545.43756" id="tspan3207" sodipodi:role="line">0</tspan></text>
</g>

<g id="g3494"><rect style="fill:#ff6c6c;fill-opacity:1;stroke:#000000;stroke-width:1;stroke-linejoin:round" id="rect282" y="545.63403" x="465.90701" height="125" width="100.001"/><text sodipodi:linespacing="125%" style="font-size:14px;font-style:normal;font-variant:normal;font-weight:normal;font-stretch:normal;text-align:start;line-height:125%;writing-mode:lr-tb;text-anchor:start;font-family:Verdana;-inkscape-font-specification:Verdana" y="566.54303" x="471.03003" id="text290"><tspan style="font-size:14px;font-style:normal;font-variant:normal;font-weight:normal;font-stretch:normal;text-align:start;line-height:125%;writing-mode:lr-tb;text-anchor:start;font-family:Verdana;-inkscape-font-specification:Verdana" id="tspan292" y="566.54303" x="471.03003">80,4 GeV</tspan></text>
<text y="626.328" x="471.03003" style="font-size:18px;font-family:MSReferenceSansSerif" id="text298">1</text>
<text style="font-size:12px" y="596.92603" x="471.03003" id="_x2D_1_x2F_3_6_"><tspan style="font-size:14px;font-family:MSReferenceSansSerif" id="tspan301" y="596.92603" x="471.03003">±</tspan><tspan style="font-size:18px;font-family:MSReferenceSansSerif" id="tspan303" y="596.92603" x="481.92603">1</tspan></text>
<text sodipodi:linespacing="100%" id="text3184-4" y="653.98456" x="515.30505" style="font-size:40px;font-style:normal;font-weight:normal;text-align:center;line-height:100%;letter-spacing:0px;word-spacing:0px;text-anchor:middle;fill:#000000;fill-opacity:1;stroke:none;font-family:Sans" xml:space="preserve"><tspan style="font-size:18px;font-style:normal;font-variant:normal;font-weight:normal;font-stretch:normal;line-height:100%;font-family:Arial;-inkscape-font-specification:Arial" id="tspan3188-5" y="653.98456" x="515.30505" sodipodi:role="line">W Boson</tspan></text>
<text y="626.76776" x="489.52383" style="font-size:72px;font-family:Times New Roman" id="text219-1"><tspan id="tspan3353" style="font-size:60px;font-style:normal;font-variant:normal;font-weight:normal;font-stretch:normal;font-family:Arial;-inkscape-font-specification:Arial">W<tspan id="tspan3361" style="font-size:32px;baseline-shift:super"/></tspan></text>
<g style="fill:#803636;fill-opacity:1" transform="translate(358,442)" id="g4151-7-5-6-6-8"><path style="fill:#803636;fill-opacity:1;stroke:#000000;stroke-width:1;stroke-linecap:butt;stroke-linejoin:round;stroke-miterlimit:0;stroke-opacity:1;stroke-dasharray:none" d="m 107.907,103.93669 10,-9.99969 100.001,-0.303 -9.9997,10 z" id="path3379-1-2-1-1-6" inkscape:connector-curvature="0" sodipodi:nodetypes="ccccc"/><path style="fill:#803636;fill-opacity:1;stroke:#000000;stroke-width:1px;stroke-linecap:butt;stroke-linejoin:round;stroke-opacity:1" d="m 207.87338,228.634 10.03462,-10 0,-125 -10.38635,10 z" id="path4149-1-7-4-8-5" inkscape:connector-curvature="0" sodipodi:nodetypes="ccccc"/></g><text sodipodi:linespacing="125%" id="text3209" y="592.59589" x="554.62732" style="font-size:40px;font-style:normal;font-weight:normal;text-align:center;line-height:125%;letter-spacing:0px;word-spacing:0px;text-anchor:middle;fill:#000000;fill-opacity:1;stroke:none;font-family:Sans" xml:space="preserve"><tspan style="font-size:28px" y="592.59589" x="554.62732" id="tspan3211" sodipodi:role="line">±</tspan></text>
</g>











<g id="g3253" transform="translate(-2.4042969e-5,0)"><rect style="fill:#fff66c;fill-opacity:1;stroke:#000000;stroke-width:1;stroke-linejoin:round" id="rect254-1" y="113.63401" x="587.66492" height="125" width="100.001"/><text style="font-size:12px;font-family:Arial" y="191.952" x="619.48676" id="text256-1"><tspan style="font-size:60px;font-family:Arial" id="tspan258-4" y="191.952" x="619.48676">H</tspan></text>
<text sodipodi:linespacing="125%" style="font-size:14px;font-style:normal;font-variant:normal;font-weight:normal;font-stretch:normal;text-align:start;line-height:125%;writing-mode:lr-tb;text-anchor:start;font-family:Verdana" y="133.54301" x="592.78796" id="text262-3"><tspan style="font-size:14px;font-style:normal;font-variant:normal;font-weight:normal;font-stretch:normal;text-align:start;line-height:125%;writing-mode:lr-tb;text-anchor:start;font-family:Verdana" id="tspan264-9" y="133.54301" x="592.78796">125,9 GeV</tspan></text>
<text y="163.03299" x="592.78796" style="font-size:18px;font-family:MSReferenceSansSerif" id="_x32__x2F_3_6_-2">0</text>
<text y="191.543" x="592.78796" style="font-size:18px;font-family:MSReferenceSansSerif" id="text271-7">0</text>
<text sodipodi:linespacing="100%" id="text3184-1-0-8-0" y="215.78438" x="637.76648" style="font-size:40px;font-style:normal;font-weight:normal;text-align:center;line-height:100%;letter-spacing:0px;word-spacing:0px;text-anchor:middle;fill:#000000;fill-opacity:1;stroke:none;font-family:Sans" xml:space="preserve"><tspan id="tspan3264-3" style="font-size:18px;font-style:normal;font-variant:normal;font-weight:normal;font-stretch:normal;line-height:100%;font-family:Arial;-inkscape-font-specification:Arial" y="215.78438" x="637.76648" sodipodi:role="line">Higgs</tspan><tspan id="tspan3535" style="font-size:18px;font-style:normal;font-variant:normal;font-weight:normal;font-stretch:normal;line-height:100%;font-family:Arial;-inkscape-font-specification:Arial" y="233.78438" x="637.76648" sodipodi:role="line">Boson</tspan></text>
<g style="fill:#807c36;fill-opacity:1" transform="translate(479.75788,10)" id="g4151-7-5-6-4-1"><path style="fill:#807c36;fill-opacity:1;stroke:#000000;stroke-width:1;stroke-linecap:butt;stroke-linejoin:round;stroke-miterlimit:0;stroke-opacity:1;stroke-dasharray:none" d="m 107.907,103.93669 10,-9.99969 100.001,-0.303 -9.9997,10 z" id="path3379-1-2-1-11-6" inkscape:connector-curvature="0" sodipodi:nodetypes="ccccc"/><path style="fill:#807c36;fill-opacity:1;stroke:#000000;stroke-width:1px;stroke-linecap:butt;stroke-linejoin:round;stroke-opacity:1" d="m 207.87338,228.634 10.03462,-10 0,-125 -10.38635,10 z" id="path4149-1-7-4-3-2" inkscape:connector-curvature="0" sodipodi:nodetypes="ccccc"/></g></g><text xml:space="preserve" style="font-size:40px;font-style:normal;font-weight:normal;text-align:center;line-height:125%;letter-spacing:0px;word-spacing:0px;text-anchor:middle;fill:#000000;fill-opacity:1;stroke:none;font-family:Sans" x="667.1955" y="167.19464" id="text3205-2" sodipodi:linespacing="125%"><tspan sodipodi:role="line" id="tspan3207-0" x="667.1955" y="167.19464" style="font-size:39px"/></text>


</svg>