   -----------------------------------------------------------------
  | Welcome to ROOT 6.11/01                     http://root.cern.ch |
  |                                    (c) 1995-2017, The ROOT Team |
  | Built for linuxx8664gcc                                         |
  | From heads/master@v6-09-02-1609-g936e653, Jul 06 2017, 12:26:59 |
  | Try '.help', '.demo', '.license', '.credits', '.quit'/'.q'      |
   -----------------------------------------------------------------


Processing bd02pi.C...

[1mRooFit v3.60 -- Developed by Wouter Verkerke and David Kirkby[0m 
                Copyright (C) 2000-2013 NIKHEF, University of California & Stanford University
                All rights reserved, please read http://roofit.sourceforge.net/license.txt

******************************************************************************
*Tree    :h1        : bd02pi                                                 *
*Entries :    41587 : Total =         2674113 bytes  File  Size =    1713973 *
*        :          : Tree compression factor =   1.56                       *
******************************************************************************
*Br    0 :exp_no    : Float_t                                                *
*Entries :    41587 : Total  Size=     167108 bytes  File Size  =       1247 *
*Baskets :        4 : Basket Size=      64000 bytes  Compression= 133.63     *
*............................................................................*
*Br    1 :run_no    : Float_t                                                *
*Entries :    41587 : Total  Size=     167108 bytes  File Size  =       4612 *
*Baskets :        4 : Basket Size=      64000 bytes  Compression=  36.13     *
*............................................................................*
*Br    2 :crate_no  : Float_t                                                *
*Entries :    41587 : Total  Size=     167124 bytes  File Size  =       1147 *
*Baskets :        4 : Basket Size=      64000 bytes  Compression= 145.28     *
*............................................................................*
*Br    3 :evt_no    : Float_t                                                *
*Entries :    41587 : Total  Size=     167108 bytes  File Size  =     118304 *
*Baskets :        4 : Basket Size=      64000 bytes  Compression=   1.41     *
*............................................................................*
*Br    4 :ps_k      : Float_t                                                *
*Entries :    41587 : Total  Size=     167092 bytes  File Size  =     146755 *
*Baskets :        4 : Basket Size=      64000 bytes  Compression=   1.14     *
*............................................................................*
*Br    5 :id_k      : Float_t                                                *
*Entries :    41587 : Total  Size=     167092 bytes  File Size  =     126304 *
*Baskets :        4 : Basket Size=      64000 bytes  Compression=   1.32     *
*............................................................................*
*Br    6 :ps_pif    : Float_t                                                *
*Entries :    41587 : Total  Size=     167108 bytes  File Size  =     148372 *
*Baskets :        4 : Basket Size=      64000 bytes  Compression=   1.12     *
*............................................................................*
*Br    7 :id_pif    : Float_t                                                *
*Entries :    41587 : Total  Size=     167108 bytes  File Size  =     155217 *
*Baskets :        4 : Basket Size=      64000 bytes  Compression=   1.07     *
*............................................................................*
*Br    8 :m_kpi     : Float_t                                                *
*Entries :    41587 : Total  Size=     167100 bytes  File Size  =     128949 *
*Baskets :        4 : Basket Size=      64000 bytes  Compression=   1.29     *
*............................................................................*
*Br    9 :prb_vtx   : Float_t                                                *
*Entries :    41587 : Total  Size=     167116 bytes  File Size  =     152166 *
*Baskets :        4 : Basket Size=      64000 bytes  Compression=   1.10     *
*............................................................................*
*Br   10 :cos_d     : Float_t                                                *
*Entries :    41587 : Total  Size=     167100 bytes  File Size  =     154225 *
*Baskets :        4 : Basket Size=      64000 bytes  Compression=   1.08     *
*............................................................................*
*Br   11 :ps_pis    : Float_t                                                *
*Entries :    41587 : Total  Size=     167108 bytes  File Size  =     139077 *
*Baskets :        4 : Basket Size=      64000 bytes  Compression=   1.20     *
*............................................................................*
*Br   12 :id_pis    : Float_t                                                *
*Entries :    41587 : Total  Size=     167108 bytes  File Size  =     153442 *
*Baskets :        4 : Basket Size=      64000 bytes  Compression=   1.09     *
*............................................................................*
*Br   13 :delta_e   : Float_t                                                *
*Entries :    41587 : Total  Size=     167116 bytes  File Size  =     150512 *
*Baskets :        4 : Basket Size=      64000 bytes  Compression=   1.11     *
*............................................................................*
*Br   14 :m_bc      : Float_t                                                *
*Entries :    41587 : Total  Size=     167092 bytes  File Size  =     117994 *
*Baskets :        4 : Basket Size=      64000 bytes  Compression=   1.41     *
*............................................................................*
*Br   15 :fl_bd02p  : Float_t                                                *
*Entries :    41587 : Total  Size=     167124 bytes  File Size  =      14017 *
*Baskets :        4 : Basket Size=      64000 bytes  Compression=  11.89     *
*............................................................................*
[#1] INFO:Eval -- RooAbsReal::attachToTree(m_bc) TTree Float_t branch m_bc will be converted to double precision
[#1] INFO:Eval -- RooAbsReal::attachToTree(fl_bd02p) TTree Float_t branch fl_bd02p will be converted to double precision
[#1] INFO:Eval -- RooTreeDataStore::loadValues(m_bc) Ignored 34103 out of range events
[#1] INFO:Minization -- p.d.f. provides expected number of events, including extended term in likelihood.
[#1] INFO:Minization -- RooMinimizer::optimizeConst: activating const optimization
[#1] INFO:Minization --  The following expressions will be evaluated in cache-and-track mode: (sig)
 **********
 **    1 **SET PRINT           1
 **********
 **********
 **    2 **SET NOGRAD
 **********
 PARAMETER DEFINITIONS:
    NO.   NAME         VALUE      STEP SIZE      LIMITS
     1 gmean        5.27900e+00  1.00000e-02    5.20000e+00  5.30000e+00
     2 gsigma       2.70000e-03  8.50000e-04    1.00000e-03  1.00000e+00
     3 nsig         3.00000e+02  1.50000e+02    0.00000e+00  1.00000e+04
 **********
 **    3 **SET ERR         0.5
 **********
 **********
 **    4 **SET PRINT           1
 **********
 **********
 **    5 **SET STR           1
 **********
 NOW USING STRATEGY  1: TRY TO BALANCE SPEED AGAINST RELIABILITY
 **********
 **    6 **MIGRAD        1500           1
 **********
 FIRST CALL TO USER FUNCTION AT NEW START POINT, WITH IFLAG=4.
 START MIGRAD MINIMIZATION.  STRATEGY  1.  CONVERGENCE WHEN EDM .LT. 1.00e-03
 FCN=-70922.2 FROM MIGRAD    STATUS=INITIATE       12 CALLS          13 TOTAL
                     EDM= unknown      STRATEGY= 1      NO ERROR MATRIX       
  EXT PARAMETER               CURRENT GUESS       STEP         FIRST   
  NO.   NAME      VALUE            ERROR          SIZE      DERIVATIVE 
   1  gmean        5.27900e+00   1.00000e-02   2.52435e-01  -4.73132e+04
   2  gsigma       2.70000e-03   8.50000e-04   2.13708e-02  -1.55852e+05
   3  nsig         3.00000e+02   1.50000e+02   9.09734e-02  -4.08501e+04
                               ERR DEF= 0.5
 MIGRAD MINIMIZATION HAS CONVERGED.
 MIGRAD WILL VERIFY CONVERGENCE AND ERROR MATRIX.
 COVARIANCE MATRIX CALCULATED SUCCESSFULLY
 FCN=-89988.8 FROM MIGRAD    STATUS=CONVERGED     106 CALLS         107 TOTAL
                     EDM=9.82463e-07    STRATEGY= 1      ERROR MATRIX ACCURATE 
  EXT PARAMETER                                   STEP         FIRST   
  NO.   NAME      VALUE            ERROR          SIZE      DERIVATIVE 
   1  gmean        5.28013e+00   4.61864e-05   2.39776e-04   4.06795e-01
   2  gsigma       3.99557e-03   3.26601e-05   1.23849e-04  -1.37915e+00
   3  nsig         7.48398e+03   8.65038e+01   4.11872e-03  -1.43698e-02
                               ERR DEF= 0.5
 EXTERNAL ERROR MATRIX.    NDIM=  25    NPAR=  3    ERR DEF=0.5
  2.133e-09  2.608e-12  2.349e-15 
  2.608e-12  1.067e-09  9.608e-13 
  2.349e-15  9.608e-13  7.484e+03 
 PARAMETER  CORRELATION COEFFICIENTS  
       NO.  GLOBAL      1      2      3
        1  0.00173   1.000  0.002  0.000
        2  0.00173   0.002  1.000  0.000
        3  0.00000   0.000  0.000  1.000
 **********
 **    7 **SET ERR         0.5
 **********
 **********
 **    8 **SET PRINT           1
 **********
 **********
 **    9 **HESSE        1500
 **********
 COVARIANCE MATRIX CALCULATED SUCCESSFULLY
 FCN=-89988.8 FROM HESSE     STATUS=OK             16 CALLS         123 TOTAL
                     EDM=9.83387e-07    STRATEGY= 1      ERROR MATRIX ACCURATE 
  EXT PARAMETER                                INTERNAL      INTERNAL  
  NO.   NAME      VALUE            ERROR       STEP SIZE       VALUE   
   1  gmean        5.28013e+00   4.61863e-05   4.79552e-05   6.46789e-01
   2  gsigma       3.99557e-03   3.26600e-05   4.95395e-06  -1.46122e+00
   3  nsig         7.48398e+03   8.65040e+01   1.64749e-04   5.19902e-01
                               ERR DEF= 0.5
 EXTERNAL ERROR MATRIX.    NDIM=  25    NPAR=  3    ERR DEF=0.5
  2.133e-09  5.692e-13  1.698e-10 
  5.692e-13  1.067e-09  4.532e-14 
  1.698e-10  4.532e-14  7.484e+03 
 PARAMETER  CORRELATION COEFFICIENTS  
       NO.  GLOBAL      1      2      3
        1  0.00038   1.000  0.000  0.000
        2  0.00038   0.000  1.000  0.000
        3  0.00000   0.000  0.000  1.000
[#1] INFO:Minization -- RooMinimizer::optimizeConst: deactivating const optimization
Info in <TCanvas::MakeDefCanvas>:  created default TCanvas with name c1
   -----------------------------------------------------------------
  | Welcome to ROOT 6.11/01                     http://root.cern.ch |
  |                                    (c) 1995-2017, The ROOT Team |
  | Built for linuxx8664gcc                                         |
  | From heads/master@v6-09-02-1609-g936e653, Jul 06 2017, 12:26:59 |
  | Try '.help', '.demo', '.license', '.credits', '.quit'/'.q'      |
   -----------------------------------------------------------------


Processing bd02pi.C...

[1mRooFit v3.60 -- Developed by Wouter Verkerke and David Kirkby[0m 
                Copyright (C) 2000-2013 NIKHEF, University of California & Stanford University
                All rights reserved, please read http://roofit.sourceforge.net/license.txt

[#1] INFO:Eval -- RooAbsReal::attachToTree(m_bc) TTree Float_t branch m_bc will be converted to double precision
[#1] INFO:Eval -- RooAbsReal::attachToTree(fl_bd02p) TTree Float_t branch fl_bd02p will be converted to double precision
[#1] INFO:Eval -- RooTreeDataStore::loadValues(data) Ignored 57 out of range events
[#1] INFO:Minization -- p.d.f. provides expected number of events, including extended term in likelihood.
[#1] INFO:Minization -- RooMinimizer::optimizeConst: activating const optimization
[#1] INFO:Minization --  The following expressions will be evaluated in cache-and-track mode: (sig1,sig2)
 **********
 **    1 **SET PRINT           1
 **********
 **********
 **    2 **SET NOGRAD
 **********
 PARAMETER DEFINITIONS:
    NO.   NAME         VALUE      STEP SIZE      LIMITS
     1 meanSig      5.27900e+00  5.50000e-03    5.20000e+00  5.29000e+00
     2 nsig1        2.00000e+02  1.00000e+02    0.00000e+00  1.00000e+04
     3 nsig2        1.00000e+02  5.00000e+01    0.00000e+00  1.00000e+04
     4 sigmSig      2.70000e-03  8.50000e-04    1.00000e-03  1.00000e-01
 **********
 **    3 **SET ERR         0.5
 **********
 **********
 **    4 **SET PRINT           1
 **********
 **********
 **    5 **SET STR           1
 **********
 NOW USING STRATEGY  1: TRY TO BALANCE SPEED AGAINST RELIABILITY
 **********
 **    6 **MIGRAD        2000           1
 **********
 FIRST CALL TO USER FUNCTION AT NEW START POINT, WITH IFLAG=4.
 START MIGRAD MINIMIZATION.  STRATEGY  1.  CONVERGENCE WHEN EDM .LT. 1.00e-03
 FCN=-87547.8 FROM MIGRAD    STATUS=INITIATE       52 CALLS          53 TOTAL
                     EDM= unknown      STRATEGY= 1      NO ERROR MATRIX       
  EXT PARAMETER               CURRENT GUESS       STEP         FIRST   
  NO.   NAME      VALUE            ERROR          SIZE      DERIVATIVE 
   1  meanSig      5.27900e+00   5.50000e-03   0.00000e+00  -3.43202e+04
   2  nsig1        4.51534e+03   1.00000e+02   1.18992e+00   8.96465e+01
   3  nsig2        3.10188e+03   5.00000e+01   0.00000e+00   8.33325e+01
   4  sigmSig      2.70000e-03   8.50000e-04   0.00000e+00  -5.09059e+04
                               ERR DEF= 0.5
 MIGRAD MINIMIZATION HAS CONVERGED.
 MIGRAD WILL VERIFY CONVERGENCE AND ERROR MATRIX.
 COVARIANCE MATRIX CALCULATED SUCCESSFULLY
 FCN=-89969 FROM MIGRAD    STATUS=CONVERGED     140 CALLS         141 TOTAL
                     EDM=6.19616e-05    STRATEGY= 1      ERROR MATRIX ACCURATE 
  EXT PARAMETER                                   STEP         FIRST   
  NO.   NAME      VALUE            ERROR          SIZE      DERIVATIVE 
   1  meanSig      5.28016e+00   5.39788e-05   3.98824e-04  -1.24128e+00
   2  nsig1        4.45284e+03   9.91058e+02   3.60041e-03   2.91166e-01
   3  nsig2        3.02759e+03   9.89909e+02   3.89742e-03   2.69451e-01
   4  sigmSig      4.34544e-03   4.69524e-05   5.45430e-04   2.12713e+00
                               ERR DEF= 0.5
 EXTERNAL ERROR MATRIX.    NDIM=  25    NPAR=  4    ERR DEF=0.5
  2.914e-09 -2.148e-10  2.156e-10  6.227e-11 
 -2.148e-10  9.955e+05 -9.917e+05 -1.866e-10 
  2.156e-10 -9.917e+05  9.955e+05  1.873e-10 
  6.227e-11 -1.866e-10  1.873e-10  2.205e-09 
 PARAMETER  CORRELATION COEFFICIENTS  
       NO.  GLOBAL      1      2      3      4
        1  0.02457   1.000 -0.000  0.000  0.025
        2  0.99624  -0.000  1.000 -0.996 -0.000
        3  0.99624   0.000 -0.996  1.000  0.000
        4  0.02457   0.025 -0.000  0.000  1.000
 **********
 **    7 **SET ERR         0.5
 **********
 **********
 **    8 **SET PRINT           1
 **********
 **********
 **    9 **HESSE        2000
 **********
 COVARIANCE MATRIX CALCULATED SUCCESSFULLY
 FCN=-89969 FROM HESSE     STATUS=OK             23 CALLS         164 TOTAL
                     EDM=6.19982e-05    STRATEGY= 1      ERROR MATRIX ACCURATE 
  EXT PARAMETER                                INTERNAL      INTERNAL  
  NO.   NAME      VALUE            ERROR       STEP SIZE       VALUE   
   1  meanSig      5.28016e+00   5.39759e-05   7.97648e-05   8.96788e-01
   2  nsig1        4.45284e+03   2.12632e+03   7.20081e-04  -1.09651e-01
   3  nsig2        3.02759e+03   2.11437e+03   7.79485e-04  -4.05503e-01
   4  sigmSig      4.34544e-03   4.69500e-05   2.18172e-05  -1.20104e+00
                               ERR DEF= 0.5
 EXTERNAL ERROR MATRIX.    NDIM=  25    NPAR=  4    ERR DEF=0.5
  2.913e-09 -5.098e-08  5.102e-08  5.634e-11 
 -5.098e-08  4.828e+06 -4.824e+06 -8.186e-10 
  5.102e-08 -4.824e+06  4.828e+06  9.911e-10 
  5.634e-11 -8.186e-10  9.911e-10  2.204e-09 
 PARAMETER  CORRELATION COEFFICIENTS  
       NO.  GLOBAL      1      2      3      4
        1  0.02223   1.000 -0.000  0.000  0.022
        2  0.99922  -0.000  1.000 -0.999 -0.000
        3  0.99922   0.000 -0.999  1.000  0.000
        4  0.02223   0.022 -0.000  0.000  1.000
[#1] INFO:Minization -- RooMinimizer::optimizeConst: deactivating const optimization
[#1] INFO:Plotting -- RooPlot::updateFitRangeNorm: New event count of 7480 will supercede previous event count of 51199 for normalization of PDF projections
[#1] INFO:Plotting -- RooPlot::updateFitRangeNorm: New event count of 43719 will supercede previous event count of 7480 for normalization of PDF projections
Info in <TCanvas::MakeDefCanvas>:  created default TCanvas with name c1
   -----------------------------------------------------------------
  | Welcome to ROOT 6.11/01                     http://root.cern.ch |
  |                                    (c) 1995-2017, The ROOT Team |
  | Built for linuxx8664gcc                                         |
  | From heads/master@v6-09-02-1609-g936e653, Jul 06 2017, 12:26:59 |
  | Try '.help', '.demo', '.license', '.credits', '.quit'/'.q'      |
   -----------------------------------------------------------------


Processing pull_test.C...

[1mRooFit v3.60 -- Developed by Wouter Verkerke and David Kirkby[0m 
                Copyright (C) 2000-2013 NIKHEF, University of California & Stanford University
                All rights reserved, please read http://roofit.sourceforge.net/license.txt

[#1] INFO:DataHandling -- RooDataHist::adjustBinning(dathist): fit range of variable x expanded to nearest bin boundaries: [-3,3] --> [-3,3]
[#1] INFO:Plotting -- RooPlot::updateFitRangeNorm: New event count of 3 will supercede previous event count of 1 for normalization of PDF projections
RooRealVar::n = 1  L(0 - 100) 
CHI2: 0.419819
