\relax 
\citation{TDR95,Progress97}
\citation{acc-IijimaA379,acc-SumiyoshiA433}
\citation{acc-IijimaA387}
\citation{acc-AdachiA355}
\citation{acc-Yokoyama}
\@writefile{toc}{\contentsline {section}{\numberline {6}Aerogel \v {C}erenkov Counter System, ACC}{65}}
\@writefile{toc}{\contentsline {subsection}{\numberline {6.1}Detector Design}{65}}
\@writefile{toc}{\contentsline {subsubsection}{\numberline {6.1.1}Production of hydrophobic silica aerogels}{65}}
\citation{acc-AdachiA355,acc-Sumiyoshi225}
\@writefile{lof}{\contentsline {figure}{\numberline {40}{\ignorespaces The arrangement of ACC at the central part of the Belle detector.}}{66}}
\newlabel{eps-acc-arrangement}{{40}{66}}
\@writefile{toc}{\contentsline {subsubsection}{\numberline {6.1.2}Quality of the aerogels}{66}}
\@writefile{lof}{\contentsline {figure}{\numberline {41}{\ignorespaces Schematic drawing of a typical ACC counter module: (a) barrel and (b) end-cap ACC.}}{67}}
\newlabel{eps-acc-module}{{41}{67}}
\citation{acc-SahuA382}
\citation{acc-IijimaA387}
\citation{acc-HPK}
\@writefile{lof}{\contentsline {figure}{\numberline {42}{\ignorespaces Light transmittance spectra for silica aerogels (thickness = 23.3 mm) of $n$ = 1.01, 1.015, 1.02 and 1.028. The silica aerogels of $n$ = 1.028 prepared by using methanol as the preparation solvent shows the best transmittance data.}}{68}}
\newlabel{eps-acc-transmittance}{{42}{68}}
\@writefile{toc}{\contentsline {subsubsection}{\numberline {6.1.3}Fine-mesh photomultiplier tubes}{68}}
\citation{acc-EnomotoA332}
\@writefile{lof}{\contentsline {figure}{\numberline {43}{\ignorespaces Sectional view of FM-PMT.}}{69}}
\newlabel{eps-acc-fmpmt}{{43}{69}}
\@writefile{lof}{\contentsline {figure}{\numberline {44}{\ignorespaces Relative gains of conventional and improved FM-PMTs in magnetic fields. The tubes were placed parallel (0$^o$) or tilted by 30$^o$ with respect to the field direction.}}{70}}
\newlabel{eps-acc-tubegain}{{44}{70}}
\@writefile{lot}{\contentsline {table}{\numberline {5}{\ignorespaces Measured ratio $N_{eff}/N^0_{eff}$ at B = 1.5 T. The number of tested samples for each condition is shown in parentheses.}}{71}}
\newlabel{ACC}{{5}{71}}
\@writefile{toc}{\contentsline {subsection}{\numberline {6.2}ACC Readout Electronics}{71}}
\@writefile{lof}{\contentsline {figure}{\numberline {45}{\ignorespaces System-level block diagram of the ACC readout electronics.}}{71}}
\newlabel{ACCRO:fig1}{{45}{71}}
\@writefile{toc}{\contentsline {subsubsection}{\numberline {6.2.1}Preamplifier Base Assemblies}{71}}
\@writefile{toc}{\contentsline {subsubsection}{\numberline {6.2.2}Charge-to-Time Converter Modules}{72}}
\citation{acc-KhanA413}
\@writefile{lof}{\contentsline {figure}{\numberline {46}{\ignorespaces Block diagram of a single charge-to-time converter channel.}}{73}}
\newlabel{ACCRO:fig2}{{46}{73}}
\@writefile{toc}{\contentsline {subsubsection}{\numberline {6.2.3}Monitoring system}{73}}
\citation{acc-SudaA406}
\citation{acc-EnomotoA332}
\@writefile{toc}{\contentsline {subsubsection}{\numberline {6.2.4}Monte Carlo simulation}{74}}
\@writefile{toc}{\contentsline {subsection}{\numberline {6.3}Performance of ACC}{74}}
\@writefile{lof}{\contentsline {figure}{\numberline {47}{\ignorespaces Pulse-height spectra for 3.5 GeV/c pions (above threshold) and protons (below threshold) obtained by a single module of ACC in (a) non-magnetic field and (b) a magnetic field of 1.5 T. Silica aerogels with $n$ = 1.015 were stacked to form the module.}}{75}}
\newlabel{eps-acc-ppispectra}{{47}{75}}
\@writefile{lof}{\contentsline {figure}{\numberline {48}{\ignorespaces Pulse-height spectra in units of photoelectrons observed by barrel ACC for electrons and kaons. Kaon candidates were obtained by $dE/dx$ and TOF measurements. The Monte Carlo expectations are superimposed.}}{75}}
\newlabel{eps-acc-bhabha}{{48}{75}}
\citation{acc-IijimaHamamatsu1999}
\citation{acc-SudaA406}
\@writefile{lof}{\contentsline {figure}{\numberline {49}{\ignorespaces Average number of photoelectrons $<N_{pe}>$ for (a) each counter row in barrel ACC and (b) each layer in end-cap ACC.}}{76}}
\newlabel{eps-acc-photoelectron}{{49}{76}}
\@writefile{toc}{\contentsline {subsection}{\numberline {6.4}Particle Identification of Electrons and Charged Kaons, EID and KID}{77}}
\@writefile{toc}{\contentsline {subsubsection}{\numberline {6.4.1}EID and fake rate}{77}}
\@writefile{toc}{\contentsline {subsubsection}{\numberline {6.4.2}KID and pion fake rate}{77}}
\@writefile{lof}{\contentsline {figure}{\numberline {50}{\ignorespaces  The distribution of final unified discriminant to identify electrons. The solid histogram is for electrons in $e^{+}e^{-} \rightarrow e^{+}e^{-}e^{+}e^{-}$ events and the dashed one for charged pions. }}{78}}
\newlabel{fig:leid}{{50}{78}}
\@writefile{lof}{\contentsline {figure}{\numberline {51}{\ignorespaces Electron identification efficiency (circles) and fake rate for charged pions (squares). Note the different scales for the efficiency and fake rate. }}{79}}
\newlabel{fig:eff_fake}{{51}{79}}
\@writefile{lof}{\contentsline {figure}{\numberline {52}{\ignorespaces Likelihood ratio $PID(K)$, versus momenta for daughter tracks from $D^0 \rightarrow K^-\pi ^+$ decays, tagged by the charge of the slow $\pi ^+$'s. The open circles correspond to kaons and the cross points to pions.}}{80}}
\newlabel{fig:dstar_2d}{{52}{80}}
\@writefile{lof}{\contentsline {figure}{\numberline {53}{\ignorespaces  $K$ efficiency and $\pi $ fake rate, measured with $D^{\ast +} \rightarrow D^{0}(K \pi ) + \pi ^+$ decays, for the barrel region. The likelihood ratio cut $PID(K) \geq 0.6$ is applied.}}{80}}
\newlabel{fig:dstar_momdep}{{53}{80}}
\@setckpt{acctxt}{
\setcounter{page}{81}
\setcounter{equation}{2}
\setcounter{enumi}{0}
\setcounter{enumii}{0}
\setcounter{enumiii}{0}
\setcounter{enumiv}{0}
\setcounter{footnote}{12}
\setcounter{mpfootnote}{0}
\setcounter{section}{6}
\setcounter{subsection}{4}
\setcounter{subsubsection}{2}
\setcounter{paragraph}{0}
\setcounter{subparagraph}{0}
\setcounter{thm}{0}
\setcounter{alg}{0}
\setcounter{algorithm}{0}
\setcounter{note}{0}
\setcounter{summ}{0}
\setcounter{case}{0}
\setcounter{figure}{53}
\setcounter{table}{5}
\setcounter{author}{343}
\setcounter{collab}{0}
\setcounter{address}{52}
\setcounter{firstpage}{1}
\setcounter{lastpage}{0}
}
