\relax 
\citation{TDR95}
\citation{cdc-UnoA379,cdc-Hirano2000}
\@writefile{toc}{\contentsline {section}{\numberline {5}Central Tracking Chamber, CDC}{45}}
\@writefile{toc}{\contentsline {subsection}{\numberline {5.1}Design and Construction of the Central Tracking Chamber}{45}}
\@writefile{toc}{\contentsline {subsubsection}{\numberline {5.1.1}Structure and wire configuration}{45}}
\citation{cdc-UnoA330}
\citation{cdc-KadykA300}
\citation{cdc-Akatsu2000}
\@writefile{lof}{\contentsline {figure}{\numberline {22}{\ignorespaces Overview of the CDC structure. The lengths in the figure are in units of mm.}}{46}}
\newlabel{eps-cdc-overview}{{22}{46}}
\@writefile{lot}{\contentsline {table}{\numberline {4}{\ignorespaces  Configurations of the CDC sense wires and cathode strips.}}{47}}
\newlabel{CDC-1}{{4}{47}}
\citation{cdc-UnoA330,cdc-Nitoh1994}
\citation{cdc-EmiJPSJ1996}
\@writefile{lof}{\contentsline {figure}{\numberline {23}{\ignorespaces Cell structure of CDC.}}{48}}
\newlabel{eps-cdc-cell}{{23}{48}}
\@writefile{toc}{\contentsline {subsubsection}{\numberline {5.1.2}Gas}{48}}
\citation{cdc-UnoA330}
\citation{cdc-FujitaA405}
\citation{cdc-Radeka}
\@writefile{lof}{\contentsline {figure}{\numberline {24}{\ignorespaces Cell structure and the cathode sector configuration.}}{49}}
\newlabel{eps-cdc-cathode}{{24}{49}}
\@writefile{toc}{\contentsline {subsubsection}{\numberline {5.1.3}Electronics}{49}}
\@writefile{lof}{\contentsline {figure}{\numberline {25}{\ignorespaces (a) The measured gas gain and (b) drift velocity for a 50 \% He and 50 \% C$_2$H$_6$ gas mixture.}}{50}}
\newlabel{eps-cdc-gasgain}{{25}{50}}
\citation{cdc-LeCroy}
\@writefile{lof}{\contentsline {figure}{\numberline {26}{\ignorespaces CDC readout electronics scheme. T$_{L.E.}$ and T$_W$ are the leading edge and width of the pulse, respectively.}}{51}}
\newlabel{eps-cdc-electronics}{{26}{51}}
\citation{cdc-EmiJPSJ1996}
\@writefile{lof}{\contentsline {figure}{\numberline {27}{\ignorespaces Schematic circuit of the Shaper/QTC board.}}{52}}
\newlabel{eps-cdc-shaperqtc}{{27}{52}}
\citation{cdc-EmiJPSJ1996}
\citation{cdc-EmiJPSJ1996}
\@writefile{toc}{\contentsline {subsection}{\numberline {5.2}Beam Test by a Real-size Prototype Drift Chamber}{53}}
\@writefile{lof}{\contentsline {figure}{\numberline {28}{\ignorespaces (a) Measured $dE/dx$ vs. $\beta \gamma $ and (b) the same as (a),but normalized with the $dE/dx$ measured by 3.5 GeV/c protons ($\beta \gamma $ = 3.73). The solid curve is a fit to the data at an incident angle of 45$^o$, and the dashed curve is that with $\delta $ = 0.}}{54}}
\newlabel{eps-cdc-dedx}{{28}{54}}
\@writefile{lof}{\contentsline {figure}{\numberline {29}{\ignorespaces (a) $(dE/dx)_{meas}/(dE/dx)_{expect}$ vs. $(dE/dx)_{meas}/cos\theta $ (avalanche density on the sense wire) for 0.8 GeV/c protons, 0.8 GeV/c pions, 0.6 GeV/c electrons and 3.5 GeV/c pions, and (b) $(dE/dx)_{meas}/(dE/dx)_{expect}$ vs. $(dE/dx)_{meas}/cos\theta $ for 0.6, 0.7 and 1.0 GeV/c protons and 2.0 GeV/c electrons. The solid curves are the fit results. The 90$^o$ data are treated separately.}}{55}}
\newlabel{eps-cdc-dedxnorm}{{29}{55}}
\@writefile{toc}{\contentsline {subsection}{\numberline {5.3}Calibration with Cosmic Rays}{55}}
\@writefile{toc}{\contentsline {subsubsection}{\numberline {5.3.1}CDC}{55}}
\citation{Belle-TOF}
\citation{Kalman}
\@writefile{lof}{\contentsline {figure}{\numberline {30}{\ignorespaces Measured axial component of the magnetic field produced by the Belle solenoid. The nominal value of the magnetic field inside CDC is 1.5 T. The difference between the minimum and maximum values along the central axis is about 4 \%.}}{57}}
\newlabel{eps-cdc-field}{{30}{57}}
\@writefile{toc}{\contentsline {subsubsection}{\numberline {5.3.2}Cathode strip detector}{57}}
\@writefile{lof}{\contentsline {figure}{\numberline {31}{\ignorespaces Spatial resolution as a function of the drift distance.}}{58}}
\newlabel{eps-cdc-resolution}{{31}{58}}
\citation{TDR95}
\@writefile{lof}{\contentsline {figure}{\numberline {32}{\ignorespaces $p_t$ dependence of $p_t$ resolution for cosmic rays. The solid curve shows the fitted result (0.201 \% $p_t \oplus $ 0.290 \%/$\beta $) and the dotted curve (0.118 \% $p_t \oplus $ 0.195 \%) shows the ideal expectation for $\beta $ = 1 particles .}}{59}}
\newlabel{eps-cdc-ptresolution}{{32}{59}}
\@writefile{lof}{\contentsline {figure}{\numberline {33}{\ignorespaces Angular dependence of the cathode detection efficiency.}}{60}}
\newlabel{eps-cdc-cathodeeff}{{33}{60}}
\@writefile{lof}{\contentsline {figure}{\numberline {34}{\ignorespaces Angular dependence of the cathode resolution.}}{60}}
\newlabel{eps-cdc-cathoderesol}{{34}{60}}
\@writefile{lof}{\contentsline {figure}{\numberline {35}{\ignorespaces The effect of the cathode readout information on $\Delta z = z_{up} - z_{down}$ for cosmic ray tracks: (a) without and (b) with the use of the cathode information in tracking, respectively.}}{61}}
\newlabel{eps-cdc-deltaz}{{35}{61}}
\@writefile{toc}{\contentsline {subsection}{\numberline {5.4}Performance}{61}}
\citation{cdc-EmiJPSJ1996}
\@writefile{lof}{\contentsline {figure}{\numberline {36}{\ignorespaces Transverse momentum distributions for pions from $K^0_S$ decays. The solid and dashed histograms correspond to $\pi ^-$ and $\pi ^+$ tracks, respectively.}}{62}}
\newlabel{eps-cdc-ptdist}{{36}{62}}
\@writefile{lof}{\contentsline {figure}{\numberline {37}{\ignorespaces Inclusive $K^0_S \rightarrow \pi ^+\pi ^-$ mass distribution for multi hadronic events.}}{63}}
\newlabel{eps-cdc-kmass}{{37}{63}}
\@writefile{lof}{\contentsline {figure}{\numberline {38}{\ignorespaces Truncated mean of $dE/dx$ versus momentum observed in collision data.}}{64}}
\newlabel{cdc-dE/dxscatter}{{38}{64}}
\@writefile{lof}{\contentsline {figure}{\numberline {39}{\ignorespaces Distribution of $<dE/dx>/<dE/dx>_{exp}$ for pions from $K^0_S$ decays.}}{64}}
\newlabel{cdc-normalizeddEdx}{{39}{64}}
\@setckpt{cdctxt}{
\setcounter{page}{65}
\setcounter{equation}{0}
\setcounter{enumi}{0}
\setcounter{enumii}{0}
\setcounter{enumiii}{0}
\setcounter{enumiv}{0}
\setcounter{footnote}{12}
\setcounter{mpfootnote}{0}
\setcounter{section}{5}
\setcounter{subsection}{4}
\setcounter{subsubsection}{0}
\setcounter{paragraph}{0}
\setcounter{subparagraph}{0}
\setcounter{thm}{0}
\setcounter{alg}{0}
\setcounter{algorithm}{0}
\setcounter{note}{0}
\setcounter{summ}{0}
\setcounter{case}{0}
\setcounter{figure}{39}
\setcounter{table}{4}
\setcounter{author}{343}
\setcounter{collab}{0}
\setcounter{address}{52}
\setcounter{firstpage}{1}
\setcounter{lastpage}{0}
}
