\relax 
\@writefile{toc}{\contentsline {section}{\numberline {13}Offline Computing System}{187}}
\@writefile{toc}{\contentsline {subsection}{\numberline {13.1}Computing Power}{187}}
\@writefile{toc}{\contentsline {subsection}{\numberline {13.2}Tape Libraries and Servers}{187}}
\@writefile{lof}{\contentsline {figure}{\numberline {147}{\ignorespaces Block diagram of the Belle computing system.}}{188}}
\newlabel{fig_kekb-comp}{{147}{188}}
\@writefile{toc}{\contentsline {subsection}{\numberline {13.3}PC Farms}{189}}
\citation{GEANT3}
\citation{daq1-fast-tracking}
\@writefile{toc}{\contentsline {subsection}{\numberline {13.4}Offline Software}{190}}
\citation{cmp-fzisan}
\@writefile{toc}{\contentsline {subsection}{\numberline {13.5}Level 4 Offline Trigger Software}{191}}
\@writefile{lof}{\contentsline {figure}{\numberline {148}{\ignorespaces  $dr$ (top) and $dz$ (bottom) distributions. The open histograms are for track-by-track basis and the hatched histograms show $dr$ or $dz$ distributions closest to the origin in each event. }}{192}}
\newlabel{fig_dr_dz}{{148}{192}}
\@writefile{lot}{\contentsline {table}{\numberline {15}{\ignorespaces  Fraction of events which satisfy the requirements of Level\nobreakspace  {}4 in various samples of real data. }}{193}}
\newlabel{table-eff}{{15}{193}}
\@writefile{toc}{\contentsline {subsection}{\numberline {13.6}DST Production and Skimming}{193}}
\@writefile{lof}{\contentsline {figure}{\numberline {149}{\ignorespaces  Fraction of events which pass the Level\nobreakspace  {}4 requirements as a function of run number (the full range is about 6 months). The macro structure is due to changes in the accelerator parameters. }}{194}}
\newlabel{fig:rundep}{{149}{194}}
\@writefile{lof}{\contentsline {figure}{\numberline {150}{\ignorespaces History of the event processing rate together with the data acquisition rate. }}{195}}
\newlabel{cmp-process}{{150}{195}}
\@setckpt{cmptxt}{
\setcounter{page}{196}
\setcounter{equation}{21}
\setcounter{enumi}{7}
\setcounter{enumii}{0}
\setcounter{enumiii}{0}
\setcounter{enumiv}{0}
\setcounter{footnote}{12}
\setcounter{mpfootnote}{0}
\setcounter{section}{13}
\setcounter{subsection}{6}
\setcounter{subsubsection}{0}
\setcounter{paragraph}{0}
\setcounter{subparagraph}{0}
\setcounter{thm}{0}
\setcounter{alg}{0}
\setcounter{algorithm}{0}
\setcounter{note}{0}
\setcounter{summ}{0}
\setcounter{case}{0}
\setcounter{figure}{150}
\setcounter{table}{15}
\setcounter{author}{343}
\setcounter{collab}{0}
\setcounter{address}{52}
\setcounter{firstpage}{1}
\setcounter{lastpage}{0}
}
