\relax 
\@writefile{toc}{\contentsline {section}{\numberline {12}Data Acquisition}{177}}
\@writefile{toc}{\contentsline {subsection}{\numberline {12.1}Readout}{177}}
\@writefile{toc}{\contentsline {subsubsection}{\numberline {12.1.1}FASTBUS TDC readout systems}{177}}
\@writefile{lof}{\contentsline {figure}{\numberline {138}{\ignorespaces Belle DAQ system overview.}}{178}}
\newlabel{daq-overview}{{138}{178}}
\citation{daq1-svd}
\@writefile{lof}{\contentsline {figure}{\numberline {139}{\ignorespaces Concept of the Q-to-T and TDC based digitization.}}{179}}
\newlabel{daq-q-to-t}{{139}{179}}
\@writefile{toc}{\contentsline {subsubsection}{\numberline {12.1.2}SVD readout system}{179}}
\@writefile{lof}{\contentsline {figure}{\numberline {140}{\ignorespaces Schematic view of the FASTBUS TDC readout system.}}{180}}
\newlabel{daq-tdc-readout}{{140}{180}}
\@writefile{toc}{\contentsline {subsubsection}{\numberline {12.1.3}Readout sequence control}{180}}
\citation{daq1-event-builder}
\@writefile{lof}{\contentsline {figure}{\numberline {141}{\ignorespaces Schematic view of the SVD readout system with 4 readout VME crates.}}{181}}
\newlabel{daq-svd}{{141}{181}}
\@writefile{toc}{\contentsline {subsection}{\numberline {12.2}Event Builder}{181}}
\citation{daq1-FARM}
\citation{daq1-fast-tracking}
\@writefile{lof}{\contentsline {figure}{\numberline {142}{\ignorespaces The data flow and the control flow of the event builder.}}{182}}
\newlabel{daq-evb}{{142}{182}}
\@writefile{toc}{\contentsline {subsection}{\numberline {12.3}Online Computer Farm}{182}}
\@writefile{lof}{\contentsline {figure}{\numberline {143}{\ignorespaces The online computer farm, that consists of six VME crates of processors. Also shown is the data monitoring system using an external Linux-SMP PC server for data quality monitoring.}}{183}}
\newlabel{daq-farm}{{143}{183}}
\@writefile{toc}{\contentsline {subsection}{\numberline {12.4}Data Monitoring System}{183}}
\@writefile{toc}{\contentsline {subsection}{\numberline {12.5}Mass Storage System}{184}}
\@writefile{lof}{\contentsline {figure}{\numberline {144}{\ignorespaces Data storage system that transfers data from the online computer farm to the tape library system.}}{184}}
\newlabel{daq-farm-stor}{{144}{184}}
\@writefile{toc}{\contentsline {subsection}{\numberline {12.6}Run Control}{185}}
\@writefile{lof}{\contentsline {figure}{\numberline {145}{\ignorespaces Architecture of Network Shared Memory, NSM.}}{185}}
\newlabel{daq-nsm}{{145}{185}}
\@writefile{toc}{\contentsline {subsection}{\numberline {12.7}Performance}{185}}
\@writefile{lof}{\contentsline {figure}{\numberline {146}{\ignorespaces DAQ deadtime as a function of trigger rate.}}{186}}
\newlabel{daq-deadtime}{{146}{186}}
\@setckpt{daqtxt}{
\setcounter{page}{187}
\setcounter{equation}{21}
\setcounter{enumi}{7}
\setcounter{enumii}{0}
\setcounter{enumiii}{0}
\setcounter{enumiv}{0}
\setcounter{footnote}{12}
\setcounter{mpfootnote}{0}
\setcounter{section}{12}
\setcounter{subsection}{7}
\setcounter{subsubsection}{0}
\setcounter{paragraph}{0}
\setcounter{subparagraph}{0}
\setcounter{thm}{0}
\setcounter{alg}{0}
\setcounter{algorithm}{0}
\setcounter{note}{0}
\setcounter{summ}{0}
\setcounter{case}{0}
\setcounter{figure}{146}
\setcounter{table}{14}
\setcounter{author}{343}
\setcounter{collab}{0}
\setcounter{address}{52}
\setcounter{firstpage}{1}
\setcounter{lastpage}{0}
}
