\relax 
\citation{TDR95}
\@writefile{toc}{\contentsline {section}{\numberline {8}Electromagnetic Calorimetry, ECL}{97}}
\@writefile{toc}{\contentsline {subsection}{\numberline {8.1}Design and Construction of ECL}{97}}
\citation{ecl-OhshimaA380}
\@writefile{toc}{\contentsline {subsubsection}{\numberline {8.1.1}CsI($Tl$) crystal}{98}}
\@writefile{lof}{\contentsline {figure}{\numberline {69}{\ignorespaces Overall configuration of ECL.}}{99}}
\newlabel{eps-ecl-configuration}{{69}{99}}
\@writefile{lot}{\contentsline {table}{\numberline {8}{\ignorespaces Geometrical parameters of ECL.}}{99}}
\newlabel{ecl-para}{{8}{99}}
\@writefile{toc}{\contentsline {subsubsection}{\numberline {8.1.2}Mechanical assembly}{100}}
\@writefile{lof}{\contentsline {figure}{\numberline {70}{\ignorespaces Mechanical assembly of the ECL counter.}}{100}}
\newlabel{eps-ecl-counter}{{70}{100}}
\citation{ecl-TanakaNS-41}
\@writefile{toc}{\contentsline {subsubsection}{\numberline {8.1.3}Readout electronics}{101}}
\citation{ecl-TanakaNS-41}
\@writefile{lof}{\contentsline {figure}{\numberline {71}{\ignorespaces Block diagram of the ECL readout electronics.}}{102}}
\newlabel{eps-ecl-readoutelec}{{71}{102}}
\@writefile{lot}{\contentsline {table}{\numberline {9}{\ignorespaces Photodiode specifications.}}{103}}
\newlabel{ecl-diodespec}{{9}{103}}
\@writefile{toc}{\contentsline {subsubsection}{\numberline {8.1.4}Calibration by cosmic rays}{103}}
\citation{ecl-KazuiA394}
\@writefile{toc}{\contentsline {subsubsection}{\numberline {8.1.5}Radiation hardness}{104}}
\@writefile{lof}{\contentsline {figure}{\numberline {72}{\ignorespaces Time dependence of the light output for uniform irradiation (PMT readout).}}{105}}
\newlabel{eps-ecl-irr-time}{{72}{105}}
\@writefile{lof}{\contentsline {figure}{\numberline {73}{\ignorespaces Light output as a function of radiation dose for front-face irradiation. The upper and lower figures are the data with the PMT readout and the PD readout, respectively. The light output values are normalized to those before irradiation. The thick line represents the requirement for the radiation hardness of ECL. All crystals, except for SIC-prototypes, satisfy the requirement.}}{106}}
\newlabel{eps-ecl-radhardtest}{{73}{106}}
\citation{ecl-AulchenkoA379,ecl-AhnA410,ecl-IkedaA441}
\@writefile{lof}{\contentsline {figure}{\numberline {74}{\ignorespaces Light output of new SIC crystals versus radiation dose (front-face irradiation).}}{107}}
\newlabel{eps-ecl-newsic}{{74}{107}}
\citation{ecl-OhshimaA380}
\@writefile{lof}{\contentsline {figure}{\numberline {75}{\ignorespaces Spectra of the transmittance across a thickness of 5.5 cm and of excitation and emission at a surface of each crystal after 0, 10, 100 and 1000 rad irradiation for SIC prototype and NOV. The transmittance data were corrected for the reflection loss at the surfaces. Clear absorption bands are observed on the transmittance curve for the SIC prototype. The spectra of excitation and emission were corrected for wavelength dependence of the quantum efficiencies of PMT.}}{108}}
\newlabel{eps-ecl-transmittance}{{75}{108}}
\@writefile{toc}{\contentsline {subsection}{\numberline {8.2}Beam Tests}{108}}
\@writefile{toc}{\contentsline {subsubsection}{\numberline {8.2.1}$\pi $2 beam}{108}}
\citation{CLEOII}
\citation{Crystal-Barrel}
\@writefile{lof}{\contentsline {figure}{\numberline {76}{\ignorespaces Top view of two matrix configurations: (a) normal array and (b) staggered array.}}{109}}
\newlabel{eps-ecl-matrix}{{76}{109}}
\@writefile{lof}{\contentsline {figure}{\numberline {77}{\ignorespaces Energy resolution as a function of beam energy. Results from a GEANT simulation are shown by the dashed curve (9 blocks) and the solid curve (25 blocks). Also plotted are the results of CLEO II (9 blocks) and Crystal Barrel. The dotted curve shows the contribution from electronics noise for 25 blocks.}}{110}}
\newlabel{eps-ecl-eresolution}{{77}{110}}
\@writefile{toc}{\contentsline {subsubsection}{\numberline {8.2.2}Photon beams at the ROKK-1M facility}{110}}
\@writefile{lof}{\contentsline {figure}{\numberline {78}{\ignorespaces Distribution of the energy deposit by electrons (red histogram), by positive pions (green histogram) and by negative pions (blue histogram) at 1 GeV/c.}}{111}}
\newlabel{eps-ecl-hadron}{{78}{111}}
\@writefile{lof}{\contentsline {figure}{\numberline {79}{\ignorespaces Probability to misidentify a pion as an electron (a) for the normal array and (b) for the staggered array.}}{112}}
\newlabel{eps-ecl-misid}{{79}{112}}
\@writefile{lof}{\contentsline {figure}{\numberline {80}{\ignorespaces Layout of the VEPP-4M experimental region with the KEDR tagging system. $Q_1$ and $Q_2$ are quadrupoles, and $M_1$ and $M_2$ are bending magnets.}}{113}}
\newlabel{eps-ecl-vepp4m}{{80}{113}}
\@writefile{lof}{\contentsline {figure}{\numberline {81}{\ignorespaces Experimental layout. CsI(Tl) crystals are represented by 1, drift-tube hodoscopes by 2, plastic scintillation counters for cosmic trigger by 3, a lead collimator by 4, a veto counter by 5, and a movable platform for the position adjustment by 6.}}{113}}
\newlabel{eps-ecl-experstand}{{81}{113}}
\@writefile{lof}{\contentsline {figure}{\numberline {82}{\ignorespaces Schematic diagram of the beam test experiment.}}{114}}
\newlabel{eps-ecl-expdiagram}{{82}{114}}
\@writefile{lof}{\contentsline {figure}{\numberline {83}{\ignorespaces Longitudinal non-uniformity of light collection of the crystal.}}{115}}
\newlabel{eps-ecl-light-xdist}{{83}{115}}
\newlabel{eq:ecl1}{{11}{115}}
\citation{ecl-IkedaA441}
\@writefile{lof}{\contentsline {figure}{\numberline {84}{\ignorespaces Typical Compton-edge distributions at (a) 109.8 MeV and (b) 508.3 MeV. The solid curves are the fitted results.}}{117}}
\newlabel{eps-ecl-compton}{{84}{117}}
\@writefile{lof}{\contentsline {figure}{\numberline {85}{\ignorespaces (a) Typical bremsstrahlung energy distribution for a 4036 MeV electron beam and (b) an expanded view of the edge region with the fitted curve.}}{117}}
\newlabel{eps-ecl-bremsstrahlung}{{85}{117}}
\@writefile{lof}{\contentsline {figure}{\numberline {86}{\ignorespaces Energy resolution as a function of incident photon energy for the (a) 3 $\times $ 3 and (b) 5 $\times $ 5 matrices with the total energy sum, and for the (c) 3 $\times $ 3 and (d) 5 $\times $ 5 matrices with a 0.5 MeV threshold. The error bars are the rms values of four measurements taken with the crystals (3, 3), (3, 4), (4, 3) and (4,4) into the photon beam.}}{119}}
\newlabel{eps-ecl-energyresol}{{86}{119}}
\@writefile{lof}{\contentsline {figure}{\numberline {87}{\ignorespaces Energy threshold dependence of the energy resolution at various photon energies.}}{120}}
\newlabel{eps-ecl-threshold}{{87}{120}}
\@writefile{lof}{\contentsline {figure}{\numberline {88}{\ignorespaces (a) The incident photon energy versus the measured energy in CsI from data, and (b) the energy linearity obtained from the data.}}{121}}
\newlabel{eps-ecl-linearity}{{88}{121}}
\newlabel{ecl-fit}{{20}{121}}
\citation{ecl-OhshimaA380}
\citation{ecl-Cheon99}
\@writefile{lof}{\contentsline {figure}{\numberline {89}{\ignorespaces Position dependence of the energy deposit. The solid triangles and circles are the results obtained by a GEANT Monte Carlo simulation.}}{122}}
\newlabel{eps-ecl-edeposit}{{89}{122}}
\@writefile{toc}{\contentsline {subsection}{\numberline {8.3}Performance}{122}}
\@writefile{lof}{\contentsline {figure}{\numberline {90}{\ignorespaces Position dependence of the energy resolution. The open triangles and circles are the results obtained by a GEANT Monte Carlo simulation.}}{123}}
\newlabel{eps-ecl-posdeperesol}{{90}{123}}
\@writefile{lof}{\contentsline {figure}{\numberline {91}{\ignorespaces Scatter plots of $X_{beam}$ and $X_{cg}$ (a) before and (b) after a correction. The gap between the crystals is shown by the thick vertical lines. The solid curve in (a) is the fit to an empirical formula.}}{124}}
\newlabel{eps-ecl-xbeam}{{91}{124}}
\@writefile{lof}{\contentsline {figure}{\numberline {92}{\ignorespaces Position dependence of the spatial resolution for 470 MeV photons.}}{125}}
\newlabel{eps-ecl-spresol}{{92}{125}}
\@writefile{lof}{\contentsline {figure}{\numberline {93}{\ignorespaces Energy dependence of the average position resolution. The solid curve is a fit to Eq. \G@refundefinedtrue {\unhbox \voidb@x \hbox {\normalfont  \bfseries  ??}}\GenericWarning  {               }{LaTeX Warning: Reference `ecl-fit' on page 125 undefined}.}}{125}}
\newlabel{eps-ecl-avposreol}{{93}{125}}
\@writefile{lof}{\contentsline {figure}{\numberline {94}{\ignorespaces Energy resolutions measured from Bhabha event samples : overall, barrel, forward end-cap and backward end-cap.}}{126}}
\newlabel{gg_rest4.eps}{{94}{126}}
\@writefile{lof}{\contentsline {figure}{\numberline {95}{\ignorespaces Two photon invariant mass distribution for hadronic events (a) in $\pi ^0 \rightarrow \gamma \gamma $ and (b) in $\eta \rightarrow \gamma \gamma $ where each photon energy was required to be greater than 30 MeV in the barrel region.}}{127}}
\newlabel{eps-ecl-invmass}{{95}{127}}
\@writefile{lof}{\contentsline {figure}{\numberline {96}{\ignorespaces Radiation dose at barrel ECL (upper) and end-cap ECL (lower) as a function of time.}}{128}}
\newlabel{ecl-raddose}{{96}{128}}
\@writefile{lof}{\contentsline {figure}{\numberline {97}{\ignorespaces Degradation of the light output of the ECL counters as a function of $\theta $-id.}}{128}}
\newlabel{ecl-radtheta}{{97}{128}}
\@setckpt{ecltxt}{
\setcounter{page}{129}
\setcounter{equation}{21}
\setcounter{enumi}{0}
\setcounter{enumii}{0}
\setcounter{enumiii}{0}
\setcounter{enumiv}{0}
\setcounter{footnote}{12}
\setcounter{mpfootnote}{0}
\setcounter{section}{8}
\setcounter{subsection}{3}
\setcounter{subsubsection}{0}
\setcounter{paragraph}{0}
\setcounter{subparagraph}{0}
\setcounter{thm}{0}
\setcounter{alg}{0}
\setcounter{algorithm}{0}
\setcounter{note}{0}
\setcounter{summ}{0}
\setcounter{case}{0}
\setcounter{figure}{97}
\setcounter{table}{9}
\setcounter{author}{343}
\setcounter{collab}{0}
\setcounter{address}{52}
\setcounter{firstpage}{1}
\setcounter{lastpage}{0}
}
