\relax 
\citation{TDR95}
\citation{Progress97,efc-Ueno}
\citation{efc-WangBN164}
\citation{efc-UenoA396}
\@writefile{toc}{\contentsline {section}{\numberline {3}Extreme Forward Calorimeter, EFC}{16}}
\@writefile{toc}{\contentsline {subsection}{\numberline {3.1}Design and Construction}{16}}
\@writefile{toc}{\contentsline {subsubsection}{\numberline {3.1.1}BGO and radiation hardness}{16}}
\citation{efc-SahuA388}
\citation{efc-PengA427}
\citation{efc-lowdose}
\citation{efc-survey}
\citation{efc-PengA384}
\citation{efc-HuangA385}
\citation{Goretex}
\citation{efc-Ueno}
\@writefile{toc}{\contentsline {subsubsection}{\numberline {3.1.2}Mechanical structure}{18}}
\@writefile{toc}{\contentsline {subsubsection}{\numberline {3.1.3}Light collection}{18}}
\@writefile{toc}{\contentsline {subsection}{\numberline {3.2}Electronics}{19}}
\@writefile{toc}{\contentsline {subsubsection}{\numberline {3.2.1}Front-end amplifier}{19}}
\citation{efc-beamtest}
\@writefile{toc}{\contentsline {subsubsection}{\numberline {3.2.2}Rear-end receiver and digitizer}{20}}
\@writefile{toc}{\contentsline {subsection}{\numberline {3.3}Performance}{20}}
\@writefile{lof}{\contentsline {figure}{\numberline {5}{\ignorespaces Top view of the experimental setup in the radiation source room. BGO crysals were 3 cm away from the center of a $^{60}$Co source of $\sim $ 1000 C.}}{21}}
\newlabel{eps-efc-setup}{{5}{21}}
\@writefile{lof}{\contentsline {figure}{\numberline {6}{\ignorespaces Results of the first week irradiation. The horizontal scale is in equivalent doses and the vertical scale is the light yield normalized to the original value without irradiation: (a) and (b) correspond to the crystals irradiated longitudinally, and (c) and (d) to those irradiated transversely.}}{22}}
\newlabel{eps-efc-raddata}{{6}{22}}
\@writefile{lof}{\contentsline {figure}{\numberline {7}{\ignorespaces BGO test crystal 1 received a dose of 115 krad in one hour at its front surface. The time dependence of the relative output is shown before and after the irradiation.}}{23}}
\newlabel{eps-efc-radtime}{{7}{23}}
\@writefile{lof}{\contentsline {figure}{\numberline {8}{\ignorespaces An isometric view of the BGO crystals of the forward and backward EFC detectors.}}{24}}
\newlabel{eps-efc-structure}{{8}{24}}
\@writefile{lof}{\contentsline {figure}{\numberline {9}{\ignorespaces Side view of the mounting of forward EFC.}}{25}}
\newlabel{eps-efc-sideview}{{9}{25}}
\@writefile{lof}{\contentsline {figure}{\numberline {10}{\ignorespaces Block diagram of EFC readout electronics.}}{26}}
\newlabel{eps-efc-elect}{{10}{26}}
\@writefile{lof}{\contentsline {figure}{\numberline {11}{\ignorespaces Schematic diagram of the preamplifier-shaper circuit.}}{27}}
\newlabel{efc-ecl-circuit}{{11}{27}}
\@writefile{lof}{\contentsline {figure}{\numberline {12}{\ignorespaces An operational history of a typical beam fill of KEKB. The top figures show e$^+$ and e$^-$ beam current, and the bottom figures the coincidence rate of the forward and backward detectors (left) and their accidental rates (right) of EFC.}}{28}}
\newlabel{eps-efc-operation}{{12}{28}}
\@setckpt{efctxt}{
\setcounter{page}{29}
\setcounter{equation}{0}
\setcounter{enumi}{0}
\setcounter{enumii}{0}
\setcounter{enumiii}{0}
\setcounter{enumiv}{0}
\setcounter{footnote}{10}
\setcounter{mpfootnote}{0}
\setcounter{section}{3}
\setcounter{subsection}{3}
\setcounter{subsubsection}{0}
\setcounter{paragraph}{0}
\setcounter{subparagraph}{0}
\setcounter{thm}{0}
\setcounter{alg}{0}
\setcounter{algorithm}{0}
\setcounter{note}{0}
\setcounter{summ}{0}
\setcounter{case}{0}
\setcounter{figure}{12}
\setcounter{table}{1}
\setcounter{author}{343}
\setcounter{collab}{0}
\setcounter{address}{52}
\setcounter{firstpage}{1}
\setcounter{lastpage}{0}
}
