\relax 
\newlabel{aomori}{{a}{3}}
\newlabel{binp}{{b}{3}}
\newlabel{chiba}{{c}{3}}
\newlabel{cas}{{d}{3}}
\newlabel{chuo}{{e}{4}}
\newlabel{cinc}{{f}{4}}
\newlabel{frank}{{g}{4}}
\newlabel{gyeon}{{h}{4}}
\newlabel{hawaii}{{i}{4}}
\newlabel{hirosh}{{j}{4}}
\newlabel{ihep}{{k}{4}}
\newlabel{icrr}{{\ell }{4}}
\newlabel{isc}{{m}{4}}
\newlabel{itep}{{n}{4}}
\newlabel{kana}{{o}{4}}
\newlabel{kek}{{p}{4}}
\newlabel{korea}{{q}{4}}
\newlabel{krak}{{r}{4}}
\newlabel{kyoto}{{s}{4}}
\newlabel{melb}{{t}{4}}
\newlabel{nagasaki}{{u}{4}}
\newlabel{nagoya}{{v}{4}}
\newlabel{nara}{{w}{4}}
\newlabel{ncentral}{{x}{4}}
\newlabel{nkaoh}{{y}{4}}
\newlabel{nlit}{{z}{4}}
\newlabel{ntaiwan}{{aa}{4}}
\newlabel{nihond}{{ab}{4}}
\newlabel{niigata}{{ac}{4}}
\newlabel{osaka}{{ad}{4}}
\newlabel{osakac}{{ae}{4}}
\newlabel{panjab}{{af}{4}}
\newlabel{prince}{{ag}{4}}
\newlabel{saga}{{ah}{4}}
\newlabel{ustc}{{ai}{4}}
\newlabel{seoul}{{aj}{4}}
\newlabel{scienceu}{{ak}{4}}
\newlabel{sugiyama}{{a\ell }{4}}
\newlabel{sungk}{{am}{5}}
\newlabel{sydney}{{an}{5}}
\newlabel{toho}{{ao}{5}}
\newlabel{tohoku}{{ap}{5}}
\newlabel{tohokug}{{aq}{5}}
\newlabel{tokyo}{{ar}{5}}
\newlabel{tit}{{as}{5}}
\newlabel{tokyom}{{at}{5}}
\newlabel{tuat}{{au}{5}}
\newlabel{toyama}{{av}{5}}
\newlabel{tsukuba}{{aw}{5}}
\newlabel{utkal}{{ay}{5}}
\newlabel{vpi}{{az}{5}}
\newlabel{yonsei}{{ba}{5}}
\newlabel{1}{{1 }{5}}
\newlabel{2}{{2 }{5}}
\newlabel{3}{{3 }{5}}
\newlabel{4}{{4 }{5}}
\newlabel{5}{{5 }{5}}
\newlabel{6}{{6 }{5}}
\newlabel{7}{{7 }{5}}
\newlabel{8}{{8 }{5}}
\newlabel{9}{{9 }{5}}
\newlabel{10}{{10 }{5}}
\@setckpt{fronttxt}{
\setcounter{page}{8}
\setcounter{equation}{0}
\setcounter{enumi}{0}
\setcounter{enumii}{0}
\setcounter{enumiii}{0}
\setcounter{enumiv}{0}
\setcounter{footnote}{10}
\setcounter{mpfootnote}{0}
\setcounter{section}{0}
\setcounter{subsection}{0}
\setcounter{subsubsection}{0}
\setcounter{paragraph}{0}
\setcounter{subparagraph}{0}
\setcounter{thm}{0}
\setcounter{alg}{0}
\setcounter{algorithm}{0}
\setcounter{note}{0}
\setcounter{summ}{0}
\setcounter{case}{0}
\setcounter{figure}{0}
\setcounter{table}{0}
\setcounter{author}{343}
\setcounter{collab}{0}
\setcounter{address}{52}
\setcounter{firstpage}{1}
\setcounter{lastpage}{0}
}
