\relax 
\citation{KM}
\citation{KEK90_92_93}
\citation{loi}
\citation{TDR95}
\citation{KEKB}
\@writefile{toc}{\contentsline {section}{\numberline {1}Introduction}{8}}
\@writefile{lot}{\contentsline {table}{\numberline {1}{\ignorespaces Performance parameters expected (or achieved) for the Belle detector.}}{9}}
\newlabel{int-performance}{{1}{9}}
\@writefile{lof}{\contentsline {figure}{\numberline {1}{\ignorespaces Side view of the Belle detector.}}{10}}
\newlabel{int-sideview}{{1}{10}}
\@setckpt{inttxt}{
\setcounter{page}{11}
\setcounter{equation}{0}
\setcounter{enumi}{0}
\setcounter{enumii}{0}
\setcounter{enumiii}{0}
\setcounter{enumiv}{0}
\setcounter{footnote}{10}
\setcounter{mpfootnote}{0}
\setcounter{section}{1}
\setcounter{subsection}{0}
\setcounter{subsubsection}{0}
\setcounter{paragraph}{0}
\setcounter{subparagraph}{0}
\setcounter{thm}{0}
\setcounter{alg}{0}
\setcounter{algorithm}{0}
\setcounter{note}{0}
\setcounter{summ}{0}
\setcounter{case}{0}
\setcounter{figure}{1}
\setcounter{table}{1}
\setcounter{author}{343}
\setcounter{collab}{0}
\setcounter{address}{52}
\setcounter{firstpage}{1}
\setcounter{lastpage}{0}
}
