\relax 
\citation{TDR95}
\citation{KEKB}
\@writefile{toc}{\contentsline {section}{\numberline {2}Interaction Region}{11}}
\@writefile{toc}{\contentsline {subsection}{\numberline {2.1}Beam Crossing Angle}{11}}
\@writefile{lof}{\contentsline {figure}{\numberline {2}{\ignorespaces Layout of the interaction region for the beam crossing angle of $\pm $ 11 mr.}}{11}}
\newlabel{eps-ir-layout}{{2}{11}}
\citation{KEKB}
\@writefile{toc}{\contentsline {subsection}{\numberline {2.2}Beam-line Magnets near the Interaction Point}{12}}
\@writefile{toc}{\contentsline {subsection}{\numberline {2.3}Beam Pipe}{12}}
\@writefile{lof}{\contentsline {figure}{\numberline {3}{\ignorespaces The cross section of the beryllium beam pipe at the interaction point.}}{13}}
\newlabel{eps-Be-beampipe}{{3}{13}}
\@writefile{lof}{\contentsline {figure}{\numberline {4}{\ignorespaces The arrangement of the beam pipe and horizontal masks.}}{14}}
\newlabel{eps-ir-mask}{{4}{14}}
\@writefile{toc}{\contentsline {subsection}{\numberline {2.4}Beam Background}{14}}
\@setckpt{irtxt}{
\setcounter{page}{16}
\setcounter{equation}{0}
\setcounter{enumi}{0}
\setcounter{enumii}{0}
\setcounter{enumiii}{0}
\setcounter{enumiv}{0}
\setcounter{footnote}{10}
\setcounter{mpfootnote}{0}
\setcounter{section}{2}
\setcounter{subsection}{4}
\setcounter{subsubsection}{0}
\setcounter{paragraph}{0}
\setcounter{subparagraph}{0}
\setcounter{thm}{0}
\setcounter{alg}{0}
\setcounter{algorithm}{0}
\setcounter{note}{0}
\setcounter{summ}{0}
\setcounter{case}{0}
\setcounter{figure}{4}
\setcounter{table}{1}
\setcounter{author}{343}
\setcounter{collab}{0}
\setcounter{address}{52}
\setcounter{firstpage}{1}
\setcounter{lastpage}{0}
}
