\relax 
\citation{TDR95,klm-NIM}
\citation{klm-Cardarelli,klm-Pestov,klm-Santonico,klm-Romano,klm-Gorini}
\citation{klm-Parkhomchuck}
\@writefile{toc}{\contentsline {section}{\numberline {9}$K_L$ and Muon Detection System, KLM}{129}}
\@writefile{toc}{\contentsline {subsection}{\numberline {9.1}Design and Construction}{129}}
\@writefile{toc}{\contentsline {subsubsection}{\numberline {9.1.1}Glass Resistive Plate Counters}{129}}
\@writefile{toc}{\contentsline {subsubsection}{\numberline {9.1.2}Barrel modules}{130}}
\@writefile{lof}{\contentsline {figure}{\numberline {98}{\ignorespaces Schematic diagram of the internal spacer arrangement for barrel RPC.}}{130}}
\newlabel{eps-klm-spacer}{{98}{130}}
\@writefile{lof}{\contentsline {figure}{\numberline {99}{\ignorespaces Cross section of the internal spacer and edge in KLM.}}{131}}
\newlabel{eps-klm-spaceredge}{{99}{131}}
\@writefile{lof}{\contentsline {figure}{\numberline {100}{\ignorespaces Cross section of a KLM super-layer.}}{132}}
\newlabel{eps-klm-superlayer}{{100}{132}}
\@writefile{toc}{\contentsline {subsubsection}{\numberline {9.1.3}End-cap modules}{133}}
\@writefile{toc}{\contentsline {subsubsection}{\numberline {9.1.4}High voltage system}{133}}
\citation{klm-Yamaguchi}
\@writefile{lof}{\contentsline {figure}{\numberline {101}{\ignorespaces Schematic diagram of the internal spacer arrangement of the end-cap RPC.}}{134}}
\newlabel{eps-klm-endspacer}{{101}{134}}
\@writefile{toc}{\contentsline {subsubsection}{\numberline {9.1.5}Gas mixing and distribution}{134}}
\@writefile{lof}{\contentsline {figure}{\numberline {102}{\ignorespaces Cut-away view of an end-cap super-layer module of KLM.}}{135}}
\newlabel{eps-klm-endcut}{{102}{135}}
\@writefile{lot}{\contentsline {table}{\numberline {10}{\ignorespaces Physical parameters of the gases used in KLM.}}{135}}
\newlabel{klm-gas}{{10}{135}}
\@writefile{lof}{\contentsline {figure}{\numberline {103}{\ignorespaces KLM gas mixing system.}}{136}}
\newlabel{eps-klm-gasmixing}{{103}{136}}
\@writefile{toc}{\contentsline {subsection}{\numberline {9.2}Readout Electronics}{137}}
\citation{klm-Morgan}
\@writefile{lof}{\contentsline {figure}{\numberline {104}{\ignorespaces Schematic diagram of the KLM readout electronics.}}{138}}
\newlabel{eps-klm-readout}{{104}{138}}
\@writefile{toc}{\contentsline {subsection}{\numberline {9.3}Efficiency and resolution}{138}}
\@writefile{lof}{\contentsline {figure}{\numberline {105}{\ignorespaces Efficiency plateau curves for RPCs alone and in combination in a typical super-layer of KLM.}}{139}}
\newlabel{eps-klm-plateau}{{105}{139}}
\@writefile{lof}{\contentsline {figure}{\numberline {106}{\ignorespaces Spatial resolution of a super-layer of KLM}}{140}}
\newlabel{eps-klm-spresol}{{106}{140}}
\@writefile{toc}{\contentsline {subsection}{\numberline {9.4}Performance}{140}}
\@writefile{toc}{\contentsline {subsubsection}{\numberline {9.4.1}$K_L$ detection}{141}}
\@writefile{toc}{\contentsline {subsubsection}{\numberline {9.4.2}Muon detection}{141}}
\@writefile{lof}{\contentsline {figure}{\numberline {107}{\ignorespaces Difference between the neutral cluster and the direction of missing momentum in KLM.}}{142}}
\newlabel{eps-klm-neutral}{{107}{142}}
\@writefile{lof}{\contentsline {figure}{\numberline {108}{\ignorespaces Number of neutral clusters per event in KLM.}}{142}}
\newlabel{eps-klm-noneutral}{{108}{142}}
\@writefile{lof}{\contentsline {figure}{\numberline {109}{\ignorespaces Muon detection efficiency versus momentum in KLM.}}{143}}
\newlabel{eps-klm-muoneff}{{109}{143}}
\@writefile{lof}{\contentsline {figure}{\numberline {110}{\ignorespaces Fake rate versus momentum in KLM.}}{143}}
\newlabel{eps-klm-fake}{{110}{143}}
\@setckpt{klmtxt}{
\setcounter{page}{144}
\setcounter{equation}{21}
\setcounter{enumi}{0}
\setcounter{enumii}{0}
\setcounter{enumiii}{0}
\setcounter{enumiv}{0}
\setcounter{footnote}{12}
\setcounter{mpfootnote}{0}
\setcounter{section}{9}
\setcounter{subsection}{4}
\setcounter{subsubsection}{2}
\setcounter{paragraph}{0}
\setcounter{subparagraph}{0}
\setcounter{thm}{0}
\setcounter{alg}{0}
\setcounter{algorithm}{0}
\setcounter{note}{0}
\setcounter{summ}{0}
\setcounter{case}{0}
\setcounter{figure}{110}
\setcounter{table}{10}
\setcounter{author}{343}
\setcounter{collab}{0}
\setcounter{address}{52}
\setcounter{firstpage}{1}
\setcounter{lastpage}{0}
}
