\relax 
\citation{solenoid,TDR95,Progress97}
\citation{TDR95,Progress97}
\citation{field_mapping}
\citation{qcs_complex}
\citation{usm-drive}
\@writefile{toc}{\contentsline {section}{\numberline {10}Detector Solenoid and Iron Structure}{144}}
\@writefile{toc}{\contentsline {subsection}{\numberline {10.1}Solenoid Magnet}{144}}
\@writefile{toc}{\contentsline {subsection}{\numberline {10.2}Iron Yoke}{144}}
\@writefile{toc}{\contentsline {subsection}{\numberline {10.3}Magnetic Field Mapping of the Belle Solenoid}{144}}
\citation{hall_probe}
\citation{nmr_probe}
\@writefile{lot}{\contentsline {table}{\numberline {11}{\ignorespaces Main parameters of the solenoid coil.}}{145}}
\newlabel{solenoid}{{11}{145}}
\@writefile{lof}{\contentsline {figure}{\numberline {111}{\ignorespaces An outlook of the solenoid and the cross sectional view of the coil.}}{146}}
\newlabel{coil-config}{{111}{146}}
\@writefile{lof}{\contentsline {figure}{\numberline {112}{\ignorespaces Barrel part of the iron yoke.}}{147}}
\newlabel{barrel-yoke}{{112}{147}}
\@writefile{lof}{\contentsline {figure}{\numberline {113}{\ignorespaces Side and end views of the field mapping device. Some of the rods connecting both end plates are not shown.}}{147}}
\newlabel{mgf_end_side}{{113}{147}}
\@writefile{lof}{\contentsline {figure}{\numberline {114}{\ignorespaces Conceptual illustration of the field mapping device.}}{148}}
\newlabel{conceptual}{{114}{148}}
\@writefile{lof}{\contentsline {figure}{\numberline {115}{\ignorespaces Contour plot of magnetic fields measured in the Belle coordinate system with the origin at the interaction point.}}{148}}
\newlabel{field_contour}{{115}{148}}
\@writefile{lof}{\contentsline {figure}{\numberline {116}{\ignorespaces Field strength as a function of $z$ for $r$ = 0, 50, and 80 cm.}}{149}}
\newlabel{bzbr}{{116}{149}}
\@setckpt{magtxt}{
\setcounter{page}{150}
\setcounter{equation}{21}
\setcounter{enumi}{0}
\setcounter{enumii}{0}
\setcounter{enumiii}{0}
\setcounter{enumiv}{0}
\setcounter{footnote}{12}
\setcounter{mpfootnote}{0}
\setcounter{section}{10}
\setcounter{subsection}{3}
\setcounter{subsubsection}{0}
\setcounter{paragraph}{0}
\setcounter{subparagraph}{0}
\setcounter{thm}{0}
\setcounter{alg}{0}
\setcounter{algorithm}{0}
\setcounter{note}{0}
\setcounter{summ}{0}
\setcounter{case}{0}
\setcounter{figure}{116}
\setcounter{table}{11}
\setcounter{author}{343}
\setcounter{collab}{0}
\setcounter{address}{52}
\setcounter{firstpage}{1}
\setcounter{lastpage}{0}
}
