\relax 
\bibcite{KM}{1}
\bibcite{KEK90_92_93}{2}
\bibcite{loi}{3}
\bibcite{TDR95}{4}
\bibcite{KEKB}{5}
\bibcite{Progress97}{6}
\bibcite{efc-Ueno}{7}
\bibcite{efc-WangBN164}{8}
\bibcite{efc-UenoA396}{9}
\bibcite{efc-SahuA388}{10}
\bibcite{efc-PengA427}{11}
\bibcite{efc-lowdose}{12}
\bibcite{efc-survey}{13}
\bibcite{efc-PengA384}{14}
\bibcite{efc-HuangA385}{15}
\bibcite{Goretex}{16}
\bibcite{efc-beamtest}{17}
\@writefile{toc}{\vspace {6pt}}
\@writefile{toc}{\contentsline {section}{Acknowledgements}{196}}
\@writefile{toc}{\contentsline {section}{References}{196}}
\bibcite{svd-va1}{18}
\bibcite{svd-DELPHI}{19}
\bibcite{Omnetics}{20}
\bibcite{svd-TanakaA432}{21}
\bibcite{TsujitaPHD}{22}
\bibcite{SIROCCO}{23}
\bibcite{svd-IOTECH}{24}
\bibcite{svd-MINCO}{25}
\bibcite{svd-HPK}{26}
\bibcite{svd-Radfet}{27}
\bibcite{svd-Alimonti2000}{28}
\bibcite{IEEE2000SVD}{29}
\bibcite{cdc-UnoA379}{30}
\bibcite{cdc-Hirano2000}{31}
\bibcite{cdc-UnoA330}{32}
\bibcite{cdc-KadykA300}{33}
\bibcite{cdc-Akatsu2000}{34}
\bibcite{cdc-Nitoh1994}{35}
\bibcite{cdc-EmiJPSJ1996}{36}
\bibcite{cdc-FujitaA405}{37}
\bibcite{cdc-Radeka}{38}
\bibcite{cdc-LeCroy}{39}
\bibcite{Belle-TOF}{40}
\bibcite{Kalman}{41}
\bibcite{acc-IijimaA379}{42}
\bibcite{acc-SumiyoshiA433}{43}
\bibcite{acc-IijimaA387}{44}
\bibcite{acc-AdachiA355}{45}
\bibcite{acc-Yokoyama}{46}
\bibcite{acc-Sumiyoshi225}{47}
\bibcite{acc-SahuA382}{48}
\bibcite{acc-HPK}{49}
\bibcite{acc-EnomotoA332}{50}
\bibcite{acc-KhanA413}{51}
\bibcite{acc-SudaA406}{52}
\bibcite{acc-IijimaHamamatsu1999}{53}
\bibcite{tof-KichimiA325}{54}
\bibcite{tof-KichimiBN138}{55}
\bibcite{tof-YamaguchiBN133}{56}
\bibcite{tof-KichimiBN223}{57}
\bibcite{tof-KichimiHamamatsu99}{58}
\bibcite{ecl-OhshimaA380}{59}
\bibcite{ecl-TanakaNS-41}{60}
\bibcite{ecl-KazuiA394}{61}
\bibcite{ecl-AulchenkoA379}{62}
\bibcite{ecl-AhnA410}{63}
\bibcite{ecl-IkedaA441}{64}
\bibcite{CLEOII}{65}
\bibcite{Crystal-Barrel}{66}
\bibcite{ecl-Cheon99}{67}
\bibcite{klm-NIM}{68}
\bibcite{klm-Cardarelli}{69}
\bibcite{klm-Pestov}{70}
\bibcite{klm-Santonico}{71}
\bibcite{klm-Romano}{72}
\bibcite{klm-Gorini}{73}
\bibcite{klm-Parkhomchuck}{74}
\bibcite{klm-Morgan}{75}
\bibcite{klm-Yamaguchi}{76}
\bibcite{solenoid}{77}
\bibcite{field_mapping}{78}
\bibcite{qcs_complex}{79}
\bibcite{usm-drive}{80}
\bibcite{hall_probe}{81}
\bibcite{nmr_probe}{82}
\bibcite{trg-UshirodaA438}{83}
\bibcite{Xilinx}{84}
\bibcite{cdc-trgTomoto99}{85}
\bibcite{daq1-svd}{86}
\bibcite{daq1-event-builder}{87}
\bibcite{daq1-FARM}{88}
\bibcite{daq1-fast-tracking}{89}
\bibcite{GEANT3}{90}
\bibcite{cmp-fzisan}{91}
\@setckpt{reftxt_ack}{
\setcounter{page}{201}
\setcounter{equation}{21}
\setcounter{enumi}{7}
\setcounter{enumii}{0}
\setcounter{enumiii}{0}
\setcounter{enumiv}{91}
\setcounter{footnote}{12}
\setcounter{mpfootnote}{0}
\setcounter{section}{13}
\setcounter{subsection}{6}
\setcounter{subsubsection}{0}
\setcounter{paragraph}{0}
\setcounter{subparagraph}{0}
\setcounter{thm}{0}
\setcounter{alg}{0}
\setcounter{algorithm}{0}
\setcounter{note}{0}
\setcounter{summ}{0}
\setcounter{case}{0}
\setcounter{figure}{150}
\setcounter{table}{15}
\setcounter{author}{343}
\setcounter{collab}{0}
\setcounter{address}{52}
\setcounter{firstpage}{1}
\setcounter{lastpage}{0}
}
