\relax 
\citation{svd-va1}
\@writefile{toc}{\contentsline {section}{\numberline {4}Silicon Vertex Detector, SVD}{29}}
\@writefile{toc}{\contentsline {subsection}{\numberline {4.1}General Characteristics}{29}}
\citation{svd-DELPHI}
\@writefile{lof}{\contentsline {figure}{\numberline {13}{\ignorespaces Detector configuration of SVD.}}{30}}
\newlabel{eps-svd-config}{{13}{30}}
\@writefile{toc}{\contentsline {subsection}{\numberline {4.2}Double-sided Silicon Detector, DSSD}{30}}
\@writefile{toc}{\contentsline {subsection}{\numberline {4.3}Mechanical Structure}{31}}
\@writefile{lof}{\contentsline {figure}{\numberline {14}{\ignorespaces Overview of the SVD supporting system.}}{31}}
\newlabel{eps-svd-support}{{14}{31}}
\@writefile{toc}{\contentsline {subsubsection}{\numberline {4.3.1}Ladder}{31}}
\@writefile{toc}{\contentsline {subsubsection}{\numberline {4.3.2}Support structure}{32}}
\citation{svd-va1}
\citation{Omnetics}
\citation{svd-va1}
\@writefile{toc}{\contentsline {subsection}{\numberline {4.4}Front-end Electronics}{33}}
\@writefile{lof}{\contentsline {figure}{\numberline {15}{\ignorespaces Schematic drawing of the SVD readout system.}}{34}}
\newlabel{eps-svd-core}{{15}{34}}
\@writefile{toc}{\contentsline {subsubsection}{\numberline {4.4.1}VA1 integrated circuit}{34}}
\@writefile{lof}{\contentsline {figure}{\numberline {16}{\ignorespaces Block diagram of the VA1 chip.}}{35}}
\newlabel{eps-VA1chip}{{16}{35}}
\citation{Omnetics}
\citation{svd-TanakaA432}
\@writefile{lot}{\contentsline {table}{\numberline {2}{\ignorespaces Detector capacitance (C), expected noise (ENC) and signal-to-noise ratio (S/N) at 0 kRad.}}{36}}
\newlabel{svd-C-ENC-SN}{{2}{36}}
\@writefile{toc}{\contentsline {subsubsection}{\numberline {4.4.2}Hybrid}{36}}
\@writefile{lot}{\contentsline {table}{\numberline {3}{\ignorespaces Expected signal-to-noise ratio after irradiation. The radiation dose values shown are for the inner layer. The radiation doses in the middle and outer layers are assumed to scale as $r^{-1}$.}}{37}}
\newlabel{svd-rad}{{3}{37}}
\@writefile{toc}{\contentsline {subsubsection}{\numberline {4.4.3}Repeater system, CORE}{37}}
\citation{TsujitaPHD}
\@writefile{toc}{\contentsline {subsection}{\numberline {4.5}Back-end Electronics}{38}}
\citation{SIROCCO}
\@writefile{toc}{\contentsline {subsubsection}{\numberline {4.5.1}FADC system}{39}}
\@writefile{lof}{\contentsline {figure}{\numberline {17}{\ignorespaces Block diagram of a $Halny$ FADC module.}}{39}}
\newlabel{eps-svd-halny}{{17}{39}}
\@writefile{toc}{\contentsline {subsubsection}{\numberline {4.5.2}Trigger Timing Modules}{40}}
\@writefile{toc}{\contentsline {subsection}{\numberline {4.6}SVD DAQ System}{40}}
\citation{svd-IOTECH}
\citation{svd-MINCO}
\@writefile{lof}{\contentsline {figure}{\numberline {18}{\ignorespaces Block diagram of the SVD DAQ system.}}{41}}
\newlabel{svddaq-system}{{18}{41}}
\@writefile{toc}{\contentsline {subsection}{\numberline {4.7}Monitor System}{41}}
\citation{svd-HPK}
\citation{svd-Radfet}
\citation{svd-Alimonti2000}
\citation{svd-Alimonti2000}
\@writefile{toc}{\contentsline {subsection}{\numberline {4.8}Performance}{42}}
\citation{IEEE2000SVD}
\@writefile{lof}{\contentsline {figure}{\numberline {19}{\ignorespaces Cluster energy distribution in which the cluster energy is normalized by the track path length in DSSD.}}{43}}
\newlabel{eps-svd-cluster}{{19}{43}}
\@writefile{lof}{\contentsline {figure}{\numberline {20}{\ignorespaces SVD-CDC track matching efficiency as a function of the date of data taking.}}{44}}
\newlabel{eps-svd-matching}{{20}{44}}
\@writefile{lof}{\contentsline {figure}{\numberline {21}{\ignorespaces Impact parameter resolution.}}{44}}
\newlabel{eps-svd-impact}{{21}{44}}
\@setckpt{svdtxt}{
\setcounter{page}{45}
\setcounter{equation}{0}
\setcounter{enumi}{0}
\setcounter{enumii}{0}
\setcounter{enumiii}{0}
\setcounter{enumiv}{0}
\setcounter{footnote}{12}
\setcounter{mpfootnote}{0}
\setcounter{section}{4}
\setcounter{subsection}{8}
\setcounter{subsubsection}{0}
\setcounter{paragraph}{0}
\setcounter{subparagraph}{0}
\setcounter{thm}{0}
\setcounter{alg}{0}
\setcounter{algorithm}{0}
\setcounter{note}{0}
\setcounter{summ}{0}
\setcounter{case}{0}
\setcounter{figure}{21}
\setcounter{table}{3}
\setcounter{author}{343}
\setcounter{collab}{0}
\setcounter{address}{52}
\setcounter{firstpage}{1}
\setcounter{lastpage}{0}
}
