\relax 
\citation{TDR95,Progress97}
\citation{tof-KichimiA325}
\citation{tof-KichimiBN138}
\@writefile{toc}{\contentsline {section}{\numberline {7}Time-of-Flight Counters, TOF}{81}}
\@writefile{toc}{\contentsline {subsection}{\numberline {7.1}Design and Construction of TOF}{81}}
\@writefile{lot}{\contentsline {table}{\numberline {6}{\ignorespaces Parameters of the TOF and TSC counters. Scintillator materials are Bicron BC408 for TOF and Bicron BC412 for TSC.}}{82}}
\newlabel{TOF/TSC}{{6}{82}}
\@writefile{lof}{\contentsline {figure}{\numberline {54}{\ignorespaces Dimensions of a TOF/TSC module.}}{82}}
\newlabel{eps-tof-dimension}{{54}{82}}
\@writefile{toc}{\contentsline {subsubsection}{\numberline {7.1.1}FM-PMTs}{82}}
\@writefile{toc}{\contentsline {subsubsection}{\numberline {7.1.2}Scintillators}{83}}
\@writefile{lof}{\contentsline {figure}{\numberline {55}{\ignorespaces 1.5 T field test of FM-PMTs. (a) Gains and (b) time resolutions as a function of magnetic field.}}{84}}
\newlabel{eps-tof-fieldtest}{{55}{84}}
\@writefile{toc}{\contentsline {subsubsection}{\numberline {7.1.3}Readout electronics}{84}}
\citation{tof-YamaguchiBN133}
\@writefile{lof}{\contentsline {figure}{\numberline {56}{\ignorespaces (a) Attenuation lengths and (b) light yields of 38 TOF scintillators.}}{85}}
\newlabel{eps-tof-attenuation}{{56}{85}}
\@writefile{lof}{\contentsline {figure}{\numberline {57}{\ignorespaces Block diagram of a single channel of TOF front-end electronics.}}{85}}
\newlabel{eps-tof-electronics}{{57}{85}}
\citation{tof-KichimiBN223}
\@writefile{lof}{\contentsline {figure}{\numberline {58}{\ignorespaces Block diagrams of the TOF electronics for (a) trigger and (b) readout.}}{86}}
\newlabel{eps-tof-triggerel}{{58}{86}}
\@writefile{lof}{\contentsline {figure}{\numberline {59}{\ignorespaces Event trigger rates due to background photons from Bhabha and spent electrons.}}{87}}
\newlabel{eps-tof-trigrate}{{59}{87}}
\@writefile{lof}{\contentsline {figure}{\numberline {60}{\ignorespaces Time stretcher scheme for TOF.}}{88}}
\newlabel{eps-tof-timestr}{{60}{88}}
\@writefile{toc}{\contentsline {subsection}{\numberline {7.2}Beam Test}{88}}
\@writefile{lot}{\contentsline {table}{\numberline {7}{\ignorespaces Parameters for TOF/TSC electronics.}}{89}}
\newlabel{TOF-electronics}{{7}{89}}
\@writefile{lof}{\contentsline {figure}{\numberline {61}{\ignorespaces Time resolution of a Belle TOF module as a function of hit position.}}{90}}
\newlabel{eps-tof-timeresol}{{61}{90}}
\citation{tof-KichimiHamamatsu99}
\@writefile{lof}{\contentsline {figure}{\numberline {62}{\ignorespaces $\pi /p$ separation at 2.5 GeV/c.}}{91}}
\newlabel{eps-tof-pipseparation}{{62}{91}}
\@writefile{toc}{\contentsline {subsection}{\numberline {7.3}Performance}{91}}
\@writefile{toc}{\contentsline {subsubsection}{\numberline {7.3.1}PMT gain adjustment}{91}}
\@writefile{toc}{\contentsline {subsubsection}{\numberline {7.3.2}Calibration and time resolution using $\mu $-pair events}{91}}
\@writefile{lof}{\contentsline {figure}{\numberline {63}{\ignorespaces Light yield of a TSC counter as a function of hit position.}}{92}}
\newlabel{eps-tof-tsclight}{{63}{92}}
\@writefile{lof}{\contentsline {figure}{\numberline {64}{\ignorespaces Time resolution for $\mu $-pair events.}}{93}}
\newlabel{eps-tof-mutimeres}{{64}{93}}
\@writefile{toc}{\contentsline {subsubsection}{\numberline {7.3.3}$\pi ^{\pm }/K^{\pm }$ separation}{93}}
\@writefile{lof}{\contentsline {figure}{\numberline {65}{\ignorespaces Systematics of TOF $\delta t$ residuals. The figure on the left shows the $\beta $ dependence of the $\delta t$ residual after application of the $\mu $-pair optimized calibration constants but before the $\beta $ correction for each hadron species. The figure on the right shows the distribution of the residuals as a function of momentum after application of all calibration constants.}}{94}}
\newlabel{eps-tof-systematics}{{65}{94}}
\@writefile{lof}{\contentsline {figure}{\numberline {66}{\ignorespaces The TOF resolution, averaged over all counters and $z$, as a function of momentum for each hadron species.}}{95}}
\newlabel{eps-tof-systematics-error}{{66}{95}}
\@writefile{lof}{\contentsline {figure}{\numberline {67}{\ignorespaces Mass distribution from TOF measurements for particle momenta below 1.2 GeV/c.}}{96}}
\newlabel{eps-tof-massdis}{{67}{96}}
\@writefile{lof}{\contentsline {figure}{\numberline {68}{\ignorespaces $\pi ^{\pm }/K^{\pm }$ separation by TOF.}}{96}}
\newlabel{eps-tof-pikseparation}{{68}{96}}
\@setckpt{toftxt}{
\setcounter{page}{97}
\setcounter{equation}{6}
\setcounter{enumi}{0}
\setcounter{enumii}{0}
\setcounter{enumiii}{0}
\setcounter{enumiv}{0}
\setcounter{footnote}{12}
\setcounter{mpfootnote}{0}
\setcounter{section}{7}
\setcounter{subsection}{3}
\setcounter{subsubsection}{3}
\setcounter{paragraph}{0}
\setcounter{subparagraph}{0}
\setcounter{thm}{0}
\setcounter{alg}{0}
\setcounter{algorithm}{0}
\setcounter{note}{0}
\setcounter{summ}{0}
\setcounter{case}{0}
\setcounter{figure}{68}
\setcounter{table}{7}
\setcounter{author}{343}
\setcounter{collab}{0}
\setcounter{address}{52}
\setcounter{firstpage}{1}
\setcounter{lastpage}{0}
}
