\relax 
\@input{fronttxt.aux}
\global\@namedef{n@author@}{343}
\global\@namedef{n@collab@}{0}
\@input{inttxt.aux}
\@input{irtxt.aux}
\@input{efctxt.aux}
\@input{svdtxt.aux}
\@input{cdctxt.aux}
\@input{acctxt.aux}
\@input{toftxt.aux}
\@input{ecltxt.aux}
\@input{klmtxt.aux}
\@input{magtxt.aux}
\@input{trgtxt.aux}
\@input{daqtxt.aux}
\@input{cmptxt.aux}
\@input{reftxt_ack.aux}
\global\c@lastpage=204
