\relax 
\citation{trg-UshirodaA438}
\citation{KEKB}
\@writefile{toc}{\contentsline {section}{\numberline {11}Trigger}{150}}
\citation{Xilinx}
\@writefile{lof}{\contentsline {figure}{\numberline {117}{\ignorespaces The Level-1 trigger system for the Belle detector.}}{151}}
\newlabel{eps-trg-system}{{117}{151}}
\@writefile{lot}{\contentsline {table}{\numberline {12}{\ignorespaces Total cross section and trigger rates with $L$ = 10$^{34}$ cm$^{-2}$s$^{-1}$ from various physics processes at $\Upsilon $(4S). Superscript $^{(a)}$ indicates the values pre-scaled by a factor 1/100 and superscript $^{(b)}$ indicates the restricted condition of $p_t \geq $ 0.3 GeV/c.}}{152}}
\newlabel{trigger-rate}{{12}{152}}
\@writefile{toc}{\contentsline {subsection}{\numberline {11.1}CDC Trigger System}{152}}
\@writefile{toc}{\contentsline {subsubsection}{\numberline {11.1.1}$r$-$\phi $ trigger}{152}}
\@writefile{lof}{\contentsline {figure}{\numberline {118}{\ignorespaces CDC track segment finder (TSF) cells for (a) innermost superlayer and (b) outer super-layers.}}{153}}
\newlabel{eps-trg-cdctsf}{{118}{153}}
\citation{cdc-trgTomoto99}
\@writefile{lof}{\contentsline {figure}{\numberline {119}{\ignorespaces CDC track finder (TF) wedge.}}{154}}
\newlabel{eps-trg-cdctf}{{119}{154}}
\@writefile{toc}{\contentsline {subsubsection}{\numberline {11.1.2}z trigger}{154}}
\@writefile{lof}{\contentsline {figure}{\numberline {120}{\ignorespaces CDC $r$-$\phi $ trigger efficiency as a function of $p_t$ for the short (top) and full (bottom) tracks. For the full tracks, only tracks in $40^\circ < \theta < 140^\circ $ are used. }}{155}}
\newlabel{eps-trg-cdcrpteff}{{120}{155}}
\citation{cdc-trgTomoto99}
\@writefile{lof}{\contentsline {figure}{\numberline {121}{\ignorespaces CDC $r$-$\phi $ trigger efficiency as a function of $\theta $ for the short (top) and full (bottom) tracks. Only tracks above the designed $p_t$ threshold are used. }}{156}}
\newlabel{eps-trg-cdcrtheff}{{121}{156}}
\@writefile{lof}{\contentsline {figure}{\numberline {122}{\ignorespaces Trigger tower map. The $z$ positions of each layer are calculated in 8 azimuthal segments individually. When a track passes through CDC, as shown in the upper figure, it yields the trigger tower map shown in the lower figure. If the $z$ positions of the middle and outer layers of the cathode line up with the same $\theta $ value, it is regarded as being a track from the interaction point.}}{157}}
\newlabel{eps-trg-ztowermap}{{122}{157}}
\@writefile{lof}{\contentsline {figure}{\numberline {123}{\ignorespaces Schematic diagram of the $z$-trigger algorithm.}}{158}}
\newlabel{eps-trg-zalgorithm}{{123}{158}}
\@writefile{lof}{\contentsline {figure}{\numberline {124}{\ignorespaces Trigger efficiency as a function of $dz$ for a single track (left) and an event (right) with the " at least one $z$-track" condition. The dots are the efficiency for cosmic data of the $z$-trigger logic, and the histogram is the efficiency for the reconstructed logic using CDC hit data as the input. }}{159}}
\newlabel{eps-trg-effvsdz}{{124}{159}}
\@writefile{toc}{\contentsline {subsection}{\numberline {11.2}TOF Trigger System}{159}}
\@writefile{lof}{\contentsline {figure}{\numberline {125}{\ignorespaces  $z$ distribution of two-track events with (single-hatched histogram) and without (blank histogram) $z$-trigger requirements. The cross-hatched histogram shows the $z$ distribution of rejected events.}}{160}}
\newlabel{eps-trg-zzbeam}{{125}{160}}
\@writefile{toc}{\contentsline {subsubsection}{\numberline {11.2.1}Timing logic}{160}}
\@writefile{lof}{\contentsline {figure}{\numberline {126}{\ignorespaces TOF trigger timing logic. }}{161}}
\newlabel{fig:toffet}{{126}{161}}
\@writefile{toc}{\contentsline {subsubsection}{\numberline {11.2.2}Delay and decision logic}{161}}
\@writefile{lof}{\contentsline {figure}{\numberline {127}{\ignorespaces TOF trigger delay and decision logic. }}{162}}
\newlabel{fig:tofmt}{{127}{162}}
\@writefile{toc}{\contentsline {subsection}{\numberline {11.3}ECL Trigger System}{163}}
\@writefile{toc}{\contentsline {subsubsection}{\numberline {11.3.1}Trigger Cell}{163}}
\@writefile{toc}{\contentsline {subsubsection}{\numberline {11.3.2}Total Energy Trigger}{163}}
\@writefile{lof}{\contentsline {figure}{\numberline {128}{\ignorespaces  Schematic diagram of ECL readout electronics.}}{164}}
\newlabel{ecltrig-flowchart}{{128}{164}}
\@writefile{lof}{\contentsline {figure}{\numberline {129}{\ignorespaces Calorimeter division for the selection of Bhabha events in the $\theta $-direction. Here each unit represents one $\phi $-ring summation.}}{165}}
\newlabel{ecltrig-17phiring}{{129}{165}}
\@writefile{toc}{\contentsline {subsubsection}{\numberline {11.3.3}Cluster Counting Trigger}{165}}
\@writefile{lot}{\contentsline {table}{\numberline {13}{\ignorespaces Various energy cuts to trigger Bhabha events. F, C and B represent the Forward end-cap, Barrel and Backward end-cap calorimeters, respectively. $^{a)}$ indicates Backward gap and $^{b)}$ Forward gap. }}{166}}
\newlabel{ecltrig-Bhabhalogic}{{13}{166}}
\@writefile{lof}{\contentsline {figure}{\numberline {130}{\ignorespaces (a) Singles rates of the total energy sum (E$_{\rm  tot}$) as a function of threshold energy. Electronics noises and cosmic rays are clearly separated around ${\rm  E_{th}}$ = 200 MeV. (b) Singles rates as a function of the number of isolated clusters(ICN).}}{167}}
\newlabel{ecltrig-cosmic}{{130}{167}}
\@writefile{toc}{\contentsline {subsection}{\numberline {11.4}KLM Trigger}{167}}
\@writefile{toc}{\contentsline {subsubsection}{\numberline {11.4.1}KLM signal out}{167}}
\@writefile{lof}{\contentsline {figure}{\numberline {131}{\ignorespaces  A logic diagram for the isolated cluster number counting. Among nine TC cells, only three center cells and two right cells are considered in isolated cluster counting logic.}}{168}}
\newlabel{ecltrig-icnlogic}{{131}{168}}
\@writefile{toc}{\contentsline {subsubsection}{\numberline {11.4.2}KLM trigger scheme}{168}}
\@writefile{lof}{\contentsline {figure}{\numberline {132}{\ignorespaces Schematic diagram of readout board output signals. }}{169}}
\newlabel{train}{{132}{169}}
\@writefile{lof}{\contentsline {figure}{\numberline {133}{\ignorespaces Schematic diagram of the KLM readout board output signals and the trigger system. }}{170}}
\newlabel{klmtrg}{{133}{170}}
\@writefile{toc}{\contentsline {subsubsection}{\numberline {11.4.3}Trigger efficiency}{170}}
\@writefile{lof}{\contentsline {figure}{\numberline {134}{\ignorespaces Trigger efficiency using $\mu $-pair events: (a) cos $\theta $ dependence, (b) $\phi $ dependence, and (c) run number dependence }}{171}}
\newlabel{klmeff}{{134}{171}}
\@writefile{toc}{\contentsline {subsection}{\numberline {11.5}EFC Trigger System}{171}}
\@writefile{lof}{\contentsline {figure}{\numberline {135}{\ignorespaces Schematic diagram of the EFC trigger arrangement.}}{172}}
\newlabel{efctrig_fig}{{135}{172}}
\citation{Xilinx}
\citation{trg-UshirodaA438}
\@writefile{toc}{\contentsline {subsection}{\numberline {11.6}GDL}{173}}
\@writefile{toc}{\contentsline {subsection}{\numberline {11.7} Trigger Operation for Beam Run }{173}}
\@writefile{lof}{\contentsline {figure}{\numberline {136}{\ignorespaces Schematic design of GDL.}}{174}}
\newlabel{eps-trg-gdldesign}{{136}{174}}
\@writefile{lot}{\contentsline {table}{\numberline {14}{\ignorespaces  Summary of sub-detector triggers to GDL. }}{175}}
\newlabel{trg-subtrigger}{{14}{175}}
\@writefile{lof}{\contentsline {figure}{\numberline {137}{\ignorespaces Trigger rate as a function of beam current for electron or positron single beam runs (top), and total beam current in a collision run (bottom). Contributions of electron and positron single beams are also plotted for a typical beam current ratio of $I_{e^+}/I_{e^-}$=1.5. }}{176}}
\newlabel{eps-trg-trate}{{137}{176}}
\@setckpt{trgtxt}{
\setcounter{page}{177}
\setcounter{equation}{21}
\setcounter{enumi}{7}
\setcounter{enumii}{0}
\setcounter{enumiii}{0}
\setcounter{enumiv}{0}
\setcounter{footnote}{12}
\setcounter{mpfootnote}{0}
\setcounter{section}{11}
\setcounter{subsection}{7}
\setcounter{subsubsection}{0}
\setcounter{paragraph}{0}
\setcounter{subparagraph}{0}
\setcounter{thm}{0}
\setcounter{alg}{0}
\setcounter{algorithm}{0}
\setcounter{note}{0}
\setcounter{summ}{0}
\setcounter{case}{0}
\setcounter{figure}{137}
\setcounter{table}{14}
\setcounter{author}{343}
\setcounter{collab}{0}
\setcounter{address}{52}
\setcounter{firstpage}{1}
\setcounter{lastpage}{0}
}
