%!PS-Adobe-2.0 EPSF-2.0
%%BoundingBox: 0 0 553 581
%%Title: /nfs/k/bhep4/bellemgr/jorge/caltof/velocity/plot.ep
%%Creator: HIGZ Version 1.26/04
%%CreationDate: 2000/09/05   16.18
%%EndComments
%%BeginProlog
80 dict begin
/s {stroke} def /l {lineto} def /m {moveto} def /t {translate} def
/sw {stringwidth} def /r {rotate} def /rl {roll}  def /R {repeat} def
/d {rlineto} def /rm {rmoveto} def /gr {grestore} def /f {eofill} def
/c {setrgbcolor} def /lw {setlinewidth} def /sd {setdash} def
/cl {closepath} def /sf {scalefont setfont} def /black {0 setgray} def
/box {m dup 0 exch d exch 0 d 0 exch neg d cl} def
/NC{systemdict begin initclip end}def/C{NC box clip newpath}def
/bl {box s} def /bf {box f} def /Y { 0 exch d} def /X { 0 d} def 
/mp {newpath /y exch def /x exch def} def
/side {[w .77 mul w .23 mul] .385 w mul sd w 0 l currentpoint t -144 r} def
/mr {mp x y w2 0 360 arc} def /m24 {mr s} def /m20 {mr f} def
/mb {mp x y w2 add m w2 neg 0 d 0 w neg d w 0 d 0 w d cl} def
/mt {mp x y w2 add m w2 neg w neg d w 0 d cl} def
/m21 {mb f} def /m25 {mb s} def /m22 {mt f} def /m26{mt s} def
/m23 {mp x y w2 sub m w2 w d w neg 0 d cl f} def
/m27 {mp x y w2 add m w3 neg w2 neg d w3 w2 neg d w3 w2 d cl s} def
/m28 {mp x w2 sub y w2 sub w3 add m w3 0 d 0 w3 neg d w3 0 d 0 w3 d w3 0 d
 0 w3 d w3 neg 0 d 0 w3 d w3 neg 0 d
 0 w3 neg d w3 neg 0 d cl s } def
/m29 {mp gsave x w2 sub y w2 add w3 sub m currentpoint t
 4 {side} repeat cl fill gr} def
/m30 {mp gsave x w2 sub y w2 add w3 sub m currentpoint t
 5 {side} repeat s gr} def
/m31 {mp x y w2 sub m 0 w d x w2 sub y m w 0 d
 x w2 sub y w2 add m w w neg d x w2 sub y w2
 sub m w w d s} def
/m2 {mp x y w2 sub m 0 w d x w2 sub y m w 0 d s} def
/m5 {mp x w2 sub y w2 sub m w w d x w2 sub y w2 add m w w neg d s} def
/reencdict 24 dict def /ReEncode {reencdict begin /nco&na exch def
/nfnam exch def /basefontname exch def /basefontdict basefontname findfont def
/newfont basefontdict maxlength dict def basefontdict {exch dup /FID ne
{dup /Encoding eq {exch dup length array copy newfont 3 1 roll put} {exch
newfont 3 1 roll put} ifelse} {pop pop} ifelse } forall newfont
/FontName nfnam put nco&na aload pop nco&na length 2 idiv {newfont
/Encoding get 3 1 roll put} repeat nfnam newfont definefont pop end } def
/accvec [ 176 /agrave 181 /Agrave 190 /acircumflex 192 /Acircumflex
201 /adieresis 204 /Adieresis 209 /ccedilla 210 /Ccedilla 211 /eacute
212 /Eacute 213 /egrave 214 /Egrave 215 /ecircumflex 216 /Ecircumflex
217 /edieresis 218 /Edieresis 219 /icircumflex 220 /Icircumflex
221 /idieresis 222 /Idieresis 223 /ntilde 224 /Ntilde 226 /ocircumflex
228 /Ocircumflex 229 /odieresis 230 /Odieresis 231 /ucircumflex 236 /Ucircumflex
237 /udieresis 238 /Udieresis 239 /aring 242 /Aring 243 /ydieresis
244 /Ydieresis 246 /aacute 247 /Aacute 252 /ugrave 253 /Ugrave] def
/Times-Roman /Times-Roman accvec ReEncode
/Times-Italic /Times-Italic accvec ReEncode
/Times-Bold /Times-Bold accvec ReEncode
/Times-BoldItalic /Times-BoldItalic accvec ReEncode
/Helvetica /Helvetica accvec ReEncode
/Helvetica-Oblique /Helvetica-Oblique accvec ReEncode
/Helvetica-Bold /Helvetica-Bold accvec ReEncode
/Helvetica-BoldOblique /Helvetica-BoldOblique  accvec ReEncode
/Courier /Courier accvec ReEncode
/Courier-Oblique /Courier-Oblique accvec ReEncode
/Courier-Bold /Courier-Bold accvec ReEncode
/Courier-BoldOblique /Courier-BoldOblique accvec ReEncode
/oshow {gsave [] 0 sd true charpath stroke gr} def
/stwn { /fs exch def /fn exch def /text exch def fn findfont fs sf
 text sw pop xs add /xs exch def} def
/stwb { /fs exch def /fn exch def /nbas exch def /textf exch def
textf length /tlen exch def nbas tlen gt {/nbas tlendef} if
fn findfont fs sf textf dup length nbas sub nbas getinterval sw
pop neg xs add /xs exch def} def
/accspe [ 65 /plusminus 66 /bar 67 /existential 68 /universal
69 /exclam 70 /numbersign 71 /greater 72 /question 73 /integral
74 /colon 75 /semicolon 76 /less 77 /bracketleft 78 /bracketright
79 /greaterequal 80 /braceleft 81 /braceright 82 /radical
83 /spade 84 /heart 85 /diamond 86 /club 87 /lessequal
88 /multiply 89 /percent 90 /infinity 48 /circlemultiply 49 /circleplus
50 /emptyset 51 /lozenge 52 /bullet 53 /arrowright 54 /arrowup
55 /arrowleft 56 /arrowdown 57 /arrowboth 48 /degree 44 /comma 43 /plus
 45 /angle 42 /angleleft 47 /divide 61 /notequal 40 /equivalence 41 /second
 97 /approxequal 98 /congruent 99 /perpendicular 100 /partialdiff 101 /florin
 102 /intersection 103 /union 104 /propersuperset 105 /reflexsuperset
 106 /notsubset 107 /propersubset 108 /reflexsubset 109 /element 110 /notelement
 111 /gradient 112 /logicaland 113 /logicalor 114 /arrowdblboth
 115 /arrowdblleft 116 /arrowdblup 117 /arrowdblright 118 /arrowdbldown
 119 /ampersand 120 /omega1 121 /similar 122 /aleph ] def
/Symbol /Special accspe ReEncode
%%EndProlog
 gsave  .25 .25 scale  gsave 0 0 t black [] 0 sd 1 lw 2211 2324 0 0 C 4 lw 342
 1428 m 34 Y 34 X -34 Y -34 X cl s 1 lw 342 1428 m 34 Y 34 X -34 Y -34 X f 4 lw
 359 1342 m 86 Y s 359 1549 m -87 Y s 559 1177 m 34 Y 34 X -34 Y -34 X cl s 1 lw
 559 1177 m 34 Y 34 X -34 Y -34 X f 4 lw 576 1141 m 36 Y s 576 1247 m -36 Y s
 746 1113 m 34 Y 34 X -34 Y -34 X cl s 1 lw 746 1113 m 34 Y 34 X -34 Y -34 X f 4
 lw 763 1082 m 31 Y s 763 1178 m -31 Y s 906 1005 m 34 Y 34 X -34 Y -34 X cl s 1
 lw 906 1005 m 34 Y 34 X -34 Y -34 X f 4 lw 923 982 m 23 Y s 923 1062 m -23 Y s
 1042 944 m 34 Y 34 X -34 Y -34 X cl s 1 lw 1042 944 m 34 Y 34 X -34 Y -34 X f 4
 lw 1059 924 m 20 Y s 1059 997 m -19 Y s 1159 889 m 34 Y 34 X -34 Y -34 X cl s 1
 lw 1159 889 m 34 Y 34 X -34 Y -34 X f 4 lw 1176 871 m 18 Y s 1176 941 m -18 Y s
 1258 789 m 34 Y 34 X -34 Y -34 X cl s 1 lw 1258 789 m 34 Y 34 X -34 Y -34 X f 4
 lw 1275 766 m 23 Y s 1275 846 m -23 Y s 1343 718 m 34 Y 34 X -34 Y -34 X cl s 1
 lw 1343 718 m 34 Y 34 X -34 Y -34 X f 4 lw 1360 688 m 30 Y s 1360 782 m -30 Y s
 340 272 m -45 Y s
 /xs 0 def 
(0.50)
 /Times-Roman     68 stwn 
 gsave  340 136
 t   0 r  xs 2 div neg 0 t 0 0 m
 /Times-Roman findfont   68 sf 0    0 m 
(0.50)
 show 
 gr  408 249 m -22 Y s 476 249 m -22 Y s 544 249 m -22 Y s 612 249 m -22 Y s 680
 272 m -45 Y s
 /xs 0 def 
(0.60)
 /Times-Roman     68 stwn 
 gsave  680 136
 t   0 r  xs 2 div neg 0 t 0 0 m
 /Times-Roman findfont   68 sf 0    0 m 
(0.60)
 show 
 gr  748 249 m -22 Y s 816 249 m -22 Y s 884 249 m -22 Y s 952 249 m -22 Y s
 1020 272 m -45 Y s
 /xs 0 def 
(0.70)
 /Times-Roman     68 stwn 
 gsave  1020 136
 t   0 r  xs 2 div neg 0 t 0 0 m
 /Times-Roman findfont   68 sf 0    0 m 
(0.70)
 show 
 gr  1088 249 m -22 Y s 1156 249 m -22 Y s 1224 249 m -22 Y s 1292 249 m -22 Y s
 1360 272 m -45 Y s
 /xs 0 def 
(0.80)
 /Times-Roman     68 stwn 
 gsave  1360 136
 t   0 r  xs 2 div neg 0 t 0 0 m
 /Times-Roman findfont   68 sf 0    0 m 
(0.80)
 show 
 gr  1428 249 m -22 Y s 1496 249 m -22 Y s 1564 249 m -22 Y s 1632 249 m -22 Y s
 1700 272 m -45 Y s
 /xs 0 def 
(0.90)
 /Times-Roman     68 stwn 
 gsave  1700 136
 t   0 r  xs 2 div neg 0 t 0 0 m
 /Times-Roman findfont   68 sf 0    0 m 
(0.90)
 show 
 gr  1769 249 m -22 Y s 1837 249 m -22 Y s 1905 249 m -22 Y s 1973 249 m -22 Y s
 2041 272 m -45 Y s
 /xs 0 def 
(1.00)
 /Times-Roman     68 stwn 
 gsave  2041 136
 t   0 r  xs 2 div neg 0 t 0 0 m
 /Times-Roman findfont   68 sf 0    0 m 
(1.00)
 show 
 gr 
 /xs 0 def 
(Track\040)
 /Times-Roman     68 stwn 
(b)
 /Symbol     68 stwn 
 gsave  1871 57
 t   0 r  xs 2 div neg 0 t 0 0 m
 /Times-Roman findfont   68 sf 0    0 m 
(Track\040)
 show 
 currentpoint pop 0 t 
 /Symbol findfont   68 sf 0    0 m 
(b)
 show 
 gr  340 1882 m 45 Y s 408 1905 m 22 Y s 476 1905 m 22 Y s 544 1905 m 22 Y s 612
 1905 m 22 Y s 680 1882 m 45 Y s 748 1905 m 22 Y s 816 1905 m 22 Y s 884 1905 m
 22 Y s 952 1905 m 22 Y s 1020 1882 m 45 Y s 1088 1905 m 22 Y s 1156 1905 m 22 Y
 s 1224 1905 m 22 Y s 1292 1905 m 22 Y s 1360 1882 m 45 Y s 1428 1905 m 22 Y s
 1496 1905 m 22 Y s 1564 1905 m 22 Y s 1632 1905 m 22 Y s 1700 1882 m 45 Y s
 1769 1905 m 22 Y s 1837 1905 m 22 Y s 1905 1905 m 22 Y s 1973 1905 m 22 Y s
 2041 1882 m 45 Y s 385 227 m -45 X s
 /xs 0 def 
(0.00)
 /Times-Roman     68 stwn 
 gsave  317 204
 t   0 r  xs neg 0 t 0 0 m
 /Times-Roman findfont   68 sf 0    0 m 
(0.00)
 show 
 gr  363 340 m -23 X s 363 453 m -23 X s 363 567 m -23 X s 363 680 m -23 X s 385
 794 m -45 X s
 /xs 0 def 
(0.10)
 /Times-Roman     68 stwn 
 gsave  317 771
 t   0 r  xs neg 0 t 0 0 m
 /Times-Roman findfont   68 sf 0    0 m 
(0.10)
 show 
 gr  363 907 m -23 X s 363 1020 m -23 X s 363 1134 m -23 X s 363 1247 m -23 X s
 385 1360 m -45 X s
 /xs 0 def 
(0.20)
 /Times-Roman     68 stwn 
 gsave  317 1338
 t   0 r  xs neg 0 t 0 0 m
 /Times-Roman findfont   68 sf 0    0 m 
(0.20)
 show 
 gr  363 1474 m -23 X s 363 1587 m -23 X s 363 1700 m -23 X s 363 1814 m -23 X s
 385 1927 m -45 X s
 /xs 0 def 
(0.30)
 /Times-Roman     68 stwn 
 gsave  317 1905
 t   0 r  xs neg 0 t 0 0 m
 /Times-Roman findfont   68 sf 0    0 m 
(0.30)
 show 
 gr 
 /xs 0 def 
(D)
 /Symbol     68 stwn 
(t \(ns\))
 /Times-Roman     68 stwn 
 gsave  113 1077
 t  90 r  xs 2 div neg 0 t 0 0 m
 /Symbol findfont   68 sf 0    0 m 
(D)
 show 
 currentpoint pop 0 t 
 /Times-Roman findfont   68 sf 0    0 m 
(t \(ns\))
 show 
 gr  1995 227 m 46 X s 2018 340 m 23 X s 2018 453 m 23 X s 2018 567 m 23 X s
 2018 680 m 23 X s 1995 794 m 46 X s 2018 907 m 23 X s 2018 1020 m 23 X s 2018
 1134 m 23 X s 2018 1247 m 23 X s 1995 1360 m 46 X s 2018 1474 m 23 X s 2018
 1587 m 23 X s 2018 1700 m 23 X s 2018 1814 m 23 X s 1995 1927 m 46 X s 6 lw 340
 227 m 1701 X s 340 1927 m 1701 X s 340 227 m 1700 Y s 2041 227 m 1700 Y s 4 lw
 1451 1564 m 23 46 d 22 -46 d -45 X cl s 1 lw 1451 1564 m 23 46 d 22 -46 d -45 X
 f
 gsave  1564 1564
 t   0 r 0 0 m
 /Times-Roman findfont   68 sf 0    0 m 
(Kaons)
 show 
 gr  4 lw 1451 1678 m 45 Y 45 X -45 Y -45 X cl s 1 lw 1451 1678 m 45 Y 45 X -45
 Y -45 X f
 gsave  1564 1678
 t   0 r 0 0 m
 /Times-Roman findfont   68 sf 0    0 m 
(Protons)
 show 
 gr  1496 1474 m 5 Y -1 2 d 1 Y -1 2 d 1 Y -1 1 d -1 1 d -1 1 d -1 1 d -1 1 d -1
 1 d -1 1 d -1 1 d -2 1 d -1 X -1 1 d -2 X -1 1 d -11 X -2 -1 d -1 X -1 -1 d -2
 -1 d -1 X -1 -1 d -1 -1 d -1 -1 d -1 -1 d -1 -1 d -1 -1 d -1 -2 d -1 Y -1 -1 d
 -1 -1 d -3 Y -1 -2 d -7 Y 1 -1 d -3 Y 1 -1 d 1 -2 d -1 Y 1 -1 d 1 -1 d 1 -1 d 1
 -1 d 1 -1 d 1 -1 d 1 -1 d 1 -1 d 2 -1 d 1 X 1 -1 d 3 X 2 -1 d 7 X 1 1 d 1 X 2 1
 d 1 X 1 1 d 2 X 1 1 d 1 1 d 1 1 d 1 1 d 1 1 d 1 1 d 1 1 d 1 2 d 1 Y 1 1 d 2 Y 1
 1 d 4 Y f 4 lw 1496 1474 m 5 Y -1 2 d 1 Y -1 2 d 1 Y -1 1 d -1 1 d -1 1 d -1 1
 d -1 1 d -1 1 d -1 1 d -1 1 d -2 1 d -1 X -1 1 d -2 X -1 1 d -11 X -2 -1 d -1 X
 -1 -1 d -2 -1 d -1 X -1 -1 d -1 -1 d -1 -1 d -1 -1 d -1 -1 d -1 -1 d -1 -2 d -1
 Y -1 -1 d -1 -1 d -3 Y -1 -2 d -7 Y 1 -1 d -3 Y 1 -1 d 1 -2 d -1 Y 1 -1 d 1 -1
 d 1 -1 d 1 -1 d 1 -1 d 1 -1 d 1 -1 d 1 -1 d 2 -1 d 1 X 1 -1 d 3 X 2 -1 d 7 X 1
 1 d 1 X 2 1 d 1 X 1 1 d 2 X 1 1 d 1 1 d 1 1 d 1 1 d 1 1 d 1 1 d 1 1 d 1 2 d 1 Y
 1 1 d 2 Y 1 1 d 6 Y cl s
 gsave  1564 1451
 t   0 r 0 0 m
 /Times-Roman findfont   68 sf 0    0 m 
(Pions)
 show 
 gr  592 1358 m 17 34 d 17 -34 d -34 X cl s 1 lw 592 1358 m 17 34 d 17 -34 d -34
 X f 4 lw 609 1375 m -8 X s 609 1375 m 9 X s 609 1276 m 82 Y s 609 1474 m -82 Y
 s 916 1148 m 17 34 d 17 -34 d -34 X cl s 1 lw 916 1148 m 17 34 d 17 -34 d -34 X
 f 4 lw 933 1165 m -8 X s 933 1165 m 9 X s 933 1132 m 16 Y s 933 1198 m -16 Y s
 1156 832 m 17 34 d 17 -34 d -34 X cl s 1 lw 1156 832 m 17 34 d 17 -34 d -34 X f
 4 lw 1173 849 m -9 X s 1173 849 m 8 X s 1173 826 m 6 Y s 1173 872 m -6 Y s 1333
 747 m 17 34 d 17 -34 d -34 X cl s 1 lw 1333 747 m 17 34 d 17 -34 d -34 X f 4 lw
 1350 764 m -8 X s 1350 764 m 9 X s 1350 751 m -4 Y s 1350 778 m 3 Y s 1465 661
 m 17 34 d 17 -34 d -34 X cl s 1 lw 1465 661 m 17 34 d 17 -34 d -34 X f 4 lw
 1482 678 m -8 X s 1482 678 m 9 X s 1482 671 m -10 Y s 1482 686 m 9 Y s 1565 571
 m 17 34 d 17 -34 d -34 X cl s 1 lw 1565 571 m 17 34 d 17 -34 d -34 X f 4 lw
 1582 588 m -8 X s 1582 588 m 9 X s 1582 579 m -8 Y s 1582 596 m 9 Y s 1642 531
 m 17 34 d 17 -34 d -34 X cl s 1 lw 1642 531 m 17 34 d 17 -34 d -34 X f 4 lw
 1659 548 m -9 X s 1659 548 m 8 X s 1659 539 m -8 Y s 1659 557 m 8 Y s 1702 496
 m 17 34 d 17 -34 d -34 X cl s 1 lw 1702 496 m 17 34 d 17 -34 d -34 X f 4 lw
 1719 513 m -9 X s 1719 513 m 8 X s 1719 501 m -5 Y s 1719 524 m 6 Y s 1749 473
 m 17 34 d 17 -34 d -34 X cl s 1 lw 1749 473 m 17 34 d 17 -34 d -34 X f 4 lw
 1766 490 m -9 X s 1766 490 m 8 X s 1766 471 m 2 Y s 1766 509 m -2 Y s 1787 470
 m 17 34 d 17 -34 d -34 X cl s 1 lw 1787 470 m 17 34 d 17 -34 d -34 X f 4 lw
 1804 487 m -9 X s 1804 487 m 8 X s 1804 437 m 33 Y s 1804 537 m -33 Y s 6 lw
 340 227 m 1701 X s 340 1927 m 1701 X s 340 227 m 1700 Y s 2041 227 m 1700 Y s 1
 lw 1816 695 m 2 Y -1 1 d 2 Y -1 1 d 2 Y -1 1 d -1 1 d 1 Y -1 X -1 1 d -1 1 d 1
 Y -1 X -1 1 d -1 X -1 1 d -3 X -1 1 d -5 X -1 -1 d -2 X -1 -1 d -1 X -1 -1 d -1
 X -1 -1 d -1 -1 d -1 -1 d -1 -1 d -1 Y -1 -1 d -1 -1 d -1 Y -1 -1 d -10 Y 1 -1
 d -1 Y 1 -1 d -1 Y 1 -1 d -1 Y 1 -1 d 1 X 1 -1 d -1 Y 1 X 1 -1 d 1 X 1 -1 d 1 X
 1 -1 d 9 X 1 1 d 2 X 1 1 d 1 X 1 1 d 1 Y 1 X 1 1 d 1 1 d 1 Y 1 1 d 1 X 2 Y 1 1
 d 3 Y 1 1 d 1 Y f 4 lw 1816 695 m 2 Y -1 1 d 2 Y -1 1 d 2 Y -1 1 d -1 1 d 1 Y
 -1 X -1 1 d -1 1 d 1 Y -1 X -1 1 d -1 X -1 1 d -3 X -1 1 d -5 X -1 -1 d -2 X -1
 -1 d -1 X -1 -1 d -1 X -1 -1 d -1 -1 d -1 -1 d -1 -1 d -1 Y -1 -1 d -1 -1 d -1
 Y -1 -1 d -10 Y 1 -1 d -1 Y 1 -1 d -1 Y 1 -1 d -1 Y 1 -1 d 1 X 1 -1 d -1 Y 1 X
 1 -1 d 1 X 1 -1 d 1 X 1 -1 d 9 X 1 1 d 2 X 1 1 d 1 X 1 1 d 1 Y 1 X 1 1 d 1 1 d
 1 Y 1 1 d 1 X 2 Y 1 1 d 3 Y 1 1 d 2 Y cl s 1799 695 m -17 X s 1799 695 m 17 X s
 1799 690 m -12 Y s 1799 699 m 13 Y s 1 lw 1905 459 m 3 Y -1 1 d 2 Y -1 1 d 1 Y
 -1 1 d 1 Y -1 X -1 1 d -1 1 d 1 Y -1 X -1 1 d -1 X -1 1 d -1 X -1 1 d -4 X -1 1
 d -1 -1 d -5 X -1 -1 d -1 X -1 -1 d -1 -1 d -1 -1 d -1 X -1 -1 d -1 Y -1 -1 d
 -1 -1 d -1 Y -1 -1 d -2 Y -1 -1 d -7 Y 1 -1 d -2 Y 1 -1 d -1 Y 1 -1 d 1 -1 d -1
 Y 1 -1 d 1 X 1 -1 d 1 -1 d 1 -1 d 1 X 1 -1 d 5 X 1 -1 d 1 1 d 4 X 1 1 d 1 X 1 1
 d 1 X 1 1 d 1 X 1 Y 1 1 d 1 1 d 1 X 1 Y 1 1 d 1 Y 1 1 d 2 Y 1 1 d 2 Y f 4 lw
 1905 459 m 3 Y -1 1 d 2 Y -1 1 d 1 Y -1 1 d 1 Y -1 X -1 1 d -1 1 d 1 Y -1 X -1
 1 d -1 X -1 1 d -1 X -1 1 d -4 X -1 1 d -1 -1 d -5 X -1 -1 d -1 X -1 -1 d -1 -1
 d -1 -1 d -1 X -1 -1 d -1 Y -1 -1 d -1 -1 d -1 Y -1 -1 d -2 Y -1 -1 d -7 Y 1 -1
 d -2 Y 1 -1 d -1 Y 1 -1 d 1 -1 d -1 Y 1 -1 d 1 X 1 -1 d 1 -1 d 1 -1 d 1 X 1 -1
 d 5 X 1 -1 d 1 1 d 4 X 1 1 d 1 X 1 1 d 1 X 1 1 d 1 X 1 Y 1 1 d 1 1 d 1 X 1 Y 1
 1 d 1 Y 1 1 d 2 Y 1 1 d 4 Y cl s 1888 459 m -17 X s 1888 459 m 17 X s 1888 455
 m -14 Y s 1888 462 m 14 Y s 1 lw 1953 390 m 4 Y -1 1 d 1 Y -1 1 d 1 Y -1 1 d 1
 Y -1 1 d -1 1 d 1 Y -1 X -1 1 d -1 1 d -1 X -1 1 d -2 X -1 1 d -8 X -1 -1 d -1
 X -1 -1 d -1 X -1 -1 d -1 X -1 -1 d -1 -1 d -1 -1 d -1 -1 d -1 Y -1 -1 d -1 Y
 -1 -1 d -2 Y -1 -1 d -6 Y 1 -1 d -2 Y 1 -1 d -1 Y 1 -1 d -1 Y 1 X -1 Y 1 -1 d 1
 -1 d 1 X 1 -1 d 1 -1 d 1 X 1 -1 d 2 X 1 -1 d 6 X 1 1 d 2 X 1 1 d 1 X 1 1 d 1 X
 1 1 d 1 1 d 1 1 d 1 1 d 1 Y 1 1 d 1 Y 1 1 d 1 Y 1 1 d 3 Y f 4 lw 1953 390 m 4 Y
 -1 1 d 1 Y -1 1 d 1 Y -1 1 d 1 Y -1 1 d -1 1 d 1 Y -1 X -1 1 d -1 1 d -1 X -1 1
 d -2 X -1 1 d -8 X -1 -1 d -1 X -1 -1 d -1 X -1 -1 d -1 X -1 -1 d -1 -1 d -1 -1
 d -1 -1 d -1 Y -1 -1 d -1 Y -1 -1 d -2 Y -1 -1 d -6 Y 1 -1 d -2 Y 1 -1 d -1 Y 1
 -1 d -1 Y 1 X -1 Y 1 -1 d 1 -1 d 1 X 1 -1 d 1 -1 d 1 X 1 -1 d 2 X 1 -1 d 6 X 1
 1 d 2 X 1 1 d 1 X 1 1 d 1 X 1 1 d 1 1 d 1 1 d 1 1 d 1 Y 1 1 d 1 Y 1 1 d 1 Y 1 1
 d 4 Y cl s 1936 390 m -17 X s 1936 390 m 17 X s 1936 387 m -14 Y s 1936 393 m
 14 Y s 1 lw 1982 362 m 2 Y -1 1 d 3 Y -1 1 d 1 Y -1 1 d -1 1 d 1 Y -1 1 d -1 1
 d -1 1 d -1 1 d -1 X -1 1 d -2 X -1 1 d -8 X -1 -1 d -2 X -1 -1 d -1 X -1 -1 d
 -1 X -1 Y -1 -1 d -1 -1 d -1 X -1 Y -1 -1 d -1 Y -1 -1 d -1 Y -1 -1 d -10 Y 1
 -1 d -1 Y 1 -1 d -1 Y 1 -1 d 1 -1 d 1 -1 d 1 -1 d 1 -1 d 1 -1 d 1 X 1 -1 d 2 X
 1 -1 d 7 X 1 1 d 2 X 1 1 d 1 X 1 1 d 1 X 1 1 d 1 Y 1 X 1 1 d 1 Y 1 1 d 1 1 d 1
 Y 1 1 d 3 Y 1 1 d 1 Y f 4 lw 1982 362 m 2 Y -1 1 d 3 Y -1 1 d 1 Y -1 1 d -1 1 d
 1 Y -1 1 d -1 1 d -1 1 d -1 1 d -1 X -1 1 d -2 X -1 1 d -8 X -1 -1 d -2 X -1 -1
 d -1 X -1 -1 d -1 X -1 Y -1 -1 d -1 -1 d -1 X -1 Y -1 -1 d -1 Y -1 -1 d -1 Y -1
 -1 d -10 Y 1 -1 d -1 Y 1 -1 d -1 Y 1 -1 d 1 -1 d 1 -1 d 1 -1 d 1 -1 d 1 -1 d 1
 X 1 -1 d 2 X 1 -1 d 7 X 1 1 d 2 X 1 1 d 1 X 1 1 d 1 X 1 1 d 1 Y 1 X 1 1 d 1 Y 1
 1 d 1 1 d 1 Y 1 1 d 3 Y 1 1 d 2 Y cl s 1965 362 m -17 X s 1965 362 m 17 X s
 1965 359 m -14 Y s 1965 365 m 14 Y s 1 lw 2000 342 m 4 Y -1 1 d 2 Y -1 1 d -1 1
 d 1 Y -1 1 d -1 X 1 Y -1 1 d -1 X -1 1 d -1 1 d -1 X -1 1 d -3 X -1 1 d -3 X -1
 -1 d -3 X -1 -1 d -1 X -1 -1 d -1 X -1 -1 d -1 -1 d -1 X -1 Y -1 -1 d -1 -1 d
 -1 Y -1 -1 d -1 Y -1 -1 d -2 Y -1 -1 d -5 Y 1 -1 d -2 Y 1 -1 d -1 Y 1 -1 d -1 Y
 1 -1 d 1 -1 d 1 -1 d 1 -1 d 1 -1 d 1 X 1 -1 d 2 X 1 -1 d 9 X 1 1 d 1 X 1 1 d 1
 X 1 1 d 1 X 1 1 d 1 Y 1 1 d 1 1 d 1 1 d 1 1 d 2 Y 1 1 d 4 Y f 4 lw 2000 342 m 4
 Y -1 1 d 2 Y -1 1 d -1 1 d 1 Y -1 1 d -1 X 1 Y -1 1 d -1 X -1 1 d -1 1 d -1 X
 -1 1 d -3 X -1 1 d -3 X -1 -1 d -3 X -1 -1 d -1 X -1 -1 d -1 X -1 -1 d -1 -1 d
 -1 X -1 Y -1 -1 d -1 -1 d -1 Y -1 -1 d -1 Y -1 -1 d -2 Y -1 -1 d -5 Y 1 -1 d -2
 Y 1 -1 d -1 Y 1 -1 d -1 Y 1 -1 d 1 -1 d 1 -1 d 1 -1 d 1 -1 d 1 X 1 -1 d 2 X 1
 -1 d 9 X 1 1 d 1 X 1 1 d 1 X 1 1 d 1 X 1 1 d 1 Y 1 1 d 1 1 d 1 1 d 1 1 d 2 Y 1
 1 d 5 Y cl s 1983 342 m -17 X s 1983 342 m 17 X s 1983 338 m -13 Y s 1983 345 m
 14 Y s 1 lw 2013 347 m 2 Y -1 1 d 2 Y -1 1 d 2 Y -1 1 d -1 1 d -1 1 d -1 1 d -1
 1 d -1 1 d -1 1 d -2 X -1 1 d -3 X -2 1 d -1 X -1 -1 d -4 X -1 -1 d -1 X -1 -1
 d -1 X -1 -1 d -1 Y -1 X -1 -1 d -1 -1 d -1 Y -1 -1 d -1 Y -1 -1 d -1 Y -1 -1 d
 -9 Y 1 -1 d -1 Y 1 -1 d -1 Y 1 -1 d -1 Y 1 -1 d 1 -1 d 1 X -1 Y 1 -1 d 1 X 1 -1
 d 1 X 1 -1 d 11 X 1 1 d 1 X 1 1 d 1 X 1 1 d 1 1 d 1 1 d 1 1 d 1 1 d 1 1 d 2 Y 1
 1 d 2 Y 1 1 d 1 Y f 4 lw 2013 347 m 2 Y -1 1 d 2 Y -1 1 d 2 Y -1 1 d -1 1 d -1
 1 d -1 1 d -1 1 d -1 1 d -1 1 d -2 X -1 1 d -3 X -2 1 d -1 X -1 -1 d -4 X -1 -1
 d -1 X -1 -1 d -1 X -1 -1 d -1 Y -1 X -1 -1 d -1 -1 d -1 Y -1 -1 d -1 Y -1 -1 d
 -1 Y -1 -1 d -9 Y 1 -1 d -1 Y 1 -1 d -1 Y 1 -1 d -1 Y 1 -1 d 1 -1 d 1 X -1 Y 1
 -1 d 1 X 1 -1 d 1 X 1 -1 d 11 X 1 1 d 1 X 1 1 d 1 X 1 1 d 1 1 d 1 1 d 1 1 d 1 1
 d 1 1 d 2 Y 1 1 d 2 Y 1 1 d 3 Y cl s 1996 347 m -17 X s 1996 347 m 17 X s 1996
 343 m -13 Y s 1996 350 m 14 Y s 1 lw 2021 326 m 5 Y -1 1 d 1 Y -1 1 d 1 Y -1 1
 d -1 1 d 1 Y -1 1 d -1 X -1 1 d -1 X -1 1 d -1 1 d -1 X -2 1 d -7 X -1 -1 d -2
 X -1 -1 d -1 X -1 -1 d -1 X -1 -1 d -1 Y -1 -1 d -1 X -1 -1 d -1 Y -1 -1 d -1 Y
 -1 -1 d -4 Y -1 -1 d -2 Y 1 -1 d -4 Y 1 -1 d -1 Y 1 -1 d -1 Y 1 X 1 -1 d 1 -1 d
 -1 Y 1 -1 d 1 X 1 -1 d 1 X 1 -1 d 2 X 1 -1 d 6 X 1 1 d 3 X 1 1 d 1 1 d 1 X 1 1
 d 1 1 d 1 X 1 Y 1 1 d 1 1 d 1 Y 1 1 d 1 Y 1 1 d 4 Y f 4 lw 2021 326 m 5 Y -1 1
 d 1 Y -1 1 d 1 Y -1 1 d -1 1 d 1 Y -1 1 d -1 X -1 1 d -1 X -1 1 d -1 1 d -1 X
 -2 1 d -7 X -1 -1 d -2 X -1 -1 d -1 X -1 -1 d -1 X -1 -1 d -1 Y -1 -1 d -1 X -1
 -1 d -1 Y -1 -1 d -1 Y -1 -1 d -4 Y -1 -1 d -2 Y 1 -1 d -4 Y 1 -1 d -1 Y 1 -1 d
 -1 Y 1 X 1 -1 d 1 -1 d -1 Y 1 -1 d 1 X 1 -1 d 1 X 1 -1 d 2 X 1 -1 d 6 X 1 1 d 3
 X 1 1 d 1 1 d 1 X 1 1 d 1 1 d 1 X 1 Y 1 1 d 1 1 d 1 Y 1 1 d 1 Y 1 1 d 5 Y cl s
 2004 326 m -17 X s 2004 326 m 17 X s 2004 322 m -13 Y s 2004 330 m 13 Y s 1 lw
 2028 321 m 3 Y -1 1 d 2 Y -1 1 d 1 Y -1 1 d 1 Y -1 1 d -1 X -1 1 d 1 Y -1 X -1
 1 d -1 1 d -2 X -1 1 d -2 X -1 1 d -3 X -1 -1 d -4 X -1 -1 d -1 X -1 -1 d -1 -1
 d -1 -1 d -1 X -1 -1 d -1 Y -1 -1 d -1 -1 d -1 Y -1 -1 d -2 Y -1 -1 d -7 Y 1 -1
 d -2 Y 1 -1 d -1 Y 1 -1 d 1 -1 d -1 Y 1 -1 d 1 X 1 -1 d 1 -1 d 1 -1 d 2 X 1 -1
 d 10 X 1 1 d 1 X 1 1 d 1 X 1 1 d 1 X 1 Y 1 1 d 1 1 d 1 1 d 1 1 d 1 Y 1 1 d 2 Y
 1 1 d 3 Y f 4 lw 2028 321 m 3 Y -1 1 d 2 Y -1 1 d 1 Y -1 1 d 1 Y -1 1 d -1 X -1
 1 d 1 Y -1 X -1 1 d -1 1 d -2 X -1 1 d -2 X -1 1 d -3 X -1 -1 d -4 X -1 -1 d -1
 X -1 -1 d -1 -1 d -1 -1 d -1 X -1 -1 d -1 Y -1 -1 d -1 -1 d -1 Y -1 -1 d -2 Y
 -1 -1 d -7 Y 1 -1 d -2 Y 1 -1 d -1 Y 1 -1 d 1 -1 d -1 Y 1 -1 d 1 X 1 -1 d 1 -1
 d 1 -1 d 2 X 1 -1 d 10 X 1 1 d 1 X 1 1 d 1 X 1 1 d 1 X 1 Y 1 1 d 1 1 d 1 1 d 1
 1 d 1 Y 1 1 d 2 Y 1 1 d 4 Y cl s 2011 321 m -17 X s 2011 321 m 17 X s 2011 316
 m -12 Y s 2011 325 m 13 Y s 1 lw 2033 338 m 3 Y -1 1 d 2 Y -1 1 d 1 Y -1 1 d 1
 Y -1 1 d -1 1 d -1 X 1 Y -1 1 d -1 X -1 1 d -1 X -1 1 d -2 X -1 1 d -7 X -1 -1
 d -2 X -1 -1 d -1 X -1 -1 d -1 Y -1 X -1 -1 d -1 -1 d -1 -1 d -1 -1 d -1 Y -1
 -1 d -1 Y -1 -1 d -10 Y 1 -1 d -1 Y 1 -1 d -1 Y 1 -1 d -1 Y 1 X 1 -1 d 1 -1 d 1
 -1 d 1 -1 d 1 X 1 -1 d 1 X 1 -1 d 9 X 1 1 d 2 X 1 1 d 1 X 1 1 d 1 1 d 1 1 d 1 1
 d 1 1 d 1 Y 1 1 d 1 Y 1 1 d 2 Y 1 1 d 2 Y f 4 lw 2033 338 m 3 Y -1 1 d 2 Y -1 1
 d 1 Y -1 1 d 1 Y -1 1 d -1 1 d -1 X 1 Y -1 1 d -1 X -1 1 d -1 X -1 1 d -2 X -1
 1 d -7 X -1 -1 d -2 X -1 -1 d -1 X -1 -1 d -1 Y -1 X -1 -1 d -1 -1 d -1 -1 d -1
 -1 d -1 Y -1 -1 d -1 Y -1 -1 d -10 Y 1 -1 d -1 Y 1 -1 d -1 Y 1 -1 d -1 Y 1 X 1
 -1 d 1 -1 d 1 -1 d 1 -1 d 1 X 1 -1 d 1 X 1 -1 d 9 X 1 1 d 2 X 1 1 d 1 X 1 1 d 1
 1 d 1 1 d 1 1 d 1 1 d 1 Y 1 1 d 1 Y 1 1 d 2 Y 1 1 d 3 Y cl s 2016 338 m -17 X s
 2016 338 m 17 X s 2016 332 m -11 Y s 2016 344 m 11 Y s 1 lw 2037 357 m 1 Y -1 1
 d 4 Y -1 1 d 1 Y -1 1 d 1 Y -1 X 1 Y -1 1 d -1 1 d -1 1 d -1 X 1 Y -1 X -1 1 d
 -1 X -1 1 d -10 X -1 -1 d -2 X -1 -1 d -1 -1 d -1 X -1 -1 d -1 Y -1 X -1 -1 d
 -1 Y -1 -1 d -1 -1 d -2 Y -1 -1 d -9 Y 1 -2 d -1 Y 1 -1 d 1 -1 d -1 Y 1 -1 d 1
 -1 d -1 Y 1 X 1 -1 d 1 X 1 -1 d 1 X 1 -1 d 2 X 1 -1 d 4 X 2 1 d 3 X 1 1 d 1 X 1
 1 d 1 1 d 1 1 d 1 1 d 1 X 1 Y 1 1 d 1 Y 1 1 d 1 Y 1 1 d 3 Y 1 1 d f 4 lw 2037
 357 m 1 Y -1 1 d 4 Y -1 1 d 1 Y -1 1 d 1 Y -1 X 1 Y -1 1 d -1 1 d -1 1 d -1 X 1
 Y -1 X -1 1 d -1 X -1 1 d -10 X -1 -1 d -2 X -1 -1 d -1 -1 d -1 X -1 -1 d -1 Y
 -1 X -1 -1 d -1 Y -1 -1 d -1 -1 d -2 Y -1 -1 d -9 Y 1 -2 d -1 Y 1 -1 d 1 -1 d
 -1 Y 1 -1 d 1 -1 d -1 Y 1 X 1 -1 d 1 X 1 -1 d 1 X 1 -1 d 2 X 1 -1 d 4 X 2 1 d 3
 X 1 1 d 1 X 1 1 d 1 1 d 1 1 d 1 1 d 1 X 1 Y 1 1 d 1 Y 1 1 d 1 Y 1 1 d 3 Y 1 1 d
 1 Y cl s 2020 357 m -17 X s 2020 357 m 17 X s 2020 351 m -11 Y s 2020 364 m 10
 Y s 6 lw 340 227 m 1701 X s 340 1927 m 1701 X s 340 227 m 1700 Y s 2041 227 m
 1700 Y s
 gr  gr 
showpage
end
%%EOF
