%!PS-Adobe-2.0 EPSF-2.0
%%BoundingBox: 0 0 553 581
%%Title: /nfs/k/bhep4/bellemgr/jorge/caltof/velocity/new/plo
%%Creator: HIGZ Version 1.26/04
%%CreationDate: 2000/09/05   17.12
%%EndComments
%%BeginProlog
80 dict begin
/s {stroke} def /l {lineto} def /m {moveto} def /t {translate} def
/sw {stringwidth} def /r {rotate} def /rl {roll}  def /R {repeat} def
/d {rlineto} def /rm {rmoveto} def /gr {grestore} def /f {eofill} def
/c {setrgbcolor} def /lw {setlinewidth} def /sd {setdash} def
/cl {closepath} def /sf {scalefont setfont} def /black {0 setgray} def
/box {m dup 0 exch d exch 0 d 0 exch neg d cl} def
/NC{systemdict begin initclip end}def/C{NC box clip newpath}def
/bl {box s} def /bf {box f} def /Y { 0 exch d} def /X { 0 d} def 
/mp {newpath /y exch def /x exch def} def
/side {[w .77 mul w .23 mul] .385 w mul sd w 0 l currentpoint t -144 r} def
/mr {mp x y w2 0 360 arc} def /m24 {mr s} def /m20 {mr f} def
/mb {mp x y w2 add m w2 neg 0 d 0 w neg d w 0 d 0 w d cl} def
/mt {mp x y w2 add m w2 neg w neg d w 0 d cl} def
/m21 {mb f} def /m25 {mb s} def /m22 {mt f} def /m26{mt s} def
/m23 {mp x y w2 sub m w2 w d w neg 0 d cl f} def
/m27 {mp x y w2 add m w3 neg w2 neg d w3 w2 neg d w3 w2 d cl s} def
/m28 {mp x w2 sub y w2 sub w3 add m w3 0 d 0 w3 neg d w3 0 d 0 w3 d w3 0 d
 0 w3 d w3 neg 0 d 0 w3 d w3 neg 0 d
 0 w3 neg d w3 neg 0 d cl s } def
/m29 {mp gsave x w2 sub y w2 add w3 sub m currentpoint t
 4 {side} repeat cl fill gr} def
/m30 {mp gsave x w2 sub y w2 add w3 sub m currentpoint t
 5 {side} repeat s gr} def
/m31 {mp x y w2 sub m 0 w d x w2 sub y m w 0 d
 x w2 sub y w2 add m w w neg d x w2 sub y w2
 sub m w w d s} def
/m2 {mp x y w2 sub m 0 w d x w2 sub y m w 0 d s} def
/m5 {mp x w2 sub y w2 sub m w w d x w2 sub y w2 add m w w neg d s} def
/reencdict 24 dict def /ReEncode {reencdict begin /nco&na exch def
/nfnam exch def /basefontname exch def /basefontdict basefontname findfont def
/newfont basefontdict maxlength dict def basefontdict {exch dup /FID ne
{dup /Encoding eq {exch dup length array copy newfont 3 1 roll put} {exch
newfont 3 1 roll put} ifelse} {pop pop} ifelse } forall newfont
/FontName nfnam put nco&na aload pop nco&na length 2 idiv {newfont
/Encoding get 3 1 roll put} repeat nfnam newfont definefont pop end } def
/accvec [ 176 /agrave 181 /Agrave 190 /acircumflex 192 /Acircumflex
201 /adieresis 204 /Adieresis 209 /ccedilla 210 /Ccedilla 211 /eacute
212 /Eacute 213 /egrave 214 /Egrave 215 /ecircumflex 216 /Ecircumflex
217 /edieresis 218 /Edieresis 219 /icircumflex 220 /Icircumflex
221 /idieresis 222 /Idieresis 223 /ntilde 224 /Ntilde 226 /ocircumflex
228 /Ocircumflex 229 /odieresis 230 /Odieresis 231 /ucircumflex 236 /Ucircumflex
237 /udieresis 238 /Udieresis 239 /aring 242 /Aring 243 /ydieresis
244 /Ydieresis 246 /aacute 247 /Aacute 252 /ugrave 253 /Ugrave] def
/Times-Roman /Times-Roman accvec ReEncode
/Times-Italic /Times-Italic accvec ReEncode
/Times-Bold /Times-Bold accvec ReEncode
/Times-BoldItalic /Times-BoldItalic accvec ReEncode
/Helvetica /Helvetica accvec ReEncode
/Helvetica-Oblique /Helvetica-Oblique accvec ReEncode
/Helvetica-Bold /Helvetica-Bold accvec ReEncode
/Helvetica-BoldOblique /Helvetica-BoldOblique  accvec ReEncode
/Courier /Courier accvec ReEncode
/Courier-Oblique /Courier-Oblique accvec ReEncode
/Courier-Bold /Courier-Bold accvec ReEncode
/Courier-BoldOblique /Courier-BoldOblique accvec ReEncode
/oshow {gsave [] 0 sd true charpath stroke gr} def
/stwn { /fs exch def /fn exch def /text exch def fn findfont fs sf
 text sw pop xs add /xs exch def} def
/stwb { /fs exch def /fn exch def /nbas exch def /textf exch def
textf length /tlen exch def nbas tlen gt {/nbas tlendef} if
fn findfont fs sf textf dup length nbas sub nbas getinterval sw
pop neg xs add /xs exch def} def
/accspe [ 65 /plusminus 66 /bar 67 /existential 68 /universal
69 /exclam 70 /numbersign 71 /greater 72 /question 73 /integral
74 /colon 75 /semicolon 76 /less 77 /bracketleft 78 /bracketright
79 /greaterequal 80 /braceleft 81 /braceright 82 /radical
83 /spade 84 /heart 85 /diamond 86 /club 87 /lessequal
88 /multiply 89 /percent 90 /infinity 48 /circlemultiply 49 /circleplus
50 /emptyset 51 /lozenge 52 /bullet 53 /arrowright 54 /arrowup
55 /arrowleft 56 /arrowdown 57 /arrowboth 48 /degree 44 /comma 43 /plus
 45 /angle 42 /angleleft 47 /divide 61 /notequal 40 /equivalence 41 /second
 97 /approxequal 98 /congruent 99 /perpendicular 100 /partialdiff 101 /florin
 102 /intersection 103 /union 104 /propersuperset 105 /reflexsuperset
 106 /notsubset 107 /propersubset 108 /reflexsubset 109 /element 110 /notelement
 111 /gradient 112 /logicaland 113 /logicalor 114 /arrowdblboth
 115 /arrowdblleft 116 /arrowdblup 117 /arrowdblright 118 /arrowdbldown
 119 /ampersand 120 /omega1 121 /similar 122 /aleph ] def
/Symbol /Special accspe ReEncode
%%EndProlog
 gsave  .25 .25 scale  gsave 0 0 t black [] 0 sd 1 lw 2211 2324 0 0 C 4 lw 918
 573 m 34 Y 34 X -34 Y -34 X cl s 1 lw 918 573 m 34 Y 34 X -34 Y -34 X f 4 lw
 935 590 m -17 X s 935 590 m 17 X s 935 533 m 40 Y s 935 648 m -41 Y s 1088 577
 m 34 Y 34 X -34 Y -34 X cl s 1 lw 1088 577 m 34 Y 34 X -34 Y -34 X f 4 lw 1105
 594 m -17 X s 1105 594 m 17 X s 1105 548 m 29 Y s 1105 640 m -29 Y s 1258 660 m
 34 Y 34 X -34 Y -34 X cl s 1 lw 1258 660 m 34 Y 34 X -34 Y -34 X f 4 lw 1275
 677 m -17 X s 1275 677 m 17 X s 1275 644 m 16 Y s 1275 711 m -17 Y s 1428 670 m
 34 Y 34 X -34 Y -34 X cl s 1 lw 1428 670 m 34 Y 34 X -34 Y -34 X f 4 lw 1445
 687 m -17 X s 1445 687 m 17 X s 1445 655 m 15 Y s 1445 719 m -15 Y s 1598 644 m
 34 Y 34 X -34 Y -34 X cl s 1 lw 1598 644 m 34 Y 34 X -34 Y -34 X f 4 lw 1615
 661 m -17 X s 1615 661 m 17 X s 1615 622 m 22 Y s 1615 700 m -22 Y s 1769 733 m
 34 Y 34 X -34 Y -34 X cl s 1 lw 1769 733 m 34 Y 34 X -34 Y -34 X f 4 lw 1786
 750 m -17 X s 1786 750 m 17 X s 1786 708 m 25 Y s 1786 792 m -25 Y s 1939 602 m
 34 Y 34 X -34 Y -34 X cl s 1 lw 1939 602 m 34 Y 34 X -34 Y -34 X f 4 lw 1956
 619 m -17 X s 1956 619 m 17 X s 1956 572 m 30 Y s 1956 667 m -31 Y s 340 652 m
 1701 X s 340 272 m -45 Y s
 /xs 0 def 
(0.30)
 /Helvetica     62 stwn 
 gsave  340 136
 t   0 r  xs 2 div neg 0 t 0 0 m
 /Helvetica findfont   62 sf 0    0 m 
(0.30)
 show 
 gr  425 249 m -22 Y s 510 249 m -22 Y s 595 249 m -22 Y s 680 249 m -22 Y s 765
 272 m -45 Y s
 /xs 0 def 
(0.55)
 /Helvetica     62 stwn 
 gsave  765 136
 t   0 r  xs 2 div neg 0 t 0 0 m
 /Helvetica findfont   62 sf 0    0 m 
(0.55)
 show 
 gr  850 249 m -22 Y s 935 249 m -22 Y s 1020 249 m -22 Y s 1105 249 m -22 Y s
 1190 272 m -45 Y s
 /xs 0 def 
(0.80)
 /Helvetica     62 stwn 
 gsave  1190 136
 t   0 r  xs 2 div neg 0 t 0 0 m
 /Helvetica findfont   62 sf 0    0 m 
(0.80)
 show 
 gr  1275 249 m -22 Y s 1360 249 m -22 Y s 1445 249 m -22 Y s 1530 249 m -22 Y s
 1615 272 m -45 Y s
 /xs 0 def 
(1.05)
 /Helvetica     62 stwn 
 gsave  1615 136
 t   0 r  xs 2 div neg 0 t 0 0 m
 /Helvetica findfont   62 sf 0    0 m 
(1.05)
 show 
 gr  1700 249 m -22 Y s 1786 249 m -22 Y s 1871 249 m -22 Y s 1956 249 m -22 Y s
 2041 272 m -45 Y s
 /xs 0 def 
(1.30)
 /Helvetica     62 stwn 
 gsave  2041 136
 t   0 r  xs 2 div neg 0 t 0 0 m
 /Helvetica findfont   62 sf 0    0 m 
(1.30)
 show 
 gr 
 /xs 0 def 
(Track Momenta \(GeV/c\))
 /Helvetica     62 stwn 
 gsave  1644 57
 t   0 r  xs 2 div neg 0 t 0 0 m
 /Helvetica findfont   62 sf 0    0 m 
(Track Momenta \(GeV/c\))
 show 
 gr  340 1882 m 45 Y s 425 1905 m 22 Y s 510 1905 m 22 Y s 595 1905 m 22 Y s 680
 1905 m 22 Y s 765 1882 m 45 Y s 850 1905 m 22 Y s 935 1905 m 22 Y s 1020 1905 m
 22 Y s 1105 1905 m 22 Y s 1190 1882 m 45 Y s 1275 1905 m 22 Y s 1360 1905 m 22
 Y s 1445 1905 m 22 Y s 1530 1905 m 22 Y s 1615 1882 m 45 Y s 1700 1905 m 22 Y s
 1786 1905 m 22 Y s 1871 1905 m 22 Y s 1956 1905 m 22 Y s 2041 1882 m 45 Y s 385
 227 m -45 X s
 /xs 0 def 
(-0.10)
 /Helvetica     62 stwn 
 gsave  317 204
 t   0 r  xs neg 0 t 0 0 m
 /Helvetica findfont   62 sf 0    0 m 
(-0.10)
 show 
 gr  363 312 m -23 X s 363 397 m -23 X s 363 482 m -23 X s 363 567 m -23 X s 385
 652 m -45 X s
 /xs 0 def 
(0.00)
 /Helvetica     62 stwn 
 gsave  317 629
 t   0 r  xs neg 0 t 0 0 m
 /Helvetica findfont   62 sf 0    0 m 
(0.00)
 show 
 gr  363 737 m -23 X s 363 822 m -23 X s 363 907 m -23 X s 363 992 m -23 X s 385
 1077 m -45 X s
 /xs 0 def 
(0.10)
 /Helvetica     62 stwn 
 gsave  317 1054
 t   0 r  xs neg 0 t 0 0 m
 /Helvetica findfont   62 sf 0    0 m 
(0.10)
 show 
 gr  363 1162 m -23 X s 363 1247 m -23 X s 363 1332 m -23 X s 363 1417 m -23 X s
 385 1502 m -45 X s
 /xs 0 def 
(0.20)
 /Helvetica     62 stwn 
 gsave  317 1479
 t   0 r  xs neg 0 t 0 0 m
 /Helvetica findfont   62 sf 0    0 m 
(0.20)
 show 
 gr  363 1587 m -23 X s 363 1672 m -23 X s 363 1757 m -23 X s 363 1842 m -23 X s
 385 1927 m -45 X s
 /xs 0 def 
(0.30)
 /Helvetica     62 stwn 
 gsave  317 1905
 t   0 r  xs neg 0 t 0 0 m
 /Helvetica findfont   62 sf 0    0 m 
(0.30)
 show 
 gr 
 /xs 0 def 
(D)
 /Symbol     62 stwn 
(t \(ns\))
 /Helvetica     62 stwn 
 gsave  113 1077
 t  90 r  xs 2 div neg 0 t 0 0 m
 /Symbol findfont   62 sf 0    0 m 
(D)
 show 
 currentpoint pop 0 t 
 /Helvetica findfont   62 sf 0    0 m 
(t \(ns\))
 show 
 gr  1995 227 m 46 X s 2018 312 m 23 X s 2018 397 m 23 X s 2018 482 m 23 X s
 2018 567 m 23 X s 1995 652 m 46 X s 2018 737 m 23 X s 2018 822 m 23 X s 2018
 907 m 23 X s 2018 992 m 23 X s 1995 1077 m 46 X s 2018 1162 m 23 X s 2018 1247
 m 23 X s 2018 1332 m 23 X s 2018 1417 m 23 X s 1995 1502 m 46 X s 2018 1587 m
 23 X s 2018 1672 m 23 X s 2018 1757 m 23 X s 2018 1842 m 23 X s 1995 1927 m 46
 X s 6 lw 340 227 m 1701 X s 340 1927 m 1701 X s 340 227 m 1700 Y s 2041 227 m
 1700 Y s 4 lw 1451 1678 m 45 Y 45 X -45 Y -45 X cl s 1 lw 1451 1678 m 45 Y 45 X
 -45 Y -45 X f
 gsave  1564 1678
 t   0 r 0 0 m
 /Helvetica findfont   62 sf 0    0 m 
(Protons)
 show 
 gr  4 lw 1451 1564 m 23 46 d 22 -46 d -45 X cl s 1 lw 1451 1564 m 23 46 d 22
 -46 d -45 X f
 gsave  1564 1564
 t   0 r 0 0 m
 /Helvetica findfont   62 sf 0    0 m 
(Kaons)
 show 
 gr  1496 1474 m 5 Y -1 2 d 1 Y -1 2 d 1 Y -1 1 d -1 1 d -1 1 d -1 1 d -1 1 d -1
 1 d -1 1 d -1 1 d -2 1 d -1 X -1 1 d -2 X -1 1 d -11 X -2 -1 d -1 X -1 -1 d -2
 -1 d -1 X -1 -1 d -1 -1 d -1 -1 d -1 -1 d -1 -1 d -1 -1 d -1 -2 d -1 Y -1 -1 d
 -1 -1 d -3 Y -1 -2 d -7 Y 1 -1 d -3 Y 1 -1 d 1 -2 d -1 Y 1 -1 d 1 -1 d 1 -1 d 1
 -1 d 1 -1 d 1 -1 d 1 -1 d 1 -1 d 2 -1 d 1 X 1 -1 d 3 X 2 -1 d 7 X 1 1 d 1 X 2 1
 d 1 X 1 1 d 2 X 1 1 d 1 1 d 1 1 d 1 1 d 1 1 d 1 1 d 1 1 d 1 2 d 1 Y 1 1 d 2 Y 1
 1 d 4 Y f 4 lw 1496 1474 m 5 Y -1 2 d 1 Y -1 2 d 1 Y -1 1 d -1 1 d -1 1 d -1 1
 d -1 1 d -1 1 d -1 1 d -1 1 d -2 1 d -1 X -1 1 d -2 X -1 1 d -11 X -2 -1 d -1 X
 -1 -1 d -2 -1 d -1 X -1 -1 d -1 -1 d -1 -1 d -1 -1 d -1 -1 d -1 -1 d -1 -2 d -1
 Y -1 -1 d -1 -1 d -3 Y -1 -2 d -7 Y 1 -1 d -3 Y 1 -1 d 1 -2 d -1 Y 1 -1 d 1 -1
 d 1 -1 d 1 -1 d 1 -1 d 1 -1 d 1 -1 d 1 -1 d 2 -1 d 1 X 1 -1 d 3 X 2 -1 d 7 X 1
 1 d 1 X 2 1 d 1 X 1 1 d 2 X 1 1 d 1 1 d 1 1 d 1 1 d 1 1 d 1 1 d 1 1 d 1 2 d 1 Y
 1 1 d 2 Y 1 1 d 6 Y cl s
 gsave  1564 1451
 t   0 r 0 0 m
 /Helvetica findfont   62 sf 0    0 m 
(Pions)
 show 
 gr  408 741 m 17 34 d 17 -34 d -34 X cl s 1 lw 408 741 m 17 34 d 17 -34 d -34 X
 f 4 lw 425 758 m -8 X s 425 758 m 9 X s 425 669 m 72 Y s 425 848 m -73 Y s 578
 706 m 17 34 d 17 -34 d -34 X cl s 1 lw 578 706 m 17 34 d 17 -34 d -34 X f 4 lw
 595 723 m -8 X s 595 723 m 9 X s 595 696 m 10 Y s 595 750 m -10 Y s 748 596 m
 17 34 d 17 -34 d -34 X cl s 1 lw 748 596 m 17 34 d 17 -34 d -34 X f 4 lw 765
 613 m -8 X s 765 613 m 9 X s 765 594 m 2 Y s 765 632 m -2 Y s 918 604 m 17 34 d
 17 -34 d -34 X cl s 1 lw 918 604 m 17 34 d 17 -34 d -34 X f 4 lw 935 621 m -8 X
 s 935 621 m 9 X s 935 588 m 16 Y s 935 653 m -15 Y s 1088 602 m 17 34 d 17 -34
 d -34 X cl s 1 lw 1088 602 m 17 34 d 17 -34 d -34 X f 4 lw 1105 619 m -8 X s
 1105 619 m 9 X s 1105 594 m 8 Y s 1105 644 m -8 Y s 1258 544 m 17 34 d 17 -34 d
 -34 X cl s 1 lw 1258 544 m 17 34 d 17 -34 d -34 X f 4 lw 1275 561 m -8 X s 1275
 561 m 9 X s 1275 532 m 12 Y s 1275 590 m -12 Y s 1428 635 m 17 34 d 17 -34 d
 -34 X cl s 1 lw 1428 635 m 17 34 d 17 -34 d -34 X f 4 lw 1445 652 m -8 X s 1445
 652 m 9 X s 1445 612 m 23 Y s 1445 692 m -23 Y s 1598 449 m 17 34 d 17 -34 d
 -34 X cl s 1 lw 1598 449 m 17 34 d 17 -34 d -34 X f 4 lw 1615 466 m -8 X s 1615
 466 m 9 X s 1615 422 m 27 Y s 1615 511 m -28 Y s 1769 623 m 17 34 d 17 -34 d
 -34 X cl s 1 lw 1769 623 m 17 34 d 17 -34 d -34 X f 4 lw 1786 640 m -9 X s 1786
 640 m 8 X s 1786 604 m 19 Y s 1786 676 m -19 Y s 1939 658 m 17 34 d 17 -34 d
 -34 X cl s 1 lw 1939 658 m 17 34 d 17 -34 d -34 X f 4 lw 1956 675 m -9 X s 1956
 675 m 8 X s 1956 641 m 17 Y s 1956 709 m -17 Y s 6 lw 340 227 m 1701 X s 340
 1927 m 1701 X s 340 227 m 1700 Y s 2041 227 m 1700 Y s 1 lw 442 790 m 4 Y -1 1
 d 1 Y -1 1 d 1 Y -1 1 d 1 Y -1 1 d -1 1 d -1 1 d -1 1 d -1 X -1 1 d -1 X -1 1 d
 -2 X -1 1 d -6 X -1 -1 d -2 X -1 -1 d -1 X -1 -1 d -1 -1 d -1 X -1 -1 d -1 -1 d
 -1 Y -1 X -1 Y -1 -1 d -1 Y -1 -1 d -2 Y -1 -1 d -6 Y 1 -1 d -2 Y 1 -1 d -1 Y 1
 -1 d -1 Y 1 -1 d 1 -1 d 1 -1 d 1 -1 d 1 X 1 -1 d 1 X 1 -1 d 2 X 1 -1 d 7 X 1 1
 d 2 X 1 1 d 1 X 1 1 d 1 1 d 1 X 1 Y 1 1 d 1 1 d 1 Y 1 1 d 1 Y 1 1 d 1 Y 1 1 d 3
 Y f 4 lw 442 790 m 4 Y -1 1 d 1 Y -1 1 d 1 Y -1 1 d 1 Y -1 1 d -1 1 d -1 1 d -1
 1 d -1 X -1 1 d -1 X -1 1 d -2 X -1 1 d -6 X -1 -1 d -2 X -1 -1 d -1 X -1 -1 d
 -1 -1 d -1 X -1 -1 d -1 -1 d -1 Y -1 X -1 Y -1 -1 d -1 Y -1 -1 d -2 Y -1 -1 d
 -6 Y 1 -1 d -2 Y 1 -1 d -1 Y 1 -1 d -1 Y 1 -1 d 1 -1 d 1 -1 d 1 -1 d 1 X 1 -1 d
 1 X 1 -1 d 2 X 1 -1 d 7 X 1 1 d 2 X 1 1 d 1 X 1 1 d 1 1 d 1 X 1 Y 1 1 d 1 1 d 1
 Y 1 1 d 1 Y 1 1 d 1 Y 1 1 d 4 Y cl s 425 790 m -17 X s 425 790 m 17 X s 425 782
 m -9 Y s 425 798 m 9 Y s 1 lw 612 669 m 4 Y -1 1 d 2 Y -1 1 d -1 1 d 1 Y -1 1 d
 -1 X 1 Y -1 1 d -1 1 d -1 X -1 1 d -1 X -1 1 d -3 X -1 1 d -4 X -1 -1 d -2 X -1
 -1 d -1 X -1 -1 d -1 X -1 -1 d -1 X -1 -1 d -1 -1 d -1 Y -1 -1 d -1 Y -1 -1 d
 -1 -1 d -3 Y -1 -1 d -5 Y 1 -1 d -2 Y 1 -1 d -1 Y 1 -1 d -1 Y 1 -1 d -1 Y 1 X 1
 -1 d 1 -1 d 1 X 1 -1 d 1 -1 d 2 X 1 -1 d 9 X 1 1 d 1 X 1 1 d 1 X 1 1 d 1 1 d 1
 X 1 Y 1 1 d 1 1 d 1 Y 1 X 1 1 d 2 Y 1 1 d 4 Y f 4 lw 612 669 m 4 Y -1 1 d 2 Y
 -1 1 d -1 1 d 1 Y -1 1 d -1 X 1 Y -1 1 d -1 1 d -1 X -1 1 d -1 X -1 1 d -3 X -1
 1 d -4 X -1 -1 d -2 X -1 -1 d -1 X -1 -1 d -1 X -1 -1 d -1 X -1 -1 d -1 -1 d -1
 Y -1 -1 d -1 Y -1 -1 d -1 -1 d -3 Y -1 -1 d -5 Y 1 -1 d -2 Y 1 -1 d -1 Y 1 -1 d
 -1 Y 1 -1 d -1 Y 1 X 1 -1 d 1 -1 d 1 X 1 -1 d 1 -1 d 2 X 1 -1 d 9 X 1 1 d 1 X 1
 1 d 1 X 1 1 d 1 1 d 1 X 1 Y 1 1 d 1 1 d 1 Y 1 X 1 1 d 2 Y 1 1 d 5 Y cl s 595
 669 m -17 X s 595 669 m 17 X s 595 662 m -10 Y s 595 675 m 11 Y s 1 lw 782 648
 m 4 Y -1 1 d 2 Y -1 1 d 1 Y -1 1 d -1 1 d 1 Y -1 X -1 1 d -1 1 d -1 X -1 1 d -1
 X -1 1 d -2 X -1 1 d -6 X -1 -1 d -2 X -1 -1 d -1 X -1 -1 d -1 -1 d -1 X -1 -1
 d -1 Y -1 -1 d -1 X -1 Y -1 -1 d -1 Y -1 -1 d -2 Y -1 -1 d -6 Y 1 -1 d -2 Y 1
 -1 d -1 Y 1 -1 d -1 Y 1 -1 d 1 X -1 Y 1 -1 d 1 -1 d 1 X 1 -1 d 1 X 1 -1 d 1 X 1
 -1 d 8 X 1 1 d 2 X 1 1 d 1 X 1 1 d 1 1 d 1 X 1 1 d 1 Y 1 1 d 1 1 d 1 Y 1 1 d 2
 Y 1 1 d 3 Y f 4 lw 782 648 m 4 Y -1 1 d 2 Y -1 1 d 1 Y -1 1 d -1 1 d 1 Y -1 X
 -1 1 d -1 1 d -1 X -1 1 d -1 X -1 1 d -2 X -1 1 d -6 X -1 -1 d -2 X -1 -1 d -1
 X -1 -1 d -1 -1 d -1 X -1 -1 d -1 Y -1 -1 d -1 X -1 Y -1 -1 d -1 Y -1 -1 d -2 Y
 -1 -1 d -6 Y 1 -1 d -2 Y 1 -1 d -1 Y 1 -1 d -1 Y 1 -1 d 1 X -1 Y 1 -1 d 1 -1 d
 1 X 1 -1 d 1 X 1 -1 d 1 X 1 -1 d 8 X 1 1 d 2 X 1 1 d 1 X 1 1 d 1 1 d 1 X 1 1 d
 1 Y 1 1 d 1 1 d 1 Y 1 1 d 2 Y 1 1 d 4 Y cl s 765 648 m -17 X s 765 648 m 17 X s
 765 641 m -10 Y s 765 654 m 11 Y s 1 lw 952 630 m 4 Y -1 1 d 2 Y -1 1 d 1 Y -1
 1 d -1 1 d 1 Y -1 X -1 1 d -1 1 d -1 X -1 1 d -1 X -1 1 d -2 X -1 1 d -5 X -1
 -1 d -3 X -1 -1 d -1 X -1 -1 d -1 -1 d -1 X -1 -1 d -1 Y -1 -1 d -1 -1 d -1 -1
 d -1 Y -1 -1 d -2 Y -1 -1 d -6 Y 1 -1 d -2 Y 1 -1 d -1 Y 1 -1 d -1 Y 1 -1 d 1
 -1 d 1 -1 d 1 -1 d 1 X 1 -1 d 1 X 1 -1 d 1 X 1 -1 d 8 X 1 1 d 2 X 1 1 d 1 X 1 1
 d 1 1 d 1 X 1 1 d 1 Y 1 1 d 1 1 d 1 Y 1 1 d 2 Y 1 1 d 3 Y f 4 lw 952 630 m 4 Y
 -1 1 d 2 Y -1 1 d 1 Y -1 1 d -1 1 d 1 Y -1 X -1 1 d -1 1 d -1 X -1 1 d -1 X -1
 1 d -2 X -1 1 d -5 X -1 -1 d -3 X -1 -1 d -1 X -1 -1 d -1 -1 d -1 X -1 -1 d -1
 Y -1 -1 d -1 -1 d -1 -1 d -1 Y -1 -1 d -2 Y -1 -1 d -6 Y 1 -1 d -2 Y 1 -1 d -1
 Y 1 -1 d -1 Y 1 -1 d 1 -1 d 1 -1 d 1 -1 d 1 X 1 -1 d 1 X 1 -1 d 1 X 1 -1 d 8 X
 1 1 d 2 X 1 1 d 1 X 1 1 d 1 1 d 1 X 1 1 d 1 Y 1 1 d 1 1 d 1 Y 1 1 d 2 Y 1 1 d 4
 Y cl s 935 630 m -17 X s 935 630 m 17 X s 935 623 m -10 Y s 935 637 m 10 Y s 1
 lw 1122 629 m 5 Y -1 1 d 2 Y -1 1 d 1 Y -1 X -1 1 d 1 Y -1 1 d -1 1 d -1 X -1 1
 d -1 X -1 1 d -1 X -1 1 d -9 X -1 -1 d -2 X -1 -1 d -1 X -1 -1 d -1 -1 d -1 -1
 d -1 -1 d -1 -1 d -1 Y -1 -1 d -1 Y -1 -1 d -3 Y -1 -1 d -3 Y 1 -1 d -3 Y 1 -1
 d -1 Y 1 -1 d -1 Y 1 -1 d 1 -1 d -1 Y 1 -1 d 1 X 1 -1 d 1 X 1 -1 d 1 X 1 -1 d 3
 X 1 -1 d 3 X 1 1 d 3 X 1 1 d 1 X 1 1 d 1 X 1 1 d 1 1 d 1 1 d 1 1 d 1 1 d 1 Y 1
 1 d 2 Y 1 1 d 3 Y f 4 lw 1122 629 m 5 Y -1 1 d 2 Y -1 1 d 1 Y -1 X -1 1 d 1 Y
 -1 1 d -1 1 d -1 X -1 1 d -1 X -1 1 d -1 X -1 1 d -9 X -1 -1 d -2 X -1 -1 d -1
 X -1 -1 d -1 -1 d -1 -1 d -1 -1 d -1 -1 d -1 Y -1 -1 d -1 Y -1 -1 d -3 Y -1 -1
 d -3 Y 1 -1 d -3 Y 1 -1 d -1 Y 1 -1 d -1 Y 1 -1 d 1 -1 d -1 Y 1 -1 d 1 X 1 -1 d
 1 X 1 -1 d 1 X 1 -1 d 3 X 1 -1 d 3 X 1 1 d 3 X 1 1 d 1 X 1 1 d 1 X 1 1 d 1 1 d
 1 1 d 1 1 d 1 1 d 1 Y 1 1 d 2 Y 1 1 d 4 Y cl s 1105 629 m -17 X s 1105 629 m 17
 X s 1105 621 m -9 Y s 1105 638 m 8 Y s 1 lw 1292 623 m 5 Y -1 1 d 1 Y -1 1 d 1
 Y -1 1 d -1 1 d 1 Y -1 1 d -1 X -1 1 d -1 1 d -1 X -1 1 d -2 X -1 1 d -8 X -1
 -1 d -1 X -1 -1 d -1 X -1 -1 d -1 X -1 -1 d -1 -1 d -1 Y -1 X -1 -1 d -1 Y -1
 -1 d -1 Y -1 -1 d -3 Y -1 -1 d -3 Y 1 -2 d -3 Y 1 -1 d -1 Y 1 -1 d 1 -1 d 1 -1
 d -1 Y 1 -1 d 1 X 1 -1 d 1 -1 d 1 X 1 -1 d 3 X 1 -1 d 5 X 1 1 d 2 X 1 1 d 1 X 1
 1 d 1 X 1 1 d 1 1 d 1 X 1 Y 1 1 d 1 1 d 1 Y 1 1 d 1 Y 1 1 d 4 Y f 4 lw 1292 623
 m 5 Y -1 1 d 1 Y -1 1 d 1 Y -1 1 d -1 1 d 1 Y -1 1 d -1 X -1 1 d -1 1 d -1 X -1
 1 d -2 X -1 1 d -8 X -1 -1 d -1 X -1 -1 d -1 X -1 -1 d -1 X -1 -1 d -1 -1 d -1
 Y -1 X -1 -1 d -1 Y -1 -1 d -1 Y -1 -1 d -3 Y -1 -1 d -3 Y 1 -2 d -3 Y 1 -1 d
 -1 Y 1 -1 d 1 -1 d 1 -1 d -1 Y 1 -1 d 1 X 1 -1 d 1 -1 d 1 X 1 -1 d 3 X 1 -1 d 5
 X 1 1 d 2 X 1 1 d 1 X 1 1 d 1 X 1 1 d 1 1 d 1 X 1 Y 1 1 d 1 1 d 1 Y 1 1 d 1 Y 1
 1 d 5 Y cl s 1275 623 m -17 X s 1275 623 m 17 X s 1275 614 m -8 Y s 1275 632 m
 8 Y s 1 lw 1462 623 m 5 Y -1 1 d 1 Y -1 1 d 1 Y -1 1 d -1 1 d 1 Y -1 1 d -1 X
 -1 1 d -1 1 d -1 X -1 1 d -2 X -1 1 d -8 X -1 -1 d -1 X -1 -1 d -1 X -1 -1 d -1
 X -1 -1 d -1 -1 d -1 Y -1 X -1 -1 d -1 Y -1 -1 d -1 Y -1 -1 d -3 Y -1 -1 d -4 Y
 1 -1 d -3 Y 1 -1 d -1 Y 1 -1 d -1 Y 1 X 1 -1 d -1 Y 1 -1 d 1 X 1 -1 d 1 -1 d 1
 X 1 -1 d 2 X 1 -1 d 6 X 1 1 d 2 X 1 1 d 1 X 1 1 d 1 X 1 1 d 1 1 d 1 X 1 Y 1 1 d
 1 1 d 1 Y 1 1 d 1 Y 1 1 d 4 Y f 4 lw 1462 623 m 5 Y -1 1 d 1 Y -1 1 d 1 Y -1 1
 d -1 1 d 1 Y -1 1 d -1 X -1 1 d -1 1 d -1 X -1 1 d -2 X -1 1 d -8 X -1 -1 d -1
 X -1 -1 d -1 X -1 -1 d -1 X -1 -1 d -1 -1 d -1 Y -1 X -1 -1 d -1 Y -1 -1 d -1 Y
 -1 -1 d -3 Y -1 -1 d -4 Y 1 -1 d -3 Y 1 -1 d -1 Y 1 -1 d -1 Y 1 X 1 -1 d -1 Y 1
 -1 d 1 X 1 -1 d 1 -1 d 1 X 1 -1 d 2 X 1 -1 d 6 X 1 1 d 2 X 1 1 d 1 X 1 1 d 1 X
 1 1 d 1 1 d 1 X 1 Y 1 1 d 1 1 d 1 Y 1 1 d 1 Y 1 1 d 5 Y cl s 1445 623 m -17 X s
 1445 623 m 17 X s 1445 613 m -7 Y s 1445 633 m 7 Y s 1 lw 1632 652 m 5 Y -1 1 d
 1 Y -1 1 d 1 Y -1 1 d -1 1 d -1 1 d -1 1 d -1 1 d -1 X -1 1 d -1 1 d -4 X -1 1
 d -4 X -1 -1 d -2 X -1 -1 d -1 X -1 -1 d -1 X -1 -1 d -1 X -1 Y -1 -1 d -1 -1 d
 -1 -1 d -1 Y -1 -1 d -1 -1 d -5 Y -1 -1 d -1 Y 1 -1 d -4 Y 1 -1 d -1 Y 1 -1 d
 -1 Y 1 -1 d 1 -1 d 1 X -1 Y 1 -1 d 1 X 1 -1 d 1 -1 d 2 X 1 -1 d 10 X 1 1 d 1 X
 1 Y 1 X 1 1 d 1 X 1 1 d 1 1 d 1 Y 1 1 d 1 X 1 Y 1 1 d 1 Y 1 1 d 5 Y f 4 lw 1632
 652 m 5 Y -1 1 d 1 Y -1 1 d 1 Y -1 1 d -1 1 d -1 1 d -1 1 d -1 1 d -1 X -1 1 d
 -1 1 d -4 X -1 1 d -4 X -1 -1 d -2 X -1 -1 d -1 X -1 -1 d -1 X -1 -1 d -1 X -1
 Y -1 -1 d -1 -1 d -1 -1 d -1 Y -1 -1 d -1 -1 d -5 Y -1 -1 d -1 Y 1 -1 d -4 Y 1
 -1 d -1 Y 1 -1 d -1 Y 1 -1 d 1 -1 d 1 X -1 Y 1 -1 d 1 X 1 -1 d 1 -1 d 2 X 1 -1
 d 10 X 1 1 d 1 X 1 Y 1 X 1 1 d 1 X 1 1 d 1 1 d 1 Y 1 1 d 1 X 1 Y 1 1 d 1 Y 1 1
 d 6 Y cl s 1615 652 m -17 X s 1615 652 m 17 X s 1615 639 m -4 Y s 1615 664 m 5
 Y s 1 lw 1803 625 m -1 1 d 5 Y -1 1 d 1 Y -1 1 d 1 Y -1 X 1 Y -1 1 d -1 1 d -1
 1 d -1 X -1 1 d -1 1 d -1 X -1 1 d -10 X -1 -1 d -2 X -1 -1 d -1 X -1 -1 d -1
 -1 d -1 Y -1 X -1 -1 d -1 Y -1 -1 d -1 -1 d -2 Y -1 -1 d -9 Y 1 -1 d -2 Y 1 -1
 d 1 -1 d -1 Y 1 -1 d 1 -1 d 1 -1 d 1 -1 d 1 X 1 -1 d 1 X 1 -1 d 3 X 1 -1 d 3 X
 1 1 d 4 X 1 1 d 1 X 1 Y 1 1 d 1 X 1 1 d 1 1 d 1 X 1 Y 1 1 d 1 Y 1 1 d 1 Y 1 1 d
 4 Y f 4 lw 1803 625 m -1 1 d 5 Y -1 1 d 1 Y -1 1 d 1 Y -1 X 1 Y -1 1 d -1 1 d
 -1 1 d -1 X -1 1 d -1 1 d -1 X -1 1 d -10 X -1 -1 d -2 X -1 -1 d -1 X -1 -1 d
 -1 -1 d -1 Y -1 X -1 -1 d -1 Y -1 -1 d -1 -1 d -2 Y -1 -1 d -9 Y 1 -1 d -2 Y 1
 -1 d 1 -1 d -1 Y 1 -1 d 1 -1 d 1 -1 d 1 -1 d 1 X 1 -1 d 1 X 1 -1 d 3 X 1 -1 d 3
 X 1 1 d 4 X 1 1 d 1 X 1 Y 1 1 d 1 X 1 1 d 1 1 d 1 X 1 Y 1 1 d 1 Y 1 1 d 1 Y 1 1
 d 4 Y 1 1 d cl s 1786 625 m -17 X s 1786 625 m 17 X s 1786 611 m -3 Y s 1786
 640 m 2 Y s 1 lw 1973 664 m 1 Y -1 1 d 4 Y -1 1 d 1 Y -1 1 d -1 1 d 1 Y -1 1 d
 -1 1 d -1 X -1 1 d 1 Y -1 X -1 1 d -2 X -1 1 d -9 X -1 -1 d -1 X -1 -1 d -1 X
 -1 -1 d -1 X -1 -1 d -1 Y -1 X -1 -1 d -1 Y -1 -1 d -1 -1 d -2 Y -1 -1 d -10 Y
 1 -1 d -2 Y 1 -1 d 1 X -1 Y 1 -1 d 1 -1 d -1 Y 1 X 1 -1 d 1 X 1 -1 d 1 X 1 -1 d
 2 X 1 -1 d 6 X 1 1 d 2 X 1 1 d 1 X 1 1 d 1 1 d 1 1 d 1 X 1 1 d 1 Y 1 1 d 1 Y 1
 1 d 1 Y 1 1 d 3 Y 1 1 d f 4 lw 1973 664 m 1 Y -1 1 d 4 Y -1 1 d 1 Y -1 1 d -1 1
 d 1 Y -1 1 d -1 1 d -1 X -1 1 d 1 Y -1 X -1 1 d -2 X -1 1 d -9 X -1 -1 d -1 X
 -1 -1 d -1 X -1 -1 d -1 X -1 -1 d -1 Y -1 X -1 -1 d -1 Y -1 -1 d -1 -1 d -2 Y
 -1 -1 d -10 Y 1 -1 d -2 Y 1 -1 d 1 X -1 Y 1 -1 d 1 -1 d -1 Y 1 X 1 -1 d 1 X 1
 -1 d 1 X 1 -1 d 2 X 1 -1 d 6 X 1 1 d 2 X 1 1 d 1 X 1 1 d 1 1 d 1 1 d 1 X 1 1 d
 1 Y 1 1 d 1 Y 1 1 d 1 Y 1 1 d 3 Y 1 1 d 1 Y cl s 1956 664 m -17 X s 1956 664 m
 17 X s 1956 647 m s 1956 682 m -1 Y s 6 lw 340 227 m 1701 X s 340 1927 m 1701 X
 s 340 227 m 1700 Y s 2041 227 m 1700 Y s
 gr  gr 
showpage
end
%%EOF
