%!PS-Adobe-2.0 EPSF-2.0
%%BoundingBox: 0 0 553 581
%%Title: plot.eps
%%Creator: HIGZ Version 1.23/07
%%CreationDate: :0/01/21   09.05
%%EndComments
%%BeginProlog
80 dict begin
/s {stroke} def /l {lineto} def /m {moveto} def /t {translate} def
/sw {stringwidth} def /r {rotate} def /rl {roll}  def /R {repeat} def
/d {rlineto} def /rm {rmoveto} def /gr {grestore} def /f {eofill} def
/c {setrgbcolor} def /lw {setlinewidth} def /sd {setdash} def
/cl {closepath} def /sf {scalefont setfont} def /black {0 setgray} def
/box {m dup 0 exch d exch 0 d 0 exch neg d cl} def
/NC{systemdict begin initclip end}def/C{NC box clip newpath}def
/bl {box s} def /bf {box f} def /Y { 0 exch d} def /X { 0 d} def 
/mp {newpath /y exch def /x exch def} def
/side {[w .77 mul w .23 mul] .385 w mul sd w 0 l currentpoint t -144 r} def
/mr {mp x y w2 0 360 arc} def /m24 {mr s} def /m20 {mr f} def
/mb {mp x y w2 add m w2 neg 0 d 0 w neg d w 0 d 0 w d cl} def
/mt {mp x y w2 add m w2 neg w neg d w 0 d cl} def
/m21 {mb f} def /m25 {mb s} def /m22 {mt f} def /m26 {mt s} def
/m23 {mp x y w2 sub m w2 w d w neg 0 d cl f} def
/m27 {mp x y w2 add m w3 neg w2 neg d w3 w2 neg d w3  w2 d cl s} def
/m28 {mp x w2 sub y w2 sub w3 add m w3 0 d 0 w3 neg d w3 0 d 0 w3 d w3 0 d
 0 w3 d w3 neg 0 d 0 w3 d w3 neg 0 d
 0 w3 neg d w3 neg 0 d cl s } def
/m29 {mp gsave x w2 sub y w2 add w3 sub m currentpoint t
 4 {side} repeat cl fill gr} def
/m30 {mp gsave x w2 sub y w2 add w3 sub m currentpoint t
 5 {side} repeat s gr} def
/m31 {mp x y w2 sub m 0 w d x w2 sub y m w 0 d
 x w2 sub y w2 add m w w neg d x w2 sub y w2
 sub m w w d s} def
/m2 {mp x y w2 sub m 0 w d x w2 sub y m w 0 d s} def
/m5 {mp x w2 sub y w2 sub m w w d x w2 sub y w2 add m w w neg d s} def
/DP {/PT exch def gsave 47.2 47.2 scale PT 1  eq { 16 16 1 [ 16 0 0 16 neg 0 16
] { < AA AA 55 55 AA AA 55 55 AA AA 55 55 AA AA 55 55 AA AA 55 55 AA AA 55 55
AA AA 55 55 AA AA 55 55 > } image } if PT 2 eq { 16 16 1 [ 16 0 0 16 neg 0 16
] { < BB BB EE EE BB BB EE EE BB BB EE EE BB BB EE EE BB BB EE EE BB BB EE EE
BB BB EE EE BB BB EE EE > } image } if PT 3 eq { 16 16 1 [ 16 0 0 16 neg 0 16
] { < FF FF BB BB FF FF EE EE FF FF BB BB FF FF EE EE FF FF BB BB FF FF EE EE
FF FF BB BB FF FF EE EE > } image } if PT 4 eq { 16 16 1 [ 16 0 0 16 neg 0 16
] { < DF DF BF BF 7F 7F FE FE FD FD FB FB F7 F7 EF EF DF DF BF BF 7F 7F FE FE
FD FD FB FB F7 F7 EF EF > } image } if PT 5 eq { 16 16 1 [ 16 0 0 16 neg 0 16
] { < 7F 7F BF B F DF DF EF EF F7 F7 FB FB FD FD FE FE 7F 7F BF BF DF DF EF
EF F7 F7 FB FB FD FD FE FE > } image } if PT 6 eq { 16 16 1 [ 16 0 0 16 neg 0
16 ] { < BB BB BB BB BB BB BB BB BB BB BB BB BB BB BB BB BB BB BB BB BB BB BB
BB BB BB BB BB BB BB BB BB > } image } if PT 7 eq { 16 16 1 [ 16 0 0 16 neg 0
16 ] { < FF FF FF FF FF FF 00 00 FF FF FF FF FF FF 00 00 FF FF FF FF FF FF 00
00 FF FF FF FF FF FF 00 00 > } image } if PT 8 eq { 16 16 1 [ 16 0 0 16 neg 0
16 ] { < EE EE 47 47 83 83 C5 C5 EE EE 5C 5C 38 38 74 74 EE EE 47 47 83 83 C5
C5 EE EE 5C 5C 38 38 74 74 > } image } if PT 9 eq { 16 16 1 [ 16 0 0 16 neg 0
16 ] { < EF EF EF EF D7 D7 38 38 FE FE FE FE 7D 7D 83 83 EF EF EF EF D7 D7 38
38  FE FE FE FE 7D 7D 83 83 > } image } if PT 10 eq { 16 16 1 [ 16 0 0 16 neg
0 16 ] { <  EF EF EF EF EF EF 00 00 FE FE FE FE FE FE 00 00 EF EF EF EF EF EF
00 00 FE FE FE FE FE FE 00 00 > } image } if PT 11 eq { 16 16 1 [ 16 0 0 16
neg 0 16 ] { < F7 F7 B6 B6 D5 D5 E3 E3 D5 D5 B6 B6 F7 F7 FF FF 7F 7F 6B 6B 5D
5D 3E 3E 5D 5D 6B 6B 7F 7F FF FF > } image } if PT 12 eq { 16 16 1 [ 16 0 0
16 neg 0 16 ] { < E3 E3 DD DD BE BE BE BE BE BE DD DD E3 E3 FF FF 3E 3E DD DD
EB EB EB EB EB EB DD DD 3E 3E FF FF > } image } if PT 13 eq { 16 16 1 [ 16 0
0 16 neg 0 16 ] { <  FE FE 7D 7D BB BB D7 D7 EF EF D7 D7 BB BB 7D 7D FE FE 7D
7D BB BB D7 D7 EF EF D7 D7 BB BB 7D 7D > } image } if PT 14 eq { 16 16 1 [ 16
0 0 16 neg 0 16 ] { < 00 00 EE EF EE EF EE EF 0E E0 EE EE EE EE EE EE 00 EE
FE EE FE EE FE EE 00 00 FE EF FE EF FE EF > } image } if PT 15 eq { 16 16 1 [
16 0 0 16 neg 0 16 ] { < DD DD AA AA DD DD FF FF 77 77 AA AA 77 77 FF FF DD
DD AA AA DD DD FF FF 77 77 AA AA 77 77 FF FF > } image } if PT 16 eq { 16 16
1 [ 16 0 0 16 neg 0 16 ] { <  F1 F1 EE EE 1F 1F FF FF F1 F1 EE EE 1F 1F FF FF
F1 F1 EE EE 1F 1F FF FF F1 F1 EE EE 1F 1F FF FF > } image } if PT 17 eq { 16
16 1 [ 16 0 0 16 neg 0 16 ] { <  EE EE DD DD BB BB FF FF EE EE DD DD BB BB FF
 FF EE EE DD DD BB BB FF FF EE EE DD DD BB BB FF FF > } image } if PT 18 eq {
16 16 1 [ 16 0 0 16 neg 0 16 ] { <  BB BB DD DD EE EE FF FF BB BB DD DD EE EE
FF FF BB BB DD DD EE EE FF FF BB BB DD DD EE EE FF FF > } image } if PT 19 eq
{ 16 16 1 [ 16 0 0 16 neg 0 16 ] { < 1F FC 67 F3 7B EF BD DE BD DE DE BD E6
B3 F8 0F E6 B3 DE BD BD DE BD DE 7B EF 67 F3 1F FC 7F FF > } image } if PT
20 eq { 16 16 1 [ 16 0 0 16 neg 0 16 ] { < DD DD EE EE EE EE EE EE DD DD BB
BB BB BB BB BB DD DD EE EE EE EE EE EE DD DD BB BB BB BB BB BB > } image }
if PT 21 eq { 16 16 1 [ 16 0 0 16 neg 0 16 ] { < 0E 0E EF EF EF EF EF EF E0
E0 FE FE FE FE FE FE 0E 0E EF EF EF EF EF EF E0 E0 FE FE FE FE FE FE > }
image }  if PT 22 eq { 16 16 1 [ 16 0 0 16 neg 0 16 ] { < 70 70 F7 F7 F7 F7 F7
F7 07 07 7F 7F 7F 7F 7F 7F 70 70 F7 F7 F7 F7 F7 F7 07 07 7F 7F 7F 7F 7F 7F >
} image } if PT 23 eq  { 16 16 1 [ 16 0 0 16 neg 0 16 ] { < AA AA 55 55 A9 A9
D1 D1 E1 E1 D1 D1 A9 A9 55 55 AA AA 55 55 A9 A9 D1 D1 E1 E1 D1 D1 A9 A9 55 55
> } image } if PT 24 eq { 16 16 1 [ 16 0 0 16 neg 0 16 ] { < FF FE FF FC EA
A8 D5 54 EA A8 D5 54 E8 28 D4 54 E8 E8 D4 D4 E8 EA 54 D5 A8 EA 54 D5 00 C0 00
80 > } image } if PT 25 eq {  16 16 1 [ 16 0 0 16 neg 0 16 ] { < FF FE FF FC
FF F8 FF F0 F0 00 F0 00 F0 20 F0 60 F0 E0 F1 E0 F3 E0 F0 00 E0 00 C0 00 80 00
00 00 > } image } if gr } def /FA { /PT exch def gsave clip 0 0 translate 1 1
54 { 1 sub 47.2 mul /Xcurr exch def 1 1 74 { 1 sub 47.2 mul /Ycurr exch def
gsave Xcurr Ycurr translate PT DP gr } for } for gr } def
/reencdict 24 dict def /ReEncode {reencdict begin /nco&na exch def
/nfnam exch def /basefontname exch def /basefontdict basefontname findfont def
/newfont basefontdict maxlength dict def basefontdict {exch dup /FID ne
{dup /Encoding eq {exch dup length array copy newfont 3 1 roll put} {exch
newfont 3 1 roll put} ifelse} {pop pop} ifelse } forall newfont
/FontName nfnam put nco&na aload pop nco&na length 2 idiv {newfont
/Encoding get 3 1 roll put} repeat nfnam newfont definefont pop end } def
/accvec [ 176 /agrave 181 /Agrave 190 /acircumflex 192 /Acircumflex
201 /adieresis 204 /Adieresis 209 /ccedilla 210 /Ccedilla 211 /eacute
212 /Eacute 213 /egrave 214 /Egrave 215 /ecircumflex 216 /Ecircumflex
217 /edieresis 218 /Edieresis 219 /icircumflex 220 /Icircumflex
221 /idieresis 222 /Idieresis 223 /ntilde 224 /Ntilde 226 /ocircumflex
228 /Ocircumflex 229 /odieresis 230 /Odieresis 231 /ucircumflex 236 /Ucircumflex
237 /udieresis 238 /Udieresis 239 /aring 242 /Aring 243 /ydieresis
244 /Ydieresis 246 /aacute 247 /Aacute 252 /ugrave 253 /Ugrave] def
/Times-Roman /Times-Roman accvec ReEncode
/Times-Italic /Times-Italic accvec ReEncode
/Times-Bold /Times-Bold accvec ReEncode
/Times-BoldItalic /Times-BoldItalic accvec ReEncode
/Helvetica /Helvetica accvec ReEncode
/Helvetica-Oblique /Helvetica-Oblique accvec ReEncode
/Helvetica-Bold /Helvetica-Bold accvec ReEncode
/Helvetica-BoldOblique /Helvetica-BoldOblique  accvec ReEncode
/Courier /Courier accvec ReEncode
/Courier-Oblique /Courier-Oblique accvec ReEncode
/Courier-Bold /Courier-Bold accvec ReEncode
/Courier-BoldOblique /Courier-BoldOblique accvec ReEncode
/oshow {gsave [] 0 sd true charpath stroke gr} def
/stwn { /fs exch def /fn exch def /text exch def fn findfont fs sf
 text sw pop xs add /xs exch def} def
/stwb { /fs exch def /fn exch def /nbas exch def /textf exch def
textf length /tlen exch def nbas tlen gt {/nbas tlen def} if
fn findfont fs sf textf dup length nbas sub nbas getinterval sw
pop neg xs add /xs exch def} def
/accspe [ 65 /plusminus 66 /bar 67 /existential 68 /universal
69 /exclam 70 /numbersign 71 /greater 72 /question 73 /integral
74 /colon 75 /semicolon 76 /less 77 /bracketleft 78 /bracketright
79 /greaterequal 80 /braceleft 81 /braceright 82 /radical
83 /spade 84 /heart 85 /diamond 86 /club 87 /lessequal
88 /multiply 89 /percent 90 /infinity 48 /circlemultiply 49 /circleplus
50 /emptyset 51 /lozenge 52 /bullet 53 /arrowright 54 /arrowup
55 /arrowleft 56 /arrowdown 57 /arrowboth 48 /degree 44 /comma 43 /plus
 45 /angle 42 /angleleft 47 /divide 61 /notequal 40 /equivalence 41 /second
 97 /approxequal 98 /congruent 99 /perpendicular 100 /partialdiff 101 /florin
 102 /intersection 103 /union 104 /propersuperset 105 /reflexsuperset
 106 /notsubset 107 /propersubset 108 /reflexsubset 109 /element 110 /notelement
 111 /gradient 112 /logicaland 113 /logicalor 114 /arrowdblboth
 115 /arrowdblleft 116 /arrowdblup 117 /arrowdblright 118 /arrowdbldown
 119 /ampersand 120 /omega1 121 /similar 122 /aleph ] def
/Symbol /Special accspe ReEncode
%%EndProlog
 gsave  .25 .25 scale  gsave 0 0 t black [] 0 sd 1 lw 2211 2324 0 0 C
 /xs 0 def 
(s)
 /Symbol     68 stwn 
(\(ToF\) vs. Zhit)
 /Times-Roman     68 stwn 
 gsave  1247 1632
 t   0 r  xs 2 div neg 0 t 0 0 m
 /Symbol findfont   68 sf 0    0 m 
(s)
 show 
 currentpoint pop 0 t 
 /Times-Roman findfont   68 sf 0    0 m 
(\(ToF\) vs. Zhit)
 show 
 gr  4 lw 399 1213 m 17 34 d 17 -34 d -34 X cl s 1 lw 399 1213 m 17 34 d 17 -34
 d -34 X f 4 lw 340 1230 m 67 X s 491 1230 m -67 X s 416 1206 m 7 Y s 416 1255 m
 -8 Y s 550 1219 m 17 34 d 17 -34 d -34 X cl s 1 lw 550 1219 m 17 34 d 17 -34 d
 -34 X f 4 lw 491 1236 m 67 X s 642 1236 m -67 X s 567 1218 m 1 Y s 567 1255 m
 -2 Y s 701 1094 m 17 34 d 17 -34 d -34 X cl s 1 lw 701 1094 m 17 34 d 17 -34 d
 -34 X f 4 lw 642 1111 m 67 X s 794 1111 m -68 X s 718 1097 m -3 Y s 718 1125 m
 3 Y s 852 991 m 17 34 d 17 -34 d -34 X cl s 1 lw 852 991 m 17 34 d 17 -34 d -34
 X f 4 lw 794 1008 m 67 X s 945 1008 m -67 X s 869 996 m -5 Y s 869 1021 m 4 Y s
 1003 946 m 17 34 d 17 -34 d -34 X cl s 1 lw 1003 946 m 17 34 d 17 -34 d -34 X f
 4 lw 945 963 m 67 X s 1096 963 m -67 X s 1020 950 m -4 Y s 1020 976 m 4 Y s
 1154 852 m 17 34 d 17 -34 d -34 X cl s 1 lw 1154 852 m 17 34 d 17 -34 d -34 X f
 4 lw 1096 869 m 67 X s 1247 869 m -67 X s 1171 858 m -6 Y s 1171 880 m 6 Y s
 1306 788 m 17 34 d 17 -34 d -34 X cl s 1 lw 1306 788 m 17 34 d 17 -34 d -34 X f
 4 lw 1247 805 m 67 X s 1398 805 m -67 X s 1323 794 m -6 Y s 1323 815 m 7 Y s
 1457 672 m 17 34 d 17 -34 d -34 X cl s 1 lw 1457 672 m 17 34 d 17 -34 d -34 X f
 4 lw 1398 689 m 67 X s 1549 689 m -67 X s 1474 680 m -8 Y s 1474 699 m 7 Y s
 1608 582 m 17 34 d 17 -34 d -34 X cl s 1 lw 1608 582 m 17 34 d 17 -34 d -34 X f
 4 lw 1549 599 m 67 X s 1700 599 m -67 X s 1625 590 m -8 Y s 1625 608 m 8 Y s
 1759 493 m 17 34 d 17 -34 d -34 X cl s 1 lw 1759 493 m 17 34 d 17 -34 d -34 X f
 4 lw 1700 510 m 68 X s 1852 510 m -67 X s 1776 501 m -8 Y s 1776 518 m 9 Y s
 1910 411 m 17 34 d 17 -34 d -34 X cl s 1 lw 1910 411 m 17 34 d 17 -34 d -34 X f
 4 lw 1852 428 m 67 X s 2003 428 m -67 X s 1927 419 m -8 Y s 1927 436 m 9 Y s
 2061 366 m 17 34 d 17 -34 d -34 X cl s 1 lw 2061 366 m 17 34 d 17 -34 d -34 X f
 4 lw 2003 383 m 67 X s 2154 383 m -67 X s 2078 375 m -9 Y s 2078 391 m 9 Y s
 340 272 m -45 Y s [4 8] 0 sd 340 227 m 1360 Y s
 /xs 0 def 
(-70)
 /Times-Roman     68 stwn 
 gsave  340 136
 t   0 r  xs 2 div neg 0 t 0 0 m
 /Times-Roman findfont   68 sf 0    0 m 
(-70)
 show 
 gr  [] 0 sd 416 249 m -22 Y s 491 249 m -22 Y s 567 249 m -22 Y s 642 272 m -45
 Y s [4 8] 0 sd 642 227 m 1360 Y s
 /xs 0 def 
(-30)
 /Times-Roman     68 stwn 
 gsave  642 136
 t   0 r  xs 2 div neg 0 t 0 0 m
 /Times-Roman findfont   68 sf 0    0 m 
(-30)
 show 
 gr  [] 0 sd 718 249 m -22 Y s 794 249 m -22 Y s 869 249 m -22 Y s 945 272 m -45
 Y s [4 8] 0 sd 945 227 m 1360 Y s
 /xs 0 def 
(10)
 /Times-Roman     68 stwn 
 gsave  945 136
 t   0 r  xs 2 div neg 0 t 0 0 m
 /Times-Roman findfont   68 sf 0    0 m 
(10)
 show 
 gr  [] 0 sd 1020 249 m -22 Y s 1096 249 m -22 Y s 1171 249 m -22 Y s 1247 272 m
 -45 Y s [4 8] 0 sd 1247 227 m 1360 Y s
 /xs 0 def 
(50)
 /Times-Roman     68 stwn 
 gsave  1247 136
 t   0 r  xs 2 div neg 0 t 0 0 m
 /Times-Roman findfont   68 sf 0    0 m 
(50)
 show 
 gr  [] 0 sd 1323 249 m -22 Y s 1398 249 m -22 Y s 1474 249 m -22 Y s 1549 272 m
 -45 Y s [4 8] 0 sd 1549 227 m 1360 Y s
 /xs 0 def 
(90)
 /Times-Roman     68 stwn 
 gsave  1549 136
 t   0 r  xs 2 div neg 0 t 0 0 m
 /Times-Roman findfont   68 sf 0    0 m 
(90)
 show 
 gr  [] 0 sd 1625 249 m -22 Y s 1700 249 m -22 Y s 1776 249 m -22 Y s 1852 272 m
 -45 Y s [4 8] 0 sd 1852 227 m 1360 Y s
 /xs 0 def 
(130)
 /Times-Roman     68 stwn 
 gsave  1852 136
 t   0 r  xs 2 div neg 0 t 0 0 m
 /Times-Roman findfont   68 sf 0    0 m 
(130)
 show 
 gr  [] 0 sd 1927 249 m -22 Y s 2003 249 m -22 Y s 2078 249 m -22 Y s 2154 272 m
 -45 Y s [4 8] 0 sd 2154 227 m 1360 Y s
 /xs 0 def 
(170)
 /Times-Roman     68 stwn 
 gsave  2154 136
 t   0 r  xs 2 div neg 0 t 0 0 m
 /Times-Roman findfont   68 sf 0    0 m 
(170)
 show 
 gr 
 /xs 0 def 
(Zhit \(cm\))
 /Times-Roman     68 stwn 
 gsave  1927 57
 t   0 r  xs 2 div neg 0 t 0 0 m
 /Times-Roman findfont   68 sf 0    0 m 
(Zhit \(cm\))
 show 
 gr  [] 0 sd 340 1542 m 45 Y s 416 1564 m 23 Y s 491 1564 m 23 Y s 567 1564 m 23
 Y s 642 1542 m 45 Y s 718 1564 m 23 Y s 794 1564 m 23 Y s 869 1564 m 23 Y s 945
 1542 m 45 Y s 1020 1564 m 23 Y s 1096 1564 m 23 Y s 1171 1564 m 23 Y s 1247
 1542 m 45 Y s 1323 1564 m 23 Y s 1398 1564 m 23 Y s 1474 1564 m 23 Y s 1549
 1542 m 45 Y s 1625 1564 m 23 Y s 1700 1564 m 23 Y s 1776 1564 m 23 Y s 1852
 1542 m 45 Y s 1927 1564 m 23 Y s 2003 1564 m 23 Y s 2078 1564 m 23 Y s 2154
 1542 m 45 Y s 385 227 m -45 X s [4 8] 0 sd 2154 227 m -1814 X s
 /xs 0 def 
(0.05)
 /Times-Roman     68 stwn 
 gsave  317 204
 t   0 r  xs neg 0 t 0 0 m
 /Times-Roman findfont   68 sf 0    0 m 
(0.05)
 show 
 gr  [] 0 sd 363 295 m -23 X s 363 363 m -23 X s 363 431 m -23 X s 363 499 m -23
 X s 385 567 m -45 X s [4 8] 0 sd 2154 567 m -1814 X s
 /xs 0 def 
(0.10)
 /Times-Roman     68 stwn 
 gsave  317 544
 t   0 r  xs neg 0 t 0 0 m
 /Times-Roman findfont   68 sf 0    0 m 
(0.10)
 show 
 gr  [] 0 sd 363 635 m -23 X s 363 703 m -23 X s 363 771 m -23 X s 363 839 m -23
 X s 385 907 m -45 X s [4 8] 0 sd 2154 907 m -1814 X s
 /xs 0 def 
(0.15)
 /Times-Roman     68 stwn 
 gsave  317 884
 t   0 r  xs neg 0 t 0 0 m
 /Times-Roman findfont   68 sf 0    0 m 
(0.15)
 show 
 gr  [] 0 sd 363 975 m -23 X s 363 1043 m -23 X s 363 1111 m -23 X s 363 1179 m
 -23 X s 385 1247 m -45 X s [4 8] 0 sd 2154 1247 m -1814 X s
 /xs 0 def 
(0.20)
 /Times-Roman     68 stwn 
 gsave  317 1224
 t   0 r  xs neg 0 t 0 0 m
 /Times-Roman findfont   68 sf 0    0 m 
(0.20)
 show 
 gr  [] 0 sd 363 1315 m -23 X s 363 1383 m -23 X s 363 1451 m -23 X s 363 1519 m
 -23 X s 385 1587 m -45 X s [4 8] 0 sd 2154 1587 m -1814 X s
 /xs 0 def 
(0.25)
 /Times-Roman     68 stwn 
 gsave  317 1564
 t   0 r  xs neg 0 t 0 0 m
 /Times-Roman findfont   68 sf 0    0 m 
(0.25)
 show 
 gr 
 /xs 0 def 
(s)
 /Symbol     68 stwn 
(\(TOF\) \(ns\))
 /Times-Roman     68 stwn 
 gsave  113 907
 t  90 r  xs 2 div neg 0 t 0 0 m
 /Symbol findfont   68 sf 0    0 m 
(s)
 show 
 currentpoint pop 0 t 
 /Times-Roman findfont   68 sf 0    0 m 
(\(TOF\) \(ns\))
 show 
 gr  [] 0 sd 2109 227 m 45 X s 2131 295 m 23 X s 2131 363 m 23 X s 2131 431 m 23
 X s 2131 499 m 23 X s 2109 567 m 45 X s 2131 635 m 23 X s 2131 703 m 23 X s
 2131 771 m 23 X s 2131 839 m 23 X s 2109 907 m 45 X s 2131 975 m 23 X s 2131
 1043 m 23 X s 2131 1111 m 23 X s 2131 1179 m 23 X s 2109 1247 m 45 X s 2131
 1315 m 23 X s 2131 1383 m 23 X s 2131 1451 m 23 X s 2131 1519 m 23 X s 2109
 1587 m 45 X s 6 lw 340 227 m 1814 X s 340 1587 m 1814 X s 340 227 m 1360 Y s
 2154 227 m 1360 Y s 4 lw 1073 1360 m 23 46 d 23 -46 d -46 X cl s 1 lw 1073 1360
 m 23 46 d 23 -46 d -46 X f
 gsave  1187 1360
 t   0 r 0 0 m
 /Times-Roman findfont   68 sf 0    0 m 
(Forward end)
 show 
 gr  4 lw 416 1360 m -23 46 d 45 X -22 -46 d cl s 1 lw 416 1360 m -23 46 d 45 X
 -22 -46 d f
 gsave  506 1360
 t   0 r 0 0 m
 /Times-Roman findfont   68 sf 0    0 m 
(Backward end)
 show 
 gr  4 lw 393 1496 m 11 12 d 23 X 11 -12 d -22 Y -11 -12 d -23 X -11 12 d 22 Y
 cl s 1 lw 393 1496 m 11 12 d 23 X 11 -12 d -22 Y -11 -12 d -23 X -11 12 d 22 Y
 f
 gsave  506 1462
 t   0 r 0 0 m
 /Times-Roman findfont   68 sf 0    0 m 
(The weighted average of both ends)
 show 
 gr  4 lw 416 515 m -17 34 d 34 X -17 -34 d cl s 1 lw 416 515 m -17 34 d 34 X
 -17 -34 d f 4 lw 340 532 m 67 X s 491 532 m -67 X s 416 520 m -5 Y s 416 544 m
 5 Y s 567 513 m -17 34 d 34 X -17 -34 d cl s 1 lw 567 513 m -17 34 d 34 X -17
 -34 d f 4 lw 491 530 m 67 X s 642 530 m -67 X s 567 521 m -8 Y s 567 538 m 9 Y
 s 718 569 m -17 34 d 34 X -17 -34 d cl s 1 lw 718 569 m -17 34 d 34 X -17 -34 d
 f 4 lw 642 586 m 67 X s 794 586 m -68 X s 718 577 m -8 Y s 718 594 m 9 Y s 869
 606 m -17 34 d 34 X -17 -34 d cl s 1 lw 869 606 m -17 34 d 34 X -17 -34 d f 4
 lw 794 623 m 67 X s 945 623 m -67 X s 869 614 m -8 Y s 869 631 m 9 Y s 1020 684
 m -17 34 d 34 X -17 -34 d cl s 1 lw 1020 684 m -17 34 d 34 X -17 -34 d f 4 lw
 945 701 m 67 X s 1096 701 m -67 X s 1020 692 m -8 Y s 1020 710 m 8 Y s 1171 764
 m -17 34 d 34 X -17 -34 d cl s 1 lw 1171 764 m -17 34 d 34 X -17 -34 d f 4 lw
 1096 781 m 67 X s 1247 781 m -67 X s 1171 770 m -6 Y s 1171 792 m 6 Y s 1323
 831 m -17 34 d 34 X -17 -34 d cl s 1 lw 1323 831 m -17 34 d 34 X -17 -34 d f 4
 lw 1247 848 m 67 X s 1398 848 m -67 X s 1323 837 m -6 Y s 1323 859 m 6 Y s 1474
 926 m -17 34 d 34 X -17 -34 d cl s 1 lw 1474 926 m -17 34 d 34 X -17 -34 d f 4
 lw 1398 943 m 67 X s 1549 943 m -67 X s 1474 930 m -4 Y s 1474 955 m 5 Y s 1625
 929 m -17 35 d 34 X -17 -35 d cl s 1 lw 1625 929 m -17 35 d 34 X -17 -35 d f 4
 lw 1549 947 m 67 X s 1700 947 m -67 X s 1625 932 m -3 Y s 1625 961 m 3 Y s 1776
 887 m -17 34 d 34 X -17 -34 d cl s 1 lw 1776 887 m -17 34 d 34 X -17 -34 d f 4
 lw 1700 904 m 68 X s 1852 904 m -67 X s 1776 889 m -2 Y s 1776 918 m 3 Y s 1927
 985 m -17 34 d 34 X -17 -34 d cl s 1 lw 1927 985 m -17 34 d 34 X -17 -34 d f 4
 lw 1852 1002 m 67 X s 2003 1002 m -67 X s 1927 985 m s 1927 1019 m s 2078 1032
 m -17 34 d 34 X -17 -34 d cl s 1 lw 2078 1032 m -17 34 d 34 X -17 -34 d f 4 lw
 2003 1049 m 67 X s 2154 1049 m -67 X s 2078 1030 m 2 Y s 2078 1068 m -2 Y s 6
 lw 340 227 m 1814 X s 340 1587 m 1814 X s 340 227 m 1360 Y s 2154 227 m 1360 Y
 s 4 lw 399 452 m 8 9 d 17 X 9 -9 d -17 Y -9 -8 d -17 X -8 8 d 17 Y cl s 1 lw
 399 452 m 8 9 d 17 X 9 -9 d -17 Y -9 -8 d -17 X -8 8 d 17 Y f 4 lw 340 444 m 59
 X s 491 444 m -58 X s 416 433 m -6 Y s 416 455 m 6 Y s 550 475 m 8 9 d 17 X 9
 -9 d -17 Y -9 -8 d -17 X -8 8 d 17 Y cl s 1 lw 550 475 m 8 9 d 17 X 9 -9 d -17
 Y -9 -8 d -17 X -8 8 d 17 Y f 4 lw 491 467 m 59 X s 642 467 m -58 X s 567 459 m
 -9 Y s 567 475 m 9 Y s 701 511 m 8 9 d 17 X 9 -9 d -17 Y -9 -8 d -17 X -8 8 d
 17 Y cl s 1 lw 701 511 m 8 9 d 17 X 9 -9 d -17 Y -9 -8 d -17 X -8 8 d 17 Y f 4
 lw 642 503 m 59 X s 794 503 m -59 X s 718 495 m -9 Y s 718 510 m 10 Y s 852 547
 m 9 8 d 17 X 8 -8 d -17 Y -8 -9 d -17 X -9 9 d 17 Y cl s 1 lw 852 547 m 9 8 d
 17 X 8 -8 d -17 Y -8 -9 d -17 X -9 9 d 17 Y f 4 lw 794 538 m 58 X s 945 538 m
 -59 X s 869 531 m -10 Y s 869 546 m 9 Y s 1003 573 m 9 9 d 17 X 8 -9 d -17 Y -8
 -8 d -17 X -9 8 d 17 Y cl s 1 lw 1003 573 m 9 9 d 17 X 8 -9 d -17 Y -8 -8 d -17
 X -9 8 d 17 Y f 4 lw 945 565 m 58 X s 1096 565 m -59 X s 1020 556 m -8 Y s 1020
 573 m 9 Y s 1154 580 m 9 9 d 17 X 8 -9 d -17 Y -8 -8 d -17 X -9 8 d 17 Y cl s 1
 lw 1154 580 m 9 9 d 17 X 8 -9 d -17 Y -8 -8 d -17 X -9 8 d 17 Y f 4 lw 1096 572
 m 58 X s 1247 572 m -59 X s 1171 564 m -9 Y s 1171 580 m 9 Y s 1306 582 m 8 8 d
 17 X 9 -8 d -17 Y -9 -9 d -17 X -8 9 d 17 Y cl s 1 lw 1306 582 m 8 8 d 17 X 9
 -8 d -17 Y -9 -9 d -17 X -8 9 d 17 Y f 4 lw 1247 573 m 59 X s 1398 573 m -58 X
 s 1323 565 m -9 Y s 1323 581 m 9 Y s 1457 567 m 8 8 d 17 X 9 -8 d -17 Y -9 -9 d
 -17 X -8 9 d 17 Y cl s 1 lw 1457 567 m 8 8 d 17 X 9 -8 d -17 Y -9 -9 d -17 X -8
 9 d 17 Y f 4 lw 1398 558 m 59 X s 1549 558 m -58 X s 1474 550 m -9 Y s 1474 566
 m 9 Y s 1608 512 m 8 8 d 17 X 9 -8 d -17 Y -9 -9 d -17 X -8 9 d 17 Y cl s 1 lw
 1608 512 m 8 8 d 17 X 9 -8 d -17 Y -9 -9 d -17 X -8 9 d 17 Y f 4 lw 1549 503 m
 59 X s 1700 503 m -58 X s 1625 495 m -9 Y s 1625 511 m 9 Y s 1759 452 m 9 8 d
 17 X 8 -8 d -17 Y -8 -9 d -17 X -9 9 d 17 Y cl s 1 lw 1759 452 m 9 8 d 17 X 8
 -8 d -17 Y -8 -9 d -17 X -9 9 d 17 Y f 4 lw 1700 443 m 59 X s 1852 443 m -59 X
 s 1776 435 m -9 Y s 1776 451 m 9 Y s 1910 374 m 9 8 d 17 X 8 -8 d -17 Y -8 -9 d
 -17 X -9 9 d 17 Y cl s 1 lw 1910 374 m 9 8 d 17 X 8 -8 d -17 Y -8 -9 d -17 X -9
 9 d 17 Y f 4 lw 1852 365 m 58 X s 2003 365 m -59 X s 1927 358 m -10 Y s 1927
 372 m 10 Y s 2061 354 m 9 8 d 17 X 8 -8 d -17 Y -8 -9 d -17 X -9 9 d 17 Y cl s
 1 lw 2061 354 m 9 8 d 17 X 8 -8 d -17 Y -8 -9 d -17 X -9 9 d 17 Y f 4 lw 2003
 345 m 58 X s 2154 345 m -59 X s 2078 338 m -10 Y s 2078 353 m 9 Y s 6 lw 340
 227 m 1814 X s 340 1587 m 1814 X s 340 227 m 1360 Y s 2154 227 m 1360 Y s
 gr  gr 
showpage
end
%%EOF
