%!PS-Adobe-2.0 EPSF-2.0
%%Creator: topdrawer
%%BoundingBox: 28 212 561 624
%%EndComments
%%BeginProlog
%%BeginResource: lineabr
/m/moveto load def
/l/lineto load def
%%EndResource
%%EndProlog
%%BeginSetup
%%EndSetup
%%Page: 1 1
%%BeginPageSetup
%%EndPageSetup
gsave
0.1 0.1 scale
5 setlinewidth
288 432 translate
/lwidth currentlinewidth def
stroke
newpath
4.076923 setlinewidth
2677 2300 m
2621 2210 l
2681 2300 m
2626 2210 l
2626 2300 m
2621 2274 l
2621 2274 m
2621 2300 l
2621 2300 m
2681 2300 l
2621 2210 m
2681 2210 l
2681 2210 m
2681 2236 l
2681 2236 m
2677 2210 l
2808 2317 m
2800 2308 l
2800 2308 m
2791 2295 l
2791 2295 m
2783 2278 l
2783 2278 m
2779 2257 l
2779 2257 m
2779 2240 l
2779 2240 m
2783 2219 l
2783 2219 m
2791 2202 l
2791 2202 m
2800 2189 l
2800 2189 m
2808 2181 l
2800 2308 m
2791 2291 l
2791 2291 m
2787 2278 l
2787 2278 m
2783 2257 l
2783 2257 m
2783 2240 l
2783 2240 m
2787 2219 l
2787 2219 m
2791 2206 l
2791 2206 m
2800 2189 l
2885 2257 m
2881 2253 l
2881 2253 m
2885 2249 l
2885 2249 m
2889 2253 l
2889 2253 m
2889 2257 l
2889 2257 m
2881 2266 l
2881 2266 m
2872 2270 l
2872 2270 m
2859 2270 l
2859 2270 m
2847 2266 l
2847 2266 m
2838 2257 l
2838 2257 m
2834 2244 l
2834 2244 m
2834 2236 l
2834 2236 m
2838 2223 l
2838 2223 m
2847 2215 l
2847 2215 m
2859 2210 l
2859 2210 m
2868 2210 l
2868 2210 m
2881 2215 l
2881 2215 m
2889 2223 l
2859 2270 m
2851 2266 l
2851 2266 m
2842 2257 l
2842 2257 m
2838 2244 l
2838 2244 m
2838 2236 l
2838 2236 m
2842 2223 l
2842 2223 m
2851 2215 l
2851 2215 m
2859 2210 l
2923 2270 m
2923 2210 l
2927 2270 m
2927 2210 l
2927 2257 m
2936 2266 l
2936 2266 m
2948 2270 l
2948 2270 m
2957 2270 l
2957 2270 m
2970 2266 l
2970 2266 m
2974 2257 l
2974 2257 m
2974 2210 l
2957 2270 m
2965 2266 l
2965 2266 m
2970 2257 l
2970 2257 m
2970 2210 l
2974 2257 m
2982 2266 l
2982 2266 m
2995 2270 l
2995 2270 m
3004 2270 l
3004 2270 m
3016 2266 l
3016 2266 m
3021 2257 l
3021 2257 m
3021 2210 l
3004 2270 m
3012 2266 l
3012 2266 m
3016 2257 l
3016 2257 m
3016 2210 l
2910 2270 m
2927 2270 l
2910 2210 m
2940 2210 l
2957 2210 m
2987 2210 l
3004 2210 m
3033 2210 l
3055 2317 m
3063 2308 l
3063 2308 m
3072 2295 l
3072 2295 m
3080 2278 l
3080 2278 m
3084 2257 l
3084 2257 m
3084 2240 l
3084 2240 m
3080 2219 l
3080 2219 m
3072 2202 l
3072 2202 m
3063 2189 l
3063 2189 m
3055 2181 l
3063 2308 m
3072 2291 l
3072 2291 m
3076 2278 l
3076 2278 m
3080 2257 l
3080 2257 m
3080 2240 l
3080 2240 m
3076 2219 l
3076 2219 m
3072 2206 l
3072 2206 m
3063 2189 l
stroke
newpath
lwidth setlinewidth
stroke
newpath
4.076923 setlinewidth
287 3728 m
287 3686 l
287 3686 m
291 3673 l
291 3673 m
304 3665 l
304 3665 m
316 3660 l
316 3660 m
329 3660 l
329 3660 m
338 3665 l
338 3665 m
342 3669 l
342 3669 m
346 3677 l
346 3677 m
346 3686 l
346 3686 m
342 3699 l
342 3699 m
329 3707 l
329 3707 m
316 3711 l
316 3711 m
304 3711 l
304 3711 m
295 3707 l
295 3707 m
291 3703 l
291 3703 m
287 3694 l
287 3686 m
291 3677 l
291 3677 m
304 3669 l
304 3669 m
316 3665 l
316 3665 m
333 3665 l
333 3665 m
342 3669 l
346 3686 m
342 3694 l
342 3694 m
329 3703 l
329 3703 m
316 3707 l
316 3707 m
299 3707 l
299 3707 m
291 3703 l
291 3703 m
291 3728 l
240 3851 m
248 3843 l
248 3843 m
261 3834 l
261 3834 m
278 3826 l
278 3826 m
299 3822 l
299 3822 m
316 3822 l
316 3822 m
338 3826 l
338 3826 m
355 3834 l
355 3834 m
367 3843 l
367 3843 m
376 3851 l
248 3843 m
265 3834 l
265 3834 m
278 3830 l
278 3830 m
299 3826 l
299 3826 m
316 3826 l
316 3826 m
338 3830 l
338 3830 m
350 3834 l
350 3834 m
367 3843 l
287 3885 m
376 3885 l
287 3890 m
376 3890 l
299 3890 m
291 3898 l
291 3898 m
287 3907 l
287 3907 m
287 3915 l
287 3915 m
291 3928 l
291 3928 m
299 3936 l
299 3936 m
312 3941 l
312 3941 m
321 3941 l
321 3941 m
333 3936 l
333 3936 m
342 3928 l
342 3928 m
346 3915 l
346 3915 m
346 3907 l
346 3907 m
342 3898 l
342 3898 m
333 3890 l
287 3915 m
291 3924 l
291 3924 m
299 3932 l
299 3932 m
312 3936 l
312 3936 m
321 3936 l
321 3936 m
333 3932 l
333 3932 m
342 3924 l
342 3924 m
346 3915 l
287 3873 m
287 3890 l
376 3873 m
376 3902 l
295 4009 m
287 4013 l
287 4013 m
304 4013 l
304 4013 m
295 4009 l
295 4009 m
291 4004 l
291 4004 m
287 3996 l
287 3996 m
287 3979 l
287 3979 m
291 3970 l
291 3970 m
295 3966 l
295 3966 m
304 3966 l
304 3966 m
308 3970 l
308 3970 m
312 3979 l
312 3979 m
321 4000 l
321 4000 m
325 4009 l
325 4009 m
329 4013 l
299 3966 m
304 3970 l
304 3970 m
308 3979 l
308 3979 m
316 4000 l
316 4000 m
321 4009 l
321 4009 m
325 4013 l
325 4013 m
338 4013 l
338 4013 m
342 4009 l
342 4009 m
346 4000 l
346 4000 m
346 3983 l
346 3983 m
342 3975 l
342 3975 m
338 3970 l
338 3970 m
329 3966 l
329 3966 m
346 3966 l
346 3966 m
338 3970 l
240 4038 m
248 4047 l
248 4047 m
261 4055 l
261 4055 m
278 4064 l
278 4064 m
299 4068 l
299 4068 m
316 4068 l
316 4068 m
338 4064 l
338 4064 m
355 4055 l
355 4055 m
367 4047 l
367 4047 m
376 4038 l
248 4047 m
265 4055 l
265 4055 m
278 4060 l
278 4060 m
299 4064 l
299 4064 m
316 4064 l
316 4064 m
338 4060 l
338 4060 m
350 4055 l
350 4055 m
367 4047 l
stroke
newpath
lwidth setlinewidth
stroke
newpath
4.076923 setlinewidth
1526 5622 m
1526 5533 l
1530 5622 m
1530 5533 l
1500 5622 m
1496 5597 l
1496 5597 m
1496 5622 l
1496 5622 m
1560 5622 l
1560 5622 m
1560 5597 l
1560 5597 m
1556 5622 l
1513 5533 m
1543 5533 l
1606 5593 m
1594 5588 l
1594 5588 m
1585 5580 l
1585 5580 m
1581 5567 l
1581 5567 m
1581 5559 l
1581 5559 m
1585 5546 l
1585 5546 m
1594 5537 l
1594 5537 m
1606 5533 l
1606 5533 m
1615 5533 l
1615 5533 m
1628 5537 l
1628 5537 m
1636 5546 l
1636 5546 m
1640 5559 l
1640 5559 m
1640 5567 l
1640 5567 m
1636 5580 l
1636 5580 m
1628 5588 l
1628 5588 m
1615 5593 l
1615 5593 m
1606 5593 l
1606 5593 m
1598 5588 l
1598 5588 m
1590 5580 l
1590 5580 m
1585 5567 l
1585 5567 m
1585 5559 l
1585 5559 m
1590 5546 l
1590 5546 m
1598 5537 l
1598 5537 m
1606 5533 l
1615 5533 m
1623 5537 l
1623 5537 m
1632 5546 l
1632 5546 m
1636 5559 l
1636 5559 m
1636 5567 l
1636 5567 m
1632 5580 l
1632 5580 m
1623 5588 l
1623 5588 m
1615 5593 l
1674 5622 m
1674 5533 l
1679 5622 m
1679 5533 l
1704 5597 m
1704 5563 l
1662 5622 m
1730 5622 l
1730 5622 m
1730 5597 l
1730 5597 m
1725 5622 l
1679 5580 m
1704 5580 l
1662 5533 m
1691 5533 l
1785 5639 m
1776 5631 l
1776 5631 m
1768 5618 l
1768 5618 m
1759 5601 l
1759 5601 m
1755 5580 l
1755 5580 m
1755 5563 l
1755 5563 m
1759 5542 l
1759 5542 m
1768 5525 l
1768 5525 m
1776 5512 l
1776 5512 m
1785 5503 l
1776 5631 m
1768 5614 l
1768 5614 m
1764 5601 l
1764 5601 m
1759 5580 l
1759 5580 m
1759 5563 l
1759 5563 m
1764 5542 l
1764 5542 m
1768 5529 l
1768 5529 m
1776 5512 l
1819 5622 m
1819 5533 l
1823 5622 m
1823 5533 l
1806 5622 m
1857 5622 l
1857 5622 m
1870 5618 l
1870 5618 m
1874 5614 l
1874 5614 m
1878 5605 l
1878 5605 m
1878 5597 l
1878 5597 m
1874 5588 l
1874 5588 m
1870 5584 l
1870 5584 m
1857 5580 l
1857 5622 m
1866 5618 l
1866 5618 m
1870 5614 l
1870 5614 m
1874 5605 l
1874 5605 m
1874 5597 l
1874 5597 m
1870 5588 l
1870 5588 m
1866 5584 l
1866 5584 m
1857 5580 l
1823 5580 m
1857 5580 l
1857 5580 m
1870 5576 l
1870 5576 m
1874 5571 l
1874 5571 m
1878 5563 l
1878 5563 m
1878 5550 l
1878 5550 m
1874 5542 l
1874 5542 m
1870 5537 l
1870 5537 m
1857 5533 l
1857 5533 m
1806 5533 l
1857 5580 m
1866 5576 l
1866 5576 m
1870 5571 l
1870 5571 m
1874 5563 l
1874 5563 m
1874 5550 l
1874 5550 m
1870 5542 l
1870 5542 m
1866 5537 l
1866 5537 m
1857 5533 l
1904 5639 m
1912 5631 l
1912 5631 m
1921 5618 l
1921 5618 m
1929 5601 l
1929 5601 m
1933 5580 l
1933 5580 m
1933 5563 l
1933 5563 m
1929 5542 l
1929 5542 m
1921 5525 l
1921 5525 m
1912 5512 l
stroke
1912 5512 m
1904 5503 l
1912 5631 m
1921 5614 l
1921 5614 m
1925 5601 l
1925 5601 m
1929 5580 l
1929 5580 m
1929 5563 l
1929 5563 m
1925 5542 l
1925 5542 m
1921 5529 l
1921 5529 m
1912 5512 l
1972 5593 m
1967 5588 l
1967 5588 m
1972 5584 l
1972 5584 m
1976 5588 l
1976 5588 m
1972 5593 l
1972 5542 m
1967 5537 l
1967 5537 m
1972 5533 l
1972 5533 m
1976 5537 l
1976 5537 m
1972 5542 l
2099 5622 m
2099 5533 l
2103 5622 m
2103 5533 l
2074 5622 m
2069 5597 l
2069 5597 m
2069 5622 l
2069 5622 m
2133 5622 l
2133 5622 m
2133 5597 l
2133 5597 m
2129 5622 l
2086 5533 m
2116 5533 l
2163 5622 m
2159 5618 l
2159 5618 m
2163 5614 l
2163 5614 m
2167 5618 l
2167 5618 m
2163 5622 l
2163 5593 m
2163 5533 l
2167 5593 m
2167 5533 l
2150 5593 m
2167 5593 l
2150 5533 m
2180 5533 l
2210 5593 m
2210 5533 l
2214 5593 m
2214 5533 l
2214 5580 m
2222 5588 l
2222 5588 m
2235 5593 l
2235 5593 m
2244 5593 l
2244 5593 m
2256 5588 l
2256 5588 m
2260 5580 l
2260 5580 m
2260 5533 l
2244 5593 m
2252 5588 l
2252 5588 m
2256 5580 l
2256 5580 m
2256 5533 l
2260 5580 m
2269 5588 l
2269 5588 m
2282 5593 l
2282 5593 m
2290 5593 l
2290 5593 m
2303 5588 l
2303 5588 m
2307 5580 l
2307 5580 m
2307 5533 l
2290 5593 m
2299 5588 l
2299 5588 m
2303 5580 l
2303 5580 m
2303 5533 l
2197 5593 m
2214 5593 l
2197 5533 m
2227 5533 l
2244 5533 m
2273 5533 l
2290 5533 m
2320 5533 l
2345 5567 m
2396 5567 l
2396 5567 m
2396 5576 l
2396 5576 m
2392 5584 l
2392 5584 m
2388 5588 l
2388 5588 m
2379 5593 l
2379 5593 m
2367 5593 l
2367 5593 m
2354 5588 l
2354 5588 m
2345 5580 l
2345 5580 m
2341 5567 l
2341 5567 m
2341 5559 l
2341 5559 m
2345 5546 l
2345 5546 m
2354 5537 l
2354 5537 m
2367 5533 l
2367 5533 m
2375 5533 l
2375 5533 m
2388 5537 l
2388 5537 m
2396 5546 l
2392 5567 m
2392 5580 l
2392 5580 m
2388 5588 l
2367 5593 m
2358 5588 l
2358 5588 m
2350 5580 l
2350 5580 m
2345 5567 l
2345 5567 m
2345 5559 l
2345 5559 m
2350 5546 l
2350 5546 m
2358 5537 l
2358 5537 m
2367 5533 l
2498 5593 m
2498 5533 l
2503 5593 m
2503 5533 l
2503 5567 m
2507 5580 l
2507 5580 m
2515 5588 l
2515 5588 m
2524 5593 l
2524 5593 m
2537 5593 l
2537 5593 m
2541 5588 l
2541 5588 m
2541 5584 l
2541 5584 m
2537 5580 l
2537 5580 m
2532 5584 l
2532 5584 m
2537 5588 l
2486 5593 m
2503 5593 l
2486 5533 m
2515 5533 l
2566 5567 m
2617 5567 l
2617 5567 m
2617 5576 l
2617 5576 m
2613 5584 l
2613 5584 m
2609 5588 l
2609 5588 m
2600 5593 l
2600 5593 m
2587 5593 l
2587 5593 m
2575 5588 l
2575 5588 m
2566 5580 l
2566 5580 m
2562 5567 l
2562 5567 m
2562 5559 l
2562 5559 m
2566 5546 l
2566 5546 m
2575 5537 l
2575 5537 m
2587 5533 l
2587 5533 m
2596 5533 l
2596 5533 m
2609 5537 l
2609 5537 m
2617 5546 l
2613 5567 m
2613 5580 l
2613 5580 m
2609 5588 l
2587 5593 m
2579 5588 l
2579 5588 m
2571 5580 l
2571 5580 m
2566 5567 l
2566 5567 m
2566 5559 l
2566 5559 m
2571 5546 l
2571 5546 m
2579 5537 l
2579 5537 m
2587 5533 l
2685 5584 m
2689 5593 l
2689 5593 m
2689 5576 l
2689 5576 m
2685 5584 l
2685 5584 m
2681 5588 l
2681 5588 m
2672 5593 l
2672 5593 m
2655 5593 l
2655 5593 m
2647 5588 l
2647 5588 m
2643 5584 l
2643 5584 m
2643 5576 l
2643 5576 m
2647 5571 l
2647 5571 m
2655 5567 l
2655 5567 m
2677 5559 l
2677 5559 m
2685 5554 l
2685 5554 m
2689 5550 l
2643 5580 m
2647 5576 l
2647 5576 m
2655 5571 l
2655 5571 m
2677 5563 l
2677 5563 m
2685 5559 l
2685 5559 m
2689 5554 l
2689 5554 m
2689 5542 l
2689 5542 m
2685 5537 l
2685 5537 m
2677 5533 l
2677 5533 m
2660 5533 l
2660 5533 m
2651 5537 l
2651 5537 m
2647 5542 l
2647 5542 m
2643 5550 l
2643 5550 m
2643 5533 l
2643 5533 m
2647 5542 l
2740 5593 m
2728 5588 l
2728 5588 m
2719 5580 l
2719 5580 m
2715 5567 l
2715 5567 m
2715 5559 l
2715 5559 m
2719 5546 l
2719 5546 m
2728 5537 l
2728 5537 m
2740 5533 l
2740 5533 m
2749 5533 l
2749 5533 m
2762 5537 l
2762 5537 m
2770 5546 l
2770 5546 m
2774 5559 l
2774 5559 m
2774 5567 l
2774 5567 m
2770 5580 l
2770 5580 m
2762 5588 l
2762 5588 m
2749 5593 l
2749 5593 m
2740 5593 l
2740 5593 m
2732 5588 l
2732 5588 m
2723 5580 l
2723 5580 m
2719 5567 l
2719 5567 m
2719 5559 l
2719 5559 m
2723 5546 l
2723 5546 m
2732 5537 l
2732 5537 m
2740 5533 l
2749 5533 m
2757 5537 l
2757 5537 m
2766 5546 l
2766 5546 m
2770 5559 l
2770 5559 m
2770 5567 l
2770 5567 m
2766 5580 l
2766 5580 m
2757 5588 l
2757 5588 m
2749 5593 l
2808 5622 m
2808 5533 l
2813 5622 m
2813 5533 l
2796 5622 m
2813 5622 l
2796 5533 m
2825 5533 l
2855 5593 m
2855 5546 l
2855 5546 m
2859 5537 l
2859 5537 m
2872 5533 l
2872 5533 m
2881 5533 l
2881 5533 m
2893 5537 l
2893 5537 m
2902 5546 l
2859 5593 m
2859 5546 l
2859 5546 m
2864 5537 l
2864 5537 m
2872 5533 l
2902 5593 m
2902 5533 l
2906 5593 m
2906 5533 l
2842 5593 m
2859 5593 l
2889 5593 m
2906 5593 l
2902 5533 m
2919 5533 l
2948 5622 m
2948 5550 l
2948 5550 m
2953 5537 l
2953 5537 m
2961 5533 l
2961 5533 m
2970 5533 l
2970 5533 m
2978 5537 l
2978 5537 m
2982 5546 l
2953 5622 m
2953 5550 l
2953 5550 m
2957 5537 l
2957 5537 m
2961 5533 l
2936 5593 m
2970 5593 l
3012 5622 m
3008 5618 l
3008 5618 m
3012 5614 l
3012 5614 m
3016 5618 l
3016 5618 m
3012 5622 l
3012 5593 m
3012 5533 l
3016 5593 m
3016 5533 l
2999 5593 m
3016 5593 l
2999 5533 m
3029 5533 l
3076 5593 m
3063 5588 l
3063 5588 m
3055 5580 l
3055 5580 m
3050 5567 l
3050 5567 m
3050 5559 l
3050 5559 m
3055 5546 l
3055 5546 m
3063 5537 l
3063 5537 m
3076 5533 l
3076 5533 m
3084 5533 l
3084 5533 m
3097 5537 l
3097 5537 m
3106 5546 l
3106 5546 m
3110 5559 l
3110 5559 m
3110 5567 l
3110 5567 m
3106 5580 l
3106 5580 m
3097 5588 l
3097 5588 m
3084 5593 l
3084 5593 m
3076 5593 l
3076 5593 m
3067 5588 l
3067 5588 m
3059 5580 l
3059 5580 m
3055 5567 l
3055 5567 m
3055 5559 l
3055 5559 m
3059 5546 l
3059 5546 m
3067 5537 l
3067 5537 m
3076 5533 l
3084 5533 m
3093 5537 l
3093 5537 m
3101 5546 l
3101 5546 m
3106 5559 l
3106 5559 m
3106 5567 l
3106 5567 m
3101 5580 l
3101 5580 m
3093 5588 l
3093 5588 m
3084 5593 l
3144 5593 m
3144 5533 l
3148 5593 m
3148 5533 l
3148 5580 m
3157 5588 l
3157 5588 m
3169 5593 l
3169 5593 m
3178 5593 l
3178 5593 m
3191 5588 l
3191 5588 m
3195 5580 l
3195 5580 m
3195 5533 l
3178 5593 m
3186 5588 l
3186 5588 m
3191 5580 l
3191 5580 m
3191 5533 l
3131 5593 m
3148 5593 l
3131 5533 m
3161 5533 l
3178 5533 m
3208 5533 l
3297 5622 m
3326 5533 l
3301 5622 m
3326 5546 l
3356 5622 m
3326 5533 l
3288 5622 m
3314 5622 l
3339 5622 m
3365 5622 l
3437 5610 m
3441 5622 l
3441 5622 m
3441 5597 l
3441 5597 m
3437 5610 l
3437 5610 m
3428 5618 l
3428 5618 m
3416 5622 l
3416 5622 m
3403 5622 l
3403 5622 m
3390 5618 l
3390 5618 m
3382 5610 l
3382 5610 m
3382 5601 l
3382 5601 m
3386 5593 l
3386 5593 m
3390 5588 l
3390 5588 m
3399 5584 l
3399 5584 m
3424 5576 l
3424 5576 m
3433 5571 l
3433 5571 m
3441 5563 l
3382 5601 m
3390 5593 l
3390 5593 m
3399 5588 l
3399 5588 m
3424 5580 l
3424 5580 m
3433 5576 l
3433 5576 m
3437 5571 l
3437 5571 m
3441 5563 l
3441 5563 m
3441 5546 l
3441 5546 m
3433 5537 l
3433 5537 m
3420 5533 l
3420 5533 m
3407 5533 l
3407 5533 m
3394 5537 l
3394 5537 m
3386 5546 l
3386 5546 m
3382 5559 l
3382 5559 m
3382 5533 l
3382 5533 m
3386 5546 l
3590 5622 m
3535 5533 l
3594 5622 m
3539 5533 l
3539 5622 m
3535 5597 l
3535 5597 m
3535 5622 l
3535 5622 m
3594 5622 l
3535 5533 m
3594 5533 l
3594 5533 m
3594 5559 l
3594 5559 m
3590 5533 l
stroke
newpath
lwidth setlinewidth
stroke
newpath
3.261539 setlinewidth
3360 5492 m
3360 5421 l
3363 5492 m
3363 5421 l
stroke
3349 5492 m
3390 5492 l
3390 5492 m
3400 5489 l
3400 5489 m
3404 5486 l
3404 5486 m
3407 5479 l
3407 5479 m
3407 5472 l
3407 5472 m
3404 5465 l
3404 5465 m
3400 5462 l
3400 5462 m
3390 5458 l
3390 5458 m
3363 5458 l
3390 5492 m
3397 5489 l
3397 5489 m
3400 5486 l
3400 5486 m
3404 5479 l
3404 5479 m
3404 5472 l
3404 5472 m
3400 5465 l
3400 5465 m
3397 5462 l
3397 5462 m
3390 5458 l
3349 5421 m
3373 5421 l
3380 5458 m
3387 5455 l
3387 5455 m
3390 5452 l
3390 5452 m
3400 5428 l
3400 5428 m
3404 5424 l
3404 5424 m
3407 5424 l
3407 5424 m
3411 5428 l
3387 5455 m
3390 5448 l
3390 5448 m
3397 5424 l
3397 5424 m
3400 5421 l
3400 5421 m
3407 5421 l
3407 5421 m
3411 5428 l
3411 5428 m
3411 5431 l
3428 5492 m
3428 5472 l
3428 5479 m
3431 5486 l
3431 5486 m
3438 5492 l
3438 5492 m
3444 5492 l
3444 5492 m
3461 5482 l
3461 5482 m
3468 5482 l
3468 5482 m
3472 5486 l
3472 5486 m
3475 5492 l
3431 5486 m
3438 5489 l
3438 5489 m
3444 5489 l
3444 5489 m
3461 5482 l
3475 5492 m
3475 5482 l
3475 5482 m
3472 5472 l
3472 5472 m
3458 5455 l
3458 5455 m
3455 5448 l
3455 5448 m
3451 5438 l
3451 5438 m
3451 5421 l
3472 5472 m
3455 5455 l
3455 5455 m
3451 5448 l
3451 5448 m
3448 5438 l
3448 5438 m
3448 5421 l
3516 5492 m
3506 5489 l
3506 5489 m
3499 5479 l
3499 5479 m
3495 5462 l
3495 5462 m
3495 5452 l
3495 5452 m
3499 5435 l
3499 5435 m
3506 5424 l
3506 5424 m
3516 5421 l
3516 5421 m
3523 5421 l
3523 5421 m
3533 5424 l
3533 5424 m
3540 5435 l
3540 5435 m
3543 5452 l
3543 5452 m
3543 5462 l
3543 5462 m
3540 5479 l
3540 5479 m
3533 5489 l
3533 5489 m
3523 5492 l
3523 5492 m
3516 5492 l
3516 5492 m
3509 5489 l
3509 5489 m
3506 5486 l
3506 5486 m
3502 5479 l
3502 5479 m
3499 5462 l
3499 5462 m
3499 5452 l
3499 5452 m
3502 5435 l
3502 5435 m
3506 5428 l
3506 5428 m
3509 5424 l
3509 5424 m
3516 5421 l
3523 5421 m
3529 5424 l
3529 5424 m
3533 5428 l
3533 5428 m
3536 5435 l
3536 5435 m
3540 5452 l
3540 5452 m
3540 5462 l
3540 5462 m
3536 5479 l
3536 5479 m
3533 5486 l
3533 5486 m
3529 5489 l
3529 5489 m
3523 5492 l
3604 5482 m
3601 5479 l
3601 5479 m
3604 5475 l
3604 5475 m
3608 5479 l
3608 5479 m
3608 5482 l
3608 5482 m
3604 5489 l
3604 5489 m
3597 5492 l
3597 5492 m
3587 5492 l
3587 5492 m
3577 5489 l
3577 5489 m
3570 5482 l
3570 5482 m
3567 5475 l
3567 5475 m
3563 5462 l
3563 5462 m
3563 5441 l
3563 5441 m
3567 5431 l
3567 5431 m
3574 5424 l
3574 5424 m
3584 5421 l
3584 5421 m
3591 5421 l
3591 5421 m
3601 5424 l
3601 5424 m
3608 5431 l
3608 5431 m
3611 5441 l
3611 5441 m
3611 5445 l
3611 5445 m
3608 5455 l
3608 5455 m
3601 5462 l
3601 5462 m
3591 5465 l
3591 5465 m
3587 5465 l
3587 5465 m
3577 5462 l
3577 5462 m
3570 5455 l
3570 5455 m
3567 5445 l
3587 5492 m
3580 5489 l
3580 5489 m
3574 5482 l
3574 5482 m
3570 5475 l
3570 5475 m
3567 5462 l
3567 5462 m
3567 5441 l
3567 5441 m
3570 5431 l
3570 5431 m
3577 5424 l
3577 5424 m
3584 5421 l
3591 5421 m
3597 5424 l
3597 5424 m
3604 5431 l
3604 5431 m
3608 5441 l
3608 5441 m
3608 5445 l
3608 5445 m
3604 5455 l
3604 5455 m
3597 5462 l
3597 5462 m
3591 5465 l
3648 5492 m
3638 5489 l
3638 5489 m
3635 5482 l
3635 5482 m
3635 5472 l
3635 5472 m
3638 5465 l
3638 5465 m
3648 5462 l
3648 5462 m
3662 5462 l
3662 5462 m
3672 5465 l
3672 5465 m
3676 5472 l
3676 5472 m
3676 5482 l
3676 5482 m
3672 5489 l
3672 5489 m
3662 5492 l
3662 5492 m
3648 5492 l
3648 5492 m
3642 5489 l
3642 5489 m
3638 5482 l
3638 5482 m
3638 5472 l
3638 5472 m
3642 5465 l
3642 5465 m
3648 5462 l
3662 5462 m
3669 5465 l
3669 5465 m
3672 5472 l
3672 5472 m
3672 5482 l
3672 5482 m
3669 5489 l
3669 5489 m
3662 5492 l
3648 5462 m
3638 5458 l
3638 5458 m
3635 5455 l
3635 5455 m
3631 5448 l
3631 5448 m
3631 5435 l
3631 5435 m
3635 5428 l
3635 5428 m
3638 5424 l
3638 5424 m
3648 5421 l
3648 5421 m
3662 5421 l
3662 5421 m
3672 5424 l
3672 5424 m
3676 5428 l
3676 5428 m
3679 5435 l
3679 5435 m
3679 5448 l
3679 5448 m
3676 5455 l
3676 5455 m
3672 5458 l
3672 5458 m
3662 5462 l
3648 5462 m
3642 5458 l
3642 5458 m
3638 5455 l
3638 5455 m
3635 5448 l
3635 5448 m
3635 5435 l
3635 5435 m
3638 5428 l
3638 5428 m
3642 5424 l
3642 5424 m
3648 5421 l
3662 5421 m
3669 5424 l
3669 5424 m
3672 5428 l
3672 5428 m
3676 5435 l
3676 5435 m
3676 5448 l
3676 5448 m
3672 5455 l
3672 5455 m
3669 5458 l
3669 5458 m
3662 5462 l
3703 5452 m
3764 5452 l
3794 5492 m
3794 5421 l
3798 5492 m
3798 5421 l
3784 5492 m
3825 5492 l
3825 5492 m
3835 5489 l
3835 5489 m
3839 5486 l
3839 5486 m
3842 5479 l
3842 5479 m
3842 5472 l
3842 5472 m
3839 5465 l
3839 5465 m
3835 5462 l
3835 5462 m
3825 5458 l
3825 5458 m
3798 5458 l
3825 5492 m
3832 5489 l
3832 5489 m
3835 5486 l
3835 5486 m
3839 5479 l
3839 5479 m
3839 5472 l
3839 5472 m
3835 5465 l
3835 5465 m
3832 5462 l
3832 5462 m
3825 5458 l
3784 5421 m
3808 5421 l
3815 5458 m
3822 5455 l
3822 5455 m
3825 5452 l
3825 5452 m
3835 5428 l
3835 5428 m
3839 5424 l
3839 5424 m
3842 5424 l
3842 5424 m
3845 5428 l
3822 5455 m
3825 5448 l
3825 5448 m
3832 5424 l
3832 5424 m
3835 5421 l
3835 5421 m
3842 5421 l
3842 5421 m
3845 5428 l
3845 5428 m
3845 5431 l
3879 5492 m
3869 5489 l
3869 5489 m
3866 5482 l
3866 5482 m
3866 5472 l
3866 5472 m
3869 5465 l
3869 5465 m
3879 5462 l
3879 5462 m
3893 5462 l
3893 5462 m
3903 5465 l
3903 5465 m
3907 5472 l
3907 5472 m
3907 5482 l
3907 5482 m
3903 5489 l
3903 5489 m
3893 5492 l
3893 5492 m
3879 5492 l
3879 5492 m
3873 5489 l
3873 5489 m
3869 5482 l
3869 5482 m
3869 5472 l
3869 5472 m
3873 5465 l
3873 5465 m
3879 5462 l
3893 5462 m
3900 5465 l
3900 5465 m
3903 5472 l
3903 5472 m
3903 5482 l
3903 5482 m
3900 5489 l
3900 5489 m
3893 5492 l
3879 5462 m
3869 5458 l
3869 5458 m
3866 5455 l
3866 5455 m
3862 5448 l
3862 5448 m
3862 5435 l
3862 5435 m
3866 5428 l
3866 5428 m
3869 5424 l
3869 5424 m
3879 5421 l
3879 5421 m
3893 5421 l
3893 5421 m
3903 5424 l
3903 5424 m
3907 5428 l
3907 5428 m
3910 5435 l
3910 5435 m
3910 5448 l
3910 5448 m
3907 5455 l
3907 5455 m
3903 5458 l
3903 5458 m
3893 5462 l
3879 5462 m
3873 5458 l
3873 5458 m
3869 5455 l
3869 5455 m
3866 5448 l
3866 5448 m
3866 5435 l
3866 5435 m
3869 5428 l
3869 5428 m
3873 5424 l
3873 5424 m
3879 5421 l
3893 5421 m
3900 5424 l
3900 5424 m
3903 5428 l
3903 5428 m
3907 5435 l
3907 5435 m
3907 5448 l
3907 5448 m
3903 5455 l
3903 5455 m
3900 5458 l
3900 5458 m
3893 5462 l
3951 5492 m
3941 5489 l
3941 5489 m
3934 5479 l
3934 5479 m
3930 5462 l
3930 5462 m
3930 5452 l
3930 5452 m
3934 5435 l
3934 5435 m
3941 5424 l
3941 5424 m
3951 5421 l
3951 5421 m
3958 5421 l
3958 5421 m
3968 5424 l
3968 5424 m
3974 5435 l
3974 5435 m
3978 5452 l
3978 5452 m
3978 5462 l
3978 5462 m
3974 5479 l
3974 5479 m
3968 5489 l
3968 5489 m
3958 5492 l
3958 5492 m
3951 5492 l
3951 5492 m
3944 5489 l
3944 5489 m
3941 5486 l
3941 5486 m
3937 5479 l
3937 5479 m
3934 5462 l
3934 5462 m
3934 5452 l
3934 5452 m
3937 5435 l
3937 5435 m
3941 5428 l
3941 5428 m
3944 5424 l
3944 5424 m
3951 5421 l
3958 5421 m
3964 5424 l
3964 5424 m
3968 5428 l
3968 5428 m
3971 5435 l
3971 5435 m
3974 5452 l
3974 5452 m
3974 5462 l
3974 5462 m
3971 5479 l
3971 5479 m
3968 5486 l
3968 5486 m
3964 5489 l
3964 5489 m
3958 5492 l
4002 5479 m
4005 5475 l
4005 5475 m
4002 5472 l
4002 5472 m
3998 5475 l
3998 5475 m
3998 5479 l
3998 5479 m
4002 5486 l
4002 5486 m
4005 5489 l
4005 5489 m
4015 5492 l
4015 5492 m
4029 5492 l
stroke
4029 5492 m
4039 5489 l
4039 5489 m
4042 5486 l
4042 5486 m
4046 5479 l
4046 5479 m
4046 5472 l
4046 5472 m
4042 5465 l
4042 5465 m
4032 5458 l
4032 5458 m
4015 5452 l
4015 5452 m
4008 5448 l
4008 5448 m
4002 5441 l
4002 5441 m
3998 5431 l
3998 5431 m
3998 5421 l
4029 5492 m
4036 5489 l
4036 5489 m
4039 5486 l
4039 5486 m
4042 5479 l
4042 5479 m
4042 5472 l
4042 5472 m
4039 5465 l
4039 5465 m
4029 5458 l
4029 5458 m
4015 5452 l
3998 5428 m
4002 5431 l
4002 5431 m
4008 5431 l
4008 5431 m
4025 5424 l
4025 5424 m
4036 5424 l
4036 5424 m
4042 5428 l
4042 5428 m
4046 5431 l
4008 5431 m
4025 5421 l
4025 5421 m
4039 5421 l
4039 5421 m
4042 5424 l
4042 5424 m
4046 5431 l
4046 5431 m
4046 5438 l
4073 5492 m
4066 5458 l
4066 5458 m
4073 5465 l
4073 5465 m
4083 5469 l
4083 5469 m
4093 5469 l
4093 5469 m
4104 5465 l
4104 5465 m
4110 5458 l
4110 5458 m
4114 5448 l
4114 5448 m
4114 5441 l
4114 5441 m
4110 5431 l
4110 5431 m
4104 5424 l
4104 5424 m
4093 5421 l
4093 5421 m
4083 5421 l
4083 5421 m
4073 5424 l
4073 5424 m
4070 5428 l
4070 5428 m
4066 5435 l
4066 5435 m
4066 5438 l
4066 5438 m
4070 5441 l
4070 5441 m
4073 5438 l
4073 5438 m
4070 5435 l
4093 5469 m
4100 5465 l
4100 5465 m
4107 5458 l
4107 5458 m
4110 5448 l
4110 5448 m
4110 5441 l
4110 5441 m
4107 5431 l
4107 5431 m
4100 5424 l
4100 5424 m
4093 5421 l
4073 5492 m
4107 5492 l
4073 5489 m
4090 5489 l
4090 5489 m
4107 5492 l
4270 5506 m
4263 5499 l
4263 5499 m
4256 5489 l
4256 5489 m
4250 5475 l
4250 5475 m
4246 5458 l
4246 5458 m
4246 5445 l
4246 5445 m
4250 5428 l
4250 5428 m
4256 5414 l
4256 5414 m
4263 5404 l
4263 5404 m
4270 5397 l
4263 5499 m
4256 5486 l
4256 5486 m
4253 5475 l
4253 5475 m
4250 5458 l
4250 5458 m
4250 5445 l
4250 5445 m
4253 5428 l
4253 5428 m
4256 5418 l
4256 5418 m
4263 5404 l
4297 5492 m
4297 5421 l
4301 5492 m
4321 5431 l
4297 5492 m
4321 5421 l
4345 5492 m
4321 5421 l
4345 5492 m
4345 5421 l
4348 5492 m
4348 5421 l
4287 5492 m
4301 5492 l
4345 5492 m
4358 5492 l
4287 5421 m
4307 5421 l
4335 5421 m
4358 5421 l
4382 5462 m
4382 5458 l
4382 5458 m
4379 5458 l
4379 5458 m
4379 5462 l
4379 5462 m
4382 5465 l
4382 5465 m
4389 5469 l
4389 5469 m
4403 5469 l
4403 5469 m
4409 5465 l
4409 5465 m
4413 5462 l
4413 5462 m
4416 5455 l
4416 5455 m
4416 5431 l
4416 5431 m
4420 5424 l
4420 5424 m
4423 5421 l
4413 5462 m
4413 5431 l
4413 5431 m
4416 5424 l
4416 5424 m
4423 5421 l
4423 5421 m
4426 5421 l
4413 5455 m
4409 5452 l
4409 5452 m
4389 5448 l
4389 5448 m
4379 5445 l
4379 5445 m
4375 5438 l
4375 5438 m
4375 5431 l
4375 5431 m
4379 5424 l
4379 5424 m
4389 5421 l
4389 5421 m
4399 5421 l
4399 5421 m
4406 5424 l
4406 5424 m
4413 5431 l
4389 5448 m
4382 5445 l
4382 5445 m
4379 5438 l
4379 5438 m
4379 5431 l
4379 5431 m
4382 5424 l
4382 5424 m
4389 5421 l
4447 5469 m
4467 5421 l
4450 5469 m
4467 5428 l
4488 5469 m
4467 5421 l
4467 5421 m
4460 5407 l
4460 5407 m
4454 5401 l
4454 5401 m
4447 5397 l
4447 5397 m
4443 5397 l
4443 5397 m
4440 5401 l
4440 5401 m
4443 5404 l
4443 5404 m
4447 5401 l
4440 5469 m
4460 5469 l
4474 5469 m
4494 5469 l
4566 5479 m
4569 5475 l
4569 5475 m
4566 5472 l
4566 5472 m
4562 5475 l
4562 5475 m
4562 5479 l
4562 5479 m
4566 5486 l
4566 5486 m
4569 5489 l
4569 5489 m
4579 5492 l
4579 5492 m
4593 5492 l
4593 5492 m
4603 5489 l
4603 5489 m
4606 5486 l
4606 5486 m
4610 5479 l
4610 5479 m
4610 5472 l
4610 5472 m
4606 5465 l
4606 5465 m
4596 5458 l
4596 5458 m
4579 5452 l
4579 5452 m
4572 5448 l
4572 5448 m
4566 5441 l
4566 5441 m
4562 5431 l
4562 5431 m
4562 5421 l
4593 5492 m
4600 5489 l
4600 5489 m
4603 5486 l
4603 5486 m
4606 5479 l
4606 5479 m
4606 5472 l
4606 5472 m
4603 5465 l
4603 5465 m
4593 5458 l
4593 5458 m
4579 5452 l
4562 5428 m
4566 5431 l
4566 5431 m
4572 5431 l
4572 5431 m
4589 5424 l
4589 5424 m
4600 5424 l
4600 5424 m
4606 5428 l
4606 5428 m
4610 5431 l
4572 5431 m
4589 5421 l
4589 5421 m
4603 5421 l
4603 5421 m
4606 5424 l
4606 5424 m
4610 5431 l
4610 5431 m
4610 5438 l
4634 5479 m
4637 5475 l
4637 5475 m
4634 5472 l
4634 5472 m
4630 5475 l
4630 5475 m
4630 5479 l
4630 5479 m
4634 5486 l
4634 5486 m
4637 5489 l
4637 5489 m
4647 5492 l
4647 5492 m
4661 5492 l
4661 5492 m
4671 5489 l
4671 5489 m
4674 5482 l
4674 5482 m
4674 5472 l
4674 5472 m
4671 5465 l
4671 5465 m
4661 5462 l
4661 5462 m
4651 5462 l
4661 5492 m
4668 5489 l
4668 5489 m
4671 5482 l
4671 5482 m
4671 5472 l
4671 5472 m
4668 5465 l
4668 5465 m
4661 5462 l
4661 5462 m
4668 5458 l
4668 5458 m
4674 5452 l
4674 5452 m
4678 5445 l
4678 5445 m
4678 5435 l
4678 5435 m
4674 5428 l
4674 5428 m
4671 5424 l
4671 5424 m
4661 5421 l
4661 5421 m
4647 5421 l
4647 5421 m
4637 5424 l
4637 5424 m
4634 5428 l
4634 5428 m
4630 5435 l
4630 5435 m
4630 5438 l
4630 5438 m
4634 5441 l
4634 5441 m
4637 5438 l
4637 5438 m
4634 5435 l
4671 5455 m
4674 5445 l
4674 5445 m
4674 5435 l
4674 5435 m
4671 5428 l
4671 5428 m
4668 5424 l
4668 5424 m
4661 5421 l
4705 5421 m
4702 5424 l
4702 5424 m
4705 5428 l
4705 5428 m
4708 5424 l
4708 5424 m
4708 5418 l
4708 5418 m
4705 5411 l
4705 5411 m
4702 5407 l
4742 5479 m
4749 5482 l
4749 5482 m
4759 5492 l
4759 5492 m
4759 5421 l
4756 5489 m
4756 5421 l
4742 5421 m
4773 5421 l
4844 5469 m
4841 5458 l
4841 5458 m
4834 5452 l
4834 5452 m
4824 5448 l
4824 5448 m
4820 5448 l
4820 5448 m
4810 5452 l
4810 5452 m
4803 5458 l
4803 5458 m
4800 5469 l
4800 5469 m
4800 5472 l
4800 5472 m
4803 5482 l
4803 5482 m
4810 5489 l
4810 5489 m
4820 5492 l
4820 5492 m
4827 5492 l
4827 5492 m
4837 5489 l
4837 5489 m
4844 5482 l
4844 5482 m
4848 5472 l
4848 5472 m
4848 5452 l
4848 5452 m
4844 5438 l
4844 5438 m
4841 5431 l
4841 5431 m
4834 5424 l
4834 5424 m
4824 5421 l
4824 5421 m
4814 5421 l
4814 5421 m
4807 5424 l
4807 5424 m
4803 5431 l
4803 5431 m
4803 5435 l
4803 5435 m
4807 5438 l
4807 5438 m
4810 5435 l
4810 5435 m
4807 5431 l
4820 5448 m
4814 5452 l
4814 5452 m
4807 5458 l
4807 5458 m
4803 5469 l
4803 5469 m
4803 5472 l
4803 5472 m
4807 5482 l
4807 5482 m
4814 5489 l
4814 5489 m
4820 5492 l
4827 5492 m
4834 5489 l
4834 5489 m
4841 5482 l
4841 5482 m
4844 5472 l
4844 5472 m
4844 5452 l
4844 5452 m
4841 5438 l
4841 5438 m
4837 5431 l
4837 5431 m
4831 5424 l
4831 5424 m
4824 5421 l
4912 5469 m
4909 5458 l
4909 5458 m
4902 5452 l
4902 5452 m
4892 5448 l
4892 5448 m
4888 5448 l
4888 5448 m
4878 5452 l
4878 5452 m
4871 5458 l
4871 5458 m
4868 5469 l
4868 5469 m
4868 5472 l
4868 5472 m
4871 5482 l
4871 5482 m
4878 5489 l
4878 5489 m
4888 5492 l
4888 5492 m
4895 5492 l
4895 5492 m
4905 5489 l
4905 5489 m
4912 5482 l
4912 5482 m
4916 5472 l
4916 5472 m
4916 5452 l
4916 5452 m
4912 5438 l
4912 5438 m
4909 5431 l
4909 5431 m
4902 5424 l
4902 5424 m
4892 5421 l
4892 5421 m
4882 5421 l
4882 5421 m
4875 5424 l
4875 5424 m
4871 5431 l
4871 5431 m
4871 5435 l
4871 5435 m
4875 5438 l
4875 5438 m
4878 5435 l
4878 5435 m
4875 5431 l
4888 5448 m
4882 5452 l
4882 5452 m
4875 5458 l
4875 5458 m
4871 5469 l
4871 5469 m
4871 5472 l
4871 5472 m
4875 5482 l
4875 5482 m
4882 5489 l
4882 5489 m
4888 5492 l
4895 5492 m
4902 5489 l
4902 5489 m
4909 5482 l
4909 5482 m
4912 5472 l
4912 5472 m
4912 5452 l
4912 5452 m
4909 5438 l
4909 5438 m
4905 5431 l
4905 5431 m
4899 5424 l
4899 5424 m
4892 5421 l
4977 5482 m
4973 5479 l
4973 5479 m
4977 5475 l
4977 5475 m
4980 5479 l
4980 5479 m
4980 5482 l
stroke
4980 5482 m
4977 5489 l
4977 5489 m
4970 5492 l
4970 5492 m
4960 5492 l
4960 5492 m
4950 5489 l
4950 5489 m
4943 5482 l
4943 5482 m
4939 5475 l
4939 5475 m
4936 5462 l
4936 5462 m
4936 5441 l
4936 5441 m
4939 5431 l
4939 5431 m
4946 5424 l
4946 5424 m
4956 5421 l
4956 5421 m
4963 5421 l
4963 5421 m
4973 5424 l
4973 5424 m
4980 5431 l
4980 5431 m
4984 5441 l
4984 5441 m
4984 5445 l
4984 5445 m
4980 5455 l
4980 5455 m
4973 5462 l
4973 5462 m
4963 5465 l
4963 5465 m
4960 5465 l
4960 5465 m
4950 5462 l
4950 5462 m
4943 5455 l
4943 5455 m
4939 5445 l
4960 5492 m
4953 5489 l
4953 5489 m
4946 5482 l
4946 5482 m
4943 5475 l
4943 5475 m
4939 5462 l
4939 5462 m
4939 5441 l
4939 5441 m
4943 5431 l
4943 5431 m
4950 5424 l
4950 5424 m
4956 5421 l
4963 5421 m
4970 5424 l
4970 5424 m
4977 5431 l
4977 5431 m
4980 5441 l
4980 5441 m
4980 5445 l
4980 5445 m
4977 5455 l
4977 5455 m
4970 5462 l
4970 5462 m
4963 5465 l
5004 5506 m
5011 5499 l
5011 5499 m
5018 5489 l
5018 5489 m
5024 5475 l
5024 5475 m
5028 5458 l
5028 5458 m
5028 5445 l
5028 5445 m
5024 5428 l
5024 5428 m
5018 5414 l
5018 5414 m
5011 5404 l
5011 5404 m
5004 5397 l
5011 5499 m
5018 5486 l
5018 5486 m
5021 5475 l
5021 5475 m
5024 5458 l
5024 5458 m
5024 5445 l
5024 5445 m
5021 5428 l
5021 5428 m
5018 5418 l
5018 5418 m
5011 5404 l
stroke
newpath
lwidth setlinewidth
stroke
newpath
3.750769 setlinewidth
3230 4992 m
3234 4988 l
3234 4988 m
3230 4984 l
3230 4984 m
3226 4988 l
3226 4988 m
3226 4992 l
3226 4992 m
3230 5000 l
3230 5000 m
3234 5004 l
3234 5004 m
3245 5008 l
3245 5008 m
3261 5008 l
3261 5008 m
3273 5004 l
3273 5004 m
3277 5000 l
3277 5000 m
3281 4992 l
3281 4992 m
3281 4984 l
3281 4984 m
3277 4976 l
3277 4976 m
3265 4969 l
3265 4969 m
3245 4961 l
3245 4961 m
3238 4957 l
3238 4957 m
3230 4949 l
3230 4949 m
3226 4937 l
3226 4937 m
3226 4926 l
3261 5008 m
3269 5004 l
3269 5004 m
3273 5000 l
3273 5000 m
3277 4992 l
3277 4992 m
3277 4984 l
3277 4984 m
3273 4976 l
3273 4976 m
3261 4969 l
3261 4969 m
3245 4961 l
3226 4934 m
3230 4937 l
3230 4937 m
3238 4937 l
3238 4937 m
3257 4930 l
3257 4930 m
3269 4930 l
3269 4930 m
3277 4934 l
3277 4934 m
3281 4937 l
3238 4937 m
3257 4926 l
3257 4926 m
3273 4926 l
3273 4926 m
3277 4930 l
3277 4930 m
3281 4937 l
3281 4937 m
3281 4945 l
3359 4996 m
3363 4984 l
3363 4984 m
3363 5008 l
3363 5008 m
3359 4996 l
3359 4996 m
3351 5004 l
3351 5004 m
3339 5008 l
3339 5008 m
3331 5008 l
3331 5008 m
3320 5004 l
3320 5004 m
3312 4996 l
3312 4996 m
3308 4988 l
3308 4988 m
3304 4976 l
3304 4976 m
3304 4957 l
3304 4957 m
3308 4945 l
3308 4945 m
3312 4937 l
3312 4937 m
3320 4930 l
3320 4930 m
3331 4926 l
3331 4926 m
3339 4926 l
3339 4926 m
3351 4930 l
3351 4930 m
3359 4937 l
3331 5008 m
3324 5004 l
3324 5004 m
3316 4996 l
3316 4996 m
3312 4988 l
3312 4988 m
3308 4976 l
3308 4976 m
3308 4957 l
3308 4957 m
3312 4945 l
3312 4945 m
3316 4937 l
3316 4937 m
3324 4930 l
3324 4930 m
3331 4926 l
3359 4957 m
3359 4926 l
3363 4957 m
3363 4926 l
3347 4957 m
3374 4957 l
3398 4957 m
3445 4957 l
3445 4957 m
3445 4965 l
3445 4965 m
3441 4973 l
3441 4973 m
3437 4976 l
3437 4976 m
3429 4980 l
3429 4980 m
3417 4980 l
3417 4980 m
3406 4976 l
3406 4976 m
3398 4969 l
3398 4969 m
3394 4957 l
3394 4957 m
3394 4949 l
3394 4949 m
3398 4937 l
3398 4937 m
3406 4930 l
3406 4930 m
3417 4926 l
3417 4926 m
3425 4926 l
3425 4926 m
3437 4930 l
3437 4930 m
3445 4937 l
3441 4957 m
3441 4969 l
3441 4969 m
3437 4976 l
3417 4980 m
3410 4976 l
3410 4976 m
3402 4969 l
3402 4969 m
3398 4957 l
3398 4957 m
3398 4949 l
3398 4949 m
3402 4937 l
3402 4937 m
3410 4930 l
3410 4930 m
3417 4926 l
3468 4980 m
3492 4926 l
3472 4980 m
3492 4934 l
3515 4980 m
3492 4926 l
3460 4980 m
3484 4980 l
3499 4980 m
3523 4980 l
3605 5023 m
3535 4898 l
3671 4969 m
3667 4965 l
3667 4965 m
3671 4961 l
3671 4961 m
3675 4965 l
3675 4965 m
3675 4969 l
3675 4969 m
3667 4976 l
3667 4976 m
3660 4980 l
3660 4980 m
3648 4980 l
3648 4980 m
3636 4976 l
3636 4976 m
3628 4969 l
3628 4969 m
3624 4957 l
3624 4957 m
3624 4949 l
3624 4949 m
3628 4937 l
3628 4937 m
3636 4930 l
3636 4930 m
3648 4926 l
3648 4926 m
3656 4926 l
3656 4926 m
3667 4930 l
3667 4930 m
3675 4937 l
3648 4980 m
3640 4976 l
3640 4976 m
3632 4969 l
3632 4969 m
3628 4957 l
3628 4957 m
3628 4949 l
3628 4949 m
3632 4937 l
3632 4937 m
3640 4930 l
3640 4930 m
3648 4926 l
3785 4976 m
3769 4926 l
3785 4976 m
3773 4926 l
3808 4976 m
3808 4926 l
3808 4976 m
3812 4926 l
3757 4969 m
3765 4976 l
3765 4976 m
3777 4980 l
3777 4980 m
3828 4980 l
3757 4969 m
3765 4973 l
3765 4973 m
3777 4976 l
3777 4976 m
3828 4976 l
3980 5008 m
3980 4926 l
3984 5008 m
3984 4926 l
3984 4969 m
3992 4976 l
3992 4976 m
3999 4980 l
3999 4980 m
4007 4980 l
4007 4980 m
4019 4976 l
4019 4976 m
4027 4969 l
4027 4969 m
4031 4957 l
4031 4957 m
4031 4949 l
4031 4949 m
4027 4937 l
4027 4937 m
4019 4930 l
4019 4930 m
4007 4926 l
4007 4926 m
3999 4926 l
3999 4926 m
3992 4930 l
3992 4930 m
3984 4937 l
4007 4980 m
4015 4976 l
4015 4976 m
4023 4969 l
4023 4969 m
4027 4957 l
4027 4957 m
4027 4949 l
4027 4949 m
4023 4937 l
4023 4937 m
4015 4930 l
4015 4930 m
4007 4926 l
3968 5008 m
3984 5008 l
4058 4957 m
4105 4957 l
4105 4957 m
4105 4965 l
4105 4965 m
4101 4973 l
4101 4973 m
4097 4976 l
4097 4976 m
4089 4980 l
4089 4980 m
4078 4980 l
4078 4980 m
4066 4976 l
4066 4976 m
4058 4969 l
4058 4969 m
4054 4957 l
4054 4957 m
4054 4949 l
4054 4949 m
4058 4937 l
4058 4937 m
4066 4930 l
4066 4930 m
4078 4926 l
4078 4926 m
4085 4926 l
4085 4926 m
4097 4930 l
4097 4930 m
4105 4937 l
4101 4957 m
4101 4969 l
4101 4969 m
4097 4976 l
4078 4980 m
4070 4976 l
4070 4976 m
4062 4969 l
4062 4969 m
4058 4957 l
4058 4957 m
4058 4949 l
4058 4949 m
4062 4937 l
4062 4937 m
4070 4930 l
4070 4930 m
4078 4926 l
4136 4973 m
4136 4969 l
4136 4969 m
4132 4969 l
4132 4969 m
4132 4973 l
4132 4973 m
4136 4976 l
4136 4976 m
4144 4980 l
4144 4980 m
4160 4980 l
4160 4980 m
4167 4976 l
4167 4976 m
4171 4973 l
4171 4973 m
4175 4965 l
4175 4965 m
4175 4937 l
4175 4937 m
4179 4930 l
4179 4930 m
4183 4926 l
4171 4973 m
4171 4937 l
4171 4937 m
4175 4930 l
4175 4930 m
4183 4926 l
4183 4926 m
4187 4926 l
4171 4965 m
4167 4961 l
4167 4961 m
4144 4957 l
4144 4957 m
4132 4953 l
4132 4953 m
4128 4945 l
4128 4945 m
4128 4937 l
4128 4937 m
4132 4930 l
4132 4930 m
4144 4926 l
4144 4926 m
4156 4926 l
4156 4926 m
4164 4930 l
4164 4930 m
4171 4937 l
4144 4957 m
4136 4953 l
4136 4953 m
4132 4945 l
4132 4945 m
4132 4937 l
4132 4937 m
4136 4930 l
4136 4930 m
4144 4926 l
4214 4980 m
4214 4926 l
4218 4980 m
4218 4926 l
4218 4969 m
4226 4976 l
4226 4976 m
4238 4980 l
4238 4980 m
4246 4980 l
4246 4980 m
4257 4976 l
4257 4976 m
4261 4969 l
4261 4969 m
4261 4926 l
4246 4980 m
4253 4976 l
4253 4976 m
4257 4969 l
4257 4969 m
4257 4926 l
4261 4969 m
4269 4976 l
4269 4976 m
4281 4980 l
4281 4980 m
4289 4980 l
4289 4980 m
4300 4976 l
4300 4976 m
4304 4969 l
4304 4969 m
4304 4926 l
4289 4980 m
4296 4976 l
4296 4976 m
4300 4969 l
4300 4969 m
4300 4926 l
4203 4980 m
4218 4980 l
4203 4926 m
4230 4926 l
4246 4926 m
4273 4926 l
4289 4926 m
4316 4926 l
stroke
newpath
lwidth setlinewidth
stroke
newpath
1.630769 setlinewidth
3859 5008 m
3890 5008 l
stroke
newpath
lwidth setlinewidth
stroke
newpath
3.261539 setlinewidth
2065 3804 m
2120 3858 l
2065 3858 m
2120 3804 l
2150 3838 m
2147 3834 l
2147 3834 m
2150 3831 l
2150 3831 m
2153 3834 l
2153 3834 m
2150 3838 l
2150 3797 m
2147 3794 l
2147 3794 m
2150 3790 l
2150 3790 m
2153 3794 l
2153 3794 m
2150 3797 l
2238 3862 m
2238 3790 l
2242 3862 m
2242 3790 l
stroke
2228 3862 m
2262 3862 l
2262 3862 m
2272 3858 l
2272 3858 m
2279 3851 l
2279 3851 m
2283 3845 l
2283 3845 m
2286 3834 l
2286 3834 m
2286 3817 l
2286 3817 m
2283 3807 l
2283 3807 m
2279 3800 l
2279 3800 m
2272 3794 l
2272 3794 m
2262 3790 l
2262 3790 m
2228 3790 l
2262 3862 m
2269 3858 l
2269 3858 m
2276 3851 l
2276 3851 m
2279 3845 l
2279 3845 m
2283 3834 l
2283 3834 m
2283 3817 l
2283 3817 m
2279 3807 l
2279 3807 m
2276 3800 l
2276 3800 m
2269 3794 l
2269 3794 m
2262 3790 l
2313 3862 m
2310 3858 l
2310 3858 m
2313 3855 l
2313 3855 m
2317 3858 l
2317 3858 m
2313 3862 l
2313 3838 m
2313 3790 l
2317 3838 m
2317 3790 l
2303 3838 m
2317 3838 l
2303 3790 m
2327 3790 l
2378 3831 m
2381 3838 l
2381 3838 m
2381 3824 l
2381 3824 m
2378 3831 l
2378 3831 m
2374 3834 l
2374 3834 m
2368 3838 l
2368 3838 m
2354 3838 l
2354 3838 m
2347 3834 l
2347 3834 m
2344 3831 l
2344 3831 m
2344 3824 l
2344 3824 m
2347 3821 l
2347 3821 m
2354 3817 l
2354 3817 m
2371 3811 l
2371 3811 m
2378 3807 l
2378 3807 m
2381 3804 l
2344 3828 m
2347 3824 l
2347 3824 m
2354 3821 l
2354 3821 m
2371 3814 l
2371 3814 m
2378 3811 l
2378 3811 m
2381 3807 l
2381 3807 m
2381 3797 l
2381 3797 m
2378 3794 l
2378 3794 m
2371 3790 l
2371 3790 m
2357 3790 l
2357 3790 m
2351 3794 l
2351 3794 m
2347 3797 l
2347 3797 m
2344 3804 l
2344 3804 m
2344 3790 l
2344 3790 m
2347 3797 l
2442 3828 m
2439 3824 l
2439 3824 m
2442 3821 l
2442 3821 m
2446 3824 l
2446 3824 m
2446 3828 l
2446 3828 m
2439 3834 l
2439 3834 m
2432 3838 l
2432 3838 m
2422 3838 l
2422 3838 m
2412 3834 l
2412 3834 m
2405 3828 l
2405 3828 m
2401 3817 l
2401 3817 m
2401 3811 l
2401 3811 m
2405 3800 l
2405 3800 m
2412 3794 l
2412 3794 m
2422 3790 l
2422 3790 m
2429 3790 l
2429 3790 m
2439 3794 l
2439 3794 m
2446 3800 l
2422 3838 m
2415 3834 l
2415 3834 m
2408 3828 l
2408 3828 m
2405 3817 l
2405 3817 m
2405 3811 l
2405 3811 m
2408 3800 l
2408 3800 m
2415 3794 l
2415 3794 m
2422 3790 l
2473 3838 m
2473 3790 l
2476 3838 m
2476 3790 l
2476 3817 m
2480 3828 l
2480 3828 m
2486 3834 l
2486 3834 m
2493 3838 l
2493 3838 m
2503 3838 l
2503 3838 m
2507 3834 l
2507 3834 m
2507 3831 l
2507 3831 m
2503 3828 l
2503 3828 m
2500 3831 l
2500 3831 m
2503 3834 l
2463 3838 m
2476 3838 l
2463 3790 m
2486 3790 l
2531 3862 m
2527 3858 l
2527 3858 m
2531 3855 l
2531 3855 m
2534 3858 l
2534 3858 m
2531 3862 l
2531 3838 m
2531 3790 l
2534 3838 m
2534 3790 l
2520 3838 m
2534 3838 l
2520 3790 m
2544 3790 l
2619 3831 m
2680 3831 l
2619 3811 m
2680 3811 l
2768 3848 m
2775 3851 l
2775 3851 m
2785 3862 l
2785 3862 m
2785 3790 l
2782 3858 m
2782 3790 l
2768 3790 m
2799 3790 l
2847 3862 m
2836 3858 l
2836 3858 m
2830 3848 l
2830 3848 m
2826 3831 l
2826 3831 m
2826 3821 l
2826 3821 m
2830 3804 l
2830 3804 m
2836 3794 l
2836 3794 m
2847 3790 l
2847 3790 m
2853 3790 l
2853 3790 m
2864 3794 l
2864 3794 m
2870 3804 l
2870 3804 m
2874 3821 l
2874 3821 m
2874 3831 l
2874 3831 m
2870 3848 l
2870 3848 m
2864 3858 l
2864 3858 m
2853 3862 l
2853 3862 m
2847 3862 l
2847 3862 m
2840 3858 l
2840 3858 m
2836 3855 l
2836 3855 m
2833 3848 l
2833 3848 m
2830 3831 l
2830 3831 m
2830 3821 l
2830 3821 m
2833 3804 l
2833 3804 m
2836 3797 l
2836 3797 m
2840 3794 l
2840 3794 m
2847 3790 l
2853 3790 m
2860 3794 l
2860 3794 m
2864 3797 l
2864 3797 m
2867 3804 l
2867 3804 m
2870 3821 l
2870 3821 m
2870 3831 l
2870 3831 m
2867 3848 l
2867 3848 m
2864 3855 l
2864 3855 m
2860 3858 l
2860 3858 m
2853 3862 l
2914 3862 m
2904 3858 l
2904 3858 m
2898 3848 l
2898 3848 m
2894 3831 l
2894 3831 m
2894 3821 l
2894 3821 m
2898 3804 l
2898 3804 m
2904 3794 l
2904 3794 m
2914 3790 l
2914 3790 m
2921 3790 l
2921 3790 m
2931 3794 l
2931 3794 m
2938 3804 l
2938 3804 m
2942 3821 l
2942 3821 m
2942 3831 l
2942 3831 m
2938 3848 l
2938 3848 m
2931 3858 l
2931 3858 m
2921 3862 l
2921 3862 m
2914 3862 l
2914 3862 m
2908 3858 l
2908 3858 m
2904 3855 l
2904 3855 m
2901 3848 l
2901 3848 m
2898 3831 l
2898 3831 m
2898 3821 l
2898 3821 m
2901 3804 l
2901 3804 m
2904 3797 l
2904 3797 m
2908 3794 l
2908 3794 m
2914 3790 l
2921 3790 m
2928 3794 l
2928 3794 m
2931 3797 l
2931 3797 m
2935 3804 l
2935 3804 m
2938 3821 l
2938 3821 m
2938 3831 l
2938 3831 m
2935 3848 l
2935 3848 m
2931 3855 l
2931 3855 m
2928 3858 l
2928 3858 m
2921 3862 l
2969 3838 m
2969 3790 l
2972 3838 m
2972 3790 l
2972 3828 m
2979 3834 l
2979 3834 m
2989 3838 l
2989 3838 m
2996 3838 l
2996 3838 m
3006 3834 l
3006 3834 m
3010 3828 l
3010 3828 m
3010 3790 l
2996 3838 m
3003 3834 l
3003 3834 m
3006 3828 l
3006 3828 m
3006 3790 l
3010 3828 m
3016 3834 l
3016 3834 m
3027 3838 l
3027 3838 m
3033 3838 l
3033 3838 m
3044 3834 l
3044 3834 m
3047 3828 l
3047 3828 m
3047 3790 l
3033 3838 m
3040 3834 l
3040 3834 m
3044 3828 l
3044 3828 m
3044 3790 l
2959 3838 m
2972 3838 l
2959 3790 m
2982 3790 l
2996 3790 m
3020 3790 l
3033 3790 m
3057 3790 l
3074 3862 m
3098 3790 l
3078 3862 m
3098 3800 l
3122 3862 m
3098 3790 l
3067 3862 m
3088 3862 l
3108 3862 m
3129 3862 l
stroke
newpath
lwidth setlinewidth
stroke
newpath
3.261539 setlinewidth
2065 3709 m
2092 3682 l
2092 3682 m
2120 3709 l
2120 3709 m
2092 3736 l
2092 3736 m
2065 3709 l
2150 3716 m
2147 3712 l
2147 3712 m
2150 3709 l
2150 3709 m
2153 3712 l
2153 3712 m
2150 3716 l
2150 3675 m
2147 3671 l
2147 3671 m
2150 3668 l
2150 3668 m
2153 3671 l
2153 3671 m
2150 3675 l
2238 3739 m
2238 3668 l
2242 3739 m
2242 3668 l
2228 3739 m
2262 3739 l
2262 3739 m
2272 3736 l
2272 3736 m
2279 3729 l
2279 3729 m
2283 3722 l
2283 3722 m
2286 3712 l
2286 3712 m
2286 3695 l
2286 3695 m
2283 3685 l
2283 3685 m
2279 3678 l
2279 3678 m
2272 3671 l
2272 3671 m
2262 3668 l
2262 3668 m
2228 3668 l
2262 3739 m
2269 3736 l
2269 3736 m
2276 3729 l
2276 3729 m
2279 3722 l
2279 3722 m
2283 3712 l
2283 3712 m
2283 3695 l
2283 3695 m
2279 3685 l
2279 3685 m
2276 3678 l
2276 3678 m
2269 3671 l
2269 3671 m
2262 3668 l
2313 3739 m
2310 3736 l
2310 3736 m
2313 3733 l
2313 3733 m
2317 3736 l
2317 3736 m
2313 3739 l
2313 3716 m
2313 3668 l
2317 3716 m
2317 3668 l
2303 3716 m
2317 3716 l
2303 3668 m
2327 3668 l
2378 3709 m
2381 3716 l
2381 3716 m
2381 3702 l
2381 3702 m
2378 3709 l
2378 3709 m
2374 3712 l
2374 3712 m
2368 3716 l
2368 3716 m
2354 3716 l
2354 3716 m
2347 3712 l
2347 3712 m
2344 3709 l
2344 3709 m
2344 3702 l
2344 3702 m
2347 3699 l
2347 3699 m
2354 3695 l
2354 3695 m
2371 3688 l
2371 3688 m
2378 3685 l
2378 3685 m
2381 3682 l
2344 3705 m
2347 3702 l
2347 3702 m
2354 3699 l
2354 3699 m
2371 3692 l
2371 3692 m
2378 3688 l
2378 3688 m
2381 3685 l
2381 3685 m
2381 3675 l
2381 3675 m
2378 3671 l
2378 3671 m
2371 3668 l
2371 3668 m
2357 3668 l
2357 3668 m
2351 3671 l
2351 3671 m
2347 3675 l
2347 3675 m
2344 3682 l
2344 3682 m
2344 3668 l
2344 3668 m
2347 3675 l
2442 3705 m
2439 3702 l
2439 3702 m
2442 3699 l
2442 3699 m
2446 3702 l
2446 3702 m
2446 3705 l
2446 3705 m
2439 3712 l
2439 3712 m
2432 3716 l
2432 3716 m
2422 3716 l
2422 3716 m
2412 3712 l
2412 3712 m
2405 3705 l
2405 3705 m
2401 3695 l
2401 3695 m
2401 3688 l
2401 3688 m
2405 3678 l
2405 3678 m
2412 3671 l
2412 3671 m
2422 3668 l
2422 3668 m
2429 3668 l
2429 3668 m
2439 3671 l
2439 3671 m
2446 3678 l
2422 3716 m
2415 3712 l
2415 3712 m
2408 3705 l
2408 3705 m
2405 3695 l
2405 3695 m
2405 3688 l
2405 3688 m
2408 3678 l
2408 3678 m
2415 3671 l
2415 3671 m
2422 3668 l
2473 3716 m
2473 3668 l
2476 3716 m
2476 3668 l
2476 3695 m
2480 3705 l
stroke
2480 3705 m
2486 3712 l
2486 3712 m
2493 3716 l
2493 3716 m
2503 3716 l
2503 3716 m
2507 3712 l
2507 3712 m
2507 3709 l
2507 3709 m
2503 3705 l
2503 3705 m
2500 3709 l
2500 3709 m
2503 3712 l
2463 3716 m
2476 3716 l
2463 3668 m
2486 3668 l
2531 3739 m
2527 3736 l
2527 3736 m
2531 3733 l
2531 3733 m
2534 3736 l
2534 3736 m
2531 3739 l
2531 3716 m
2531 3668 l
2534 3716 m
2534 3668 l
2520 3716 m
2534 3716 l
2520 3668 m
2544 3668 l
2619 3709 m
2680 3709 l
2619 3688 m
2680 3688 l
2819 3739 m
2813 3705 l
2813 3705 m
2819 3712 l
2819 3712 m
2830 3716 l
2830 3716 m
2840 3716 l
2840 3716 m
2850 3712 l
2850 3712 m
2857 3705 l
2857 3705 m
2860 3695 l
2860 3695 m
2860 3688 l
2860 3688 m
2857 3678 l
2857 3678 m
2850 3671 l
2850 3671 m
2840 3668 l
2840 3668 m
2830 3668 l
2830 3668 m
2819 3671 l
2819 3671 m
2816 3675 l
2816 3675 m
2813 3682 l
2813 3682 m
2813 3685 l
2813 3685 m
2816 3688 l
2816 3688 m
2819 3685 l
2819 3685 m
2816 3682 l
2840 3716 m
2847 3712 l
2847 3712 m
2853 3705 l
2853 3705 m
2857 3695 l
2857 3695 m
2857 3688 l
2857 3688 m
2853 3678 l
2853 3678 m
2847 3671 l
2847 3671 m
2840 3668 l
2819 3739 m
2853 3739 l
2819 3736 m
2836 3736 l
2836 3736 m
2853 3739 l
2901 3739 m
2891 3736 l
2891 3736 m
2884 3726 l
2884 3726 m
2881 3709 l
2881 3709 m
2881 3699 l
2881 3699 m
2884 3682 l
2884 3682 m
2891 3671 l
2891 3671 m
2901 3668 l
2901 3668 m
2908 3668 l
2908 3668 m
2918 3671 l
2918 3671 m
2925 3682 l
2925 3682 m
2928 3699 l
2928 3699 m
2928 3709 l
2928 3709 m
2925 3726 l
2925 3726 m
2918 3736 l
2918 3736 m
2908 3739 l
2908 3739 m
2901 3739 l
2901 3739 m
2894 3736 l
2894 3736 m
2891 3733 l
2891 3733 m
2887 3726 l
2887 3726 m
2884 3709 l
2884 3709 m
2884 3699 l
2884 3699 m
2887 3682 l
2887 3682 m
2891 3675 l
2891 3675 m
2894 3671 l
2894 3671 m
2901 3668 l
2908 3668 m
2914 3671 l
2914 3671 m
2918 3675 l
2918 3675 m
2921 3682 l
2921 3682 m
2925 3699 l
2925 3699 m
2925 3709 l
2925 3709 m
2921 3726 l
2921 3726 m
2918 3733 l
2918 3733 m
2914 3736 l
2914 3736 m
2908 3739 l
2955 3716 m
2955 3668 l
2959 3716 m
2959 3668 l
2959 3705 m
2965 3712 l
2965 3712 m
2976 3716 l
2976 3716 m
2982 3716 l
2982 3716 m
2993 3712 l
2993 3712 m
2996 3705 l
2996 3705 m
2996 3668 l
2982 3716 m
2989 3712 l
2989 3712 m
2993 3705 l
2993 3705 m
2993 3668 l
2996 3705 m
3003 3712 l
3003 3712 m
3013 3716 l
3013 3716 m
3020 3716 l
3020 3716 m
3030 3712 l
3030 3712 m
3033 3705 l
3033 3705 m
3033 3668 l
3020 3716 m
3027 3712 l
3027 3712 m
3030 3705 l
3030 3705 m
3030 3668 l
2945 3716 m
2959 3716 l
2945 3668 m
2969 3668 l
2982 3668 m
3006 3668 l
3020 3668 m
3044 3668 l
3061 3739 m
3084 3668 l
3064 3739 m
3084 3678 l
3108 3739 m
3084 3668 l
3054 3739 m
3074 3739 l
3095 3739 m
3115 3739 l
stroke
newpath
lwidth setlinewidth
stroke
newpath
3.261539 setlinewidth
2065 3559 m
2120 3559 l
2120 3559 m
2120 3614 l
2120 3614 m
2065 3614 l
2065 3614 m
2065 3559 l
2150 3593 m
2147 3590 l
2147 3590 m
2150 3586 l
2150 3586 m
2153 3590 l
2153 3590 m
2150 3593 l
2150 3552 m
2147 3549 l
2147 3549 m
2150 3546 l
2150 3546 m
2153 3549 l
2153 3549 m
2150 3552 l
2238 3617 m
2238 3546 l
2242 3617 m
2242 3546 l
2228 3617 m
2262 3617 l
2262 3617 m
2272 3614 l
2272 3614 m
2279 3607 l
2279 3607 m
2283 3600 l
2283 3600 m
2286 3590 l
2286 3590 m
2286 3573 l
2286 3573 m
2283 3563 l
2283 3563 m
2279 3556 l
2279 3556 m
2272 3549 l
2272 3549 m
2262 3546 l
2262 3546 m
2228 3546 l
2262 3617 m
2269 3614 l
2269 3614 m
2276 3607 l
2276 3607 m
2279 3600 l
2279 3600 m
2283 3590 l
2283 3590 m
2283 3573 l
2283 3573 m
2279 3563 l
2279 3563 m
2276 3556 l
2276 3556 m
2269 3549 l
2269 3549 m
2262 3546 l
2313 3617 m
2310 3614 l
2310 3614 m
2313 3610 l
2313 3610 m
2317 3614 l
2317 3614 m
2313 3617 l
2313 3593 m
2313 3546 l
2317 3593 m
2317 3546 l
2303 3593 m
2317 3593 l
2303 3546 m
2327 3546 l
2378 3586 m
2381 3593 l
2381 3593 m
2381 3580 l
2381 3580 m
2378 3586 l
2378 3586 m
2374 3590 l
2374 3590 m
2368 3593 l
2368 3593 m
2354 3593 l
2354 3593 m
2347 3590 l
2347 3590 m
2344 3586 l
2344 3586 m
2344 3580 l
2344 3580 m
2347 3576 l
2347 3576 m
2354 3573 l
2354 3573 m
2371 3566 l
2371 3566 m
2378 3563 l
2378 3563 m
2381 3559 l
2344 3583 m
2347 3580 l
2347 3580 m
2354 3576 l
2354 3576 m
2371 3569 l
2371 3569 m
2378 3566 l
2378 3566 m
2381 3563 l
2381 3563 m
2381 3552 l
2381 3552 m
2378 3549 l
2378 3549 m
2371 3546 l
2371 3546 m
2357 3546 l
2357 3546 m
2351 3549 l
2351 3549 m
2347 3552 l
2347 3552 m
2344 3559 l
2344 3559 m
2344 3546 l
2344 3546 m
2347 3552 l
2442 3583 m
2439 3580 l
2439 3580 m
2442 3576 l
2442 3576 m
2446 3580 l
2446 3580 m
2446 3583 l
2446 3583 m
2439 3590 l
2439 3590 m
2432 3593 l
2432 3593 m
2422 3593 l
2422 3593 m
2412 3590 l
2412 3590 m
2405 3583 l
2405 3583 m
2401 3573 l
2401 3573 m
2401 3566 l
2401 3566 m
2405 3556 l
2405 3556 m
2412 3549 l
2412 3549 m
2422 3546 l
2422 3546 m
2429 3546 l
2429 3546 m
2439 3549 l
2439 3549 m
2446 3556 l
2422 3593 m
2415 3590 l
2415 3590 m
2408 3583 l
2408 3583 m
2405 3573 l
2405 3573 m
2405 3566 l
2405 3566 m
2408 3556 l
2408 3556 m
2415 3549 l
2415 3549 m
2422 3546 l
2473 3593 m
2473 3546 l
2476 3593 m
2476 3546 l
2476 3573 m
2480 3583 l
2480 3583 m
2486 3590 l
2486 3590 m
2493 3593 l
2493 3593 m
2503 3593 l
2503 3593 m
2507 3590 l
2507 3590 m
2507 3586 l
2507 3586 m
2503 3583 l
2503 3583 m
2500 3586 l
2500 3586 m
2503 3590 l
2463 3593 m
2476 3593 l
2463 3546 m
2486 3546 l
2531 3617 m
2527 3614 l
2527 3614 m
2531 3610 l
2531 3610 m
2534 3614 l
2534 3614 m
2531 3617 l
2531 3593 m
2531 3546 l
2534 3593 m
2534 3546 l
2520 3593 m
2534 3593 l
2520 3546 m
2544 3546 l
2619 3586 m
2680 3586 l
2619 3566 m
2680 3566 l
2816 3603 m
2819 3600 l
2819 3600 m
2816 3597 l
2816 3597 m
2813 3600 l
2813 3600 m
2813 3603 l
2813 3603 m
2816 3610 l
2816 3610 m
2819 3614 l
2819 3614 m
2830 3617 l
2830 3617 m
2843 3617 l
2843 3617 m
2853 3614 l
2853 3614 m
2857 3610 l
2857 3610 m
2860 3603 l
2860 3603 m
2860 3597 l
2860 3597 m
2857 3590 l
2857 3590 m
2847 3583 l
2847 3583 m
2830 3576 l
2830 3576 m
2823 3573 l
2823 3573 m
2816 3566 l
2816 3566 m
2813 3556 l
2813 3556 m
2813 3546 l
2843 3617 m
2850 3614 l
2850 3614 m
2853 3610 l
2853 3610 m
2857 3603 l
2857 3603 m
2857 3597 l
2857 3597 m
2853 3590 l
2853 3590 m
2843 3583 l
2843 3583 m
2830 3576 l
2813 3552 m
2816 3556 l
2816 3556 m
2823 3556 l
2823 3556 m
2840 3549 l
2840 3549 m
2850 3549 l
2850 3549 m
2857 3552 l
2857 3552 m
2860 3556 l
2823 3556 m
2840 3546 l
2840 3546 m
2853 3546 l
2853 3546 m
2857 3549 l
2857 3549 m
2860 3556 l
2860 3556 m
2860 3563 l
2901 3617 m
2891 3614 l
2891 3614 m
2884 3603 l
2884 3603 m
2881 3586 l
2881 3586 m
2881 3576 l
2881 3576 m
2884 3559 l
2884 3559 m
2891 3549 l
2891 3549 m
2901 3546 l
2901 3546 m
2908 3546 l
2908 3546 m
2918 3549 l
2918 3549 m
2925 3559 l
2925 3559 m
2928 3576 l
2928 3576 m
2928 3586 l
2928 3586 m
2925 3603 l
2925 3603 m
2918 3614 l
2918 3614 m
2908 3617 l
2908 3617 m
2901 3617 l
2901 3617 m
2894 3614 l
2894 3614 m
2891 3610 l
2891 3610 m
2887 3603 l
2887 3603 m
2884 3586 l
2884 3586 m
2884 3576 l
2884 3576 m
2887 3559 l
2887 3559 m
2891 3552 l
2891 3552 m
2894 3549 l
2894 3549 m
2901 3546 l
2908 3546 m
2914 3549 l
2914 3549 m
2918 3552 l
2918 3552 m
2921 3559 l
2921 3559 m
2925 3576 l
2925 3576 m
2925 3586 l
2925 3586 m
2921 3603 l
2921 3603 m
2918 3610 l
2918 3610 m
2914 3614 l
2914 3614 m
2908 3617 l
2955 3593 m
2955 3546 l
2959 3593 m
2959 3546 l
stroke
2959 3583 m
2965 3590 l
2965 3590 m
2976 3593 l
2976 3593 m
2982 3593 l
2982 3593 m
2993 3590 l
2993 3590 m
2996 3583 l
2996 3583 m
2996 3546 l
2982 3593 m
2989 3590 l
2989 3590 m
2993 3583 l
2993 3583 m
2993 3546 l
2996 3583 m
3003 3590 l
3003 3590 m
3013 3593 l
3013 3593 m
3020 3593 l
3020 3593 m
3030 3590 l
3030 3590 m
3033 3583 l
3033 3583 m
3033 3546 l
3020 3593 m
3027 3590 l
3027 3590 m
3030 3583 l
3030 3583 m
3030 3546 l
2945 3593 m
2959 3593 l
2945 3546 m
2969 3546 l
2982 3546 m
3006 3546 l
3020 3546 m
3044 3546 l
3061 3617 m
3084 3546 l
3064 3617 m
3084 3556 l
3108 3617 m
3084 3546 l
3054 3617 m
3074 3617 l
3095 3617 m
3115 3617 l
stroke
newpath
lwidth setlinewidth
1060 5380 m
1060 2526 l
1060 2526 m
4770 2526 l
4770 2526 m
4770 5380 l
4770 5380 m
1060 5380 l
stroke
newpath
3.261539 setlinewidth
4588 4005 m
4642 4059 l
4588 4059 m
4642 4005 l
stroke
newpath
lwidth setlinewidth
stroke
newpath
3.261539 setlinewidth
4279 4378 m
4333 4432 l
4279 4432 m
4333 4378 l
stroke
newpath
lwidth setlinewidth
stroke
newpath
3.261539 setlinewidth
3969 4204 m
4024 4259 l
3969 4259 m
4024 4204 l
stroke
newpath
lwidth setlinewidth
stroke
newpath
3.261539 setlinewidth
3660 4457 m
3715 4511 l
3660 4511 m
3715 4457 l
stroke
newpath
lwidth setlinewidth
stroke
newpath
3.261539 setlinewidth
3351 4435 m
3405 4489 l
3351 4489 m
3405 4435 l
stroke
newpath
lwidth setlinewidth
stroke
newpath
3.261539 setlinewidth
3042 4414 m
3096 4468 l
3042 4468 m
3096 4414 l
stroke
newpath
lwidth setlinewidth
stroke
newpath
3.261539 setlinewidth
2733 4468 m
2787 4523 l
2733 4523 m
2787 4468 l
stroke
newpath
lwidth setlinewidth
stroke
newpath
3.261539 setlinewidth
2424 4459 m
2478 4513 l
2424 4513 m
2478 4459 l
stroke
newpath
lwidth setlinewidth
stroke
newpath
3.261539 setlinewidth
2114 4366 m
2169 4420 l
2114 4420 m
2169 4366 l
stroke
newpath
lwidth setlinewidth
stroke
newpath
3.261539 setlinewidth
1805 4492 m
1860 4547 l
1805 4547 m
1860 4492 l
stroke
newpath
lwidth setlinewidth
stroke
newpath
3.261539 setlinewidth
1496 4376 m
1550 4430 l
1496 4430 m
1550 4376 l
stroke
newpath
lwidth setlinewidth
stroke
newpath
3.261539 setlinewidth
1187 4178 m
1241 4233 l
1187 4233 m
1241 4178 l
stroke
newpath
lwidth setlinewidth
1214 2526 m
1214 2567 l
1369 2526 m
1369 2649 l
1523 2526 m
1523 2567 l
1678 2526 m
1678 2567 l
1832 2526 m
1832 2567 l
1987 2526 m
1987 2567 l
2142 2526 m
2142 2649 l
2296 2526 m
2296 2567 l
2451 2526 m
2451 2567 l
2605 2526 m
2605 2567 l
2760 2526 m
2760 2567 l
2915 2526 m
2915 2649 l
3069 2526 m
3069 2567 l
3224 2526 m
3224 2567 l
3378 2526 m
3378 2567 l
3533 2526 m
3533 2567 l
3687 2526 m
3687 2649 l
3842 2526 m
3842 2567 l
3997 2526 m
3997 2567 l
4151 2526 m
4151 2567 l
4306 2526 m
4306 2567 l
4460 2526 m
4460 2649 l
4615 2526 m
4615 2567 l
4769 2526 m
4769 2567 l
stroke
newpath
3.261539 setlinewidth
1268 2418 m
1329 2418 l
1360 2459 m
1353 2425 l
1353 2425 m
1360 2432 l
1360 2432 m
1370 2435 l
1370 2435 m
1380 2435 l
1380 2435 m
1390 2432 l
1390 2432 m
1397 2425 l
1397 2425 m
1401 2415 l
1401 2415 m
1401 2408 l
1401 2408 m
1397 2398 l
1397 2398 m
1390 2391 l
1390 2391 m
1380 2388 l
1380 2388 m
1370 2388 l
1370 2388 m
1360 2391 l
1360 2391 m
1356 2395 l
1356 2395 m
1353 2401 l
1353 2401 m
1353 2405 l
1353 2405 m
1356 2408 l
1356 2408 m
1360 2405 l
1360 2405 m
1356 2401 l
1380 2435 m
1387 2432 l
1387 2432 m
1394 2425 l
1394 2425 m
1397 2415 l
1397 2415 m
1397 2408 l
1397 2408 m
1394 2398 l
1394 2398 m
1387 2391 l
1387 2391 m
1380 2388 l
1360 2459 m
1394 2459 l
1360 2456 m
1377 2456 l
1377 2456 m
1394 2459 l
1441 2459 m
1431 2456 l
1431 2456 m
1424 2446 l
1424 2446 m
1421 2429 l
1421 2429 m
1421 2418 l
1421 2418 m
1424 2401 l
1424 2401 m
1431 2391 l
1431 2391 m
1441 2388 l
1441 2388 m
1448 2388 l
1448 2388 m
1458 2391 l
1458 2391 m
1465 2401 l
1465 2401 m
1469 2418 l
1469 2418 m
1469 2429 l
1469 2429 m
1465 2446 l
1465 2446 m
1458 2456 l
1458 2456 m
1448 2459 l
1448 2459 m
1441 2459 l
1441 2459 m
1435 2456 l
1435 2456 m
1431 2452 l
1431 2452 m
1428 2446 l
1428 2446 m
1424 2429 l
1424 2429 m
1424 2418 l
1424 2418 m
1428 2401 l
1428 2401 m
1431 2395 l
1431 2395 m
1435 2391 l
1435 2391 m
1441 2388 l
1448 2388 m
1455 2391 l
1455 2391 m
1458 2395 l
1458 2395 m
1462 2401 l
1462 2401 m
1465 2418 l
1465 2418 m
1465 2429 l
1465 2429 m
1462 2446 l
1462 2446 m
1458 2452 l
1458 2452 m
1455 2456 l
1455 2456 m
1448 2459 l
stroke
newpath
lwidth setlinewidth
stroke
newpath
3.261539 setlinewidth
2131 2459 m
2121 2456 l
2121 2456 m
2114 2446 l
2114 2446 m
2111 2429 l
2111 2429 m
2111 2418 l
2111 2418 m
2114 2401 l
2114 2401 m
2121 2391 l
2121 2391 m
2131 2388 l
2131 2388 m
2138 2388 l
2138 2388 m
2148 2391 l
2148 2391 m
2155 2401 l
2155 2401 m
2159 2418 l
2159 2418 m
2159 2429 l
2159 2429 m
2155 2446 l
2155 2446 m
2148 2456 l
2148 2456 m
2138 2459 l
2138 2459 m
2131 2459 l
2131 2459 m
2125 2456 l
2125 2456 m
2121 2452 l
2121 2452 m
2118 2446 l
2118 2446 m
2114 2429 l
2114 2429 m
2114 2418 l
2114 2418 m
2118 2401 l
2118 2401 m
2121 2395 l
2121 2395 m
2125 2391 l
2125 2391 m
2131 2388 l
2138 2388 m
2145 2391 l
2145 2391 m
2148 2395 l
2148 2395 m
2152 2401 l
2152 2401 m
2155 2418 l
2155 2418 m
2155 2429 l
2155 2429 m
2152 2446 l
2152 2446 m
2148 2452 l
2148 2452 m
2145 2456 l
2145 2456 m
2138 2459 l
stroke
newpath
lwidth setlinewidth
stroke
newpath
3.261539 setlinewidth
2854 2459 m
2847 2425 l
2847 2425 m
2854 2432 l
2854 2432 m
2864 2435 l
2864 2435 m
2874 2435 l
2874 2435 m
2885 2432 l
2885 2432 m
2891 2425 l
2891 2425 m
2895 2415 l
2895 2415 m
2895 2408 l
2895 2408 m
2891 2398 l
2891 2398 m
2885 2391 l
2885 2391 m
2874 2388 l
2874 2388 m
2864 2388 l
2864 2388 m
2854 2391 l
2854 2391 m
2851 2395 l
2851 2395 m
2847 2401 l
2847 2401 m
2847 2405 l
2847 2405 m
2851 2408 l
2851 2408 m
2854 2405 l
2854 2405 m
2851 2401 l
2874 2435 m
2881 2432 l
2881 2432 m
2888 2425 l
2888 2425 m
2891 2415 l
2891 2415 m
2891 2408 l
2891 2408 m
2888 2398 l
2888 2398 m
2881 2391 l
2881 2391 m
2874 2388 l
2854 2459 m
2888 2459 l
2854 2456 m
2871 2456 l
2871 2456 m
2888 2459 l
2936 2459 m
2925 2456 l
2925 2456 m
2919 2446 l
2919 2446 m
2915 2429 l
2915 2429 m
2915 2418 l
2915 2418 m
2919 2401 l
2919 2401 m
2925 2391 l
2925 2391 m
2936 2388 l
2936 2388 m
2942 2388 l
2942 2388 m
2953 2391 l
2953 2391 m
2959 2401 l
2959 2401 m
2963 2418 l
2963 2418 m
2963 2429 l
2963 2429 m
2959 2446 l
2959 2446 m
2953 2456 l
2953 2456 m
2942 2459 l
2942 2459 m
2936 2459 l
2936 2459 m
2929 2456 l
2929 2456 m
2925 2452 l
2925 2452 m
2922 2446 l
2922 2446 m
2919 2429 l
2919 2429 m
2919 2418 l
2919 2418 m
2922 2401 l
2922 2401 m
2925 2395 l
2925 2395 m
2929 2391 l
2929 2391 m
2936 2388 l
2942 2388 m
2949 2391 l
2949 2391 m
2953 2395 l
2953 2395 m
2956 2401 l
2956 2401 m
2959 2418 l
2959 2418 m
2959 2429 l
2959 2429 m
2956 2446 l
2956 2446 m
2953 2452 l
2953 2452 m
2949 2456 l
2949 2456 m
2942 2459 l
stroke
newpath
lwidth setlinewidth
stroke
newpath
3.261539 setlinewidth
3594 2446 m
3600 2449 l
3600 2449 m
3611 2459 l
3611 2459 m
3611 2388 l
3607 2456 m
3607 2388 l
3594 2388 m
3624 2388 l
3672 2459 m
3662 2456 l
3662 2456 m
3655 2446 l
3655 2446 m
3651 2429 l
3651 2429 m
3651 2418 l
3651 2418 m
3655 2401 l
3655 2401 m
3662 2391 l
3662 2391 m
3672 2388 l
3672 2388 m
3679 2388 l
3679 2388 m
3689 2391 l
3689 2391 m
3696 2401 l
3696 2401 m
3699 2418 l
3699 2418 m
3699 2429 l
3699 2429 m
3696 2446 l
3696 2446 m
3689 2456 l
3689 2456 m
3679 2459 l
3679 2459 m
3672 2459 l
3672 2459 m
3665 2456 l
3665 2456 m
3662 2452 l
3662 2452 m
3658 2446 l
3658 2446 m
3655 2429 l
3655 2429 m
3655 2418 l
3655 2418 m
3658 2401 l
3658 2401 m
3662 2395 l
3662 2395 m
3665 2391 l
3665 2391 m
3672 2388 l
3679 2388 m
3685 2391 l
3685 2391 m
3689 2395 l
3689 2395 m
3692 2401 l
3692 2401 m
3696 2418 l
3696 2418 m
3696 2429 l
3696 2429 m
3692 2446 l
3692 2446 m
3689 2452 l
3689 2452 m
3685 2456 l
3685 2456 m
3679 2459 l
3740 2459 m
3730 2456 l
3730 2456 m
3723 2446 l
3723 2446 m
3719 2429 l
3719 2429 m
3719 2418 l
3719 2418 m
3723 2401 l
3723 2401 m
3730 2391 l
3730 2391 m
3740 2388 l
3740 2388 m
3747 2388 l
3747 2388 m
3757 2391 l
3757 2391 m
3764 2401 l
3764 2401 m
3767 2418 l
3767 2418 m
3767 2429 l
3767 2429 m
3764 2446 l
3764 2446 m
3757 2456 l
3757 2456 m
3747 2459 l
3747 2459 m
3740 2459 l
3740 2459 m
3733 2456 l
3733 2456 m
3730 2452 l
3730 2452 m
3726 2446 l
3726 2446 m
3723 2429 l
3723 2429 m
3723 2418 l
3723 2418 m
3726 2401 l
3726 2401 m
3730 2395 l
stroke
3730 2395 m
3733 2391 l
3733 2391 m
3740 2388 l
3747 2388 m
3753 2391 l
3753 2391 m
3757 2395 l
3757 2395 m
3760 2401 l
3760 2401 m
3764 2418 l
3764 2418 m
3764 2429 l
3764 2429 m
3760 2446 l
3760 2446 m
3757 2452 l
3757 2452 m
3753 2456 l
3753 2456 m
3747 2459 l
stroke
newpath
lwidth setlinewidth
stroke
newpath
3.261539 setlinewidth
4367 2446 m
4373 2449 l
4373 2449 m
4384 2459 l
4384 2459 m
4384 2388 l
4380 2456 m
4380 2388 l
4367 2388 m
4397 2388 l
4431 2459 m
4424 2425 l
4424 2425 m
4431 2432 l
4431 2432 m
4441 2435 l
4441 2435 m
4451 2435 l
4451 2435 m
4462 2432 l
4462 2432 m
4468 2425 l
4468 2425 m
4472 2415 l
4472 2415 m
4472 2408 l
4472 2408 m
4468 2398 l
4468 2398 m
4462 2391 l
4462 2391 m
4451 2388 l
4451 2388 m
4441 2388 l
4441 2388 m
4431 2391 l
4431 2391 m
4428 2395 l
4428 2395 m
4424 2401 l
4424 2401 m
4424 2405 l
4424 2405 m
4428 2408 l
4428 2408 m
4431 2405 l
4431 2405 m
4428 2401 l
4451 2435 m
4458 2432 l
4458 2432 m
4465 2425 l
4465 2425 m
4468 2415 l
4468 2415 m
4468 2408 l
4468 2408 m
4465 2398 l
4465 2398 m
4458 2391 l
4458 2391 m
4451 2388 l
4431 2459 m
4465 2459 l
4431 2456 m
4448 2456 l
4448 2456 m
4465 2459 l
4513 2459 m
4502 2456 l
4502 2456 m
4496 2446 l
4496 2446 m
4492 2429 l
4492 2429 m
4492 2418 l
4492 2418 m
4496 2401 l
4496 2401 m
4502 2391 l
4502 2391 m
4513 2388 l
4513 2388 m
4519 2388 l
4519 2388 m
4530 2391 l
4530 2391 m
4536 2401 l
4536 2401 m
4540 2418 l
4540 2418 m
4540 2429 l
4540 2429 m
4536 2446 l
4536 2446 m
4530 2456 l
4530 2456 m
4519 2459 l
4519 2459 m
4513 2459 l
4513 2459 m
4506 2456 l
4506 2456 m
4502 2452 l
4502 2452 m
4499 2446 l
4499 2446 m
4496 2429 l
4496 2429 m
4496 2418 l
4496 2418 m
4499 2401 l
4499 2401 m
4502 2395 l
4502 2395 m
4506 2391 l
4506 2391 m
4513 2388 l
4519 2388 m
4526 2391 l
4526 2391 m
4530 2395 l
4530 2395 m
4533 2401 l
4533 2401 m
4536 2418 l
4536 2418 m
4536 2429 l
4536 2429 m
4533 2446 l
4533 2446 m
4530 2452 l
4530 2452 m
4526 2456 l
4526 2456 m
4519 2459 l
stroke
newpath
lwidth setlinewidth
1214 5340 m
1214 5380 l
1369 5258 m
1369 5380 l
1523 5340 m
1523 5380 l
1678 5340 m
1678 5380 l
1832 5340 m
1832 5380 l
1987 5340 m
1987 5380 l
2142 5258 m
2142 5380 l
2296 5340 m
2296 5380 l
2451 5340 m
2451 5380 l
2605 5340 m
2605 5380 l
2760 5340 m
2760 5380 l
2915 5258 m
2915 5380 l
3069 5340 m
3069 5380 l
3224 5340 m
3224 5380 l
3378 5340 m
3378 5380 l
3533 5340 m
3533 5380 l
3687 5258 m
3687 5380 l
3842 5340 m
3842 5380 l
3997 5340 m
3997 5380 l
4151 5340 m
4151 5380 l
4306 5340 m
4306 5380 l
4460 5258 m
4460 5380 l
4615 5340 m
4615 5380 l
4769 5340 m
4769 5380 l
1060 2526 m
1182 2526 l
1060 2622 m
1100 2622 l
1060 2717 m
1100 2717 l
1060 2812 m
1100 2812 l
1060 2907 m
1100 2907 l
1060 3002 m
1182 3002 l
1060 3097 m
1100 3097 l
1060 3192 m
1100 3192 l
1060 3287 m
1100 3287 l
1060 3383 m
1100 3383 l
1060 3478 m
1182 3478 l
1060 3573 m
1100 3573 l
1060 3668 m
1100 3668 l
1060 3763 m
1100 3763 l
1060 3858 m
1100 3858 l
1060 3953 m
1182 3953 l
1060 4048 m
1100 4048 l
1060 4144 m
1100 4144 l
1060 4239 m
1100 4239 l
1060 4334 m
1100 4334 l
1060 4429 m
1182 4429 l
1060 4524 m
1100 4524 l
1060 4619 m
1100 4619 l
1060 4714 m
1100 4714 l
1060 4810 m
1100 4810 l
1060 4905 m
1182 4905 l
1060 5000 m
1100 5000 l
1060 5095 m
1100 5095 l
1060 5190 m
1100 5190 l
1060 5285 m
1100 5285 l
1060 5380 m
1182 5380 l
stroke
newpath
3.261539 setlinewidth
938 2557 m
928 2554 l
928 2554 m
921 2543 l
921 2543 m
917 2526 l
917 2526 m
917 2516 l
917 2516 m
921 2499 l
921 2499 m
928 2489 l
928 2489 m
938 2486 l
938 2486 m
945 2486 l
945 2486 m
955 2489 l
955 2489 m
962 2499 l
962 2499 m
965 2516 l
965 2516 m
965 2526 l
965 2526 m
962 2543 l
962 2543 m
955 2554 l
955 2554 m
945 2557 l
945 2557 m
938 2557 l
938 2557 m
931 2554 l
931 2554 m
928 2550 l
928 2550 m
924 2543 l
924 2543 m
921 2526 l
921 2526 m
921 2516 l
921 2516 m
924 2499 l
924 2499 m
928 2492 l
928 2492 m
931 2489 l
931 2489 m
938 2486 l
945 2486 m
951 2489 l
951 2489 m
955 2492 l
955 2492 m
958 2499 l
958 2499 m
962 2516 l
962 2516 m
962 2526 l
962 2526 m
958 2543 l
958 2543 m
955 2550 l
955 2550 m
951 2554 l
951 2554 m
945 2557 l
stroke
newpath
lwidth setlinewidth
stroke
newpath
3.261539 setlinewidth
867 3019 m
870 3016 l
870 3016 m
867 3012 l
867 3012 m
863 3016 l
863 3016 m
863 3019 l
863 3019 m
867 3026 l
867 3026 m
870 3029 l
870 3029 m
880 3033 l
880 3033 m
894 3033 l
894 3033 m
904 3029 l
904 3029 m
907 3026 l
907 3026 m
911 3019 l
911 3019 m
911 3012 l
911 3012 m
907 3005 l
907 3005 m
897 2999 l
897 2999 m
880 2992 l
880 2992 m
873 2988 l
873 2988 m
867 2982 l
867 2982 m
863 2971 l
863 2971 m
863 2961 l
894 3033 m
901 3029 l
901 3029 m
904 3026 l
904 3026 m
907 3019 l
907 3019 m
907 3012 l
907 3012 m
904 3005 l
904 3005 m
894 2999 l
894 2999 m
880 2992 l
863 2968 m
867 2971 l
867 2971 m
873 2971 l
873 2971 m
890 2965 l
890 2965 m
901 2965 l
901 2965 m
907 2968 l
907 2968 m
911 2971 l
873 2971 m
890 2961 l
890 2961 m
904 2961 l
904 2961 m
907 2965 l
907 2965 m
911 2971 l
911 2971 m
911 2978 l
951 3033 m
941 3029 l
941 3029 m
934 3019 l
934 3019 m
931 3002 l
931 3002 m
931 2992 l
931 2992 m
934 2975 l
934 2975 m
941 2965 l
941 2965 m
951 2961 l
951 2961 m
958 2961 l
958 2961 m
968 2965 l
968 2965 m
975 2975 l
975 2975 m
979 2992 l
979 2992 m
979 3002 l
979 3002 m
975 3019 l
975 3019 m
968 3029 l
968 3029 m
958 3033 l
958 3033 m
951 3033 l
951 3033 m
945 3029 l
945 3029 m
941 3026 l
941 3026 m
938 3019 l
938 3019 m
934 3002 l
934 3002 m
934 2992 l
934 2992 m
938 2975 l
938 2975 m
941 2968 l
941 2968 m
945 2965 l
945 2965 m
951 2961 l
958 2961 m
965 2965 l
965 2965 m
968 2968 l
968 2968 m
972 2975 l
972 2975 m
975 2992 l
975 2992 m
975 3002 l
975 3002 m
972 3019 l
972 3019 m
968 3026 l
968 3026 m
965 3029 l
965 3029 m
958 3033 l
stroke
newpath
lwidth setlinewidth
stroke
newpath
3.261539 setlinewidth
894 3501 m
894 3437 l
897 3508 m
897 3437 l
897 3508 m
860 3457 l
860 3457 m
914 3457 l
884 3437 m
907 3437 l
951 3508 m
941 3505 l
941 3505 m
934 3495 l
934 3495 m
931 3478 l
931 3478 m
931 3468 l
931 3468 m
934 3451 l
934 3451 m
941 3440 l
941 3440 m
951 3437 l
951 3437 m
958 3437 l
958 3437 m
968 3440 l
968 3440 m
975 3451 l
975 3451 m
979 3468 l
979 3468 m
979 3478 l
979 3478 m
975 3495 l
975 3495 m
968 3505 l
968 3505 m
958 3508 l
958 3508 m
951 3508 l
951 3508 m
945 3505 l
945 3505 m
941 3501 l
941 3501 m
938 3495 l
938 3495 m
934 3478 l
934 3478 m
934 3468 l
934 3468 m
938 3451 l
938 3451 m
941 3444 l
941 3444 m
945 3440 l
945 3440 m
951 3437 l
958 3437 m
965 3440 l
965 3440 m
968 3444 l
968 3444 m
972 3451 l
972 3451 m
975 3468 l
975 3468 m
975 3478 l
975 3478 m
972 3495 l
972 3495 m
968 3501 l
968 3501 m
965 3505 l
965 3505 m
958 3508 l
stroke
newpath
lwidth setlinewidth
stroke
newpath
3.261539 setlinewidth
904 3974 m
901 3970 l
901 3970 m
904 3967 l
904 3967 m
907 3970 l
907 3970 m
907 3974 l
907 3974 m
904 3981 l
904 3981 m
897 3984 l
897 3984 m
887 3984 l
887 3984 m
877 3981 l
877 3981 m
870 3974 l
870 3974 m
867 3967 l
867 3967 m
863 3953 l
863 3953 m
863 3933 l
863 3933 m
867 3923 l
867 3923 m
873 3916 l
873 3916 m
884 3913 l
884 3913 m
890 3913 l
890 3913 m
901 3916 l
901 3916 m
907 3923 l
907 3923 m
911 3933 l
911 3933 m
911 3936 l
911 3936 m
907 3947 l
907 3947 m
901 3953 l
901 3953 m
890 3957 l
890 3957 m
887 3957 l
stroke
887 3957 m
877 3953 l
877 3953 m
870 3947 l
870 3947 m
867 3936 l
887 3984 m
880 3981 l
880 3981 m
873 3974 l
873 3974 m
870 3967 l
870 3967 m
867 3953 l
867 3953 m
867 3933 l
867 3933 m
870 3923 l
870 3923 m
877 3916 l
877 3916 m
884 3913 l
890 3913 m
897 3916 l
897 3916 m
904 3923 l
904 3923 m
907 3933 l
907 3933 m
907 3936 l
907 3936 m
904 3947 l
904 3947 m
897 3953 l
897 3953 m
890 3957 l
951 3984 m
941 3981 l
941 3981 m
934 3970 l
934 3970 m
931 3953 l
931 3953 m
931 3943 l
931 3943 m
934 3926 l
934 3926 m
941 3916 l
941 3916 m
951 3913 l
951 3913 m
958 3913 l
958 3913 m
968 3916 l
968 3916 m
975 3926 l
975 3926 m
979 3943 l
979 3943 m
979 3953 l
979 3953 m
975 3970 l
975 3970 m
968 3981 l
968 3981 m
958 3984 l
958 3984 m
951 3984 l
951 3984 m
945 3981 l
945 3981 m
941 3977 l
941 3977 m
938 3970 l
938 3970 m
934 3953 l
934 3953 m
934 3943 l
934 3943 m
938 3926 l
938 3926 m
941 3919 l
941 3919 m
945 3916 l
945 3916 m
951 3913 l
958 3913 m
965 3916 l
965 3916 m
968 3919 l
968 3919 m
972 3926 l
972 3926 m
975 3943 l
975 3943 m
975 3953 l
975 3953 m
972 3970 l
972 3970 m
968 3977 l
968 3977 m
965 3981 l
965 3981 m
958 3984 l
stroke
newpath
lwidth setlinewidth
stroke
newpath
3.261539 setlinewidth
880 4460 m
870 4456 l
870 4456 m
867 4449 l
867 4449 m
867 4439 l
867 4439 m
870 4432 l
870 4432 m
880 4429 l
880 4429 m
894 4429 l
894 4429 m
904 4432 l
904 4432 m
907 4439 l
907 4439 m
907 4449 l
907 4449 m
904 4456 l
904 4456 m
894 4460 l
894 4460 m
880 4460 l
880 4460 m
873 4456 l
873 4456 m
870 4449 l
870 4449 m
870 4439 l
870 4439 m
873 4432 l
873 4432 m
880 4429 l
894 4429 m
901 4432 l
901 4432 m
904 4439 l
904 4439 m
904 4449 l
904 4449 m
901 4456 l
901 4456 m
894 4460 l
880 4429 m
870 4426 l
870 4426 m
867 4422 l
867 4422 m
863 4415 l
863 4415 m
863 4402 l
863 4402 m
867 4395 l
867 4395 m
870 4392 l
870 4392 m
880 4388 l
880 4388 m
894 4388 l
894 4388 m
904 4392 l
904 4392 m
907 4395 l
907 4395 m
911 4402 l
911 4402 m
911 4415 l
911 4415 m
907 4422 l
907 4422 m
904 4426 l
904 4426 m
894 4429 l
880 4429 m
873 4426 l
873 4426 m
870 4422 l
870 4422 m
867 4415 l
867 4415 m
867 4402 l
867 4402 m
870 4395 l
870 4395 m
873 4392 l
873 4392 m
880 4388 l
894 4388 m
901 4392 l
901 4392 m
904 4395 l
904 4395 m
907 4402 l
907 4402 m
907 4415 l
907 4415 m
904 4422 l
904 4422 m
901 4426 l
901 4426 m
894 4429 l
951 4460 m
941 4456 l
941 4456 m
934 4446 l
934 4446 m
931 4429 l
931 4429 m
931 4419 l
931 4419 m
934 4402 l
934 4402 m
941 4392 l
941 4392 m
951 4388 l
951 4388 m
958 4388 l
958 4388 m
968 4392 l
968 4392 m
975 4402 l
975 4402 m
979 4419 l
979 4419 m
979 4429 l
979 4429 m
975 4446 l
975 4446 m
968 4456 l
968 4456 m
958 4460 l
958 4460 m
951 4460 l
951 4460 m
945 4456 l
945 4456 m
941 4453 l
941 4453 m
938 4446 l
938 4446 m
934 4429 l
934 4429 m
934 4419 l
934 4419 m
938 4402 l
938 4402 m
941 4395 l
941 4395 m
945 4392 l
945 4392 m
951 4388 l
958 4388 m
965 4392 l
965 4392 m
968 4395 l
968 4395 m
972 4402 l
972 4402 m
975 4419 l
975 4419 m
975 4429 l
975 4429 m
972 4446 l
972 4446 m
968 4453 l
968 4453 m
965 4456 l
965 4456 m
958 4460 l
stroke
newpath
lwidth setlinewidth
stroke
newpath
3.261539 setlinewidth
819 4922 m
826 4925 l
826 4925 m
836 4935 l
836 4935 m
836 4864 l
833 4932 m
833 4864 l
819 4864 m
850 4864 l
897 4935 m
887 4932 l
887 4932 m
880 4922 l
880 4922 m
877 4905 l
877 4905 m
877 4894 l
877 4894 m
880 4877 l
880 4877 m
887 4867 l
887 4867 m
897 4864 l
897 4864 m
904 4864 l
904 4864 m
914 4867 l
914 4867 m
921 4877 l
921 4877 m
924 4894 l
924 4894 m
924 4905 l
924 4905 m
921 4922 l
921 4922 m
914 4932 l
914 4932 m
904 4935 l
904 4935 m
897 4935 l
897 4935 m
890 4932 l
890 4932 m
887 4928 l
887 4928 m
884 4922 l
884 4922 m
880 4905 l
880 4905 m
880 4894 l
880 4894 m
884 4877 l
884 4877 m
887 4871 l
887 4871 m
890 4867 l
890 4867 m
897 4864 l
904 4864 m
911 4867 l
911 4867 m
914 4871 l
914 4871 m
917 4877 l
917 4877 m
921 4894 l
921 4894 m
921 4905 l
921 4905 m
917 4922 l
917 4922 m
914 4928 l
914 4928 m
911 4932 l
911 4932 m
904 4935 l
965 4935 m
955 4932 l
955 4932 m
948 4922 l
948 4922 m
945 4905 l
945 4905 m
945 4894 l
945 4894 m
948 4877 l
948 4877 m
955 4867 l
955 4867 m
965 4864 l
965 4864 m
972 4864 l
972 4864 m
982 4867 l
982 4867 m
989 4877 l
989 4877 m
992 4894 l
992 4894 m
992 4905 l
992 4905 m
989 4922 l
989 4922 m
982 4932 l
982 4932 m
972 4935 l
972 4935 m
965 4935 l
965 4935 m
958 4932 l
958 4932 m
955 4928 l
955 4928 m
951 4922 l
951 4922 m
948 4905 l
948 4905 m
948 4894 l
948 4894 m
951 4877 l
951 4877 m
955 4871 l
955 4871 m
958 4867 l
958 4867 m
965 4864 l
972 4864 m
979 4867 l
979 4867 m
982 4871 l
982 4871 m
985 4877 l
985 4877 m
989 4894 l
989 4894 m
989 4905 l
989 4905 m
985 4922 l
985 4922 m
982 4928 l
982 4928 m
979 4932 l
979 4932 m
972 4935 l
stroke
newpath
lwidth setlinewidth
stroke
newpath
3.261539 setlinewidth
819 5397 m
826 5401 l
826 5401 m
836 5411 l
836 5411 m
836 5340 l
833 5407 m
833 5340 l
819 5340 m
850 5340 l
880 5397 m
884 5394 l
884 5394 m
880 5390 l
880 5390 m
877 5394 l
877 5394 m
877 5397 l
877 5397 m
880 5404 l
880 5404 m
884 5407 l
884 5407 m
894 5411 l
894 5411 m
907 5411 l
907 5411 m
917 5407 l
917 5407 m
921 5404 l
921 5404 m
924 5397 l
924 5397 m
924 5390 l
924 5390 m
921 5384 l
921 5384 m
911 5377 l
911 5377 m
894 5370 l
894 5370 m
887 5367 l
887 5367 m
880 5360 l
880 5360 m
877 5350 l
877 5350 m
877 5340 l
907 5411 m
914 5407 l
914 5407 m
917 5404 l
917 5404 m
921 5397 l
921 5397 m
921 5390 l
921 5390 m
917 5384 l
917 5384 m
907 5377 l
907 5377 m
894 5370 l
877 5346 m
880 5350 l
880 5350 m
887 5350 l
887 5350 m
904 5343 l
904 5343 m
914 5343 l
914 5343 m
921 5346 l
921 5346 m
924 5350 l
887 5350 m
904 5340 l
904 5340 m
917 5340 l
917 5340 m
921 5343 l
921 5343 m
924 5350 l
924 5350 m
924 5356 l
965 5411 m
955 5407 l
955 5407 m
948 5397 l
948 5397 m
945 5380 l
945 5380 m
945 5370 l
945 5370 m
948 5353 l
948 5353 m
955 5343 l
955 5343 m
965 5340 l
965 5340 m
972 5340 l
972 5340 m
982 5343 l
982 5343 m
989 5353 l
989 5353 m
992 5370 l
992 5370 m
992 5380 l
992 5380 m
989 5397 l
989 5397 m
982 5407 l
982 5407 m
972 5411 l
972 5411 m
965 5411 l
965 5411 m
958 5407 l
958 5407 m
955 5404 l
955 5404 m
951 5397 l
951 5397 m
948 5380 l
948 5380 m
948 5370 l
948 5370 m
951 5353 l
951 5353 m
955 5346 l
955 5346 m
958 5343 l
958 5343 m
965 5340 l
972 5340 m
979 5343 l
979 5343 m
982 5346 l
982 5346 m
985 5353 l
985 5353 m
989 5370 l
989 5370 m
989 5380 l
989 5380 m
985 5397 l
985 5397 m
982 5404 l
982 5404 m
979 5407 l
979 5407 m
972 5411 l
stroke
newpath
lwidth setlinewidth
4647 2526 m
4770 2526 l
4729 2622 m
4770 2622 l
4729 2717 m
4770 2717 l
4729 2812 m
4770 2812 l
4729 2907 m
4770 2907 l
4647 3002 m
4770 3002 l
4729 3097 m
4770 3097 l
4729 3192 m
4770 3192 l
4729 3287 m
4770 3287 l
4729 3383 m
4770 3383 l
4647 3478 m
4770 3478 l
4729 3573 m
4770 3573 l
4729 3668 m
4770 3668 l
4729 3763 m
4770 3763 l
4729 3858 m
4770 3858 l
4647 3953 m
4770 3953 l
stroke
4729 4048 m
4770 4048 l
4729 4144 m
4770 4144 l
4729 4239 m
4770 4239 l
4729 4334 m
4770 4334 l
4647 4429 m
4770 4429 l
4729 4524 m
4770 4524 l
4729 4619 m
4770 4619 l
4729 4714 m
4770 4714 l
4729 4810 m
4770 4810 l
4647 4905 m
4770 4905 l
4729 5000 m
4770 5000 l
4729 5095 m
4770 5095 l
4729 5190 m
4770 5190 l
4729 5285 m
4770 5285 l
4647 5380 m
4770 5380 l
4615 4032 m
4306 4405 l
4306 4405 m
3997 4232 l
3997 4232 m
3687 4484 l
3687 4484 m
3378 4462 l
3378 4462 m
3069 4441 l
3069 4441 m
2760 4496 l
2760 4496 m
2451 4486 l
2451 4486 m
2142 4393 l
2142 4393 m
1832 4519 l
1832 4519 m
1523 4403 l
1523 4403 m
1214 4205 l
stroke
newpath
3.261539 setlinewidth
4588 4079 m
4615 4052 l
4615 4052 m
4642 4079 l
4642 4079 m
4615 4107 l
4615 4107 m
4588 4079 l
stroke
newpath
lwidth setlinewidth
stroke
newpath
3.261539 setlinewidth
4279 4308 m
4306 4281 l
4306 4281 m
4333 4308 l
4333 4308 m
4306 4335 l
4306 4335 m
4279 4308 l
stroke
newpath
lwidth setlinewidth
stroke
newpath
3.261539 setlinewidth
3969 4106 m
3997 4078 l
3997 4078 m
4024 4106 l
4024 4106 m
3997 4133 l
3997 4133 m
3969 4106 l
stroke
newpath
lwidth setlinewidth
stroke
newpath
3.261539 setlinewidth
3660 4315 m
3687 4288 l
3687 4288 m
3715 4315 l
3715 4315 m
3687 4342 l
3687 4342 m
3660 4315 l
stroke
newpath
lwidth setlinewidth
stroke
newpath
3.261539 setlinewidth
3351 4341 m
3378 4314 l
3378 4314 m
3405 4341 l
3405 4341 m
3378 4368 l
3378 4368 m
3351 4341 l
stroke
newpath
lwidth setlinewidth
stroke
newpath
3.261539 setlinewidth
3042 4348 m
3069 4321 l
3069 4321 m
3096 4348 l
3096 4348 m
3069 4375 l
3069 4375 m
3042 4348 l
stroke
newpath
lwidth setlinewidth
stroke
newpath
3.261539 setlinewidth
2733 4372 m
2760 4345 l
2760 4345 m
2787 4372 l
2787 4372 m
2760 4399 l
2760 4399 m
2733 4372 l
stroke
newpath
lwidth setlinewidth
stroke
newpath
3.261539 setlinewidth
2424 4355 m
2451 4328 l
2451 4328 m
2478 4355 l
2478 4355 m
2451 4382 l
2451 4382 m
2424 4355 l
stroke
newpath
lwidth setlinewidth
stroke
newpath
3.261539 setlinewidth
2114 4220 m
2142 4193 l
2142 4193 m
2169 4220 l
2169 4220 m
2142 4247 l
2142 4247 m
2114 4220 l
stroke
newpath
lwidth setlinewidth
stroke
newpath
3.261539 setlinewidth
1805 4248 m
1832 4221 l
1832 4221 m
1860 4248 l
1860 4248 m
1832 4275 l
1832 4275 m
1805 4248 l
stroke
newpath
lwidth setlinewidth
stroke
newpath
3.261539 setlinewidth
1496 4260 m
1523 4233 l
1523 4233 m
1550 4260 l
1550 4260 m
1523 4287 l
1523 4287 m
1496 4260 l
stroke
newpath
lwidth setlinewidth
stroke
newpath
3.261539 setlinewidth
1187 4129 m
1214 4102 l
1214 4102 m
1241 4129 l
1241 4129 m
1214 4157 l
1214 4157 m
1187 4129 l
stroke
newpath
lwidth setlinewidth
4615 4079 m
4586 4100 l
4558 4121 m
4530 4142 l
4501 4163 m
4473 4184 l
4444 4205 m
4416 4226 l
4388 4247 m
4359 4268 l
4331 4289 m
4306 4308 l
4306 4308 m
4302 4305 l
4273 4286 m
4243 4267 l
4213 4247 m
4184 4228 l
4154 4209 m
4125 4189 l
4095 4170 m
4066 4151 l
4036 4131 m
4006 4112 l
3977 4119 m
3948 4139 l
3919 4158 m
3889 4178 l
3860 4198 m
3831 4218 l
3801 4238 m
3772 4257 l
3743 4277 m
3714 4297 l
3684 4315 m
3649 4318 l
3613 4321 m
3578 4324 l
3543 4327 m
3508 4330 l
3473 4333 m
3437 4336 l
3402 4339 m
3378 4341 l
3378 4341 m
3367 4341 l
3332 4342 m
3296 4343 l
3261 4344 m
3226 4345 l
3190 4345 m
3155 4346 l
3120 4347 m
3084 4348 l
3049 4350 m
3014 4352 l
2979 4355 m
2943 4358 l
2908 4361 m
2873 4363 l
2838 4366 m
2802 4369 l
2767 4371 m
2760 4372 l
2760 4372 m
2732 4370 l
2697 4369 m
2661 4367 l
2626 4365 m
2591 4363 l
2556 4361 m
2520 4359 l
2485 4357 m
2451 4355 l
2451 4355 m
2450 4355 l
2417 4341 m
2385 4326 l
2353 4312 m
2320 4298 l
2288 4284 m
2256 4270 l
2223 4256 m
2191 4241 l
2159 4227 m
2142 4220 l
2142 4220 m
2125 4221 l
2090 4224 m
2054 4228 l
2019 4231 m
1984 4234 l
1949 4237 m
1914 4241 l
1879 4244 m
1843 4247 l
1808 4249 m
1773 4251 l
1737 4252 m
1702 4253 l
1667 4255 m
1632 4256 l
1596 4257 m
1561 4259 l
1526 4260 m
1523 4260 l
1523 4260 m
1493 4247 l
1460 4234 m
1428 4220 l
1395 4206 m
1363 4192 l
1330 4178 m
1298 4165 l
1265 4151 m
1233 4137 l
stroke
newpath
3.261539 setlinewidth
4588 3900 m
4642 3900 l
4642 3900 m
4642 3954 l
4642 3954 m
4588 3954 l
4588 3954 m
4588 3900 l
stroke
newpath
lwidth setlinewidth
stroke
newpath
3.261539 setlinewidth
4279 4214 m
4333 4214 l
4333 4214 m
4333 4268 l
4333 4268 m
4279 4268 l
4279 4268 m
4279 4214 l
stroke
newpath
lwidth setlinewidth
stroke
newpath
3.261539 setlinewidth
3969 4000 m
4024 4000 l
4024 4000 m
4024 4054 l
4024 4054 m
3969 4054 l
3969 4054 m
3969 4000 l
stroke
newpath
lwidth setlinewidth
stroke
newpath
3.261539 setlinewidth
3660 4071 m
3715 4071 l
3715 4071 m
3715 4126 l
3715 4126 m
3660 4126 l
3660 4126 m
3660 4071 l
stroke
newpath
lwidth setlinewidth
stroke
newpath
3.261539 setlinewidth
3351 4288 m
3405 4288 l
3405 4288 m
3405 4342 l
3405 4342 m
3351 4342 l
3351 4342 m
3351 4288 l
stroke
newpath
lwidth setlinewidth
stroke
newpath
3.261539 setlinewidth
3042 4292 m
3096 4292 l
3096 4292 m
3096 4347 l
3096 4347 m
3042 4347 l
3042 4347 m
3042 4292 l
stroke
newpath
lwidth setlinewidth
stroke
newpath
3.261539 setlinewidth
2733 4407 m
2787 4407 l
2787 4407 m
2787 4461 l
2787 4461 m
2733 4461 l
2733 4461 m
2733 4407 l
stroke
newpath
lwidth setlinewidth
stroke
newpath
3.261539 setlinewidth
2424 4273 m
2478 4273 l
2478 4273 m
2478 4328 l
2478 4328 m
2424 4328 l
2424 4328 m
2424 4273 l
stroke
newpath
lwidth setlinewidth
stroke
newpath
3.261539 setlinewidth
2114 4212 m
2169 4212 l
2169 4212 m
2169 4266 l
2169 4266 m
2114 4266 l
2114 4266 m
2114 4212 l
stroke
newpath
lwidth setlinewidth
stroke
newpath
3.261539 setlinewidth
1805 4197 m
1860 4197 l
1860 4197 m
1860 4252 l
1860 4252 m
1805 4252 l
1805 4252 m
1805 4197 l
stroke
newpath
lwidth setlinewidth
stroke
newpath
3.261539 setlinewidth
1496 4145 m
1550 4145 l
1550 4145 m
1550 4199 l
1550 4199 m
1496 4199 l
1496 4199 m
1496 4145 l
stroke
newpath
lwidth setlinewidth
stroke
newpath
3.261539 setlinewidth
1187 4014 m
1241 4014 l
1241 4014 m
1241 4069 l
1241 4069 m
1187 4069 l
1187 4069 m
1187 4014 l
stroke
newpath
lwidth setlinewidth
4615 3927 m
4596 3946 l
4578 3965 m
4579 3966 l
4559 3984 m
4541 4003 l
4522 4022 m
4523 4023 l
4503 4040 m
4485 4059 l
4466 4078 m
4467 4079 l
4448 4097 m
4429 4116 l
4410 4135 m
4411 4136 l
4392 4154 m
4373 4173 l
4355 4192 m
4356 4193 l
4336 4210 m
4317 4229 l
4298 4235 m
4299 4236 l
4276 4220 m
4254 4205 l
4232 4190 m
4233 4191 l
4210 4175 m
4189 4160 l
4167 4145 m
4168 4146 l
4145 4130 m
4123 4115 l
4102 4100 m
4103 4101 l
4080 4085 m
4058 4070 l
4036 4054 m
4037 4055 l
4014 4039 m
3997 4027 l
3997 4027 m
3992 4028 l
3966 4034 m
3967 4035 l
3940 4040 m
3914 4046 l
3889 4052 m
3890 4053 l
3863 4058 m
3837 4064 l
3811 4070 m
3812 4071 l
3785 4076 m
3759 4082 l
3734 4088 m
3735 4089 l
3708 4094 m
3687 4098 l
3687 4098 m
3683 4102 l
3661 4117 m
3662 4118 l
3639 4132 m
3618 4147 l
3596 4162 m
3597 4163 l
3574 4178 m
3553 4193 l
3531 4208 m
3532 4209 l
3509 4223 m
3487 4238 l
3466 4254 m
3467 4255 l
3444 4269 m
3422 4284 l
3401 4299 m
3402 4300 l
3379 4314 m
3378 4315 l
3378 4315 m
3353 4315 l
3326 4316 m
3327 4317 l
3300 4316 m
3273 4316 l
3247 4317 m
3248 4318 l
3220 4317 m
3194 4318 l
3167 4318 m
3168 4319 l
3141 4318 m
3114 4319 l
3088 4319 m
3089 4320 l
3062 4322 m
3037 4332 l
3012 4341 m
3013 4342 l
2987 4350 m
2962 4359 l
2937 4368 m
2938 4369 l
2912 4377 m
2888 4387 l
2863 4396 m
2864 4397 l
2838 4405 m
2813 4414 l
2788 4423 m
2789 4424 l
2763 4433 m
2760 4434 l
2760 4434 m
2739 4425 l
2715 4414 m
2716 4415 l
2690 4404 m
2666 4393 l
2642 4383 m
2643 4384 l
2617 4372 m
2593 4362 l
2569 4351 m
2570 4352 l
2544 4341 m
2520 4330 l
2495 4320 m
2496 4321 l
2471 4309 m
2451 4301 l
2451 4301 m
2447 4300 l
2421 4295 m
2422 4296 l
2395 4289 m
2369 4284 l
2343 4279 m
2344 4280 l
2317 4274 m
2291 4269 l
2265 4263 m
2266 4264 l
2239 4258 m
2213 4253 l
2187 4248 m
2188 4249 l
2161 4243 m
2142 4239 l
2142 4239 m
2135 4238 l
2108 4237 m
2109 4238 l
2082 4236 m
2055 4235 l
2029 4234 m
2030 4235 l
2002 4232 m
1976 4231 l
1949 4230 m
1950 4231 l
1923 4229 m
1896 4227 l
1870 4226 m
1871 4227 l
1843 4225 m
1832 4224 l
1832 4224 m
1817 4222 l
1791 4217 m
1792 4218 l
1765 4213 m
1739 4209 l
1713 4204 m
1714 4205 l
1686 4200 m
1660 4195 l
1634 4191 m
1635 4192 l
1608 4187 m
1582 4182 l
1556 4178 m
1557 4179 l
1530 4173 m
1523 4172 l
1523 4172 m
1505 4164 l
1480 4154 m
1481 4155 l
1456 4144 m
1432 4133 l
1407 4123 m
1408 4124 l
1383 4113 m
1358 4102 l
1334 4092 m
1335 4093 l
1310 4082 m
1285 4071 l
1261 4061 m
1262 4062 l
1236 4051 m
1214 4041 l
stroke
grestore
showpage
%%PageTrailer
%%Trailer
%%Pages: 1
%%EOF
