%!PS-Adobe-2.0 EPSF-2.0
%%Creator: topdrawer
%%BoundingBox: 28 212 561 624
%%EndComments
%%BeginProlog
%%BeginResource: lineabr
/m/moveto load def
/l/lineto load def
%%EndResource
%%EndProlog
%%BeginSetup
%%EndSetup
%%Page: 1 1
%%BeginPageSetup
%%EndPageSetup
gsave
0.1 0.1 scale
5 setlinewidth
288 432 translate
/lwidth currentlinewidth def
stroke
newpath
4.076923 setlinewidth
1543 5588 m
1526 5533 l
1543 5588 m
1530 5533 l
1568 5588 m
1568 5533 l
1568 5588 m
1573 5533 l
1513 5580 m
1522 5588 l
1522 5588 m
1534 5593 l
1534 5593 m
1590 5593 l
1513 5580 m
1522 5584 l
1522 5584 m
1534 5588 l
1534 5588 m
1590 5588 l
1683 5639 m
1606 5503 l
1713 5593 m
1713 5503 l
1717 5593 m
1717 5503 l
1717 5580 m
1725 5588 l
1725 5588 m
1734 5593 l
1734 5593 m
1742 5593 l
1742 5593 m
1755 5588 l
1755 5588 m
1764 5580 l
1764 5580 m
1768 5567 l
1768 5567 m
1768 5559 l
1768 5559 m
1764 5546 l
1764 5546 m
1755 5537 l
1755 5537 m
1742 5533 l
1742 5533 m
1734 5533 l
1734 5533 m
1725 5537 l
1725 5537 m
1717 5546 l
1742 5593 m
1751 5588 l
1751 5588 m
1759 5580 l
1759 5580 m
1764 5567 l
1764 5567 m
1764 5559 l
1764 5559 m
1759 5546 l
1759 5546 m
1751 5537 l
1751 5537 m
1742 5533 l
1700 5593 m
1717 5593 l
1700 5503 m
1730 5503 l
1904 5584 m
1908 5593 l
1908 5593 m
1908 5576 l
1908 5576 m
1904 5584 l
1904 5584 m
1900 5588 l
1900 5588 m
1891 5593 l
1891 5593 m
1874 5593 l
1874 5593 m
1866 5588 l
1866 5588 m
1861 5584 l
1861 5584 m
1861 5576 l
1861 5576 m
1866 5571 l
1866 5571 m
1874 5567 l
1874 5567 m
1895 5559 l
1895 5559 m
1904 5554 l
1904 5554 m
1908 5550 l
1861 5580 m
1866 5576 l
1866 5576 m
1874 5571 l
1874 5571 m
1895 5563 l
1895 5563 m
1904 5559 l
1904 5559 m
1908 5554 l
1908 5554 m
1908 5542 l
1908 5542 m
1904 5537 l
1904 5537 m
1895 5533 l
1895 5533 m
1878 5533 l
1878 5533 m
1870 5537 l
1870 5537 m
1866 5542 l
1866 5542 m
1861 5550 l
1861 5550 m
1861 5533 l
1861 5533 m
1866 5542 l
1938 5567 m
1989 5567 l
1989 5567 m
1989 5576 l
1989 5576 m
1984 5584 l
1984 5584 m
1980 5588 l
1980 5588 m
1972 5593 l
1972 5593 m
1959 5593 l
1959 5593 m
1946 5588 l
1946 5588 m
1938 5580 l
1938 5580 m
1933 5567 l
1933 5567 m
1933 5559 l
1933 5559 m
1938 5546 l
1938 5546 m
1946 5537 l
1946 5537 m
1959 5533 l
1959 5533 m
1967 5533 l
1967 5533 m
1980 5537 l
1980 5537 m
1989 5546 l
1984 5567 m
1984 5580 l
1984 5580 m
1980 5588 l
1959 5593 m
1950 5588 l
1950 5588 m
1942 5580 l
1942 5580 m
1938 5567 l
1938 5567 m
1938 5559 l
1938 5559 m
1942 5546 l
1942 5546 m
1950 5537 l
1950 5537 m
1959 5533 l
2023 5593 m
2023 5503 l
2027 5593 m
2027 5503 l
2027 5580 m
2035 5588 l
2035 5588 m
2044 5593 l
2044 5593 m
2052 5593 l
2052 5593 m
2065 5588 l
2065 5588 m
2074 5580 l
2074 5580 m
2078 5567 l
2078 5567 m
2078 5559 l
2078 5559 m
2074 5546 l
2074 5546 m
2065 5537 l
2065 5537 m
2052 5533 l
2052 5533 m
2044 5533 l
2044 5533 m
2035 5537 l
2035 5537 m
2027 5546 l
2052 5593 m
2061 5588 l
2061 5588 m
2069 5580 l
2069 5580 m
2074 5567 l
2074 5567 m
2074 5559 l
2074 5559 m
2069 5546 l
2069 5546 m
2061 5537 l
2061 5537 m
2052 5533 l
2010 5593 m
2027 5593 l
2010 5503 m
2040 5503 l
2112 5584 m
2112 5580 l
2112 5580 m
2108 5580 l
2108 5580 m
2108 5584 l
2108 5584 m
2112 5588 l
2112 5588 m
2120 5593 l
2120 5593 m
2137 5593 l
2137 5593 m
2146 5588 l
2146 5588 m
2150 5584 l
2150 5584 m
2154 5576 l
2154 5576 m
2154 5546 l
2154 5546 m
2159 5537 l
2159 5537 m
2163 5533 l
2150 5584 m
2150 5546 l
2150 5546 m
2154 5537 l
2154 5537 m
2163 5533 l
2163 5533 m
2167 5533 l
2150 5576 m
2146 5571 l
2146 5571 m
2120 5567 l
2120 5567 m
2108 5563 l
2108 5563 m
2103 5554 l
2103 5554 m
2103 5546 l
2103 5546 m
2108 5537 l
2108 5537 m
2120 5533 l
2120 5533 m
2133 5533 l
2133 5533 m
2142 5537 l
2142 5537 m
2150 5546 l
2120 5567 m
2112 5563 l
2112 5563 m
2108 5554 l
2108 5554 m
2108 5546 l
2108 5546 m
2112 5537 l
2112 5537 m
2120 5533 l
2197 5593 m
2197 5533 l
2201 5593 m
2201 5533 l
2201 5567 m
2205 5580 l
2205 5580 m
2214 5588 l
2214 5588 m
2222 5593 l
2222 5593 m
2235 5593 l
2235 5593 m
2239 5588 l
2239 5588 m
2239 5584 l
2239 5584 m
2235 5580 l
2235 5580 m
2231 5584 l
2231 5584 m
2235 5588 l
2184 5593 m
2201 5593 l
2184 5533 m
2214 5533 l
2269 5584 m
2269 5580 l
2269 5580 m
2265 5580 l
2265 5580 m
2265 5584 l
2265 5584 m
2269 5588 l
2269 5588 m
2277 5593 l
2277 5593 m
2294 5593 l
2294 5593 m
2303 5588 l
2303 5588 m
2307 5584 l
2307 5584 m
2311 5576 l
2311 5576 m
2311 5546 l
2311 5546 m
2316 5537 l
2316 5537 m
2320 5533 l
2307 5584 m
2307 5546 l
2307 5546 m
2311 5537 l
2311 5537 m
2320 5533 l
2320 5533 m
2324 5533 l
2307 5576 m
2303 5571 l
2303 5571 m
2277 5567 l
2277 5567 m
2265 5563 l
2265 5563 m
2260 5554 l
2260 5554 m
2260 5546 l
2260 5546 m
2265 5537 l
2265 5537 m
2277 5533 l
2277 5533 m
2290 5533 l
2290 5533 m
2299 5537 l
2299 5537 m
2307 5546 l
2277 5567 m
2269 5563 l
2269 5563 m
2265 5554 l
2265 5554 m
2265 5546 l
2265 5546 m
2269 5537 l
2269 5537 m
2277 5533 l
2354 5622 m
2354 5550 l
2354 5550 m
2358 5537 l
2358 5537 m
2367 5533 l
2367 5533 m
2375 5533 l
2375 5533 m
2384 5537 l
2384 5537 m
2388 5546 l
2358 5622 m
2358 5550 l
2358 5550 m
2362 5537 l
2362 5537 m
2367 5533 l
2341 5593 m
2375 5593 l
2418 5622 m
2413 5618 l
2413 5618 m
2418 5614 l
2418 5614 m
2422 5618 l
2422 5618 m
2418 5622 l
2418 5593 m
2418 5533 l
2422 5593 m
2422 5533 l
2405 5593 m
2422 5593 l
2405 5533 m
2435 5533 l
2481 5593 m
2469 5588 l
2469 5588 m
2460 5580 l
2460 5580 m
2456 5567 l
2456 5567 m
2456 5559 l
2456 5559 m
2460 5546 l
2460 5546 m
2469 5537 l
2469 5537 m
2481 5533 l
2481 5533 m
2490 5533 l
2490 5533 m
2503 5537 l
2503 5537 m
2511 5546 l
2511 5546 m
2515 5559 l
2515 5559 m
2515 5567 l
2515 5567 m
2511 5580 l
2511 5580 m
2503 5588 l
2503 5588 m
2490 5593 l
2490 5593 m
2481 5593 l
2481 5593 m
2473 5588 l
2473 5588 m
2464 5580 l
2464 5580 m
2460 5567 l
2460 5567 m
2460 5559 l
2460 5559 m
2464 5546 l
2464 5546 m
2473 5537 l
2473 5537 m
2481 5533 l
2490 5533 m
2498 5537 l
2498 5537 m
2507 5546 l
2507 5546 m
2511 5559 l
2511 5559 m
2511 5567 l
2511 5567 m
2507 5580 l
2507 5580 m
2498 5588 l
2498 5588 m
2490 5593 l
2549 5593 m
2549 5533 l
2554 5593 m
2554 5533 l
2554 5580 m
2562 5588 l
2562 5588 m
2575 5593 l
2575 5593 m
2583 5593 l
2583 5593 m
2596 5588 l
2596 5588 m
2600 5580 l
2600 5580 m
2600 5533 l
2583 5593 m
2592 5588 l
2592 5588 m
2596 5580 l
2596 5580 m
2596 5533 l
2537 5593 m
2554 5593 l
2537 5533 m
2566 5533 l
2583 5533 m
2613 5533 l
2711 5584 m
2711 5580 l
2711 5580 m
2706 5580 l
2706 5580 m
2706 5584 l
2706 5584 m
2711 5588 l
2711 5588 m
2719 5593 l
2719 5593 m
2736 5593 l
2736 5593 m
2745 5588 l
2745 5588 m
2749 5584 l
2749 5584 m
2753 5576 l
2753 5576 m
2753 5546 l
2753 5546 m
2757 5537 l
2757 5537 m
2762 5533 l
2749 5584 m
2749 5546 l
2749 5546 m
2753 5537 l
2753 5537 m
2762 5533 l
2762 5533 m
2766 5533 l
2749 5576 m
2745 5571 l
2745 5571 m
2719 5567 l
2719 5567 m
2706 5563 l
2706 5563 m
2702 5554 l
2702 5554 m
2702 5546 l
2702 5546 m
2706 5537 l
2706 5537 m
2719 5533 l
2719 5533 m
2732 5533 l
2732 5533 m
2740 5537 l
2740 5537 m
2749 5546 l
2719 5567 m
2711 5563 l
2711 5563 m
2706 5554 l
2706 5554 m
2706 5546 l
2706 5546 m
2711 5537 l
2711 5537 m
2719 5533 l
2796 5622 m
2796 5550 l
2796 5550 m
2800 5537 l
2800 5537 m
2808 5533 l
2808 5533 m
2817 5533 l
2817 5533 m
2825 5537 l
2825 5537 m
2830 5546 l
2800 5622 m
2800 5550 l
2800 5550 m
2804 5537 l
2804 5537 m
2808 5533 l
2783 5593 m
2817 5593 l
2923 5605 m
2927 5601 l
2927 5601 m
2923 5597 l
2923 5597 m
2919 5601 l
2919 5601 m
2919 5605 l
2919 5605 m
2923 5614 l
2923 5614 m
2927 5618 l
2927 5618 m
2940 5622 l
2940 5622 m
2957 5622 l
2957 5622 m
2970 5618 l
2970 5618 m
2974 5614 l
2974 5614 m
2978 5605 l
2978 5605 m
2978 5597 l
stroke
2978 5597 m
2974 5588 l
2974 5588 m
2961 5580 l
2961 5580 m
2940 5571 l
2940 5571 m
2931 5567 l
2931 5567 m
2923 5559 l
2923 5559 m
2919 5546 l
2919 5546 m
2919 5533 l
2957 5622 m
2965 5618 l
2965 5618 m
2970 5614 l
2970 5614 m
2974 5605 l
2974 5605 m
2974 5597 l
2974 5597 m
2970 5588 l
2970 5588 m
2957 5580 l
2957 5580 m
2940 5571 l
2919 5542 m
2923 5546 l
2923 5546 m
2931 5546 l
2931 5546 m
2953 5537 l
2953 5537 m
2965 5537 l
2965 5537 m
2974 5542 l
2974 5542 m
2978 5546 l
2931 5546 m
2953 5533 l
2953 5533 m
2970 5533 l
2970 5533 m
2974 5537 l
2974 5537 m
2978 5546 l
2978 5546 m
2978 5554 l
3012 5542 m
3008 5537 l
3008 5537 m
3012 5533 l
3012 5533 m
3016 5537 l
3016 5537 m
3012 5542 l
3055 5622 m
3046 5580 l
3046 5580 m
3055 5588 l
3055 5588 m
3067 5593 l
3067 5593 m
3080 5593 l
3080 5593 m
3093 5588 l
3093 5588 m
3101 5580 l
3101 5580 m
3106 5567 l
3106 5567 m
3106 5559 l
3106 5559 m
3101 5546 l
3101 5546 m
3093 5537 l
3093 5537 m
3080 5533 l
3080 5533 m
3067 5533 l
3067 5533 m
3055 5537 l
3055 5537 m
3050 5542 l
3050 5542 m
3046 5550 l
3046 5550 m
3046 5554 l
3046 5554 m
3050 5559 l
3050 5559 m
3055 5554 l
3055 5554 m
3050 5550 l
3080 5593 m
3089 5588 l
3089 5588 m
3097 5580 l
3097 5580 m
3101 5567 l
3101 5567 m
3101 5559 l
3101 5559 m
3097 5546 l
3097 5546 m
3089 5537 l
3089 5537 m
3080 5533 l
3055 5622 m
3097 5622 l
3055 5618 m
3076 5618 l
3076 5618 m
3097 5622 l
3258 5610 m
3263 5597 l
3263 5597 m
3263 5622 l
3263 5622 m
3258 5610 l
3258 5610 m
3250 5618 l
3250 5618 m
3237 5622 l
3237 5622 m
3229 5622 l
3229 5622 m
3216 5618 l
3216 5618 m
3208 5610 l
3208 5610 m
3203 5601 l
3203 5601 m
3199 5588 l
3199 5588 m
3199 5567 l
3199 5567 m
3203 5554 l
3203 5554 m
3208 5546 l
3208 5546 m
3216 5537 l
3216 5537 m
3229 5533 l
3229 5533 m
3237 5533 l
3237 5533 m
3250 5537 l
3250 5537 m
3258 5546 l
3229 5622 m
3220 5618 l
3220 5618 m
3212 5610 l
3212 5610 m
3208 5601 l
3208 5601 m
3203 5588 l
3203 5588 m
3203 5567 l
3203 5567 m
3208 5554 l
3208 5554 m
3212 5546 l
3212 5546 m
3220 5537 l
3220 5537 m
3229 5533 l
3258 5567 m
3258 5533 l
3263 5567 m
3263 5533 l
3246 5567 m
3275 5567 l
3301 5567 m
3352 5567 l
3352 5567 m
3352 5576 l
3352 5576 m
3348 5584 l
3348 5584 m
3343 5588 l
3343 5588 m
3335 5593 l
3335 5593 m
3322 5593 l
3322 5593 m
3309 5588 l
3309 5588 m
3301 5580 l
3301 5580 m
3297 5567 l
3297 5567 m
3297 5559 l
3297 5559 m
3301 5546 l
3301 5546 m
3309 5537 l
3309 5537 m
3322 5533 l
3322 5533 m
3331 5533 l
3331 5533 m
3343 5537 l
3343 5537 m
3352 5546 l
3348 5567 m
3348 5580 l
3348 5580 m
3343 5588 l
3322 5593 m
3314 5588 l
3314 5588 m
3305 5580 l
3305 5580 m
3301 5567 l
3301 5567 m
3301 5559 l
3301 5559 m
3305 5546 l
3305 5546 m
3314 5537 l
3314 5537 m
3322 5533 l
3377 5622 m
3407 5533 l
3382 5622 m
3407 5546 l
3437 5622 m
3407 5533 l
3369 5622 m
3394 5622 l
3420 5622 m
3445 5622 l
3535 5639 m
3458 5503 l
3607 5580 m
3602 5576 l
3602 5576 m
3607 5571 l
3607 5571 m
3611 5576 l
3611 5576 m
3611 5580 l
3611 5580 m
3602 5588 l
3602 5588 m
3594 5593 l
3594 5593 m
3581 5593 l
3581 5593 m
3569 5588 l
3569 5588 m
3560 5580 l
3560 5580 m
3556 5567 l
3556 5567 m
3556 5559 l
3556 5559 m
3560 5546 l
3560 5546 m
3569 5537 l
3569 5537 m
3581 5533 l
3581 5533 m
3590 5533 l
3590 5533 m
3602 5537 l
3602 5537 m
3611 5546 l
3581 5593 m
3573 5588 l
3573 5588 m
3564 5580 l
3564 5580 m
3560 5567 l
3560 5567 m
3560 5559 l
3560 5559 m
3564 5546 l
3564 5546 m
3573 5537 l
3573 5537 m
3581 5533 l
stroke
newpath
lwidth setlinewidth
stroke
newpath
4.076923 setlinewidth
1747 2300 m
1747 2210 l
1751 2300 m
1751 2210 l
1721 2300 m
1717 2274 l
1717 2274 m
1717 2300 l
1717 2300 m
1781 2300 l
1781 2300 m
1781 2274 l
1781 2274 m
1776 2300 l
1734 2210 m
1764 2210 l
1827 2270 m
1815 2266 l
1815 2266 m
1806 2257 l
1806 2257 m
1802 2244 l
1802 2244 m
1802 2236 l
1802 2236 m
1806 2223 l
1806 2223 m
1815 2215 l
1815 2215 m
1827 2210 l
1827 2210 m
1836 2210 l
1836 2210 m
1849 2215 l
1849 2215 m
1857 2223 l
1857 2223 m
1861 2236 l
1861 2236 m
1861 2244 l
1861 2244 m
1857 2257 l
1857 2257 m
1849 2266 l
1849 2266 m
1836 2270 l
1836 2270 m
1827 2270 l
1827 2270 m
1819 2266 l
1819 2266 m
1810 2257 l
1810 2257 m
1806 2244 l
1806 2244 m
1806 2236 l
1806 2236 m
1810 2223 l
1810 2223 m
1819 2215 l
1819 2215 m
1827 2210 l
1836 2210 m
1844 2215 l
1844 2215 m
1853 2223 l
1853 2223 m
1857 2236 l
1857 2236 m
1857 2244 l
1857 2244 m
1853 2257 l
1853 2257 m
1844 2266 l
1844 2266 m
1836 2270 l
1895 2300 m
1895 2210 l
1900 2300 m
1900 2210 l
1925 2274 m
1925 2240 l
1883 2300 m
1950 2300 l
1950 2300 m
1950 2274 l
1950 2274 m
1946 2300 l
1900 2257 m
1925 2257 l
1883 2210 m
1912 2210 l
2044 2261 m
2120 2261 l
2044 2236 m
2120 2236 l
2252 2317 m
2244 2308 l
2244 2308 m
2235 2295 l
2235 2295 m
2227 2278 l
2227 2278 m
2222 2257 l
2222 2257 m
2222 2240 l
2222 2240 m
2227 2219 l
2227 2219 m
2235 2202 l
2235 2202 m
2244 2189 l
2244 2189 m
2252 2181 l
2244 2308 m
2235 2291 l
2235 2291 m
2231 2278 l
2231 2278 m
2227 2257 l
2227 2257 m
2227 2240 l
2227 2240 m
2231 2219 l
2231 2219 m
2235 2206 l
2235 2206 m
2244 2189 l
2337 2287 m
2341 2274 l
2341 2274 m
2341 2300 l
2341 2300 m
2337 2287 l
2337 2287 m
2328 2295 l
2328 2295 m
2316 2300 l
2316 2300 m
2307 2300 l
2307 2300 m
2294 2295 l
2294 2295 m
2286 2287 l
2286 2287 m
2282 2278 l
2282 2278 m
2277 2266 l
2277 2266 m
2277 2244 l
2277 2244 m
2282 2232 l
2282 2232 m
2286 2223 l
2286 2223 m
2294 2215 l
2294 2215 m
2307 2210 l
2307 2210 m
2316 2210 l
2316 2210 m
2328 2215 l
2328 2215 m
2337 2223 l
2337 2223 m
2341 2232 l
2307 2300 m
2299 2295 l
2299 2295 m
2290 2287 l
2290 2287 m
2286 2278 l
2286 2278 m
2282 2266 l
2282 2266 m
2282 2244 l
2282 2244 m
2286 2232 l
2286 2232 m
2290 2223 l
2290 2223 m
2299 2215 l
2299 2215 m
2307 2210 l
2392 2300 m
2392 2210 l
2396 2300 m
2396 2210 l
2367 2300 m
2362 2274 l
2362 2274 m
2362 2300 l
2362 2300 m
2426 2300 l
2426 2300 m
2426 2274 l
2426 2274 m
2422 2300 l
2379 2210 m
2409 2210 l
2460 2283 m
2469 2287 l
2469 2287 m
2481 2300 l
2481 2300 m
2481 2210 l
2477 2295 m
2477 2210 l
2460 2210 m
2498 2210 l
2575 2287 m
2575 2210 l
2537 2249 m
2613 2249 l
2702 2287 m
2706 2274 l
2706 2274 m
2706 2300 l
2706 2300 m
2702 2287 l
2702 2287 m
2694 2295 l
2694 2295 m
2681 2300 l
2681 2300 m
2672 2300 l
2672 2300 m
2660 2295 l
2660 2295 m
2651 2287 l
2651 2287 m
2647 2278 l
2647 2278 m
2643 2266 l
2643 2266 m
2643 2244 l
2643 2244 m
2647 2232 l
2647 2232 m
2651 2223 l
2651 2223 m
2660 2215 l
2660 2215 m
2672 2210 l
2672 2210 m
2681 2210 l
2681 2210 m
2694 2215 l
2694 2215 m
2702 2223 l
2702 2223 m
2706 2232 l
2672 2300 m
2664 2295 l
2664 2295 m
2655 2287 l
2655 2287 m
2651 2278 l
2651 2278 m
2647 2266 l
2647 2266 m
2647 2244 l
2647 2244 m
2651 2232 l
2651 2232 m
2655 2223 l
2655 2223 m
2664 2215 l
2664 2215 m
2672 2210 l
2757 2300 m
2757 2210 l
2762 2300 m
2762 2210 l
2732 2300 m
2728 2274 l
2728 2274 m
2728 2300 l
2728 2300 m
2791 2300 l
2791 2300 m
2791 2274 l
2791 2274 m
2787 2300 l
2745 2210 m
2774 2210 l
2817 2283 m
2821 2278 l
2821 2278 m
2817 2274 l
2817 2274 m
2813 2278 l
2813 2278 m
2813 2283 l
2813 2283 m
2817 2291 l
2817 2291 m
2821 2295 l
2821 2295 m
2834 2300 l
2834 2300 m
2851 2300 l
2851 2300 m
2864 2295 l
2864 2295 m
2868 2291 l
2868 2291 m
2872 2283 l
2872 2283 m
2872 2274 l
2872 2274 m
2868 2266 l
2868 2266 m
2855 2257 l
2855 2257 m
2834 2249 l
2834 2249 m
2825 2244 l
stroke
2825 2244 m
2817 2236 l
2817 2236 m
2813 2223 l
2813 2223 m
2813 2210 l
2851 2300 m
2859 2295 l
2859 2295 m
2864 2291 l
2864 2291 m
2868 2283 l
2868 2283 m
2868 2274 l
2868 2274 m
2864 2266 l
2864 2266 m
2851 2257 l
2851 2257 m
2834 2249 l
2813 2219 m
2817 2223 l
2817 2223 m
2825 2223 l
2825 2223 m
2847 2215 l
2847 2215 m
2859 2215 l
2859 2215 m
2868 2219 l
2868 2219 m
2872 2223 l
2825 2223 m
2847 2210 l
2847 2210 m
2864 2210 l
2864 2210 m
2868 2215 l
2868 2215 m
2872 2223 l
2872 2223 m
2872 2232 l
2898 2317 m
2906 2308 l
2906 2308 m
2915 2295 l
2915 2295 m
2923 2278 l
2923 2278 m
2927 2257 l
2927 2257 m
2927 2240 l
2927 2240 m
2923 2219 l
2923 2219 m
2915 2202 l
2915 2202 m
2906 2189 l
2906 2189 m
2898 2181 l
2906 2308 m
2915 2291 l
2915 2291 m
2919 2278 l
2919 2278 m
2923 2257 l
2923 2257 m
2923 2240 l
2923 2240 m
2919 2219 l
2919 2219 m
2915 2206 l
2915 2206 m
2906 2189 l
3029 2317 m
2953 2181 l
3055 2283 m
3059 2278 l
3059 2278 m
3055 2274 l
3055 2274 m
3050 2278 l
3050 2278 m
3050 2283 l
3050 2283 m
3055 2291 l
3055 2291 m
3059 2295 l
3059 2295 m
3072 2300 l
3072 2300 m
3089 2300 l
3089 2300 m
3101 2295 l
3101 2295 m
3106 2291 l
3106 2291 m
3110 2283 l
3110 2283 m
3110 2274 l
3110 2274 m
3106 2266 l
3106 2266 m
3093 2257 l
3093 2257 m
3072 2249 l
3072 2249 m
3063 2244 l
3063 2244 m
3055 2236 l
3055 2236 m
3050 2223 l
3050 2223 m
3050 2210 l
3089 2300 m
3097 2295 l
3097 2295 m
3101 2291 l
3101 2291 m
3106 2283 l
3106 2283 m
3106 2274 l
3106 2274 m
3101 2266 l
3101 2266 m
3089 2257 l
3089 2257 m
3072 2249 l
3050 2219 m
3055 2223 l
3055 2223 m
3063 2223 l
3063 2223 m
3084 2215 l
3084 2215 m
3097 2215 l
3097 2215 m
3106 2219 l
3106 2219 m
3110 2223 l
3063 2223 m
3084 2210 l
3084 2210 m
3101 2210 l
3101 2210 m
3106 2215 l
3106 2215 m
3110 2223 l
3110 2223 m
3110 2232 l
3212 2300 m
3208 2295 l
3208 2295 m
3212 2291 l
3212 2291 m
3216 2295 l
3216 2295 m
3212 2300 l
3212 2270 m
3212 2210 l
3216 2270 m
3216 2210 l
3199 2270 m
3216 2270 l
3199 2210 m
3229 2210 l
3258 2270 m
3258 2210 l
3263 2270 m
3263 2210 l
3263 2257 m
3271 2266 l
3271 2266 m
3284 2270 l
3284 2270 m
3292 2270 l
3292 2270 m
3305 2266 l
3305 2266 m
3309 2257 l
3309 2257 m
3309 2210 l
3292 2270 m
3301 2266 l
3301 2266 m
3305 2257 l
3305 2257 m
3305 2210 l
3246 2270 m
3263 2270 l
3246 2210 m
3275 2210 l
3292 2210 m
3322 2210 l
3420 2270 m
3420 2210 l
3424 2270 m
3424 2210 l
3424 2257 m
3433 2266 l
3433 2266 m
3445 2270 l
3445 2270 m
3454 2270 l
3454 2270 m
3467 2266 l
3467 2266 m
3471 2257 l
3471 2257 m
3471 2210 l
3454 2270 m
3462 2266 l
3462 2266 m
3467 2257 l
3467 2257 m
3467 2210 l
3407 2270 m
3424 2270 l
3407 2210 m
3437 2210 l
3454 2210 m
3484 2210 l
3547 2261 m
3552 2270 l
3552 2270 m
3552 2253 l
3552 2253 m
3547 2261 l
3547 2261 m
3543 2266 l
3543 2266 m
3535 2270 l
3535 2270 m
3518 2270 l
3518 2270 m
3509 2266 l
3509 2266 m
3505 2261 l
3505 2261 m
3505 2253 l
3505 2253 m
3509 2249 l
3509 2249 m
3518 2244 l
3518 2244 m
3539 2236 l
3539 2236 m
3547 2232 l
3547 2232 m
3552 2227 l
3505 2257 m
3509 2253 l
3509 2253 m
3518 2249 l
3518 2249 m
3539 2240 l
3539 2240 m
3547 2236 l
3547 2236 m
3552 2232 l
3552 2232 m
3552 2219 l
3552 2219 m
3547 2215 l
3547 2215 m
3539 2210 l
3539 2210 m
3522 2210 l
3522 2210 m
3513 2215 l
3513 2215 m
3509 2219 l
3509 2219 m
3505 2227 l
3505 2227 m
3505 2210 l
3505 2210 m
3509 2219 l
stroke
newpath
lwidth setlinewidth
stroke
newpath
4.076923 setlinewidth
257 2718 m
346 2718 l
257 2722 m
338 2773 l
265 2722 m
346 2773 l
257 2773 m
346 2773 l
257 2705 m
257 2722 l
257 2760 m
257 2785 l
346 2705 m
346 2730 l
287 2815 m
333 2815 l
333 2815 m
342 2819 l
342 2819 m
346 2832 l
346 2832 m
346 2841 l
346 2841 m
342 2853 l
342 2853 m
333 2862 l
287 2819 m
333 2819 l
333 2819 m
342 2824 l
342 2824 m
346 2832 l
287 2862 m
346 2862 l
287 2866 m
346 2866 l
287 2802 m
287 2819 l
287 2849 m
287 2866 l
346 2862 m
346 2879 l
287 2909 m
346 2909 l
287 2913 m
346 2913 l
299 2913 m
291 2921 l
291 2921 m
287 2934 l
287 2934 m
287 2943 l
287 2943 m
291 2955 l
291 2955 m
299 2960 l
299 2960 m
346 2960 l
287 2943 m
291 2951 l
291 2951 m
299 2955 l
299 2955 m
346 2955 l
299 2960 m
291 2968 l
291 2968 m
287 2981 l
287 2981 m
287 2989 l
287 2989 m
291 3002 l
291 3002 m
299 3006 l
299 3006 m
346 3006 l
287 2989 m
291 2998 l
291 2998 m
299 3002 l
299 3002 m
346 3002 l
287 2896 m
287 2913 l
346 2896 m
346 2926 l
346 2943 m
346 2972 l
346 2989 m
346 3019 l
257 3049 m
346 3049 l
257 3053 m
346 3053 l
299 3053 m
291 3062 l
291 3062 m
287 3070 l
287 3070 m
287 3079 l
287 3079 m
291 3091 l
291 3091 m
299 3100 l
299 3100 m
312 3104 l
312 3104 m
321 3104 l
321 3104 m
333 3100 l
333 3100 m
342 3091 l
342 3091 m
346 3079 l
346 3079 m
346 3070 l
346 3070 m
342 3062 l
342 3062 m
333 3053 l
287 3079 m
291 3087 l
291 3087 m
299 3095 l
299 3095 m
312 3100 l
312 3100 m
321 3100 l
321 3100 m
333 3095 l
333 3095 m
342 3087 l
342 3087 m
346 3079 l
257 3036 m
257 3053 l
312 3134 m
312 3185 l
312 3185 m
304 3185 l
304 3185 m
295 3180 l
295 3180 m
291 3176 l
291 3176 m
287 3168 l
287 3168 m
287 3155 l
287 3155 m
291 3142 l
291 3142 m
299 3134 l
299 3134 m
312 3129 l
312 3129 m
321 3129 l
321 3129 m
333 3134 l
333 3134 m
342 3142 l
342 3142 m
346 3155 l
346 3155 m
346 3163 l
346 3163 m
342 3176 l
342 3176 m
333 3185 l
312 3180 m
299 3180 l
299 3180 m
291 3176 l
287 3155 m
291 3146 l
291 3146 m
299 3138 l
299 3138 m
312 3134 l
312 3134 m
321 3134 l
321 3134 m
333 3138 l
333 3138 m
342 3146 l
342 3146 m
346 3155 l
287 3219 m
346 3219 l
287 3223 m
346 3223 l
312 3223 m
299 3227 l
299 3227 m
291 3236 l
291 3236 m
287 3244 l
287 3244 m
287 3257 l
287 3257 m
291 3261 l
291 3261 m
295 3261 l
295 3261 m
299 3257 l
299 3257 m
295 3253 l
295 3253 m
291 3257 l
287 3206 m
287 3223 l
346 3206 m
346 3236 l
287 3376 m
291 3363 l
291 3363 m
299 3355 l
299 3355 m
312 3350 l
312 3350 m
321 3350 l
321 3350 m
333 3355 l
333 3355 m
342 3363 l
342 3363 m
346 3376 l
346 3376 m
346 3384 l
346 3384 m
342 3397 l
342 3397 m
333 3406 l
333 3406 m
321 3410 l
321 3410 m
312 3410 l
312 3410 m
299 3406 l
299 3406 m
291 3397 l
291 3397 m
287 3384 l
287 3384 m
287 3376 l
287 3376 m
291 3367 l
291 3367 m
299 3359 l
299 3359 m
312 3355 l
312 3355 m
321 3355 l
321 3355 m
333 3359 l
333 3359 m
342 3367 l
342 3367 m
346 3376 l
346 3384 m
342 3393 l
342 3393 m
333 3401 l
333 3401 m
321 3406 l
321 3406 m
312 3406 l
312 3406 m
299 3401 l
299 3401 m
291 3393 l
291 3393 m
287 3384 l
261 3465 m
265 3461 l
265 3461 m
270 3465 l
270 3465 m
265 3469 l
265 3469 m
261 3469 l
261 3469 m
257 3465 l
257 3465 m
257 3456 l
257 3456 m
261 3448 l
261 3448 m
270 3444 l
270 3444 m
346 3444 l
257 3456 m
261 3452 l
261 3452 m
270 3448 l
270 3448 m
346 3448 l
287 3431 m
287 3465 l
346 3431 m
346 3461 l
312 3563 m
312 3614 l
312 3614 m
304 3614 l
304 3614 m
295 3609 l
295 3609 m
291 3605 l
291 3605 m
287 3597 l
287 3597 m
287 3584 l
287 3584 m
291 3571 l
291 3571 m
299 3563 l
299 3563 m
312 3558 l
312 3558 m
321 3558 l
321 3558 m
333 3563 l
333 3563 m
342 3571 l
342 3571 m
346 3584 l
stroke
346 3584 m
346 3592 l
346 3592 m
342 3605 l
342 3605 m
333 3614 l
312 3609 m
299 3609 l
299 3609 m
291 3605 l
287 3584 m
291 3575 l
291 3575 m
299 3567 l
299 3567 m
312 3563 l
312 3563 m
321 3563 l
321 3563 m
333 3567 l
333 3567 m
342 3575 l
342 3575 m
346 3584 l
287 3639 m
346 3665 l
287 3643 m
338 3665 l
287 3690 m
346 3665 l
287 3631 m
287 3656 l
287 3673 m
287 3699 l
312 3720 m
312 3771 l
312 3771 m
304 3771 l
304 3771 m
295 3766 l
295 3766 m
291 3762 l
291 3762 m
287 3754 l
287 3754 m
287 3741 l
287 3741 m
291 3728 l
291 3728 m
299 3720 l
299 3720 m
312 3716 l
312 3716 m
321 3716 l
321 3716 m
333 3720 l
333 3720 m
342 3728 l
342 3728 m
346 3741 l
346 3741 m
346 3750 l
346 3750 m
342 3762 l
342 3762 m
333 3771 l
312 3766 m
299 3766 l
299 3766 m
291 3762 l
287 3741 m
291 3733 l
291 3733 m
299 3724 l
299 3724 m
312 3720 l
312 3720 m
321 3720 l
321 3720 m
333 3724 l
333 3724 m
342 3733 l
342 3733 m
346 3741 l
287 3805 m
346 3805 l
287 3809 m
346 3809 l
299 3809 m
291 3817 l
291 3817 m
287 3830 l
287 3830 m
287 3839 l
287 3839 m
291 3851 l
291 3851 m
299 3856 l
299 3856 m
346 3856 l
287 3839 m
291 3847 l
291 3847 m
299 3851 l
299 3851 m
346 3851 l
287 3792 m
287 3809 l
346 3792 m
346 3822 l
346 3839 m
346 3868 l
257 3898 m
329 3898 l
329 3898 m
342 3902 l
342 3902 m
346 3911 l
346 3911 m
346 3919 l
346 3919 m
342 3928 l
342 3928 m
333 3932 l
257 3902 m
329 3902 l
329 3902 m
342 3907 l
342 3907 m
346 3911 l
287 3885 m
287 3919 l
295 3996 m
287 4000 l
287 4000 m
304 4000 l
304 4000 m
295 3996 l
295 3996 m
291 3992 l
291 3992 m
287 3983 l
287 3983 m
287 3966 l
287 3966 m
291 3958 l
291 3958 m
295 3953 l
295 3953 m
304 3953 l
304 3953 m
308 3958 l
308 3958 m
312 3966 l
312 3966 m
321 3987 l
321 3987 m
325 3996 l
325 3996 m
329 4000 l
299 3953 m
304 3958 l
304 3958 m
308 3966 l
308 3966 m
316 3987 l
316 3987 m
321 3996 l
321 3996 m
325 4000 l
325 4000 m
338 4000 l
338 4000 m
342 3996 l
342 3996 m
346 3987 l
346 3987 m
346 3970 l
346 3970 m
342 3962 l
342 3962 m
338 3958 l
338 3958 m
329 3953 l
329 3953 m
346 3953 l
346 3953 m
338 3958 l
240 4166 m
376 4089 l
274 4259 m
278 4263 l
278 4263 m
282 4259 l
282 4259 m
278 4255 l
278 4255 m
274 4255 l
274 4255 m
265 4259 l
265 4259 m
261 4263 l
261 4263 m
257 4276 l
257 4276 m
257 4293 l
257 4293 m
261 4306 l
261 4306 m
265 4310 l
265 4310 m
274 4314 l
274 4314 m
282 4314 l
282 4314 m
291 4310 l
291 4310 m
299 4297 l
299 4297 m
308 4276 l
308 4276 m
312 4268 l
312 4268 m
321 4259 l
321 4259 m
333 4255 l
333 4255 m
346 4255 l
257 4293 m
261 4302 l
261 4302 m
265 4306 l
265 4306 m
274 4310 l
274 4310 m
282 4310 l
282 4310 m
291 4306 l
291 4306 m
299 4293 l
299 4293 m
308 4276 l
338 4255 m
333 4259 l
333 4259 m
333 4268 l
333 4268 m
342 4289 l
342 4289 m
342 4302 l
342 4302 m
338 4310 l
338 4310 m
333 4314 l
333 4268 m
346 4289 l
346 4289 m
346 4306 l
346 4306 m
342 4310 l
342 4310 m
333 4314 l
333 4314 m
325 4314 l
257 4365 m
261 4353 l
261 4353 m
274 4344 l
274 4344 m
295 4340 l
295 4340 m
308 4340 l
308 4340 m
329 4344 l
329 4344 m
342 4353 l
342 4353 m
346 4365 l
346 4365 m
346 4374 l
346 4374 m
342 4387 l
342 4387 m
329 4395 l
329 4395 m
308 4399 l
308 4399 m
295 4399 l
295 4399 m
274 4395 l
274 4395 m
261 4387 l
261 4387 m
257 4374 l
257 4374 m
257 4365 l
257 4365 m
261 4357 l
261 4357 m
265 4353 l
265 4353 m
274 4348 l
274 4348 m
295 4344 l
295 4344 m
308 4344 l
308 4344 m
329 4348 l
329 4348 m
338 4353 l
338 4353 m
342 4357 l
342 4357 m
346 4365 l
346 4374 m
342 4382 l
342 4382 m
338 4387 l
338 4387 m
329 4391 l
329 4391 m
308 4395 l
308 4395 m
295 4395 l
295 4395 m
274 4391 l
274 4391 m
265 4387 l
265 4387 m
261 4382 l
261 4382 m
257 4374 l
287 4501 m
376 4501 l
287 4505 m
376 4505 l
299 4505 m
291 4514 l
291 4514 m
287 4522 l
287 4522 m
287 4531 l
287 4531 m
291 4544 l
291 4544 m
299 4552 l
299 4552 m
312 4556 l
312 4556 m
321 4556 l
321 4556 m
333 4552 l
333 4552 m
342 4544 l
342 4544 m
346 4531 l
346 4531 m
346 4522 l
346 4522 m
342 4514 l
342 4514 m
333 4505 l
287 4531 m
291 4539 l
291 4539 m
299 4548 l
299 4548 m
312 4552 l
312 4552 m
321 4552 l
321 4552 m
333 4548 l
333 4548 m
342 4539 l
342 4539 m
346 4531 l
287 4488 m
287 4505 l
376 4488 m
376 4518 l
295 4624 m
287 4629 l
287 4629 m
304 4629 l
304 4629 m
295 4624 l
295 4624 m
291 4620 l
291 4620 m
287 4612 l
287 4612 m
287 4595 l
287 4595 m
291 4586 l
291 4586 m
295 4582 l
295 4582 m
304 4582 l
304 4582 m
308 4586 l
308 4586 m
312 4595 l
312 4595 m
321 4616 l
321 4616 m
325 4624 l
325 4624 m
329 4629 l
299 4582 m
304 4586 l
304 4586 m
308 4595 l
308 4595 m
316 4616 l
316 4616 m
321 4624 l
321 4624 m
325 4629 l
325 4629 m
338 4629 l
338 4629 m
342 4624 l
342 4624 m
346 4616 l
346 4616 m
346 4599 l
346 4599 m
342 4590 l
342 4590 m
338 4586 l
338 4586 m
329 4582 l
329 4582 m
346 4582 l
346 4582 m
338 4586 l
stroke
newpath
lwidth setlinewidth
stroke
newpath
4.076923 setlinewidth
1330 5133 m
1275 5044 l
1334 5133 m
1279 5044 l
1279 5133 m
1275 5108 l
1275 5108 m
1275 5133 l
1275 5133 m
1334 5133 l
1275 5044 m
1334 5044 l
1334 5044 m
1334 5069 l
1334 5069 m
1330 5044 l
1364 5095 m
1440 5095 l
1364 5069 m
1440 5069 l
1483 5116 m
1491 5120 l
1491 5120 m
1504 5133 l
1504 5133 m
1504 5044 l
1500 5129 m
1500 5044 l
1483 5044 m
1521 5044 l
1564 5133 m
1555 5091 l
1555 5091 m
1564 5099 l
1564 5099 m
1576 5103 l
1576 5103 m
1589 5103 l
1589 5103 m
1602 5099 l
1602 5099 m
1610 5091 l
1610 5091 m
1614 5078 l
1614 5078 m
1614 5069 l
1614 5069 m
1610 5057 l
1610 5057 m
1602 5048 l
1602 5048 m
1589 5044 l
1589 5044 m
1576 5044 l
1576 5044 m
1564 5048 l
1564 5048 m
1559 5052 l
1559 5052 m
1555 5061 l
1555 5061 m
1555 5065 l
1555 5065 m
1559 5069 l
1559 5069 m
1564 5065 l
1564 5065 m
1559 5061 l
1589 5103 m
1597 5099 l
1597 5099 m
1606 5091 l
1606 5091 m
1610 5078 l
1610 5078 m
1610 5069 l
1610 5069 m
1606 5057 l
1606 5057 m
1597 5048 l
1597 5048 m
1589 5044 l
1564 5133 m
1606 5133 l
1564 5129 m
1585 5129 l
1585 5129 m
1606 5133 l
1665 5133 m
1653 5129 l
1653 5129 m
1644 5116 l
1644 5116 m
1640 5095 l
1640 5095 m
1640 5082 l
1640 5082 m
1644 5061 l
1644 5061 m
1653 5048 l
1653 5048 m
1665 5044 l
1665 5044 m
1674 5044 l
1674 5044 m
1687 5048 l
1687 5048 m
1695 5061 l
1695 5061 m
1699 5082 l
1699 5082 m
1699 5095 l
1699 5095 m
1695 5116 l
1695 5116 m
1687 5129 l
1687 5129 m
1674 5133 l
1674 5133 m
1665 5133 l
1665 5133 m
1657 5129 l
1657 5129 m
1653 5125 l
1653 5125 m
1648 5116 l
1648 5116 m
1644 5095 l
1644 5095 m
1644 5082 l
1644 5082 m
1648 5061 l
1648 5061 m
1653 5052 l
1653 5052 m
1657 5048 l
1657 5048 m
1665 5044 l
1674 5044 m
1682 5048 l
1682 5048 m
1687 5052 l
1687 5052 m
1691 5061 l
1691 5061 m
1695 5082 l
1695 5082 m
1695 5095 l
1695 5095 m
1691 5116 l
1691 5116 m
1687 5125 l
1687 5125 m
1682 5129 l
1682 5129 m
1674 5133 l
1776 5091 m
1772 5086 l
1772 5086 m
1776 5082 l
1776 5082 m
1780 5086 l
1780 5086 m
1780 5091 l
1780 5091 m
1772 5099 l
1772 5099 m
1763 5103 l
stroke
1763 5103 m
1750 5103 l
1750 5103 m
1738 5099 l
1738 5099 m
1729 5091 l
1729 5091 m
1725 5078 l
1725 5078 m
1725 5069 l
1725 5069 m
1729 5057 l
1729 5057 m
1738 5048 l
1738 5048 m
1750 5044 l
1750 5044 m
1759 5044 l
1759 5044 m
1772 5048 l
1772 5048 m
1780 5057 l
1750 5103 m
1742 5099 l
1742 5099 m
1733 5091 l
1733 5091 m
1729 5078 l
1729 5078 m
1729 5069 l
1729 5069 m
1733 5057 l
1733 5057 m
1742 5048 l
1742 5048 m
1750 5044 l
1814 5103 m
1814 5044 l
1818 5103 m
1818 5044 l
1818 5091 m
1827 5099 l
1827 5099 m
1840 5103 l
1840 5103 m
1848 5103 l
1848 5103 m
1861 5099 l
1861 5099 m
1865 5091 l
1865 5091 m
1865 5044 l
1848 5103 m
1857 5099 l
1857 5099 m
1861 5091 l
1861 5091 m
1861 5044 l
1865 5091 m
1874 5099 l
1874 5099 m
1886 5103 l
1886 5103 m
1895 5103 l
1895 5103 m
1908 5099 l
1908 5099 m
1912 5091 l
1912 5091 m
1912 5044 l
1895 5103 m
1903 5099 l
1903 5099 m
1908 5091 l
1908 5091 m
1908 5044 l
1801 5103 m
1818 5103 l
1801 5044 m
1831 5044 l
1848 5044 m
1878 5044 l
1895 5044 m
1924 5044 l
stroke
newpath
lwidth setlinewidth
stroke
newpath
4.076923 setlinewidth
2067 4528 m
2050 4473 l
2067 4528 m
2054 4473 l
2092 4528 m
2092 4473 l
2092 4528 m
2097 4473 l
2037 4520 m
2046 4528 l
2046 4528 m
2059 4533 l
2059 4533 m
2114 4533 l
2037 4520 m
2046 4524 l
2046 4524 m
2059 4528 l
2059 4528 m
2114 4528 l
stroke
newpath
lwidth setlinewidth
stroke
newpath
4.076923 setlinewidth
2699 4247 m
2699 4158 l
2704 4247 m
2704 4158 l
2704 4234 m
2712 4243 l
2712 4243 m
2721 4247 l
2721 4247 m
2729 4247 l
2729 4247 m
2742 4243 l
2742 4243 m
2750 4234 l
2750 4234 m
2754 4222 l
2754 4222 m
2754 4213 l
2754 4213 m
2750 4201 l
2750 4201 m
2742 4192 l
2742 4192 m
2729 4188 l
2729 4188 m
2721 4188 l
2721 4188 m
2712 4192 l
2712 4192 m
2704 4201 l
2729 4247 m
2737 4243 l
2737 4243 m
2746 4234 l
2746 4234 m
2750 4222 l
2750 4222 m
2750 4213 l
2750 4213 m
2746 4201 l
2746 4201 m
2737 4192 l
2737 4192 m
2729 4188 l
2687 4247 m
2704 4247 l
2687 4158 m
2716 4158 l
2788 4247 m
2788 4188 l
2793 4247 m
2793 4188 l
2793 4222 m
2797 4234 l
2797 4234 m
2805 4243 l
2805 4243 m
2814 4247 l
2814 4247 m
2827 4247 l
2827 4247 m
2831 4243 l
2831 4243 m
2831 4239 l
2831 4239 m
2827 4234 l
2827 4234 m
2822 4239 l
2822 4239 m
2827 4243 l
2776 4247 m
2793 4247 l
2776 4188 m
2805 4188 l
2878 4247 m
2865 4243 l
2865 4243 m
2856 4234 l
2856 4234 m
2852 4222 l
2852 4222 m
2852 4213 l
2852 4213 m
2856 4201 l
2856 4201 m
2865 4192 l
2865 4192 m
2878 4188 l
2878 4188 m
2886 4188 l
2886 4188 m
2899 4192 l
2899 4192 m
2907 4201 l
2907 4201 m
2912 4213 l
2912 4213 m
2912 4222 l
2912 4222 m
2907 4234 l
2907 4234 m
2899 4243 l
2899 4243 m
2886 4247 l
2886 4247 m
2878 4247 l
2878 4247 m
2869 4243 l
2869 4243 m
2861 4234 l
2861 4234 m
2856 4222 l
2856 4222 m
2856 4213 l
2856 4213 m
2861 4201 l
2861 4201 m
2869 4192 l
2869 4192 m
2878 4188 l
2886 4188 m
2895 4192 l
2895 4192 m
2903 4201 l
2903 4201 m
2907 4213 l
2907 4213 m
2907 4222 l
2907 4222 m
2903 4234 l
2903 4234 m
2895 4243 l
2895 4243 m
2886 4247 l
2946 4277 m
2946 4205 l
2946 4205 m
2950 4192 l
2950 4192 m
2958 4188 l
2958 4188 m
2967 4188 l
2967 4188 m
2975 4192 l
2975 4192 m
2980 4201 l
2950 4277 m
2950 4205 l
2950 4205 m
2954 4192 l
2954 4192 m
2958 4188 l
2933 4247 m
2967 4247 l
3026 4247 m
3014 4243 l
3014 4243 m
3005 4234 l
3005 4234 m
3001 4222 l
3001 4222 m
3001 4213 l
3001 4213 m
3005 4201 l
3005 4201 m
3014 4192 l
3014 4192 m
3026 4188 l
3026 4188 m
3035 4188 l
3035 4188 m
3048 4192 l
3048 4192 m
3056 4201 l
3056 4201 m
3060 4213 l
3060 4213 m
3060 4222 l
3060 4222 m
3056 4234 l
3056 4234 m
3048 4243 l
3048 4243 m
3035 4247 l
3035 4247 m
3026 4247 l
3026 4247 m
3018 4243 l
3018 4243 m
3009 4234 l
3009 4234 m
3005 4222 l
3005 4222 m
3005 4213 l
3005 4213 m
3009 4201 l
3009 4201 m
3018 4192 l
3018 4192 m
3026 4188 l
3035 4188 m
3043 4192 l
3043 4192 m
3052 4201 l
3052 4201 m
3056 4213 l
3056 4213 m
3056 4222 l
3056 4222 m
3052 4234 l
3052 4234 m
3043 4243 l
3043 4243 m
3035 4247 l
3094 4247 m
3094 4188 l
3098 4247 m
3098 4188 l
3098 4234 m
3107 4243 l
3107 4243 m
3120 4247 l
3120 4247 m
3128 4247 l
3128 4247 m
3141 4243 l
3141 4243 m
3145 4234 l
3145 4234 m
3145 4188 l
3128 4247 m
3137 4243 l
3137 4243 m
3141 4234 l
3141 4234 m
3141 4188 l
3081 4247 m
3098 4247 l
3081 4188 m
3111 4188 l
3128 4188 m
3158 4188 l
stroke
newpath
lwidth setlinewidth
stroke
newpath
3.261539 setlinewidth
3447 5125 m
3447 5068 l
3447 5068 m
3451 5058 l
3451 5058 m
3457 5054 l
3457 5054 m
3464 5054 l
3464 5054 m
3471 5058 l
3471 5058 m
3474 5064 l
3451 5125 m
3451 5068 l
3451 5068 m
3454 5058 l
3454 5058 m
3457 5054 l
3437 5102 m
3464 5102 l
3519 5139 m
3512 5132 l
3512 5132 m
3505 5122 l
3505 5122 m
3498 5108 l
3498 5108 m
3495 5091 l
3495 5091 m
3495 5078 l
3495 5078 m
3498 5061 l
3498 5061 m
3505 5047 l
3505 5047 m
3512 5037 l
3512 5037 m
3519 5030 l
3512 5132 m
3505 5119 l
3505 5119 m
3502 5108 l
3502 5108 m
3498 5091 l
3498 5091 m
3498 5078 l
3498 5078 m
3502 5061 l
3502 5061 m
3505 5051 l
3505 5051 m
3512 5037 l
3559 5098 m
3546 5054 l
3559 5098 m
3549 5054 l
3580 5098 m
3580 5054 l
3580 5098 m
3583 5054 l
3536 5091 m
3542 5098 l
3542 5098 m
3553 5102 l
3553 5102 m
3597 5102 l
3536 5091 m
3542 5095 l
3542 5095 m
3553 5098 l
3553 5098 m
3597 5098 l
3614 5139 m
3620 5132 l
3620 5132 m
3627 5122 l
3627 5122 m
3634 5108 l
3634 5108 m
3637 5091 l
3637 5091 m
3637 5078 l
3637 5078 m
3634 5061 l
3634 5061 m
3627 5047 l
3627 5047 m
3620 5037 l
3620 5037 m
3614 5030 l
3620 5132 m
3627 5119 l
3627 5119 m
3631 5108 l
3631 5108 m
3634 5091 l
3634 5091 m
3634 5078 l
3634 5078 m
3631 5061 l
3631 5061 m
3627 5051 l
3627 5051 m
3620 5037 l
3719 5095 m
3780 5095 l
3719 5074 m
3780 5074 l
3869 5112 m
3875 5115 l
3875 5115 m
3885 5125 l
3885 5125 m
3885 5054 l
3882 5122 m
3882 5054 l
3869 5054 m
3899 5054 l
3936 5112 m
3943 5115 l
3943 5115 m
3953 5125 l
3953 5125 m
3953 5054 l
3950 5122 m
3950 5054 l
3936 5054 m
3967 5054 l
4001 5061 m
3998 5058 l
3998 5058 m
4001 5054 l
4001 5054 m
4004 5058 l
4004 5058 m
4001 5061 l
4028 5125 m
4028 5105 l
4028 5112 m
4032 5119 l
4032 5119 m
4038 5125 l
4038 5125 m
4045 5125 l
4045 5125 m
4062 5115 l
4062 5115 m
4069 5115 l
4069 5115 m
4072 5119 l
4072 5119 m
4076 5125 l
4032 5119 m
4038 5122 l
4038 5122 m
4045 5122 l
4045 5122 m
4062 5115 l
4076 5125 m
4076 5115 l
4076 5115 m
4072 5105 l
4072 5105 m
4059 5088 l
4059 5088 m
4055 5081 l
4055 5081 m
4052 5071 l
4052 5071 m
4052 5054 l
4072 5105 m
4055 5088 l
4055 5088 m
4052 5081 l
4052 5081 m
4049 5071 l
4049 5071 m
4049 5054 l
4103 5125 m
4096 5091 l
4096 5091 m
4103 5098 l
4103 5098 m
4113 5102 l
4113 5102 m
4123 5102 l
4123 5102 m
4133 5098 l
4133 5098 m
4140 5091 l
4140 5091 m
4144 5081 l
4144 5081 m
4144 5074 l
4144 5074 m
4140 5064 l
4140 5064 m
4133 5058 l
4133 5058 m
4123 5054 l
4123 5054 m
4113 5054 l
4113 5054 m
4103 5058 l
4103 5058 m
4100 5061 l
4100 5061 m
4096 5068 l
4096 5068 m
4096 5071 l
4096 5071 m
4100 5074 l
4100 5074 m
4103 5071 l
4103 5071 m
4100 5068 l
4123 5102 m
4130 5098 l
4130 5098 m
4137 5091 l
4137 5091 m
4140 5081 l
4140 5081 m
4140 5074 l
4140 5074 m
4137 5064 l
4137 5064 m
4130 5058 l
4130 5058 m
4123 5054 l
4103 5125 m
4137 5125 l
4103 5122 m
4120 5122 l
4120 5122 m
4137 5125 l
4184 5125 m
4174 5122 l
4174 5122 m
4167 5112 l
4167 5112 m
4164 5095 l
4164 5095 m
4164 5085 l
4164 5085 m
4167 5068 l
4167 5068 m
4174 5058 l
4174 5058 m
4184 5054 l
4184 5054 m
4191 5054 l
4191 5054 m
4201 5058 l
4201 5058 m
4208 5068 l
4208 5068 m
4212 5085 l
stroke
4212 5085 m
4212 5095 l
4212 5095 m
4208 5112 l
4208 5112 m
4201 5122 l
4201 5122 m
4191 5125 l
4191 5125 m
4184 5125 l
4184 5125 m
4178 5122 l
4178 5122 m
4174 5119 l
4174 5119 m
4171 5112 l
4171 5112 m
4167 5095 l
4167 5095 m
4167 5085 l
4167 5085 m
4171 5068 l
4171 5068 m
4174 5061 l
4174 5061 m
4178 5058 l
4178 5058 m
4184 5054 l
4191 5054 m
4198 5058 l
4198 5058 m
4201 5061 l
4201 5061 m
4205 5068 l
4205 5068 m
4208 5085 l
4208 5085 m
4208 5095 l
4208 5095 m
4205 5112 l
4205 5112 m
4201 5119 l
4201 5119 m
4198 5122 l
4198 5122 m
4191 5125 l
4293 5102 m
4293 5054 l
4297 5102 m
4297 5054 l
4297 5091 m
4303 5098 l
4303 5098 m
4314 5102 l
4314 5102 m
4320 5102 l
4320 5102 m
4331 5098 l
4331 5098 m
4334 5091 l
4334 5091 m
4334 5054 l
4320 5102 m
4327 5098 l
4327 5098 m
4331 5091 l
4331 5091 m
4331 5054 l
4283 5102 m
4297 5102 l
4283 5054 m
4307 5054 l
4320 5054 m
4344 5054 l
4395 5095 m
4398 5102 l
4398 5102 m
4398 5088 l
4398 5088 m
4395 5095 l
4395 5095 m
4392 5098 l
4392 5098 m
4385 5102 l
4385 5102 m
4371 5102 l
4371 5102 m
4365 5098 l
4365 5098 m
4361 5095 l
4361 5095 m
4361 5088 l
4361 5088 m
4365 5085 l
4365 5085 m
4371 5081 l
4371 5081 m
4388 5075 l
4388 5075 m
4395 5071 l
4395 5071 m
4398 5068 l
4361 5091 m
4365 5088 l
4365 5088 m
4371 5085 l
4371 5085 m
4388 5078 l
4388 5078 m
4395 5075 l
4395 5075 m
4398 5071 l
4398 5071 m
4398 5061 l
4398 5061 m
4395 5058 l
4395 5058 m
4388 5054 l
4388 5054 m
4375 5054 l
4375 5054 m
4368 5058 l
4368 5058 m
4365 5061 l
4365 5061 m
4361 5068 l
4361 5068 m
4361 5054 l
4361 5054 m
4365 5061 l
stroke
newpath
lwidth setlinewidth
stroke
newpath
3.261539 setlinewidth
3821 4959 m
3787 4959 l
3787 4959 m
3777 4956 l
3777 4956 m
3770 4945 l
3770 4945 m
3767 4935 l
3767 4935 m
3767 4925 l
3767 4925 m
3770 4918 l
3770 4918 m
3773 4915 l
3773 4915 m
3780 4911 l
3780 4911 m
3787 4911 l
3787 4911 m
3797 4915 l
3797 4915 m
3804 4925 l
3804 4925 m
3807 4935 l
3807 4935 m
3807 4945 l
3807 4945 m
3804 4952 l
3804 4952 m
3801 4956 l
3801 4956 m
3794 4959 l
3787 4959 m
3780 4956 l
3780 4956 m
3773 4945 l
3773 4945 m
3770 4935 l
3770 4935 m
3770 4922 l
3770 4922 m
3773 4915 l
3787 4911 m
3794 4915 l
3794 4915 m
3801 4925 l
3801 4925 m
3804 4935 l
3804 4935 m
3804 4949 l
3804 4949 m
3801 4956 l
3801 4956 m
3821 4956 l
3865 4996 m
3858 4990 l
3858 4990 m
3852 4979 l
3852 4979 m
3845 4966 l
3845 4966 m
3841 4949 l
3841 4949 m
3841 4935 l
3841 4935 m
3845 4918 l
3845 4918 m
3852 4905 l
3852 4905 m
3858 4894 l
3858 4894 m
3865 4888 l
3858 4990 m
3852 4976 l
3852 4976 m
3848 4966 l
3848 4966 m
3845 4949 l
3845 4949 m
3845 4935 l
3845 4935 m
3848 4918 l
3848 4918 m
3852 4908 l
3852 4908 m
3858 4894 l
3892 4983 m
3892 4925 l
3892 4925 m
3896 4915 l
3896 4915 m
3902 4911 l
3902 4911 m
3909 4911 l
3909 4911 m
3916 4915 l
3916 4915 m
3919 4922 l
3896 4983 m
3896 4925 l
3896 4925 m
3899 4915 l
3899 4915 m
3902 4911 l
3882 4959 m
3909 4959 l
3936 4996 m
3943 4990 l
3943 4990 m
3950 4979 l
3950 4979 m
3957 4966 l
3957 4966 m
3960 4949 l
3960 4949 m
3960 4935 l
3960 4935 m
3957 4918 l
3957 4918 m
3950 4905 l
3950 4905 m
3943 4894 l
3943 4894 m
3936 4888 l
3943 4990 m
3950 4976 l
3950 4976 m
3953 4966 l
3953 4966 m
3957 4949 l
3957 4949 m
3957 4935 l
3957 4935 m
3953 4918 l
3953 4918 m
3950 4908 l
3950 4908 m
3943 4894 l
3987 4952 m
4049 4952 l
3987 4932 m
4049 4932 l
4117 4959 m
4113 4949 l
4113 4949 m
4106 4942 l
4106 4942 m
4096 4939 l
4096 4939 m
4093 4939 l
4093 4939 m
4083 4942 l
4083 4942 m
4076 4949 l
4076 4949 m
4072 4959 l
4072 4959 m
4072 4962 l
4072 4962 m
4076 4973 l
4076 4973 m
4083 4979 l
4083 4979 m
4093 4983 l
4093 4983 m
4100 4983 l
4100 4983 m
4110 4979 l
4110 4979 m
4117 4973 l
4117 4973 m
4120 4962 l
4120 4962 m
4120 4942 l
4120 4942 m
4117 4928 l
4117 4928 m
4113 4922 l
4113 4922 m
4106 4915 l
4106 4915 m
4096 4911 l
4096 4911 m
4086 4911 l
4086 4911 m
4079 4915 l
4079 4915 m
4076 4922 l
4076 4922 m
4076 4925 l
4076 4925 m
4079 4928 l
4079 4928 m
4083 4925 l
4083 4925 m
4079 4922 l
4093 4939 m
4086 4942 l
4086 4942 m
4079 4949 l
4079 4949 m
4076 4959 l
4076 4959 m
4076 4962 l
4076 4962 m
4079 4973 l
4079 4973 m
4086 4979 l
4086 4979 m
4093 4983 l
4100 4983 m
4106 4979 l
4106 4979 m
4113 4973 l
4113 4973 m
4117 4962 l
4117 4962 m
4117 4942 l
4117 4942 m
4113 4928 l
4113 4928 m
4110 4922 l
4110 4922 m
4103 4915 l
4103 4915 m
4096 4911 l
4161 4983 m
4150 4979 l
4150 4979 m
4144 4969 l
4144 4969 m
4140 4952 l
4140 4952 m
4140 4942 l
4140 4942 m
4144 4925 l
4144 4925 m
4150 4915 l
4150 4915 m
4161 4911 l
4161 4911 m
4167 4911 l
4167 4911 m
4178 4915 l
4178 4915 m
4184 4925 l
4184 4925 m
4188 4942 l
4188 4942 m
4188 4952 l
4188 4952 m
4184 4969 l
4184 4969 m
4178 4979 l
4178 4979 m
4167 4983 l
4167 4983 m
4161 4983 l
4161 4983 m
4154 4979 l
4154 4979 m
4150 4976 l
4150 4976 m
4147 4969 l
4147 4969 m
4144 4952 l
4144 4952 m
4144 4942 l
4144 4942 m
4147 4925 l
4147 4925 m
4150 4918 l
4150 4918 m
4154 4915 l
4154 4915 m
4161 4911 l
4167 4911 m
4174 4915 l
4174 4915 m
4178 4918 l
4178 4918 m
4181 4925 l
4181 4925 m
4184 4942 l
4184 4942 m
4184 4952 l
4184 4952 m
4181 4969 l
4181 4969 m
4178 4976 l
4178 4976 m
4174 4979 l
4174 4979 m
4167 4983 l
4269 4959 m
4269 4888 l
4273 4959 m
4273 4888 l
4273 4949 m
4280 4956 l
4280 4956 m
4286 4959 l
4286 4959 m
4293 4959 l
4293 4959 m
4303 4956 l
4303 4956 m
4310 4949 l
4310 4949 m
4314 4939 l
4314 4939 m
4314 4932 l
4314 4932 m
4310 4922 l
4310 4922 m
4303 4915 l
4303 4915 m
4293 4911 l
4293 4911 m
4286 4911 l
4286 4911 m
4280 4915 l
4280 4915 m
4273 4922 l
4293 4959 m
4300 4956 l
4300 4956 m
4307 4949 l
4307 4949 m
4310 4939 l
4310 4939 m
4310 4932 l
4310 4932 m
4307 4922 l
4307 4922 m
4300 4915 l
4300 4915 m
4293 4911 l
4259 4959 m
4273 4959 l
4259 4888 m
4283 4888 l
4368 4952 m
4371 4959 l
4371 4959 m
4371 4945 l
4371 4945 m
4368 4952 l
4368 4952 m
4365 4956 l
4365 4956 m
4358 4959 l
4358 4959 m
4344 4959 l
4344 4959 m
4337 4956 l
4337 4956 m
4334 4952 l
4334 4952 m
4334 4945 l
4334 4945 m
4337 4942 l
4337 4942 m
4344 4939 l
4344 4939 m
4361 4932 l
4361 4932 m
4368 4928 l
4368 4928 m
4371 4925 l
4334 4949 m
4337 4945 l
4337 4945 m
4344 4942 l
4344 4942 m
4361 4935 l
4361 4935 m
4368 4932 l
4368 4932 m
4371 4928 l
4371 4928 m
4371 4918 l
4371 4918 m
4368 4915 l
4368 4915 m
4361 4911 l
4361 4911 m
4348 4911 l
4348 4911 m
4341 4915 l
4341 4915 m
4337 4918 l
4337 4918 m
4334 4925 l
4334 4925 m
4334 4911 l
4334 4911 m
4337 4918 l
stroke
newpath
lwidth setlinewidth
stroke
newpath
3.261539 setlinewidth
3447 4783 m
3447 4725 l
3447 4725 m
3451 4715 l
3451 4715 m
3457 4712 l
3457 4712 m
3464 4712 l
3464 4712 m
3471 4715 l
3471 4715 m
3474 4722 l
3451 4783 m
3451 4725 l
3451 4725 m
3454 4715 l
3454 4715 m
3457 4712 l
3437 4759 m
3464 4759 l
3519 4797 m
3512 4790 l
3512 4790 m
3505 4780 l
3505 4780 m
3498 4766 l
3498 4766 m
3495 4749 l
3495 4749 m
3495 4735 l
3495 4735 m
3498 4718 l
3498 4718 m
3505 4705 l
3505 4705 m
3512 4695 l
3512 4695 m
3519 4688 l
3512 4790 m
3505 4776 l
3505 4776 m
3502 4766 l
3502 4766 m
3498 4749 l
3498 4749 m
3498 4735 l
3498 4735 m
3502 4718 l
3502 4718 m
3505 4708 l
3505 4708 m
3512 4695 l
3546 4759 m
3546 4688 l
3549 4759 m
3549 4688 l
3549 4749 m
3556 4756 l
3556 4756 m
3563 4759 l
3563 4759 m
3570 4759 l
3570 4759 m
3580 4756 l
3580 4756 m
3587 4749 l
3587 4749 m
3590 4739 l
3590 4739 m
3590 4732 l
3590 4732 m
3587 4722 l
3587 4722 m
3580 4715 l
3580 4715 m
3570 4712 l
stroke
3570 4712 m
3563 4712 l
3563 4712 m
3556 4715 l
3556 4715 m
3549 4722 l
3570 4759 m
3576 4756 l
3576 4756 m
3583 4749 l
3583 4749 m
3587 4739 l
3587 4739 m
3587 4732 l
3587 4732 m
3583 4722 l
3583 4722 m
3576 4715 l
3576 4715 m
3570 4712 l
3536 4759 m
3549 4759 l
3536 4688 m
3559 4688 l
3610 4797 m
3617 4790 l
3617 4790 m
3624 4780 l
3624 4780 m
3631 4766 l
3631 4766 m
3634 4749 l
3634 4749 m
3634 4735 l
3634 4735 m
3631 4718 l
3631 4718 m
3624 4705 l
3624 4705 m
3617 4695 l
3617 4695 m
3610 4688 l
3617 4790 m
3624 4776 l
3624 4776 m
3627 4766 l
3627 4766 m
3631 4749 l
3631 4749 m
3631 4735 l
3631 4735 m
3627 4718 l
3627 4718 m
3624 4708 l
3624 4708 m
3617 4695 l
3716 4752 m
3777 4752 l
3716 4732 m
3777 4732 l
3865 4769 m
3872 4773 l
3872 4773 m
3882 4783 l
3882 4783 m
3882 4712 l
3879 4780 m
3879 4712 l
3865 4712 m
3896 4712 l
3926 4769 m
3930 4766 l
3930 4766 m
3926 4763 l
3926 4763 m
3923 4766 l
3923 4766 m
3923 4769 l
3923 4769 m
3926 4776 l
3926 4776 m
3930 4780 l
3930 4780 m
3940 4783 l
3940 4783 m
3953 4783 l
3953 4783 m
3964 4780 l
3964 4780 m
3967 4776 l
3967 4776 m
3970 4769 l
3970 4769 m
3970 4763 l
3970 4763 m
3967 4756 l
3967 4756 m
3957 4749 l
3957 4749 m
3940 4742 l
3940 4742 m
3933 4739 l
3933 4739 m
3926 4732 l
3926 4732 m
3923 4722 l
3923 4722 m
3923 4712 l
3953 4783 m
3960 4780 l
3960 4780 m
3964 4776 l
3964 4776 m
3967 4769 l
3967 4769 m
3967 4763 l
3967 4763 m
3964 4756 l
3964 4756 m
3953 4749 l
3953 4749 m
3940 4742 l
3923 4718 m
3926 4722 l
3926 4722 m
3933 4722 l
3933 4722 m
3950 4715 l
3950 4715 m
3960 4715 l
3960 4715 m
3967 4718 l
3967 4718 m
3970 4722 l
3933 4722 m
3950 4712 l
3950 4712 m
3964 4712 l
3964 4712 m
3967 4715 l
3967 4715 m
3970 4722 l
3970 4722 m
3970 4729 l
3998 4718 m
3994 4715 l
3994 4715 m
3998 4712 l
3998 4712 m
4001 4715 l
4001 4715 m
3998 4718 l
4028 4769 m
4032 4766 l
4032 4766 m
4028 4763 l
4028 4763 m
4025 4766 l
4025 4766 m
4025 4769 l
4025 4769 m
4028 4776 l
4028 4776 m
4032 4780 l
4032 4780 m
4042 4783 l
4042 4783 m
4055 4783 l
4055 4783 m
4066 4780 l
4066 4780 m
4069 4776 l
4069 4776 m
4072 4769 l
4072 4769 m
4072 4763 l
4072 4763 m
4069 4756 l
4069 4756 m
4059 4749 l
4059 4749 m
4042 4742 l
4042 4742 m
4035 4739 l
4035 4739 m
4028 4732 l
4028 4732 m
4025 4722 l
4025 4722 m
4025 4712 l
4055 4783 m
4062 4780 l
4062 4780 m
4066 4776 l
4066 4776 m
4069 4769 l
4069 4769 m
4069 4763 l
4069 4763 m
4066 4756 l
4066 4756 m
4055 4749 l
4055 4749 m
4042 4742 l
4025 4718 m
4028 4722 l
4028 4722 m
4035 4722 l
4035 4722 m
4052 4715 l
4052 4715 m
4062 4715 l
4062 4715 m
4069 4718 l
4069 4718 m
4072 4722 l
4035 4722 m
4052 4712 l
4052 4712 m
4066 4712 l
4066 4712 m
4069 4715 l
4069 4715 m
4072 4722 l
4072 4722 m
4072 4729 l
4113 4783 m
4103 4780 l
4103 4780 m
4096 4769 l
4096 4769 m
4093 4752 l
4093 4752 m
4093 4742 l
4093 4742 m
4096 4725 l
4096 4725 m
4103 4715 l
4103 4715 m
4113 4712 l
4113 4712 m
4120 4712 l
4120 4712 m
4130 4715 l
4130 4715 m
4137 4725 l
4137 4725 m
4140 4742 l
4140 4742 m
4140 4752 l
4140 4752 m
4137 4769 l
4137 4769 m
4130 4780 l
4130 4780 m
4120 4783 l
4120 4783 m
4113 4783 l
4113 4783 m
4106 4780 l
4106 4780 m
4103 4776 l
4103 4776 m
4100 4769 l
4100 4769 m
4096 4752 l
4096 4752 m
4096 4742 l
4096 4742 m
4100 4725 l
4100 4725 m
4103 4718 l
4103 4718 m
4106 4715 l
4106 4715 m
4113 4712 l
4120 4712 m
4127 4715 l
4127 4715 m
4130 4718 l
4130 4718 m
4133 4725 l
4133 4725 m
4137 4742 l
4137 4742 m
4137 4752 l
4137 4752 m
4133 4769 l
4133 4769 m
4130 4776 l
4130 4776 m
4127 4780 l
4127 4780 m
4120 4783 l
4181 4783 m
4171 4780 l
4171 4780 m
4164 4769 l
4164 4769 m
4161 4752 l
4161 4752 m
4161 4742 l
4161 4742 m
4164 4725 l
4164 4725 m
4171 4715 l
4171 4715 m
4181 4712 l
4181 4712 m
4188 4712 l
4188 4712 m
4198 4715 l
4198 4715 m
4205 4725 l
4205 4725 m
4208 4742 l
4208 4742 m
4208 4752 l
4208 4752 m
4205 4769 l
4205 4769 m
4198 4780 l
4198 4780 m
4188 4783 l
4188 4783 m
4181 4783 l
4181 4783 m
4174 4780 l
4174 4780 m
4171 4776 l
4171 4776 m
4167 4769 l
4167 4769 m
4164 4752 l
4164 4752 m
4164 4742 l
4164 4742 m
4167 4725 l
4167 4725 m
4171 4718 l
4171 4718 m
4174 4715 l
4174 4715 m
4181 4712 l
4188 4712 m
4195 4715 l
4195 4715 m
4198 4718 l
4198 4718 m
4201 4725 l
4201 4725 m
4205 4742 l
4205 4742 m
4205 4752 l
4205 4752 m
4201 4769 l
4201 4769 m
4198 4776 l
4198 4776 m
4195 4780 l
4195 4780 m
4188 4783 l
4290 4759 m
4290 4712 l
4293 4759 m
4293 4712 l
4293 4749 m
4300 4756 l
4300 4756 m
4310 4759 l
4310 4759 m
4317 4759 l
4317 4759 m
4327 4756 l
4327 4756 m
4331 4749 l
4331 4749 m
4331 4712 l
4317 4759 m
4324 4756 l
4324 4756 m
4327 4749 l
4327 4749 m
4327 4712 l
4280 4759 m
4293 4759 l
4280 4712 m
4303 4712 l
4317 4712 m
4341 4712 l
4392 4752 m
4395 4759 l
4395 4759 m
4395 4746 l
4395 4746 m
4392 4752 l
4392 4752 m
4388 4756 l
4388 4756 m
4382 4759 l
4382 4759 m
4368 4759 l
4368 4759 m
4361 4756 l
4361 4756 m
4358 4752 l
4358 4752 m
4358 4746 l
4358 4746 m
4361 4742 l
4361 4742 m
4368 4739 l
4368 4739 m
4385 4732 l
4385 4732 m
4392 4729 l
4392 4729 m
4395 4725 l
4358 4749 m
4361 4746 l
4361 4746 m
4368 4742 l
4368 4742 m
4385 4735 l
4385 4735 m
4392 4732 l
4392 4732 m
4395 4729 l
4395 4729 m
4395 4718 l
4395 4718 m
4392 4715 l
4392 4715 m
4385 4712 l
4385 4712 m
4371 4712 l
4371 4712 m
4365 4715 l
4365 4715 m
4361 4718 l
4361 4718 m
4358 4725 l
4358 4725 m
4358 4712 l
4358 4712 m
4361 4718 l
stroke
newpath
lwidth setlinewidth
stroke
newpath
3.261539 setlinewidth
3821 4617 m
3787 4617 l
3787 4617 m
3777 4613 l
3777 4613 m
3770 4603 l
3770 4603 m
3767 4593 l
3767 4593 m
3767 4583 l
3767 4583 m
3770 4576 l
3770 4576 m
3773 4572 l
3773 4572 m
3780 4569 l
3780 4569 m
3787 4569 l
3787 4569 m
3797 4572 l
3797 4572 m
3804 4583 l
3804 4583 m
3807 4593 l
3807 4593 m
3807 4603 l
3807 4603 m
3804 4610 l
3804 4610 m
3801 4613 l
3801 4613 m
3794 4617 l
3787 4617 m
3780 4613 l
3780 4613 m
3773 4603 l
3773 4603 m
3770 4593 l
3770 4593 m
3770 4579 l
3770 4579 m
3773 4572 l
3787 4569 m
3794 4572 l
3794 4572 m
3801 4583 l
3801 4583 m
3804 4593 l
3804 4593 m
3804 4606 l
3804 4606 m
3801 4613 l
3801 4613 m
3821 4613 l
3865 4654 m
3858 4647 l
3858 4647 m
3852 4637 l
3852 4637 m
3845 4623 l
3845 4623 m
3841 4606 l
3841 4606 m
3841 4593 l
3841 4593 m
3845 4576 l
3845 4576 m
3852 4562 l
3852 4562 m
3858 4552 l
3858 4552 m
3865 4545 l
3858 4647 m
3852 4634 l
3852 4634 m
3848 4623 l
3848 4623 m
3845 4606 l
3845 4606 m
3845 4593 l
3845 4593 m
3848 4576 l
3848 4576 m
3852 4566 l
3852 4566 m
3858 4552 l
3892 4640 m
3892 4583 l
3892 4583 m
3896 4572 l
3896 4572 m
3902 4569 l
3902 4569 m
3909 4569 l
3909 4569 m
3916 4572 l
3916 4572 m
3919 4579 l
3896 4640 m
3896 4583 l
3896 4583 m
3899 4572 l
3899 4572 m
3902 4569 l
3882 4617 m
3909 4617 l
3936 4654 m
3943 4647 l
3943 4647 m
3950 4637 l
3950 4637 m
3957 4623 l
3957 4623 m
3960 4606 l
3960 4606 m
3960 4593 l
3960 4593 m
3957 4576 l
3957 4576 m
3950 4562 l
3950 4562 m
3943 4552 l
3943 4552 m
3936 4545 l
3943 4647 m
3950 4634 l
3950 4634 m
3953 4623 l
3953 4623 m
3957 4606 l
3957 4606 m
3957 4593 l
3957 4593 m
3953 4576 l
3953 4576 m
3950 4566 l
3950 4566 m
3943 4552 l
3987 4610 m
4049 4610 l
3987 4589 m
4049 4589 l
4117 4617 m
4113 4606 l
4113 4606 m
4106 4600 l
4106 4600 m
4096 4596 l
4096 4596 m
4093 4596 l
4093 4596 m
4083 4600 l
4083 4600 m
4076 4606 l
4076 4606 m
4072 4617 l
4072 4617 m
4072 4620 l
stroke
4072 4620 m
4076 4630 l
4076 4630 m
4083 4637 l
4083 4637 m
4093 4640 l
4093 4640 m
4100 4640 l
4100 4640 m
4110 4637 l
4110 4637 m
4117 4630 l
4117 4630 m
4120 4620 l
4120 4620 m
4120 4600 l
4120 4600 m
4117 4586 l
4117 4586 m
4113 4579 l
4113 4579 m
4106 4572 l
4106 4572 m
4096 4569 l
4096 4569 m
4086 4569 l
4086 4569 m
4079 4572 l
4079 4572 m
4076 4579 l
4076 4579 m
4076 4583 l
4076 4583 m
4079 4586 l
4079 4586 m
4083 4583 l
4083 4583 m
4079 4579 l
4093 4596 m
4086 4600 l
4086 4600 m
4079 4606 l
4079 4606 m
4076 4617 l
4076 4617 m
4076 4620 l
4076 4620 m
4079 4630 l
4079 4630 m
4086 4637 l
4086 4637 m
4093 4640 l
4100 4640 m
4106 4637 l
4106 4637 m
4113 4630 l
4113 4630 m
4117 4620 l
4117 4620 m
4117 4600 l
4117 4600 m
4113 4586 l
4113 4586 m
4110 4579 l
4110 4579 m
4103 4572 l
4103 4572 m
4096 4569 l
4150 4627 m
4157 4630 l
4157 4630 m
4167 4640 l
4167 4640 m
4167 4569 l
4164 4637 m
4164 4569 l
4150 4569 m
4181 4569 l
4269 4617 m
4269 4545 l
4273 4617 m
4273 4545 l
4273 4606 m
4280 4613 l
4280 4613 m
4286 4617 l
4286 4617 m
4293 4617 l
4293 4617 m
4303 4613 l
4303 4613 m
4310 4606 l
4310 4606 m
4314 4596 l
4314 4596 m
4314 4589 l
4314 4589 m
4310 4579 l
4310 4579 m
4303 4572 l
4303 4572 m
4293 4569 l
4293 4569 m
4286 4569 l
4286 4569 m
4280 4572 l
4280 4572 m
4273 4579 l
4293 4617 m
4300 4613 l
4300 4613 m
4307 4606 l
4307 4606 m
4310 4596 l
4310 4596 m
4310 4589 l
4310 4589 m
4307 4579 l
4307 4579 m
4300 4572 l
4300 4572 m
4293 4569 l
4259 4617 m
4273 4617 l
4259 4545 m
4283 4545 l
4368 4610 m
4371 4617 l
4371 4617 m
4371 4603 l
4371 4603 m
4368 4610 l
4368 4610 m
4365 4613 l
4365 4613 m
4358 4617 l
4358 4617 m
4344 4617 l
4344 4617 m
4337 4613 l
4337 4613 m
4334 4610 l
4334 4610 m
4334 4603 l
4334 4603 m
4337 4600 l
4337 4600 m
4344 4596 l
4344 4596 m
4361 4589 l
4361 4589 m
4368 4586 l
4368 4586 m
4371 4583 l
4334 4606 m
4337 4603 l
4337 4603 m
4344 4600 l
4344 4600 m
4361 4593 l
4361 4593 m
4368 4589 l
4368 4589 m
4371 4586 l
4371 4586 m
4371 4576 l
4371 4576 m
4368 4572 l
4368 4572 m
4361 4569 l
4361 4569 m
4348 4569 l
4348 4569 m
4341 4572 l
4341 4572 m
4337 4576 l
4337 4576 m
4334 4583 l
4334 4583 m
4334 4569 l
4334 4569 m
4337 4576 l
stroke
newpath
lwidth setlinewidth
1060 5380 m
1060 2526 l
1060 2526 m
4770 2526 l
4770 2526 m
4770 5380 l
4770 5380 m
1060 5380 l
1060 2526 m
1061 2527 l
1060 2526 m
1060 2529 l
1060 2529 m
1097 2529 l
1097 2529 m
1098 2530 l
1097 2529 m
1134 2529 l
1134 2529 m
1134 2526 l
1134 2526 m
1171 2526 l
1171 2526 m
1171 2535 l
1171 2535 m
1208 2535 l
1208 2535 m
1208 2529 l
1208 2529 m
1245 2529 l
1245 2529 m
1245 2532 l
1245 2532 m
1282 2532 l
1282 2532 m
1282 2538 l
1282 2538 m
1319 2538 l
1319 2538 m
1319 2532 l
1319 2532 m
1356 2532 l
1356 2532 m
1356 2529 l
1356 2529 m
1393 2529 l
1393 2529 m
1393 2544 l
1393 2544 m
1431 2544 l
1431 2544 m
1431 2529 l
1431 2529 m
1468 2529 l
1468 2529 m
1468 2561 l
1468 2561 m
1505 2561 l
1505 2561 m
1505 2552 l
1505 2552 m
1542 2552 l
1542 2552 m
1542 2564 l
1542 2564 m
1579 2564 l
1579 2564 m
1579 2566 l
1579 2566 m
1616 2566 l
1616 2566 m
1616 2598 l
1616 2598 m
1653 2598 l
1653 2598 m
1653 2606 l
1653 2606 m
1690 2606 l
1690 2606 m
1690 2686 l
1690 2686 m
1727 2686 l
1727 2686 m
1727 2740 l
1727 2740 m
1764 2740 l
1764 2740 m
1764 2849 l
1764 2849 m
1802 2849 l
1802 2849 m
1802 2994 l
1802 2994 m
1839 2994 l
1839 2994 m
1839 3154 l
1839 3154 m
1876 3154 l
1876 3154 m
1876 3351 l
1876 3351 m
1913 3351 l
1913 3351 m
1913 3694 l
1913 3694 m
1950 3694 l
1950 3694 m
1950 3899 l
1950 3899 m
1987 3899 l
1987 3899 m
1987 3970 l
1987 3970 m
2024 3970 l
2024 3970 m
2024 4082 l
2024 4082 m
2061 4082 l
2061 4082 m
2061 4244 l
2061 4244 m
2098 4244 l
2098 4244 m
2098 4136 l
2098 4136 m
2135 4136 l
2135 4136 m
2135 3993 l
2135 3993 m
2173 3993 l
2173 3993 m
2173 3799 l
2173 3799 m
2210 3799 l
2210 3799 m
2210 3605 l
2210 3605 m
2247 3605 l
2247 3605 m
2247 3371 l
2247 3371 m
2284 3371 l
2284 3371 m
2284 3208 l
2284 3208 m
2321 3208 l
2321 3208 m
2321 2992 l
2321 2992 m
2358 2992 l
2358 2992 m
2358 2869 l
2358 2869 m
2395 2869 l
2395 2869 m
2395 2780 l
2395 2780 m
2432 2780 l
2432 2780 m
2432 2752 l
2432 2752 m
2469 2752 l
2469 2752 m
2469 2706 l
2469 2706 m
2506 2706 l
2506 2706 m
2506 2732 l
2506 2732 m
2544 2732 l
2544 2732 m
2544 2718 l
2544 2718 m
2581 2718 l
2581 2718 m
2581 2820 l
2581 2820 m
2618 2820 l
2618 2820 m
2618 2832 l
2618 2832 m
2655 2832 l
2655 2832 m
2655 2877 l
2655 2877 m
2692 2877 l
2692 2877 m
2692 3026 l
2692 3026 m
2729 3026 l
2729 3026 m
2729 3174 l
2729 3174 m
2766 3174 l
2766 3174 m
2766 3405 l
2766 3405 m
2803 3405 l
2803 3405 m
2803 3557 l
2803 3557 m
2840 3557 l
2840 3557 m
2840 3577 l
2840 3577 m
2877 3577 l
2877 3577 m
2877 3768 l
2877 3768 m
2915 3768 l
2915 3768 m
2915 3619 l
2915 3619 m
2952 3619 l
2952 3619 m
2952 3688 l
2952 3688 m
2989 3688 l
2989 3688 m
2989 3716 l
2989 3716 m
3026 3716 l
3026 3716 m
3026 3414 l
3026 3414 m
3063 3414 l
3063 3414 m
3063 3288 l
3063 3288 m
3100 3288 l
3100 3288 m
3100 3080 l
3100 3080 m
3137 3080 l
3137 3080 m
3137 2926 l
3137 2926 m
3174 2926 l
3174 2926 m
3174 2840 l
3174 2840 m
3211 2840 l
3211 2840 m
3211 2720 l
3211 2720 m
3248 2720 l
3248 2720 m
3248 2709 l
3248 2709 m
3286 2709 l
3286 2709 m
3286 2641 l
3286 2641 m
3323 2641 l
3323 2641 m
3323 2621 l
3323 2621 m
3360 2621 l
3360 2621 m
3360 2635 l
3360 2635 m
3397 2635 l
3397 2635 m
3397 2618 l
3397 2618 m
3434 2618 l
3434 2618 m
3434 2589 l
3434 2589 m
3471 2589 l
3471 2589 m
3471 2569 l
3471 2569 m
3508 2569 l
3508 2569 m
3508 2581 l
3508 2581 m
3545 2581 l
3545 2581 m
3545 2589 l
3545 2589 m
3582 2589 l
3582 2589 m
3582 2575 l
3582 2575 m
3619 2575 l
3619 2575 m
3619 2586 l
3619 2586 m
3657 2586 l
3657 2586 m
3657 2572 l
3657 2572 m
3694 2572 l
3694 2572 m
3694 2555 l
3694 2555 m
3731 2555 l
3731 2555 m
3731 2561 l
3731 2561 m
3768 2561 l
3768 2561 m
3768 2552 l
3768 2552 m
3805 2552 l
3805 2552 m
3805 2561 l
3805 2561 m
3842 2561 l
3842 2561 m
3843 2562 l
3842 2561 m
3879 2561 l
3879 2561 m
3879 2555 l
3879 2555 m
3916 2555 l
3916 2555 m
3916 2549 l
3916 2549 m
3953 2549 l
3953 2549 m
3953 2546 l
3953 2546 m
3990 2546 l
3990 2546 m
3990 2566 l
3990 2566 m
4028 2566 l
4028 2566 m
4028 2552 l
4028 2552 m
4065 2552 l
4065 2552 m
4065 2546 l
4065 2546 m
4102 2546 l
4102 2546 m
4103 2547 l
4102 2546 m
4139 2546 l
4139 2546 m
4140 2547 l
4139 2546 m
4176 2546 l
4176 2546 m
4176 2538 l
4176 2538 m
4213 2538 l
4213 2538 m
4213 2541 l
4213 2541 m
4250 2541 l
4250 2541 m
4250 2535 l
4250 2535 m
4287 2535 l
4287 2535 m
4287 2532 l
4287 2532 m
4324 2532 l
4324 2532 m
4324 2526 l
4324 2526 m
4361 2526 l
4361 2526 m
4361 2544 l
4361 2544 m
4399 2544 l
4399 2544 m
4399 2538 l
4399 2538 m
4436 2538 l
4436 2538 m
4436 2535 l
4436 2535 m
4473 2535 l
4473 2535 m
4473 2541 l
4473 2541 m
4510 2541 l
4510 2541 m
4510 2532 l
4510 2532 m
4547 2532 l
4547 2532 m
4547 2529 l
4547 2529 m
4584 2529 l
4584 2529 m
4584 2535 l
4584 2535 m
4621 2535 l
4621 2535 m
4621 2529 l
4621 2529 m
4658 2529 l
4658 2529 m
4658 2535 l
4658 2535 m
4695 2535 l
4695 2535 m
4695 2529 l
4695 2529 m
4732 2529 l
4732 2529 m
4732 2532 l
4732 2532 m
4770 2532 l
1060 2526 m
1060 2567 l
1245 2526 m
1245 2567 l
1431 2526 m
1431 2567 l
1616 2526 m
1616 2649 l
1802 2526 m
1802 2567 l
1987 2526 m
1987 2567 l
stroke
2173 2526 m
2173 2567 l
2358 2526 m
2358 2567 l
2544 2526 m
2544 2649 l
2729 2526 m
2729 2567 l
2915 2526 m
2915 2567 l
3100 2526 m
3100 2567 l
3286 2526 m
3286 2567 l
3471 2526 m
3471 2649 l
3657 2526 m
3657 2567 l
3842 2526 m
3842 2567 l
4028 2526 m
4028 2567 l
4213 2526 m
4213 2567 l
4399 2526 m
4399 2649 l
4584 2526 m
4584 2567 l
4770 2526 m
4770 2567 l
stroke
newpath
3.261539 setlinewidth
1486 2446 m
1492 2449 l
1492 2449 m
1503 2459 l
1503 2459 m
1503 2388 l
1499 2456 m
1499 2388 l
1486 2388 m
1516 2388 l
1553 2446 m
1560 2449 l
1560 2449 m
1570 2459 l
1570 2459 m
1570 2388 l
1567 2456 m
1567 2388 l
1553 2388 m
1584 2388 l
1618 2395 m
1615 2391 l
1615 2391 m
1618 2388 l
1618 2388 m
1621 2391 l
1621 2391 m
1618 2395 l
1652 2459 m
1645 2425 l
1645 2425 m
1652 2432 l
1652 2432 m
1662 2435 l
1662 2435 m
1672 2435 l
1672 2435 m
1683 2432 l
1683 2432 m
1689 2425 l
1689 2425 m
1693 2415 l
1693 2415 m
1693 2408 l
1693 2408 m
1689 2398 l
1689 2398 m
1683 2391 l
1683 2391 m
1672 2388 l
1672 2388 m
1662 2388 l
1662 2388 m
1652 2391 l
1652 2391 m
1649 2395 l
1649 2395 m
1645 2401 l
1645 2401 m
1645 2405 l
1645 2405 m
1649 2408 l
1649 2408 m
1652 2405 l
1652 2405 m
1649 2401 l
1672 2435 m
1679 2432 l
1679 2432 m
1686 2425 l
1686 2425 m
1689 2415 l
1689 2415 m
1689 2408 l
1689 2408 m
1686 2398 l
1686 2398 m
1679 2391 l
1679 2391 m
1672 2388 l
1652 2459 m
1686 2459 l
1652 2456 m
1669 2456 l
1669 2456 m
1686 2459 l
stroke
newpath
lwidth setlinewidth
stroke
newpath
3.261539 setlinewidth
2486 2446 m
2493 2449 l
2493 2449 m
2503 2459 l
2503 2459 m
2503 2388 l
2500 2456 m
2500 2388 l
2486 2388 m
2517 2388 l
2548 2446 m
2551 2442 l
2551 2442 m
2548 2439 l
2548 2439 m
2544 2442 l
2544 2442 m
2544 2446 l
2544 2446 m
2548 2452 l
2548 2452 m
2551 2456 l
2551 2456 m
2561 2459 l
2561 2459 m
2575 2459 l
2575 2459 m
2585 2456 l
2585 2456 m
2588 2452 l
2588 2452 m
2592 2446 l
2592 2446 m
2592 2439 l
2592 2439 m
2588 2432 l
2588 2432 m
2578 2425 l
2578 2425 m
2561 2418 l
2561 2418 m
2554 2415 l
2554 2415 m
2548 2408 l
2548 2408 m
2544 2398 l
2544 2398 m
2544 2388 l
2575 2459 m
2582 2456 l
2582 2456 m
2585 2452 l
2585 2452 m
2588 2446 l
2588 2446 m
2588 2439 l
2588 2439 m
2585 2432 l
2585 2432 m
2575 2425 l
2575 2425 m
2561 2418 l
2544 2395 m
2548 2398 l
2548 2398 m
2554 2398 l
2554 2398 m
2571 2391 l
2571 2391 m
2582 2391 l
2582 2391 m
2588 2395 l
2588 2395 m
2592 2398 l
2554 2398 m
2571 2388 l
2571 2388 m
2585 2388 l
2585 2388 m
2588 2391 l
2588 2391 m
2592 2398 l
2592 2398 m
2592 2405 l
stroke
newpath
lwidth setlinewidth
stroke
newpath
3.261539 setlinewidth
3341 2446 m
3347 2449 l
3347 2449 m
3358 2459 l
3358 2459 m
3358 2388 l
3354 2456 m
3354 2388 l
3341 2388 m
3371 2388 l
3402 2446 m
3405 2442 l
3405 2442 m
3402 2439 l
3402 2439 m
3398 2442 l
3398 2442 m
3398 2446 l
3398 2446 m
3402 2452 l
3402 2452 m
3405 2456 l
3405 2456 m
3415 2459 l
3415 2459 m
3429 2459 l
3429 2459 m
3439 2456 l
3439 2456 m
3442 2452 l
3442 2452 m
3446 2446 l
3446 2446 m
3446 2439 l
3446 2439 m
3442 2432 l
3442 2432 m
3432 2425 l
3432 2425 m
3415 2418 l
3415 2418 m
3408 2415 l
3408 2415 m
3402 2408 l
3402 2408 m
3398 2398 l
3398 2398 m
3398 2388 l
3429 2459 m
3436 2456 l
3436 2456 m
3439 2452 l
3439 2452 m
3442 2446 l
3442 2446 m
3442 2439 l
3442 2439 m
3439 2432 l
3439 2432 m
3429 2425 l
3429 2425 m
3415 2418 l
3398 2395 m
3402 2398 l
3402 2398 m
3408 2398 l
3408 2398 m
3425 2391 l
3425 2391 m
3436 2391 l
3436 2391 m
3442 2395 l
3442 2395 m
3446 2398 l
3408 2398 m
3425 2388 l
3425 2388 m
3439 2388 l
3439 2388 m
3442 2391 l
3442 2391 m
3446 2398 l
3446 2398 m
3446 2405 l
3473 2395 m
3470 2391 l
3470 2391 m
3473 2388 l
3473 2388 m
3476 2391 l
3476 2391 m
3473 2395 l
3507 2459 m
3500 2425 l
3500 2425 m
3507 2432 l
3507 2432 m
3517 2435 l
3517 2435 m
3527 2435 l
3527 2435 m
3538 2432 l
3538 2432 m
3544 2425 l
3544 2425 m
3548 2415 l
3548 2415 m
3548 2408 l
3548 2408 m
3544 2398 l
3544 2398 m
3538 2391 l
3538 2391 m
3527 2388 l
3527 2388 m
3517 2388 l
3517 2388 m
3507 2391 l
3507 2391 m
3504 2395 l
3504 2395 m
3500 2401 l
3500 2401 m
3500 2405 l
3500 2405 m
3504 2408 l
3504 2408 m
3507 2405 l
3507 2405 m
3504 2401 l
3527 2435 m
3534 2432 l
3534 2432 m
3541 2425 l
3541 2425 m
3544 2415 l
3544 2415 m
3544 2408 l
3544 2408 m
3541 2398 l
3541 2398 m
3534 2391 l
3534 2391 m
3527 2388 l
3507 2459 m
3541 2459 l
3507 2456 m
3524 2456 l
3524 2456 m
3541 2459 l
stroke
newpath
lwidth setlinewidth
stroke
newpath
3.261539 setlinewidth
4341 2446 m
4348 2449 l
4348 2449 m
4358 2459 l
4358 2459 m
4358 2388 l
4355 2456 m
4355 2388 l
4341 2388 m
4372 2388 l
4403 2446 m
4406 2442 l
4406 2442 m
4403 2439 l
4403 2439 m
4399 2442 l
4399 2442 m
4399 2446 l
4399 2446 m
4403 2452 l
4403 2452 m
4406 2456 l
4406 2456 m
4416 2459 l
4416 2459 m
4430 2459 l
4430 2459 m
4440 2456 l
4440 2456 m
4443 2449 l
4443 2449 m
4443 2439 l
4443 2439 m
4440 2432 l
4440 2432 m
4430 2429 l
4430 2429 m
4420 2429 l
4430 2459 m
4437 2456 l
4437 2456 m
4440 2449 l
4440 2449 m
4440 2439 l
4440 2439 m
4437 2432 l
4437 2432 m
4430 2429 l
4430 2429 m
4437 2425 l
4437 2425 m
4443 2418 l
4443 2418 m
4447 2412 l
4447 2412 m
4447 2401 l
4447 2401 m
4443 2395 l
4443 2395 m
4440 2391 l
4440 2391 m
4430 2388 l
4430 2388 m
4416 2388 l
4416 2388 m
4406 2391 l
4406 2391 m
4403 2395 l
4403 2395 m
4399 2401 l
4399 2401 m
4399 2405 l
4399 2405 m
4403 2408 l
4403 2408 m
4406 2405 l
4406 2405 m
4403 2401 l
4440 2422 m
4443 2412 l
4443 2412 m
4443 2401 l
4443 2401 m
4440 2395 l
4440 2395 m
4437 2391 l
4437 2391 m
4430 2388 l
stroke
newpath
lwidth setlinewidth
1060 5340 m
1060 5380 l
1245 5340 m
1245 5380 l
1431 5340 m
1431 5380 l
1616 5258 m
1616 5380 l
1802 5340 m
1802 5380 l
1987 5340 m
1987 5380 l
2173 5340 m
2173 5380 l
2358 5340 m
2358 5380 l
2544 5258 m
2544 5380 l
2729 5340 m
2729 5380 l
2915 5340 m
2915 5380 l
3100 5340 m
3100 5380 l
3286 5340 m
3286 5380 l
3471 5258 m
3471 5380 l
3657 5340 m
3657 5380 l
3842 5340 m
3842 5380 l
4028 5340 m
4028 5380 l
4213 5340 m
4213 5380 l
4399 5258 m
4399 5380 l
4584 5340 m
4584 5380 l
4770 5340 m
4770 5380 l
1060 2526 m
1182 2526 l
1060 2641 m
1100 2641 l
1060 2755 m
1100 2755 l
1060 2869 m
1100 2869 l
1060 2983 m
1100 2983 l
1060 3097 m
1182 3097 l
1060 3211 m
1100 3211 l
1060 3326 m
1100 3326 l
1060 3440 m
1100 3440 l
1060 3554 m
1100 3554 l
1060 3668 m
1182 3668 l
1060 3782 m
1100 3782 l
1060 3896 m
1100 3896 l
1060 4010 m
1100 4010 l
1060 4125 m
1100 4125 l
1060 4239 m
1182 4239 l
1060 4353 m
1100 4353 l
1060 4467 m
1100 4467 l
1060 4581 m
1100 4581 l
1060 4695 m
1100 4695 l
1060 4810 m
1182 4810 l
1060 4924 m
1100 4924 l
1060 5038 m
1100 5038 l
1060 5152 m
1100 5152 l
1060 5266 m
1100 5266 l
1060 5380 m
1182 5380 l
stroke
newpath
3.261539 setlinewidth
919 2557 m
909 2554 l
909 2554 m
902 2543 l
902 2543 m
898 2526 l
898 2526 m
898 2516 l
898 2516 m
902 2499 l
902 2499 m
909 2489 l
909 2489 m
919 2486 l
919 2486 m
926 2486 l
926 2486 m
936 2489 l
936 2489 m
943 2499 l
943 2499 m
946 2516 l
946 2516 m
946 2526 l
946 2526 m
943 2543 l
943 2543 m
936 2554 l
936 2554 m
926 2557 l
926 2557 m
919 2557 l
919 2557 m
912 2554 l
912 2554 m
909 2550 l
909 2550 m
905 2543 l
905 2543 m
902 2526 l
902 2526 m
902 2516 l
902 2516 m
905 2499 l
905 2499 m
909 2492 l
909 2492 m
912 2489 l
912 2489 m
919 2486 l
926 2486 m
932 2489 l
932 2489 m
936 2492 l
936 2492 m
939 2499 l
939 2499 m
943 2516 l
943 2516 m
943 2526 l
943 2526 m
939 2543 l
939 2543 m
936 2550 l
936 2550 m
932 2554 l
932 2554 m
926 2557 l
stroke
newpath
lwidth setlinewidth
stroke
newpath
3.261539 setlinewidth
793 3114 m
797 3111 l
797 3111 m
793 3107 l
stroke
793 3107 m
790 3111 l
790 3111 m
790 3114 l
790 3114 m
793 3121 l
793 3121 m
797 3124 l
797 3124 m
807 3128 l
807 3128 m
820 3128 l
820 3128 m
831 3124 l
831 3124 m
834 3121 l
834 3121 m
837 3114 l
837 3114 m
837 3107 l
837 3107 m
834 3101 l
834 3101 m
824 3094 l
824 3094 m
807 3087 l
807 3087 m
800 3084 l
800 3084 m
793 3077 l
793 3077 m
790 3067 l
790 3067 m
790 3056 l
820 3128 m
827 3124 l
827 3124 m
831 3121 l
831 3121 m
834 3114 l
834 3114 m
834 3107 l
834 3107 m
831 3101 l
831 3101 m
820 3094 l
820 3094 m
807 3087 l
790 3063 m
793 3067 l
793 3067 m
800 3067 l
800 3067 m
817 3060 l
817 3060 m
827 3060 l
827 3060 m
834 3063 l
834 3063 m
837 3067 l
800 3067 m
817 3056 l
817 3056 m
831 3056 l
831 3056 m
834 3060 l
834 3060 m
837 3067 l
837 3067 m
837 3073 l
878 3128 m
868 3124 l
868 3124 m
861 3114 l
861 3114 m
858 3097 l
858 3097 m
858 3087 l
858 3087 m
861 3070 l
861 3070 m
868 3060 l
868 3060 m
878 3056 l
878 3056 m
885 3056 l
885 3056 m
895 3060 l
895 3060 m
902 3070 l
902 3070 m
905 3087 l
905 3087 m
905 3097 l
905 3097 m
902 3114 l
902 3114 m
895 3124 l
895 3124 m
885 3128 l
885 3128 m
878 3128 l
878 3128 m
871 3124 l
871 3124 m
868 3121 l
868 3121 m
864 3114 l
864 3114 m
861 3097 l
861 3097 m
861 3087 l
861 3087 m
864 3070 l
864 3070 m
868 3063 l
868 3063 m
871 3060 l
871 3060 m
878 3056 l
885 3056 m
892 3060 l
892 3060 m
895 3063 l
895 3063 m
898 3070 l
898 3070 m
902 3087 l
902 3087 m
902 3097 l
902 3097 m
898 3114 l
898 3114 m
895 3121 l
895 3121 m
892 3124 l
892 3124 m
885 3128 l
946 3128 m
936 3124 l
936 3124 m
929 3114 l
929 3114 m
926 3097 l
926 3097 m
926 3087 l
926 3087 m
929 3070 l
929 3070 m
936 3060 l
936 3060 m
946 3056 l
946 3056 m
953 3056 l
953 3056 m
963 3060 l
963 3060 m
970 3070 l
970 3070 m
973 3087 l
973 3087 m
973 3097 l
973 3097 m
970 3114 l
970 3114 m
963 3124 l
963 3124 m
953 3128 l
953 3128 m
946 3128 l
946 3128 m
939 3124 l
939 3124 m
936 3121 l
936 3121 m
932 3114 l
932 3114 m
929 3097 l
929 3097 m
929 3087 l
929 3087 m
932 3070 l
932 3070 m
936 3063 l
936 3063 m
939 3060 l
939 3060 m
946 3056 l
953 3056 m
960 3060 l
960 3060 m
963 3063 l
963 3063 m
966 3070 l
966 3070 m
970 3087 l
970 3087 m
970 3097 l
970 3097 m
966 3114 l
966 3114 m
963 3121 l
963 3121 m
960 3124 l
960 3124 m
953 3128 l
stroke
newpath
lwidth setlinewidth
stroke
newpath
3.261539 setlinewidth
820 3692 m
820 3627 l
824 3699 m
824 3627 l
824 3699 m
786 3648 l
786 3648 m
841 3648 l
810 3627 m
834 3627 l
878 3699 m
868 3695 l
868 3695 m
861 3685 l
861 3685 m
858 3668 l
858 3668 m
858 3658 l
858 3658 m
861 3641 l
861 3641 m
868 3631 l
868 3631 m
878 3627 l
878 3627 m
885 3627 l
885 3627 m
895 3631 l
895 3631 m
902 3641 l
902 3641 m
905 3658 l
905 3658 m
905 3668 l
905 3668 m
902 3685 l
902 3685 m
895 3695 l
895 3695 m
885 3699 l
885 3699 m
878 3699 l
878 3699 m
871 3695 l
871 3695 m
868 3692 l
868 3692 m
864 3685 l
864 3685 m
861 3668 l
861 3668 m
861 3658 l
861 3658 m
864 3641 l
864 3641 m
868 3634 l
868 3634 m
871 3631 l
871 3631 m
878 3627 l
885 3627 m
892 3631 l
892 3631 m
895 3634 l
895 3634 m
898 3641 l
898 3641 m
902 3658 l
902 3658 m
902 3668 l
902 3668 m
898 3685 l
898 3685 m
895 3692 l
895 3692 m
892 3695 l
892 3695 m
885 3699 l
946 3699 m
936 3695 l
936 3695 m
929 3685 l
929 3685 m
926 3668 l
926 3668 m
926 3658 l
926 3658 m
929 3641 l
929 3641 m
936 3631 l
936 3631 m
946 3627 l
946 3627 m
953 3627 l
953 3627 m
963 3631 l
963 3631 m
970 3641 l
970 3641 m
973 3658 l
973 3658 m
973 3668 l
973 3668 m
970 3685 l
970 3685 m
963 3695 l
963 3695 m
953 3699 l
953 3699 m
946 3699 l
946 3699 m
939 3695 l
939 3695 m
936 3692 l
936 3692 m
932 3685 l
932 3685 m
929 3668 l
929 3668 m
929 3658 l
929 3658 m
932 3641 l
932 3641 m
936 3634 l
936 3634 m
939 3631 l
939 3631 m
946 3627 l
953 3627 m
960 3631 l
960 3631 m
963 3634 l
963 3634 m
966 3641 l
966 3641 m
970 3658 l
970 3658 m
970 3668 l
970 3668 m
966 3685 l
966 3685 m
963 3692 l
963 3692 m
960 3695 l
960 3695 m
953 3699 l
stroke
newpath
lwidth setlinewidth
stroke
newpath
3.261539 setlinewidth
831 4259 m
827 4256 l
827 4256 m
831 4252 l
831 4252 m
834 4256 l
834 4256 m
834 4259 l
834 4259 m
831 4266 l
831 4266 m
824 4269 l
824 4269 m
814 4269 l
814 4269 m
803 4266 l
803 4266 m
797 4259 l
797 4259 m
793 4252 l
793 4252 m
790 4239 l
790 4239 m
790 4218 l
790 4218 m
793 4208 l
793 4208 m
800 4201 l
800 4201 m
810 4198 l
810 4198 m
817 4198 l
817 4198 m
827 4201 l
827 4201 m
834 4208 l
834 4208 m
837 4218 l
837 4218 m
837 4222 l
837 4222 m
834 4232 l
834 4232 m
827 4239 l
827 4239 m
817 4242 l
817 4242 m
814 4242 l
814 4242 m
803 4239 l
803 4239 m
797 4232 l
797 4232 m
793 4222 l
814 4269 m
807 4266 l
807 4266 m
800 4259 l
800 4259 m
797 4252 l
797 4252 m
793 4239 l
793 4239 m
793 4218 l
793 4218 m
797 4208 l
797 4208 m
803 4201 l
803 4201 m
810 4198 l
817 4198 m
824 4201 l
824 4201 m
831 4208 l
831 4208 m
834 4218 l
834 4218 m
834 4222 l
834 4222 m
831 4232 l
831 4232 m
824 4239 l
824 4239 m
817 4242 l
878 4269 m
868 4266 l
868 4266 m
861 4256 l
861 4256 m
858 4239 l
858 4239 m
858 4229 l
858 4229 m
861 4212 l
861 4212 m
868 4201 l
868 4201 m
878 4198 l
878 4198 m
885 4198 l
885 4198 m
895 4201 l
895 4201 m
902 4212 l
902 4212 m
905 4229 l
905 4229 m
905 4239 l
905 4239 m
902 4256 l
902 4256 m
895 4266 l
895 4266 m
885 4269 l
885 4269 m
878 4269 l
878 4269 m
871 4266 l
871 4266 m
868 4263 l
868 4263 m
864 4256 l
864 4256 m
861 4239 l
861 4239 m
861 4229 l
861 4229 m
864 4212 l
864 4212 m
868 4205 l
868 4205 m
871 4201 l
871 4201 m
878 4198 l
885 4198 m
892 4201 l
892 4201 m
895 4205 l
895 4205 m
898 4212 l
898 4212 m
902 4229 l
902 4229 m
902 4239 l
902 4239 m
898 4256 l
898 4256 m
895 4263 l
895 4263 m
892 4266 l
892 4266 m
885 4269 l
946 4269 m
936 4266 l
936 4266 m
929 4256 l
929 4256 m
926 4239 l
926 4239 m
926 4229 l
926 4229 m
929 4212 l
929 4212 m
936 4201 l
936 4201 m
946 4198 l
946 4198 m
953 4198 l
953 4198 m
963 4201 l
963 4201 m
970 4212 l
970 4212 m
973 4229 l
973 4229 m
973 4239 l
973 4239 m
970 4256 l
970 4256 m
963 4266 l
963 4266 m
953 4269 l
953 4269 m
946 4269 l
946 4269 m
939 4266 l
939 4266 m
936 4263 l
936 4263 m
932 4256 l
932 4256 m
929 4239 l
929 4239 m
929 4229 l
929 4229 m
932 4212 l
932 4212 m
936 4205 l
936 4205 m
939 4201 l
939 4201 m
946 4198 l
953 4198 m
960 4201 l
960 4201 m
963 4205 l
963 4205 m
966 4212 l
966 4212 m
970 4229 l
970 4229 m
970 4239 l
970 4239 m
966 4256 l
966 4256 m
963 4263 l
963 4263 m
960 4266 l
960 4266 m
953 4269 l
stroke
newpath
lwidth setlinewidth
stroke
newpath
3.261539 setlinewidth
807 4840 m
797 4837 l
797 4837 m
793 4830 l
793 4830 m
793 4820 l
793 4820 m
797 4813 l
797 4813 m
807 4810 l
807 4810 m
820 4810 l
820 4810 m
831 4813 l
831 4813 m
834 4820 l
834 4820 m
834 4830 l
834 4830 m
831 4837 l
831 4837 m
820 4840 l
820 4840 m
807 4840 l
807 4840 m
800 4837 l
800 4837 m
797 4830 l
797 4830 m
797 4820 l
797 4820 m
800 4813 l
stroke
800 4813 m
807 4810 l
820 4810 m
827 4813 l
827 4813 m
831 4820 l
831 4820 m
831 4830 l
831 4830 m
827 4837 l
827 4837 m
820 4840 l
807 4810 m
797 4806 l
797 4806 m
793 4803 l
793 4803 m
790 4796 l
790 4796 m
790 4782 l
790 4782 m
793 4776 l
793 4776 m
797 4772 l
797 4772 m
807 4769 l
807 4769 m
820 4769 l
820 4769 m
831 4772 l
831 4772 m
834 4776 l
834 4776 m
837 4782 l
837 4782 m
837 4796 l
837 4796 m
834 4803 l
834 4803 m
831 4806 l
831 4806 m
820 4810 l
807 4810 m
800 4806 l
800 4806 m
797 4803 l
797 4803 m
793 4796 l
793 4796 m
793 4782 l
793 4782 m
797 4776 l
797 4776 m
800 4772 l
800 4772 m
807 4769 l
820 4769 m
827 4772 l
827 4772 m
831 4776 l
831 4776 m
834 4782 l
834 4782 m
834 4796 l
834 4796 m
831 4803 l
831 4803 m
827 4806 l
827 4806 m
820 4810 l
878 4840 m
868 4837 l
868 4837 m
861 4826 l
861 4826 m
858 4810 l
858 4810 m
858 4799 l
858 4799 m
861 4782 l
861 4782 m
868 4772 l
868 4772 m
878 4769 l
878 4769 m
885 4769 l
885 4769 m
895 4772 l
895 4772 m
902 4782 l
902 4782 m
905 4799 l
905 4799 m
905 4810 l
905 4810 m
902 4826 l
902 4826 m
895 4837 l
895 4837 m
885 4840 l
885 4840 m
878 4840 l
878 4840 m
871 4837 l
871 4837 m
868 4833 l
868 4833 m
864 4826 l
864 4826 m
861 4810 l
861 4810 m
861 4799 l
861 4799 m
864 4782 l
864 4782 m
868 4776 l
868 4776 m
871 4772 l
871 4772 m
878 4769 l
885 4769 m
892 4772 l
892 4772 m
895 4776 l
895 4776 m
898 4782 l
898 4782 m
902 4799 l
902 4799 m
902 4810 l
902 4810 m
898 4826 l
898 4826 m
895 4833 l
895 4833 m
892 4837 l
892 4837 m
885 4840 l
946 4840 m
936 4837 l
936 4837 m
929 4826 l
929 4826 m
926 4810 l
926 4810 m
926 4799 l
926 4799 m
929 4782 l
929 4782 m
936 4772 l
936 4772 m
946 4769 l
946 4769 m
953 4769 l
953 4769 m
963 4772 l
963 4772 m
970 4782 l
970 4782 m
973 4799 l
973 4799 m
973 4810 l
973 4810 m
970 4826 l
970 4826 m
963 4837 l
963 4837 m
953 4840 l
953 4840 m
946 4840 l
946 4840 m
939 4837 l
939 4837 m
936 4833 l
936 4833 m
932 4826 l
932 4826 m
929 4810 l
929 4810 m
929 4799 l
929 4799 m
932 4782 l
932 4782 m
936 4776 l
936 4776 m
939 4772 l
939 4772 m
946 4769 l
953 4769 m
960 4772 l
960 4772 m
963 4776 l
963 4776 m
966 4782 l
966 4782 m
970 4799 l
970 4799 m
970 4810 l
970 4810 m
966 4826 l
966 4826 m
963 4833 l
963 4833 m
960 4837 l
960 4837 m
953 4840 l
stroke
newpath
lwidth setlinewidth
stroke
newpath
3.261539 setlinewidth
746 5397 m
752 5401 l
752 5401 m
763 5411 l
763 5411 m
763 5340 l
759 5407 m
759 5340 l
746 5340 m
776 5340 l
824 5411 m
814 5407 l
814 5407 m
807 5397 l
807 5397 m
803 5380 l
803 5380 m
803 5370 l
803 5370 m
807 5353 l
807 5353 m
814 5343 l
814 5343 m
824 5340 l
824 5340 m
831 5340 l
831 5340 m
841 5343 l
841 5343 m
848 5353 l
848 5353 m
851 5370 l
851 5370 m
851 5380 l
851 5380 m
848 5397 l
848 5397 m
841 5407 l
841 5407 m
831 5411 l
831 5411 m
824 5411 l
824 5411 m
817 5407 l
817 5407 m
814 5404 l
814 5404 m
810 5397 l
810 5397 m
807 5380 l
807 5380 m
807 5370 l
807 5370 m
810 5353 l
810 5353 m
814 5346 l
814 5346 m
817 5343 l
817 5343 m
824 5340 l
831 5340 m
837 5343 l
837 5343 m
841 5346 l
841 5346 m
844 5353 l
844 5353 m
848 5370 l
848 5370 m
848 5380 l
848 5380 m
844 5397 l
844 5397 m
841 5404 l
841 5404 m
837 5407 l
837 5407 m
831 5411 l
892 5411 m
881 5407 l
881 5407 m
875 5397 l
875 5397 m
871 5380 l
871 5380 m
871 5370 l
871 5370 m
875 5353 l
875 5353 m
881 5343 l
881 5343 m
892 5340 l
892 5340 m
898 5340 l
898 5340 m
909 5343 l
909 5343 m
915 5353 l
915 5353 m
919 5370 l
919 5370 m
919 5380 l
919 5380 m
915 5397 l
915 5397 m
909 5407 l
909 5407 m
898 5411 l
898 5411 m
892 5411 l
892 5411 m
885 5407 l
885 5407 m
881 5404 l
881 5404 m
878 5397 l
878 5397 m
875 5380 l
875 5380 m
875 5370 l
875 5370 m
878 5353 l
878 5353 m
881 5346 l
881 5346 m
885 5343 l
885 5343 m
892 5340 l
898 5340 m
905 5343 l
905 5343 m
909 5346 l
909 5346 m
912 5353 l
912 5353 m
915 5370 l
915 5370 m
915 5380 l
915 5380 m
912 5397 l
912 5397 m
909 5404 l
909 5404 m
905 5407 l
905 5407 m
898 5411 l
960 5411 m
949 5407 l
949 5407 m
943 5397 l
943 5397 m
939 5380 l
939 5380 m
939 5370 l
939 5370 m
943 5353 l
943 5353 m
949 5343 l
949 5343 m
960 5340 l
960 5340 m
966 5340 l
966 5340 m
977 5343 l
977 5343 m
983 5353 l
983 5353 m
987 5370 l
987 5370 m
987 5380 l
987 5380 m
983 5397 l
983 5397 m
977 5407 l
977 5407 m
966 5411 l
966 5411 m
960 5411 l
960 5411 m
953 5407 l
953 5407 m
949 5404 l
949 5404 m
946 5397 l
946 5397 m
943 5380 l
943 5380 m
943 5370 l
943 5370 m
946 5353 l
946 5353 m
949 5346 l
949 5346 m
953 5343 l
953 5343 m
960 5340 l
966 5340 m
973 5343 l
973 5343 m
977 5346 l
977 5346 m
980 5353 l
980 5353 m
983 5370 l
983 5370 m
983 5380 l
983 5380 m
980 5397 l
980 5397 m
977 5404 l
977 5404 m
973 5407 l
973 5407 m
966 5411 l
stroke
newpath
lwidth setlinewidth
4647 2526 m
4770 2526 l
4729 2641 m
4770 2641 l
4729 2755 m
4770 2755 l
4729 2869 m
4770 2869 l
4729 2983 m
4770 2983 l
4647 3097 m
4770 3097 l
4729 3211 m
4770 3211 l
4729 3326 m
4770 3326 l
4729 3440 m
4770 3440 l
4729 3554 m
4770 3554 l
4647 3668 m
4770 3668 l
4729 3782 m
4770 3782 l
4729 3896 m
4770 3896 l
4729 4010 m
4770 4010 l
4729 4125 m
4770 4125 l
4647 4239 m
4770 4239 l
4729 4353 m
4770 4353 l
4729 4467 m
4770 4467 l
4729 4581 m
4770 4581 l
4729 4695 m
4770 4695 l
4647 4810 m
4770 4810 l
4729 4924 m
4770 4924 l
4729 5038 m
4770 5038 l
4729 5152 m
4770 5152 l
4729 5266 m
4770 5266 l
4647 5380 m
4770 5380 l
2562 2650 m
2599 2718 l
2599 2718 m
2636 2811 l
2636 2811 m
2673 2929 l
2673 2929 m
2710 3070 l
2710 3070 m
2748 3224 l
2748 3224 m
2785 3381 l
2785 3381 m
2822 3523 l
2822 3523 m
2859 3635 l
2859 3635 m
2896 3701 l
2896 3701 m
2933 3713 l
2933 3713 m
2970 3668 l
2970 3668 m
3007 3574 l
3007 3574 m
3044 3442 l
3044 3442 m
3081 3289 l
3081 3289 m
3119 3132 l
3119 3132 m
3156 2985 l
3156 2985 m
3193 2857 l
3193 2857 m
3230 2753 l
3230 2753 m
3267 2675 l
3267 2675 m
3304 2619 l
3304 2619 m
3341 2582 l
3341 2582 m
3378 2558 l
3378 2558 m
3415 2543 l
3415 2543 m
3452 2535 l
3452 2535 m
3490 2531 l
3490 2531 m
3527 2528 l
3527 2528 m
3564 2527 l
3564 2527 m
3601 2527 l
3601 2527 m
3638 2527 l
3638 2527 m
3675 2526 l
3675 2526 m
3712 2526 l
3712 2526 m
3749 2526 l
3749 2526 m
3786 2526 l
3786 2526 m
3823 2526 l
3823 2526 m
3861 2526 l
3861 2526 m
3898 2526 l
3898 2526 m
3935 2526 l
3935 2526 m
3972 2526 l
3972 2526 m
4009 2526 l
4009 2526 m
4046 2526 l
4046 2526 m
4083 2526 l
4083 2526 m
4120 2526 l
4120 2526 m
4157 2526 l
4157 2526 m
4194 2526 l
4194 2526 m
4232 2526 l
4232 2526 m
4269 2526 l
4269 2526 m
4306 2526 l
4306 2526 m
4343 2526 l
4343 2526 m
4380 2526 l
4380 2526 m
4417 2526 l
4417 2526 m
4454 2526 l
4454 2526 m
4491 2526 l
4491 2526 m
4528 2526 l
4528 2526 m
4565 2526 l
4565 2526 m
4603 2526 l
4603 2526 m
4640 2526 l
4640 2526 m
4677 2526 l
4677 2526 m
4714 2526 l
4714 2526 m
4751 2526 l
1078 2526 m
1115 2526 l
1115 2526 m
1152 2526 l
1152 2526 m
1189 2526 l
1189 2526 m
1226 2526 l
1226 2526 m
1264 2526 l
1264 2526 m
1301 2526 l
1301 2526 m
1338 2527 l
stroke
1338 2527 m
1375 2527 l
1375 2527 m
1412 2527 l
1412 2527 m
1449 2528 l
1449 2528 m
1486 2530 l
1486 2530 m
1523 2533 l
1523 2533 m
1560 2540 l
1560 2540 m
1597 2552 l
1597 2552 m
1635 2574 l
1635 2574 m
1672 2611 l
1672 2611 m
1709 2667 l
1709 2667 m
1746 2751 l
1746 2751 m
1783 2866 l
1783 2866 m
1820 3017 l
1820 3017 m
1857 3202 l
1857 3202 m
1894 3410 l
1894 3410 m
1931 3628 l
1931 3628 m
1968 3835 l
1968 3835 m
2006 4006 l
2006 4006 m
2043 4119 l
2043 4119 m
2080 4159 l
2080 4159 m
2117 4120 l
2117 4120 m
2154 4007 l
2154 4007 m
2191 3837 l
2191 3837 m
2228 3631 l
2228 3631 m
2265 3413 l
2265 3413 m
2302 3204 l
2302 3204 m
2339 3019 l
2339 3019 m
2377 2868 l
2377 2868 m
2414 2752 l
2414 2752 m
2451 2668 l
2451 2668 m
2488 2611 l
2488 2611 m
2525 2575 l
stroke
grestore
showpage
%%PageTrailer
%%Trailer
%%Pages: 1
%%EOF
