%!PS-Adobe-2.0 EPSF-2.0
%%BoundingBox: 0 0 553 581
%%Title: plot.eps_2
%%Creator: HIGZ Version 1.23/07
%%CreationDate: :0/01/21   09.10
%%EndComments
%%BeginProlog
80 dict begin
/s {stroke} def /l {lineto} def /m {moveto} def /t {translate} def
/sw {stringwidth} def /r {rotate} def /rl {roll}  def /R {repeat} def
/d {rlineto} def /rm {rmoveto} def /gr {grestore} def /f {eofill} def
/c {setrgbcolor} def /lw {setlinewidth} def /sd {setdash} def
/cl {closepath} def /sf {scalefont setfont} def /black {0 setgray} def
/box {m dup 0 exch d exch 0 d 0 exch neg d cl} def
/NC{systemdict begin initclip end}def/C{NC box clip newpath}def
/bl {box s} def /bf {box f} def /Y { 0 exch d} def /X { 0 d} def 
/mp {newpath /y exch def /x exch def} def
/side {[w .77 mul w .23 mul] .385 w mul sd w 0 l currentpoint t -144 r} def
/mr {mp x y w2 0 360 arc} def /m24 {mr s} def /m20 {mr f} def
/mb {mp x y w2 add m w2 neg 0 d 0 w neg d w 0 d 0 w d cl} def
/mt {mp x y w2 add m w2 neg w neg d w 0 d cl} def
/m21 {mb f} def /m25 {mb s} def /m22 {mt f} def /m26 {mt s} def
/m23 {mp x y w2 sub m w2 w d w neg 0 d cl f} def
/m27 {mp x y w2 add m w3 neg w2 neg d w3 w2 neg d w3  w2 d cl s} def
/m28 {mp x w2 sub y w2 sub w3 add m w3 0 d 0 w3 neg d w3 0 d 0 w3 d w3 0 d
 0 w3 d w3 neg 0 d 0 w3 d w3 neg 0 d
 0 w3 neg d w3 neg 0 d cl s } def
/m29 {mp gsave x w2 sub y w2 add w3 sub m currentpoint t
 4 {side} repeat cl fill gr} def
/m30 {mp gsave x w2 sub y w2 add w3 sub m currentpoint t
 5 {side} repeat s gr} def
/m31 {mp x y w2 sub m 0 w d x w2 sub y m w 0 d
 x w2 sub y w2 add m w w neg d x w2 sub y w2
 sub m w w d s} def
/m2 {mp x y w2 sub m 0 w d x w2 sub y m w 0 d s} def
/m5 {mp x w2 sub y w2 sub m w w d x w2 sub y w2 add m w w neg d s} def
/DP {/PT exch def gsave 47.2 47.2 scale PT 1  eq { 16 16 1 [ 16 0 0 16 neg 0 16
] { < AA AA 55 55 AA AA 55 55 AA AA 55 55 AA AA 55 55 AA AA 55 55 AA AA 55 55
AA AA 55 55 AA AA 55 55 > } image } if PT 2 eq { 16 16 1 [ 16 0 0 16 neg 0 16
] { < BB BB EE EE BB BB EE EE BB BB EE EE BB BB EE EE BB BB EE EE BB BB EE EE
BB BB EE EE BB BB EE EE > } image } if PT 3 eq { 16 16 1 [ 16 0 0 16 neg 0 16
] { < FF FF BB BB FF FF EE EE FF FF BB BB FF FF EE EE FF FF BB BB FF FF EE EE
FF FF BB BB FF FF EE EE > } image } if PT 4 eq { 16 16 1 [ 16 0 0 16 neg 0 16
] { < DF DF BF BF 7F 7F FE FE FD FD FB FB F7 F7 EF EF DF DF BF BF 7F 7F FE FE
FD FD FB FB F7 F7 EF EF > } image } if PT 5 eq { 16 16 1 [ 16 0 0 16 neg 0 16
] { < 7F 7F BF B F DF DF EF EF F7 F7 FB FB FD FD FE FE 7F 7F BF BF DF DF EF
EF F7 F7 FB FB FD FD FE FE > } image } if PT 6 eq { 16 16 1 [ 16 0 0 16 neg 0
16 ] { < BB BB BB BB BB BB BB BB BB BB BB BB BB BB BB BB BB BB BB BB BB BB BB
BB BB BB BB BB BB BB BB BB > } image } if PT 7 eq { 16 16 1 [ 16 0 0 16 neg 0
16 ] { < FF FF FF FF FF FF 00 00 FF FF FF FF FF FF 00 00 FF FF FF FF FF FF 00
00 FF FF FF FF FF FF 00 00 > } image } if PT 8 eq { 16 16 1 [ 16 0 0 16 neg 0
16 ] { < EE EE 47 47 83 83 C5 C5 EE EE 5C 5C 38 38 74 74 EE EE 47 47 83 83 C5
C5 EE EE 5C 5C 38 38 74 74 > } image } if PT 9 eq { 16 16 1 [ 16 0 0 16 neg 0
16 ] { < EF EF EF EF D7 D7 38 38 FE FE FE FE 7D 7D 83 83 EF EF EF EF D7 D7 38
38  FE FE FE FE 7D 7D 83 83 > } image } if PT 10 eq { 16 16 1 [ 16 0 0 16 neg
0 16 ] { <  EF EF EF EF EF EF 00 00 FE FE FE FE FE FE 00 00 EF EF EF EF EF EF
00 00 FE FE FE FE FE FE 00 00 > } image } if PT 11 eq { 16 16 1 [ 16 0 0 16
neg 0 16 ] { < F7 F7 B6 B6 D5 D5 E3 E3 D5 D5 B6 B6 F7 F7 FF FF 7F 7F 6B 6B 5D
5D 3E 3E 5D 5D 6B 6B 7F 7F FF FF > } image } if PT 12 eq { 16 16 1 [ 16 0 0
16 neg 0 16 ] { < E3 E3 DD DD BE BE BE BE BE BE DD DD E3 E3 FF FF 3E 3E DD DD
EB EB EB EB EB EB DD DD 3E 3E FF FF > } image } if PT 13 eq { 16 16 1 [ 16 0
0 16 neg 0 16 ] { <  FE FE 7D 7D BB BB D7 D7 EF EF D7 D7 BB BB 7D 7D FE FE 7D
7D BB BB D7 D7 EF EF D7 D7 BB BB 7D 7D > } image } if PT 14 eq { 16 16 1 [ 16
0 0 16 neg 0 16 ] { < 00 00 EE EF EE EF EE EF 0E E0 EE EE EE EE EE EE 00 EE
FE EE FE EE FE EE 00 00 FE EF FE EF FE EF > } image } if PT 15 eq { 16 16 1 [
16 0 0 16 neg 0 16 ] { < DD DD AA AA DD DD FF FF 77 77 AA AA 77 77 FF FF DD
DD AA AA DD DD FF FF 77 77 AA AA 77 77 FF FF > } image } if PT 16 eq { 16 16
1 [ 16 0 0 16 neg 0 16 ] { <  F1 F1 EE EE 1F 1F FF FF F1 F1 EE EE 1F 1F FF FF
F1 F1 EE EE 1F 1F FF FF F1 F1 EE EE 1F 1F FF FF > } image } if PT 17 eq { 16
16 1 [ 16 0 0 16 neg 0 16 ] { <  EE EE DD DD BB BB FF FF EE EE DD DD BB BB FF
 FF EE EE DD DD BB BB FF FF EE EE DD DD BB BB FF FF > } image } if PT 18 eq {
16 16 1 [ 16 0 0 16 neg 0 16 ] { <  BB BB DD DD EE EE FF FF BB BB DD DD EE EE
FF FF BB BB DD DD EE EE FF FF BB BB DD DD EE EE FF FF > } image } if PT 19 eq
{ 16 16 1 [ 16 0 0 16 neg 0 16 ] { < 1F FC 67 F3 7B EF BD DE BD DE DE BD E6
B3 F8 0F E6 B3 DE BD BD DE BD DE 7B EF 67 F3 1F FC 7F FF > } image } if PT
20 eq { 16 16 1 [ 16 0 0 16 neg 0 16 ] { < DD DD EE EE EE EE EE EE DD DD BB
BB BB BB BB BB DD DD EE EE EE EE EE EE DD DD BB BB BB BB BB BB > } image }
if PT 21 eq { 16 16 1 [ 16 0 0 16 neg 0 16 ] { < 0E 0E EF EF EF EF EF EF E0
E0 FE FE FE FE FE FE 0E 0E EF EF EF EF EF EF E0 E0 FE FE FE FE FE FE > }
image }  if PT 22 eq { 16 16 1 [ 16 0 0 16 neg 0 16 ] { < 70 70 F7 F7 F7 F7 F7
F7 07 07 7F 7F 7F 7F 7F 7F 70 70 F7 F7 F7 F7 F7 F7 07 07 7F 7F 7F 7F 7F 7F >
} image } if PT 23 eq  { 16 16 1 [ 16 0 0 16 neg 0 16 ] { < AA AA 55 55 A9 A9
D1 D1 E1 E1 D1 D1 A9 A9 55 55 AA AA 55 55 A9 A9 D1 D1 E1 E1 D1 D1 A9 A9 55 55
> } image } if PT 24 eq { 16 16 1 [ 16 0 0 16 neg 0 16 ] { < FF FE FF FC EA
A8 D5 54 EA A8 D5 54 E8 28 D4 54 E8 E8 D4 D4 E8 EA 54 D5 A8 EA 54 D5 00 C0 00
80 > } image } if PT 25 eq {  16 16 1 [ 16 0 0 16 neg 0 16 ] { < FF FE FF FC
FF F8 FF F0 F0 00 F0 00 F0 20 F0 60 F0 E0 F1 E0 F3 E0 F0 00 E0 00 C0 00 80 00
00 00 > } image } if gr } def /FA { /PT exch def gsave clip 0 0 translate 1 1
54 { 1 sub 47.2 mul /Xcurr exch def 1 1 74 { 1 sub 47.2 mul /Ycurr exch def
gsave Xcurr Ycurr translate PT DP gr } for } for gr } def
/reencdict 24 dict def /ReEncode {reencdict begin /nco&na exch def
/nfnam exch def /basefontname exch def /basefontdict basefontname findfont def
/newfont basefontdict maxlength dict def basefontdict {exch dup /FID ne
{dup /Encoding eq {exch dup length array copy newfont 3 1 roll put} {exch
newfont 3 1 roll put} ifelse} {pop pop} ifelse } forall newfont
/FontName nfnam put nco&na aload pop nco&na length 2 idiv {newfont
/Encoding get 3 1 roll put} repeat nfnam newfont definefont pop end } def
/accvec [ 176 /agrave 181 /Agrave 190 /acircumflex 192 /Acircumflex
201 /adieresis 204 /Adieresis 209 /ccedilla 210 /Ccedilla 211 /eacute
212 /Eacute 213 /egrave 214 /Egrave 215 /ecircumflex 216 /Ecircumflex
217 /edieresis 218 /Edieresis 219 /icircumflex 220 /Icircumflex
221 /idieresis 222 /Idieresis 223 /ntilde 224 /Ntilde 226 /ocircumflex
228 /Ocircumflex 229 /odieresis 230 /Odieresis 231 /ucircumflex 236 /Ucircumflex
237 /udieresis 238 /Udieresis 239 /aring 242 /Aring 243 /ydieresis
244 /Ydieresis 246 /aacute 247 /Aacute 252 /ugrave 253 /Ugrave] def
/Times-Roman /Times-Roman accvec ReEncode
/Times-Italic /Times-Italic accvec ReEncode
/Times-Bold /Times-Bold accvec ReEncode
/Times-BoldItalic /Times-BoldItalic accvec ReEncode
/Helvetica /Helvetica accvec ReEncode
/Helvetica-Oblique /Helvetica-Oblique accvec ReEncode
/Helvetica-Bold /Helvetica-Bold accvec ReEncode
/Helvetica-BoldOblique /Helvetica-BoldOblique  accvec ReEncode
/Courier /Courier accvec ReEncode
/Courier-Oblique /Courier-Oblique accvec ReEncode
/Courier-Bold /Courier-Bold accvec ReEncode
/Courier-BoldOblique /Courier-BoldOblique accvec ReEncode
/oshow {gsave [] 0 sd true charpath stroke gr} def
/stwn { /fs exch def /fn exch def /text exch def fn findfont fs sf
 text sw pop xs add /xs exch def} def
/stwb { /fs exch def /fn exch def /nbas exch def /textf exch def
textf length /tlen exch def nbas tlen gt {/nbas tlen def} if
fn findfont fs sf textf dup length nbas sub nbas getinterval sw
pop neg xs add /xs exch def} def
/accspe [ 65 /plusminus 66 /bar 67 /existential 68 /universal
69 /exclam 70 /numbersign 71 /greater 72 /question 73 /integral
74 /colon 75 /semicolon 76 /less 77 /bracketleft 78 /bracketright
79 /greaterequal 80 /braceleft 81 /braceright 82 /radical
83 /spade 84 /heart 85 /diamond 86 /club 87 /lessequal
88 /multiply 89 /percent 90 /infinity 48 /circlemultiply 49 /circleplus
50 /emptyset 51 /lozenge 52 /bullet 53 /arrowright 54 /arrowup
55 /arrowleft 56 /arrowdown 57 /arrowboth 48 /degree 44 /comma 43 /plus
 45 /angle 42 /angleleft 47 /divide 61 /notequal 40 /equivalence 41 /second
 97 /approxequal 98 /congruent 99 /perpendicular 100 /partialdiff 101 /florin
 102 /intersection 103 /union 104 /propersuperset 105 /reflexsuperset
 106 /notsubset 107 /propersubset 108 /reflexsubset 109 /element 110 /notelement
 111 /gradient 112 /logicaland 113 /logicalor 114 /arrowdblboth
 115 /arrowdblleft 116 /arrowdblup 117 /arrowdblright 118 /arrowdbldown
 119 /ampersand 120 /omega1 121 /similar 122 /aleph ] def
/Symbol /Special accspe ReEncode
%%EndProlog
 gsave  .25 .25 scale  gsave 0 0 t black [] 0 sd 1 lw 2211 2324 0 0 C
 /xs 0 def 
(K/)
 /Times-Roman     68 stwn 
(p)
 /Symbol     68 stwn 
( Separation vs. Momentum)
 /Times-Roman     68 stwn 
 gsave  1190 1632
 t   0 r  xs 2 div neg 0 t 0 0 m
 /Times-Roman findfont   68 sf 0    0 m 
(K/)
 show 
 currentpoint pop 0 t 
 /Symbol findfont   68 sf 0    0 m 
(p)
 show 
 currentpoint pop 0 t 
 /Times-Roman findfont   68 sf 0    0 m 
( Separation vs. Momentum)
 show 
 gr  4 lw 367 1295 m 9 8 d 17 X 8 -8 d -17 Y -8 -9 d -17 X -9 9 d 17 Y cl s 283
 1286 m 84 X s 485 1286 m -84 X s 384 1247 m 22 Y s 384 1326 m -23 Y s 569 1025
 m 8 9 d 17 X 9 -9 d -17 Y -9 -8 d -17 X -8 8 d 17 Y cl s 485 1017 m 84 X s 686
 1017 m -83 X s 586 1013 m -13 Y s 586 1021 m 13 Y s 770 842 m 9 9 d 17 X 8 -9 d
 -17 Y -8 -8 d -17 X -9 8 d 17 Y cl s 686 834 m 84 X s 888 834 m -84 X s 787 832
 m -15 Y s 787 836 m 15 Y s 972 747 m 8 9 d 17 X 9 -9 d -17 Y -9 -8 d -17 X -8 8
 d 17 Y cl s 888 739 m 84 X s 1090 739 m -84 X s 989 737 m -15 Y s 989 741 m 15
 Y s 1173 698 m 9 9 d 17 X 8 -9 d -17 Y -8 -8 d -17 X -9 8 d 17 Y cl s 1090 690
 m 83 X s 1291 690 m -84 X s 1190 688 m -15 Y s 1190 692 m 15 Y s 1375 649 m 8 8
 d 17 X 9 -8 d -17 Y -9 -9 d -17 X -8 9 d 17 Y cl s 1291 640 m 84 X s 1493 640 m
 -84 X s 1392 638 m -15 Y s 1392 643 m 14 Y s 1576 591 m 9 9 d 17 X 8 -9 d -17 Y
 -8 -8 d -17 X -9 8 d 17 Y cl s 1493 583 m 83 X s 1694 583 m -84 X s 1593 578 m
 -12 Y s 1593 588 m 12 Y s 1778 589 m 8 8 d 17 X 9 -8 d -17 Y -9 -9 d -17 X -8 9
 d 17 Y cl s 1694 580 m 84 X s 1896 580 m -84 X s 1795 573 m -10 Y s 1795 587 m
 10 Y s 1979 539 m 9 8 d 17 X 9 -8 d -17 Y -9 -9 d -17 X -9 9 d 17 Y cl s 1896
 530 m 83 X s 2097 530 m -83 X s 1996 510 m 3 Y s 1996 550 m -3 Y s 283 272 m
 -45 Y s [4 8] 0 sd 283 227 m 1360 Y s
 /xs 0 def 
(0.60)
 /Times-Roman     68 stwn 
 gsave  283 136
 t   0 r  xs 2 div neg 0 t 0 0 m
 /Times-Roman findfont   68 sf 0    0 m 
(0.60)
 show 
 gr  [] 0 sd 384 249 m -22 Y s 485 249 m -22 Y s 586 249 m -22 Y s 686 272 m -45
 Y s [4 8] 0 sd 686 227 m 1360 Y s
 /xs 0 def 
(0.80)
 /Times-Roman     68 stwn 
 gsave  686 136
 t   0 r  xs 2 div neg 0 t 0 0 m
 /Times-Roman findfont   68 sf 0    0 m 
(0.80)
 show 
 gr  [] 0 sd 787 249 m -22 Y s 888 249 m -22 Y s 989 249 m -22 Y s 1090 272 m
 -45 Y s [4 8] 0 sd 1090 227 m 1360 Y s
 /xs 0 def 
(1.00)
 /Times-Roman     68 stwn 
 gsave  1090 136
 t   0 r  xs 2 div neg 0 t 0 0 m
 /Times-Roman findfont   68 sf 0    0 m 
(1.00)
 show 
 gr  [] 0 sd 1190 249 m -22 Y s 1291 249 m -22 Y s 1392 249 m -22 Y s 1493 272 m
 -45 Y s [4 8] 0 sd 1493 227 m 1360 Y s
 /xs 0 def 
(1.20)
 /Times-Roman     68 stwn 
 gsave  1493 136
 t   0 r  xs 2 div neg 0 t 0 0 m
 /Times-Roman findfont   68 sf 0    0 m 
(1.20)
 show 
 gr  [] 0 sd 1593 249 m -22 Y s 1694 249 m -22 Y s 1795 249 m -22 Y s 1896 272 m
 -45 Y s [4 8] 0 sd 1896 227 m 1360 Y s
 /xs 0 def 
(1.40)
 /Times-Roman     68 stwn 
 gsave  1896 136
 t   0 r  xs 2 div neg 0 t 0 0 m
 /Times-Roman findfont   68 sf 0    0 m 
(1.40)
 show 
 gr  [] 0 sd 1996 249 m -22 Y s 2097 249 m -22 Y s
 /xs 0 def 
(Momentum \(GeV\))
 /Times-Roman     68 stwn 
 gsave  1757 57
 t   0 r  xs 2 div neg 0 t 0 0 m
 /Times-Roman findfont   68 sf 0    0 m 
(Momentum \(GeV\))
 show 
 gr  283 1542 m 45 Y s 384 1564 m 23 Y s 485 1564 m 23 Y s 586 1564 m 23 Y s 686
 1542 m 45 Y s 787 1564 m 23 Y s 888 1564 m 23 Y s 989 1564 m 23 Y s 1090 1542 m
 45 Y s 1190 1564 m 23 Y s 1291 1564 m 23 Y s 1392 1564 m 23 Y s 1493 1542 m 45
 Y s 1593 1564 m 23 Y s 1694 1564 m 23 Y s 1795 1564 m 23 Y s 1896 1542 m 45 Y s
 1996 1564 m 23 Y s 2097 1564 m 23 Y s 329 227 m -46 X s [4 8] 0 sd 2097 227 m
 -1814 X s
 /xs 0 def 
(0)
 /Times-Roman     68 stwn 
 gsave  261 204
 t   0 r  xs neg 0 t 0 0 m
 /Times-Roman findfont   68 sf 0    0 m 
(0)
 show 
 gr  [] 0 sd 306 312 m -23 X s 306 397 m -23 X s 306 482 m -23 X s 329 567 m -46
 X s [4 8] 0 sd 2097 567 m -1814 X s
 /xs 0 def 
(2)
 /Times-Roman     68 stwn 
 gsave  261 544
 t   0 r  xs neg 0 t 0 0 m
 /Times-Roman findfont   68 sf 0    0 m 
(2)
 show 
 gr  [] 0 sd 306 652 m -23 X s 306 737 m -23 X s 306 822 m -23 X s 329 907 m -46
 X s [4 8] 0 sd 2097 907 m -1814 X s
 /xs 0 def 
(4)
 /Times-Roman     68 stwn 
 gsave  261 884
 t   0 r  xs neg 0 t 0 0 m
 /Times-Roman findfont   68 sf 0    0 m 
(4)
 show 
 gr  [] 0 sd 306 992 m -23 X s 306 1077 m -23 X s 306 1162 m -23 X s 329 1247 m
 -46 X s [4 8] 0 sd 2097 1247 m -1814 X s
 /xs 0 def 
(6)
 /Times-Roman     68 stwn 
 gsave  261 1224
 t   0 r  xs neg 0 t 0 0 m
 /Times-Roman findfont   68 sf 0    0 m 
(6)
 show 
 gr  [] 0 sd 306 1332 m -23 X s 306 1417 m -23 X s 306 1502 m -23 X s 329 1587 m
 -46 X s [4 8] 0 sd 2097 1587 m -1814 X s
 /xs 0 def 
(8)
 /Times-Roman     68 stwn 
 gsave  261 1564
 t   0 r  xs neg 0 t 0 0 m
 /Times-Roman findfont   68 sf 0    0 m 
(8)
 show 
 gr 
 /xs 0 def 
(Sigma Separation)
 /Times-Roman     68 stwn 
 gsave  57 907
 t  90 r  xs 2 div neg 0 t 0 0 m
 /Times-Roman findfont   68 sf 0    0 m 
(Sigma Separation)
 show 
 gr  [] 0 sd 2052 227 m 45 X s 2075 312 m 22 X s 2075 397 m 22 X s 2075 482 m 22
 X s 2052 567 m 45 X s 2075 652 m 22 X s 2075 737 m 22 X s 2075 822 m 22 X s
 2052 907 m 45 X s 2075 992 m 22 X s 2075 1077 m 22 X s 2075 1162 m 22 X s 2052
 1247 m 45 X s 2075 1332 m 22 X s 2075 1417 m 22 X s 2075 1502 m 22 X s 2052
 1587 m 45 X s 6 lw 283 227 m 1814 X s 283 1587 m 1814 X s 283 227 m 1360 Y s
 2097 227 m 1360 Y s
 /xs 0 def 
(SigSep = \()
 /Times-Roman     86 stwn 
(m)
 /Symbol     86 stwn 
(p)
 /Symbol     60 stwn 
(-m)
 /Symbol     86 stwn 
(K)
 /Times-Roman     60 stwn 
(\)/sqrt\()
 /Times-Roman     86 stwn 
(s)
 /Symbol     86 stwn 
 /s1 0 def 
 /Symbol findfont   60 sf
 (p) sw pop s1 add /s1 exch def
 /s2 0 def 
 /Symbol findfont   60 sf
 (2) sw pop s2 add /s2 exch def
 s1 s2 ge { xs s1 add /xs exch def} { xs s2 add /xs exch def} ifelse 
(+s)
 /Symbol     86 stwn 
 /s1 0 def 
 /Times-Roman findfont   60 sf
 (K) sw pop s1 add /s1 exch def
 /s2 0 def 
 /Symbol findfont   60 sf
 (2) sw pop s2 add /s2 exch def
 s1 s2 ge { xs s1 add /xs exch def} { xs s2 add /xs exch def} ifelse 
(\))
 /Times-Roman     86 stwn 
 gsave  1927 1360
 t   0 r  xs neg 0 t 0 0 m
 /Times-Roman findfont   86 sf 0    0 m 
(SigSep = \()
 show 
 currentpoint pop 0 t 
 /Symbol findfont   86 sf 0    0 m 
(m)
 show 
 currentpoint pop 0 t 
 /Symbol findfont   60 sf 0  -29 m 
(p)
 show 
 currentpoint pop 0 t 
 /Symbol findfont   86 sf 0    0 m 
(-m)
 show 
 currentpoint pop 0 t 
 /Times-Roman findfont   60 sf 0  -29 m 
(K)
 show 
 currentpoint pop 0 t 
 /Times-Roman findfont   86 sf 0    0 m 
(\)/sqrt\()
 show 
 currentpoint pop 0 t 
 /Symbol findfont   86 sf 0    0 m 
(s)
 show 
 currentpoint pop 0 t 
 0  -29 rm 
 /Symbol findfont   60 sf
(p)
 show currentpoint pop /s1 exch def
 0   43 rm 
 /Symbol findfont   60 sf
(2)
 show currentpoint pop /s2 exch def
 s1 s2 ge {s1 0 t} {s2 0 t} ifelse 
 /Symbol findfont   86 sf 0    0 m 
(+s)
 show 
 currentpoint pop 0 t 
 0  -29 rm 
 /Times-Roman findfont   60 sf
(K)
 show currentpoint pop /s1 exch def
 0   43 rm 
 /Symbol findfont   60 sf
(2)
 show currentpoint pop /s2 exch def
 s1 s2 ge {s1 0 t} {s2 0 t} ifelse 
 /Times-Roman findfont   86 sf 0    0 m 
(\))
 show 
 gsave  gsave  gr  gr  gsave  gsave  gr  gr  gr  4 lw 367 1295 m 9 8 d 17 X 8 -8
 d -17 Y -8 -9 d -17 X -9 9 d 17 Y cl s 1 lw 367 1295 m 9 8 d 17 X 8 -8 d -17 Y
 -8 -9 d -17 X -9 9 d 17 Y f 4 lw 283 1286 m 84 X s 485 1286 m -84 X s 384 1247
 m 22 Y s 384 1326 m -23 Y s 569 1025 m 8 9 d 17 X 9 -9 d -17 Y -9 -8 d -17 X -8
 8 d 17 Y cl s 1 lw 569 1025 m 8 9 d 17 X 9 -9 d -17 Y -9 -8 d -17 X -8 8 d 17 Y
 f 4 lw 485 1017 m 84 X s 686 1017 m -83 X s 586 1013 m -13 Y s 586 1021 m 13 Y
 s 770 842 m 9 9 d 17 X 8 -9 d -17 Y -8 -8 d -17 X -9 8 d 17 Y cl s 1 lw 770 842
 m 9 9 d 17 X 8 -9 d -17 Y -8 -8 d -17 X -9 8 d 17 Y f 4 lw 686 834 m 84 X s 888
 834 m -84 X s 787 832 m -15 Y s 787 836 m 15 Y s 972 747 m 8 9 d 17 X 9 -9 d
 -17 Y -9 -8 d -17 X -8 8 d 17 Y cl s 1 lw 972 747 m 8 9 d 17 X 9 -9 d -17 Y -9
 -8 d -17 X -8 8 d 17 Y f 4 lw 888 739 m 84 X s 1090 739 m -84 X s 989 737 m -15
 Y s 989 741 m 15 Y s 1173 698 m 9 9 d 17 X 8 -9 d -17 Y -8 -8 d -17 X -9 8 d 17
 Y cl s 1 lw 1173 698 m 9 9 d 17 X 8 -9 d -17 Y -8 -8 d -17 X -9 8 d 17 Y f 4 lw
 1090 690 m 83 X s 1291 690 m -84 X s 1190 688 m -15 Y s 1190 692 m 15 Y s 1375
 649 m 8 8 d 17 X 9 -8 d -17 Y -9 -9 d -17 X -8 9 d 17 Y cl s 1 lw 1375 649 m 8
 8 d 17 X 9 -8 d -17 Y -9 -9 d -17 X -8 9 d 17 Y f 4 lw 1291 640 m 84 X s 1493
 640 m -84 X s 1392 638 m -15 Y s 1392 643 m 14 Y s 1576 591 m 9 9 d 17 X 8 -9 d
 -17 Y -8 -8 d -17 X -9 8 d 17 Y cl s 1 lw 1576 591 m 9 9 d 17 X 8 -9 d -17 Y -8
 -8 d -17 X -9 8 d 17 Y f 4 lw 1493 583 m 83 X s 1694 583 m -84 X s 1593 578 m
 -12 Y s 1593 588 m 12 Y s 1778 589 m 8 8 d 17 X 9 -8 d -17 Y -9 -9 d -17 X -8 9
 d 17 Y cl s 1 lw 1778 589 m 8 8 d 17 X 9 -8 d -17 Y -9 -9 d -17 X -8 9 d 17 Y f
 4 lw 1694 580 m 84 X s 1896 580 m -84 X s 1795 573 m -10 Y s 1795 587 m 10 Y s
 1979 539 m 9 8 d 17 X 9 -8 d -17 Y -9 -9 d -17 X -9 9 d 17 Y cl s 1 lw 1979 539
 m 9 8 d 17 X 9 -8 d -17 Y -9 -9 d -17 X -9 9 d 17 Y f 4 lw 1896 530 m 83 X s
 2097 530 m -83 X s 1996 510 m 3 Y s 1996 550 m -3 Y s 6 lw 283 227 m 1814 X s
 283 1587 m 1814 X s 283 227 m 1360 Y s 2097 227 m 1360 Y s
 gr  gr 
showpage
end
%%EOF
