%!PS-Adobe-3.0 EPSF-3.0
%%BoundingBox: 26 459 341 775
%%Title: trig
%%CreationDate: Sat Jul 15 17:55:57 2000
%%Creator: Tgif-4.1.34 by William Chia-Wei Cheng (william@cs.UCLA.edu)
%%ProducedBy: (unknown)
%%Pages: 1
%%DocumentFonts: (atend)
%%EndComments
%%BeginProlog

/tgifdict 48 dict def
tgifdict begin

/bd { bind def } bind def

/GS { gsave } bd
/GR { grestore } bd
/NP { newpath } bd
/CP { closepath } bd
/CHP { charpath } bd
/CT { curveto } bd
/L { lineto } bd
/RL { rlineto } bd
/M { moveto } bd
/RM { rmoveto } bd
/S { stroke } bd
/F { fill } bd
/TR { translate } bd
/RO { rotate } bd
/SC { scale } bd
/MU { mul } bd
/DI { div } bd
/DU { dup } bd
/NE { neg } bd
/AD { add } bd
/SU { sub } bd
/PO { pop } bd
/EX { exch } bd
/CO { concat } bd
/CL { clip } bd
/EC { eoclip } bd
/EF { eofill } bd
/IM { image } bd
/IMM { imagemask } bd
/ARY { array } bd
/SG { setgray } bd
/RG { setrgbcolor } bd
/SD { setdash } bd
/W { setlinewidth } bd
/SM { setmiterlimit } bd
/SLC { setlinecap } bd
/SLJ { setlinejoin } bd
/SH { show } bd
/FF { findfont } bd
/MS { makefont setfont } bd
/AR { arcto 4 {pop} repeat } bd
/CURP { currentpoint } bd
/FLAT { flattenpath strokepath clip newpath } bd
/TGSM { tgiforigctm setmatrix } def
/TGRM { savematrix setmatrix } def

end

%%EndProlog
%%Page: 1 1

%%PageBoundingBox: 26 459 341 775
tgifdict begin
/tgifsavedpage save def

1 SM
1 W

0 SG

72 0 MU 72 11 MU TR
72 128 DI 100.000 MU 100 DI DU NE SC

GS

/tgiforigctm matrix currentmatrix def

% EPS
end
/tgiflevel0 save def
/tgifdictcount0 countdictstack def
/tgifopcount0 count 1 sub def
userdict begin
/showpage {} def
/letter {} def
/legal {} def
/a4 {} def
/setpagedevice {} def
/erasepage {} def
/bop-hook {} def
/eop-hook {} def
/start-hook {} def
/end-hook {} def
0 setgray 0 setlinecap 1 setlinewidth
0 setlinejoin 10 setmiterlimit [] 0 setdash newpath
1 72 128 div 100.000 mul 100 div div dup neg scale
72 0 mul neg 72 11 mul neg translate

16.312 380.812 translate 0.562 0.562 scale 0 rotate

%%BeginDocument: yamaguti_trigger_rate.epsi
%!PS-Adobe-2.0 EPSF-1.2
save
countdictstack
mark
newpath
/showpage {} def
/s {stroke} def /l {lineto} def /m {moveto} def /t {translate} def
/sw {stringwidth} def /r {rotate} def /rl {roll}  def /R {repeat} def
/d {rlineto} def /rm {rmoveto} def /gr {grestore} def /f {eofill} def
/c {setrgbcolor} def /lw {setlinewidth} def /sd {setdash} def
/cl {closepath} def /sf {scalefont setfont} def /black {0 setgray} def
/box {m dup 0 exch d exch 0 d 0 exch neg d cl} def
/NC{systemdict begin initclip end}def/C{NC box clip newpath}def
/bl {box s} def /bf {box f} def /Y { 0 exch d} def /X { 0 d} def 
/mp {newpath /y exch def /x exch def} def
/side {[w .77 mul w .23 mul] .385 w mul sd w 0 l currentpoint t -144 r} def
/mr {mp x y w2 0 360 arc} def /m24 {mr s} def /m20 {mr f} def
/mb {mp x y w2 add m w2 neg 0 d 0 w neg d w 0 d 0 w d cl} def
/mt {mp x y w2 add m w2 neg w neg d w 0 d cl} def
/m21 {mb f} def /m25 {mb s} def /m22 {mt f} def /m26 {mt s} def
/m23 {mp x y w2 sub m w2 w d w neg 0 d cl f} def
/m27 {mp x y w2 add m w3 neg w2 neg d w3 w2 neg d w3  w2 d cl s} def
/m28 {mp x w2 sub y w2 sub w3 add m w3 0 d 0 w3 neg d w3 0 d 0 w3 d w3 0 d
 0 w3 d w3 neg 0 d 0 w3 d w3 neg 0 d
 0 w3 neg d w3 neg 0 d cl s } def
/m29 {mp gsave x w2 sub y w2 add w3 sub m currentpoint t
 4 {side} repeat cl fill gr} def
/m30 {mp gsave x w2 sub y w2 add w3 sub m currentpoint t
 5 {side} repeat s gr} def
/m31 {mp x y w2 sub m 0 w d x w2 sub y m w 0 d
 x w2 sub y w2 add m w w neg d x w2 sub y w2
 sub m w w d s} def
/m2 {mp x y w2 sub m 0 w d x w2 sub y m w 0 d s} def
/m5 {mp x w2 sub y w2 sub m w w d x w2 sub y w2 add m w w neg d s} def
/DP {/PT exch def gsave 47.2 47.2 scale PT 1 eq { 16 16 1 [ 16 0 0 16 neg 0 16
] { < AA AA 55 55 AA AA 55 55 AA AA 55 55 AA AA 55 55 AA AA 55 55 AA AA 55 55
AA AA 55 55 AA AA 55 55 > } image } if PT 2 eq { 16 16 1 [ 16 0 0 16 neg 0 16
] { < BB BB EE EE BB BB EE EE BB BB EE EE BB BB EE EE BB BB EE EE BB BB EE EE
BB BB EE EE BB BB EE EE > } image } if PT 3 eq { 16 16 1 [ 16 0 0 16 neg 0 16
] { < FF FF BB BB FF FF EE EE FF FF BB BB FF FF EE EE FF FF BB BB FF FF EE EE
FF FF BB BB FF FF EE EE > } image } if PT 4 eq { 16 16 1 [ 16 0 0 16 neg 0 16
] { < DF DF BF BF 7F 7F FE FE FD FD FB FB F7 F7 EF EF DF DF BF BF 7F 7F FE FE
FD FD FB FB F7 F7 EF EF > } image } if PT 5 eq { 16 16 1 [ 16 0 0 16 neg 0 16
] { < 7F 7F BF B F DF DF EF EF F7 F7 FB FB FD FD FE FE 7F 7F BF BF DF DF EF
EF F7 F7 FB FB FD FD FE FE > } image } if PT 6 eq { 16 16 1 [ 16 0 0 16 neg 0
16 ] { < BB BB BB BB BB BB BB BB BB BB BB BB BB BB BB BB BB BB BB BB BB BB BB
BB BB BB BB BB BB BB BB BB > } image } if PT 7 eq { 16 16 1 [ 16 0 0 16 neg 0
16 ] { < FF FF FF FF FF FF 00 00 FF FF FF FF FF FF 00 00 FF FF FF FF FF FF 00
00 FF FF FF FF FF FF 00 00 > } image } if PT 8 eq { 16 16 1 [ 16 0 0 16 neg 0
16 ] { < EE EE 47 47 83 83 C5 C5 EE EE 5C 5C 38 38 74 74 EE EE 47 47 83 83 C5
C5 EE EE 5C 5C 38 38 74 74 > } image } if PT 9 eq { 16 16 1 [ 16 0 0 16 neg 0
16 ] { < EF EF EF EF D7 D7 38 38 FE FE FE FE 7D 7D 83 83 EF EF EF EF D7 D7 38
38 FE FE FE FE 7D 7D 83 83 > } image } if PT 10 eq { 16 16 1 [ 16 0 0 16 neg
0 16 ] { < EF EF EF EF EF EF 00 00 FE FE FE FE FE FE 00 00 EF EF EF EF EF EF
00 00 FE FE FE FE FE FE 00 00 > } image } if PT 11 eq { 16 16 1 [ 16 0 0 16
neg 0 16 ] { < F7 F7 B6 B6 D5 D5 E3 E3 D5 D5 B6 B6 F7 F7 FF FF 7F 7F 6B 6B 5D
5D 3E 3E 5D 5D 6B 6B 7F 7F FF FF > } image } if PT 12 eq { 16 16 1 [ 16 0 0
16 neg 0 16 ] { < E3 E3 DD DD BE BE BE BE BE BE DD DD E3 E3 FF FF 3E 3E DD DD
EB EB EB EB EB EB DD DD 3E 3E FF FF > } image } if PT 13 eq { 16 16 1 [ 16 0
0 16 neg 0 16 ] { < FE FE 7D 7D BB BB D7 D7 EF EF D7 D7 BB BB 7D 7D FE FE 7D
7D BB BB D7 D7 EF EF D7 D7 BB BB 7D 7D > } image } if PT 14 eq { 16 16 1 [ 16
0 0 16 neg 0 16 ] { < 00 00 EE EF EE EF EE EF 0E E0 EE EE EE EE EE EE 00 EE
FE EE FE EE FE EE 00 00 FE EF FE EF FE EF > } image } if PT 15 eq { 16 16 1 [
16 0 0 16 neg 0 16 ] { < DD DD AA AA DD DD FF FF 77 77 AA AA 77 77 FF FF DD
DD AA AA DD DD FF FF 77 77 AA AA 77 77 FF FF > } image } if PT 16 eq { 16 16
1 [ 16 0 0 16 neg 0 16 ] { < F1 F1 EE EE 1F 1F FF FF F1 F1 EE EE 1F 1F FF FF
F1 F1 EE EE 1F 1F FF FF F1 F1 EE EE 1F 1F FF FF > } image } if PT 17 eq { 16
16 1 [ 16 0 0 16 neg 0 16 ] { < EE EE DD DD BB BB FF FF EE EE DD DD BB BB FF
FF EE EE DD DD BB BB FF FF EE EE DD DD BB BB FF FF > } image } if PT 18 eq {
16 16 1 [ 16 0 0 16 neg 0 16 ] { < BB BB DD DD EE EE FF FF BB BB DD DD EE EE
FF FF BB BB DD DD EE EE FF FF BB BB DD DD EE EE FF FF > } image } if PT 19 eq
{ 16 16 1 [ 16 0 0 16 neg 0 16 ] { < 1F FC 67 F3 7B EF BD DE BD DE DE BD E6
B3 F8 0F E6 B3 DE BD BD DE BD DE 7B EF 67 F3 1F FC 7F FF > } image } if PT
20 eq { 16 16 1 [ 16 0 0 16 neg 0 16 ] { < DD DD EE EE EE EE EE EE DD DD BB
BB BB BB BB BB DD DD EE EE EE EE EE EE DD DD BB BB BB BB BB BB > } image }
if PT 21 eq { 16 16 1 [ 16 0 0 16 neg 0 16 ] { < 0E 0E EF EF EF EF EF EF E0
E0 FE FE FE FE FE FE 0E 0E EF EF EF EF EF EF E0 E0 FE FE FE FE FE FE > }
image } if PT 22 eq { 16 16 1 [ 16 0 0 16 neg 0 16 ] { < 70 70 F7 F7 F7 F7 F7
F7 07 07 7F 7F 7F 7F 7F 7F 70 70 F7 F7 F7 F7 F7 F7 07 07 7F 7F 7F 7F 7F 7F >
} image } if PT 23 eq { 16 16 1 [ 16 0 0 16 neg 0 16 ] { < AA AA 55 55 A9 A9
D1 D1 E1 E1 D1 D1 A9 A9 55 55 AA AA 55 55 A9 A9 D1 D1 E1 E1 D1 D1 A9 A9 55 55
> } image } if PT 24 eq { 16 16 1 [ 16 0 0 16 neg 0 16 ] { < FF FE FF FC EA
A8 D5 54 EA A8 D5 54 E8 28 D4 54 E8 E8 D4 D4 E8 EA 54 D5 A8 EA 54 D5 00 C0 00
80 > } image } if PT 25 eq { 16 16 1 [ 16 0 0 16 neg 0 16 ] { < FF FE FF FC
FF F8 FF F0 F0 00 F0 00 F0 20 F0 60 F0 E0 F1 E0 F3 E0 F0 00 E0 00 C0 00 80 00
00 00 > } image } if gr } def /FA { /PT exch def gsave clip 0 0 translate 1 1
54 { 1 sub 47.2 mul /Xcurr exch def 1 1 74 { 1 sub 47.2 mul /Ycurr exch def
gsave Xcurr Ycurr translate PT DP gr } for } for gr } def
/reencdict 24 dict def /ReEncode {reencdict begin /nco&na exch def
/nfnam exch def /basefontname exch def /basefontdict basefontname findfont def
/newfont basefontdict maxlength dict def basefontdict {exch dup /FID ne
{dup /Encoding eq {exch dup length array copy newfont 3 1 roll put} {exch
newfont 3 1 roll put} ifelse} {pop pop} ifelse } forall newfont
/FontName nfnam put nco&na aload pop nco&na length 2 idiv {newfont
/Encoding get 3 1 roll put} repeat nfnam newfont definefont pop end } def
/accvec [ 176 /agrave 181 /Agrave 190 /acircumflex 192 /Acircumflex
201 /adieresis 204 /Adieresis 209 /ccedilla 210 /Ccedilla 211 /eacute
212 /Eacute 213 /egrave 214 /Egrave 215 /ecircumflex 216 /Ecircumflex
217 /edieresis 218 /Edieresis 219 /icircumflex 220 /Icircumflex
221 /idieresis 222 /Idieresis 223 /ntilde 224 /Ntilde 226 /ocircumflex
228 /Ocircumflex 229 /odieresis 230 /Odieresis 231 /ucircumflex 236 /Ucircumflex
237 /udieresis 238 /Udieresis 239 /aring 242 /Aring 243 /ydieresis
244 /Ydieresis 246 /aacute 247 /Aacute 252 /ugrave 253 /Ugrave] def
/Times-Roman /Times-Roman accvec ReEncode
/Times-Italic /Times-Italic accvec ReEncode
/Times-Bold /Times-Bold accvec ReEncode
/Times-BoldItalic /Times-BoldItalic accvec ReEncode
/Helvetica /Helvetica accvec ReEncode
/Helvetica-Oblique /Helvetica-Oblique accvec ReEncode
/Helvetica-Bold /Helvetica-Bold accvec ReEncode
/Helvetica-BoldOblique /Helvetica-BoldOblique  accvec ReEncode
/Courier /Courier accvec ReEncode
/Courier-Oblique /Courier-Oblique accvec ReEncode
/Courier-Bold /Courier-Bold accvec ReEncode
/Courier-BoldOblique /Courier-BoldOblique accvec ReEncode
/oshow {gsave [] 0 sd true charpath stroke gr} def
/stwn { /fs exch def /fn exch def /text exch def fn findfont fs sf
 text sw pop xs add /xs exch def} def
/stwb { /fs exch def /fn exch def /nbas exch def /textf exch def
textf length /tlen exch def nbas tlen gt {/nbas tlen def} if
fn findfont fs sf textf dup length nbas sub nbas getinterval sw
pop neg xs add /xs exch def} def
/accspe [ 65 /plusminus 66 /bar 67 /existential 68 /universal
69 /exclam 70 /numbersign 71 /greater 72 /question 73 /integral
74 /colon 75 /semicolon 76 /less 77 /bracketleft 78 /bracketright
79 /greaterequal 80 /braceleft 81 /braceright 82 /radical
83 /spade 84 /heart 85 /diamond 86 /club 87 /lessequal
88 /multiply 89 /percent 90 /infinity 48 /circlemultiply 49 /circleplus
50 /emptyset 51 /lozenge 52 /bullet 53 /arrowright 54 /arrowup
55 /arrowleft 56 /arrowdown 57 /arrowboth 48 /degree 44 /comma 43 /plus
 45 /angle 42 /angleleft 47 /divide 61 /notequal 40 /equivalence 41 /second
 97 /approxequal 98 /congruent 99 /perpendicular 100 /partialdiff 101 /florin
 102 /intersection 103 /union 104 /propersuperset 105 /reflexsuperset
 106 /notsubset 107 /propersubset 108 /reflexsubset 109 /element 110 /notelement
 111 /gradient 112 /logicaland 113 /logicalor 114 /arrowdblboth
 115 /arrowdblleft 116 /arrowdblup 117 /arrowdblright 118 /arrowdbldown
 119 /ampersand 120 /omega1 121 /similar 122 /aleph ] def
/Symbol /Special accspe ReEncode
/Zone {/iy exch def /ix exch def  gsave ix 1 sub  2224 mul  1 iy sub  3144
 mul t} def
gsave 20 28 t .25 .25 scale  gsave
 1 1 Zone
 gsave 0 0 t black [] 0 sd 1 lw 2223 2224 0 460 bl 2223 2224 0 460 C NC 1779
 1778 222 683 bl 2223 2224 0 460 C
 /xs 0 def 
(  Spent e  and  Bhabha trigger efficiency VS Threshold)
 /Helvetica-Bold     43 stwn 
 gsave  1112 2486
 t   0 r  xs 2 div neg 0 t 0 0 m
 /Helvetica-Bold findfont   43 sf 0    0 m 
(  Spent e  and  Bhabha trigger efficiency VS Threshold)
 show 
 gr
 1779 1778 222 683 C NC 222 683 m 1778 Y s 239 683 m -17 X s [4 8] 0 sd 2001 683
 m -1779 X s [] 0 sd 239 713 m -17 X s [4 8] 0 sd 2001 713 m -1779 X s [] 0 sd
 256 740 m -34 X s [4 8] 0 sd 2001 740 m -1779 X s
 /xs 0 def 
(1)
 /Helvetica-Bold     43 stwn 
 gsave  178 725
 t   0 r  xs neg 0 t 0 0 m
 /Helvetica-Bold findfont   43 sf 0    0 m 
(1)
 show 
 gr
 [] 0 sd 239 919 m -17 X s [4 8] 0 sd 2001 919 m -1779 X s [] 0 sd 239 1023 m
 -17 X s [4 8] 0 sd 2001 1023 m -1779 X s [] 0 sd 239 1097 m -17 X s [4 8] 0 sd
 2001 1097 m -1779 X s [] 0 sd 239 1155 m -17 X s [4 8] 0 sd 2001 1155 m -1779 X
 s [] 0 sd 239 1202 m -17 X s [4 8] 0 sd 2001 1202 m -1779 X s [] 0 sd 239 1241
 m -17 X s [4 8] 0 sd 2001 1241 m -1779 X s [] 0 sd 239 1276 m -17 X s
 [4 8] 0 sd 2001 1276 m -1779 X s [] 0 sd 239 1306 m -17 X s [4 8] 0 sd 2001
 1306 m -1779 X s [] 0 sd 256 1333 m -34 X s [4 8] 0 sd 2001 1333 m -1779 X s
 /xs 0 def 
(10)
 /Helvetica-Bold     43 stwn 
 gsave  178 1317
 t   0 r  xs neg 0 t 0 0 m
 /Helvetica-Bold findfont   43 sf 0    0 m 
(10)
 show 
 gr
 [] 0 sd 239 1511 m -17 X s [4 8] 0 sd 2001 1511 m -1779 X s [] 0 sd 239 1616 m
 -17 X s [4 8] 0 sd 2001 1616 m -1779 X s [] 0 sd 239 1690 m -17 X s [4 8] 0 sd
 2001 1690 m -1779 X s [] 0 sd 239 1747 m -17 X s [4 8] 0 sd 2001 1747 m -1779 X
 s [] 0 sd 239 1794 m -17 X s [4 8] 0 sd 2001 1794 m -1779 X s [] 0 sd 239 1834
 m -17 X s [4 8] 0 sd 2001 1834 m -1779 X s [] 0 sd 239 1868 m -17 X s
 [4 8] 0 sd 2001 1868 m -1779 X s [] 0 sd 239 1899 m -17 X s [4 8] 0 sd 2001
 1899 m -1779 X s [] 0 sd 256 1926 m -34 X s [4 8] 0 sd 2001 1926 m -1779 X s
 /xs 0 def 
(10)
 /Helvetica-Bold     43 stwn 
 gsave  178 1910
 t   0 r  xs neg 0 t 0 0 m
 /Helvetica-Bold findfont   43 sf 0    0 m 
(10)
 show 
 gr
 /xs 0 def 
(2)
 /Helvetica-Bold     35 stwn 
 gsave  209 1933
 t   0 r  xs neg 0 t 0 0 m
 /Helvetica-Bold findfont   35 sf 0    0 m 
(2)
 show 
 gr
 [] 0 sd 239 2104 m -17 X s [4 8] 0 sd 2001 2104 m -1779 X s [] 0 sd 239 2209 m
 -17 X s [4 8] 0 sd 2001 2209 m -1779 X s [] 0 sd 239 2283 m -17 X s [4 8] 0 sd
 2001 2283 m -1779 X s [] 0 sd 239 2340 m -17 X s [4 8] 0 sd 2001 2340 m -1779 X
 s [] 0 sd 239 2387 m -17 X s [4 8] 0 sd 2001 2387 m -1779 X s [] 0 sd 239 2427
 m -17 X s [4 8] 0 sd 2001 2427 m -1779 X s [] 0 sd 239 2461 m -17 X s
 [4 8] 0 sd 2001 2461 m -1779 X s [] 0 sd 222 683 m 1779 X s 222 716 m -33 Y s
 [4 8] 0 sd 222 2461 m -1778 Y s [] 0 sd 307 699 m -16 Y s 392 699 m -16 Y s 476
 699 m -16 Y s 561 716 m -33 Y s [4 8] 0 sd 561 2461 m -1778 Y s [] 0 sd 646 699
 m -16 Y s 730 699 m -16 Y s 815 699 m -16 Y s 900 716 m -33 Y s [4 8] 0 sd 900
 2461 m -1778 Y s [] 0 sd 984 699 m -16 Y s 1069 699 m -16 Y s 1154 699 m -16 Y
 s 1239 716 m -33 Y s [4 8] 0 sd 1239 2461 m -1778 Y s [] 0 sd 1323 699 m -16 Y
 s 1408 699 m -16 Y s 1493 699 m -16 Y s 1577 716 m -33 Y s [4 8] 0 sd 1577 2461
 m -1778 Y s [] 0 sd 1662 699 m -16 Y s 1747 699 m -16 Y s 1831 699 m -16 Y s
 1916 716 m -33 Y s [4 8] 0 sd 1916 2461 m -1778 Y s [] 0 sd 1916 716 m -33 Y s
 [4 8] 0 sd 1916 2461 m -1778 Y s
 /xs 0 def 
(0)
 /Helvetica-Bold     43 stwn 
 gsave  222 629
 t   0 r  xs 2 div neg 0 t 0 0 m
 /Helvetica-Bold findfont   43 sf 0    0 m 
(0)
 show 
 gr
 /xs 0 def 
(0.2)
 /Helvetica-Bold     43 stwn 
 gsave  561 629
 t   0 r  xs 2 div neg 0 t 0 0 m
 /Helvetica-Bold findfont   43 sf 0    0 m 
(0.2)
 show 
 gr
 /xs 0 def 
(0.4)
 /Helvetica-Bold     43 stwn 
 gsave  900 629
 t   0 r  xs 2 div neg 0 t 0 0 m
 /Helvetica-Bold findfont   43 sf 0    0 m 
(0.4)
 show 
 gr
 /xs 0 def 
(0.6)
 /Helvetica-Bold     43 stwn 
 gsave  1239 629
 t   0 r  xs 2 div neg 0 t 0 0 m
 /Helvetica-Bold findfont   43 sf 0    0 m 
(0.6)
 show 
 gr
 /xs 0 def 
(0.8)
 /Helvetica-Bold     43 stwn 
 gsave  1577 629
 t   0 r  xs 2 div neg 0 t 0 0 m
 /Helvetica-Bold findfont   43 sf 0    0 m 
(0.8)
 show 
 gr
 /xs 0 def 
(1)
 /Helvetica-Bold     43 stwn 
 gsave  1916 629
 t   0 r  xs 2 div neg 0 t 0 0 m
 /Helvetica-Bold findfont   43 sf 0    0 m 
(1)
 show 
 gr
 1779 1778 222 683 C 2223 2224 0 460 C
 /xs 0 def 
(Threshold \(x mips\))
 /Helvetica-Bold     43 stwn 
 gsave  2001 563
 t   0 r  xs neg 0 t 0 0 m
 /Helvetica-Bold findfont   43 sf 0    0 m 
(Threshold \(x mips\))
 show 
 gr
 /xs 0 def 
(trigger rate \(kHz\))
 /Helvetica-Bold     43 stwn 
 gsave  67 2461
 t  90 r  xs neg 0 t 0 0 m
 /Helvetica-Bold findfont   43 sf 0    0 m 
(trigger rate \(kHz\))
 show 
 gr
 1779 1778 222 683 C [] 0 sd 222 2448 m 170 -183 d 169 -213 d 169 -213 d 170
 -173 d 169 -178 d 170 -117 d 169 -218 d 169 -282 d 170 X 169 -179 d s /w 20
 def /w2 {w 2 div} def /w3 {w 3 div} def 222 2448 392 2265 561 2052 730 1839 900
 1666 1069 1488 1239 1371 1408 1153 1577 871 1747 871 1916 692 11 { m22} R 2223
 2224 0 460 C 1779 1778 222 683 C 2223 2224 0 460 C
 gsave  900 1536
 t -50 r 0 0 m
 /Helvetica-Bold findfont   61 sf 0    0 m 
(spent 1-2 coincidence)
 show 
 gr
 1779 1778 222 683 C 222 2454 m 170 -132 d 169 -187 d 169 -151 d 170 -167 d 169
 -175 d 170 -121 d 169 -115 d 169 -121 d 170 -58 d 169 -74 d s 222 2454 392 2322
 561 2135 730 1984 900 1817 1069 1642 1239 1521 1408 1406 1577 1285 1747 1227
 1916 1153 11 { m23} R 2223 2224 0 460 C 1779 1778 222 683 C 2223 2224 0 460 C
 gsave  984 1747
 t -30 r 0 0 m
 /Helvetica-Bold findfont   61 sf 0    0 m 
(spent 1-4  coincidence)
 show 
 gr
 1779 1778 222 683 C 222 2227 m 170 -538 d 169 -310 d 169 -238 d 170 -266 d 169
 -335 d 170 143 d 677 X s 222 2227 392 1689 561 1379 730 1141 900 875 1069 540
 1239 683 1408 683 1577 683 1747 683 1916 683 11 { m26} R 2223 2224 0 460 C 1779
 1778 222 683 C 2223 2224 0 460 C
 gsave  476 1401
 t -60 r 0 0 m
 /Helvetica-Bold findfont   61 sf 0    0 m 
(Bhabha 1-2 coincidence)
 show 
 gr
 1779 1778 222 683 C 222 2241 m 170 -468 d 169 -303 d 169 -195 d 170 -199 d 169
 -318 d 170 -145 d 169 X 169 70 d 339 X s 222 2241 392 1773 561 1470 730 1275
 900 1076 1069 758 1239 613 1408 613 1577 683 1747 683 1916 683 11 { m27} R 2223
 2224 0 460 C 1779 1778 222 683 C 2223 2224 0 460 C
 gsave  561 1511
 t -50 r 0 0 m
 /Helvetica-Bold findfont   61 sf 0    0 m 
(Bhabha 1-4 coincidence)
 show 
 gr
 1779 1778 222 683 C gr
showpage gr
gr gr
cleartomark
countdictstack exch sub { end } repeat
restore
%%EndDocument
count tgifopcount0 sub dup 0 gt {{pop} repeat} {pop} ifelse
countdictstack tgifdictcount0 sub dup 0 gt {{end} repeat} {pop} ifelse
tgiflevel0 restore
tgifdict begin

GR
tgifsavedpage restore
end
showpage

%%Trailer
%MatchingCreationDate: Sat Jul 15 17:55:57 2000
%%DocumentFonts: 
%%EOF
