%!
%%BoundingBox: 44 577 320 771
%%Title: hadmass
%%CreationDate: Sun Jan 16 19:51:43 2000
%%Creator: Tgif-3.0J0-p13 by William Chia-Wei Cheng (william@cs.UCLA.edu)

/tgifdict 2 dict def
tgifdict begin

end

%%PageBoundingBox: 44 577 320 771
tgifdict begin
/tgifsavedpage save def

1 setmiterlimit
1 setlinewidth

0 setgray

72 0 mul 72 11.70 mul translate
72 128 div 100.000 mul 100 div dup neg scale

gsave

/tgiforigctm matrix currentmatrix def

% EPS
end
/tgiflevel0 save def
/tgifdictcount0 countdictstack def
/tgifopcount0 count 1 sub def
userdict begin
/showpage {} def
/letter {} def
/legal {} def
/setpagedevice {} def
/a4 {} def
0 setgray 0 setlinecap 1 setlinewidth
0 setlinejoin 10 setmiterlimit [] 0 setdash newpath
1 72 128 div 100.000 mul 100 div div dup neg scale
72 0 mul neg 72 11.70 mul neg translate

25.836 447.571 translate 0.564 0.561 scale 0 rotate

%%BeginDocument: hadmass.epsi
%!PS-Adobe-2.0 EPSF-1.2
save
countdictstack
mark
newpath
/showpage {} def
/s {stroke} def /l {lineto} def /m {moveto} def /t {translate} def
/sw {stringwidth} def /r {rotate} def /rl {roll}  def /R {repeat} def
/d {rlineto} def /rm {rmoveto} def /gr {grestore} def /f {eofill} def
/c {setrgbcolor} def /lw {setlinewidth} def /sd {setdash} def
/cl {closepath} def /sf {scalefont setfont} def /black {0 setgray} def
/box {m dup 0 exch d exch 0 d 0 exch neg d cl} def
/NC{systemdict begin initclip end}def/C{NC box clip newpath}def
/bl {box s} def /bf {box f} def /Y { 0 exch d} def /X { 0 d} def 
/mp {newpath /y exch def /x exch def} def
/side {[w .77 mul w .23 mul] .385 w mul sd w 0 l currentpoint t -144 r} def
/mr {mp x y w2 0 360 arc} def /m24 {mr s} def /m20 {mr f} def
/mb {mp x y w2 add m w2 neg 0 d 0 w neg d w 0 d 0 w d cl} def
/mt {mp x y w2 add m w2 neg w neg d w 0 d cl} def
/m21 {mb f} def /m25 {mb s} def /m22 {mt f} def /m26 {mt s} def
/m23 {mp x y w2 sub m w2 w d w neg 0 d cl f} def
/m27 {mp x y w2 add m w3 neg w2 neg d w3 w2 neg d w3  w2 d cl s} def
/m28 {mp x w2 sub y w2 sub w3 add m w3 0 d 0 w3 neg d w3 0 d 0 w3 d w3 0 d
 0 w3 d w3 neg 0 d 0 w3 d w3 neg 0 d
 0 w3 neg d w3 neg 0 d cl s } def
/m29 {mp gsave x w2 sub y w2 add w3 sub m currentpoint t
 4 {side} repeat cl fill gr} def
/m30 {mp gsave x w2 sub y w2 add w3 sub m currentpoint t
 5 {side} repeat s gr} def
/m31 {mp x y w2 sub m 0 w d x w2 sub y m w 0 d
 x w2 sub y w2 add m w w neg d x w2 sub y w2
 sub m w w d s} def
/m2 {mp x y w2 sub m 0 w d x w2 sub y m w 0 d s} def
/m5 {mp x w2 sub y w2 sub m w w d x w2 sub y w2 add m w w neg d s} def
/DP {/PT exch def gsave 47.2 47.2 scale PT 1  eq { 16 16 1 [ 16 0 0 16 neg 0 16
] { < AA AA 55 55 AA AA 55 55 AA AA 55 55 AA AA 55 55 AA AA 55 55 AA AA 55 55
AA AA 55 55 AA AA 55 55 > } image } if PT 2 eq { 16 16 1 [ 16 0 0 16 neg 0 16
] { < BB BB EE EE BB BB EE EE BB BB EE EE BB BB EE EE BB BB EE EE BB BB EE EE
BB BB EE EE BB BB EE EE > } image } if PT 3 eq { 16 16 1 [ 16 0 0 16 neg 0 16
] { < FF FF BB BB FF FF EE EE FF FF BB BB FF FF EE EE FF FF BB BB FF FF EE EE
FF FF BB BB FF FF EE EE > } image } if PT 4 eq { 16 16 1 [ 16 0 0 16 neg 0 16
] { < DF DF BF BF 7F 7F FE FE FD FD FB FB F7 F7 EF EF DF DF BF BF 7F 7F FE FE
FD FD FB FB F7 F7 EF EF > } image } if PT 5 eq { 16 16 1 [ 16 0 0 16 neg 0 16
] { < 7F 7F BF B F DF DF EF EF F7 F7 FB FB FD FD FE FE 7F 7F BF BF DF DF EF
EF F7 F7 FB FB FD FD FE FE > } image } if PT 6 eq { 16 16 1 [ 16 0 0 16 neg 0
16 ] { < BB BB BB BB BB BB BB BB BB BB BB BB BB BB BB BB BB BB BB BB BB BB BB
BB BB BB BB BB BB BB BB BB > } image } if PT 7 eq { 16 16 1 [ 16 0 0 16 neg 0
16 ] { < FF FF FF FF FF FF 00 00 FF FF FF FF FF FF 00 00 FF FF FF FF FF FF 00
00 FF FF FF FF FF FF 00 00 > } image } if PT 8 eq { 16 16 1 [ 16 0 0 16 neg 0
16 ] { < EE EE 47 47 83 83 C5 C5 EE EE 5C 5C 38 38 74 74 EE EE 47 47 83 83 C5
C5 EE EE 5C 5C 38 38 74 74 > } image } if PT 9 eq { 16 16 1 [ 16 0 0 16 neg 0
16 ] { < EF EF EF EF D7 D7 38 38 FE FE FE FE 7D 7D 83 83 EF EF EF EF D7 D7 38
38  FE FE FE FE 7D 7D 83 83 > } image } if PT 10 eq { 16 16 1 [ 16 0 0 16 neg
0 16 ] { <  EF EF EF EF EF EF 00 00 FE FE FE FE FE FE 00 00 EF EF EF EF EF EF
00 00 FE FE FE FE FE FE 00 00 > } image } if PT 11 eq { 16 16 1 [ 16 0 0 16
neg 0 16 ] { < F7 F7 B6 B6 D5 D5 E3 E3 D5 D5 B6 B6 F7 F7 FF FF 7F 7F 6B 6B 5D
5D 3E 3E 5D 5D 6B 6B 7F 7F FF FF > } image } if PT 12 eq { 16 16 1 [ 16 0 0
16 neg 0 16 ] { < E3 E3 DD DD BE BE BE BE BE BE DD DD E3 E3 FF FF 3E 3E DD DD
EB EB EB EB EB EB DD DD 3E 3E FF FF > } image } if PT 13 eq { 16 16 1 [ 16 0
0 16 neg 0 16 ] { <  FE FE 7D 7D BB BB D7 D7 EF EF D7 D7 BB BB 7D 7D FE FE 7D
7D BB BB D7 D7 EF EF D7 D7 BB BB 7D 7D > } image } if PT 14 eq { 16 16 1 [ 16
0 0 16 neg 0 16 ] { < 00 00 EE EF EE EF EE EF 0E E0 EE EE EE EE EE EE 00 EE
FE EE FE EE FE EE 00 00 FE EF FE EF FE EF > } image } if PT 15 eq { 16 16 1 [
16 0 0 16 neg 0 16 ] { < DD DD AA AA DD DD FF FF 77 77 AA AA 77 77 FF FF DD
DD AA AA DD DD FF FF 77 77 AA AA 77 77 FF FF > } image } if PT 16 eq { 16 16
1 [ 16 0 0 16 neg 0 16 ] { <  F1 F1 EE EE 1F 1F FF FF F1 F1 EE EE 1F 1F FF FF
F1 F1 EE EE 1F 1F FF FF F1 F1 EE EE 1F 1F FF FF > } image } if PT 17 eq { 16
16 1 [ 16 0 0 16 neg 0 16 ] { <  EE EE DD DD BB BB FF FF EE EE DD DD BB BB FF
 FF EE EE DD DD BB BB FF FF EE EE DD DD BB BB FF FF > } image } if PT 18 eq {
16 16 1 [ 16 0 0 16 neg 0 16 ] { <  BB BB DD DD EE EE FF FF BB BB DD DD EE EE
FF FF BB BB DD DD EE EE FF FF BB BB DD DD EE EE FF FF > } image } if PT 19 eq
{ 16 16 1 [ 16 0 0 16 neg 0 16 ] { < 1F FC 67 F3 7B EF BD DE BD DE DE BD E6
B3 F8 0F E6 B3 DE BD BD DE BD DE 7B EF 67 F3 1F FC 7F FF > } image } if PT
20 eq { 16 16 1 [ 16 0 0 16 neg 0 16 ] { < DD DD EE EE EE EE EE EE DD DD BB
BB BB BB BB BB DD DD EE EE EE EE EE EE DD DD BB BB BB BB BB BB > } image }
if PT 21 eq { 16 16 1 [ 16 0 0 16 neg 0 16 ] { < 0E 0E EF EF EF EF EF EF E0
E0 FE FE FE FE FE FE 0E 0E EF EF EF EF EF EF E0 E0 FE FE FE FE FE FE > }
image }  if PT 22 eq { 16 16 1 [ 16 0 0 16 neg 0 16 ] { < 70 70 F7 F7 F7 F7 F7
F7 07 07 7F 7F 7F 7F 7F 7F 70 70 F7 F7 F7 F7 F7 F7 07 07 7F 7F 7F 7F 7F 7F >
} image } if PT 23 eq  { 16 16 1 [ 16 0 0 16 neg 0 16 ] { < AA AA 55 55 A9 A9
D1 D1 E1 E1 D1 D1 A9 A9 55 55 AA AA 55 55 A9 A9 D1 D1 E1 E1 D1 D1 A9 A9 55 55
> } image } if PT 24 eq { 16 16 1 [ 16 0 0 16 neg 0 16 ] { < FF FE FF FC EA
A8 D5 54 EA A8 D5 54 E8 28 D4 54 E8 E8 D4 D4 E8 EA 54 D5 A8 EA 54 D5 00 C0 00
80 > } image } if PT 25 eq {  16 16 1 [ 16 0 0 16 neg 0 16 ] { < FF FE FF FC
FF F8 FF F0 F0 00 F0 00 F0 20 F0 60 F0 E0 F1 E0 F3 E0 F0 00 E0 00 C0 00 80 00
00 00 > } image } if gr } def /FA { /PT exch def gsave clip 0 0 translate 1 1
54 { 1 sub 47.2 mul /Xcurr exch def 1 1 74 { 1 sub 47.2 mul /Ycurr exch def
gsave Xcurr Ycurr translate PT DP gr } for } for gr } def
/reencdict 24 dict def /ReEncode {reencdict begin /nco&na exch def
/nfnam exch def /basefontname exch def /basefontdict basefontname findfont def
/newfont basefontdict maxlength dict def basefontdict {exch dup /FID ne
{dup /Encoding eq {exch dup length array copy newfont 3 1 roll put} {exch
newfont 3 1 roll put} ifelse} {pop pop} ifelse } forall newfont
/FontName nfnam put nco&na aload pop nco&na length 2 idiv {newfont
/Encoding get 3 1 roll put} repeat nfnam newfont definefont pop end } def
/accvec [ 176 /agrave 181 /Agrave 190 /acircumflex 192 /Acircumflex
201 /adieresis 204 /Adieresis 209 /ccedilla 210 /Ccedilla 211 /eacute
212 /Eacute 213 /egrave 214 /Egrave 215 /ecircumflex 216 /Ecircumflex
217 /edieresis 218 /Edieresis 219 /icircumflex 220 /Icircumflex
221 /idieresis 222 /Idieresis 223 /ntilde 224 /Ntilde 226 /ocircumflex
228 /Ocircumflex 229 /odieresis 230 /Odieresis 231 /ucircumflex 236 /Ucircumflex
237 /udieresis 238 /Udieresis 239 /aring 242 /Aring 243 /ydieresis
244 /Ydieresis 246 /aacute 247 /Aacute 252 /ugrave 253 /Ugrave] def
/Times-Roman /Times-Roman accvec ReEncode
/Times-Italic /Times-Italic accvec ReEncode
/Times-Bold /Times-Bold accvec ReEncode
/Times-BoldItalic /Times-BoldItalic accvec ReEncode
/Helvetica /Helvetica accvec ReEncode
/Helvetica-Oblique /Helvetica-Oblique accvec ReEncode
/Helvetica-Bold /Helvetica-Bold accvec ReEncode
/Helvetica-BoldOblique /Helvetica-BoldOblique  accvec ReEncode
/Courier /Courier accvec ReEncode
/Courier-Oblique /Courier-Oblique accvec ReEncode
/Courier-Bold /Courier-Bold accvec ReEncode
/Courier-BoldOblique /Courier-BoldOblique accvec ReEncode
/oshow {gsave [] 0 sd true charpath stroke gr} def
/stwn { /fs exch def /fn exch def /text exch def fn findfont fs sf
 text sw pop xs add /xs exch def} def
/stwb { /fs exch def /fn exch def /nbas exch def /textf exch def
textf length /tlen exch def nbas tlen gt {/nbas tlen def} if
fn findfont fs sf textf dup length nbas sub nbas getinterval sw
pop neg xs add /xs exch def} def
/accspe [ 65 /plusminus 66 /bar 67 /existential 68 /universal
69 /exclam 70 /numbersign 71 /greater 72 /question 73 /integral
74 /colon 75 /semicolon 76 /less 77 /bracketleft 78 /bracketright
79 /greaterequal 80 /braceleft 81 /braceright 82 /radical
83 /spade 84 /heart 85 /diamond 86 /club 87 /lessequal
88 /multiply 89 /percent 90 /infinity 48 /circlemultiply 49 /circleplus
50 /emptyset 51 /lozenge 52 /bullet 53 /arrowright 54 /arrowup
55 /arrowleft 56 /arrowdown 57 /arrowboth 48 /degree 44 /comma 43 /plus
 45 /angle 42 /angleleft 47 /divide 61 /notequal 40 /equivalence 41 /second
 97 /approxequal 98 /congruent 99 /perpendicular 100 /partialdiff 101 /florin
 102 /intersection 103 /union 104 /propersuperset 105 /reflexsuperset
 106 /notsubset 107 /propersubset 108 /reflexsubset 109 /element 110 /notelement
 111 /gradient 112 /logicaland 113 /logicalor 114 /arrowdblboth
 115 /arrowdblleft 116 /arrowdblup 117 /arrowdblright 118 /arrowdbldown
 119 /ampersand 120 /omega1 121 /similar 122 /aleph ] def
/Symbol /Special accspe ReEncode
/Zone {/iy exch def /ix exch def  ix 1 sub  2224 mul  1 iy sub  3144
 mul t} def
 gsave  20 28 t .25 .25 scale  gsave 
 gsave 
 1 1 Zone
 gsave 0 0 t black [] 0 sd 1 lw 1779 1222 222 961 bl 1779 1222 222 961 C 1 1 0 c
 222 961 m 289 X 14 Y 23 X 62 Y 22 X 62 Y 22 X 70 Y 22 X 101 Y 22 X 172 Y 23 X
 207 Y 22 X 266 Y 22 X 146 Y 22 X -108 Y 23 X -183 Y 22 X -254 Y 22 X -138 Y 22
 X -116 Y 23 X -74 Y 22 X -65 Y 22 X -20 Y 22 X -44 Y 22 X -13 Y 23 X -11 Y 22 X
 -12 Y 22 X -11 Y 22 X 11 Y 23 X 8 Y 22 X 26 Y 22 X 52 Y 22 X 95 Y 23 X 75 Y 22
 X -82 Y 22 X -107 Y 22 X -71 Y 22 X -16 Y 23 X -13 Y 22 X -5 Y 22 X -3 Y 22 X
 -7 Y 23 X -14 Y f 5 lw black 222 961 m 289 X 14 Y 23 X 62 Y 22 X 62 Y 22 X 70 Y
 22 X 101 Y 22 X 172 Y 23 X 207 Y 22 X 266 Y 22 X 146 Y 22 X -108 Y 23 X -183 Y
 22 X -254 Y 22 X -138 Y 22 X -116 Y 23 X -74 Y 22 X -65 Y 22 X -20 Y 22 X -44 Y
 22 X -13 Y 23 X -11 Y 22 X -12 Y 22 X -11 Y 22 X 11 Y 23 X 8 Y 22 X 26 Y 22 X
 52 Y 22 X 95 Y 23 X 75 Y 22 X -82 Y 22 X -107 Y 22 X -71 Y 22 X -16 Y 23 X -13
 Y 22 X -5 Y 22 X -3 Y 22 X -7 Y 23 X s 1 lw 1 1 0 c 1312 961 m 12 Y 22 X 1 Y 22
 X -6 Y 22 X 3 Y 23 X -1 Y 22 X 2 Y 22 X 1 Y 22 X -6 Y 22 X 2 Y 45 X -1 Y 22 X 6
 Y 22 X 2 Y 23 X 12 Y 22 X 34 Y 22 X 25 Y 22 X -12 Y 22 X -11 Y 23 X -27 Y 22 X
 -16 Y 22 X -2 Y 22 X -10 Y 23 X 1 Y 22 X -1 Y 22 X -3 Y 45 X -3 Y 22 X 1 Y 22 X
 -2 Y 44 X -1 Y 23 X f 5 lw black 1312 975 m -2 Y 22 X 1 Y 22 X -6 Y 22 X 3 Y 23
 X -1 Y 22 X 2 Y 22 X 1 Y 22 X -6 Y 22 X 2 Y 45 X -1 Y 22 X 6 Y 22 X 2 Y 23 X 12
 Y 22 X 34 Y 22 X 25 Y 22 X -12 Y 22 X -11 Y 23 X -27 Y 22 X -16 Y 22 X -2 Y 22
 X -10 Y 23 X 1 Y 22 X -1 Y 22 X -3 Y 45 X -3 Y 22 X 1 Y 22 X -2 Y 44 X -1 Y 23
 X s NC 1 lw 222 961 m 1222 Y s 256 961 m -34 X s 239 990 m -17 X s 239 1020 m
 -17 X s 239 1049 m -17 X s 239 1079 m -17 X s 256 1108 m -34 X s 239 1138 m -17
 X s 239 1167 m -17 X s 239 1197 m -17 X s 239 1226 m -17 X s 256 1256 m -34 X s
 239 1285 m -17 X s 239 1315 m -17 X s 239 1344 m -17 X s 239 1374 m -17 X s 256
 1403 m -34 X s 239 1433 m -17 X s 239 1462 m -17 X s 239 1491 m -17 X s 239
 1521 m -17 X s 256 1550 m -34 X s 239 1580 m -17 X s 239 1609 m -17 X s 239
 1639 m -17 X s 239 1668 m -17 X s 256 1698 m -34 X s 239 1727 m -17 X s 239
 1757 m -17 X s 239 1786 m -17 X s 239 1816 m -17 X s 256 1845 m -34 X s 239
 1875 m -17 X s 239 1904 m -17 X s 239 1934 m -17 X s 239 1963 m -17 X s 256
 1993 m -34 X s 239 2022 m -17 X s 239 2052 m -17 X s 239 2081 m -17 X s 239
 2111 m -17 X s 256 2140 m -34 X s 256 2140 m -34 X s 239 2170 m -17 X s 162 976
 m -5 -1 d -3 -5 d -1 -7 d -5 Y 1 -7 d 3 -4 d 5 -2 d 3 X 4 2 d 3 4 d 1 7 d 5 Y
 -1 7 d -3 5 d -4 1 d -3 X cl s 161 976 m -4 -2 d -3 -4 d -2 -7 d -5 Y 2 -7 d 3
 -5 d 4 -1 d 3 X 5 1 d 3 5 d 1 7 d 5 Y -1 7 d -3 4 d -5 2 d -3 X cl s 162 977 m
 -5 -2 d -3 -4 d -1 -8 d -4 Y 1 -8 d 3 -4 d 5 -2 d 3 X 4 2 d 3 4 d 2 8 d 4 Y -2
 8 d -3 4 d -4 2 d -3 X cl s 161 976 m -5 -2 d -2 -4 d -2 -8 d -4 Y 2 -8 d 2 -4
 d 5 -2 d 3 X 4 2 d 3 4 d 2 8 d 4 Y -2 8 d -3 4 d -4 2 d -3 X cl s 162 977 m -4
 -2 d -3 -4 d -2 -7 d -5 Y 2 -7 d 3 -5 d 4 -1 d 3 X 5 1 d 3 5 d 1 7 d 5 Y -1 7 d
 -3 4 d -5 2 d -3 X cl s 161 975 m -5 -1 d -3 -5 d -1 -7 d -4 Y 1 -8 d 3 -4 d 5
 -2 d 3 X 4 2 d 3 4 d 1 8 d 4 Y -1 7 d -3 5 d -4 1 d -3 X cl s 162 977 m -4 -1 d
 -3 -5 d -1 -7 d -5 Y 1 -7 d 3 -4 d 4 -2 d 3 X 5 2 d 3 4 d 1 7 d 5 Y -1 7 d -3 5
 d -5 1 d -3 X cl s 160 975 m -4 -1 d -3 -5 d -2 -7 d -5 Y 2 -7 d 3 -5 d 4 -1 d
 3 X 5 1 d 3 5 d 1 7 d 5 Y -1 7 d -3 5 d -5 1 d -3 X cl s 163 977 m -5 -1 d -3
 -4 d -1 -8 d -4 Y 1 -8 d 3 -4 d 5 -2 d 3 X 4 2 d 3 4 d 2 8 d 4 Y -2 8 d -3 4 d
 -4 1 d -3 X cl s 95 1116 m 2 Y 1 3 d 2 1 d 3 2 d 6 X 3 -2 d 1 -1 d 2 -3 d -3 Y
 -2 -3 d -3 -5 d -15 -14 d 21 X s 95 1116 m 1 Y 1 3 d 2 2 d 2 1 d 6 X 3 -1 d 2
 -2 d 1 -3 d -3 Y -1 -2 d -3 -5 d -15 -15 d 21 X s 95 1117 m 1 Y 2 3 d 1 2 d 3 1
 d 6 X 3 -1 d 1 -2 d 2 -3 d -3 Y -2 -3 d -3 -4 d -14 -15 d 20 X s 94 1116 m 1 Y
 2 3 d 1 2 d 3 1 d 6 X 3 -1 d 2 -2 d 1 -3 d -3 Y -1 -3 d -3 -4 d -15 -15 d 20 X
 s 95 1117 m 1 Y 2 3 d 1 2 d 3 1 d 6 X 3 -1 d 2 -2 d 1 -3 d -3 Y -1 -3 d -3 -4 d
 -15 -15 d 21 X s 94 1115 m 2 Y 1 3 d 2 1 d 3 2 d 6 X 3 -2 d 1 -1 d 2 -3 d -3 Y
 -2 -3 d -3 -5 d -15 -14 d 21 X s 96 1117 m 2 Y 1 3 d 2 1 d 3 2 d 6 X 3 -2 d 1
 -1 d 2 -3 d -3 Y -2 -3 d -3 -5 d -15 -15 d 21 X s 94 1115 m 2 Y 1 2 d 2 2 d 3 1
 d 5 X 3 -1 d 2 -2 d 1 -2 d -3 Y -1 -3 d -3 -5 d -15 -15 d 21 X s 96 1118 m 1 Y
 2 3 d 1 1 d 3 2 d 6 X 3 -2 d 1 -1 d 2 -3 d -3 Y -2 -3 d -3 -4 d -14 -15 d 20 X
 s 141 1124 m -15 X -2 -14 d 2 2 d 4 1 d 5 X 4 -1 d 3 -3 d 2 -5 d -3 Y -2 -4 d
 -3 -3 d -4 -1 d -5 X -4 1 d -2 2 d -1 2 d s 140 1123 m -14 X -2 -13 d 2 2 d 4 1
 d 5 X 4 -1 d 3 -3 d 1 -5 d -3 Y -1 -4 d -3 -3 d -4 -2 d -5 X -4 2 d -2 1 d -1 3
 d s 141 1124 m -15 X -1 -13 d 1 1 d 5 2 d 4 X 5 -2 d 3 -3 d 1 -4 d -3 Y -1 -5 d
 -3 -3 d -5 -1 d -4 X -5 1 d -1 2 d -2 3 d s 140 1123 m -15 X -1 -13 d 1 1 d 5 2
 d 4 X 5 -2 d 3 -3 d 1 -4 d -3 Y -1 -5 d -3 -3 d -5 -1 d -4 X -5 1 d -1 2 d -2 3
 d s 141 1124 m -14 X -2 -13 d 2 1 d 4 2 d 4 X 5 -2 d 3 -3 d 1 -4 d -3 Y -1 -4 d
 -3 -3 d -5 -2 d -4 X -4 2 d -2 1 d -1 3 d s 140 1123 m -15 X -1 -14 d 1 2 d 4 1
 d 5 X 4 -1 d 3 -3 d 2 -5 d -2 Y -2 -5 d -3 -3 d -4 -1 d -5 X -4 1 d -1 2 d -2 3
 d s 142 1125 m -15 X -2 -14 d 2 2 d 4 1 d 5 X 4 -1 d 3 -3 d 2 -5 d -3 Y -2 -4 d
 -3 -3 d -4 -2 d -5 X -4 2 d -2 1 d -1 3 d s 140 1122 m -15 X -2 -13 d 2 2 d 4 1
 d 5 X 4 -1 d 3 -3 d 2 -5 d -3 Y -2 -4 d -3 -3 d -4 -2 d -5 X -4 2 d -2 1 d -1 3
 d s 142 1125 m -15 X -1 -13 d 1 1 d 5 2 d 4 X 5 -2 d 3 -3 d 1 -4 d -3 Y -1 -5 d
 -3 -3 d -5 -1 d -4 X -5 1 d -1 2 d -2 3 d s 162 1124 m -5 -2 d -3 -4 d -1 -8 d
 -4 Y 1 -8 d 3 -4 d 5 -1 d 3 X 4 1 d 3 4 d 1 8 d 4 Y -1 8 d -3 4 d -4 2 d -3 X
 cl s 161 1123 m -4 -1 d -3 -5 d -2 -7 d -4 Y 2 -8 d 3 -4 d 4 -2 d 3 X 5 2 d 3 4
 d 1 8 d 4 Y -1 7 d -3 5 d -5 1 d -3 X cl s 162 1124 m -5 -1 d -3 -5 d -1 -7 d
 -5 Y 1 -7 d 3 -5 d 5 -1 d 3 X 4 1 d 3 5 d 2 7 d 5 Y -2 7 d -3 5 d -4 1 d -3 X
 cl s 161 1123 m -5 -1 d -2 -5 d -2 -7 d -5 Y 2 -7 d 2 -5 d 5 -1 d 3 X 4 1 d 3 5
 d 2 7 d 5 Y -2 7 d -3 5 d -4 1 d -3 X cl s 162 1124 m -4 -1 d -3 -5 d -2 -7 d
 -4 Y 2 -8 d 3 -4 d 4 -2 d 3 X 5 2 d 3 4 d 1 8 d 4 Y -1 7 d -3 5 d -5 1 d -3 X
 cl s 161 1123 m -5 -2 d -3 -4 d -1 -8 d -4 Y 1 -7 d 3 -5 d 5 -1 d 3 X 4 1 d 3 5
 d 1 7 d 4 Y -1 8 d -3 4 d -4 2 d -3 X cl s 162 1125 m -4 -2 d -3 -4 d -1 -8 d
 -4 Y 1 -8 d 3 -4 d 4 -2 d 3 X 5 2 d 3 4 d 1 8 d 4 Y -1 8 d -3 4 d -5 2 d -3 X
 cl s 160 1122 m -4 -1 d -3 -4 d -2 -8 d -4 Y 2 -8 d 3 -4 d 4 -2 d 3 X 5 2 d 3 4
 d 1 8 d 4 Y -1 8 d -3 4 d -5 1 d -3 X cl s 163 1125 m -5 -2 d -3 -4 d -1 -7 d
 -5 Y 1 -7 d 3 -5 d 5 -1 d 3 X 4 1 d 3 5 d 2 7 d 5 Y -2 7 d -3 4 d -4 2 d -3 X
 cl s 111 1271 m -15 X -1 -13 d 1 1 d 5 2 d 4 X 5 -2 d 3 -3 d 1 -4 d -3 Y -1 -5
 d -3 -3 d -5 -1 d -4 X -5 1 d -1 2 d -2 3 d s 111 1271 m -15 X -1 -14 d 1 2 d 4
 1 d 5 X 4 -1 d 3 -3 d 2 -4 d -3 Y -2 -5 d -3 -3 d -4 -1 d -5 X -4 1 d -1 2 d -2
 3 d s 111 1271 m -14 X -2 -13 d 2 2 d 4 1 d 5 X 4 -1 d 3 -3 d 1 -5 d -3 Y -1 -4
 d -3 -3 d -4 -2 d -5 X -4 2 d -2 1 d -1 3 d s 111 1271 m -15 X -2 -14 d 2 2 d 4
 1 d 5 X 4 -1 d 3 -3 d 1 -5 d -3 Y -1 -4 d -3 -3 d -4 -2 d -5 X -4 2 d -2 1 d -1
 3 d s 112 1272 m -15 X -2 -14 d 2 2 d 4 1 d 5 X 4 -1 d 3 -3 d 2 -5 d -2 Y -2 -5
 d -3 -3 d -4 -1 d -5 X -4 1 d -2 2 d -1 3 d s 110 1270 m -15 X -1 -13 d 1 1 d 5
 2 d 4 X 5 -2 d 3 -3 d 1 -4 d -3 Y -1 -4 d -3 -3 d -5 -2 d -4 X -5 2 d -1 1 d -2
 3 d s 112 1272 m -15 X -1 -13 d 1 1 d 5 2 d 4 X 5 -2 d 3 -3 d 1 -4 d -3 Y -1 -5
 d -3 -3 d -5 -1 d -4 X -5 1 d -1 2 d -2 3 d s 110 1270 m -15 X -1 -13 d 1 1 d 5
 2 d 4 X 4 -2 d 3 -3 d 2 -4 d -3 Y -2 -5 d -3 -3 d -4 -1 d -4 X -5 1 d -1 2 d -2
 3 d s 112 1272 m -14 X -2 -13 d 2 2 d 4 1 d 4 X 5 -1 d 3 -3 d 1 -5 d -3 Y -1 -4
 d -3 -3 d -5 -2 d -4 X -4 2 d -2 1 d -1 3 d s 132 1271 m -5 -1 d -3 -5 d -1 -7
 d -5 Y 1 -7 d 3 -5 d 5 -1 d 3 X 4 1 d 3 5 d 2 7 d 5 Y -2 7 d -3 5 d -4 1 d -3 X
 cl s 132 1271 m -5 -2 d -3 -4 d -1 -8 d -4 Y 1 -7 d 3 -5 d 5 -1 d 3 X 4 1 d 3 5
 d 1 7 d 4 Y -1 8 d -3 4 d -4 2 d -3 X cl s 132 1271 m -4 -1 d -3 -4 d -2 -8 d
 -4 Y 2 -8 d 3 -4 d 4 -2 d 3 X 5 2 d 3 4 d 1 8 d 4 Y -1 8 d -3 4 d -5 1 d -3 X
 cl s 131 1271 m -4 -2 d -3 -4 d -2 -8 d -4 Y 2 -8 d 3 -4 d 4 -2 d 3 X 5 2 d 3 4
 d 1 8 d 4 Y -1 8 d -3 4 d -5 2 d -3 X cl s 133 1272 m -5 -2 d -3 -4 d -1 -8 d
 -4 Y 1 -7 d 3 -5 d 5 -1 d 2 X 5 1 d 3 5 d 1 7 d 4 Y -1 8 d -3 4 d -5 2 d -2 X
 cl s 131 1270 m -4 -1 d -3 -5 d -2 -7 d -5 Y 2 -7 d 3 -4 d 4 -2 d 3 X 4 2 d 3 4
 d 2 7 d 5 Y -2 7 d -3 5 d -4 1 d -3 X cl s 133 1272 m -5 -1 d -3 -5 d -1 -7 d
 -5 Y 1 -7 d 3 -5 d 5 -1 d 3 X 4 1 d 3 5 d 2 7 d 5 Y -2 7 d -3 5 d -4 1 d -3 X
 cl s 131 1270 m -5 -2 d -3 -4 d -1 -7 d -5 Y 1 -7 d 3 -5 d 5 -1 d 3 X 4 1 d 3 5
 d 2 7 d 5 Y -2 7 d -3 4 d -4 2 d -3 X cl s 133 1272 m -4 -1 d -3 -5 d -2 -7 d
 -4 Y 2 -8 d 3 -4 d 4 -2 d 3 X 5 2 d 3 4 d 1 8 d 4 Y -1 7 d -3 5 d -5 1 d -3 X
 cl s 162 1271 m -5 -1 d -3 -5 d -1 -7 d -5 Y 1 -7 d 3 -5 d 5 -1 d 3 X 4 1 d 3 5
 d 1 7 d 5 Y -1 7 d -3 5 d -4 1 d -3 X cl s 161 1271 m -4 -2 d -3 -4 d -2 -8 d
 -4 Y 2 -7 d 3 -5 d 4 -1 d 3 X 5 1 d 3 5 d 1 7 d 4 Y -1 8 d -3 4 d -5 2 d -3 X
 cl s 162 1271 m -5 -1 d -3 -4 d -1 -8 d -4 Y 1 -8 d 3 -4 d 5 -2 d 3 X 4 2 d 3 4
 d 2 8 d 4 Y -2 8 d -3 4 d -4 1 d -3 X cl s 161 1271 m -5 -2 d -2 -4 d -2 -8 d
 -4 Y 2 -8 d 2 -4 d 5 -2 d 3 X 4 2 d 3 4 d 2 8 d 4 Y -2 8 d -3 4 d -4 2 d -3 X
 cl s 162 1272 m -4 -2 d -3 -4 d -2 -8 d -4 Y 2 -7 d 3 -5 d 4 -1 d 3 X 5 1 d 3 5
 d 1 7 d 4 Y -1 8 d -3 4 d -5 2 d -3 X cl s 161 1270 m -5 -1 d -3 -5 d -1 -7 d
 -5 Y 1 -7 d 3 -4 d 5 -2 d 3 X 4 2 d 3 4 d 1 7 d 5 Y -1 7 d -3 5 d -4 1 d -3 X
 cl s 162 1272 m -4 -1 d -3 -5 d -1 -7 d -5 Y 1 -7 d 3 -5 d 4 -1 d 3 X 5 1 d 3 5
 d 1 7 d 5 Y -1 7 d -3 5 d -5 1 d -3 X cl s 160 1270 m -4 -2 d -3 -4 d -2 -7 d
 -5 Y 2 -7 d 3 -5 d 4 -1 d 3 X 5 1 d 3 5 d 1 7 d 5 Y -1 7 d -3 4 d -5 2 d -3 X
 cl s 163 1272 m -5 -1 d -3 -5 d -1 -7 d -4 Y 1 -8 d 3 -4 d 5 -2 d 3 X 4 2 d 3 4
 d 2 8 d 4 Y -2 7 d -3 5 d -4 1 d -3 X cl s 114 1419 m -15 -32 d s 114 1418 m
 -15 -31 d s 114 1419 m -14 -31 d s 113 1418 m -14 -31 d s 115 1419 m -15 -31 d
 s 113 1418 m -15 -31 d s 115 1420 m -15 -32 d s 113 1417 m -15 -31 d s 115 1420
 m -14 -31 d s 93 1419 m 21 X s 93 1418 m 21 X s 94 1419 m 20 X s 93 1418 m 20 X
 s 94 1419 m 21 X s 92 1418 m 21 X s 94 1420 m 21 X s 92 1417 m 21 X s 95 1420 m
 20 X s 141 1419 m -15 X -2 -14 d 2 2 d 4 1 d 5 X 4 -1 d 3 -3 d 2 -5 d -3 Y -2
 -4 d -3 -3 d -4 -2 d -5 X -4 2 d -2 1 d -1 3 d s 140 1418 m -14 X -2 -13 d 2 1
 d 4 2 d 5 X 4 -2 d 3 -3 d 1 -4 d -3 Y -1 -4 d -3 -3 d -4 -2 d -5 X -4 2 d -2 1
 d -1 3 d s 141 1419 m -15 X -1 -13 d 1 1 d 5 2 d 4 X 5 -2 d 3 -3 d 1 -4 d -3 Y
 -1 -5 d -3 -3 d -5 -1 d -4 X -5 1 d -1 2 d -2 3 d s 140 1418 m -15 X -1 -13 d 1
 1 d 5 2 d 4 X 5 -2 d 3 -3 d 1 -4 d -3 Y -1 -5 d -3 -3 d -5 -1 d -4 X -5 1 d -1
 2 d -2 3 d s 141 1419 m -14 X -2 -13 d 2 1 d 4 2 d 4 X 5 -2 d 3 -3 d 1 -4 d -3
 Y -1 -4 d -3 -3 d -5 -2 d -4 X -4 2 d -2 1 d -1 3 d s 140 1418 m -15 X -1 -14 d
 1 2 d 4 1 d 5 X 4 -1 d 3 -3 d 2 -5 d -3 Y -2 -4 d -3 -3 d -4 -1 d -5 X -4 1 d
 -1 1 d -2 3 d s 142 1420 m -15 X -2 -14 d 2 2 d 4 1 d 5 X 4 -1 d 3 -3 d 2 -5 d
 -3 Y -2 -4 d -3 -3 d -4 -2 d -5 X -4 2 d -2 1 d -1 3 d s 140 1417 m -15 X -2
 -13 d 2 1 d 4 2 d 5 X 4 -2 d 3 -2 d 2 -5 d -3 Y -2 -4 d -3 -3 d -4 -2 d -5 X -4
 2 d -2 1 d -1 3 d s 142 1420 m -15 X -1 -14 d 1 2 d 5 1 d 4 X 5 -1 d 3 -3 d 1
 -4 d -3 Y -1 -5 d -3 -3 d -5 -1 d -4 X -5 1 d -1 2 d -2 3 d s 162 1419 m -5 -2
 d -3 -4 d -1 -8 d -4 Y 1 -8 d 3 -4 d 5 -2 d 3 X 4 2 d 3 4 d 1 8 d 4 Y -1 8 d -3
 4 d -4 2 d -3 X cl s 161 1418 m -4 -1 d -3 -5 d -2 -7 d -5 Y 2 -7 d 3 -4 d 4 -2
 d 3 X 5 2 d 3 4 d 1 7 d 5 Y -1 7 d -3 5 d -5 1 d -3 X cl s 162 1419 m -5 -2 d
 -3 -4 d -1 -7 d -5 Y 1 -7 d 3 -5 d 5 -1 d 3 X 4 1 d 3 5 d 2 7 d 5 Y -2 7 d -3 4
 d -4 2 d -3 X cl s 161 1418 m -5 -2 d -2 -4 d -2 -7 d -5 Y 2 -7 d 2 -5 d 5 -1 d
 3 X 4 1 d 3 5 d 2 7 d 5 Y -2 7 d -3 4 d -4 2 d -3 X cl s 162 1419 m -4 -1 d -3
 -5 d -2 -7 d -5 Y 2 -7 d 3 -4 d 4 -2 d 3 X 5 2 d 3 4 d 1 7 d 5 Y -1 7 d -3 5 d
 -5 1 d -3 X cl s 161 1418 m -5 -2 d -3 -4 d -1 -8 d -4 Y 1 -8 d 3 -4 d 5 -1 d 3
 X 4 1 d 3 4 d 1 8 d 4 Y -1 8 d -3 4 d -4 2 d -3 X cl s 162 1420 m -4 -2 d -3 -4
 d -1 -8 d -4 Y 1 -8 d 3 -4 d 4 -2 d 3 X 5 2 d 3 4 d 1 8 d 4 Y -1 8 d -3 4 d -5
 2 d -3 X cl s 160 1417 m -4 -1 d -3 -5 d -2 -7 d -4 Y 2 -8 d 3 -4 d 4 -2 d 3 X
 5 2 d 3 4 d 1 8 d 4 Y -1 7 d -3 5 d -5 1 d -3 X cl s 163 1420 m -5 -2 d -3 -4 d
 -1 -8 d -4 Y 1 -7 d 3 -5 d 5 -1 d 3 X 4 1 d 3 5 d 2 7 d 4 Y -2 8 d -3 4 d -4 2
 d -3 X cl s 68 1560 m 3 2 d 5 4 d -31 Y s 68 1560 m 3 1 d 4 5 d -31 Y s 68 1560
 m 3 2 d 5 4 d -31 Y s 68 1559 m 3 2 d 4 4 d -31 Y s 69 1561 m 3 1 d 4 5 d -31 Y
 s 67 1559 m 3 2 d 5 4 d -31 Y s 69 1561 m 3 2 d 5 4 d -31 Y s 67 1559 m 3 1 d 4
 5 d -31 Y s 69 1561 m 3 2 d 5 4 d -31 Y s 102 1566 m -4 -1 d -3 -5 d -2 -7 d -5
 Y 2 -7 d 3 -5 d 4 -1 d 3 X 5 1 d 3 5 d 1 7 d 5 Y -1 7 d -3 5 d -5 1 d -3 X cl s
 102 1566 m -4 -2 d -3 -4 d -2 -8 d -4 Y 2 -7 d 3 -5 d 4 -1 d 3 X 4 1 d 3 5 d 2
 7 d 4 Y -2 8 d -3 4 d -4 2 d -3 X cl s 103 1566 m -5 -1 d -3 -5 d -1 -7 d -4 Y
 1 -8 d 3 -4 d 5 -2 d 3 X 4 2 d 3 4 d 1 8 d 4 Y -1 7 d -3 5 d -4 1 d -3 X cl s
 102 1565 m -5 -1 d -3 -5 d -1 -7 d -4 Y 1 -8 d 3 -4 d 5 -2 d 3 X 4 2 d 3 4 d 1
 8 d 4 Y -1 7 d -3 5 d -4 1 d -3 X cl s 103 1567 m -5 -2 d -3 -4 d -1 -8 d -4 Y
 1 -8 d 3 -4 d 5 -1 d 3 X 4 1 d 3 4 d 2 8 d 4 Y -2 8 d -3 4 d -4 2 d -3 X cl s
 101 1565 m -4 -1 d -3 -5 d -2 -7 d -5 Y 2 -7 d 3 -5 d 4 -1 d 3 X 5 1 d 3 5 d 1
 7 d 5 Y -1 7 d -3 5 d -5 1 d -3 X cl s 103 1567 m -4 -2 d -3 -4 d -2 -7 d -5 Y
 2 -7 d 3 -5 d 4 -1 d 3 X 5 1 d 3 5 d 1 7 d 5 Y -1 7 d -3 4 d -5 2 d -3 X cl s
 101 1565 m -4 -2 d -3 -4 d -2 -8 d -4 Y 2 -7 d 3 -5 d 4 -1 d 3 X 4 1 d 3 5 d 2
 7 d 4 Y -2 8 d -3 4 d -4 2 d -3 X cl s 104 1567 m -5 -1 d -3 -5 d -1 -7 d -5 Y
 1 -7 d 3 -4 d 5 -2 d 2 X 5 2 d 3 4 d 1 7 d 5 Y -1 7 d -3 5 d -5 1 d -2 X cl s
 132 1566 m -5 -1 d -3 -5 d -1 -7 d -5 Y 1 -7 d 3 -5 d 5 -1 d 3 X 4 1 d 3 5 d 2
 7 d 5 Y -2 7 d -3 5 d -4 1 d -3 X cl s 132 1566 m -5 -2 d -3 -4 d -1 -8 d -4 Y
 1 -7 d 3 -5 d 5 -1 d 3 X 4 1 d 3 5 d 1 7 d 4 Y -1 8 d -3 4 d -4 2 d -3 X cl s
 132 1566 m -4 -1 d -3 -5 d -2 -7 d -4 Y 2 -8 d 3 -4 d 4 -2 d 3 X 5 2 d 3 4 d 1
 8 d 4 Y -1 7 d -3 5 d -5 1 d -3 X cl s 131 1565 m -4 -1 d -3 -5 d -2 -7 d -4 Y
 2 -8 d 3 -4 d 4 -2 d 3 X 5 2 d 3 4 d 1 8 d 4 Y -1 7 d -3 5 d -5 1 d -3 X cl s
 133 1567 m -5 -2 d -3 -4 d -1 -8 d -4 Y 1 -8 d 3 -4 d 5 -1 d 2 X 5 1 d 3 4 d 1
 8 d 4 Y -1 8 d -3 4 d -5 2 d -2 X cl s 131 1565 m -4 -1 d -3 -5 d -2 -7 d -5 Y
 2 -7 d 3 -5 d 4 -1 d 3 X 4 1 d 3 5 d 2 7 d 5 Y -2 7 d -3 5 d -4 1 d -3 X cl s
 133 1567 m -5 -2 d -3 -4 d -1 -7 d -5 Y 1 -7 d 3 -5 d 5 -1 d 3 X 4 1 d 3 5 d 2
 7 d 5 Y -2 7 d -3 4 d -4 2 d -3 X cl s 131 1565 m -5 -2 d -3 -4 d -1 -8 d -4 Y
 1 -7 d 3 -5 d 5 -1 d 3 X 4 1 d 3 5 d 2 7 d 4 Y -2 8 d -3 4 d -4 2 d -3 X cl s
 133 1567 m -4 -1 d -3 -5 d -2 -7 d -5 Y 2 -7 d 3 -4 d 4 -2 d 3 X 5 2 d 3 4 d 1
 7 d 5 Y -1 7 d -3 5 d -5 1 d -3 X cl s 162 1566 m -5 -1 d -3 -5 d -1 -7 d -5 Y
 1 -7 d 3 -5 d 5 -1 d 3 X 4 1 d 3 5 d 1 7 d 5 Y -1 7 d -3 5 d -4 1 d -3 X cl s
 161 1566 m -4 -2 d -3 -4 d -2 -8 d -4 Y 2 -7 d 3 -5 d 4 -1 d 3 X 5 1 d 3 5 d 1
 7 d 4 Y -1 8 d -3 4 d -5 2 d -3 X cl s 162 1566 m -5 -1 d -3 -5 d -1 -7 d -4 Y
 1 -8 d 3 -4 d 5 -2 d 3 X 4 2 d 3 4 d 2 8 d 4 Y -2 7 d -3 5 d -4 1 d -3 X cl s
 161 1565 m -5 -1 d -2 -5 d -2 -7 d -4 Y 2 -8 d 2 -4 d 5 -2 d 3 X 4 2 d 3 4 d 2
 8 d 4 Y -2 7 d -3 5 d -4 1 d -3 X cl s 162 1567 m -4 -2 d -3 -4 d -2 -8 d -4 Y
 2 -8 d 3 -4 d 4 -1 d 3 X 5 1 d 3 4 d 1 8 d 4 Y -1 8 d -3 4 d -5 2 d -3 X cl s
 161 1565 m -5 -1 d -3 -5 d -1 -7 d -5 Y 1 -7 d 3 -5 d 5 -1 d 3 X 4 1 d 3 5 d 1
 7 d 5 Y -1 7 d -3 5 d -4 1 d -3 X cl s 162 1567 m -4 -2 d -3 -4 d -1 -7 d -5 Y
 1 -7 d 3 -5 d 4 -1 d 3 X 5 1 d 3 5 d 1 7 d 5 Y -1 7 d -3 4 d -5 2 d -3 X cl s
 160 1565 m -4 -2 d -3 -4 d -2 -8 d -4 Y 2 -7 d 3 -5 d 4 -1 d 3 X 5 1 d 3 5 d 1
 7 d 4 Y -1 8 d -3 4 d -5 2 d -3 X cl s 163 1567 m -5 -1 d -3 -5 d -1 -7 d -5 Y
 1 -7 d 3 -4 d 5 -2 d 3 X 4 2 d 3 4 d 2 7 d 5 Y -2 7 d -3 5 d -4 1 d -3 X cl s
 68 1708 m 3 1 d 5 4 d -31 Y s 68 1707 m 3 2 d 4 4 d -31 Y s 68 1708 m 3 1 d 5 5
 d -31 Y s 68 1707 m 3 1 d 4 5 d -31 Y s 69 1708 m 3 2 d 4 4 d -31 Y s 67 1707 m
 3 1 d 5 5 d -32 Y s 69 1708 m 3 2 d 5 4 d -31 Y s 67 1706 m 3 2 d 4 4 d -31 Y s
 69 1709 m 3 1 d 5 5 d -31 Y s 95 1706 m 2 Y 1 3 d 2 1 d 3 1 d 6 X 3 -1 d 1 -1 d
 2 -3 d -3 Y -2 -3 d -3 -5 d -15 -15 d 21 X s 95 1706 m 1 Y 1 3 d 2 2 d 2 1 d 6
 X 3 -1 d 2 -2 d 1 -3 d -3 Y -1 -3 d -3 -4 d -15 -15 d 21 X s 95 1706 m 2 Y 2 3
 d 1 1 d 3 2 d 6 X 3 -2 d 1 -1 d 2 -3 d -3 Y -2 -3 d -3 -4 d -14 -15 d 20 X s 94
 1705 m 2 Y 2 3 d 1 1 d 3 2 d 6 X 3 -2 d 2 -1 d 1 -3 d -3 Y -1 -3 d -3 -4 d -15
 -15 d 20 X s 95 1707 m 1 Y 2 3 d 1 2 d 3 1 d 6 X 3 -1 d 2 -2 d 1 -3 d -3 Y -1
 -3 d -3 -4 d -15 -15 d 21 X s 94 1705 m 2 Y 1 3 d 2 1 d 3 2 d 6 X 3 -2 d 1 -1 d
 2 -3 d -3 Y -2 -3 d -3 -5 d -15 -15 d 21 X s 96 1707 m 1 Y 1 3 d 2 2 d 3 1 d 6
 X 3 -1 d 1 -2 d 2 -3 d -2 Y -2 -3 d -3 -5 d -15 -15 d 21 X s 94 1705 m 1 Y 1 3
 d 2 2 d 3 1 d 5 X 3 -1 d 2 -2 d 1 -3 d -3 Y -1 -3 d -3 -4 d -15 -15 d 21 X s 96
 1707 m 2 Y 2 3 d 1 1 d 3 2 d 6 X 3 -2 d 1 -1 d 2 -3 d -3 Y -2 -3 d -3 -5 d -14
 -14 d 20 X s 141 1713 m -15 X -2 -13 d 2 2 d 4 1 d 5 X 4 -1 d 3 -3 d 2 -5 d -3
 Y -2 -4 d -3 -3 d -4 -2 d -5 X -4 2 d -2 1 d -1 3 d s 140 1713 m -14 X -2 -13 d
 2 1 d 4 2 d 5 X 4 -2 d 3 -3 d 1 -4 d -3 Y -1 -4 d -3 -3 d -4 -2 d -5 X -4 2 d
 -2 1 d -1 3 d s 141 1714 m -15 X -1 -14 d 1 2 d 5 1 d 4 X 5 -1 d 3 -3 d 1 -4 d
 -3 Y -1 -5 d -3 -3 d -5 -1 d -4 X -5 1 d -1 2 d -2 3 d s 140 1713 m -15 X -1
 -13 d 1 1 d 5 1 d 4 X 5 -1 d 3 -3 d 1 -4 d -3 Y -1 -5 d -3 -3 d -5 -1 d -4 X -5
 1 d -1 2 d -2 3 d s 141 1714 m -14 X -2 -13 d 2 1 d 4 2 d 4 X 5 -2 d 3 -3 d 1
 -4 d -3 Y -1 -5 d -3 -3 d -5 -1 d -4 X -4 1 d -2 2 d -1 3 d s 140 1713 m -15 X
 -1 -14 d 1 2 d 4 1 d 5 X 4 -1 d 3 -3 d 2 -5 d -3 Y -2 -4 d -3 -3 d -4 -2 d -5 X
 -4 2 d -1 1 d -2 3 d s 142 1714 m -15 X -2 -13 d 2 2 d 4 1 d 5 X 4 -1 d 3 -3 d
 2 -5 d -3 Y -2 -4 d -3 -3 d -4 -2 d -5 X -4 2 d -2 1 d -1 3 d s 140 1712 m -15
 X -2 -13 d 2 1 d 4 2 d 5 X 4 -2 d 3 -3 d 2 -4 d -3 Y -2 -4 d -3 -3 d -4 -2 d -5
 X -4 2 d -2 1 d -1 3 d s 142 1715 m -15 X -1 -14 d 1 2 d 5 1 d 4 X 5 -1 d 3 -3
 d 1 -5 d -2 Y -1 -5 d -3 -3 d -5 -1 d -4 X -5 1 d -1 2 d -2 3 d s 162 1713 m -5
 -1 d -3 -4 d -1 -8 d -4 Y 1 -8 d 3 -4 d 5 -2 d 3 X 4 2 d 3 4 d 1 8 d 4 Y -1 8 d
 -3 4 d -4 1 d -3 X cl s 161 1713 m -4 -1 d -3 -5 d -2 -7 d -5 Y 2 -7 d 3 -4 d 4
 -2 d 3 X 5 2 d 3 4 d 1 7 d 5 Y -1 7 d -3 5 d -5 1 d -3 X cl s 162 1714 m -5 -2
 d -3 -4 d -1 -8 d -4 Y 1 -7 d 3 -5 d 5 -1 d 3 X 4 1 d 3 5 d 2 7 d 4 Y -2 8 d -3
 4 d -4 2 d -3 X cl s 161 1713 m -5 -2 d -2 -4 d -2 -7 d -5 Y 2 -7 d 2 -5 d 5 -1
 d 3 X 4 1 d 3 5 d 2 7 d 5 Y -2 7 d -3 4 d -4 2 d -3 X cl s 162 1714 m -4 -1 d
 -3 -5 d -2 -7 d -5 Y 2 -7 d 3 -5 d 4 -1 d 3 X 5 1 d 3 5 d 1 7 d 5 Y -1 7 d -3 5
 d -5 1 d -3 X cl s 161 1713 m -5 -2 d -3 -4 d -1 -8 d -4 Y 1 -8 d 3 -4 d 5 -2 d
 3 X 4 2 d 3 4 d 1 8 d 4 Y -1 8 d -3 4 d -4 2 d -3 X cl s 162 1714 m -4 -1 d -3
 -5 d -1 -7 d -4 Y 1 -8 d 3 -4 d 4 -2 d 3 X 5 2 d 3 4 d 1 8 d 4 Y -1 7 d -3 5 d
 -5 1 d -3 X cl s 160 1712 m -4 -1 d -3 -5 d -2 -7 d -5 Y 2 -7 d 3 -4 d 4 -2 d 3
 X 5 2 d 3 4 d 1 7 d 5 Y -1 7 d -3 5 d -5 1 d -3 X cl s 163 1715 m -5 -2 d -3 -4
 d -1 -8 d -4 Y 1 -7 d 3 -5 d 5 -1 d 3 X 4 1 d 3 5 d 2 7 d 4 Y -2 8 d -3 4 d -4
 2 d -3 X cl s 68 1855 m 3 1 d 5 5 d -31 Y s 68 1855 m 3 1 d 4 5 d -31 Y s 68
 1855 m 3 2 d 5 4 d -31 Y s 68 1854 m 3 2 d 4 4 d -31 Y s 69 1856 m 3 1 d 4 5 d
 -32 Y s 67 1854 m 3 2 d 5 4 d -31 Y s 69 1856 m 3 1 d 5 5 d -31 Y s 67 1854 m 3
 1 d 4 5 d -31 Y s 69 1856 m 3 2 d 5 4 d -31 Y s 111 1861 m -15 X -1 -13 d 1 1 d
 5 2 d 4 X 5 -2 d 3 -3 d 1 -4 d -3 Y -1 -5 d -3 -3 d -5 -1 d -4 X -5 1 d -1 2 d
 -2 3 d s 111 1861 m -15 X -1 -14 d 1 2 d 4 1 d 5 X 4 -1 d 3 -3 d 2 -5 d -3 Y -2
 -4 d -3 -3 d -4 -1 d -5 X -4 1 d -1 1 d -2 3 d s 111 1861 m -14 X -2 -13 d 2 1
 d 4 2 d 5 X 4 -2 d 3 -3 d 1 -4 d -3 Y -1 -4 d -3 -3 d -4 -2 d -5 X -4 2 d -2 1
 d -1 3 d s 111 1860 m -15 X -2 -13 d 2 1 d 4 2 d 5 X 4 -2 d 3 -2 d 1 -5 d -3 Y
 -1 -4 d -3 -3 d -4 -2 d -5 X -4 2 d -2 1 d -1 3 d s 112 1862 m -15 X -2 -14 d 2
 2 d 4 1 d 5 X 4 -1 d 3 -3 d 2 -5 d -3 Y -2 -4 d -3 -3 d -4 -2 d -5 X -4 2 d -2
 1 d -1 3 d s 110 1860 m -15 X -1 -13 d 1 1 d 5 2 d 4 X 5 -2 d 3 -3 d 1 -4 d -3
 Y -1 -5 d -3 -3 d -5 -1 d -4 X -5 1 d -1 2 d -2 3 d s 112 1862 m -15 X -1 -13 d
 1 1 d 5 2 d 4 X 5 -2 d 3 -3 d 1 -4 d -3 Y -1 -5 d -3 -3 d -5 -1 d -4 X -5 1 d
 -1 2 d -2 3 d s 110 1860 m -15 X -1 -14 d 1 2 d 5 1 d 4 X 4 -1 d 3 -3 d 2 -5 d
 -3 Y -2 -4 d -3 -3 d -4 -1 d -4 X -5 1 d -1 2 d -2 3 d s 112 1862 m -14 X -2
 -13 d 2 1 d 4 2 d 4 X 5 -2 d 3 -3 d 1 -4 d -3 Y -1 -4 d -3 -3 d -5 -2 d -4 X -4
 2 d -2 1 d -1 3 d s 132 1861 m -5 -2 d -3 -4 d -1 -7 d -5 Y 1 -7 d 3 -5 d 5 -1
 d 3 X 4 1 d 3 5 d 2 7 d 5 Y -2 7 d -3 4 d -4 2 d -3 X cl s 132 1861 m -5 -2 d
 -3 -4 d -1 -8 d -4 Y 1 -8 d 3 -4 d 5 -1 d 3 X 4 1 d 3 4 d 1 8 d 4 Y -1 8 d -3 4
 d -4 2 d -3 X cl s 132 1861 m -4 -1 d -3 -5 d -2 -7 d -5 Y 2 -7 d 3 -4 d 4 -2 d
 3 X 5 2 d 3 4 d 1 7 d 5 Y -1 7 d -3 5 d -5 1 d -3 X cl s 131 1860 m -4 -1 d -3
 -5 d -2 -7 d -4 Y 2 -8 d 3 -4 d 4 -2 d 3 X 5 2 d 3 4 d 1 8 d 4 Y -1 7 d -3 5 d
 -5 1 d -3 X cl s 133 1862 m -5 -2 d -3 -4 d -1 -8 d -4 Y 1 -8 d 3 -4 d 5 -2 d 2
 X 5 2 d 3 4 d 1 8 d 4 Y -1 8 d -3 4 d -5 2 d -2 X cl s 131 1860 m -4 -1 d -3 -5
 d -2 -7 d -5 Y 2 -7 d 3 -5 d 4 -1 d 3 X 4 1 d 3 5 d 2 7 d 5 Y -2 7 d -3 5 d -4
 1 d -3 X cl s 133 1862 m -5 -2 d -3 -4 d -1 -7 d -5 Y 1 -7 d 3 -5 d 5 -1 d 3 X
 4 1 d 3 5 d 2 7 d 5 Y -2 7 d -3 4 d -4 2 d -3 X cl s 131 1860 m -5 -2 d -3 -4 d
 -1 -8 d -4 Y 1 -7 d 3 -5 d 5 -1 d 3 X 4 1 d 3 5 d 2 7 d 4 Y -2 8 d -3 4 d -4 2
 d -3 X cl s 133 1862 m -4 -1 d -3 -5 d -2 -7 d -5 Y 2 -7 d 3 -4 d 4 -2 d 3 X 5
 2 d 3 4 d 1 7 d 5 Y -1 7 d -3 5 d -5 1 d -3 X cl s 162 1861 m -5 -2 d -3 -4 d
 -1 -7 d -5 Y 1 -7 d 3 -5 d 5 -1 d 3 X 4 1 d 3 5 d 1 7 d 5 Y -1 7 d -3 4 d -4 2
 d -3 X cl s 161 1861 m -4 -2 d -3 -4 d -2 -8 d -4 Y 2 -8 d 3 -4 d 4 -1 d 3 X 5
 1 d 3 4 d 1 8 d 4 Y -1 8 d -3 4 d -5 2 d -3 X cl s 162 1861 m -5 -1 d -3 -5 d
 -1 -7 d -5 Y 1 -7 d 3 -4 d 5 -2 d 3 X 4 2 d 3 4 d 2 7 d 5 Y -2 7 d -3 5 d -4 1
 d -3 X cl s 161 1860 m -5 -1 d -2 -5 d -2 -7 d -4 Y 2 -8 d 2 -4 d 5 -2 d 3 X 4
 2 d 3 4 d 2 8 d 4 Y -2 7 d -3 5 d -4 1 d -3 X cl s 162 1862 m -4 -2 d -3 -4 d
 -2 -8 d -4 Y 2 -8 d 3 -4 d 4 -2 d 3 X 5 2 d 3 4 d 1 8 d 4 Y -1 8 d -3 4 d -5 2
 d -3 X cl s 161 1860 m -5 -1 d -3 -5 d -1 -7 d -5 Y 1 -7 d 3 -5 d 5 -1 d 3 X 4
 1 d 3 5 d 1 7 d 5 Y -1 7 d -3 5 d -4 1 d -3 X cl s 162 1862 m -4 -2 d -3 -4 d
 -1 -7 d -5 Y 1 -7 d 3 -5 d 4 -1 d 3 X 5 1 d 3 5 d 1 7 d 5 Y -1 7 d -3 4 d -5 2
 d -3 X cl s 160 1860 m -4 -2 d -3 -4 d -2 -8 d -4 Y 2 -7 d 3 -5 d 4 -1 d 3 X 5
 1 d 3 5 d 1 7 d 4 Y -1 8 d -3 4 d -5 2 d -3 X cl s 163 1862 m -5 -1 d -3 -5 d
 -1 -7 d -5 Y 1 -7 d 3 -4 d 5 -2 d 3 X 4 2 d 3 4 d 2 7 d 5 Y -2 7 d -3 5 d -4 1
 d -3 X cl s 68 2002 m 3 2 d 5 4 d -31 Y s 68 2002 m 3 2 d 4 4 d -31 Y s 68 2003
 m 3 1 d 5 5 d -31 Y s 68 2002 m 3 1 d 4 5 d -31 Y s 69 2003 m 3 2 d 4 4 d -31 Y
 s 67 2002 m 3 1 d 5 4 d -31 Y s 69 2003 m 3 2 d 5 4 d -31 Y s 67 2001 m 3 2 d 4
 4 d -31 Y s 69 2004 m 3 1 d 5 5 d -31 Y s 114 2008 m -15 -31 d s 114 2008 m -15
 -31 d s 114 2009 m -14 -31 d s 113 2008 m -14 -31 d s 115 2009 m -15 -31 d s
 113 2007 m -15 -31 d s 115 2009 m -15 -31 d s 113 2007 m -15 -31 d s 115 2010 m
 -14 -31 d s 93 2008 m 21 X s 93 2008 m 21 X s 94 2009 m 20 X s 93 2008 m 20 X s
 94 2009 m 21 X s 92 2007 m 21 X s 94 2009 m 21 X s 92 2007 m 21 X s 95 2010 m
 20 X s 141 2008 m -15 X -2 -13 d 2 2 d 4 1 d 5 X 4 -1 d 3 -3 d 2 -5 d -3 Y -2
 -4 d -3 -3 d -4 -2 d -5 X -4 2 d -2 1 d -1 3 d s 140 2008 m -14 X -2 -13 d 2 1
 d 4 2 d 5 X 4 -2 d 3 -3 d 1 -4 d -3 Y -1 -5 d -3 -3 d -4 -1 d -5 X -4 1 d -2 2
 d -1 3 d s 141 2009 m -15 X -1 -14 d 1 2 d 5 1 d 4 X 5 -1 d 3 -3 d 1 -5 d -3 Y
 -1 -4 d -3 -3 d -5 -1 d -4 X -5 1 d -1 2 d -2 3 d s 140 2008 m -15 X -1 -14 d 1
 2 d 5 1 d 4 X 5 -1 d 3 -3 d 1 -4 d -3 Y -1 -5 d -3 -3 d -5 -1 d -4 X -5 1 d -1
 2 d -2 3 d s 141 2009 m -14 X -2 -13 d 2 1 d 4 2 d 4 X 5 -2 d 3 -3 d 1 -4 d -3
 Y -1 -5 d -3 -3 d -5 -1 d -4 X -4 1 d -2 2 d -1 3 d s 140 2007 m -15 X -1 -13 d
 1 2 d 4 1 d 5 X 4 -1 d 3 -3 d 2 -5 d -3 Y -2 -4 d -3 -3 d -4 -2 d -5 X -4 2 d
 -1 1 d -2 3 d s 142 2009 m -15 X -2 -13 d 2 1 d 4 2 d 5 X 4 -2 d 3 -2 d 2 -5 d
 -3 Y -2 -4 d -3 -3 d -4 -2 d -5 X -4 2 d -2 1 d -1 3 d s 140 2007 m -15 X -2
 -13 d 2 1 d 4 2 d 5 X 4 -2 d 3 -3 d 2 -4 d -3 Y -2 -5 d -3 -2 d -4 -2 d -5 X -4
 2 d -2 1 d -1 3 d s 142 2010 m -15 X -1 -14 d 1 2 d 5 1 d 4 X 5 -1 d 3 -3 d 1
 -5 d -3 Y -1 -4 d -3 -3 d -5 -1 d -4 X -5 1 d -1 1 d -2 3 d s 162 2008 m -5 -1
 d -3 -5 d -1 -7 d -4 Y 1 -8 d 3 -4 d 5 -2 d 3 X 4 2 d 3 4 d 1 8 d 4 Y -1 7 d -3
 5 d -4 1 d -3 X cl s 161 2008 m -4 -1 d -3 -5 d -2 -7 d -5 Y 2 -7 d 3 -5 d 4 -1
 d 3 X 5 1 d 3 5 d 1 7 d 5 Y -1 7 d -3 5 d -5 1 d -3 X cl s 162 2009 m -5 -2 d
 -3 -4 d -1 -8 d -4 Y 1 -7 d 3 -5 d 5 -1 d 3 X 4 1 d 3 5 d 2 7 d 4 Y -2 8 d -3 4
 d -4 2 d -3 X cl s 161 2008 m -5 -2 d -2 -4 d -2 -8 d -4 Y 2 -7 d 2 -5 d 5 -1 d
 3 X 4 1 d 3 5 d 2 7 d 4 Y -2 8 d -3 4 d -4 2 d -3 X cl s 162 2009 m -4 -1 d -3
 -5 d -2 -7 d -5 Y 2 -7 d 3 -5 d 4 -1 d 3 X 5 1 d 3 5 d 1 7 d 5 Y -1 7 d -3 5 d
 -5 1 d -3 X cl s 161 2007 m -5 -1 d -3 -4 d -1 -8 d -4 Y 1 -8 d 3 -4 d 5 -2 d 3
 X 4 2 d 3 4 d 1 8 d 4 Y -1 8 d -3 4 d -4 1 d -3 X cl s 162 2009 m -4 -1 d -3 -5
 d -1 -7 d -4 Y 1 -8 d 3 -4 d 4 -2 d 3 X 5 2 d 3 4 d 1 8 d 4 Y -1 7 d -3 5 d -5
 1 d -3 X cl s 160 2007 m -4 -1 d -3 -5 d -2 -7 d -5 Y 2 -7 d 3 -4 d 4 -2 d 3 X
 5 2 d 3 4 d 1 7 d 5 Y -1 7 d -3 5 d -5 1 d -3 X cl s 163 2010 m -5 -2 d -3 -4 d
 -1 -8 d -4 Y 1 -8 d 3 -4 d 5 -1 d 3 X 4 1 d 3 4 d 2 8 d 4 Y -2 8 d -3 4 d -4 2
 d -3 X cl s 65 2148 m 2 Y 2 3 d 1 1 d 3 2 d 6 X 3 -2 d 2 -1 d 1 -3 d -3 Y -1 -3
 d -3 -4 d -15 -15 d 20 X s 65 2148 m 2 Y 1 3 d 2 1 d 3 2 d 6 X 3 -2 d 1 -1 d 2
 -3 d -3 Y -2 -3 d -3 -5 d -15 -15 d 21 X s 66 2149 m 1 Y 1 3 d 1 2 d 3 1 d 6 X
 3 -1 d 2 -2 d 1 -3 d -3 Y -1 -3 d -3 -4 d -15 -15 d 21 X s 65 2148 m 1 Y 1 3 d
 2 2 d 3 1 d 5 X 3 -1 d 2 -2 d 1 -3 d -3 Y -1 -3 d -3 -4 d -15 -15 d 21 X s 66
 2149 m 2 Y 1 3 d 2 1 d 3 1 d 6 X 3 -1 d 1 -1 d 2 -3 d -3 Y -2 -3 d -3 -5 d -15
 -15 d 21 X s 64 2148 m 1 Y 2 3 d 1 1 d 3 2 d 6 X 3 -2 d 2 -1 d 1 -3 d -3 Y -1
 -3 d -3 -4 d -15 -15 d 21 X s 66 2149 m 2 Y 2 3 d 1 1 d 3 2 d 6 X 3 -2 d 1 -1 d
 2 -3 d -3 Y -2 -3 d -3 -5 d -14 -14 d 20 X s 64 2147 m 2 Y 1 3 d 2 1 d 3 2 d 6
 X 3 -2 d 1 -1 d 2 -3 d -3 Y -2 -3 d -3 -5 d -15 -15 d 21 X s 66 2150 m 1 Y 2 3
 d 1 2 d 3 1 d 6 X 3 -1 d 2 -2 d 1 -3 d -3 Y -1 -3 d -3 -4 d -15 -15 d 21 X s
 102 2156 m -4 -2 d -3 -4 d -2 -7 d -5 Y 2 -7 d 3 -5 d 4 -1 d 3 X 5 1 d 3 5 d 1
 7 d 5 Y -1 7 d -3 4 d -5 2 d -3 X cl s 102 2156 m -4 -2 d -3 -4 d -2 -8 d -4 Y
 2 -8 d 3 -4 d 4 -2 d 3 X 4 2 d 3 4 d 2 8 d 4 Y -2 8 d -3 4 d -4 2 d -3 X cl s
 103 2156 m -5 -1 d -3 -5 d -1 -7 d -5 Y 1 -7 d 3 -4 d 5 -2 d 3 X 4 2 d 3 4 d 1
 7 d 5 Y -1 7 d -3 5 d -4 1 d -3 X cl s 102 2155 m -5 -1 d -3 -5 d -1 -7 d -5 Y
 1 -7 d 3 -4 d 5 -2 d 3 X 4 2 d 3 4 d 1 7 d 5 Y -1 7 d -3 5 d -4 1 d -3 X cl s
 103 2156 m -5 -1 d -3 -4 d -1 -8 d -4 Y 1 -8 d 3 -4 d 5 -2 d 3 X 4 2 d 3 4 d 2
 8 d 4 Y -2 8 d -3 4 d -4 1 d -3 X cl s 101 2155 m -4 -2 d -3 -4 d -2 -7 d -5 Y
 2 -7 d 3 -5 d 4 -1 d 3 X 5 1 d 3 5 d 1 7 d 5 Y -1 7 d -3 4 d -5 2 d -3 X cl s
 103 2157 m -4 -2 d -3 -4 d -2 -8 d -4 Y 2 -7 d 3 -5 d 4 -1 d 3 X 5 1 d 3 5 d 1
 7 d 4 Y -1 8 d -3 4 d -5 2 d -3 X cl s 101 2155 m -4 -2 d -3 -4 d -2 -8 d -4 Y
 2 -8 d 3 -4 d 4 -2 d 3 X 4 2 d 3 4 d 2 8 d 4 Y -2 8 d -3 4 d -4 2 d -3 X cl s
 104 2157 m -5 -1 d -3 -5 d -1 -7 d -5 Y 1 -7 d 3 -5 d 5 -1 d 2 X 5 1 d 3 5 d 1
 7 d 5 Y -1 7 d -3 5 d -5 1 d -2 X cl s 132 2156 m -5 -2 d -3 -4 d -1 -7 d -5 Y
 1 -7 d 3 -5 d 5 -1 d 3 X 4 1 d 3 5 d 2 7 d 5 Y -2 7 d -3 4 d -4 2 d -3 X cl s
 132 2156 m -5 -2 d -3 -4 d -1 -8 d -4 Y 1 -8 d 3 -4 d 5 -2 d 3 X 4 2 d 3 4 d 1
 8 d 4 Y -1 8 d -3 4 d -4 2 d -3 X cl s 132 2156 m -4 -1 d -3 -5 d -2 -7 d -5 Y
 2 -7 d 3 -4 d 4 -2 d 3 X 5 2 d 3 4 d 1 7 d 5 Y -1 7 d -3 5 d -5 1 d -3 X cl s
 131 2155 m -4 -1 d -3 -5 d -2 -7 d -5 Y 2 -7 d 3 -4 d 4 -2 d 3 X 5 2 d 3 4 d 1
 7 d 5 Y -1 7 d -3 5 d -5 1 d -3 X cl s 133 2156 m -5 -1 d -3 -4 d -1 -8 d -4 Y
 1 -8 d 3 -4 d 5 -2 d 2 X 5 2 d 3 4 d 1 8 d 4 Y -1 8 d -3 4 d -5 1 d -2 X cl s
 131 2155 m -4 -2 d -3 -4 d -2 -7 d -5 Y 2 -7 d 3 -5 d 4 -1 d 3 X 4 1 d 3 5 d 2
 7 d 5 Y -2 7 d -3 4 d -4 2 d -3 X cl s 133 2157 m -5 -2 d -3 -4 d -1 -8 d -4 Y
 1 -7 d 3 -5 d 5 -1 d 3 X 4 1 d 3 5 d 2 7 d 4 Y -2 8 d -3 4 d -4 2 d -3 X cl s
 131 2155 m -5 -2 d -3 -4 d -1 -8 d -4 Y 1 -8 d 3 -4 d 5 -2 d 3 X 4 2 d 3 4 d 2
 8 d 4 Y -2 8 d -3 4 d -4 2 d -3 X cl s 133 2157 m -4 -1 d -3 -5 d -2 -7 d -5 Y
 2 -7 d 3 -5 d 4 -1 d 3 X 5 1 d 3 5 d 1 7 d 5 Y -1 7 d -3 5 d -5 1 d -3 X cl s
 162 2156 m -5 -2 d -3 -4 d -1 -7 d -5 Y 1 -7 d 3 -5 d 5 -1 d 3 X 4 1 d 3 5 d 1
 7 d 5 Y -1 7 d -3 4 d -4 2 d -3 X cl s 161 2156 m -4 -2 d -3 -4 d -2 -8 d -4 Y
 2 -8 d 3 -4 d 4 -2 d 3 X 5 2 d 3 4 d 1 8 d 4 Y -1 8 d -3 4 d -5 2 d -3 X cl s
 162 2156 m -5 -1 d -3 -5 d -1 -7 d -5 Y 1 -7 d 3 -4 d 5 -2 d 3 X 4 2 d 3 4 d 2
 7 d 5 Y -2 7 d -3 5 d -4 1 d -3 X cl s 161 2155 m -5 -1 d -2 -5 d -2 -7 d -5 Y
 2 -7 d 2 -4 d 5 -2 d 3 X 4 2 d 3 4 d 2 7 d 5 Y -2 7 d -3 5 d -4 1 d -3 X cl s
 162 2156 m -4 -1 d -3 -4 d -2 -8 d -4 Y 2 -8 d 3 -4 d 4 -2 d 3 X 5 2 d 3 4 d 1
 8 d 4 Y -1 8 d -3 4 d -5 1 d -3 X cl s 161 2155 m -5 -2 d -3 -4 d -1 -7 d -5 Y
 1 -7 d 3 -5 d 5 -1 d 3 X 4 1 d 3 5 d 1 7 d 5 Y -1 7 d -3 4 d -4 2 d -3 X cl s
 162 2157 m -4 -2 d -3 -4 d -1 -8 d -4 Y 1 -7 d 3 -5 d 4 -1 d 3 X 5 1 d 3 5 d 1
 7 d 4 Y -1 8 d -3 4 d -5 2 d -3 X cl s 160 2155 m -4 -2 d -3 -4 d -2 -8 d -4 Y
 2 -8 d 3 -4 d 4 -2 d 3 X 5 2 d 3 4 d 1 8 d 4 Y -1 8 d -3 4 d -5 2 d -3 X cl s
 163 2157 m -5 -1 d -3 -5 d -1 -7 d -5 Y 1 -7 d 3 -5 d 5 -1 d 3 X 4 1 d 3 5 d 2
 7 d 5 Y -2 7 d -3 5 d -4 1 d -3 X cl s 222 961 m 1779 X s 282 994 m -33 Y s 341
 977 m -16 Y s 400 977 m -16 Y s 459 977 m -16 Y s 519 994 m -33 Y s 578 977 m
 -16 Y s 637 977 m -16 Y s 697 977 m -16 Y s 756 994 m -33 Y s 815 977 m -16 Y s
 874 977 m -16 Y s 934 977 m -16 Y s 993 994 m -33 Y s 1052 977 m -16 Y s 1112
 977 m -16 Y s 1171 977 m -16 Y s 1230 994 m -33 Y s 1289 977 m -16 Y s 1349 977
 m -16 Y s 1408 977 m -16 Y s 1467 994 m -33 Y s 1526 977 m -16 Y s 1586 977 m
 -16 Y s 1645 977 m -16 Y s 1704 994 m -33 Y s 1764 977 m -16 Y s 1823 977 m -16
 Y s 1882 977 m -16 Y s 1941 994 m -33 Y s 282 994 m -33 Y s 1941 994 m -33 Y s
 2001 977 m -16 Y s 231 921 m 27 X s 231 920 m 27 X s 232 921 m 26 X s 231 920 m
 26 X s 232 921 m 26 X s 230 920 m 27 X s 232 922 m 27 X s 230 919 m 27 X s 232
 922 m 27 X s 277 938 m -4 -1 d -3 -4 d -2 -8 d -4 Y 2 -8 d 3 -4 d 4 -2 d 3 X 5
 2 d 3 4 d 1 8 d 4 Y -1 8 d -3 4 d -5 1 d -3 X cl s 277 938 m -5 -1 d -3 -5 d -1
 -7 d -5 Y 1 -7 d 3 -5 d 5 -1 d 3 X 4 1 d 3 5 d 2 7 d 5 Y -2 7 d -3 5 d -4 1 d
 -3 X cl s 277 939 m -4 -2 d -3 -4 d -1 -8 d -4 Y 1 -7 d 3 -5 d 4 -1 d 3 X 5 1 d
 3 5 d 1 7 d 4 Y -1 8 d -3 4 d -5 2 d -3 X cl s 277 938 m -5 -2 d -3 -4 d -1 -8
 d -4 Y 1 -7 d 3 -5 d 5 -1 d 2 X 5 1 d 3 5 d 1 7 d 4 Y -1 8 d -3 4 d -5 2 d -2 X
 cl s 278 939 m -5 -1 d -3 -5 d -1 -7 d -5 Y 1 -7 d 3 -5 d 5 -1 d 3 X 4 1 d 3 5
 d 2 7 d 5 Y -2 7 d -3 5 d -4 1 d -3 X cl s 276 938 m -4 -2 d -3 -4 d -2 -8 d -4
 Y 2 -8 d 3 -4 d 4 -2 d 3 X 5 2 d 3 4 d 1 8 d 4 Y -1 8 d -3 4 d -5 2 d -3 X cl s
 278 939 m -4 -1 d -3 -5 d -2 -7 d -4 Y 2 -8 d 3 -4 d 4 -2 d 3 X 4 2 d 3 4 d 2 8
 d 4 Y -2 7 d -3 5 d -4 1 d -3 X cl s 276 937 m -5 -1 d -3 -5 d -1 -7 d -5 Y 1
 -7 d 3 -4 d 5 -2 d 3 X 4 2 d 3 4 d 2 7 d 5 Y -2 7 d -3 5 d -4 1 d -3 X cl s 278
 940 m -4 -2 d -3 -4 d -2 -8 d -4 Y 2 -8 d 3 -4 d 4 -1 d 3 X 5 1 d 3 4 d 1 8 d 4
 Y -1 8 d -3 4 d -5 2 d -3 X cl s 301 910 m -2 -1 d 2 -2 d 1 2 d -1 1 d cl s 301
 910 m -2 -2 d 2 -1 d 1 1 d -1 2 d cl s 301 911 m -1 -2 d 1 -1 d 2 1 d -2 2 d cl
 s 300 910 m -1 -2 d 1 -1 d 2 1 d -2 2 d cl s 301 911 m -1 -2 d 1 -1 d 2 1 d -2
 2 d cl s 300 909 m -2 -1 d 2 -2 d 1 2 d -1 1 d cl s 302 911 m -2 -1 d 2 -2 d 1
 2 d -1 1 d cl s 300 909 m -2 -1 d 2 -2 d 1 2 d -1 1 d cl s 302 912 m -1 -2 d 1
 -1 d 2 1 d -2 2 d cl s 314 931 m 2 Y 2 2 d 1 2 d 3 1 d 6 X 3 -1 d 1 -2 d 2 -2 d
 -3 Y -2 -3 d -2 -5 d -15 -15 d 20 X s 314 931 m 1 Y 1 3 d 2 2 d 3 1 d 6 X 3 -1
 d 1 -2 d 2 -3 d -3 Y -2 -3 d -3 -4 d -15 -15 d 21 X s 314 931 m 2 Y 2 3 d 1 1 d
 3 2 d 6 X 3 -2 d 2 -1 d 1 -3 d -3 Y -1 -3 d -3 -5 d -15 -14 d 21 X s 314 930 m
 2 Y 1 3 d 2 1 d 2 2 d 6 X 3 -2 d 2 -1 d 1 -3 d -3 Y -1 -3 d -3 -4 d -15 -15 d
 21 X s 315 932 m 1 Y 1 3 d 2 2 d 3 1 d 6 X 3 -1 d 1 -2 d 2 -3 d -3 Y -2 -3 d -3
 -4 d -15 -15 d 21 X s 313 930 m 2 Y 2 3 d 1 1 d 3 2 d 6 X 3 -2 d 2 -1 d 1 -3 d
 -3 Y -1 -3 d -3 -5 d -15 -15 d 21 X s 315 932 m 1 Y 2 3 d 1 2 d 3 1 d 6 X 3 -1
 d 1 -2 d 2 -3 d -3 Y -2 -2 d -3 -5 d -14 -15 d 20 X s 313 930 m 1 Y 1 3 d 2 2 d
 3 1 d 6 X 3 -1 d 1 -2 d 2 -3 d -3 Y -2 -3 d -3 -4 d -15 -15 d 21 X s 315 932 m
 2 Y 2 3 d 1 1 d 3 2 d 6 X 3 -2 d 2 -1 d 1 -3 d -3 Y -1 -3 d -3 -5 d -15 -14 d
 21 X s 517 938 m -4 -1 d -3 -4 d -2 -8 d -4 Y 2 -8 d 3 -4 d 4 -2 d 3 X 5 2 d 3
 4 d 1 8 d 4 Y -1 8 d -3 4 d -5 1 d -3 X cl s 517 938 m -5 -1 d -2 -5 d -2 -7 d
 -5 Y 2 -7 d 2 -5 d 5 -1 d 3 X 4 1 d 3 5 d 2 7 d 5 Y -2 7 d -3 5 d -4 1 d -3 X
 cl s 518 939 m -5 -2 d -3 -4 d -1 -8 d -4 Y 1 -7 d 3 -5 d 5 -1 d 2 X 5 1 d 3 5
 d 1 7 d 4 Y -1 8 d -3 4 d -5 2 d -2 X cl s 517 938 m -5 -2 d -3 -4 d -1 -8 d -4
 Y 1 -7 d 3 -5 d 5 -1 d 3 X 4 1 d 3 5 d 1 7 d 4 Y -1 8 d -3 4 d -4 2 d -3 X cl s
 518 939 m -5 -1 d -3 -5 d -1 -7 d -5 Y 1 -7 d 3 -5 d 5 -1 d 3 X 4 1 d 3 5 d 2 7
 d 5 Y -2 7 d -3 5 d -4 1 d -3 X cl s 516 938 m -4 -2 d -3 -4 d -2 -8 d -4 Y 2
 -8 d 3 -4 d 4 -2 d 3 X 5 2 d 3 4 d 1 8 d 4 Y -1 8 d -3 4 d -5 2 d -3 X cl s 518
 939 m -4 -1 d -3 -5 d -2 -7 d -4 Y 2 -8 d 3 -4 d 4 -2 d 3 X 5 2 d 3 4 d 1 8 d 4
 Y -1 7 d -3 5 d -5 1 d -3 X cl s 516 937 m -4 -1 d -3 -5 d -2 -7 d -5 Y 2 -7 d
 3 -4 d 4 -2 d 3 X 4 2 d 3 4 d 2 7 d 5 Y -2 7 d -3 5 d -4 1 d -3 X cl s 518 940
 m -4 -2 d -3 -4 d -1 -8 d -4 Y 1 -8 d 3 -4 d 4 -1 d 3 X 5 1 d 3 4 d 1 8 d 4 Y
 -1 8 d -3 4 d -5 2 d -3 X cl s 732 938 m -4 -1 d -3 -4 d -2 -8 d -4 Y 2 -8 d 3
 -4 d 4 -2 d 3 X 5 2 d 2 4 d 2 8 d 4 Y -2 8 d -2 4 d -5 1 d -3 X cl s 732 938 m
 -5 -1 d -3 -5 d -1 -7 d -5 Y 1 -7 d 3 -5 d 5 -1 d 3 X 4 1 d 3 5 d 2 7 d 5 Y -2
 7 d -3 5 d -4 1 d -3 X cl s 732 939 m -4 -2 d -3 -4 d -1 -8 d -4 Y 1 -7 d 3 -5
 d 4 -1 d 3 X 5 1 d 3 5 d 1 7 d 4 Y -1 8 d -3 4 d -5 2 d -3 X cl s 731 938 m -4
 -2 d -3 -4 d -1 -8 d -4 Y 1 -7 d 3 -5 d 4 -1 d 3 X 5 1 d 3 5 d 1 7 d 4 Y -1 8 d
 -3 4 d -5 2 d -3 X cl s 733 939 m -5 -1 d -3 -5 d -1 -7 d -5 Y 1 -7 d 3 -5 d 5
 -1 d 3 X 4 1 d 3 5 d 2 7 d 5 Y -2 7 d -3 5 d -4 1 d -3 X cl s 731 938 m -4 -2 d
 -3 -4 d -2 -8 d -4 Y 2 -8 d 3 -4 d 4 -2 d 3 X 5 2 d 3 4 d 1 8 d 4 Y -1 8 d -3 4
 d -5 2 d -3 X cl s 733 939 m -4 -1 d -3 -5 d -2 -7 d -4 Y 2 -8 d 3 -4 d 4 -2 d
 3 X 4 2 d 3 4 d 2 8 d 4 Y -2 7 d -3 5 d -4 1 d -3 X cl s 731 937 m -5 -1 d -3
 -5 d -1 -7 d -5 Y 1 -7 d 3 -4 d 5 -2 d 3 X 4 2 d 3 4 d 2 7 d 5 Y -2 7 d -3 5 d
 -4 1 d -3 X cl s 733 940 m -4 -2 d -3 -4 d -2 -8 d -4 Y 2 -8 d 3 -4 d 4 -1 d 3
 X 5 1 d 3 4 d 1 8 d 4 Y -1 8 d -3 4 d -5 2 d -3 X cl s 756 910 m -2 -1 d 2 -2 d
 1 2 d -1 1 d cl s 756 910 m -2 -2 d 2 -1 d 1 1 d -1 2 d cl s 756 911 m -1 -2 d
 1 -1 d 2 1 d -2 2 d cl s 755 910 m -1 -2 d 1 -1 d 2 1 d -2 2 d cl s 756 911 m
 -1 -2 d 1 -1 d 2 1 d -2 2 d cl s 755 909 m -2 -1 d 2 -2 d 1 2 d -1 1 d cl s 757
 911 m -2 -1 d 2 -2 d 1 2 d -1 1 d cl s 755 909 m -2 -1 d 2 -2 d 1 2 d -1 1 d cl
 s 757 912 m -1 -2 d 1 -1 d 2 1 d -2 2 d cl s 769 931 m 2 Y 2 2 d 1 2 d 3 1 d 6
 X 3 -1 d 1 -2 d 2 -2 d -3 Y -2 -3 d -2 -5 d -15 -15 d 20 X s 769 931 m 1 Y 1 3
 d 2 2 d 3 1 d 6 X 3 -1 d 1 -2 d 2 -3 d -3 Y -2 -3 d -3 -4 d -15 -15 d 21 X s
 769 931 m 2 Y 2 3 d 1 1 d 3 2 d 6 X 3 -2 d 2 -1 d 1 -3 d -3 Y -1 -3 d -3 -5 d
 -15 -14 d 21 X s 769 930 m 2 Y 1 3 d 2 1 d 2 2 d 6 X 3 -2 d 2 -1 d 1 -3 d -3 Y
 -1 -3 d -3 -4 d -15 -15 d 21 X s 770 932 m 1 Y 1 3 d 2 2 d 3 1 d 6 X 3 -1 d 1
 -2 d 2 -3 d -3 Y -2 -3 d -3 -4 d -15 -15 d 21 X s 768 930 m 2 Y 2 3 d 1 1 d 3 2
 d 6 X 3 -2 d 2 -1 d 1 -3 d -3 Y -1 -3 d -3 -5 d -15 -15 d 20 X s 770 932 m 1 Y
 2 3 d 1 2 d 3 1 d 6 X 3 -1 d 1 -2 d 2 -3 d -3 Y -2 -2 d -3 -5 d -14 -15 d 20 X
 s 768 930 m 1 Y 1 3 d 2 2 d 3 1 d 6 X 3 -1 d 1 -2 d 2 -3 d -3 Y -2 -3 d -3 -4 d
 -15 -15 d 21 X s 770 932 m 2 Y 2 3 d 1 1 d 3 2 d 6 X 3 -2 d 2 -1 d 1 -3 d -3 Y
 -1 -3 d -3 -5 d -15 -14 d 21 X s 969 938 m -4 -1 d -3 -4 d -2 -8 d -4 Y 2 -8 d
 3 -4 d 4 -2 d 3 X 5 2 d 3 4 d 1 8 d 4 Y -1 8 d -3 4 d -5 1 d -3 X cl s 969 938
 m -5 -1 d -2 -5 d -2 -7 d -5 Y 2 -7 d 2 -5 d 5 -1 d 3 X 4 1 d 3 5 d 2 7 d 5 Y
 -2 7 d -3 5 d -4 1 d -3 X cl s 970 939 m -5 -2 d -3 -4 d -1 -8 d -4 Y 1 -7 d 3
 -5 d 5 -1 d 3 X 4 1 d 3 5 d 1 7 d 4 Y -1 8 d -3 4 d -4 2 d -3 X cl s 969 938 m
 -5 -2 d -3 -4 d -1 -8 d -4 Y 1 -7 d 3 -5 d 5 -1 d 3 X 4 1 d 3 5 d 1 7 d 4 Y -1
 8 d -3 4 d -4 2 d -3 X cl s 970 939 m -5 -1 d -3 -5 d -1 -7 d -5 Y 1 -7 d 3 -5
 d 5 -1 d 3 X 4 1 d 3 5 d 2 7 d 5 Y -2 7 d -3 5 d -4 1 d -3 X cl s 968 938 m -4
 -2 d -3 -4 d -2 -8 d -4 Y 2 -8 d 3 -4 d 4 -2 d 3 X 5 2 d 3 4 d 1 8 d 4 Y -1 8 d
 -3 4 d -5 2 d -3 X cl s 970 939 m -4 -1 d -3 -5 d -2 -7 d -4 Y 2 -8 d 3 -4 d 4
 -2 d 3 X 5 2 d 3 4 d 1 8 d 4 Y -1 7 d -3 5 d -5 1 d -3 X cl s 968 937 m -4 -1 d
 -3 -5 d -2 -7 d -5 Y 2 -7 d 3 -4 d 4 -2 d 3 X 4 2 d 3 4 d 2 7 d 5 Y -2 7 d -3 5
 d -4 1 d -3 X cl s 970 940 m -4 -2 d -3 -4 d -1 -8 d -4 Y 1 -8 d 3 -4 d 4 -1 d
 3 X 5 1 d 3 4 d 1 8 d 4 Y -1 8 d -3 4 d -5 2 d -3 X cl s 993 910 m -2 -1 d 2 -2
 d 1 2 d -1 1 d cl s 993 910 m -2 -2 d 2 -1 d 1 1 d -1 2 d cl s 993 911 m -1 -2
 d 1 -1 d 2 1 d -2 2 d cl s 992 910 m -1 -2 d 1 -1 d 2 1 d -2 2 d cl s 994 911 m
 -2 -2 d 2 -1 d 1 1 d -1 2 d cl s 992 909 m -1 -1 d 1 -2 d 1 2 d -1 1 d cl s 994
 911 m -2 -1 d 2 -2 d 1 2 d -1 1 d cl s 992 909 m -2 -1 d 2 -2 d 1 2 d -1 1 d cl
 s 994 912 m -1 -2 d 1 -1 d 2 1 d -2 2 d cl s 1020 938 m -15 -20 d 22 X s 1019
 938 m -15 -21 d 23 X s 1020 939 m -15 -21 d 22 X s 1019 938 m -15 -21 d 22 X s
 1020 939 m -15 -21 d 23 X s 1019 938 m -15 -21 d 22 X s 1021 939 m -15 -20 d 22
 X s 1018 937 m -14 -21 d 22 X s 1021 940 m -15 -21 d 22 X s 1020 938 m -31 Y s
 1019 938 m -31 Y s 1020 939 m -31 Y s 1019 938 m -31 Y s 1020 939 m -31 Y s
 1019 938 m -32 Y s 1021 939 m -31 Y s 1018 937 m -31 Y s 1021 940 m -31 Y s
 1206 938 m -4 -1 d -3 -4 d -2 -8 d -4 Y 2 -8 d 3 -4 d 4 -2 d 3 X 5 2 d 3 4 d 1
 8 d 4 Y -1 8 d -3 4 d -5 1 d -3 X cl s 1206 938 m -4 -1 d -3 -5 d -2 -7 d -5 Y
 2 -7 d 3 -5 d 4 -1 d 3 X 4 1 d 3 5 d 2 7 d 5 Y -2 7 d -3 5 d -4 1 d -3 X cl s
 1207 939 m -5 -2 d -3 -4 d -1 -8 d -4 Y 1 -7 d 3 -5 d 5 -1 d 3 X 4 1 d 3 5 d 2
 7 d 4 Y -2 8 d -3 4 d -4 2 d -3 X cl s 1206 938 m -5 -2 d -3 -4 d -1 -8 d -4 Y
 1 -7 d 3 -5 d 5 -1 d 3 X 4 1 d 3 5 d 2 7 d 4 Y -2 8 d -3 4 d -4 2 d -3 X cl s
 1207 939 m -4 -1 d -3 -5 d -2 -7 d -5 Y 2 -7 d 3 -5 d 4 -1 d 3 X 4 1 d 3 5 d 2
 7 d 5 Y -2 7 d -3 5 d -4 1 d -3 X cl s 1205 938 m -4 -2 d -3 -4 d -1 -8 d -4 Y
 1 -8 d 3 -4 d 4 -2 d 3 X 5 2 d 3 4 d 1 8 d 4 Y -1 8 d -3 4 d -5 2 d -3 X cl s
 1207 939 m -4 -1 d -3 -5 d -2 -7 d -4 Y 2 -8 d 3 -4 d 4 -2 d 3 X 5 2 d 3 4 d 1
 8 d 4 Y -1 7 d -3 5 d -5 1 d -3 X cl s 1205 937 m -4 -1 d -3 -5 d -2 -7 d -5 Y
 2 -7 d 3 -4 d 4 -2 d 3 X 5 2 d 2 4 d 2 7 d 5 Y -2 7 d -2 5 d -5 1 d -3 X cl s
 1208 940 m -5 -2 d -3 -4 d -1 -8 d -4 Y 1 -8 d 3 -4 d 5 -1 d 3 X 4 1 d 3 4 d 1
 8 d 4 Y -1 8 d -3 4 d -4 2 d -3 X cl s 1230 910 m -1 -1 d 1 -2 d 2 2 d -2 1 d
 cl s 1230 910 m -2 -2 d 2 -1 d 1 1 d -1 2 d cl s 1230 911 m -1 -2 d 1 -1 d 2 1
 d -2 2 d cl s 1229 910 m -1 -2 d 1 -1 d 2 1 d -2 2 d cl s 1231 911 m -2 -2 d 2
 -1 d 1 1 d -1 2 d cl s 1229 909 m -1 -1 d 1 -2 d 2 2 d -2 1 d cl s 1231 911 m
 -1 -1 d 1 -2 d 1 2 d -1 1 d cl s 1229 909 m -2 -1 d 2 -2 d 1 2 d -1 1 d cl s
 1231 912 m -1 -2 d 1 -1 d 2 1 d -2 2 d cl s 1261 934 m -1 3 d -5 1 d -3 X -4 -1
 d -3 -4 d -2 -8 d -7 Y 2 -6 d 3 -3 d 4 -2 d 2 X 4 2 d 3 3 d 2 4 d 2 Y -2 4 d -3
 3 d -4 2 d -2 X -4 -2 d -3 -3 d -2 -4 d s 1261 934 m -2 3 d -4 1 d -3 X -4 -1 d
 -3 -5 d -2 -7 d -8 Y 2 -6 d 3 -3 d 4 -1 d 1 X 5 1 d 3 3 d 1 5 d 1 Y -1 5 d -3 3
 d -5 1 d -1 X -4 -1 d -3 -3 d -2 -5 d s 1262 934 m -2 3 d -4 2 d -3 X -5 -2 d
 -3 -4 d -1 -8 d -7 Y 1 -6 d 3 -3 d 5 -1 d 1 X 5 1 d 3 3 d 1 5 d 1 Y -1 4 d -3 3
 d -5 2 d -1 X -5 -2 d -3 -3 d -1 -4 d s 1261 933 m -2 3 d -4 2 d -3 X -5 -2 d
 -3 -4 d -1 -8 d -7 Y 1 -6 d 3 -3 d 5 -1 d 1 X 5 1 d 3 3 d 1 5 d 1 Y -1 5 d -3 2
 d -5 2 d -1 X -5 -2 d -3 -2 d -1 -5 d s 1262 935 m -2 3 d -4 1 d -3 X -5 -1 d
 -2 -5 d -2 -7 d -8 Y 2 -6 d 2 -3 d 5 -1 d 1 X 5 1 d 3 3 d 1 5 d 1 Y -1 5 d -3 3
 d -5 1 d -1 X -5 -1 d -2 -3 d -2 -5 d s 1260 933 m -1 3 d -5 2 d -3 X -4 -2 d
 -3 -4 d -2 -8 d -7 Y 2 -6 d 3 -3 d 4 -2 d 2 X 4 2 d 3 3 d 2 4 d 2 Y -2 4 d -3 3
 d -4 2 d -2 X -4 -2 d -3 -3 d -2 -4 d s 1262 935 m -1 3 d -5 1 d -3 X -4 -1 d
 -3 -5 d -2 -7 d -7 Y 2 -6 d 3 -3 d 4 -2 d 2 X 4 2 d 3 3 d 2 4 d 2 Y -2 4 d -3 3
 d -4 2 d -2 X -4 -2 d -3 -3 d -2 -4 d s 1260 933 m -2 3 d -4 1 d -3 X -4 -1 d
 -3 -5 d -2 -7 d -8 Y 2 -5 d 3 -3 d 4 -2 d 2 X 4 2 d 3 3 d 1 4 d 1 Y -1 5 d -3 3
 d -4 1 d -2 X -4 -1 d -3 -3 d -2 -5 d s 1262 935 m -1 3 d -4 2 d -3 X -5 -2 d
 -3 -4 d -1 -8 d -7 Y 1 -6 d 3 -3 d 5 -1 d 1 X 4 1 d 3 3 d 2 4 d 2 Y -2 4 d -3 3
 d -4 2 d -1 X -5 -2 d -3 -3 d -1 -4 d s 1443 938 m -4 -1 d -3 -4 d -1 -8 d -4 Y
 1 -8 d 3 -4 d 4 -2 d 3 X 5 2 d 3 4 d 1 8 d 4 Y -1 8 d -3 4 d -5 1 d -3 X cl s
 1443 938 m -4 -1 d -3 -5 d -2 -7 d -5 Y 2 -7 d 3 -5 d 4 -1 d 3 X 5 1 d 3 5 d 1
 7 d 5 Y -1 7 d -3 5 d -5 1 d -3 X cl s 1444 939 m -5 -2 d -3 -4 d -1 -8 d -4 Y
 1 -7 d 3 -5 d 5 -1 d 3 X 4 1 d 3 5 d 2 7 d 4 Y -2 8 d -3 4 d -4 2 d -3 X cl s
 1443 938 m -5 -2 d -3 -4 d -1 -8 d -4 Y 1 -7 d 3 -5 d 5 -1 d 3 X 4 1 d 3 5 d 2
 7 d 4 Y -2 8 d -3 4 d -4 2 d -3 X cl s 1444 939 m -4 -1 d -3 -5 d -2 -7 d -5 Y
 2 -7 d 3 -5 d 4 -1 d 3 X 5 1 d 2 5 d 2 7 d 5 Y -2 7 d -2 5 d -5 1 d -3 X cl s
 1443 938 m -5 -2 d -3 -4 d -1 -8 d -4 Y 1 -8 d 3 -4 d 5 -2 d 3 X 4 2 d 3 4 d 1
 8 d 4 Y -1 8 d -3 4 d -4 2 d -3 X cl s 1444 939 m -4 -1 d -3 -5 d -1 -7 d -4 Y
 1 -8 d 3 -4 d 4 -2 d 3 X 5 2 d 3 4 d 1 8 d 4 Y -1 7 d -3 5 d -5 1 d -3 X cl s
 1442 937 m -4 -1 d -3 -5 d -2 -7 d -5 Y 2 -7 d 3 -4 d 4 -2 d 3 X 5 2 d 3 4 d 1
 7 d 5 Y -1 7 d -3 5 d -5 1 d -3 X cl s 1445 940 m -5 -2 d -3 -4 d -1 -8 d -4 Y
 1 -8 d 3 -4 d 5 -1 d 3 X 4 1 d 3 4 d 2 8 d 4 Y -2 8 d -3 4 d -4 2 d -3 X cl s
 1467 910 m -1 -1 d 1 -2 d 2 2 d -2 1 d cl s 1467 910 m -2 -2 d 2 -1 d 1 1 d -1
 2 d cl s 1468 911 m -2 -2 d 2 -1 d 1 1 d -1 2 d cl s 1467 910 m -2 -2 d 2 -1 d
 1 1 d -1 2 d cl s 1468 911 m -2 -2 d 2 -1 d 1 1 d -1 2 d cl s 1466 909 m -1 -1
 d 1 -2 d 2 2 d -2 1 d cl s 1468 911 m -1 -1 d 1 -2 d 2 2 d -2 1 d cl s 1466 909
 m -2 -1 d 2 -2 d 1 2 d -1 1 d cl s 1468 912 m -1 -2 d 1 -1 d 2 1 d -2 2 d cl s
 1486 938 m -4 -1 d -1 -3 d -3 Y 1 -3 d 3 -1 d 6 -2 d 4 -1 d 3 -3 d 2 -3 d -5 Y
 -2 -3 d -1 -1 d -5 -2 d -6 X -4 2 d -1 1 d -2 3 d 5 Y 2 3 d 2 3 d 5 1 d 6 2 d 3
 1 d 1 3 d 3 Y -1 3 d -5 1 d -6 X cl s 1486 938 m -4 -1 d -2 -3 d -3 Y 2 -3 d 3
 -2 d 6 -1 d 4 -2 d 3 -3 d 1 -3 d -4 Y -1 -3 d -1 -2 d -5 -1 d -6 X -4 1 d -2 2
 d -1 3 d 4 Y 1 3 d 3 3 d 5 2 d 6 1 d 3 2 d 1 3 d 3 Y -1 3 d -5 1 d -6 X cl s
 1487 939 m -5 -2 d -1 -3 d -3 Y 1 -3 d 3 -1 d 6 -2 d 5 -1 d 3 -3 d 1 -3 d -4 Y
 -1 -3 d -2 -2 d -4 -1 d -6 X -5 1 d -1 2 d -2 3 d 4 Y 2 3 d 3 3 d 4 1 d 6 2 d 3
 1 d 2 3 d 3 Y -2 3 d -4 2 d -6 X cl s 1486 938 m -5 -2 d -1 -3 d -3 Y 1 -3 d 3
 -1 d 6 -2 d 5 -1 d 3 -3 d 1 -3 d -4 Y -1 -3 d -2 -2 d -4 -1 d -6 X -5 1 d -1 2
 d -2 3 d 4 Y 2 3 d 3 3 d 4 1 d 6 2 d 3 1 d 2 3 d 3 Y -2 3 d -4 2 d -6 X cl s
 1487 939 m -4 -1 d -2 -3 d -3 Y 2 -3 d 3 -2 d 6 -1 d 4 -2 d 3 -3 d 1 -3 d -4 Y
 -1 -3 d -2 -2 d -4 -1 d -6 X -4 1 d -2 2 d -1 3 d 4 Y 1 3 d 3 3 d 5 2 d 5 1 d 3
 2 d 2 3 d 3 Y -2 3 d -4 1 d -6 X cl s 1486 938 m -5 -2 d -1 -3 d -3 Y 1 -3 d 3
 -1 d 6 -2 d 4 -1 d 3 -3 d 2 -3 d -5 Y -2 -3 d -1 -1 d -5 -2 d -5 X -5 2 d -1 1
 d -2 3 d 5 Y 2 3 d 3 3 d 4 1 d 6 2 d 3 1 d 1 3 d 3 Y -1 3 d -5 2 d -5 X cl s
 1487 939 m -4 -1 d -2 -3 d -3 Y 2 -3 d 3 -1 d 6 -2 d 4 -1 d 3 -3 d 2 -3 d -5 Y
 -2 -3 d -1 -1 d -5 -2 d -6 X -4 2 d -2 1 d -1 3 d 5 Y 1 3 d 3 3 d 5 1 d 6 2 d 3
 1 d 1 3 d 3 Y -1 3 d -5 1 d -6 X cl s 1485 937 m -4 -1 d -2 -3 d -3 Y 2 -3 d 3
 -2 d 6 -1 d 4 -2 d 3 -3 d 2 -3 d -4 Y -2 -3 d -1 -1 d -5 -2 d -6 X -4 2 d -2 1
 d -1 3 d 4 Y 1 3 d 3 3 d 5 2 d 6 1 d 3 2 d 1 3 d 3 Y -1 3 d -5 1 d -6 X cl s
 1488 940 m -5 -2 d -1 -3 d -3 Y 1 -3 d 3 -1 d 6 -2 d 5 -1 d 3 -3 d 1 -3 d -5 Y
 -1 -2 d -2 -2 d -4 -1 d -6 X -5 1 d -1 2 d -2 2 d 5 Y 2 3 d 3 3 d 4 1 d 6 2 d 3
 1 d 2 3 d 3 Y -2 3 d -4 2 d -6 X cl s 1698 933 m 3 1 d 5 4 d -31 Y s 1698 932 m
 3 2 d 4 4 d -31 Y s 1699 933 m 3 1 d 4 5 d -31 Y s 1698 932 m 3 1 d 4 5 d -31 Y
 s 1699 933 m 3 2 d 4 4 d -31 Y s 1697 932 m 3 1 d 5 5 d -32 Y s 1699 933 m 3 2
 d 5 4 d -31 Y s 1697 931 m 3 2 d 5 4 d -31 Y s 1700 934 m 3 1 d 4 5 d -31 Y s
 1913 933 m 3 1 d 5 4 d -31 Y s 1913 932 m 3 2 d 4 4 d -31 Y s 1914 933 m 3 1 d
 4 5 d -31 Y s 1913 932 m 3 1 d 4 5 d -31 Y s 1914 933 m 3 2 d 4 4 d -31 Y s
 1912 932 m 3 1 d 5 5 d -32 Y s 1914 933 m 3 2 d 5 4 d -31 Y s 1912 931 m 3 2 d
 4 4 d -31 Y s 1915 934 m 2 1 d 5 5 d -31 Y s 1941 910 m -1 -1 d 1 -2 d 2 2 d -2
 1 d cl s 1941 910 m -1 -2 d 1 -1 d 2 1 d -2 2 d cl s 1942 911 m -2 -2 d 2 -1 d
 1 1 d -1 2 d cl s 1941 910 m -2 -2 d 2 -1 d 1 1 d -1 2 d cl s 1942 911 m -1 -2
 d 1 -1 d 2 1 d -2 2 d cl s 1941 909 m -2 -1 d 2 -2 d 1 2 d -1 1 d cl s 1942 911
 m -1 -1 d 1 -2 d 2 2 d -2 1 d cl s 1940 909 m -1 -1 d 1 -2 d 2 2 d -2 1 d cl s
 1943 912 m -2 -2 d 2 -1 d 1 1 d -1 2 d cl s 1955 931 m 2 Y 1 2 d 2 2 d 3 1 d 6
 X 3 -1 d 1 -2 d 2 -2 d -3 Y -2 -3 d -3 -5 d -15 -15 d 21 X s 1954 931 m 1 Y 2 3
 d 1 2 d 3 1 d 6 X 3 -1 d 2 -2 d 1 -3 d -3 Y -1 -3 d -3 -4 d -15 -15 d 21 X s
 1955 931 m 2 Y 2 3 d 1 1 d 3 2 d 6 X 3 -2 d 1 -1 d 2 -3 d -3 Y -2 -3 d -3 -5 d
 -14 -14 d 20 X s 1954 930 m 2 Y 2 3 d 1 1 d 3 2 d 6 X 3 -2 d 1 -1 d 2 -3 d -3 Y
 -2 -3 d -3 -4 d -14 -15 d 20 X s 1955 932 m 1 Y 2 3 d 1 2 d 3 1 d 6 X 3 -1 d 2
 -2 d 1 -3 d -3 Y -1 -3 d -3 -4 d -15 -15 d 21 X s 1954 930 m 2 Y 1 3 d 2 1 d 3
 2 d 6 X 3 -2 d 1 -1 d 2 -3 d -3 Y -2 -3 d -3 -5 d -15 -15 d 21 X s 1956 932 m 1
 Y 1 3 d 2 2 d 3 1 d 6 X 3 -1 d 1 -2 d 1 -3 d -3 Y -1 -2 d -3 -5 d -15 -15 d 21
 X s 1954 930 m 1 Y 1 3 d 1 2 d 3 1 d 6 X 3 -1 d 2 -2 d 1 -3 d -3 Y -1 -3 d -3
 -4 d -15 -15 d 21 X s 1956 932 m 2 Y 2 3 d 1 1 d 3 2 d 6 X 3 -2 d 1 -1 d 2 -3 d
 -3 Y -2 -3 d -3 -5 d -14 -14 d 20 X s 1779 1222 222 961 C 5 lw 222 961 m 11 X s
 233 961 m 12 X s 245 961 m 11 X s 256 961 m 11 X s 267 961 m 11 X s 278 961 m
 11 X s 289 961 m 11 X s 300 961 m 11 X s 311 961 m 11 X s 322 961 m 11 X s 333
 961 m 12 X s 345 961 m 11 X s 356 961 m 11 X s 367 961 m 11 X s 378 961 m 11 X
 s 389 961 m 11 X s 400 961 m 11 X s 411 961 m 11 X s 422 961 m 11 X s 433 961 m
 12 X s 445 961 m 11 X s 456 961 m 11 X s 467 961 m 11 X s 478 961 m 11 X s 489
 961 m 11 X s 500 961 m 11 X s /w 28 def /w2 {w 2 div} def /w3 {w 3 div} def 522
 977 m20 545 1028 m20 567 1090 m20 589 1189 m20 611 1289 m s 611 1317 m s 611
 1303 m20 634 1438 m 4 Y s 634 1469 m 4 Y s 634 1456 m20 656 1653 m 6 Y s 656
 1687 m 7 Y s 656 1673 m20 678 1797 m 9 Y s 678 1833 m 9 Y s 678 1819 m20 700
 1929 m 10 Y s 700 1967 m 10 Y s 700 1953 m20 722 1776 m 8 Y s 722 1812 m 8 Y s
 722 1798 m20 745 1604 m 6 Y s 745 1638 m 5 Y s 745 1624 m20 767 1423 m 3 Y s
 767 1453 m 3 Y s 767 1440 m20 789 1309 m 1 Y s 789 1338 m 1 Y s 789 1324 m20
 811 1246 m20 834 1197 m20 856 1136 m20 878 1110 m20 900 1092 m20 923 1077 m20
 945 1065 m20 967 1060 m20 989 1033 m20 1011 1044 m20 1034 1047 m20 1056 1076
 m20 1078 1120 m20 1100 1242 m20 1123 1281 m s 1123 1309 m s 1123 1295 m20 1145
 1185 m20 1167 1095 m20 1189 1045 m20 1212 1020 m20 1234 1003 m20 1256 993 m20
 1278 990 m20 1300 983 m20 1323 981 m20 1345 975 m20 1367 981 m20 1389 970 m 3 Y
 s 1389 973 m 3 Y s 1378 973 m 11 X s 1389 973 m 12 X s 1412 977 m20 1434 975
 m20 1456 978 m20 1478 971 m 3 Y s 1478 974 m 2 Y s 1467 974 m 11 X s 1478 974 m
 11 X s 1501 976 m20 1523 977 m20 1545 979 m20 1567 978 m20 1589 985 m20 1612
 998 m20 1634 1035 m20 1656 1050 m20 1678 1028 m20 1701 1016 m20 1723 1007 m20
 1745 1000 m20 1767 985 m20 1790 988 m20 1812 978 m20 1834 978 m20 1856 966 m 2
 Y s 1856 968 m 2 Y s 1845 968 m 11 X s 1856 968 m 11 X s 1878 978 m20 1901 968
 m 3 Y s 1901 971 m 2 Y s 1890 971 m 11 X s 1901 971 m 11 X s 1923 967 m 2 Y s
 1923 969 m 2 Y s 1912 969 m 11 X s 1923 969 m 11 X s 1945 964 m 2 Y s 1945 966
 m 2 Y s 1934 966 m 11 X s 1945 966 m 11 X s 1967 962 m 2 Y s 1967 964 m 1 Y s
 1956 964 m 11 X s 1967 964 m 11 X s 1978 961 m 12 X s 1990 961 m 11 X s 2223
 1668 0 738 C 1 lw 1770 864 m -31 Y s 1769 864 m -31 Y s 1770 864 m -31 Y s 1769
 863 m -31 Y s 1770 865 m -32 Y s 1769 863 m -31 Y s 1770 865 m -31 Y s 1768 863
 m -31 Y s 1771 865 m -31 Y s 1770 864 m 11 -31 d s 1769 864 m 12 -31 d s 1770
 864 m 12 -31 d s 1769 863 m 12 -31 d s 1770 865 m 12 -32 d s 1769 863 m 11 -31
 d s 1770 865 m 12 -31 d s 1768 863 m 12 -31 d s 1771 865 m 12 -31 d s 1793 864
 m -12 -31 d s 1793 864 m -12 -31 d s 1794 864 m -12 -31 d s 1793 863 m -12 -31
 d s 1794 865 m -12 -32 d s 1792 863 m -12 -31 d s 1794 865 m -12 -31 d s 1792
 863 m -12 -31 d s 1794 865 m -11 -31 d s 1793 864 m -31 Y s 1793 864 m -31 Y s
 1794 864 m -31 Y s 1793 863 m -31 Y s 1794 865 m -32 Y s 1792 863 m -31 Y s
 1794 865 m -31 Y s 1792 863 m -31 Y s 1794 865 m -31 Y s 1821 854 m -21 Y s
 1821 853 m -20 Y s 1822 854 m -21 Y s 1821 853 m -21 Y s 1822 854 m -21 Y s
 1820 853 m -21 Y s 1822 855 m -21 Y s 1820 852 m -20 Y s 1823 855 m -21 Y s
 1821 849 m -3 3 d -3 2 d -4 X -3 -2 d -3 -3 d -1 -4 d -3 Y 1 -5 d 3 -3 d 3 -1 d
 4 X 3 1 d 3 3 d s 1821 849 m -3 3 d -3 1 d -4 X -3 -1 d -3 -3 d -2 -5 d -3 Y 2
 -4 d 3 -3 d 3 -1 d 4 X 3 1 d 3 3 d s 1822 849 m -3 3 d -3 2 d -5 X -3 -2 d -3
 -3 d -1 -4 d -3 Y 1 -4 d 3 -3 d 3 -2 d 5 X 3 2 d 3 3 d s 1821 849 m -3 2 d -3 2
 d -5 X -3 -2 d -3 -2 d -1 -5 d -3 Y 1 -4 d 3 -3 d 3 -2 d 5 X 3 2 d 3 3 d s 1822
 850 m -3 3 d -3 1 d -4 X -3 -1 d -3 -3 d -2 -5 d -3 Y 2 -4 d 3 -3 d 3 -2 d 4 X
 3 2 d 3 3 d s 1820 848 m -3 3 d -2 2 d -5 X -3 -2 d -3 -3 d -1 -4 d -3 Y 1 -5 d
 3 -3 d 3 -1 d 5 X 2 1 d 3 3 d s 1822 850 m -3 3 d -3 2 d -4 X -3 -2 d -3 -3 d
 -1 -4 d -3 Y 1 -5 d 3 -3 d 3 -1 d 4 X 3 1 d 3 3 d s 1820 848 m -3 3 d -3 1 d -4
 X -3 -1 d -3 -3 d -2 -5 d -3 Y 2 -4 d 3 -3 d 3 -1 d 4 X 3 1 d 3 3 d s 1823 850
 m -3 3 d -3 2 d -5 X -3 -2 d -3 -3 d -1 -4 d -3 Y 1 -4 d 3 -3 d 3 -2 d 5 X 3 2
 d 3 3 d s 1848 849 m -1 3 d -5 2 d -4 X -5 -2 d -1 -3 d 1 -3 d 3 -1 d 8 -2 d 3
 -1 d 1 -3 d -2 Y -1 -3 d -5 -1 d -4 X -5 1 d -1 3 d s 1848 849 m -2 3 d -4 1 d
 -5 X -4 -1 d -2 -3 d 2 -3 d 3 -2 d 7 -1 d 3 -2 d 2 -3 d -1 Y -2 -3 d -4 -1 d -5
 X -4 1 d -2 3 d s 1848 849 m -1 3 d -5 2 d -4 X -4 -2 d -2 -3 d 2 -3 d 3 -1 d 7
 -1 d 3 -2 d 1 -3 d -1 Y -1 -3 d -5 -2 d -4 X -4 2 d -2 3 d s 1847 849 m -1 2 d
 -4 2 d -5 X -4 -2 d -2 -2 d 2 -3 d 3 -2 d 7 -1 d 3 -2 d 1 -3 d -1 Y -1 -3 d -4
 -2 d -5 X -4 2 d -2 3 d s 1849 850 m -2 3 d -4 1 d -5 X -4 -1 d -2 -3 d 2 -3 d
 3 -2 d 7 -1 d 3 -2 d 2 -3 d -1 Y -2 -3 d -4 -2 d -5 X -4 2 d -2 3 d s 1847 848
 m -1 3 d -5 2 d -4 X -5 -2 d -1 -3 d 1 -3 d 3 -1 d 8 -2 d 3 -1 d 1 -3 d -2 Y -1
 -3 d -5 -1 d -4 X -5 1 d -1 3 d s 1849 850 m -1 3 d -5 2 d -4 X -5 -2 d -1 -3 d
 1 -3 d 3 -1 d 8 -2 d 3 -1 d 1 -3 d -2 Y -1 -3 d -5 -1 d -4 X -5 1 d -1 3 d s
 1847 848 m -2 3 d -4 1 d -5 X -4 -1 d -1 -3 d 1 -3 d 3 -2 d 7 -1 d 3 -2 d 2 -2
 d -2 Y -2 -3 d -4 -1 d -5 X -4 1 d -1 3 d s 1849 850 m -1 3 d -5 2 d -4 X -5 -2
 d -1 -3 d 1 -3 d 3 -1 d 8 -2 d 3 -1 d 1 -3 d -1 Y -1 -3 d -5 -2 d -4 X -5 2 d
 -1 3 d s 1873 849 m -1 3 d -5 2 d -4 X -5 -2 d -1 -3 d 1 -3 d 3 -1 d 8 -2 d 3
 -1 d 1 -3 d -2 Y -1 -3 d -5 -1 d -4 X -5 1 d -1 3 d s 1873 849 m -2 3 d -4 1 d
 -4 X -5 -1 d -1 -3 d 1 -3 d 3 -2 d 8 -1 d 2 -2 d 2 -3 d -1 Y -2 -3 d -4 -1 d -4
 X -5 1 d -1 3 d s 1874 849 m -2 3 d -4 2 d -5 X -4 -2 d -2 -3 d 2 -3 d 3 -1 d 7
 -1 d 3 -2 d 2 -3 d -1 Y -2 -3 d -4 -2 d -5 X -4 2 d -2 3 d s 1873 849 m -2 2 d
 -4 2 d -5 X -4 -2 d -2 -2 d 2 -3 d 3 -2 d 7 -1 d 3 -2 d 2 -3 d -1 Y -2 -3 d -4
 -2 d -5 X -4 2 d -2 3 d s 1874 850 m -2 3 d -4 1 d -4 X -5 -1 d -1 -3 d 1 -3 d
 3 -2 d 7 -1 d 3 -2 d 2 -3 d -1 Y -2 -3 d -4 -2 d -4 X -5 2 d -1 3 d s 1872 848
 m -1 3 d -5 2 d -4 X -4 -2 d -2 -3 d 2 -3 d 2 -1 d 8 -2 d 3 -1 d 1 -3 d -2 Y -1
 -3 d -5 -1 d -4 X -4 1 d -2 3 d s 1874 850 m -1 3 d -5 2 d -4 X -5 -2 d -1 -3 d
 1 -3 d 3 -1 d 8 -2 d 3 -1 d 1 -3 d -2 Y -1 -3 d -5 -1 d -4 X -5 1 d -1 3 d s
 1872 848 m -1 3 d -5 1 d -4 X -5 -1 d -1 -3 d 1 -3 d 3 -2 d 8 -1 d 3 -2 d 1 -2
 d -2 Y -1 -3 d -5 -1 d -4 X -5 1 d -1 3 d s 1875 850 m -2 3 d -4 2 d -5 X -4 -2
 d -2 -3 d 2 -3 d 3 -1 d 7 -2 d 3 -1 d 2 -3 d -1 Y -2 -3 d -4 -2 d -5 X -4 2 d
 -2 3 d s 1894 870 m -3 -3 d -3 -5 d -3 -5 d -1 -8 d -6 Y 1 -7 d 3 -6 d 3 -5 d 3
 -3 d s 1894 870 m -3 -3 d -3 -5 d -3 -6 d -2 -7 d -6 Y 2 -8 d 3 -5 d 3 -5 d 3
 -3 d s 1894 870 m -3 -3 d -3 -4 d -3 -6 d -1 -8 d -5 Y 1 -8 d 3 -6 d 3 -4 d 3
 -3 d s 1893 869 m -3 -3 d -3 -4 d -2 -6 d -2 -7 d -6 Y 2 -8 d 2 -6 d 3 -4 d 3
 -3 d s 1895 871 m -3 -3 d -3 -5 d -3 -6 d -2 -7 d -6 Y 2 -8 d 3 -5 d 3 -5 d 3
 -3 d s 1893 869 m -3 -3 d -3 -4 d -3 -6 d -1 -8 d -6 Y 1 -7 d 3 -6 d 3 -4 d 3
 -3 d s 1895 871 m -3 -3 d -3 -5 d -3 -6 d -1 -7 d -6 Y 1 -7 d 3 -6 d 3 -5 d 3
 -3 d s 1893 869 m -3 -3 d -3 -5 d -3 -6 d -2 -7 d -6 Y 2 -7 d 3 -6 d 3 -5 d 3
 -3 d s 1895 871 m -3 -3 d -3 -4 d -3 -6 d -1 -8 d -6 Y 1 -7 d 3 -6 d 3 -4 d 3
 -3 d s 1925 857 m -1 3 d -3 2 d -3 2 d -6 X -3 -2 d -3 -2 d -2 -3 d -1 -5 d -7
 Y 1 -5 d 2 -3 d 3 -3 d 3 -1 d 6 X 3 1 d 3 3 d 1 3 d 5 Y s 1925 856 m -2 3 d -3
 3 d -3 2 d -6 X -2 -2 d -3 -3 d -2 -3 d -1 -4 d -8 Y 1 -4 d 2 -3 d 3 -3 d 2 -1
 d 6 X 3 1 d 3 3 d 2 3 d 4 Y s 1925 857 m -1 3 d -3 3 d -3 1 d -6 X -3 -1 d -3
 -3 d -1 -3 d -2 -5 d -7 Y 2 -4 d 1 -3 d 3 -3 d 3 -2 d 6 X 3 2 d 3 3 d 1 3 d 4 Y
 s 1925 856 m -2 3 d -3 3 d -3 1 d -6 X -3 -1 d -3 -3 d -1 -3 d -2 -5 d -7 Y 2
 -4 d 1 -3 d 3 -3 d 3 -2 d 6 X 3 2 d 3 3 d 2 3 d 4 Y s 1926 857 m -2 3 d -3 3 d
 -3 2 d -6 X -3 -2 d -3 -3 d -1 -3 d -1 -4 d -8 Y 1 -4 d 1 -3 d 3 -3 d 3 -2 d 6
 X 3 2 d 3 3 d 2 3 d 4 Y s 1924 856 m -1 3 d -3 3 d -3 1 d -6 X -3 -1 d -3 -3 d
 -2 -3 d -1 -5 d -7 Y 1 -5 d 2 -3 d 3 -3 d 3 -1 d 6 X 3 1 d 3 3 d 1 3 d 5 Y s
 1926 857 m -1 3 d -3 3 d -3 2 d -6 X -3 -2 d -3 -3 d -2 -3 d -1 -4 d -7 Y 1 -5
 d 2 -3 d 3 -3 d 3 -1 d 6 X 3 1 d 3 3 d 1 3 d 5 Y s 1924 855 m -2 3 d -3 3 d -3
 2 d -5 X -3 -2 d -3 -3 d -2 -3 d -1 -4 d -8 Y 1 -4 d 2 -3 d 3 -3 d 3 -1 d 5 X 3
 1 d 3 3 d 2 3 d 4 Y s 1926 858 m -1 3 d -3 3 d -3 1 d -6 X -3 -1 d -3 -3 d -1
 -3 d -2 -5 d -7 Y 2 -4 d 1 -3 d 3 -3 d 3 -2 d 6 X 3 2 d 3 3 d 1 3 d 4 Y s 1918
 845 m 7 X s 1917 844 m 8 X s 1918 845 m 7 X s 1917 844 m 8 X s 1918 845 m 8 X s
 1917 844 m 7 X s 1919 846 m 7 X s 1916 843 m 8 X s 1919 846 m 7 X s 1934 845 m
 18 X 3 Y -2 3 d -1 1 d -3 2 d -5 X -3 -2 d -2 -3 d -2 -4 d -3 Y 2 -5 d 2 -3 d 3
 -1 d 5 X 3 1 d 3 3 d s 1934 844 m 18 X 3 Y -2 3 d -1 2 d -3 1 d -5 X -3 -1 d -3
 -3 d -1 -5 d -3 Y 1 -4 d 3 -3 d 3 -1 d 5 X 3 1 d 3 3 d s 1934 845 m 18 X 3 Y -1
 3 d -2 1 d -3 2 d -4 X -3 -2 d -3 -3 d -2 -4 d -3 Y 2 -4 d 3 -3 d 3 -2 d 4 X 3
 2 d 3 3 d s 1933 844 m 18 X 3 Y -1 3 d -2 1 d -3 2 d -4 X -3 -2 d -3 -2 d -2 -5
 d -3 Y 2 -4 d 3 -3 d 3 -2 d 4 X 3 2 d 3 3 d s 1935 845 m 17 X 3 Y -1 3 d -2 2 d
 -2 1 d -5 X -3 -1 d -3 -3 d -1 -5 d -3 Y 1 -4 d 3 -3 d 3 -2 d 5 X 2 2 d 3 3 d s
 1933 844 m 18 X 3 Y -2 3 d -1 1 d -3 2 d -4 X -3 -2 d -3 -3 d -2 -4 d -3 Y 2 -5
 d 3 -3 d 3 -1 d 4 X 3 1 d 3 3 d s 1935 846 m 18 X 3 Y -2 3 d -1 1 d -3 2 d -5 X
 -3 -2 d -3 -3 d -1 -4 d -3 Y 1 -5 d 3 -3 d 3 -1 d 5 X 3 1 d 3 3 d s 1933 843 m
 18 X 3 Y -2 3 d -1 2 d -3 1 d -5 X -3 -1 d -3 -3 d -1 -5 d -3 Y 1 -4 d 3 -3 d 3
 -1 d 5 X 3 1 d 3 3 d s 1935 846 m 18 X 3 Y -1 3 d -2 1 d -3 2 d -4 X -3 -2 d -3
 -3 d -2 -4 d -3 Y 2 -4 d 3 -3 d 3 -2 d 4 X 3 2 d 3 3 d s 1959 854 m 9 -21 d s
 1959 853 m 9 -20 d s 1960 854 m 8 -21 d s 1959 853 m 8 -21 d s 1960 854 m 9 -21
 d s 1958 853 m 9 -21 d s 1960 855 m 9 -21 d s 1958 852 m 9 -20 d s 1960 855 m 9
 -21 d s 1977 854 m -9 -21 d s 1977 853 m -9 -20 d s 1977 854 m -9 -21 d s 1976
 853 m -9 -21 d s 1978 854 m -9 -21 d s 1976 853 m -9 -21 d s 1978 855 m -9 -21
 d s 1976 852 m -9 -20 d s 1978 855 m -9 -21 d s 1984 870 m 3 -3 d 3 -5 d 3 -5 d
 2 -8 d -6 Y -2 -7 d -3 -6 d -3 -5 d -3 -3 d s 1984 870 m 3 -3 d 3 -5 d 3 -6 d 1
 -7 d -6 Y -1 -8 d -3 -5 d -3 -5 d -3 -3 d s 1985 870 m 3 -3 d 3 -4 d 3 -6 d 1
 -8 d -5 Y -1 -8 d -3 -6 d -3 -4 d -3 -3 d s 1984 869 m 3 -3 d 3 -4 d 3 -6 d 1
 -7 d -6 Y -1 -8 d -3 -6 d -3 -4 d -3 -3 d s 1985 871 m 3 -3 d 3 -5 d 3 -6 d 1
 -7 d -6 Y -1 -8 d -3 -5 d -3 -5 d -3 -3 d s 1983 869 m 3 -3 d 3 -4 d 3 -6 d 2
 -8 d -6 Y -2 -7 d -3 -6 d -3 -4 d -3 -3 d s 1985 871 m 3 -3 d 3 -5 d 3 -6 d 2
 -7 d -6 Y -2 -7 d -3 -6 d -3 -5 d -3 -3 d s 1983 869 m 3 -3 d 3 -5 d 3 -6 d 2
 -7 d -6 Y -2 -7 d -3 -6 d -3 -5 d -3 -3 d s 1986 871 m 3 -3 d 3 -4 d 3 -6 d 1
 -8 d -6 Y -1 -7 d -3 -6 d -3 -4 d -3 -3 d s 1779 1222 222 961 C 2223 1668 0 738
 C 1779 1222 222 961 C 2223 1668 0 738 C 839 2030 m -11 -37 d s 838 2029 m -10
 -37 d s 839 2030 m -10 -37 d s 838 2029 m -11 -37 d s 840 2031 m -11 -37 d s
 837 2028 m -10 -37 d s 841 2032 m -11 -37 d s 837 2028 m -11 -37 d s 841 2032 m
 -10 -37 d s 852 2030 m 3 -16 d 2 -13 d 3 -8 d s 852 2029 m 2 -16 d 3 -13 d 3 -8
 d s 853 2030 m 2 -15 d 3 -14 d 3 -8 d s 851 2029 m 3 -16 d 2 -13 d 3 -8 d s 853
 2031 m 3 -16 d 3 -13 d 2 -8 d s 850 2028 m 3 -16 d 3 -13 d 2 -8 d s 854 2032 m
 2 -16 d 3 -14 d 3 -7 d s 850 2028 m 3 -16 d 2 -13 d 3 -8 d s 854 2032 m 3 -16 d
 3 -13 d 2 -8 d s 820 2022 m 6 5 d 8 3 d 34 X s 820 2021 m 5 6 d 8 2 d 34 X s
 821 2023 m 5 5 d 8 2 d 35 X s 819 2021 m 6 5 d 8 3 d 34 X s 822 2023 m 5 5 d 8
 3 d 34 X s 819 2020 m 5 6 d 8 2 d 34 X s 822 2024 m 5 5 d 8 3 d 35 X s 818 2020
 m 5 5 d 8 3 d 35 X s 823 2024 m 5 5 d 8 3 d 34 X s 1779 1222 222 961 C 2223
 1668 0 738 C 1779 1222 222 961 C 2223 1668 0 738 C 1122 1459 m -56 Y s 1122
 1458 m -56 Y s 1123 1459 m -55 Y s 1121 1457 m -55 Y s 1123 1460 m -56 Y s 1120
 1457 m -56 Y s 1124 1460 m -55 Y s 1120 1456 m -55 Y s 1124 1461 m -56 Y s 1159
 1459 m -37 -37 d s 1159 1458 m -37 -37 d s 1160 1459 m -37 -37 d s 1158 1457 m
 -37 -37 d s 1160 1460 m -37 -37 d s 1157 1457 m -37 -37 d s 1161 1460 m -37 -37
 d s 1157 1456 m -37 -37 d s 1161 1461 m -37 -37 d s 1135 1435 m 24 -32 d s 1135
 1434 m 24 -32 d s 1136 1435 m 24 -31 d s 1134 1434 m 24 -32 d s 1136 1436 m 24
 -32 d s 1134 1433 m 23 -32 d s 1137 1436 m 24 -31 d s 1133 1433 m 24 -32 d s
 1138 1437 m 23 -32 d s 1779 1222 222 961 C 2223 1668 0 738 C 1779 1222 222 961
 C 2223 1668 0 738 C 1632 1192 m -55 Y s 1631 1192 m -56 Y s 1632 1193 m -56 Y s
 1631 1191 m -55 Y s 1633 1193 m -55 Y s 1630 1191 m -56 Y s 1634 1194 m -56 Y s
 1630 1190 m -55 Y s 1634 1195 m -56 Y s 1632 1184 m 5 6 d 5 2 d 8 X 6 -2 d 5 -6
 d 3 -8 d -5 Y -3 -8 d -5 -5 d -6 -3 d -8 X -5 3 d -5 5 d s 1631 1184 m 6 5 d 5
 3 d 8 X 5 -3 d 5 -5 d 3 -8 d -5 Y -3 -8 d -5 -6 d -5 -2 d -8 X -5 2 d -6 6 d s
 1632 1185 m 6 5 d 5 3 d 8 X 5 -3 d 6 -5 d 2 -8 d -5 Y -2 -8 d -6 -5 d -5 -3 d
 -8 X -5 3 d -6 5 d s 1631 1183 m 5 6 d 5 2 d 8 X 6 -2 d 5 -6 d 3 -8 d -5 Y -3
 -8 d -5 -5 d -6 -3 d -8 X -5 3 d -5 5 d s 1633 1186 m 5 5 d 6 2 d 8 X 5 -2 d 5
 -5 d 3 -8 d -6 Y -3 -8 d -5 -5 d -5 -3 d -8 X -6 3 d -5 5 d s 1630 1183 m 6 5 d
 5 3 d 8 X 5 -3 d 5 -5 d 3 -8 d -5 Y -3 -8 d -5 -6 d -5 -2 d -8 X -5 2 d -6 6 d
 s 1634 1186 m 5 5 d 5 3 d 8 X 5 -3 d 6 -5 d 2 -8 d -5 Y -2 -8 d -6 -5 d -5 -3 d
 -8 X -5 3 d -5 5 d s 1630 1182 m 5 5 d 5 3 d 8 X 6 -3 d 5 -5 d 2 -8 d -5 Y -2
 -8 d -5 -5 d -6 -3 d -8 X -5 3 d -5 5 d s 1634 1187 m 5 5 d 6 3 d 8 X 5 -3 d 5
 -5 d 3 -8 d -6 Y -3 -8 d -5 -5 d -5 -2 d -8 X -6 2 d -5 5 d s 1779 1222 222 961
 C gr 
showpage
 gr 
 gr  gr 
cleartomark
countdictstack exch sub { end } repeat
restore
%%EndDocument
count tgifopcount0 sub dup 0 gt {{pop} repeat} {pop} ifelse
countdictstack tgifdictcount0 sub dup 0 gt {{end} repeat} {pop} ifelse
tgiflevel0 restore
tgifdict begin

grestore
tgifsavedpage restore
end
%MatchingCreationDate: Sun Jan 16 19:51:43 2000
