%!PS-Adobe-3.0 EPSF-3.0
%%BoundingBox: 42 515 537 778
%%Title: temp
%%CreationDate: Sat Jul 15 17:12:31 2000
%%Creator: Tgif-4.1.34 by William Chia-Wei Cheng (william@cs.UCLA.edu)
%%ProducedBy: (unknown)
%%Pages: 1
%%DocumentFonts: (atend)
%%EndComments
%%BeginProlog

/tgifdict 48 dict def
tgifdict begin

/bd { bind def } bind def

/GS { gsave } bd
/GR { grestore } bd
/NP { newpath } bd
/CP { closepath } bd
/CHP { charpath } bd
/CT { curveto } bd
/L { lineto } bd
/RL { rlineto } bd
/M { moveto } bd
/RM { rmoveto } bd
/S { stroke } bd
/F { fill } bd
/TR { translate } bd
/RO { rotate } bd
/SC { scale } bd
/MU { mul } bd
/DI { div } bd
/DU { dup } bd
/NE { neg } bd
/AD { add } bd
/SU { sub } bd
/PO { pop } bd
/EX { exch } bd
/CO { concat } bd
/CL { clip } bd
/EC { eoclip } bd
/EF { eofill } bd
/IM { image } bd
/IMM { imagemask } bd
/ARY { array } bd
/SG { setgray } bd
/RG { setrgbcolor } bd
/SD { setdash } bd
/W { setlinewidth } bd
/SM { setmiterlimit } bd
/SLC { setlinecap } bd
/SLJ { setlinejoin } bd
/SH { show } bd
/FF { findfont } bd
/MS { makefont setfont } bd
/AR { arcto 4 {pop} repeat } bd
/CURP { currentpoint } bd
/FLAT { flattenpath strokepath clip newpath } bd
/TGSM { tgiforigctm setmatrix } def
/TGRM { savematrix setmatrix } def

end

%%EndProlog
%%Page: 1 1

%%PageBoundingBox: 42 515 537 778
tgifdict begin
/tgifsavedpage save def

1 SM
1 W

0 SG

72 0 MU 72 11 MU TR
72 128 DI 80.000 MU 100 DI DU NE SC

GS

/tgiforigctm matrix currentmatrix def

% EPS
end
/tgiflevel0 save def
/tgifdictcount0 countdictstack def
/tgifopcount0 count 1 sub def
userdict begin
/showpage {} def
/letter {} def
/legal {} def
/a4 {} def
/setpagedevice {} def
/erasepage {} def
/bop-hook {} def
/eop-hook {} def
/start-hook {} def
/end-hook {} def
0 setgray 0 setlinecap 1 setlinewidth
0 setlinejoin 10 setmiterlimit [] 0 setdash newpath
1 72 128 div 80.000 mul 100 div div dup neg scale
72 0 mul neg 72 11 mul neg translate

288.000 516.150 translate 0.450 0.450 scale 0 rotate

%%BeginDocument: attenuation_bat3a.ps
%!PS-Adobe-2.0 EPSF-2.0
80 dict begin
/s {stroke} def /l {lineto} def /m {moveto} def /t {translate} def
/sw {stringwidth} def /r {rotate} def /rl {roll}  def /R {repeat} def
/d {rlineto} def /rm {rmoveto} def /gr {grestore} def /f {eofill} def
/c {setrgbcolor} def /lw {setlinewidth} def /sd {setdash} def
/cl {closepath} def /sf {scalefont setfont} def /black {0 setgray} def
/box {m dup 0 exch d exch 0 d 0 exch neg d cl} def
/NC{systemdict begin initclip end}def/C{NC box clip newpath}def
/bl {box s} def /bf {box f} def /Y { 0 exch d} def /X { 0 d} def 
/mp {newpath /y exch def /x exch def} def
/side {[w .77 mul w .23 mul] .385 w mul sd w 0 l currentpoint t -144 r} def
/mr {mp x y w2 0 360 arc} def /m24 {mr s} def /m20 {mr f} def
/mb {mp x y w2 add m w2 neg 0 d 0 w neg d w 0 d 0 w d cl} def
/mt {mp x y w2 add m w2 neg w neg d w 0 d cl} def
/m21 {mb f} def /m25 {mb s} def /m22 {mt f} def /m26{mt s} def
/m23 {mp x y w2 sub m w2 w d w neg 0 d cl f} def
/m27 {mp x y w2 add m w3 neg w2 neg d w3 w2 neg d w3 w2 d cl s} def
/m28 {mp x w2 sub y w2 sub w3 add m w3 0 d 0 w3 neg d w3 0 d 0 w3 d w3 0 d
 0 w3 d w3 neg 0 d 0 w3 d w3 neg 0 d
 0 w3 neg d w3 neg 0 d cl s } def
/m29 {mp gsave x w2 sub y w2 add w3 sub m currentpoint t
 4 {side} repeat cl fill gr} def
/m30 {mp gsave x w2 sub y w2 add w3 sub m currentpoint t
 5 {side} repeat s gr} def
/m31 {mp x y w2 sub m 0 w d x w2 sub y m w 0 d
 x w2 sub y w2 add m w w neg d x w2 sub y w2
 sub m w w d s} def
/m2 {mp x y w2 sub m 0 w d x w2 sub y m w 0 d s} def
/m5 {mp x w2 sub y w2 sub m w w d x w2 sub y w2 add m w w neg d s} def
/DP {/PT exch def gsave 47.2 47.2 scale PT 1 eq { 1616 1 [ 16 0 0 16 neg 0 16
] { < AA AA 55 55 AA AA 55 55 AA AA 55 55 AA AA 55 55 AA AA 55 55 AA AA 55 55
AA AA 55 55 AA AA 55 55 > } image } if PT 2 eq { 16 16 1 [ 16 0 0 16 neg 0 16
] { < BB BB EE EE BB BB EE EE BB BB EE EE BB BB EE EE BB BB EE EE BB BB EE EE
BB BB EE EE BB BB EE EE > } image } if PT 3 eq { 16 16 1 [ 16 0 0 16 neg 0 16
] { < FF FF BB BB FF FF EE EE FF FF BB BB FF FF EE EE FF FF BB BB FF FF EE EE
FF FF BB BB FF FF EE EE > } image } if PT 4 eq { 16 16 1 [ 16 0 0 16 neg 0 16
] { < DF DF BF BF 7F 7F FE FE FD FD FB FB F7 F7 EF EF DF DF BF BF 7F 7F FE FE
FD FD FB FB F7 F7 EF EF > } image } if PT 5 eq { 16 16 1 [ 16 0 0 16 neg 0 16
] { < 7F 7F BF B F DF DF EF EF F7 F7 FB FB FD FD FE FE 7F 7F BF BF DF DF EF
EF F7 F7 FB FB FD FD FE FE > } image } if PT 6 eq { 16 16 1 [ 16 0 0 16 neg 0
16 ] { < BB BB BB BB BB BB BB BB BB BB BB BB BB BB BB BB BB BB BB BB BB BB BB
BB BB BB BB BB BB BB BB BB > } image } if PT 7 eq { 16 16 1 [ 16 0 0 16 neg 0
16 ] { < FF FF FF FF FF FF 00 00 FF FF FF FF FF FF 00 00 FF FF FF FF FF FF 00
00 FF FF FF FF FF FF 00 00 > } image } if PT 8 eq { 16 16 1 [ 16 0 0 16 neg 0
16 ] { < EE EE 47 47 83 83 C5 C5 EE EE 5C 5C 38 38 74 74 EE EE 47 47 83 83 C5
C5 EE EE 5C 5C 38 38 74 74 > } image } if PT 9 eq { 16 16 1 [ 16 0 0 16 neg 0
16 ] { < EF EF EF EF D7 D7 38 38 FE FE FE FE 7D 7D 83 83 EF EF EF EF D7 D7 38
38 FE FE FE FE 7D 7D 83 83 > } image } if PT 10 eq {16 16 1 [ 16 0 0 16 neg
0 16 ] { < EF EF EF EF EF EF 00 00 FE FE FE FE FE FE00 00 EF EF EF EF EF EF
00 00 FE FE FE FE FE FE 00 00 > } image } if PT 11 eq { 16 16 1 [ 16 0 0 16
neg 0 16 ] { < F7 F7 B6 B6 D5 D5 E3 E3 D5 D5 B6 B6 F7 F7 FF FF 7F 7F 6B 6B 5D
5D 3E 3E 5D 5D 6B 6B 7F 7F FF FF > } image } if PT 12 eq { 16 16 1 [ 16 0 0
16 neg 0 16 ] { < E3 E3 DD DD BE BE BE BE BE BE DD DD E3 E3 FF FF 3E 3E DD DD
EB EB EB EB EB EB DD DD 3E 3E FF FF > } image } if PT 13 eq { 16 16 1 [ 16 0
0 16 neg 0 16 ] { < FE FE 7D 7D BB BB D7 D7 EF EF D7D7 BB BB 7D 7D FE FE 7D
7D BB BB D7 D7 EF EF D7 D7 BB BB 7D 7D > } image } if PT 14 eq { 16 16 1 [ 16
0 0 16 neg 0 16 ] { < 00 00 EE EF EE EF EE EF 0E E0 EE EE EE EE EE EE 00 EE
FE EE FE EE FE EE 00 00 FE EF FE EF FE EF > } image } if PT 15 eq { 16 16 1 [
16 0 0 16 neg 0 16 ] { < DD DD AA AA DD DD FF FF 77 77 AA AA 77 77 FF FF DD
DD AA AA DD DD FF FF 77 77 AA AA 77 77 FF FF > } image } if PT 16 eq { 16 16
1 [ 16 0 0 16 neg 0 16 ] { < F1 F1 EE EE 1F 1F FF FFF1 F1 EE EE 1F 1F FF FF
F1 F1 EE EE 1F 1F FF FF F1 F1 EE EE 1F 1F FF FF > } image } if PT 17 eq { 16
16 1 [ 16 0 0 16 neg 0 16 ] { < EE EE DD DD BB BB FFFF EE EE DD DD BB BB FF
FF EE EE DD DD BB BB FF FF EE EE DD DD BB BB FF FF >} image } if PT 18 eq {
16 16 1 [ 16 0 0 16 neg 0 16 ] { < BB BB DD DD EE EEFF FF BB BB DD DD EE EE
FF FF BB BB DD DD EE EE FF FF BB BB DD DD EE EE FF FF > } image } if PT 19 eq
{ 16 16 1 [ 16 0 0 16 neg 0 16 ] { < 1F FC 67 F3 7B EF BD DE BD DE DE BD E6
B3 F8 0F E6 B3 DE BD BD DE BD DE 7B EF 67 F3 1F FC 7F FF > } image } if PT
20 eq { 16 16 1 [ 16 0 0 16 neg 0 16 ] { < DD DD EE EE EE EE EE EE DD DD BB
BB BB BB BB BB DD DD EE EE EE EE EE EE DD DD BB BB BB BB BB BB > } image }
if PT 21 eq { 16 16 1 [ 16 0 0 16 neg 0 16 ] { < 0E 0E EF EF EF EF EF EF E0
E0 FE FE FE FE FE FE 0E 0E EF EF EF EF EF EF E0 E0 FE FE FE FE FE FE > }
image } if PT 22 eq { 16 16 1 [ 16 0 0 16 neg 0 16 ]{ < 70 70 F7 F7 F7 F7 F7
F7 07 07 7F 7F 7F 7F 7F 7F 70 70 F7 F7 F7 F7 F7 F7 07 07 7F 7F 7F 7F 7F 7F >
} image } if PT 23 eq { 16 16 1 [ 16 0 0 16 neg 0 16] { < AA AA 55 55 A9 A9
D1 D1 E1 E1 D1 D1 A9 A9 55 55 AA AA 55 55 A9 A9 D1 D1 E1 E1 D1 D1 A9 A9 55 55
> } image } if PT 24 eq { 16 16 1 [ 16 0 0 16 neg 0 16 ] { < FF FE FF FC EA
A8 D5 54 EA A8 D5 54 E8 28 D4 54 E8 E8 D4 D4 E8 EA 54 D5 A8 EA 54 D5 00 C0 00
80 > } image } if PT 25 eq { 16 16 1 [ 16 0 0 16 neg0 16 ] { < FF FE FF FC
FF F8 FF F0 F0 00 F0 00 F0 20 F0 60 F0 E0 F1 E0 F3 E0 F0 00 E0 00 C0 00 80 00
00 00 > } image } if gr } def /FA { /PT exch def gsave clip 0 0 translate 1 1
54 { 1 sub 47.2 mul /Xcurr exch def 1 1 74 { 1 sub 47.2 mul /Ycurr exch def
gsave Xcurr Ycurr translate PT DP gr } for } for gr } def
/reencdict 24 dict def /ReEncode {reencdict begin /nco&na exch def
/nfnam exch def /basefontname exch def /basefontdict basefontname findfont def
/newfont basefontdict maxlength dict def basefontdict {exch dup /FID ne
{dup /Encoding eq {exch dup length array copy newfont 3 1 roll put} {exch
newfont 3 1 roll put} ifelse} {pop pop} ifelse } forall newfont
/FontName nfnam put nco&na aload pop nco&na length 2 idiv {newfont
/Encoding get 3 1 roll put} repeat nfnam newfont definefont pop end } def
/accvec [ 176 /agrave 181 /Agrave 190 /acircumflex 192 /Acircumflex
201 /adieresis 204 /Adieresis 209 /ccedilla 210 /Ccedilla 211 /eacute
212 /Eacute 213 /egrave 214 /Egrave 215 /ecircumflex 216 /Ecircumflex
217 /edieresis 218 /Edieresis 219 /icircumflex 220 /Icircumflex
221 /idieresis 222 /Idieresis 223 /ntilde 224 /Ntilde 226 /ocircumflex
228 /Ocircumflex 229 /odieresis 230 /Odieresis 231 /ucircumflex 236 /Ucircumflex
237 /udieresis 238 /Udieresis 239 /aring 242 /Aring 243 /ydieresis
244 /Ydieresis 246 /aacute 247 /Aacute 252 /ugrave 253 /Ugrave] def
/Times-Roman /Times-Roman accvec ReEncode
/Times-Italic /Times-Italic accvec ReEncode
/Times-Bold /Times-Bold accvec ReEncode
/Times-BoldItalic /Times-BoldItalic accvec ReEncode
/Helvetica /Helvetica accvec ReEncode
/Helvetica-Oblique /Helvetica-Oblique accvec ReEncode
/Helvetica-Bold /Helvetica-Bold accvec ReEncode
/Helvetica-BoldOblique /Helvetica-BoldOblique  accvec ReEncode
/Courier /Courier accvec ReEncode
/Courier-Oblique /Courier-Oblique accvec ReEncode
/Courier-Bold /Courier-Bold accvec ReEncode
/Courier-BoldOblique /Courier-BoldOblique accvec ReEncode
/oshow {gsave [] 0 sd true charpath stroke gr} def
/stwn { /fs exch def /fn exch def /text exch def fn findfont fs sf
 text sw pop xs add /xs exch def} def
/stwb { /fs exch def /fn exch def /nbas exch def /textf exch def
textf length /tlen exch def nbas tlen gt {/nbas tlendef} if
fn findfont fs sf textf dup length nbas sub nbas getinterval sw
pop neg xs add /xs exch def} def
/accspe [ 65 /plusminus 66 /bar 67 /existential 68 /universal
69 /exclam 70 /numbersign 71 /greater 72 /question 73 /integral
74 /colon 75 /semicolon 76 /less 77 /bracketleft 78 /bracketright
79 /greaterequal 80 /braceleft 81 /braceright 82 /radical
83 /spade 84 /heart 85 /diamond 86 /club 87 /lessequal
88 /multiply 89 /percent 90 /infinity 48 /circlemultiply 49 /circleplus
50 /emptyset 51 /lozenge 52 /bullet 53 /arrowright 54 /arrowup
55 /arrowleft 56 /arrowdown 57 /arrowboth 48 /degree 44 /comma 43 /plus
 45 /angle 42 /angleleft 47 /divide 61 /notequal 40 /equivalence 41 /second
 97 /approxequal 98 /congruent 99 /perpendicular 100 /partialdiff 101 /florin
 102 /intersection 103 /union 104 /propersuperset 105 /reflexsuperset
 106 /notsubset 107 /propersubset 108 /reflexsubset 109 /element 110 /notelement
 111 /gradient 112 /logicaland 113 /logicalor 114 /arrowdblboth
 115 /arrowdblleft 116 /arrowdblup 117 /arrowdblright 118 /arrowdbldown
 119 /ampersand 120 /omega1 121 /similar 122 /aleph ] def
/Symbol /Special accspe ReEncode
gsave .25 .25 scale 
 gsave 0 0 t black [] 0 sd 1 lw 882 2062 m -91 Y s 885 2065 m -91 Y s 881 2061 m
 -91 Y s 886 2066 m -91 Y s 882 2062 m 35 -91 d s 885 2065 m 35 -91 d s 881 2061
 m 35 -91 d s 886 2066 m 35 -91 d s 951 2062 m -34 -91 d s 954 2065 m -34 -91 d
 s 950 2061 m -34 -91 d s 956 2066 m -35 -91 d s 951 2062 m -91 Y s 954 2065 m
 -91 Y s 950 2061 m -91 Y s 956 2066 m -91 Y s 982 2006 m 52 X 8 Y -5 9 d -4 4 d
 -9 5 d -13 X -8 -5 d -9 -8 d -4 -13 d -9 Y 4 -13 d 9 -8 d 8 -5 d 13 X 9 5 d 9 8
 d s 984 2008 m 52 X 9 Y -4 9 d -4 4 d -9 4 d -13 X -9 -4 d -8 -9 d -5 -13 d -8
 Y 5 -13 d 8 -9 d 9 -4 d 13 X 9 4 d 8 9 d s 980 2004 m 52 X 9 Y -4 9 d -4 4 d -9
 4 d -13 X -9 -4 d -8 -9 d -5 -13 d -8 Y 5 -13 d 8 -9 d 9 -4 d 13 X 9 4 d 8 9 d
 s 986 2010 m 52 X 8 Y -5 9 d -4 4 d -9 5 d -13 X -8 -5 d -9 -8 d -4 -13 d -9 Y
 4 -13 d 9 -8 d 8 -5 d 13 X 9 5 d 9 8 d s 1111 2032 m -61 Y s 1114 2034 m -60 Y
 s 1110 2030 m -60 Y s 1115 2036 m -61 Y s 1111 2019 m -8 8 d -9 5 d -13 X -9 -5
 d -8 -8 d -5 -13 d -9 Y 5 -13 d 8 -8 d 9 -5 d 13 X 9 5 d 8 8 d s 1114 2021 m -9
 9 d -8 4 d -13 X -9 -4 d -9 -9 d -4 -13 d -8 Y 4 -13 d 9 -9 d 9 -4 d 13 X 8 4 d
 9 9 d s 1110 2017 m -9 9 d -8 4 d -13 X -9 -4 d -9 -9 d -4 -13 d -8 Y 4 -13 d 9
 -9 d 9 -4 d 13 X 8 4 d 9 9 d s 1115 2023 m -8 8 d -9 5 d -13 X -9 -5 d -8 -8 d
 -4 -13 d -9 Y 4 -13 d 8 -8 d 9 -5 d 13 X 9 5 d 8 8 d s 1146 2032 m -61 Y s 1149
 2034 m -60 Y s 1144 2030 m -60 Y s 1150 2036 m -61 Y s 1146 2014 m 13 13 d 8 5
 d 13 X 9 -5 d 4 -13 d -43 Y s 1149 2017 m 12 13 d 9 4 d 13 X 9 -4 d 4 -13 d -43
 Y s 1144 2013 m 13 13 d 9 4 d 13 X 9 -4 d 4 -13 d -43 Y s 1150 2018 m 13 13 d 8
 5 d 13 X 9 -5 d 4 -13 d -43 Y s 1293 2062 m -35 -91 d s 1295 2065 m -34 -91 d s
 1291 2061 m -34 -91 d s 1297 2066 m -35 -91 d s 1293 2062 m 34 -91 d s 1295
 2065 m 35 -91 d s 1291 2061 m 35 -91 d s 1297 2066 m 34 -91 d s 1271 2001 m 43
 X s 1274 2004 m 43 X s 1270 2000 m 43 X s 1275 2006 m 43 X s 1349 2062 m -91 Y
 s 1351 2065 m -91 Y s 1347 2061 m -91 Y s 1353 2066 m -91 Y s 1349 2062 m 30 X
 13 -4 d 9 -9 d 4 -9 d 4 -13 d -21 Y -4 -13 d -4 -9 d -9 -8 d -13 -5 d -30 X s
 1351 2065 m 31 X 13 -5 d 8 -8 d 5 -9 d 4 -13 d -22 Y -4 -12 d -5 -9 d -8 -9 d
 -13 -4 d -31 X s 1347 2061 m 31 X 13 -5 d 8 -8 d 5 -9 d 4 -13 d -22 Y -4 -13 d
 -5 -8 d -8 -9 d -13 -4 d -31 X s 1353 2066 m 30 X 13 -4 d 9 -9 d 4 -9 d 4 -13 d
 -21 Y -4 -13 d -4 -9 d -9 -8 d -13 -5 d -30 X s 1500 2040 m -4 9 d -9 9 d -9 4
 d -17 X -9 -4 d -8 -9 d -5 -9 d -4 -13 d -21 Y 4 -13 d 5 -9 d 8 -8 d 9 -5 d 17
 X 9 5 d 9 8 d 4 9 d s 1503 2043 m -5 9 d -8 8 d -9 5 d -17 X -9 -5 d -8 -8 d -5
 -9 d -4 -13 d -22 Y 4 -12 d 5 -9 d 8 -9 d 9 -4 d 17 X 9 4 d 8 9 d 5 9 d s 1499
 2039 m -5 9 d -8 8 d -9 5 d -17 X -9 -5 d -9 -8 d -4 -9 d -4 -13 d -22 Y 4 -13
 d 4 -8 d 9 -9 d 9 -4 d 17 X 9 4 d 8 9 d 5 8 d s 1504 2044 m -4 9 d -9 9 d -9 4
 d -17 X -8 -4 d -9 -9 d -4 -9 d -5 -13 d -21 Y 5 -13 d 4 -9 d 9 -8 d 8 -5 d 17
 X 9 5 d 9 8 d 4 9 d s 4 lw 366 1655 m 34 Y 34 X -34 Y -34 X cl s 408 1530 m 34
 Y 34 X -34 Y -34 X cl s 451 1546 m 34 Y 34 X -34 Y -34 X cl s 493 1542 m 34 Y
 34 X -34 Y -34 X cl s 536 1569 m 34 Y 34 X -34 Y -34 X cl s 578 1554 m 34 Y 34
 X -34 Y -34 X cl s 621 1638 m 34 Y 34 X -34 Y -34 X cl s 663 1560 m 34 Y 34 X
 -34 Y -34 X cl s 706 1521 m 34 Y 34 X -34 Y -34 X cl s 748 1562 m 34 Y 34 X -34
 Y -34 X cl s 791 1604 m 34 Y 34 X -34 Y -34 X cl s 833 1540 m 34 Y 34 X -34 Y
 -34 X cl s 876 1579 m 34 Y 34 X -34 Y -34 X cl s 918 1674 m 34 Y 34 X -34 Y -34
 X cl s 961 1353 m 34 Y 34 X -34 Y -34 X cl s 1003 1516 m 34 Y 34 X -34 Y -34 X
 cl s 1046 1605 m 34 Y 34 X -34 Y -34 X cl s 1088 1591 m 34 Y 34 X -34 Y -34 X
 cl s 1131 1587 m 34 Y 34 X -34 Y -34 X cl s 1173 1552 m 34 Y 34 X -34 Y -34 X
 cl s 1216 1540 m 34 Y 34 X -34 Y -34 X cl s 1258 1562 m 34 Y 34 X -34 Y -34 X
 cl s 1301 1556 m 34 Y 34 X -34 Y -34 X cl s 1343 1559 m 34 Y 34 X -34 Y -34 X
 cl s 1386 1491 m 34 Y 34 X -34 Y -34 X cl s 1428 1518 m 34 Y 34 X -34 Y -34 X
 cl s 1471 1680 m 34 Y 34 X -34 Y -34 X cl s 1513 1482 m 34 Y 34 X -34 Y -34 X
 cl s 1556 1661 m 34 Y 34 X -34 Y -34 X cl s 1598 1545 m 34 Y 34 X -34 Y -34 X
 cl s 1641 1546 m 34 Y 34 X -34 Y -34 X cl s 1683 1458 m 34 Y 34 X -34 Y -34 X
 cl s 1726 1564 m 34 Y 34 X -34 Y -34 X cl s 1769 1596 m 34 Y 34 X -34 Y -34 X
 cl s 1811 1620 m 34 Y 34 X -34 Y -34 X cl s 1854 1462 m 34 Y 34 X -34 Y -34 X
 cl s 1896 1621 m 34 Y 34 X -34 Y -34 X cl s 1939 1612 m 34 Y 34 X -34 Y -34 X
 cl s 340 272 m -45 Y s
 /xs 0 def 
(0)
 /Times-Roman     86 stwn 
 gsave  340 108
 t   0 r  xs 2 div neg 0 t 0 0 m
 /Times-Roman findfont   86 sf 0    0 m 
(0)
 show 
 gr
 446 249 m -22 Y s 553 249 m -22 Y s 659 249 m -22 Y s 765 272 m -45 Y s
 /xs 0 def 
(10)
 /Times-Roman     86 stwn 
 gsave  765 108
 t   0 r  xs 2 div neg 0 t 0 0 m
 /Times-Roman findfont   86 sf 0    0 m 
(10)
 show 
 gr
 872 249 m -22 Y s 978 249 m -22 Y s 1084 249 m -22 Y s 1190 272 m -45 Y s
 /xs 0 def 
(20)
 /Times-Roman     86 stwn 
 gsave  1190 108
 t   0 r  xs 2 div neg 0 t 0 0 m
 /Times-Roman findfont   86 sf 0    0 m 
(20)
 show 
 gr
 1297 249 m -22 Y s 1403 249 m -22 Y s 1509 249 m -22 Y s 1615 272 m -45 Y s
 /xs 0 def 
(30)
 /Times-Roman     86 stwn 
 gsave  1615 108
 t   0 r  xs 2 div neg 0 t 0 0 m
 /Times-Roman findfont   86 sf 0    0 m 
(30)
 show 
 gr
 1722 249 m -22 Y s 1828 249 m -22 Y s 1934 249 m -22 Y s 2041 272 m -45 Y s
 /xs 0 def 
(40)
 /Times-Roman     86 stwn 
 gsave  2041 108
 t   0 r  xs 2 div neg 0 t 0 0 m
 /Times-Roman findfont   86 sf 0    0 m 
(40)
 show 
 gr
 /xs 0 def 
(Counter Number)
 /Times-Roman    120 stwn 
 gsave  1190 -57
 t   0 r  xs 2 div neg 0 t 0 0 m
 /Times-Roman findfont  120 sf 0    0 m 
(Counter Number)
 show 
 gr
 340 1882 m 45 Y s 446 1905 m 22 Y s 553 1905 m 22 Y s 659 1905 m 22 Y s 765
 1882 m 45 Y s 872 1905 m 22 Y s 978 1905 m 22 Y s 1084 1905 m 22 Y s 1190 1882
 m 45 Y s 1297 1905 m 22 Y s 1403 1905 m 22 Y s 1509 1905 m 22 Y s 1615 1882 m
 45 Y s 1722 1905 m 22 Y s 1828 1905 m 22 Y s 1934 1905 m 22 Y s 2041 1882 m 45
 Y s 385 227 m -45 X s
 /xs 0 def 
(0)
 /Times-Roman     86 stwn 
 gsave  317 221
 t   0 r  xs neg 0 t 0 0 m
 /Times-Roman findfont   86 sf 0    0 m 
(0)
 show 
 gr
 363 298 m -23 X s 363 368 m -23 X s 363 439 m -23 X s 385 510 m -45 X s
 /xs 0 def 
(40)
 /Times-Roman     86 stwn 
 gsave  317 504
 t   0 r  xs neg 0 t 0 0 m
 /Times-Roman findfont   86 sf 0    0 m 
(40)
 show 
 gr
 363 581 m -23 X s 363 652 m -23 X s 363 723 m -23 X s 385 794 m -45 X s
 /xs 0 def 
(80)
 /Times-Roman     86 stwn 
 gsave  317 788
 t   0 r  xs neg 0 t 0 0 m
 /Times-Roman findfont   86 sf 0    0 m 
(80)
 show 
 gr
 363 864 m -23 X s 363 935 m -23 X s 363 1006 m -23 X s 385 1077 m -45 X s
 /xs 0 def 
(120)
 /Times-Roman     86 stwn 
 gsave  317 1071
 t   0 r  xs neg 0 t 0 0 m
 /Times-Roman findfont   86 sf 0    0 m 
(120)
 show 
 gr
 363 1148 m -23 X s 363 1219 m -23 X s 363 1290 m -23 X s 385 1360 m -45 X s
 /xs 0 def 
(160)
 /Times-Roman     86 stwn 
 gsave  317 1355
 t   0 r  xs neg 0 t 0 0 m
 /Times-Roman findfont   86 sf 0    0 m 
(160)
 show 
 gr
 363 1431 m -23 X s 363 1502 m -23 X s 363 1573 m -23 X s 385 1644 m -45 X s
 /xs 0 def 
(200)
 /Times-Roman     86 stwn 
 gsave  317 1638
 t   0 r  xs neg 0 t 0 0 m
 /Times-Roman findfont   86 sf 0    0 m 
(200)
 show 
 gr
 363 1715 m -23 X s 363 1786 m -23 X s 363 1856 m -23 X s 385 1927 m -45 X s
 /xs 0 def 
(240)
 /Times-Roman     86 stwn 
 gsave  317 1922
 t   0 r  xs neg 0 t 0 0 m
 /Times-Roman findfont   86 sf 0    0 m 
(240)
 show 
 gr
 /xs 0 def 
(ADC Count)
 /Times-Roman    120 stwn 
 gsave  113 1077
 t  90 r  xs 2 div neg 0 t 0 0 m
 /Times-Roman findfont  120 sf 0    0 m 
(ADC Count)
 show 
 gr
 1995 227 m 46 X s 2018 298 m 23 X s 2018 368 m 23 X s 2018 439 m 23 X s 1995
 510 m 46 X s 2018 581 m 23 X s 2018 652 m 23 X s 2018 723 m 23 X s 1995 794 m
 46 X s 2018 864 m 23 X s 2018 935 m 23 X s 2018 1006 m 23 X s 1995 1077 m 46 X
 s 2018 1148 m 23 X s 2018 1219 m 23 X s 2018 1290 m 23 X s 1995 1360 m 46 X s
 2018 1431 m 23 X s 2018 1502 m 23 X s 2018 1573 m 23 X s 1995 1644 m 46 X s
 2018 1715 m 23 X s 2018 1786 m 23 X s 2018 1856 m 23 X s 1995 1927 m 46 X s 340
 227 m 1701 X s 340 1927 m 1701 X s 340 227 m 1700 Y s 2041 227 m 1700 Y s 3 lw
 487 544 m 46 Y 46 X -46 Y -46 X cl s 1 lw 609 590 m -46 Y s 609 589 m -46 Y s
 610 590 m -45 Y s 609 590 m 29 X s 609 589 m 28 X s 610 590 m 28 X s 609 568 m
 18 X s 609 567 m 17 X s 610 569 m 17 X s 609 544 m 29 X s 609 543 m 28 X s 610
 545 m 28 X s 674 574 m -30 Y s 674 574 m -31 Y s 675 575 m -30 Y s 674 568 m -4
 4 d -4 2 d -7 X -4 -2 d -4 -4 d -3 -7 d -4 Y 3 -6 d 4 -5 d 4 -2 d 7 X 4 2 d 4 5
 d s 674 567 m -5 5 d -4 2 d -7 X -4 -2 d -4 -5 d -2 -6 d -5 Y 2 -6 d 4 -4 d 4
 -3 d 7 X 4 3 d 5 4 d s 675 569 m -4 4 d -5 2 d -6 X -4 -2 d -5 -4 d -2 -7 d -4
 Y 2 -7 d 5 -4 d 4 -2 d 6 X 5 2 d 4 4 d s 713 568 m -2 4 d -7 2 d -6 X -6 -2 d
 -3 -4 d 3 -4 d 4 -3 d 11 -2 d 4 -2 d 2 -4 d -2 Y -2 -5 d -7 -2 d -6 X -6 2 d -3
 5 d s 712 567 m -2 5 d -6 2 d -7 X -6 -2 d -2 -5 d 2 -4 d 4 -2 d 11 -2 d 4 -3 d
 2 -4 d -2 Y -2 -4 d -6 -3 d -7 X -6 3 d -2 4 d s 714 569 m -2 4 d -7 2 d -6 X
 -7 -2 d -2 -4 d 2 -5 d 5 -2 d 10 -2 d 5 -2 d 2 -5 d -2 Y -2 -4 d -7 -2 d -6 X
 -7 2 d -2 4 d s 730 590 m -37 Y 3 -7 d 4 -2 d 4 X s 730 589 m -37 Y 2 -6 d 4 -3
 d 5 X s 731 590 m -37 Y 2 -6 d 5 -2 d 4 X s 724 574 m 15 X s 723 574 m 15 X s
 725 575 m 15 X s 776 590 m -46 Y s 775 589 m -46 Y s 776 590 m -45 Y s 776 590
 m 19 X 7 -3 d 2 -2 d 2 -4 d -7 Y -2 -4 d -2 -2 d -7 -2 d -19 X s 775 589 m 20 X
 6 -2 d 2 -2 d 2 -5 d -6 Y -2 -5 d -2 -2 d -6 -2 d -20 X s 776 590 m 20 X 6 -2 d
 2 -2 d 3 -4 d -7 Y -3 -4 d -2 -2 d -6 -3 d -20 X s 821 590 m -46 Y s 820 589 m
 -46 Y s 822 590 m -45 Y s 821 590 m 17 -46 d s 820 589 m 18 -46 d s 822 590 m
 17 -45 d s 856 590 m -18 -46 d s 855 589 m -17 -46 d s 856 590 m -17 -45 d s
 856 590 m -46 Y s 855 589 m -46 Y s 856 590 m -45 Y s 882 590 m -46 Y s 881 589
 m -46 Y s 882 590 m -45 Y s 866 590 m 31 X s 866 589 m 30 X s 867 590 m 30 X s
 3 lw 487 680 m 23 -22 d 23 22 d -23 23 d -23 -23 d cl s 1 lw 487 680 m 23 -22 d
 23 22 d -23 23 d -23 -23 d f 605 703 m 11 -45 d s 604 702 m 11 -45 d s 606 704
 m 11 -46 d s 627 703 m -11 -45 d s 626 702 m -11 -45 d s 627 704 m -10 -46 d s
 627 703 m 11 -45 d s 626 702 m 11 -45 d s 627 704 m 11 -46 d s 648 703 m -10
 -45 d s 648 702 m -11 -45 d s 649 704 m -11 -46 d s 659 675 m 26 X 4 Y -2 4 d
 -2 3 d -5 2 d -6 X -4 -2 d -5 -5 d -2 -6 d -5 Y 2 -6 d 5 -4 d 4 -2 d 6 X 5 2 d
 4 4 d s 658 674 m 26 X 4 Y -2 5 d -2 2 d -4 2 d -7 X -4 -2 d -4 -4 d -3 -7 d -4
 Y 3 -7 d 4 -4 d 4 -2 d 7 X 4 2 d 4 4 d s 660 675 m 26 X 5 Y -2 4 d -3 2 d -4 2
 d -6 X -5 -2 d -4 -4 d -2 -7 d -4 Y 2 -6 d 4 -5 d 5 -2 d 6 X 4 2 d 5 5 d s 722
 681 m -2 5 d -7 2 d -6 X -7 -2 d -2 -5 d 2 -4 d 4 -2 d 11 -2 d 5 -3 d 2 -4 d -2
 Y -2 -4 d -7 -2 d -6 X -7 2 d -2 4 d s 721 681 m -2 4 d -7 2 d -6 X -7 -2 d -2
 -4 d 2 -5 d 5 -2 d 11 -2 d 4 -2 d 2 -5 d -2 Y -2 -4 d -7 -2 d -6 X -7 2 d -2 4
 d s 722 682 m -2 4 d -6 2 d -7 X -6 -2 d -2 -4 d 2 -4 d 4 -3 d 11 -2 d 4 -2 d 2
 -4 d -2 Y -2 -5 d -6 -2 d -7 X -6 2 d -2 5 d s 739 703 m -37 Y 2 -6 d 5 -2 d 4
 X s 738 702 m -37 Y 3 -6 d 4 -2 d 4 X s 740 704 m -37 Y 2 -7 d 4 -2 d 5 X s 733
 688 m 15 X s 732 687 m 15 X s 733 688 m 15 X s 784 703 m -45 Y s 784 702 m -45
 Y s 785 704 m -46 Y s 784 703 m 20 X 6 -2 d 2 -2 d 3 -5 d -6 Y -3 -5 d -2 -2 d
 -6 -2 d -20 X s 784 702 m 19 X 7 -2 d 2 -2 d 2 -4 d -7 Y -2 -4 d -2 -2 d -7 -3
 d -19 X s 785 704 m 19 X 7 -3 d 2 -2 d 2 -4 d -7 Y -2 -4 d -2 -2 d -7 -2 d -19
 X s 830 703 m -45 Y s 829 702 m -45 Y s 830 704 m -46 Y s 830 703 m 17 -45 d s
 829 702 m 17 -45 d s 830 704 m 18 -46 d s 864 703 m -17 -45 d s 864 702 m -18
 -45 d s 865 704 m -17 -46 d s 864 703 m -45 Y s 864 702 m -45 Y s 865 704 m -46
 Y s 890 703 m -45 Y s 890 702 m -45 Y s 891 704 m -46 Y s 875 703 m 30 X s 874
 702 m 31 X s 876 704 m 30 X s 4 lw 366 1660 m 17 -17 d 17 17 d -17 17 d -17 -17
 d cl s 1 lw 366 1660 m 17 -17 d 17 17 d -17 17 d -17 -17 d f 4 lw 383 1653 m 7
 Y s 383 1666 m -6 Y s 408 1546 m 17 -17 d 17 17 d -17 17 d -17 -17 d cl s 1 lw
 408 1546 m 17 -17 d 17 17 d -17 17 d -17 -17 d f 4 lw 425 1540 m 6 Y s 425 1552
 m -6 Y s 451 1505 m 17 -17 d 17 17 d -17 17 d -17 -17 d cl s 1 lw 451 1505 m 17
 -17 d 17 17 d -17 17 d -17 -17 d f 4 lw 468 1499 m 6 Y s 468 1512 m -7 Y s 493
 1518 m 17 -17 d 17 17 d -17 17 d -17 -17 d cl s 1 lw 493 1518 m 17 -17 d 17 17
 d -17 17 d -17 -17 d f 4 lw 510 1513 m 5 Y s 510 1523 m -5 Y s 536 1572 m 17
 -17 d 17 17 d -17 17 d -17 -17 d cl s 1 lw 536 1572 m 17 -17 d 17 17 d -17 17 d
 -17 -17 d f 4 lw 553 1567 m 5 Y s 553 1578 m -6 Y s 578 1543 m 17 -17 d 17 17 d
 -17 17 d -17 -17 d cl s 1 lw 578 1543 m 17 -17 d 17 17 d -17 17 d -17 -17 d f 4
 lw 595 1538 m 5 Y s 595 1548 m -5 Y s 621 1654 m 17 -17 d 17 17 d -17 17 d -17
 -17 d cl s 1 lw 621 1654 m 17 -17 d 17 17 d -17 17 d -17 -17 d f 4 lw 638 1648
 m 6 Y s 638 1660 m -6 Y s 663 1600 m 17 -17 d 17 17 d -17 17 d -17 -17 d cl s 1
 lw 663 1600 m 17 -17 d 17 17 d -17 17 d -17 -17 d f 4 lw 680 1594 m 6 Y s 680
 1606 m -6 Y s 706 1521 m 17 -17 d 17 17 d -17 17 d -17 -17 d cl s 1 lw 706 1521
 m 17 -17 d 17 17 d -17 17 d -17 -17 d f 4 lw 723 1515 m 6 Y s 723 1526 m -5 Y s
 748 1573 m 17 -17 d 17 17 d -17 17 d -17 -17 d cl s 1 lw 748 1573 m 17 -17 d 17
 17 d -17 17 d -17 -17 d f 4 lw 765 1567 m 6 Y s 765 1579 m -6 Y s 791 1623 m 17
 -17 d 17 17 d -17 17 d -17 -17 d cl s 1 lw 791 1623 m 17 -17 d 17 17 d -17 17 d
 -17 -17 d f 4 lw 808 1618 m 5 Y s 808 1629 m -6 Y s 833 1560 m 17 -17 d 17 17 d
 -17 17 d -17 -17 d cl s 1 lw 833 1560 m 17 -17 d 17 17 d -17 17 d -17 -17 d f 4
 lw 850 1554 m 6 Y s 850 1566 m -6 Y s 876 1575 m 17 -17 d 17 17 d -17 17 d -17
 -17 d cl s 1 lw 876 1575 m 17 -17 d 17 17 d -17 17 d -17 -17 d f 4 lw 893 1570
 m 5 Y s 893 1581 m -6 Y s 918 1672 m 17 -17 d 17 17 d -17 17 d -17 -17 d cl s 1
 lw 918 1672 m 17 -17 d 17 17 d -17 17 d -17 -17 d f 4 lw 935 1665 m 7 Y s 935
 1678 m -6 Y s 961 1549 m 17 -17 d 17 17 d -17 17 d -17 -17 d cl s 1 lw 961 1549
 m 17 -17 d 17 17 d -17 17 d -17 -17 d f 4 lw 978 1543 m 6 Y s 978 1555 m -6 Y s
 1003 1533 m 17 -17 d 17 17 d -17 17 d -17 -17 d cl s 1 lw 1003 1533 m 17 -17 d
 17 17 d -17 17 d -17 -17 d f 4 lw 1020 1527 m 6 Y s 1020 1538 m -5 Y s 1046
 1591 m 17 -17 d 17 17 d -17 17 d -17 -17 d cl s 1 lw 1046 1591 m 17 -17 d 17 17
 d -17 17 d -17 -17 d f 4 lw 1063 1586 m 5 Y s 1063 1596 m -5 Y s 1088 1565 m 17
 -17 d 17 17 d -17 17 d -17 -17 d cl s 1 lw 1088 1565 m 17 -17 d 17 17 d -17 17
 d -17 -17 d f 4 lw 1105 1558 m 7 Y s 1105 1572 m -7 Y s 1131 1607 m 17 -17 d 17
 17 d -17 17 d -17 -17 d cl s 1 lw 1131 1607 m 17 -17 d 17 17 d -17 17 d -17 -17
 d f 4 lw 1148 1601 m 6 Y s 1148 1613 m -6 Y s 1173 1549 m 17 -17 d 17 17 d -17
 17 d -17 -17 d cl s 1 lw 1173 1549 m 17 -17 d 17 17 d -17 17 d -17 -17 d f 4 lw
 1190 1544 m 5 Y s 1190 1553 m -4 Y s 1216 1555 m 17 -17 d 17 17 d -17 17 d -17
 -17 d cl s 1 lw 1216 1555 m 17 -17 d 17 17 d -17 17 d -17 -17 d f 4 lw 1233
 1549 m 6 Y s 1233 1562 m -7 Y s 1258 1549 m 17 -17 d 17 17 d -17 17 d -17 -17 d
 cl s 1 lw 1258 1549 m 17 -17 d 17 17 d -17 17 d -17 -17 d f 4 lw 1275 1545 m 4
 Y s 1275 1553 m -4 Y s 1301 1565 m 17 -17 d 17 17 d -17 17 d -17 -17 d cl s 1
 lw 1301 1565 m 17 -17 d 17 17 d -17 17 d -17 -17 d f 4 lw 1318 1560 m 5 Y s
 1318 1571 m -6 Y s 1343 1553 m 17 -17 d 17 17 d -17 17 d -17 -17 d cl s 1 lw
 1343 1553 m 17 -17 d 17 17 d -17 17 d -17 -17 d f 4 lw 1360 1547 m 6 Y s 1360
 1559 m -6 Y s 1386 1481 m 17 -17 d 17 17 d -17 17 d -17 -17 d cl s 1 lw 1386
 1481 m 17 -17 d 17 17 d -17 17 d -17 -17 d f 4 lw 1403 1480 m 1 Y s 1403 1482 m
 -1 Y s 1428 1530 m 17 -17 d 17 17 d -17 17 d -17 -17 d cl s 1 lw 1428 1530 m 17
 -17 d 17 17 d -17 17 d -17 -17 d f 4 lw 1445 1525 m 5 Y s 1445 1535 m -5 Y s
 1471 1674 m 17 -17 d 17 17 d -17 17 d -17 -17 d cl s 1 lw 1471 1674 m 17 -17 d
 17 17 d -17 17 d -17 -17 d f 4 lw 1488 1668 m 6 Y s 1488 1680 m -6 Y s 1513
 1463 m 17 -17 d 17 17 d -17 17 d -17 -17 d cl s 1 lw 1513 1463 m 17 -17 d 17 17
 d -17 17 d -17 -17 d f 4 lw 1530 1459 m 4 Y s 1530 1468 m -5 Y s 1556 1675 m 17
 -17 d 17 17 d -17 17 d -17 -17 d cl s 1 lw 1556 1675 m 17 -17 d 17 17 d -17 17
 d -17 -17 d f 4 lw 1573 1670 m 5 Y s 1573 1679 m -4 Y s 1598 1554 m 17 -17 d 17
 17 d -17 17 d -17 -17 d cl s 1 lw 1598 1554 m 17 -17 d 17 17 d -17 17 d -17 -17
 d f 4 lw 1615 1549 m 5 Y s 1615 1559 m -5 Y s 1641 1572 m 17 -17 d 17 17 d -17
 17 d -17 -17 d cl s 1 lw 1641 1572 m 17 -17 d 17 17 d -17 17 d -17 -17 d f 4 lw
 1658 1567 m 5 Y s 1658 1578 m -6 Y s 1683 1563 m 17 -17 d 17 17 d -17 17 d -17
 -17 d cl s 1 lw 1683 1563 m 17 -17 d 17 17 d -17 17 d -17 -17 d f 4 lw 1700
 1558 m 5 Y s 1700 1568 m -5 Y s 1726 1582 m 17 -17 d 17 17 d -17 17 d -17 -17 d
 cl s 1 lw 1726 1582 m 17 -17 d 17 17 d -17 17 d -17 -17 d f 4 lw 1743 1577 m 5
 Y s 1743 1588 m -6 Y s 1769 1612 m 17 -17 d 17 17 d -17 17 d -17 -17 d cl s 1
 lw 1769 1612 m 17 -17 d 17 17 d -17 17 d -17 -17 d f 4 lw 1786 1606 m 6 Y s
 1786 1617 m -5 Y s 1811 1610 m 17 -17 d 17 17 d -17 17 d -17 -17 d cl s 1 lw
 1811 1610 m 17 -17 d 17 17 d -17 17 d -17 -17 d f 4 lw 1828 1606 m 4 Y s 1828
 1615 m -5 Y s 1854 1470 m 17 -17 d 17 17 d -17 17 d -17 -17 d cl s 1 lw 1854
 1470 m 17 -17 d 17 17 d -17 17 d -17 -17 d f 4 lw 1871 1464 m 6 Y s 1871 1476 m
 -6 Y s 1896 1629 m 17 -17 d 17 17 d -17 17 d -17 -17 d cl s 1 lw 1896 1629 m 17
 -17 d 17 17 d -17 17 d -17 -17 d f 4 lw 1913 1623 m 6 Y s 1913 1634 m -5 Y s
 1939 1626 m 17 -17 d 17 17 d -17 17 d -17 -17 d cl s 1 lw 1939 1626 m 17 -17 d
 17 17 d -17 17 d -17 -17 d f 4 lw 1956 1621 m 5 Y s 1956 1631 m -5 Y s 340 227
 m 1701 X s 340 1927 m 1701 X s 340 227 m 1700 Y s 2041 227 m 1700 Y s
gr gr showpage
end
%%EndDocument
count tgifopcount0 sub dup 0 gt {{pop} repeat} {pop} ifelse
countdictstack tgifdictcount0 sub dup 0 gt {{end} repeat} {pop} ifelse
tgiflevel0 restore
tgifdict begin

% EPS
end
/tgiflevel0 save def
/tgifdictcount0 countdictstack def
/tgifopcount0 count 1 sub def
userdict begin
/showpage {} def
/letter {} def
/legal {} def
/a4 {} def
/setpagedevice {} def
/erasepage {} def
/bop-hook {} def
/eop-hook {} def
/start-hook {} def
/end-hook {} def
0 setgray 0 setlinecap 1 setlinewidth
0 setlinejoin 10 setmiterlimit [] 0 setdash newpath
1 72 128 div 80.000 mul 100 div div dup neg scale
72 0 mul neg 72 11 mul neg translate

43.200 516.150 translate 0.450 0.450 scale 0 rotate

%%BeginDocument: normadc_bat3a.ps
%!PS-Adobe-2.0 EPSF-2.0
80 dict begin
/s {stroke} def /l {lineto} def /m {moveto} def /t {translate} def
/sw {stringwidth} def /r {rotate} def /rl {roll}  def /R {repeat} def
/d {rlineto} def /rm {rmoveto} def /gr {grestore} def /f {eofill} def
/c {setrgbcolor} def /lw {setlinewidth} def /sd {setdash} def
/cl {closepath} def /sf {scalefont setfont} def /black {0 setgray} def
/box {m dup 0 exch d exch 0 d 0 exch neg d cl} def
/NC{systemdict begin initclip end}def/C{NC box clip newpath}def
/bl {box s} def /bf {box f} def /Y { 0 exch d} def /X { 0 d} def 
/mp {newpath /y exch def /x exch def} def
/side {[w .77 mul w .23 mul] .385 w mul sd w 0 l currentpoint t -144 r} def
/mr {mp x y w2 0 360 arc} def /m24 {mr s} def /m20 {mr f} def
/mb {mp x y w2 add m w2 neg 0 d 0 w neg d w 0 d 0 w d cl} def
/mt {mp x y w2 add m w2 neg w neg d w 0 d cl} def
/m21 {mb f} def /m25 {mb s} def /m22 {mt f} def /m26{mt s} def
/m23 {mp x y w2 sub m w2 w d w neg 0 d cl f} def
/m27 {mp x y w2 add m w3 neg w2 neg d w3 w2 neg d w3 w2 d cl s} def
/m28 {mp x w2 sub y w2 sub w3 add m w3 0 d 0 w3 neg d w3 0 d 0 w3 d w3 0 d
 0 w3 d w3 neg 0 d 0 w3 d w3 neg 0 d
 0 w3 neg d w3 neg 0 d cl s } def
/m29 {mp gsave x w2 sub y w2 add w3 sub m currentpoint t
 4 {side} repeat cl fill gr} def
/m30 {mp gsave x w2 sub y w2 add w3 sub m currentpoint t
 5 {side} repeat s gr} def
/m31 {mp x y w2 sub m 0 w d x w2 sub y m w 0 d
 x w2 sub y w2 add m w w neg d x w2 sub y w2
 sub m w w d s} def
/m2 {mp x y w2 sub m 0 w d x w2 sub y m w 0 d s} def
/m5 {mp x w2 sub y w2 sub m w w d x w2 sub y w2 add m w w neg d s} def
/DP {/PT exch def gsave 47.2 47.2 scale PT 1 eq { 1616 1 [ 16 0 0 16 neg 0 16
] { < AA AA 55 55 AA AA 55 55 AA AA 55 55 AA AA 55 55 AA AA 55 55 AA AA 55 55
AA AA 55 55 AA AA 55 55 > } image } if PT 2 eq { 16 16 1 [ 16 0 0 16 neg 0 16
] { < BB BB EE EE BB BB EE EE BB BB EE EE BB BB EE EE BB BB EE EE BB BB EE EE
BB BB EE EE BB BB EE EE > } image } if PT 3 eq { 16 16 1 [ 16 0 0 16 neg 0 16
] { < FF FF BB BB FF FF EE EE FF FF BB BB FF FF EE EE FF FF BB BB FF FF EE EE
FF FF BB BB FF FF EE EE > } image } if PT 4 eq { 16 16 1 [ 16 0 0 16 neg 0 16
] { < DF DF BF BF 7F 7F FE FE FD FD FB FB F7 F7 EF EF DF DF BF BF 7F 7F FE FE
FD FD FB FB F7 F7 EF EF > } image } if PT 5 eq { 16 16 1 [ 16 0 0 16 neg 0 16
] { < 7F 7F BF B F DF DF EF EF F7 F7 FB FB FD FD FE FE 7F 7F BF BF DF DF EF
EF F7 F7 FB FB FD FD FE FE > } image } if PT 6 eq { 16 16 1 [ 16 0 0 16 neg 0
16 ] { < BB BB BB BB BB BB BB BB BB BB BB BB BB BB BB BB BB BB BB BB BB BB BB
BB BB BB BB BB BB BB BB BB > } image } if PT 7 eq { 16 16 1 [ 16 0 0 16 neg 0
16 ] { < FF FF FF FF FF FF 00 00 FF FF FF FF FF FF 00 00 FF FF FF FF FF FF 00
00 FF FF FF FF FF FF 00 00 > } image } if PT 8 eq { 16 16 1 [ 16 0 0 16 neg 0
16 ] { < EE EE 47 47 83 83 C5 C5 EE EE 5C 5C 38 38 74 74 EE EE 47 47 83 83 C5
C5 EE EE 5C 5C 38 38 74 74 > } image } if PT 9 eq { 16 16 1 [ 16 0 0 16 neg 0
16 ] { < EF EF EF EF D7 D7 38 38 FE FE FE FE 7D 7D 83 83 EF EF EF EF D7 D7 38
38 FE FE FE FE 7D 7D 83 83 > } image } if PT 10 eq {16 16 1 [ 16 0 0 16 neg
0 16 ] { < EF EF EF EF EF EF 00 00 FE FE FE FE FE FE00 00 EF EF EF EF EF EF
00 00 FE FE FE FE FE FE 00 00 > } image } if PT 11 eq { 16 16 1 [ 16 0 0 16
neg 0 16 ] { < F7 F7 B6 B6 D5 D5 E3 E3 D5 D5 B6 B6 F7 F7 FF FF 7F 7F 6B 6B 5D
5D 3E 3E 5D 5D 6B 6B 7F 7F FF FF > } image } if PT 12 eq { 16 16 1 [ 16 0 0
16 neg 0 16 ] { < E3 E3 DD DD BE BE BE BE BE BE DD DD E3 E3 FF FF 3E 3E DD DD
EB EB EB EB EB EB DD DD 3E 3E FF FF > } image } if PT 13 eq { 16 16 1 [ 16 0
0 16 neg 0 16 ] { < FE FE 7D 7D BB BB D7 D7 EF EF D7D7 BB BB 7D 7D FE FE 7D
7D BB BB D7 D7 EF EF D7 D7 BB BB 7D 7D > } image } if PT 14 eq { 16 16 1 [ 16
0 0 16 neg 0 16 ] { < 00 00 EE EF EE EF EE EF 0E E0 EE EE EE EE EE EE 00 EE
FE EE FE EE FE EE 00 00 FE EF FE EF FE EF > } image } if PT 15 eq { 16 16 1 [
16 0 0 16 neg 0 16 ] { < DD DD AA AA DD DD FF FF 77 77 AA AA 77 77 FF FF DD
DD AA AA DD DD FF FF 77 77 AA AA 77 77 FF FF > } image } if PT 16 eq { 16 16
1 [ 16 0 0 16 neg 0 16 ] { < F1 F1 EE EE 1F 1F FF FFF1 F1 EE EE 1F 1F FF FF
F1 F1 EE EE 1F 1F FF FF F1 F1 EE EE 1F 1F FF FF > } image } if PT 17 eq { 16
16 1 [ 16 0 0 16 neg 0 16 ] { < EE EE DD DD BB BB FFFF EE EE DD DD BB BB FF
FF EE EE DD DD BB BB FF FF EE EE DD DD BB BB FF FF >} image } if PT 18 eq {
16 16 1 [ 16 0 0 16 neg 0 16 ] { < BB BB DD DD EE EEFF FF BB BB DD DD EE EE
FF FF BB BB DD DD EE EE FF FF BB BB DD DD EE EE FF FF > } image } if PT 19 eq
{ 16 16 1 [ 16 0 0 16 neg 0 16 ] { < 1F FC 67 F3 7B EF BD DE BD DE DE BD E6
B3 F8 0F E6 B3 DE BD BD DE BD DE 7B EF 67 F3 1F FC 7F FF > } image } if PT
20 eq { 16 16 1 [ 16 0 0 16 neg 0 16 ] { < DD DD EE EE EE EE EE EE DD DD BB
BB BB BB BB BB DD DD EE EE EE EE EE EE DD DD BB BB BB BB BB BB > } image }
if PT 21 eq { 16 16 1 [ 16 0 0 16 neg 0 16 ] { < 0E 0E EF EF EF EF EF EF E0
E0 FE FE FE FE FE FE 0E 0E EF EF EF EF EF EF E0 E0 FE FE FE FE FE FE > }
image } if PT 22 eq { 16 16 1 [ 16 0 0 16 neg 0 16 ]{ < 70 70 F7 F7 F7 F7 F7
F7 07 07 7F 7F 7F 7F 7F 7F 70 70 F7 F7 F7 F7 F7 F7 07 07 7F 7F 7F 7F 7F 7F >
} image } if PT 23 eq { 16 16 1 [ 16 0 0 16 neg 0 16] { < AA AA 55 55 A9 A9
D1 D1 E1 E1 D1 D1 A9 A9 55 55 AA AA 55 55 A9 A9 D1 D1 E1 E1 D1 D1 A9 A9 55 55
> } image } if PT 24 eq { 16 16 1 [ 16 0 0 16 neg 0 16 ] { < FF FE FF FC EA
A8 D5 54 EA A8 D5 54 E8 28 D4 54 E8 E8 D4 D4 E8 EA 54 D5 A8 EA 54 D5 00 C0 00
80 > } image } if PT 25 eq { 16 16 1 [ 16 0 0 16 neg0 16 ] { < FF FE FF FC
FF F8 FF F0 F0 00 F0 00 F0 20 F0 60 F0 E0 F1 E0 F3 E0 F0 00 E0 00 C0 00 80 00
00 00 > } image } if gr } def /FA { /PT exch def gsave clip 0 0 translate 1 1
54 { 1 sub 47.2 mul /Xcurr exch def 1 1 74 { 1 sub 47.2 mul /Ycurr exch def
gsave Xcurr Ycurr translate PT DP gr } for } for gr } def
/reencdict 24 dict def /ReEncode {reencdict begin /nco&na exch def
/nfnam exch def /basefontname exch def /basefontdict basefontname findfont def
/newfont basefontdict maxlength dict def basefontdict {exch dup /FID ne
{dup /Encoding eq {exch dup length array copy newfont 3 1 roll put} {exch
newfont 3 1 roll put} ifelse} {pop pop} ifelse } forall newfont
/FontName nfnam put nco&na aload pop nco&na length 2 idiv {newfont
/Encoding get 3 1 roll put} repeat nfnam newfont definefont pop end } def
/accvec [ 176 /agrave 181 /Agrave 190 /acircumflex 192 /Acircumflex
201 /adieresis 204 /Adieresis 209 /ccedilla 210 /Ccedilla 211 /eacute
212 /Eacute 213 /egrave 214 /Egrave 215 /ecircumflex 216 /Ecircumflex
217 /edieresis 218 /Edieresis 219 /icircumflex 220 /Icircumflex
221 /idieresis 222 /Idieresis 223 /ntilde 224 /Ntilde 226 /ocircumflex
228 /Ocircumflex 229 /odieresis 230 /Odieresis 231 /ucircumflex 236 /Ucircumflex
237 /udieresis 238 /Udieresis 239 /aring 242 /Aring 243 /ydieresis
244 /Ydieresis 246 /aacute 247 /Aacute 252 /ugrave 253 /Ugrave] def
/Times-Roman /Times-Roman accvec ReEncode
/Times-Italic /Times-Italic accvec ReEncode
/Times-Bold /Times-Bold accvec ReEncode
/Times-BoldItalic /Times-BoldItalic accvec ReEncode
/Helvetica /Helvetica accvec ReEncode
/Helvetica-Oblique /Helvetica-Oblique accvec ReEncode
/Helvetica-Bold /Helvetica-Bold accvec ReEncode
/Helvetica-BoldOblique /Helvetica-BoldOblique  accvec ReEncode
/Courier /Courier accvec ReEncode
/Courier-Oblique /Courier-Oblique accvec ReEncode
/Courier-Bold /Courier-Bold accvec ReEncode
/Courier-BoldOblique /Courier-BoldOblique accvec ReEncode
/oshow {gsave [] 0 sd true charpath stroke gr} def
/stwn { /fs exch def /fn exch def /text exch def fn findfont fs sf
 text sw pop xs add /xs exch def} def
/stwb { /fs exch def /fn exch def /nbas exch def /textf exch def
textf length /tlen exch def nbas tlen gt {/nbas tlendef} if
fn findfont fs sf textf dup length nbas sub nbas getinterval sw
pop neg xs add /xs exch def} def
/accspe [ 65 /plusminus 66 /bar 67 /existential 68 /universal
69 /exclam 70 /numbersign 71 /greater 72 /question 73 /integral
74 /colon 75 /semicolon 76 /less 77 /bracketleft 78 /bracketright
79 /greaterequal 80 /braceleft 81 /braceright 82 /radical
83 /spade 84 /heart 85 /diamond 86 /club 87 /lessequal
88 /multiply 89 /percent 90 /infinity 48 /circlemultiply 49 /circleplus
50 /emptyset 51 /lozenge 52 /bullet 53 /arrowright 54 /arrowup
55 /arrowleft 56 /arrowdown 57 /arrowboth 48 /degree 44 /comma 43 /plus
 45 /angle 42 /angleleft 47 /divide 61 /notequal 40 /equivalence 41 /second
 97 /approxequal 98 /congruent 99 /perpendicular 100 /partialdiff 101 /florin
 102 /intersection 103 /union 104 /propersuperset 105 /reflexsuperset
 106 /notsubset 107 /propersubset 108 /reflexsubset 109 /element 110 /notelement
 111 /gradient 112 /logicaland 113 /logicalor 114 /arrowdblboth
 115 /arrowdblleft 116 /arrowdblup 117 /arrowdblright 118 /arrowdbldown
 119 /ampersand 120 /omega1 121 /similar 122 /aleph ] def
/Symbol /Special accspe ReEncode
gsave .25 .25 scale 
 gsave 0 0 t black [] 0 sd 1 lw 567 2062 m -34 -91 d s 570 2065 m -35 -91 d s
 566 2061 m -35 -91 d s 571 2066 m -34 -91 d s 567 2062 m 35 -91 d s 570 2065 m
 34 -91 d s 566 2061 m 34 -91 d s 571 2066 m 35 -91 d s 545 2001 m 44 X s 548
 2004 m 43 X s 544 2000 m 43 X s 550 2006 m 43 X s 628 2062 m -74 Y 4 -12 d 9 -5
 d 8 X s 630 2065 m -74 Y 5 -13 d 8 -4 d 9 X s 626 2061 m -74 Y 5 -13 d 8 -4 d 9
 X s 632 2066 m -73 Y 4 -13 d 9 -5 d 8 X s 615 2032 m 30 X s 617 2034 m 31 X s
 613 2030 m 30 X s 619 2036 m 30 X s 679 2062 m -74 Y 5 -12 d 8 -5 d 9 X s 682
 2065 m -74 Y 4 -13 d 9 -4 d 9 X s 678 2061 m -74 Y 4 -13 d 9 -4 d 9 X s 683
 2066 m -73 Y 5 -13 d 8 -5 d 9 X s 666 2032 m 31 X s 669 2034 m 30 X s 665 2030
 m 30 X s 670 2036 m 31 X s 723 2006 m 51 X 8 Y -4 9 d -4 4 d -9 5 d -13 X -8 -5
 d -9 -8 d -4 -13 d -9 Y 4 -13 d 9 -8 d 8 -5 d 13 X 9 5 d 8 8 d s 725 2008 m 52
 X 9 Y -4 9 d -5 4 d -8 4 d -13 X -9 -4 d -8 -9 d -5 -13 d -8 Y 5 -13 d 8 -9 d 9
 -4 d 13 X 8 4 d 9 9 d s 721 2004 m 52 X 9 Y -4 9 d -5 4 d -8 4 d -13 X -9 -4 d
 -8 -9 d -5 -13 d -8 Y 5 -13 d 8 -9 d 9 -4 d 13 X 8 4 d 9 9 d s 727 2010 m 51 X
 8 Y -4 9 d -4 4 d -9 5 d -13 X -8 -5 d -9 -8 d -4 -13 d -9 Y 4 -13 d 9 -8 d 8
 -5 d 13 X 9 5 d 8 8 d s 805 2032 m -61 Y s 807 2034 m -60 Y s 803 2030 m -60 Y
 s 809 2036 m -61 Y s 805 2014 m 13 13 d 8 5 d 13 X 9 -5 d 4 -13 d -43 Y s 807
 2017 m 13 13 d 9 4 d 13 X 9 -4 d 4 -13 d -43 Y s 803 2013 m 13 13 d 9 4 d 13 X
 8 -4 d 5 -13 d -43 Y s 809 2018 m 13 13 d 8 5 d 13 X 9 -5 d 4 -13 d -43 Y s 887
 2032 m -44 Y 4 -12 d 9 -5 d 13 X 8 5 d 13 12 d s 889 2034 m -43 Y 5 -13 d 8 -4
 d 13 X 9 4 d 13 13 d s 885 2030 m -43 Y 5 -13 d 8 -4 d 13 X 9 4 d 13 13 d s 891
 2036 m -43 Y 4 -13 d 9 -5 d 13 X 8 5 d 13 13 d s 934 2032 m -61 Y s 937 2034 m
 -60 Y s 933 2030 m -60 Y s 938 2036 m -61 Y s 1016 2032 m -61 Y s 1019 2034 m
 -60 Y s 1015 2030 m -60 Y s 1020 2036 m -61 Y s 1016 2019 m -8 8 d -9 5 d -13 X
 -9 -5 d -8 -8 d -5 -13 d -9 Y 5 -13 d 8 -8 d 9 -5 d 13 X 9 5 d 8 8 d s 1019
 2021 m -9 9 d -8 4 d -13 X -9 -4 d -9 -9 d -4 -13 d -8 Y 4 -13 d 9 -9 d 9 -4 d
 13 X 8 4 d 9 9 d s 1015 2017 m -9 9 d -8 4 d -13 X -9 -4 d -9 -9 d -4 -13 d -8
 Y 4 -13 d 9 -9 d 9 -4 d 13 X 8 4 d 9 9 d s 1020 2023 m -8 8 d -9 5 d -13 X -9
 -5 d -8 -8 d -5 -13 d -9 Y 5 -13 d 8 -8 d 9 -5 d 13 X 9 5 d 8 8 d s 1055 2062 m
 -74 Y 4 -12 d 9 -5 d 9 X s 1058 2065 m -74 Y 4 -13 d 9 -4 d 8 X s 1054 2061 m
 -74 Y 4 -13 d 9 -4 d 8 X s 1059 2066 m -73 Y 5 -13 d 8 -5 d 9 X s 1042 2032 m
 30 X s 1045 2034 m 30 X s 1041 2030 m 30 X s 1046 2036 m 30 X s 1098 2062 m 5
 -4 d 4 4 d -4 4 d -5 -4 d cl s 1101 2065 m 4 -5 d 5 5 d -5 4 d -4 -4 d cl s
 1097 2061 m 4 -5 d 5 5 d -5 4 d -4 -4 d cl s 1102 2066 m 5 -4 d 4 4 d -4 4 d -5
 -4 d cl s 1103 2032 m -61 Y s 1105 2034 m -60 Y s 1101 2030 m -60 Y s 1107 2036
 m -61 Y s 1154 2032 m -8 -5 d -9 -8 d -4 -13 d -9 Y 4 -13 d 9 -8 d 8 -5 d 13 X
 9 5 d 9 8 d 4 13 d 9 Y -4 13 d -9 8 d -9 5 d -13 X cl s 1157 2034 m -8 -4 d -9
 -9 d -4 -13 d -8 Y 4 -13 d 9 -9 d 8 -4 d 13 X 9 4 d 8 9 d 5 13 d 8 Y -5 13 d -8
 9 d -9 4 d -13 X cl s 1153 2030 m -9 -4 d -8 -9 d -5 -13 d -8 Y 5 -13 d 8 -9 d
 9 -4 d 13 X 9 4 d 8 9 d 5 13 d 8 Y -5 13 d -8 9 d -9 4 d -13 X cl s 1159 2036 m
 -9 -5 d -9 -8 d -4 -13 d -9 Y 4 -13 d 9 -8 d 9 -5 d 12 X 9 5 d 9 8 d 4 13 d 9 Y
 -4 13 d -9 8 d -9 5 d -12 X cl s 1219 2032 m -61 Y s 1222 2034 m -60 Y s 1218
 2030 m -60 Y s 1223 2036 m -61 Y s 1219 2014 m 13 13 d 9 5 d 13 X 8 -5 d 5 -13
 d -43 Y s 1222 2017 m 13 13 d 9 4 d 12 X 9 -4 d 4 -13 d -43 Y s 1218 2013 m 13
 13 d 8 4 d 13 X 9 -4 d 4 -13 d -43 Y s 1223 2018 m 13 13 d 9 5 d 13 X 8 -5 d 5
 -13 d -43 Y s 1344 2062 m -91 Y s 1347 2065 m -91 Y s 1343 2061 m -91 Y s 1349
 2066 m -91 Y s 1344 1971 m 52 X s 1347 1974 m 52 X s 1343 1970 m 52 X s 1349
 1975 m 51 X s 1414 2006 m 51 X 8 Y -4 9 d -4 4 d -9 5 d -13 X -8 -5 d -9 -8 d
 -4 -13 d -9 Y 4 -13 d 9 -8 d 8 -5 d 13 X 9 5 d 8 8 d s 1416 2008 m 52 X 9 Y -4
 9 d -5 4 d -8 4 d -13 X -9 -4 d -8 -9 d -5 -13 d -8 Y 5 -13 d 8 -9 d 9 -4 d 13
 X 8 4 d 9 9 d s 1412 2004 m 52 X 9 Y -4 9 d -5 4 d -8 4 d -13 X -9 -4 d -8 -9 d
 -5 -13 d -8 Y 5 -13 d 8 -9 d 9 -4 d 13 X 8 4 d 9 9 d s 1418 2010 m 51 X 8 Y -4
 9 d -4 4 d -9 5 d -13 X -8 -5 d -9 -8 d -4 -13 d -9 Y 4 -13 d 9 -8 d 8 -5 d 13
 X 9 5 d 8 8 d s 1496 2032 m -61 Y s 1498 2034 m -60 Y s 1494 2030 m -60 Y s
 1500 2036 m -61 Y s 1496 2014 m 13 13 d 8 5 d 13 X 9 -5 d 4 -13 d -43 Y s 1498
 2017 m 13 13 d 9 4 d 13 X 9 -4 d 4 -13 d -43 Y s 1494 2013 m 13 13 d 9 4 d 13 X
 8 -4 d 5 -13 d -43 Y s 1500 2018 m 13 13 d 8 5 d 13 X 9 -5 d 4 -13 d -43 Y s
 1625 2032 m -69 Y -4 -13 d -4 -5 d -9 -4 d -13 X -9 4 d s 1628 2034 m -69 Y -4
 -13 d -5 -4 d -8 -4 d -13 X -9 4 d s 1624 2030 m -69 Y -5 -13 d -4 -4 d -8 -4 d
 -13 X -9 4 d s 1629 2036 m -69 Y -4 -13 d -4 -5 d -9 -4 d -13 X -9 4 d s 1625
 2019 m -8 8 d -9 5 d -13 X -9 -5 d -8 -8 d -5 -13 d -9 Y 5 -13 d 8 -8 d 9 -5 d
 13 X 9 5 d 8 8 d s 1628 2021 m -9 9 d -8 4 d -13 X -9 -4 d -9 -9 d -4 -13 d -8
 Y 4 -13 d 9 -9 d 9 -4 d 13 X 8 4 d 9 9 d s 1624 2017 m -9 9 d -8 4 d -13 X -9
 -4 d -9 -9 d -4 -13 d -8 Y 4 -13 d 9 -9 d 9 -4 d 13 X 8 4 d 9 9 d s 1629 2023 m
 -8 8 d -9 5 d -13 X -9 -5 d -8 -8 d -5 -13 d -9 Y 5 -13 d 8 -8 d 9 -5 d 13 X 9
 5 d 8 8 d s 1664 2062 m -74 Y 4 -12 d 9 -5 d 9 X s 1667 2065 m -74 Y 4 -13 d 9
 -4 d 8 X s 1663 2061 m -74 Y 4 -13 d 9 -4 d 8 X s 1668 2066 m -73 Y 4 -13 d 9
 -5 d 9 X s 1651 2032 m 30 X s 1654 2034 m 30 X s 1650 2030 m 30 X s 1655 2036 m
 30 X s 1712 2062 m -91 Y s 1714 2065 m -91 Y s 1710 2061 m -91 Y s 1716 2066 m
 -91 Y s 1712 2014 m 12 13 d 9 5 d 13 X 9 -5 d 4 -13 d -43 Y s 1714 2017 m 13 13
 d 9 4 d 13 X 8 -4 d 5 -13 d -43 Y s 1710 2013 m 13 13 d 9 4 d 13 X 8 -4 d 5 -13
 d -43 Y s 1716 2018 m 13 13 d 8 5 d 13 X 9 -5 d 4 -13 d -43 Y s 1837 2019 m -5
 8 d -12 5 d -13 X -13 -5 d -5 -8 d 5 -9 d 8 -4 d 22 -5 d 8 -4 d 5 -9 d -4 Y -5
 -8 d -12 -5 d -13 X -13 5 d -5 8 d s 1840 2021 m -5 9 d -13 4 d -13 X -13 -4 d
 -4 -9 d 4 -8 d 9 -5 d 22 -4 d 8 -4 d 5 -9 d -4 Y -5 -9 d -13 -4 d -13 X -13 4 d
 -4 9 d s 1835 2017 m -4 9 d -13 4 d -13 X -13 -4 d -4 -9 d 4 -8 d 9 -5 d 21 -4
 d 9 -4 d 4 -9 d -4 Y -4 -9 d -13 -4 d -13 X -13 4 d -4 9 d s 1841 2023 m -4 8 d
 -13 5 d -13 X -13 -5 d -5 -8 d 5 -9 d 8 -4 d 22 -4 d 9 -5 d 4 -8 d -5 Y -4 -8 d
 -13 -5 d -13 X -13 5 d -5 8 d s 4 lw 366 1678 m 34 Y 34 X -34 Y -34 X cl s 1 lw
 366 1678 m 34 Y 34 X -34 Y -34 X f 4 lw 383 1695 m -17 X s 383 1695 m 17 X s
 383 1581 m 97 Y s 383 1809 m -97 Y s 408 1497 m 34 Y 34 X -34 Y -34 X cl s 1 lw
 408 1497 m 34 Y 34 X -34 Y -34 X f 4 lw 425 1514 m -17 X s 425 1514 m 17 X s
 425 1425 m 72 Y s 425 1604 m -73 Y s 451 1486 m 34 Y 34 X -34 Y -34 X cl s 1 lw
 451 1486 m 34 Y 34 X -34 Y -34 X f 4 lw 468 1503 m -17 X s 468 1503 m 17 X s
 468 1415 m 71 Y s 468 1591 m -71 Y s 493 1541 m 34 Y 34 X -34 Y -34 X cl s 1 lw
 493 1541 m 34 Y 34 X -34 Y -34 X f 4 lw 510 1558 m -17 X s 510 1558 m 17 X s
 510 1459 m 82 Y s 510 1656 m -81 Y s 536 1530 m 34 Y 34 X -34 Y -34 X cl s 1 lw
 536 1530 m 34 Y 34 X -34 Y -34 X f 4 lw 553 1547 m -17 X s 553 1547 m 17 X s
 553 1453 m 77 Y s 553 1641 m -77 Y s 578 1501 m 34 Y 34 X -34 Y -34 X cl s 1 lw
 578 1501 m 34 Y 34 X -34 Y -34 X f 4 lw 595 1518 m -17 X s 595 1518 m 17 X s
 595 1430 m 71 Y s 595 1606 m -71 Y s 621 1652 m 34 Y 34 X -34 Y -34 X cl s 1 lw
 621 1652 m 34 Y 34 X -34 Y -34 X f 4 lw 638 1669 m -17 X s 638 1669 m 17 X s
 638 1555 m 97 Y s 638 1784 m -98 Y s 663 1532 m 34 Y 34 X -34 Y -34 X cl s 1 lw
 663 1532 m 34 Y 34 X -34 Y -34 X f 4 lw 680 1549 m -17 X s 680 1549 m 17 X s
 680 1453 m 79 Y s 680 1645 m -79 Y s 706 1484 m 34 Y 34 X -34 Y -34 X cl s 1 lw
 706 1484 m 34 Y 34 X -34 Y -34 X f 4 lw 723 1501 m -17 X s 723 1501 m 17 X s
 723 1411 m 73 Y s 723 1591 m -73 Y s 748 1524 m 34 Y 34 X -34 Y -34 X cl s 1 lw
 748 1524 m 34 Y 34 X -34 Y -34 X f 4 lw 765 1541 m -17 X s 765 1541 m 17 X s
 765 1447 m 77 Y s 765 1636 m -78 Y s 791 1586 m 34 Y 34 X -34 Y -34 X cl s 1 lw
 791 1586 m 34 Y 34 X -34 Y -34 X f 4 lw 808 1603 m -17 X s 808 1603 m 17 X s
 808 1504 m 82 Y s 808 1703 m -83 Y s 833 1651 m 34 Y 34 X -34 Y -34 X cl s 1 lw
 833 1651 m 34 Y 34 X -34 Y -34 X f 4 lw 850 1668 m -17 X s 850 1668 m 17 X s
 850 1558 m 93 Y s 850 1779 m -94 Y s 876 1522 m 34 Y 34 X -34 Y -34 X cl s 1 lw
 876 1522 m 34 Y 34 X -34 Y -34 X f 4 lw 893 1539 m -17 X s 893 1539 m 17 X s
 893 1447 m 75 Y s 893 1631 m -75 Y s 918 1473 m 34 Y 34 X -34 Y -34 X cl s 1 lw
 918 1473 m 34 Y 34 X -34 Y -34 X f 4 lw 935 1490 m -17 X s 935 1490 m 17 X s
 935 1394 m 79 Y s 935 1586 m -79 Y s 961 1507 m 34 Y 34 X -34 Y -34 X cl s 1 lw
 961 1507 m 34 Y 34 X -34 Y -34 X f 4 lw 978 1524 m -17 X s 978 1524 m 17 X s
 978 1434 m 73 Y s 978 1614 m -73 Y s 1003 1684 m 34 Y 34 X -34 Y -34 X cl s 1
 lw 1003 1684 m 34 Y 34 X -34 Y -34 X f 4 lw 1020 1701 m -17 X s 1020 1701 m 17
 X s 1020 1587 m 97 Y s 1020 1816 m -98 Y s 1046 1545 m 34 Y 34 X -34 Y -34 X cl
 s 1 lw 1046 1545 m 34 Y 34 X -34 Y -34 X f 4 lw 1063 1562 m -17 X s 1063 1562 m
 17 X s 1063 1466 m 79 Y s 1063 1657 m -78 Y s 1088 1500 m 34 Y 34 X -34 Y -34 X
 cl s 1 lw 1088 1500 m 34 Y 34 X -34 Y -34 X f 4 lw 1105 1517 m -17 X s 1105
 1517 m 17 X s 1105 1427 m 73 Y s 1105 1607 m -73 Y s 1131 1611 m 34 Y 34 X -34
 Y -34 X cl s 1 lw 1131 1611 m 34 Y 34 X -34 Y -34 X f 4 lw 1148 1628 m -17 X s
 1148 1628 m 17 X s 1148 1523 m 88 Y s 1148 1733 m -88 Y s 1173 1564 m 34 Y 34 X
 -34 Y -34 X cl s 1 lw 1173 1564 m 34 Y 34 X -34 Y -34 X f 4 lw 1190 1581 m -17
 X s 1190 1581 m 17 X s 1190 1481 m 83 Y s 1190 1681 m -83 Y s 1216 1601 m 34 Y
 34 X -34 Y -34 X cl s 1 lw 1216 1601 m 34 Y 34 X -34 Y -34 X f 4 lw 1233 1618 m
 -17 X s 1233 1618 m 17 X s 1233 1520 m 81 Y s 1233 1717 m -82 Y s 1258 1525 m
 34 Y 34 X -34 Y -34 X cl s 1 lw 1258 1525 m 34 Y 34 X -34 Y -34 X f 4 lw 1275
 1542 m -17 X s 1275 1542 m 17 X s 1275 1449 m 76 Y s 1275 1635 m -76 Y s 1301
 1525 m 34 Y 34 X -34 Y -34 X cl s 1 lw 1301 1525 m 34 Y 34 X -34 Y -34 X f 4 lw
 1318 1542 m -17 X s 1318 1542 m 17 X s 1318 1453 m 72 Y s 1318 1631 m -72 Y s
 1343 1508 m 34 Y 34 X -34 Y -34 X cl s 1 lw 1343 1508 m 34 Y 34 X -34 Y -34 X f
 4 lw 1360 1525 m -17 X s 1360 1525 m 17 X s 1360 1436 m 72 Y s 1360 1613 m -71
 Y s 1386 1538 m 34 Y 34 X -34 Y -34 X cl s 1 lw 1386 1538 m 34 Y 34 X -34 Y -34
 X f 4 lw 1403 1555 m -17 X s 1403 1555 m 17 X s 1403 1461 m 77 Y s 1403 1650 m
 -78 Y s 1428 1513 m 34 Y 34 X -34 Y -34 X cl s 1 lw 1428 1513 m 34 Y 34 X -34 Y
 -34 X f 4 lw 1445 1530 m -17 X s 1445 1530 m 17 X s 1445 1438 m 75 Y s 1445
 1621 m -74 Y s 1471 1418 m 34 Y 34 X -34 Y -34 X cl s 1 lw 1471 1418 m 34 Y 34
 X -34 Y -34 X f 4 lw 1488 1435 m -17 X s 1488 1435 m 17 X s 1488 1357 m 61 Y s
 1488 1513 m -61 Y s 1513 1516 m 34 Y 34 X -34 Y -34 X cl s 1 lw 1513 1516 m 34
 Y 34 X -34 Y -34 X f 4 lw 1530 1533 m -17 X s 1530 1533 m 17 X s 1530 1445 m 71
 Y s 1530 1621 m -71 Y s 1556 1709 m 34 Y 34 X -34 Y -34 X cl s 1 lw 1556 1709 m
 34 Y 34 X -34 Y -34 X f 4 lw 1573 1726 m -17 X s 1573 1726 m 17 X s 1573 1614 m
 95 Y s 1573 1839 m -96 Y s 1598 1426 m 34 Y 34 X -34 Y -34 X cl s 1 lw 1598
 1426 m 34 Y 34 X -34 Y -34 X f 4 lw 1615 1443 m -17 X s 1615 1443 m 17 X s 1615
 1363 m 63 Y s 1615 1523 m -63 Y s 1641 1563 m 34 Y 34 X -34 Y -34 X cl s 1 lw
 1641 1563 m 34 Y 34 X -34 Y -34 X f 4 lw 1658 1580 m -17 X s 1658 1580 m 17 X s
 1658 1484 m 79 Y s 1658 1676 m -79 Y s 1683 1600 m 34 Y 34 X -34 Y -34 X cl s 1
 lw 1683 1600 m 34 Y 34 X -34 Y -34 X f 4 lw 1700 1617 m -17 X s 1700 1617 m 17
 X s 1700 1518 m 82 Y s 1700 1716 m -82 Y s 1726 1544 m 34 Y 34 X -34 Y -34 X cl
 s 1 lw 1726 1544 m 34 Y 34 X -34 Y -34 X f 4 lw 1743 1561 m -17 X s 1743 1561 m
 17 X s 1743 1470 m 74 Y s 1743 1653 m -75 Y s 1769 1622 m 34 Y 34 X -34 Y -34 X
 cl s 1 lw 1769 1622 m 34 Y 34 X -34 Y -34 X f 4 lw 1786 1639 m -17 X s 1786
 1639 m 17 X s 1786 1536 m 86 Y s 1786 1741 m -85 Y s 1811 1605 m 34 Y 34 X -34
 Y -34 X cl s 1 lw 1811 1605 m 34 Y 34 X -34 Y -34 X f 4 lw 1828 1622 m -17 X s
 1828 1622 m 17 X s 1828 1518 m 87 Y s 1828 1725 m -86 Y s 1854 1447 m 34 Y 34 X
 -34 Y -34 X cl s 1 lw 1854 1447 m 34 Y 34 X -34 Y -34 X f 4 lw 1871 1464 m -17
 X s 1871 1464 m 17 X s 1871 1383 m 64 Y s 1871 1545 m -64 Y s 1896 1668 m 34 Y
 34 X -34 Y -34 X cl s 1 lw 1896 1668 m 34 Y 34 X -34 Y -34 X f 4 lw 1913 1685 m
 -17 X s 1913 1685 m 17 X s 1913 1576 m 92 Y s 1913 1795 m -93 Y s 1939 1648 m
 34 Y 34 X -34 Y -34 X cl s 1 lw 1939 1648 m 34 Y 34 X -34 Y -34 X f 4 lw 1956
 1665 m -17 X s 1956 1665 m 17 X s 1956 1560 m 88 Y s 1956 1770 m -88 Y s 340
 272 m -45 Y s
 /xs 0 def 
(0)
 /Times-Roman     86 stwn 
 gsave  340 108
 t   0 r  xs 2 div neg 0 t 0 0 m
 /Times-Roman findfont   86 sf 0    0 m 
(0)
 show 
 gr
 446 249 m -22 Y s 553 249 m -22 Y s 659 249 m -22 Y s 765 272 m -45 Y s
 /xs 0 def 
(10)
 /Times-Roman     86 stwn 
 gsave  765 108
 t   0 r  xs 2 div neg 0 t 0 0 m
 /Times-Roman findfont   86 sf 0    0 m 
(10)
 show 
 gr
 872 249 m -22 Y s 978 249 m -22 Y s 1084 249 m -22 Y s 1190 272 m -45 Y s
 /xs 0 def 
(20)
 /Times-Roman     86 stwn 
 gsave  1190 108
 t   0 r  xs 2 div neg 0 t 0 0 m
 /Times-Roman findfont   86 sf 0    0 m 
(20)
 show 
 gr
 1297 249 m -22 Y s 1403 249 m -22 Y s 1509 249 m -22 Y s 1615 272 m -45 Y s
 /xs 0 def 
(30)
 /Times-Roman     86 stwn 
 gsave  1615 108
 t   0 r  xs 2 div neg 0 t 0 0 m
 /Times-Roman findfont   86 sf 0    0 m 
(30)
 show 
 gr
 1722 249 m -22 Y s 1828 249 m -22 Y s 1934 249 m -22 Y s 2041 272 m -45 Y s
 /xs 0 def 
(40)
 /Times-Roman     86 stwn 
 gsave  2041 108
 t   0 r  xs 2 div neg 0 t 0 0 m
 /Times-Roman findfont   86 sf 0    0 m 
(40)
 show 
 gr
 /xs 0 def 
(Counter Number)
 /Times-Roman    137 stwn 
 gsave  1190 -57
 t   0 r  xs 2 div neg 0 t 0 0 m
 /Times-Roman findfont  137 sf 0    0 m 
(Counter Number)
 show 
 gr
 340 1882 m 45 Y s 446 1905 m 22 Y s 553 1905 m 22 Y s 659 1905 m 22 Y s 765
 1882 m 45 Y s 872 1905 m 22 Y s 978 1905 m 22 Y s 1084 1905 m 22 Y s 1190 1882
 m 45 Y s 1297 1905 m 22 Y s 1403 1905 m 22 Y s 1509 1905 m 22 Y s 1615 1882 m
 45 Y s 1722 1905 m 22 Y s 1828 1905 m 22 Y s 1934 1905 m 22 Y s 2041 1882 m 45
 Y s 385 227 m -45 X s
 /xs 0 def 
(0)
 /Times-Roman     86 stwn 
 gsave  317 221
 t   0 r  xs neg 0 t 0 0 m
 /Times-Roman findfont   86 sf 0    0 m 
(0)
 show 
 gr
 363 295 m -23 X s 363 363 m -23 X s 363 431 m -23 X s 363 499 m -23 X s 385 567
 m -45 X s
 /xs 0 def 
(1)
 /Times-Roman     86 stwn 
 gsave  317 561
 t   0 r  xs neg 0 t 0 0 m
 /Times-Roman findfont   86 sf 0    0 m 
(1)
 show 
 gr
 363 635 m -23 X s 363 703 m -23 X s 363 771 m -23 X s 363 839 m -23 X s 385 907
 m -45 X s
 /xs 0 def 
(2)
 /Times-Roman     86 stwn 
 gsave  317 901
 t   0 r  xs neg 0 t 0 0 m
 /Times-Roman findfont   86 sf 0    0 m 
(2)
 show 
 gr
 363 975 m -23 X s 363 1043 m -23 X s 363 1111 m -23 X s 363 1179 m -23 X s 385
 1247 m -45 X s
 /xs 0 def 
(3)
 /Times-Roman     86 stwn 
 gsave  317 1241
 t   0 r  xs neg 0 t 0 0 m
 /Times-Roman findfont   86 sf 0    0 m 
(3)
 show 
 gr
 363 1315 m -23 X s 363 1383 m -23 X s 363 1451 m -23 X s 363 1519 m -23 X s 385
 1587 m -45 X s
 /xs 0 def 
(4)
 /Times-Roman     86 stwn 
 gsave  317 1581
 t   0 r  xs neg 0 t 0 0 m
 /Times-Roman findfont   86 sf 0    0 m 
(4)
 show 
 gr
 363 1655 m -23 X s 363 1723 m -23 X s 363 1791 m -23 X s 363 1859 m -23 X s 385
 1927 m -45 X s
 /xs 0 def 
(5)
 /Times-Roman     86 stwn 
 gsave  317 1922
 t   0 r  xs neg 0 t 0 0 m
 /Times-Roman findfont   86 sf 0    0 m 
(5)
 show 
 gr
 /xs 0 def 
(l)
 /Symbol    137 stwn 
(attenuation)
 /Times-Roman     96 stwn 
( \(meters\))
 /Times-Roman    137 stwn 
 gsave  113 1077
 t  90 r  xs 2 div neg 0 t 0 0 m
 /Symbol findfont  137 sf 0    0 m 
(l)
 show 
 currentpoint pop 0 t 
 /Times-Roman findfont   96 sf 0  -46 m 
(attenuation)
 show 
 currentpoint pop 0 t 
 /Times-Roman findfont  137 sf 0    0 m 
( \(meters\))
 show 
 gr
 1995 227 m 46 X s 2018 295 m 23 X s 2018 363 m 23 X s 2018 431 m 23 X s 2018
 499 m 23 X s 1995 567 m 46 X s 2018 635 m 23 X s 2018 703 m 23 X s 2018 771 m
 23 X s 2018 839 m 23 X s 1995 907 m 46 X s 2018 975 m 23 X s 2018 1043 m 23 X s
 2018 1111 m 23 X s 2018 1179 m 23 X s 1995 1247 m 46 X s 2018 1315 m 23 X s
 2018 1383 m 23 X s 2018 1451 m 23 X s 2018 1519 m 23 X s 1995 1587 m 46 X s
 2018 1655 m 23 X s 2018 1723 m 23 X s 2018 1791 m 23 X s 2018 1859 m 23 X s
 1995 1927 m 46 X s 340 227 m 1701 X s 340 1927 m 1701 X s 340 227 m 1700 Y s
 2041 227 m 1700 Y s
gr gr showpage
end
%%EndDocument
count tgifopcount0 sub dup 0 gt {{pop} repeat} {pop} ifelse
countdictstack tgifdictcount0 sub dup 0 gt {{end} repeat} {pop} ifelse
tgiflevel0 restore
tgifdict begin

GR
tgifsavedpage restore
end
showpage

%%Trailer
%MatchingCreationDate: Sat Jul 15 17:12:31 2000
%%DocumentFonts: 
%%EOF
