%!PS-Adobe-2.0 EPSF-2.0
%%Creator: topdrawer
%%BoundingBox: 28 212 561 624
%%EndComments
%%BeginProlog
%%BeginResource: lineabr
/m/moveto load def
/l/lineto load def
%%EndResource
%%EndProlog
%%BeginSetup
%%EndSetup
%%Page: 1 1
%%BeginPageSetup
%%EndPageSetup
gsave
0.1 0.1 scale
5 setlinewidth
288 432 translate
/lwidth currentlinewidth def
stroke
newpath
4.076923 setlinewidth
880 5622 m
880 5533 l
885 5622 m
885 5533 l
855 5622 m
851 5597 l
851 5597 m
851 5622 l
851 5622 m
914 5622 l
914 5622 m
914 5597 l
914 5597 m
910 5622 l
868 5533 m
897 5533 l
991 5610 m
995 5622 l
995 5622 m
995 5597 l
995 5597 m
991 5610 l
991 5610 m
982 5618 l
982 5618 m
969 5622 l
969 5622 m
957 5622 l
957 5622 m
944 5618 l
944 5618 m
935 5610 l
935 5610 m
935 5601 l
935 5601 m
940 5593 l
940 5593 m
944 5588 l
944 5588 m
952 5584 l
952 5584 m
978 5576 l
978 5576 m
986 5571 l
986 5571 m
995 5563 l
935 5601 m
944 5593 l
944 5593 m
952 5588 l
952 5588 m
978 5580 l
978 5580 m
986 5576 l
986 5576 m
991 5571 l
991 5571 m
995 5563 l
995 5563 m
995 5546 l
995 5546 m
986 5537 l
986 5537 m
974 5533 l
974 5533 m
961 5533 l
961 5533 m
948 5537 l
948 5537 m
940 5546 l
940 5546 m
935 5559 l
935 5559 m
935 5533 l
935 5533 m
940 5546 l
1080 5610 m
1084 5597 l
1084 5597 m
1084 5622 l
1084 5622 m
1080 5610 l
1080 5610 m
1071 5618 l
1071 5618 m
1059 5622 l
1059 5622 m
1050 5622 l
1050 5622 m
1037 5618 l
1037 5618 m
1029 5610 l
1029 5610 m
1025 5601 l
1025 5601 m
1020 5588 l
1020 5588 m
1020 5567 l
1020 5567 m
1025 5554 l
1025 5554 m
1029 5546 l
1029 5546 m
1037 5537 l
1037 5537 m
1050 5533 l
1050 5533 m
1059 5533 l
1059 5533 m
1071 5537 l
1071 5537 m
1080 5546 l
1080 5546 m
1084 5554 l
1050 5622 m
1042 5618 l
1042 5618 m
1033 5610 l
1033 5610 m
1029 5601 l
1029 5601 m
1025 5588 l
1025 5588 m
1025 5567 l
1025 5567 m
1029 5554 l
1029 5554 m
1033 5546 l
1033 5546 m
1042 5537 l
1042 5537 m
1050 5533 l
1144 5639 m
1135 5631 l
1135 5631 m
1127 5618 l
1127 5618 m
1118 5601 l
1118 5601 m
1114 5580 l
1114 5580 m
1114 5563 l
1114 5563 m
1118 5542 l
1118 5542 m
1127 5525 l
1127 5525 m
1135 5512 l
1135 5512 m
1144 5503 l
1135 5631 m
1127 5614 l
1127 5614 m
1122 5601 l
1122 5601 m
1118 5580 l
1118 5580 m
1118 5563 l
1118 5563 m
1122 5542 l
1122 5542 m
1127 5529 l
1127 5529 m
1135 5512 l
1178 5622 m
1169 5580 l
1169 5580 m
1178 5588 l
1178 5588 m
1190 5593 l
1190 5593 m
1203 5593 l
1203 5593 m
1216 5588 l
1216 5588 m
1224 5580 l
1224 5580 m
1229 5567 l
1229 5567 m
1229 5559 l
1229 5559 m
1224 5546 l
1224 5546 m
1216 5537 l
1216 5537 m
1203 5533 l
1203 5533 m
1190 5533 l
1190 5533 m
1178 5537 l
1178 5537 m
1173 5542 l
1173 5542 m
1169 5550 l
1169 5550 m
1169 5554 l
1169 5554 m
1173 5559 l
1173 5559 m
1178 5554 l
1178 5554 m
1173 5550 l
1203 5593 m
1212 5588 l
1212 5588 m
1220 5580 l
1220 5580 m
1224 5567 l
1224 5567 m
1224 5559 l
1224 5559 m
1220 5546 l
1220 5546 m
1212 5537 l
1212 5537 m
1203 5533 l
1178 5622 m
1220 5622 l
1178 5618 m
1199 5618 l
1199 5618 m
1220 5622 l
1262 5593 m
1262 5533 l
1267 5593 m
1267 5533 l
1267 5580 m
1275 5588 l
1275 5588 m
1288 5593 l
1288 5593 m
1296 5593 l
1296 5593 m
1309 5588 l
1309 5588 m
1313 5580 l
1313 5580 m
1313 5533 l
1296 5593 m
1305 5588 l
1305 5588 m
1309 5580 l
1309 5580 m
1309 5533 l
1313 5580 m
1322 5588 l
1322 5588 m
1335 5593 l
1335 5593 m
1343 5593 l
1343 5593 m
1356 5588 l
1356 5588 m
1360 5580 l
1360 5580 m
1360 5533 l
1343 5593 m
1352 5588 l
1352 5588 m
1356 5580 l
1356 5580 m
1356 5533 l
1250 5593 m
1267 5593 l
1250 5533 m
1279 5533 l
1296 5533 m
1326 5533 l
1343 5533 m
1373 5533 l
1403 5593 m
1403 5533 l
1407 5593 m
1407 5533 l
1407 5580 m
1415 5588 l
1415 5588 m
1428 5593 l
1428 5593 m
1437 5593 l
1437 5593 m
1449 5588 l
1449 5588 m
1454 5580 l
1454 5580 m
1454 5533 l
1437 5593 m
1445 5588 l
1445 5588 m
1449 5580 l
1449 5580 m
1449 5533 l
1454 5580 m
1462 5588 l
1462 5588 m
1475 5593 l
1475 5593 m
1483 5593 l
1483 5593 m
1496 5588 l
1496 5588 m
1500 5580 l
1500 5580 m
1500 5533 l
1483 5593 m
1492 5588 l
1492 5588 m
1496 5580 l
1496 5580 m
1496 5533 l
1390 5593 m
1407 5593 l
1390 5533 m
1420 5533 l
1437 5533 m
1466 5533 l
1483 5533 m
1513 5533 l
1543 5622 m
1543 5550 l
1543 5550 m
1547 5537 l
1547 5537 m
1556 5533 l
1556 5533 m
1564 5533 l
1564 5533 m
1573 5537 l
1573 5537 m
1577 5546 l
1547 5622 m
1547 5550 l
1547 5550 m
1551 5537 l
1551 5537 m
1556 5533 l
1530 5593 m
1564 5593 l
1674 5622 m
1674 5533 l
1679 5622 m
1679 5533 l
1662 5622 m
1713 5622 l
1713 5622 m
1725 5618 l
1725 5618 m
1730 5614 l
1730 5614 m
1734 5605 l
1734 5605 m
1734 5597 l
1734 5597 m
1730 5588 l
1730 5588 m
1725 5584 l
1725 5584 m
1713 5580 l
1713 5622 m
1721 5618 l
1721 5618 m
1725 5614 l
1725 5614 m
1730 5605 l
1730 5605 m
1730 5597 l
1730 5597 m
1725 5588 l
1725 5588 m
1721 5584 l
1721 5584 m
1713 5580 l
1679 5580 m
1713 5580 l
1713 5580 m
1725 5576 l
1725 5576 m
1730 5571 l
1730 5571 m
1734 5563 l
1734 5563 m
1734 5550 l
1734 5550 m
1730 5542 l
1730 5542 m
1725 5537 l
1725 5537 m
1713 5533 l
1713 5533 m
1662 5533 l
1713 5580 m
1721 5576 l
1721 5576 m
1725 5571 l
1725 5571 m
1730 5563 l
1730 5563 m
1730 5550 l
1730 5550 m
1725 5542 l
1725 5542 m
1721 5537 l
1721 5537 m
1713 5533 l
1819 5610 m
1823 5597 l
1823 5597 m
1823 5622 l
1823 5622 m
1819 5610 l
1819 5610 m
1810 5618 l
1810 5618 m
1798 5622 l
1798 5622 m
1789 5622 l
1789 5622 m
1776 5618 l
1776 5618 m
1768 5610 l
1768 5610 m
1764 5601 l
1764 5601 m
1759 5588 l
1759 5588 m
1759 5567 l
1759 5567 m
1764 5554 l
1764 5554 m
1768 5546 l
1768 5546 m
1776 5537 l
1776 5537 m
1789 5533 l
1789 5533 m
1798 5533 l
1798 5533 m
1810 5537 l
1810 5537 m
1819 5546 l
1819 5546 m
1823 5554 l
1789 5622 m
1781 5618 l
1781 5618 m
1772 5610 l
1772 5610 m
1768 5601 l
1768 5601 m
1764 5588 l
1764 5588 m
1764 5567 l
1764 5567 m
1768 5554 l
1768 5554 m
1772 5546 l
1772 5546 m
1781 5537 l
1781 5537 m
1789 5533 l
1887 5614 m
1887 5533 l
1891 5622 m
1891 5533 l
1891 5622 m
1844 5559 l
1844 5559 m
1912 5559 l
1874 5533 m
1904 5533 l
1946 5605 m
1955 5610 l
1955 5610 m
1967 5622 l
1967 5622 m
1967 5533 l
1963 5618 m
1963 5533 l
1946 5533 m
1984 5533 l
2023 5605 m
2027 5601 l
2027 5601 m
2023 5597 l
2023 5597 m
2018 5601 l
2018 5601 m
2018 5605 l
2018 5605 m
2023 5614 l
2023 5614 m
2027 5618 l
2027 5618 m
2040 5622 l
2040 5622 m
2057 5622 l
2057 5622 m
2069 5618 l
2069 5618 m
2074 5614 l
2074 5614 m
2078 5605 l
2078 5605 m
2078 5597 l
2078 5597 m
2074 5588 l
2074 5588 m
2061 5580 l
2061 5580 m
2040 5571 l
2040 5571 m
2031 5567 l
2031 5567 m
2023 5559 l
2023 5559 m
2018 5546 l
2018 5546 m
2018 5533 l
2057 5622 m
2065 5618 l
2065 5618 m
2069 5614 l
2069 5614 m
2074 5605 l
2074 5605 m
2074 5597 l
2074 5597 m
2069 5588 l
2069 5588 m
2057 5580 l
2057 5580 m
2040 5571 l
2018 5542 m
2023 5546 l
2023 5546 m
2031 5546 l
2031 5546 m
2052 5537 l
2052 5537 m
2065 5537 l
2065 5537 m
2074 5542 l
2074 5542 m
2078 5546 l
2031 5546 m
2052 5533 l
2052 5533 m
2069 5533 l
2069 5533 m
2074 5537 l
2074 5537 m
2078 5546 l
2078 5546 m
2078 5554 l
2103 5639 m
2112 5631 l
2112 5631 m
2120 5618 l
2120 5618 m
2129 5601 l
2129 5601 m
2133 5580 l
2133 5580 m
2133 5563 l
2133 5563 m
2129 5542 l
2129 5542 m
2120 5525 l
2120 5525 m
2112 5512 l
2112 5512 m
2103 5503 l
2112 5631 m
2120 5614 l
2120 5614 m
2125 5601 l
2125 5601 m
2129 5580 l
2129 5580 m
2129 5563 l
2129 5563 m
2125 5542 l
2125 5542 m
2120 5529 l
2120 5529 m
2112 5512 l
2239 5622 m
2239 5533 l
2244 5622 m
2244 5533 l
2244 5580 m
2252 5588 l
2252 5588 m
2260 5593 l
2260 5593 m
2269 5593 l
2269 5593 m
2282 5588 l
2282 5588 m
2290 5580 l
2290 5580 m
2294 5567 l
2294 5567 m
2294 5559 l
stroke
2294 5559 m
2290 5546 l
2290 5546 m
2282 5537 l
2282 5537 m
2269 5533 l
2269 5533 m
2260 5533 l
2260 5533 m
2252 5537 l
2252 5537 m
2244 5546 l
2269 5593 m
2277 5588 l
2277 5588 m
2286 5580 l
2286 5580 m
2290 5567 l
2290 5567 m
2290 5559 l
2290 5559 m
2286 5546 l
2286 5546 m
2277 5537 l
2277 5537 m
2269 5533 l
2227 5622 m
2244 5622 l
2324 5567 m
2375 5567 l
2375 5567 m
2375 5576 l
2375 5576 m
2371 5584 l
2371 5584 m
2367 5588 l
2367 5588 m
2358 5593 l
2358 5593 m
2345 5593 l
2345 5593 m
2333 5588 l
2333 5588 m
2324 5580 l
2324 5580 m
2320 5567 l
2320 5567 m
2320 5559 l
2320 5559 m
2324 5546 l
2324 5546 m
2333 5537 l
2333 5537 m
2345 5533 l
2345 5533 m
2354 5533 l
2354 5533 m
2367 5537 l
2367 5537 m
2375 5546 l
2371 5567 m
2371 5580 l
2371 5580 m
2367 5588 l
2345 5593 m
2337 5588 l
2337 5588 m
2328 5580 l
2328 5580 m
2324 5567 l
2324 5567 m
2324 5559 l
2324 5559 m
2328 5546 l
2328 5546 m
2337 5537 l
2337 5537 m
2345 5533 l
2409 5584 m
2409 5580 l
2409 5580 m
2405 5580 l
2405 5580 m
2405 5584 l
2405 5584 m
2409 5588 l
2409 5588 m
2418 5593 l
2418 5593 m
2435 5593 l
2435 5593 m
2443 5588 l
2443 5588 m
2447 5584 l
2447 5584 m
2452 5576 l
2452 5576 m
2452 5546 l
2452 5546 m
2456 5537 l
2456 5537 m
2460 5533 l
2447 5584 m
2447 5546 l
2447 5546 m
2452 5537 l
2452 5537 m
2460 5533 l
2460 5533 m
2464 5533 l
2447 5576 m
2443 5571 l
2443 5571 m
2418 5567 l
2418 5567 m
2405 5563 l
2405 5563 m
2401 5554 l
2401 5554 m
2401 5546 l
2401 5546 m
2405 5537 l
2405 5537 m
2418 5533 l
2418 5533 m
2430 5533 l
2430 5533 m
2439 5537 l
2439 5537 m
2447 5546 l
2418 5567 m
2409 5563 l
2409 5563 m
2405 5554 l
2405 5554 m
2405 5546 l
2405 5546 m
2409 5537 l
2409 5537 m
2418 5533 l
2494 5593 m
2494 5533 l
2498 5593 m
2498 5533 l
2498 5580 m
2507 5588 l
2507 5588 m
2520 5593 l
2520 5593 m
2528 5593 l
2528 5593 m
2541 5588 l
2541 5588 m
2545 5580 l
2545 5580 m
2545 5533 l
2528 5593 m
2537 5588 l
2537 5588 m
2541 5580 l
2541 5580 m
2541 5533 l
2545 5580 m
2554 5588 l
2554 5588 m
2566 5593 l
2566 5593 m
2575 5593 l
2575 5593 m
2587 5588 l
2587 5588 m
2592 5580 l
2592 5580 m
2592 5533 l
2575 5593 m
2583 5588 l
2583 5588 m
2587 5580 l
2587 5580 m
2587 5533 l
2481 5593 m
2498 5593 l
2481 5533 m
2511 5533 l
2528 5533 m
2558 5533 l
2575 5533 m
2604 5533 l
2702 5622 m
2702 5550 l
2702 5550 m
2706 5537 l
2706 5537 m
2715 5533 l
2715 5533 m
2723 5533 l
2723 5533 m
2732 5537 l
2732 5537 m
2736 5546 l
2706 5622 m
2706 5550 l
2706 5550 m
2711 5537 l
2711 5537 m
2715 5533 l
2689 5593 m
2723 5593 l
2762 5567 m
2813 5567 l
2813 5567 m
2813 5576 l
2813 5576 m
2808 5584 l
2808 5584 m
2804 5588 l
2804 5588 m
2796 5593 l
2796 5593 m
2783 5593 l
2783 5593 m
2770 5588 l
2770 5588 m
2762 5580 l
2762 5580 m
2757 5567 l
2757 5567 m
2757 5559 l
2757 5559 m
2762 5546 l
2762 5546 m
2770 5537 l
2770 5537 m
2783 5533 l
2783 5533 m
2791 5533 l
2791 5533 m
2804 5537 l
2804 5537 m
2813 5546 l
2808 5567 m
2808 5580 l
2808 5580 m
2804 5588 l
2783 5593 m
2774 5588 l
2774 5588 m
2766 5580 l
2766 5580 m
2762 5567 l
2762 5567 m
2762 5559 l
2762 5559 m
2766 5546 l
2766 5546 m
2774 5537 l
2774 5537 m
2783 5533 l
2881 5584 m
2885 5593 l
2885 5593 m
2885 5576 l
2885 5576 m
2881 5584 l
2881 5584 m
2876 5588 l
2876 5588 m
2868 5593 l
2868 5593 m
2851 5593 l
2851 5593 m
2842 5588 l
2842 5588 m
2838 5584 l
2838 5584 m
2838 5576 l
2838 5576 m
2842 5571 l
2842 5571 m
2851 5567 l
2851 5567 m
2872 5559 l
2872 5559 m
2881 5554 l
2881 5554 m
2885 5550 l
2838 5580 m
2842 5576 l
2842 5576 m
2851 5571 l
2851 5571 m
2872 5563 l
2872 5563 m
2881 5559 l
2881 5559 m
2885 5554 l
2885 5554 m
2885 5542 l
2885 5542 m
2881 5537 l
2881 5537 m
2872 5533 l
2872 5533 m
2855 5533 l
2855 5533 m
2847 5537 l
2847 5537 m
2842 5542 l
2842 5542 m
2838 5550 l
2838 5550 m
2838 5533 l
2838 5533 m
2842 5542 l
2919 5622 m
2919 5550 l
2919 5550 m
2923 5537 l
2923 5537 m
2931 5533 l
2931 5533 m
2940 5533 l
2940 5533 m
2948 5537 l
2948 5537 m
2953 5546 l
2923 5622 m
2923 5550 l
2923 5550 m
2927 5537 l
2927 5537 m
2931 5533 l
2906 5593 m
2940 5593 l
3076 5639 m
3067 5631 l
3067 5631 m
3059 5618 l
3059 5618 m
3050 5601 l
3050 5601 m
3046 5580 l
3046 5580 m
3046 5563 l
3046 5563 m
3050 5542 l
3050 5542 m
3059 5525 l
3059 5525 m
3067 5512 l
3067 5512 m
3076 5503 l
3067 5631 m
3059 5614 l
3059 5614 m
3055 5601 l
3055 5601 m
3050 5580 l
3050 5580 m
3050 5563 l
3050 5563 m
3055 5542 l
3055 5542 m
3059 5529 l
3059 5529 m
3067 5512 l
3178 5622 m
3178 5533 l
3182 5622 m
3182 5533 l
3165 5622 m
3195 5622 l
3165 5533 m
3229 5533 l
3229 5533 m
3229 5559 l
3229 5559 m
3225 5533 l
3254 5622 m
3250 5618 l
3250 5618 m
3254 5614 l
3254 5614 m
3258 5618 l
3258 5618 m
3254 5622 l
3254 5593 m
3254 5533 l
3258 5593 m
3258 5533 l
3242 5593 m
3258 5593 l
3242 5533 m
3271 5533 l
3314 5593 m
3305 5588 l
3305 5588 m
3301 5584 l
3301 5584 m
3297 5576 l
3297 5576 m
3297 5567 l
3297 5567 m
3301 5559 l
3301 5559 m
3305 5554 l
3305 5554 m
3314 5550 l
3314 5550 m
3322 5550 l
3322 5550 m
3331 5554 l
3331 5554 m
3335 5559 l
3335 5559 m
3339 5567 l
3339 5567 m
3339 5576 l
3339 5576 m
3335 5584 l
3335 5584 m
3331 5588 l
3331 5588 m
3322 5593 l
3322 5593 m
3314 5593 l
3305 5588 m
3301 5580 l
3301 5580 m
3301 5563 l
3301 5563 m
3305 5554 l
3331 5554 m
3335 5563 l
3335 5563 m
3335 5580 l
3335 5580 m
3331 5588 l
3335 5584 m
3339 5588 l
3339 5588 m
3348 5593 l
3348 5593 m
3348 5588 l
3348 5588 m
3339 5588 l
3301 5559 m
3297 5554 l
3297 5554 m
3292 5546 l
3292 5546 m
3292 5542 l
3292 5542 m
3297 5533 l
3297 5533 m
3309 5529 l
3309 5529 m
3331 5529 l
3331 5529 m
3343 5525 l
3343 5525 m
3348 5520 l
3292 5542 m
3297 5537 l
3297 5537 m
3309 5533 l
3309 5533 m
3331 5533 l
3331 5533 m
3343 5529 l
3343 5529 m
3348 5520 l
3348 5520 m
3348 5516 l
3348 5516 m
3343 5508 l
3343 5508 m
3331 5503 l
3331 5503 m
3305 5503 l
3305 5503 m
3292 5508 l
3292 5508 m
3288 5516 l
3288 5516 m
3288 5520 l
3288 5520 m
3292 5529 l
3292 5529 m
3305 5533 l
3382 5622 m
3382 5533 l
3386 5622 m
3386 5533 l
3386 5580 m
3394 5588 l
3394 5588 m
3407 5593 l
3407 5593 m
3416 5593 l
3416 5593 m
3428 5588 l
3428 5588 m
3433 5580 l
3433 5580 m
3433 5533 l
3416 5593 m
3424 5588 l
3424 5588 m
3428 5580 l
3428 5580 m
3428 5533 l
3369 5622 m
3386 5622 l
3369 5533 m
3399 5533 l
3416 5533 m
3445 5533 l
3475 5622 m
3475 5550 l
3475 5550 m
3479 5537 l
3479 5537 m
3488 5533 l
3488 5533 m
3496 5533 l
3496 5533 m
3505 5537 l
3505 5537 m
3509 5546 l
3479 5622 m
3479 5550 l
3479 5550 m
3484 5537 l
3484 5537 m
3488 5533 l
3462 5593 m
3496 5593 l
3598 5622 m
3628 5576 l
3628 5576 m
3628 5533 l
3602 5622 m
3632 5576 l
3632 5576 m
3632 5533 l
3662 5622 m
3632 5576 l
3590 5622 m
3615 5622 l
3645 5622 m
3670 5622 l
3615 5533 m
3645 5533 l
3696 5622 m
3692 5618 l
3692 5618 m
3696 5614 l
3696 5614 m
3700 5618 l
3700 5618 m
3696 5622 l
3696 5593 m
3696 5533 l
3700 5593 m
3700 5533 l
3683 5593 m
3700 5593 l
3683 5533 m
3713 5533 l
3738 5567 m
3789 5567 l
3789 5567 m
3789 5576 l
3789 5576 m
3785 5584 l
3785 5584 m
3781 5588 l
3781 5588 m
3772 5593 l
3772 5593 m
3760 5593 l
3760 5593 m
3747 5588 l
3747 5588 m
3738 5580 l
3738 5580 m
3734 5567 l
3734 5567 m
3734 5559 l
3734 5559 m
3738 5546 l
3738 5546 m
3747 5537 l
3747 5537 m
3760 5533 l
3760 5533 m
3768 5533 l
3768 5533 m
3781 5537 l
3781 5537 m
3789 5546 l
3785 5567 m
3785 5580 l
stroke
3785 5580 m
3781 5588 l
3760 5593 m
3751 5588 l
3751 5588 m
3743 5580 l
3743 5580 m
3738 5567 l
3738 5567 m
3738 5559 l
3738 5559 m
3743 5546 l
3743 5546 m
3751 5537 l
3751 5537 m
3760 5533 l
3823 5622 m
3823 5533 l
3828 5622 m
3828 5533 l
3811 5622 m
3828 5622 l
3811 5533 m
3840 5533 l
3912 5622 m
3912 5533 l
3917 5622 m
3917 5533 l
3912 5580 m
3904 5588 l
3904 5588 m
3896 5593 l
3896 5593 m
3887 5593 l
3887 5593 m
3874 5588 l
3874 5588 m
3866 5580 l
3866 5580 m
3862 5567 l
3862 5567 m
3862 5559 l
3862 5559 m
3866 5546 l
3866 5546 m
3874 5537 l
3874 5537 m
3887 5533 l
3887 5533 m
3896 5533 l
3896 5533 m
3904 5537 l
3904 5537 m
3912 5546 l
3887 5593 m
3879 5588 l
3879 5588 m
3870 5580 l
3870 5580 m
3866 5567 l
3866 5567 m
3866 5559 l
3866 5559 m
3870 5546 l
3870 5546 m
3879 5537 l
3879 5537 m
3887 5533 l
3900 5622 m
3917 5622 l
3912 5533 m
3929 5533 l
4019 5639 m
4027 5631 l
4027 5631 m
4036 5618 l
4036 5618 m
4044 5601 l
4044 5601 m
4048 5580 l
4048 5580 m
4048 5563 l
4048 5563 m
4044 5542 l
4044 5542 m
4036 5525 l
4036 5525 m
4027 5512 l
4027 5512 m
4019 5503 l
4027 5631 m
4036 5614 l
4036 5614 m
4040 5601 l
4040 5601 m
4044 5580 l
4044 5580 m
4044 5563 l
4044 5563 m
4040 5542 l
4040 5542 m
4036 5529 l
4036 5529 m
4027 5512 l
stroke
newpath
lwidth setlinewidth
stroke
newpath
4.076923 setlinewidth
257 2819 m
346 2819 l
257 2824 m
346 2824 l
257 2807 m
257 2836 l
346 2807 m
346 2870 l
346 2870 m
321 2870 l
321 2870 m
346 2866 l
257 2896 m
261 2892 l
261 2892 m
265 2896 l
265 2896 m
261 2900 l
261 2900 m
257 2896 l
287 2896 m
346 2896 l
287 2900 m
346 2900 l
287 2883 m
287 2900 l
346 2883 m
346 2913 l
287 2955 m
291 2947 l
291 2947 m
295 2943 l
295 2943 m
304 2938 l
304 2938 m
312 2938 l
312 2938 m
321 2943 l
321 2943 m
325 2947 l
325 2947 m
329 2955 l
329 2955 m
329 2964 l
329 2964 m
325 2972 l
325 2972 m
321 2977 l
321 2977 m
312 2981 l
312 2981 m
304 2981 l
304 2981 m
295 2977 l
295 2977 m
291 2972 l
291 2972 m
287 2964 l
287 2964 m
287 2955 l
291 2947 m
299 2943 l
299 2943 m
316 2943 l
316 2943 m
325 2947 l
325 2972 m
316 2977 l
316 2977 m
299 2977 l
299 2977 m
291 2972 l
295 2977 m
291 2981 l
291 2981 m
287 2989 l
287 2989 m
291 2989 l
291 2989 m
291 2981 l
321 2943 m
325 2938 l
325 2938 m
333 2934 l
333 2934 m
338 2934 l
338 2934 m
346 2938 l
346 2938 m
350 2951 l
350 2951 m
350 2972 l
350 2972 m
355 2985 l
355 2985 m
359 2989 l
338 2934 m
342 2938 l
342 2938 m
346 2951 l
346 2951 m
346 2972 l
346 2972 m
350 2985 l
350 2985 m
359 2989 l
359 2989 m
363 2989 l
363 2989 m
371 2985 l
371 2985 m
376 2972 l
376 2972 m
376 2947 l
376 2947 m
371 2934 l
371 2934 m
363 2930 l
363 2930 m
359 2930 l
359 2930 m
350 2934 l
350 2934 m
346 2947 l
257 3023 m
346 3023 l
257 3028 m
346 3028 l
299 3028 m
291 3036 l
291 3036 m
287 3049 l
287 3049 m
287 3057 l
287 3057 m
291 3070 l
291 3070 m
299 3074 l
299 3074 m
346 3074 l
287 3057 m
291 3066 l
291 3066 m
299 3070 l
299 3070 m
346 3070 l
257 3011 m
257 3028 l
346 3011 m
346 3040 l
346 3057 m
346 3087 l
257 3117 m
329 3117 l
329 3117 m
342 3121 l
342 3121 m
346 3129 l
346 3129 m
346 3138 l
346 3138 m
342 3146 l
342 3146 m
333 3151 l
257 3121 m
329 3121 l
329 3121 m
342 3125 l
342 3125 m
346 3129 l
287 3104 m
287 3138 l
287 3244 m
346 3270 l
287 3248 m
338 3270 l
287 3295 m
346 3270 l
346 3270 m
363 3261 l
363 3261 m
371 3253 l
371 3253 m
376 3244 l
376 3244 m
376 3240 l
376 3240 m
371 3236 l
371 3236 m
367 3240 l
367 3240 m
371 3244 l
287 3236 m
287 3261 l
287 3278 m
287 3304 l
257 3329 m
261 3325 l
261 3325 m
265 3329 l
265 3329 m
261 3333 l
261 3333 m
257 3329 l
287 3329 m
346 3329 l
287 3333 m
346 3333 l
287 3316 m
287 3333 l
346 3316 m
346 3346 l
312 3372 m
312 3422 l
312 3422 m
304 3422 l
304 3422 m
295 3418 l
295 3418 m
291 3414 l
291 3414 m
287 3406 l
287 3406 m
287 3393 l
287 3393 m
291 3380 l
291 3380 m
299 3372 l
299 3372 m
312 3367 l
312 3367 m
321 3367 l
321 3367 m
333 3372 l
333 3372 m
342 3380 l
342 3380 m
346 3393 l
346 3393 m
346 3401 l
346 3401 m
342 3414 l
342 3414 m
333 3422 l
312 3418 m
299 3418 l
299 3418 m
291 3414 l
287 3393 m
291 3384 l
291 3384 m
299 3376 l
299 3376 m
312 3372 l
312 3372 m
321 3372 l
321 3372 m
333 3376 l
333 3376 m
342 3384 l
342 3384 m
346 3393 l
257 3456 m
346 3456 l
257 3461 m
346 3461 l
257 3444 m
257 3461 l
346 3444 m
346 3473 l
257 3546 m
346 3546 l
257 3550 m
346 3550 l
299 3546 m
291 3537 l
291 3537 m
287 3529 l
287 3529 m
287 3520 l
287 3520 m
291 3507 l
291 3507 m
299 3499 l
299 3499 m
312 3495 l
312 3495 m
321 3495 l
321 3495 m
333 3499 l
333 3499 m
342 3507 l
342 3507 m
346 3520 l
346 3520 m
346 3529 l
346 3529 m
342 3537 l
342 3537 m
333 3546 l
287 3520 m
291 3512 l
291 3512 m
299 3503 l
299 3503 m
312 3499 l
312 3499 m
321 3499 l
321 3499 m
333 3503 l
333 3503 m
342 3512 l
342 3512 m
346 3520 l
257 3533 m
257 3550 l
346 3546 m
346 3563 l
240 3686 m
248 3677 l
248 3677 m
261 3669 l
261 3669 m
278 3660 l
278 3660 m
299 3656 l
299 3656 m
316 3656 l
316 3656 m
338 3660 l
338 3660 m
355 3669 l
355 3669 m
367 3677 l
367 3677 m
376 3686 l
248 3677 m
265 3669 l
265 3669 m
278 3665 l
278 3665 m
299 3660 l
299 3660 m
316 3660 l
316 3660 m
338 3665 l
338 3665 m
350 3669 l
350 3669 m
367 3677 l
257 3788 m
346 3788 l
257 3792 m
338 3843 l
265 3792 m
346 3843 l
257 3843 m
346 3843 l
257 3775 m
257 3792 l
257 3830 m
257 3856 l
346 3775 m
346 3800 l
338 3885 m
342 3881 l
342 3881 m
346 3885 l
346 3885 m
342 3890 l
342 3890 m
338 3885 l
287 3928 m
376 3928 l
287 3932 m
376 3932 l
299 3932 m
291 3941 l
291 3941 m
287 3949 l
287 3949 m
287 3958 l
287 3958 m
291 3970 l
291 3970 m
299 3979 l
299 3979 m
312 3983 l
312 3983 m
321 3983 l
321 3983 m
333 3979 l
333 3979 m
342 3970 l
342 3970 m
346 3958 l
346 3958 m
346 3949 l
346 3949 m
342 3941 l
342 3941 m
333 3932 l
287 3958 m
291 3966 l
291 3966 m
299 3975 l
299 3975 m
312 3979 l
312 3979 m
321 3979 l
321 3979 m
333 3975 l
333 3975 m
342 3966 l
342 3966 m
346 3958 l
287 3915 m
287 3932 l
376 3915 m
376 3945 l
338 4017 m
342 4013 l
342 4013 m
346 4017 l
346 4017 m
342 4021 l
342 4021 m
338 4017 l
312 4055 m
312 4106 l
312 4106 m
304 4106 l
304 4106 m
295 4102 l
295 4102 m
291 4098 l
291 4098 m
287 4089 l
287 4089 m
287 4077 l
287 4077 m
291 4064 l
291 4064 m
299 4055 l
299 4055 m
312 4051 l
312 4051 m
321 4051 l
321 4051 m
333 4055 l
333 4055 m
342 4064 l
342 4064 m
346 4077 l
346 4077 m
346 4085 l
346 4085 m
342 4098 l
342 4098 m
333 4106 l
312 4102 m
299 4102 l
299 4102 m
291 4098 l
287 4077 m
291 4068 l
291 4068 m
299 4060 l
299 4060 m
312 4055 l
312 4055 m
321 4055 l
321 4055 m
333 4060 l
333 4060 m
342 4068 l
342 4068 m
346 4077 l
338 4140 m
342 4136 l
342 4136 m
346 4140 l
346 4140 m
342 4144 l
342 4144 m
338 4140 l
240 4242 m
248 4251 l
248 4251 m
261 4259 l
261 4259 m
278 4268 l
278 4268 m
299 4272 l
299 4272 m
316 4272 l
316 4272 m
338 4268 l
338 4268 m
355 4259 l
stroke
355 4259 m
367 4251 l
367 4251 m
376 4242 l
248 4251 m
265 4259 l
265 4259 m
278 4263 l
278 4263 m
299 4268 l
299 4268 m
316 4268 l
316 4268 m
338 4263 l
338 4263 m
350 4259 l
350 4259 m
367 4251 l
stroke
newpath
lwidth setlinewidth
stroke
newpath
4.076923 setlinewidth
1933 2300 m
1933 2210 l
1938 2300 m
1938 2210 l
1921 2300 m
1972 2300 l
1972 2300 m
1984 2295 l
1984 2295 m
1989 2291 l
1989 2291 m
1993 2283 l
1993 2283 m
1993 2274 l
1993 2274 m
1989 2266 l
1989 2266 m
1984 2261 l
1984 2261 m
1972 2257 l
1972 2300 m
1980 2295 l
1980 2295 m
1984 2291 l
1984 2291 m
1989 2283 l
1989 2283 m
1989 2274 l
1989 2274 m
1984 2266 l
1984 2266 m
1980 2261 l
1980 2261 m
1972 2257 l
1938 2257 m
1972 2257 l
1972 2257 m
1984 2253 l
1984 2253 m
1989 2249 l
1989 2249 m
1993 2240 l
1993 2240 m
1993 2227 l
1993 2227 m
1989 2219 l
1989 2219 m
1984 2215 l
1984 2215 m
1972 2210 l
1972 2210 m
1921 2210 l
1972 2257 m
1980 2253 l
1980 2253 m
1984 2249 l
1984 2249 m
1989 2240 l
1989 2240 m
1989 2227 l
1989 2227 m
1984 2219 l
1984 2219 m
1980 2215 l
1980 2215 m
1972 2210 l
2023 2244 m
2074 2244 l
2074 2244 m
2074 2253 l
2074 2253 m
2069 2261 l
2069 2261 m
2065 2266 l
2065 2266 m
2057 2270 l
2057 2270 m
2044 2270 l
2044 2270 m
2031 2266 l
2031 2266 m
2023 2257 l
2023 2257 m
2018 2244 l
2018 2244 m
2018 2236 l
2018 2236 m
2023 2223 l
2023 2223 m
2031 2215 l
2031 2215 m
2044 2210 l
2044 2210 m
2052 2210 l
2052 2210 m
2065 2215 l
2065 2215 m
2074 2223 l
2069 2244 m
2069 2257 l
2069 2257 m
2065 2266 l
2044 2270 m
2035 2266 l
2035 2266 m
2027 2257 l
2027 2257 m
2023 2244 l
2023 2244 m
2023 2236 l
2023 2236 m
2027 2223 l
2027 2223 m
2035 2215 l
2035 2215 m
2044 2210 l
2108 2261 m
2108 2257 l
2108 2257 m
2103 2257 l
2103 2257 m
2103 2261 l
2103 2261 m
2108 2266 l
2108 2266 m
2116 2270 l
2116 2270 m
2133 2270 l
2133 2270 m
2142 2266 l
2142 2266 m
2146 2261 l
2146 2261 m
2150 2253 l
2150 2253 m
2150 2223 l
2150 2223 m
2154 2215 l
2154 2215 m
2159 2210 l
2146 2261 m
2146 2223 l
2146 2223 m
2150 2215 l
2150 2215 m
2159 2210 l
2159 2210 m
2163 2210 l
2146 2253 m
2142 2249 l
2142 2249 m
2116 2244 l
2116 2244 m
2103 2240 l
2103 2240 m
2099 2232 l
2099 2232 m
2099 2223 l
2099 2223 m
2103 2215 l
2103 2215 m
2116 2210 l
2116 2210 m
2129 2210 l
2129 2210 m
2137 2215 l
2137 2215 m
2146 2223 l
2116 2244 m
2108 2240 l
2108 2240 m
2103 2232 l
2103 2232 m
2103 2223 l
2103 2223 m
2108 2215 l
2108 2215 m
2116 2210 l
2193 2270 m
2193 2210 l
2197 2270 m
2197 2210 l
2197 2257 m
2205 2266 l
2205 2266 m
2218 2270 l
2218 2270 m
2227 2270 l
2227 2270 m
2239 2266 l
2239 2266 m
2244 2257 l
2244 2257 m
2244 2210 l
2227 2270 m
2235 2266 l
2235 2266 m
2239 2257 l
2239 2257 m
2239 2210 l
2244 2257 m
2252 2266 l
2252 2266 m
2265 2270 l
2265 2270 m
2273 2270 l
2273 2270 m
2286 2266 l
2286 2266 m
2290 2257 l
2290 2257 m
2290 2210 l
2273 2270 m
2282 2266 l
2282 2266 m
2286 2257 l
2286 2257 m
2286 2210 l
2180 2270 m
2197 2270 l
2180 2210 m
2210 2210 l
2227 2210 m
2256 2210 l
2273 2210 m
2303 2210 l
2401 2270 m
2401 2181 l
2405 2270 m
2405 2181 l
2405 2257 m
2413 2266 l
2413 2266 m
2422 2270 l
2422 2270 m
2430 2270 l
2430 2270 m
2443 2266 l
2443 2266 m
2452 2257 l
2452 2257 m
2456 2244 l
2456 2244 m
2456 2236 l
2456 2236 m
2452 2223 l
2452 2223 m
2443 2215 l
2443 2215 m
2430 2210 l
2430 2210 m
2422 2210 l
2422 2210 m
2413 2215 l
2413 2215 m
2405 2223 l
2430 2270 m
2439 2266 l
2439 2266 m
2447 2257 l
2447 2257 m
2452 2244 l
2452 2244 m
2452 2236 l
2452 2236 m
2447 2223 l
2447 2223 m
2439 2215 l
2439 2215 m
2430 2210 l
2388 2270 m
2405 2270 l
2388 2181 m
2418 2181 l
2507 2270 m
2494 2266 l
2494 2266 m
2486 2257 l
2486 2257 m
2481 2244 l
2481 2244 m
2481 2236 l
2481 2236 m
2486 2223 l
2486 2223 m
2494 2215 l
2494 2215 m
2507 2210 l
2507 2210 m
2515 2210 l
2515 2210 m
2528 2215 l
2528 2215 m
2537 2223 l
2537 2223 m
2541 2236 l
2541 2236 m
2541 2244 l
2541 2244 m
2537 2257 l
2537 2257 m
2528 2266 l
2528 2266 m
2515 2270 l
2515 2270 m
2507 2270 l
2507 2270 m
2498 2266 l
2498 2266 m
2490 2257 l
2490 2257 m
2486 2244 l
2486 2244 m
2486 2236 l
2486 2236 m
2490 2223 l
2490 2223 m
2498 2215 l
2498 2215 m
2507 2210 l
2515 2210 m
2524 2215 l
2524 2215 m
2532 2223 l
2532 2223 m
2537 2236 l
2537 2236 m
2537 2244 l
2537 2244 m
2532 2257 l
2532 2257 m
2524 2266 l
2524 2266 m
2515 2270 l
2609 2261 m
2613 2270 l
2613 2270 m
2613 2253 l
2613 2253 m
2609 2261 l
2609 2261 m
2604 2266 l
2604 2266 m
2596 2270 l
2596 2270 m
2579 2270 l
2579 2270 m
2571 2266 l
2571 2266 m
2566 2261 l
2566 2261 m
2566 2253 l
2566 2253 m
2571 2249 l
2571 2249 m
2579 2244 l
2579 2244 m
2600 2236 l
2600 2236 m
2609 2232 l
2609 2232 m
2613 2227 l
2566 2257 m
2571 2253 l
2571 2253 m
2579 2249 l
2579 2249 m
2600 2240 l
2600 2240 m
2609 2236 l
2609 2236 m
2613 2232 l
2613 2232 m
2613 2219 l
2613 2219 m
2609 2215 l
2609 2215 m
2600 2210 l
2600 2210 m
2583 2210 l
2583 2210 m
2575 2215 l
2575 2215 m
2571 2219 l
2571 2219 m
2566 2227 l
2566 2227 m
2566 2210 l
2566 2210 m
2571 2219 l
2647 2300 m
2643 2295 l
2643 2295 m
2647 2291 l
2647 2291 m
2651 2295 l
2651 2295 m
2647 2300 l
2647 2270 m
2647 2210 l
2651 2270 m
2651 2210 l
2634 2270 m
2651 2270 l
2634 2210 m
2664 2210 l
2694 2300 m
2694 2227 l
2694 2227 m
2698 2215 l
2698 2215 m
2706 2210 l
2706 2210 m
2715 2210 l
2715 2210 m
2723 2215 l
2723 2215 m
2728 2223 l
2698 2300 m
2698 2227 l
2698 2227 m
2702 2215 l
2702 2215 m
2706 2210 l
2681 2270 m
2715 2270 l
2757 2300 m
2753 2295 l
2753 2295 m
2757 2291 l
2757 2291 m
2762 2295 l
2762 2295 m
2757 2300 l
2757 2270 m
2757 2210 l
2762 2270 m
2762 2210 l
2745 2270 m
2762 2270 l
2745 2210 m
2774 2210 l
2821 2270 m
2808 2266 l
2808 2266 m
2800 2257 l
2800 2257 m
2796 2244 l
2796 2244 m
2796 2236 l
2796 2236 m
2800 2223 l
2800 2223 m
2808 2215 l
2808 2215 m
2821 2210 l
2821 2210 m
2830 2210 l
2830 2210 m
2842 2215 l
2842 2215 m
2851 2223 l
2851 2223 m
2855 2236 l
2855 2236 m
2855 2244 l
2855 2244 m
2851 2257 l
2851 2257 m
2842 2266 l
2842 2266 m
2830 2270 l
2830 2270 m
2821 2270 l
2821 2270 m
2813 2266 l
2813 2266 m
2804 2257 l
2804 2257 m
2800 2244 l
2800 2244 m
2800 2236 l
2800 2236 m
2804 2223 l
2804 2223 m
2813 2215 l
2813 2215 m
2821 2210 l
2830 2210 m
2838 2215 l
2838 2215 m
2847 2223 l
2847 2223 m
2851 2236 l
2851 2236 m
2851 2244 l
2851 2244 m
2847 2257 l
2847 2257 m
2838 2266 l
2838 2266 m
2830 2270 l
2889 2270 m
2889 2210 l
2893 2270 m
2893 2210 l
2893 2257 m
2902 2266 l
2902 2266 m
2915 2270 l
2915 2270 m
2923 2270 l
2923 2270 m
2936 2266 l
2936 2266 m
2940 2257 l
2940 2257 m
2940 2210 l
2923 2270 m
2931 2266 l
2931 2266 m
2936 2257 l
2936 2257 m
2936 2210 l
2876 2270 m
2893 2270 l
2876 2210 m
2906 2210 l
2923 2210 m
2953 2210 l
3050 2300 m
3046 2295 l
3046 2295 m
3050 2291 l
3050 2291 m
3055 2295 l
3055 2295 m
3050 2300 l
3050 2270 m
3050 2210 l
3055 2270 m
3055 2210 l
3038 2270 m
3055 2270 l
3038 2210 m
3067 2210 l
3097 2270 m
3097 2210 l
3101 2270 m
3101 2210 l
3101 2257 m
3110 2266 l
3110 2266 m
3123 2270 l
3123 2270 m
3131 2270 l
3131 2270 m
3144 2266 l
3144 2266 m
3148 2257 l
3148 2257 m
3148 2210 l
3131 2270 m
3140 2266 l
3140 2266 m
3144 2257 l
3144 2257 m
3144 2210 l
3084 2270 m
3101 2270 l
3084 2210 m
3114 2210 l
3131 2210 m
3161 2210 l
3301 2257 m
3297 2253 l
3297 2253 m
3301 2249 l
3301 2249 m
3305 2253 l
3305 2253 m
3305 2257 l
3305 2257 m
3297 2266 l
3297 2266 m
3288 2270 l
stroke
3288 2270 m
3275 2270 l
3275 2270 m
3263 2266 l
3263 2266 m
3254 2257 l
3254 2257 m
3250 2244 l
3250 2244 m
3250 2236 l
3250 2236 m
3254 2223 l
3254 2223 m
3263 2215 l
3263 2215 m
3275 2210 l
3275 2210 m
3284 2210 l
3284 2210 m
3297 2215 l
3297 2215 m
3305 2223 l
3275 2270 m
3267 2266 l
3267 2266 m
3258 2257 l
3258 2257 m
3254 2244 l
3254 2244 m
3254 2236 l
3254 2236 m
3258 2223 l
3258 2223 m
3267 2215 l
3267 2215 m
3275 2210 l
3339 2270 m
3339 2210 l
3343 2270 m
3343 2210 l
3343 2257 m
3352 2266 l
3352 2266 m
3365 2270 l
3365 2270 m
3373 2270 l
3373 2270 m
3386 2266 l
3386 2266 m
3390 2257 l
3390 2257 m
3390 2210 l
3373 2270 m
3382 2266 l
3382 2266 m
3386 2257 l
3386 2257 m
3386 2210 l
3390 2257 m
3399 2266 l
3399 2266 m
3411 2270 l
3411 2270 m
3420 2270 l
3420 2270 m
3433 2266 l
3433 2266 m
3437 2257 l
3437 2257 m
3437 2210 l
3420 2270 m
3428 2266 l
3428 2266 m
3433 2257 l
3433 2257 m
3433 2210 l
3326 2270 m
3343 2270 l
3326 2210 m
3356 2210 l
3373 2210 m
3403 2210 l
3420 2210 m
3450 2210 l
stroke
newpath
lwidth setlinewidth
1060 5380 m
1060 2526 l
1060 2526 m
4770 2526 l
4770 2526 m
4770 5380 l
4770 5380 m
1060 5380 l
stroke
newpath
4.076923 setlinewidth
4450 3294 m
4484 3260 l
4484 3260 m
4518 3294 l
4518 3294 m
4484 3328 l
4484 3328 m
4450 3294 l
stroke
newpath
lwidth setlinewidth
stroke
newpath
4.076923 setlinewidth
4450 3306 m
4484 3272 l
4484 3272 m
4518 3306 l
4518 3306 m
4484 3339 l
4484 3339 m
4450 3306 l
stroke
newpath
lwidth setlinewidth
stroke
newpath
4.076923 setlinewidth
4450 3294 m
4484 3260 l
4484 3260 m
4518 3294 l
4518 3294 m
4484 3328 l
4484 3328 m
4450 3294 l
stroke
newpath
lwidth setlinewidth
stroke
newpath
4.076923 setlinewidth
4450 3311 m
4484 3277 l
4484 3277 m
4518 3311 l
4518 3311 m
4484 3345 l
4484 3345 m
4450 3311 l
stroke
newpath
lwidth setlinewidth
stroke
newpath
4.076923 setlinewidth
4450 3311 m
4484 3277 l
4484 3277 m
4518 3311 l
4518 3311 m
4484 3345 l
4484 3345 m
4450 3311 l
stroke
newpath
lwidth setlinewidth
stroke
newpath
4.076923 setlinewidth
4450 3317 m
4484 3283 l
4484 3283 m
4518 3317 l
4518 3317 m
4484 3351 l
4484 3351 m
4450 3317 l
stroke
newpath
lwidth setlinewidth
stroke
newpath
4.076923 setlinewidth
4165 3337 m
4199 3303 l
4199 3303 m
4233 3337 l
4233 3337 m
4199 3371 l
4199 3371 m
4165 3337 l
stroke
newpath
lwidth setlinewidth
stroke
newpath
4.076923 setlinewidth
4165 3337 m
4199 3303 l
4199 3303 m
4233 3337 l
4233 3337 m
4199 3371 l
4199 3371 m
4165 3337 l
stroke
newpath
lwidth setlinewidth
stroke
newpath
4.076923 setlinewidth
4165 3343 m
4199 3309 l
4199 3309 m
4233 3343 l
4233 3343 m
4199 3377 l
4199 3377 m
4165 3343 l
stroke
newpath
lwidth setlinewidth
stroke
newpath
4.076923 setlinewidth
3879 3328 m
3913 3294 l
3913 3294 m
3947 3328 l
3947 3328 m
3913 3362 l
3913 3362 m
3879 3328 l
stroke
newpath
lwidth setlinewidth
stroke
newpath
4.076923 setlinewidth
3879 3328 m
3913 3294 l
3913 3294 m
3947 3328 l
3947 3328 m
3913 3362 l
3913 3362 m
3879 3328 l
stroke
newpath
lwidth setlinewidth
stroke
newpath
4.076923 setlinewidth
3879 3334 m
3913 3300 l
3913 3300 m
3947 3334 l
3947 3334 m
3913 3368 l
3913 3368 m
3879 3334 l
stroke
newpath
lwidth setlinewidth
stroke
newpath
4.076923 setlinewidth
3737 3343 m
3771 3309 l
3771 3309 m
3805 3343 l
3805 3343 m
3771 3377 l
3771 3377 m
3737 3343 l
stroke
newpath
lwidth setlinewidth
stroke
newpath
4.076923 setlinewidth
3737 3345 m
3771 3312 l
3771 3312 m
3805 3345 l
3805 3345 m
3771 3379 l
3771 3379 m
3737 3345 l
stroke
newpath
lwidth setlinewidth
stroke
newpath
4.076923 setlinewidth
3737 3345 m
3771 3312 l
3771 3312 m
3805 3345 l
3805 3345 m
3771 3379 l
3771 3379 m
3737 3345 l
stroke
newpath
lwidth setlinewidth
stroke
newpath
4.076923 setlinewidth
3594 3334 m
3628 3300 l
3628 3300 m
3662 3334 l
3662 3334 m
3628 3368 l
3628 3368 m
3594 3334 l
stroke
newpath
lwidth setlinewidth
stroke
newpath
4.076923 setlinewidth
3594 3337 m
3628 3303 l
3628 3303 m
3662 3337 l
3662 3337 m
3628 3371 l
3628 3371 m
3594 3337 l
stroke
newpath
lwidth setlinewidth
stroke
newpath
4.076923 setlinewidth
3594 3340 m
3628 3306 l
3628 3306 m
3662 3340 l
3662 3340 m
3628 3374 l
3628 3374 m
3594 3340 l
stroke
newpath
lwidth setlinewidth
stroke
newpath
4.076923 setlinewidth
3309 3343 m
3343 3309 l
3343 3309 m
3377 3343 l
3377 3343 m
3343 3377 l
3343 3377 m
3309 3343 l
stroke
newpath
lwidth setlinewidth
stroke
newpath
4.076923 setlinewidth
3309 3348 m
3343 3314 l
3343 3314 m
3377 3348 l
3377 3348 m
3343 3382 l
3343 3382 m
3309 3348 l
stroke
newpath
lwidth setlinewidth
stroke
newpath
4.076923 setlinewidth
3309 3348 m
3343 3314 l
3343 3314 m
3377 3348 l
3377 3348 m
3343 3382 l
3343 3382 m
3309 3348 l
stroke
newpath
lwidth setlinewidth
stroke
newpath
4.076923 setlinewidth
3023 3360 m
3057 3326 l
3057 3326 m
3091 3360 l
3091 3360 m
3057 3394 l
3057 3394 m
3023 3360 l
stroke
newpath
lwidth setlinewidth
stroke
newpath
4.076923 setlinewidth
3023 3363 m
3057 3329 l
3057 3329 m
3091 3363 l
3091 3363 m
3057 3397 l
3057 3397 m
3023 3363 l
stroke
newpath
lwidth setlinewidth
stroke
newpath
4.076923 setlinewidth
3023 3357 m
3057 3323 l
3057 3323 m
3091 3357 l
3091 3357 m
3057 3391 l
3057 3391 m
3023 3357 l
stroke
newpath
lwidth setlinewidth
stroke
newpath
4.076923 setlinewidth
3023 3360 m
3057 3326 l
3057 3326 m
3091 3360 l
3091 3360 m
3057 3394 l
3057 3394 m
3023 3360 l
stroke
newpath
lwidth setlinewidth
stroke
newpath
4.076923 setlinewidth
3023 3365 m
3057 3331 l
3057 3331 m
3091 3365 l
3091 3365 m
3057 3399 l
3057 3399 m
3023 3365 l
stroke
newpath
lwidth setlinewidth
stroke
newpath
4.076923 setlinewidth
3023 3371 m
3057 3337 l
3057 3337 m
3091 3371 l
3091 3371 m
3057 3405 l
3057 3405 m
3023 3371 l
stroke
newpath
lwidth setlinewidth
stroke
newpath
4.076923 setlinewidth
2738 3383 m
2772 3349 l
2772 3349 m
2806 3383 l
2806 3383 m
2772 3417 l
2772 3417 m
2738 3383 l
stroke
newpath
lwidth setlinewidth
stroke
newpath
4.076923 setlinewidth
2738 3388 m
2772 3354 l
2772 3354 m
2806 3388 l
2806 3388 m
2772 3422 l
2772 3422 m
2738 3388 l
stroke
newpath
lwidth setlinewidth
stroke
newpath
4.076923 setlinewidth
2738 3394 m
2772 3360 l
2772 3360 m
2806 3394 l
2806 3394 m
2772 3428 l
2772 3428 m
2738 3394 l
stroke
newpath
lwidth setlinewidth
stroke
newpath
4.076923 setlinewidth
2452 3460 m
2486 3426 l
2486 3426 m
2520 3460 l
2520 3460 m
2486 3494 l
2486 3494 m
2452 3460 l
stroke
newpath
lwidth setlinewidth
stroke
newpath
4.076923 setlinewidth
2452 3460 m
2486 3426 l
2486 3426 m
2520 3460 l
2520 3460 m
2486 3494 l
2486 3494 m
2452 3460 l
stroke
newpath
lwidth setlinewidth
stroke
newpath
4.076923 setlinewidth
2452 3465 m
2486 3431 l
2486 3431 m
2520 3465 l
2520 3465 m
2486 3499 l
2486 3499 m
2452 3465 l
stroke
newpath
lwidth setlinewidth
stroke
newpath
4.076923 setlinewidth
2167 3574 m
2201 3540 l
2201 3540 m
2235 3574 l
2235 3574 m
2201 3608 l
2201 3608 m
2167 3574 l
stroke
newpath
lwidth setlinewidth
stroke
newpath
4.076923 setlinewidth
2167 3577 m
2201 3543 l
2201 3543 m
2235 3577 l
2235 3577 m
2201 3611 l
2201 3611 m
2167 3577 l
stroke
newpath
lwidth setlinewidth
stroke
newpath
4.076923 setlinewidth
2167 3577 m
2201 3543 l
2201 3543 m
2235 3577 l
2235 3577 m
2201 3611 l
2201 3611 m
2167 3577 l
stroke
newpath
lwidth setlinewidth
stroke
newpath
4.076923 setlinewidth
2167 3579 m
2201 3546 l
2201 3546 m
2235 3579 l
2235 3579 m
2201 3613 l
2201 3613 m
2167 3579 l
stroke
newpath
lwidth setlinewidth
stroke
newpath
4.076923 setlinewidth
2167 3588 m
2201 3554 l
2201 3554 m
2235 3588 l
2235 3588 m
2201 3622 l
2201 3622 m
2167 3588 l
stroke
newpath
lwidth setlinewidth
stroke
newpath
4.076923 setlinewidth
2167 3574 m
2201 3540 l
2201 3540 m
2235 3574 l
2235 3574 m
2201 3608 l
2201 3608 m
2167 3574 l
stroke
newpath
lwidth setlinewidth
stroke
newpath
4.076923 setlinewidth
1882 3754 m
1916 3720 l
1916 3720 m
1950 3754 l
1950 3754 m
1916 3788 l
1916 3788 m
1882 3754 l
stroke
newpath
lwidth setlinewidth
stroke
newpath
4.076923 setlinewidth
1882 3771 m
1916 3737 l
1916 3737 m
1950 3771 l
1950 3771 m
1916 3805 l
1916 3805 m
1882 3771 l
stroke
newpath
lwidth setlinewidth
stroke
newpath
4.076923 setlinewidth
1882 3768 m
1916 3734 l
1916 3734 m
1950 3768 l
1950 3768 m
1916 3802 l
1916 3802 m
1882 3768 l
stroke
newpath
lwidth setlinewidth
stroke
newpath
4.076923 setlinewidth
1596 4033 m
1630 3999 l
1630 3999 m
1664 4033 l
1664 4033 m
1630 4067 l
1630 4067 m
1596 4033 l
stroke
newpath
lwidth setlinewidth
stroke
newpath
4.076923 setlinewidth
1596 4028 m
1630 3994 l
1630 3994 m
1664 4028 l
1664 4028 m
1630 4062 l
1630 4062 m
1596 4028 l
stroke
newpath
lwidth setlinewidth
stroke
newpath
4.076923 setlinewidth
1596 4033 m
1630 3999 l
1630 3999 m
1664 4033 l
1664 4033 m
1630 4067 l
1630 4067 m
1596 4033 l
stroke
newpath
lwidth setlinewidth
stroke
newpath
4.076923 setlinewidth
1311 4521 m
1345 4487 l
1345 4487 m
1379 4521 l
1379 4521 m
1345 4555 l
1345 4555 m
1311 4521 l
stroke
newpath
lwidth setlinewidth
stroke
newpath
4.076923 setlinewidth
1311 4498 m
1345 4464 l
1345 4464 m
1379 4498 l
1379 4498 m
1345 4532 l
1345 4532 m
1311 4498 l
stroke
newpath
lwidth setlinewidth
stroke
newpath
4.076923 setlinewidth
1311 4518 m
1345 4484 l
1345 4484 m
1379 4518 l
1379 4518 m
1345 4552 l
1345 4552 m
1311 4518 l
stroke
newpath
lwidth setlinewidth
1202 2526 m
1202 2567 l
1345 2526 m
1345 2567 l
1488 2526 m
1488 2649 l
1630 2526 m
1630 2567 l
1773 2526 m
1773 2567 l
1916 2526 m
1916 2567 l
2058 2526 m
2058 2567 l
2201 2526 m
2201 2649 l
2344 2526 m
2344 2567 l
2486 2526 m
2486 2567 l
2629 2526 m
2629 2567 l
2772 2526 m
2772 2567 l
2915 2526 m
2915 2649 l
3057 2526 m
3057 2567 l
3200 2526 m
3200 2567 l
3343 2526 m
3343 2567 l
3485 2526 m
3485 2567 l
3628 2526 m
3628 2649 l
3771 2526 m
3771 2567 l
3913 2526 m
3913 2567 l
4056 2526 m
4056 2567 l
4199 2526 m
4199 2567 l
4341 2526 m
4341 2649 l
4484 2526 m
4484 2567 l
4627 2526 m
4627 2567 l
4769 2526 m
4769 2567 l
stroke
newpath
3.261539 setlinewidth
1387 2418 m
1448 2418 l
1479 2459 m
1472 2425 l
1472 2425 m
1479 2432 l
1479 2432 m
1489 2435 l
1489 2435 m
1499 2435 l
1499 2435 m
1509 2432 l
1509 2432 m
1516 2425 l
1516 2425 m
1520 2415 l
1520 2415 m
1520 2408 l
1520 2408 m
1516 2398 l
1516 2398 m
1509 2391 l
1509 2391 m
1499 2388 l
1499 2388 m
1489 2388 l
1489 2388 m
1479 2391 l
1479 2391 m
1475 2395 l
1475 2395 m
1472 2401 l
1472 2401 m
1472 2405 l
1472 2405 m
1475 2408 l
1475 2408 m
1479 2405 l
1479 2405 m
1475 2401 l
1499 2435 m
1506 2432 l
1506 2432 m
1513 2425 l
1513 2425 m
1516 2415 l
1516 2415 m
1516 2408 l
1516 2408 m
1513 2398 l
1513 2398 m
1506 2391 l
1506 2391 m
1499 2388 l
1479 2459 m
1513 2459 l
1479 2456 m
1496 2456 l
1496 2456 m
1513 2459 l
1560 2459 m
1550 2456 l
1550 2456 m
1543 2446 l
1543 2446 m
1540 2429 l
1540 2429 m
1540 2418 l
1540 2418 m
1543 2401 l
1543 2401 m
1550 2391 l
1550 2391 m
1560 2388 l
1560 2388 m
1567 2388 l
stroke
1567 2388 m
1577 2391 l
1577 2391 m
1584 2401 l
1584 2401 m
1587 2418 l
1587 2418 m
1587 2429 l
1587 2429 m
1584 2446 l
1584 2446 m
1577 2456 l
1577 2456 m
1567 2459 l
1567 2459 m
1560 2459 l
1560 2459 m
1553 2456 l
1553 2456 m
1550 2452 l
1550 2452 m
1547 2446 l
1547 2446 m
1543 2429 l
1543 2429 m
1543 2418 l
1543 2418 m
1547 2401 l
1547 2401 m
1550 2395 l
1550 2395 m
1553 2391 l
1553 2391 m
1560 2388 l
1567 2388 m
1574 2391 l
1574 2391 m
1577 2395 l
1577 2395 m
1581 2401 l
1581 2401 m
1584 2418 l
1584 2418 m
1584 2429 l
1584 2429 m
1581 2446 l
1581 2446 m
1577 2452 l
1577 2452 m
1574 2456 l
1574 2456 m
1567 2459 l
stroke
newpath
lwidth setlinewidth
stroke
newpath
3.261539 setlinewidth
2191 2459 m
2181 2456 l
2181 2456 m
2174 2446 l
2174 2446 m
2170 2429 l
2170 2429 m
2170 2418 l
2170 2418 m
2174 2401 l
2174 2401 m
2181 2391 l
2181 2391 m
2191 2388 l
2191 2388 m
2198 2388 l
2198 2388 m
2208 2391 l
2208 2391 m
2215 2401 l
2215 2401 m
2218 2418 l
2218 2418 m
2218 2429 l
2218 2429 m
2215 2446 l
2215 2446 m
2208 2456 l
2208 2456 m
2198 2459 l
2198 2459 m
2191 2459 l
2191 2459 m
2184 2456 l
2184 2456 m
2181 2452 l
2181 2452 m
2177 2446 l
2177 2446 m
2174 2429 l
2174 2429 m
2174 2418 l
2174 2418 m
2177 2401 l
2177 2401 m
2181 2395 l
2181 2395 m
2184 2391 l
2184 2391 m
2191 2388 l
2198 2388 m
2204 2391 l
2204 2391 m
2208 2395 l
2208 2395 m
2211 2401 l
2211 2401 m
2215 2418 l
2215 2418 m
2215 2429 l
2215 2429 m
2211 2446 l
2211 2446 m
2208 2452 l
2208 2452 m
2204 2456 l
2204 2456 m
2198 2459 l
stroke
newpath
lwidth setlinewidth
stroke
newpath
3.261539 setlinewidth
2854 2459 m
2847 2425 l
2847 2425 m
2854 2432 l
2854 2432 m
2864 2435 l
2864 2435 m
2874 2435 l
2874 2435 m
2885 2432 l
2885 2432 m
2891 2425 l
2891 2425 m
2895 2415 l
2895 2415 m
2895 2408 l
2895 2408 m
2891 2398 l
2891 2398 m
2885 2391 l
2885 2391 m
2874 2388 l
2874 2388 m
2864 2388 l
2864 2388 m
2854 2391 l
2854 2391 m
2851 2395 l
2851 2395 m
2847 2401 l
2847 2401 m
2847 2405 l
2847 2405 m
2851 2408 l
2851 2408 m
2854 2405 l
2854 2405 m
2851 2401 l
2874 2435 m
2881 2432 l
2881 2432 m
2888 2425 l
2888 2425 m
2891 2415 l
2891 2415 m
2891 2408 l
2891 2408 m
2888 2398 l
2888 2398 m
2881 2391 l
2881 2391 m
2874 2388 l
2854 2459 m
2888 2459 l
2854 2456 m
2871 2456 l
2871 2456 m
2888 2459 l
2936 2459 m
2925 2456 l
2925 2456 m
2919 2446 l
2919 2446 m
2915 2429 l
2915 2429 m
2915 2418 l
2915 2418 m
2919 2401 l
2919 2401 m
2925 2391 l
2925 2391 m
2936 2388 l
2936 2388 m
2942 2388 l
2942 2388 m
2953 2391 l
2953 2391 m
2959 2401 l
2959 2401 m
2963 2418 l
2963 2418 m
2963 2429 l
2963 2429 m
2959 2446 l
2959 2446 m
2953 2456 l
2953 2456 m
2942 2459 l
2942 2459 m
2936 2459 l
2936 2459 m
2929 2456 l
2929 2456 m
2925 2452 l
2925 2452 m
2922 2446 l
2922 2446 m
2919 2429 l
2919 2429 m
2919 2418 l
2919 2418 m
2922 2401 l
2922 2401 m
2925 2395 l
2925 2395 m
2929 2391 l
2929 2391 m
2936 2388 l
2942 2388 m
2949 2391 l
2949 2391 m
2953 2395 l
2953 2395 m
2956 2401 l
2956 2401 m
2959 2418 l
2959 2418 m
2959 2429 l
2959 2429 m
2956 2446 l
2956 2446 m
2953 2452 l
2953 2452 m
2949 2456 l
2949 2456 m
2942 2459 l
stroke
newpath
lwidth setlinewidth
stroke
newpath
3.261539 setlinewidth
3534 2446 m
3541 2449 l
3541 2449 m
3551 2459 l
3551 2459 m
3551 2388 l
3548 2456 m
3548 2388 l
3534 2388 m
3565 2388 l
3612 2459 m
3602 2456 l
3602 2456 m
3595 2446 l
3595 2446 m
3592 2429 l
3592 2429 m
3592 2418 l
3592 2418 m
3595 2401 l
3595 2401 m
3602 2391 l
3602 2391 m
3612 2388 l
3612 2388 m
3619 2388 l
3619 2388 m
3629 2391 l
3629 2391 m
3636 2401 l
3636 2401 m
3640 2418 l
3640 2418 m
3640 2429 l
3640 2429 m
3636 2446 l
3636 2446 m
3629 2456 l
3629 2456 m
3619 2459 l
3619 2459 m
3612 2459 l
3612 2459 m
3606 2456 l
3606 2456 m
3602 2452 l
3602 2452 m
3599 2446 l
3599 2446 m
3595 2429 l
3595 2429 m
3595 2418 l
3595 2418 m
3599 2401 l
3599 2401 m
3602 2395 l
3602 2395 m
3606 2391 l
3606 2391 m
3612 2388 l
3619 2388 m
3626 2391 l
3626 2391 m
3629 2395 l
3629 2395 m
3633 2401 l
3633 2401 m
3636 2418 l
3636 2418 m
3636 2429 l
3636 2429 m
3633 2446 l
3633 2446 m
3629 2452 l
3629 2452 m
3626 2456 l
3626 2456 m
3619 2459 l
3680 2459 m
3670 2456 l
3670 2456 m
3663 2446 l
3663 2446 m
3660 2429 l
3660 2429 m
3660 2418 l
3660 2418 m
3663 2401 l
3663 2401 m
3670 2391 l
3670 2391 m
3680 2388 l
3680 2388 m
3687 2388 l
3687 2388 m
3697 2391 l
3697 2391 m
3704 2401 l
3704 2401 m
3707 2418 l
3707 2418 m
3707 2429 l
3707 2429 m
3704 2446 l
3704 2446 m
3697 2456 l
3697 2456 m
3687 2459 l
3687 2459 m
3680 2459 l
3680 2459 m
3673 2456 l
3673 2456 m
3670 2452 l
3670 2452 m
3667 2446 l
3667 2446 m
3663 2429 l
3663 2429 m
3663 2418 l
3663 2418 m
3667 2401 l
3667 2401 m
3670 2395 l
3670 2395 m
3673 2391 l
3673 2391 m
3680 2388 l
3687 2388 m
3694 2391 l
3694 2391 m
3697 2395 l
3697 2395 m
3701 2401 l
3701 2401 m
3704 2418 l
3704 2418 m
3704 2429 l
3704 2429 m
3701 2446 l
3701 2446 m
3697 2452 l
3697 2452 m
3694 2456 l
3694 2456 m
3687 2459 l
stroke
newpath
lwidth setlinewidth
stroke
newpath
3.261539 setlinewidth
4248 2446 m
4254 2449 l
4254 2449 m
4265 2459 l
4265 2459 m
4265 2388 l
4261 2456 m
4261 2388 l
4248 2388 m
4278 2388 l
4312 2459 m
4305 2425 l
4305 2425 m
4312 2432 l
4312 2432 m
4322 2435 l
4322 2435 m
4333 2435 l
4333 2435 m
4343 2432 l
4343 2432 m
4350 2425 l
4350 2425 m
4353 2415 l
4353 2415 m
4353 2408 l
4353 2408 m
4350 2398 l
4350 2398 m
4343 2391 l
4343 2391 m
4333 2388 l
4333 2388 m
4322 2388 l
4322 2388 m
4312 2391 l
4312 2391 m
4309 2395 l
4309 2395 m
4305 2401 l
4305 2401 m
4305 2405 l
4305 2405 m
4309 2408 l
4309 2408 m
4312 2405 l
4312 2405 m
4309 2401 l
4333 2435 m
4339 2432 l
4339 2432 m
4346 2425 l
4346 2425 m
4350 2415 l
4350 2415 m
4350 2408 l
4350 2408 m
4346 2398 l
4346 2398 m
4339 2391 l
4339 2391 m
4333 2388 l
4312 2459 m
4346 2459 l
4312 2456 m
4329 2456 l
4329 2456 m
4346 2459 l
4394 2459 m
4384 2456 l
4384 2456 m
4377 2446 l
4377 2446 m
4373 2429 l
4373 2429 m
4373 2418 l
4373 2418 m
4377 2401 l
4377 2401 m
4384 2391 l
4384 2391 m
4394 2388 l
4394 2388 m
4401 2388 l
4401 2388 m
4411 2391 l
4411 2391 m
4418 2401 l
4418 2401 m
4421 2418 l
4421 2418 m
4421 2429 l
4421 2429 m
4418 2446 l
4418 2446 m
4411 2456 l
4411 2456 m
4401 2459 l
4401 2459 m
4394 2459 l
4394 2459 m
4387 2456 l
4387 2456 m
4384 2452 l
4384 2452 m
4380 2446 l
4380 2446 m
4377 2429 l
4377 2429 m
4377 2418 l
4377 2418 m
4380 2401 l
4380 2401 m
4384 2395 l
4384 2395 m
4387 2391 l
4387 2391 m
4394 2388 l
4401 2388 m
4407 2391 l
4407 2391 m
4411 2395 l
4411 2395 m
4414 2401 l
4414 2401 m
4418 2418 l
4418 2418 m
4418 2429 l
4418 2429 m
4414 2446 l
4414 2446 m
4411 2452 l
4411 2452 m
4407 2456 l
4407 2456 m
4401 2459 l
stroke
newpath
lwidth setlinewidth
1202 5340 m
1202 5380 l
1345 5340 m
1345 5380 l
1488 5258 m
1488 5380 l
1630 5340 m
1630 5380 l
1773 5340 m
1773 5380 l
1916 5340 m
1916 5380 l
2058 5340 m
2058 5380 l
2201 5258 m
2201 5380 l
2344 5340 m
2344 5380 l
2486 5340 m
2486 5380 l
2629 5340 m
2629 5380 l
2772 5340 m
2772 5380 l
2915 5258 m
2915 5380 l
3057 5340 m
3057 5380 l
3200 5340 m
3200 5380 l
3343 5340 m
3343 5380 l
3485 5340 m
3485 5380 l
3628 5258 m
3628 5380 l
3771 5340 m
3771 5380 l
3913 5340 m
3913 5380 l
4056 5340 m
4056 5380 l
4199 5340 m
4199 5380 l
4341 5258 m
4341 5380 l
4484 5340 m
4484 5380 l
4627 5340 m
4627 5380 l
4769 5340 m
4769 5380 l
1060 2526 m
1182 2526 l
1060 2641 m
1100 2641 l
1060 2755 m
1100 2755 l
1060 2869 m
1100 2869 l
1060 2983 m
1100 2983 l
1060 3097 m
1182 3097 l
1060 3211 m
1100 3211 l
1060 3326 m
1100 3326 l
1060 3440 m
1100 3440 l
1060 3554 m
1100 3554 l
1060 3668 m
1182 3668 l
1060 3782 m
1100 3782 l
stroke
1060 3896 m
1100 3896 l
1060 4010 m
1100 4010 l
1060 4125 m
1100 4125 l
1060 4239 m
1182 4239 l
1060 4353 m
1100 4353 l
1060 4467 m
1100 4467 l
1060 4581 m
1100 4581 l
1060 4695 m
1100 4695 l
1060 4810 m
1182 4810 l
1060 4924 m
1100 4924 l
1060 5038 m
1100 5038 l
1060 5152 m
1100 5152 l
1060 5266 m
1100 5266 l
1060 5380 m
1182 5380 l
stroke
newpath
3.261539 setlinewidth
938 2557 m
928 2554 l
928 2554 m
921 2543 l
921 2543 m
917 2526 l
917 2526 m
917 2516 l
917 2516 m
921 2499 l
921 2499 m
928 2489 l
928 2489 m
938 2486 l
938 2486 m
945 2486 l
945 2486 m
955 2489 l
955 2489 m
962 2499 l
962 2499 m
965 2516 l
965 2516 m
965 2526 l
965 2526 m
962 2543 l
962 2543 m
955 2554 l
955 2554 m
945 2557 l
945 2557 m
938 2557 l
938 2557 m
931 2554 l
931 2554 m
928 2550 l
928 2550 m
924 2543 l
924 2543 m
921 2526 l
921 2526 m
921 2516 l
921 2516 m
924 2499 l
924 2499 m
928 2492 l
928 2492 m
931 2489 l
931 2489 m
938 2486 l
945 2486 m
951 2489 l
951 2489 m
955 2492 l
955 2492 m
958 2499 l
958 2499 m
962 2516 l
962 2516 m
962 2526 l
962 2526 m
958 2543 l
958 2543 m
955 2550 l
955 2550 m
951 2554 l
951 2554 m
945 2557 l
stroke
newpath
lwidth setlinewidth
stroke
newpath
3.261539 setlinewidth
867 3114 m
870 3111 l
870 3111 m
867 3107 l
867 3107 m
863 3111 l
863 3111 m
863 3114 l
863 3114 m
867 3121 l
867 3121 m
870 3124 l
870 3124 m
880 3128 l
880 3128 m
894 3128 l
894 3128 m
904 3124 l
904 3124 m
907 3121 l
907 3121 m
911 3114 l
911 3114 m
911 3107 l
911 3107 m
907 3101 l
907 3101 m
897 3094 l
897 3094 m
880 3087 l
880 3087 m
873 3084 l
873 3084 m
867 3077 l
867 3077 m
863 3067 l
863 3067 m
863 3056 l
894 3128 m
901 3124 l
901 3124 m
904 3121 l
904 3121 m
907 3114 l
907 3114 m
907 3107 l
907 3107 m
904 3101 l
904 3101 m
894 3094 l
894 3094 m
880 3087 l
863 3063 m
867 3067 l
867 3067 m
873 3067 l
873 3067 m
890 3060 l
890 3060 m
901 3060 l
901 3060 m
907 3063 l
907 3063 m
911 3067 l
873 3067 m
890 3056 l
890 3056 m
904 3056 l
904 3056 m
907 3060 l
907 3060 m
911 3067 l
911 3067 m
911 3073 l
951 3128 m
941 3124 l
941 3124 m
934 3114 l
934 3114 m
931 3097 l
931 3097 m
931 3087 l
931 3087 m
934 3070 l
934 3070 m
941 3060 l
941 3060 m
951 3056 l
951 3056 m
958 3056 l
958 3056 m
968 3060 l
968 3060 m
975 3070 l
975 3070 m
979 3087 l
979 3087 m
979 3097 l
979 3097 m
975 3114 l
975 3114 m
968 3124 l
968 3124 m
958 3128 l
958 3128 m
951 3128 l
951 3128 m
945 3124 l
945 3124 m
941 3121 l
941 3121 m
938 3114 l
938 3114 m
934 3097 l
934 3097 m
934 3087 l
934 3087 m
938 3070 l
938 3070 m
941 3063 l
941 3063 m
945 3060 l
945 3060 m
951 3056 l
958 3056 m
965 3060 l
965 3060 m
968 3063 l
968 3063 m
972 3070 l
972 3070 m
975 3087 l
975 3087 m
975 3097 l
975 3097 m
972 3114 l
972 3114 m
968 3121 l
968 3121 m
965 3124 l
965 3124 m
958 3128 l
stroke
newpath
lwidth setlinewidth
stroke
newpath
3.261539 setlinewidth
894 3692 m
894 3627 l
897 3699 m
897 3627 l
897 3699 m
860 3648 l
860 3648 m
914 3648 l
884 3627 m
907 3627 l
951 3699 m
941 3695 l
941 3695 m
934 3685 l
934 3685 m
931 3668 l
931 3668 m
931 3658 l
931 3658 m
934 3641 l
934 3641 m
941 3631 l
941 3631 m
951 3627 l
951 3627 m
958 3627 l
958 3627 m
968 3631 l
968 3631 m
975 3641 l
975 3641 m
979 3658 l
979 3658 m
979 3668 l
979 3668 m
975 3685 l
975 3685 m
968 3695 l
968 3695 m
958 3699 l
958 3699 m
951 3699 l
951 3699 m
945 3695 l
945 3695 m
941 3692 l
941 3692 m
938 3685 l
938 3685 m
934 3668 l
934 3668 m
934 3658 l
934 3658 m
938 3641 l
938 3641 m
941 3634 l
941 3634 m
945 3631 l
945 3631 m
951 3627 l
958 3627 m
965 3631 l
965 3631 m
968 3634 l
968 3634 m
972 3641 l
972 3641 m
975 3658 l
975 3658 m
975 3668 l
975 3668 m
972 3685 l
972 3685 m
968 3692 l
968 3692 m
965 3695 l
965 3695 m
958 3699 l
stroke
newpath
lwidth setlinewidth
stroke
newpath
3.261539 setlinewidth
904 4259 m
901 4256 l
901 4256 m
904 4252 l
904 4252 m
907 4256 l
907 4256 m
907 4259 l
907 4259 m
904 4266 l
904 4266 m
897 4269 l
897 4269 m
887 4269 l
887 4269 m
877 4266 l
877 4266 m
870 4259 l
870 4259 m
867 4252 l
867 4252 m
863 4239 l
863 4239 m
863 4218 l
863 4218 m
867 4208 l
867 4208 m
873 4201 l
873 4201 m
884 4198 l
884 4198 m
890 4198 l
890 4198 m
901 4201 l
901 4201 m
907 4208 l
907 4208 m
911 4218 l
911 4218 m
911 4222 l
911 4222 m
907 4232 l
907 4232 m
901 4239 l
901 4239 m
890 4242 l
890 4242 m
887 4242 l
887 4242 m
877 4239 l
877 4239 m
870 4232 l
870 4232 m
867 4222 l
887 4269 m
880 4266 l
880 4266 m
873 4259 l
873 4259 m
870 4252 l
870 4252 m
867 4239 l
867 4239 m
867 4218 l
867 4218 m
870 4208 l
870 4208 m
877 4201 l
877 4201 m
884 4198 l
890 4198 m
897 4201 l
897 4201 m
904 4208 l
904 4208 m
907 4218 l
907 4218 m
907 4222 l
907 4222 m
904 4232 l
904 4232 m
897 4239 l
897 4239 m
890 4242 l
951 4269 m
941 4266 l
941 4266 m
934 4256 l
934 4256 m
931 4239 l
931 4239 m
931 4229 l
931 4229 m
934 4212 l
934 4212 m
941 4201 l
941 4201 m
951 4198 l
951 4198 m
958 4198 l
958 4198 m
968 4201 l
968 4201 m
975 4212 l
975 4212 m
979 4229 l
979 4229 m
979 4239 l
979 4239 m
975 4256 l
975 4256 m
968 4266 l
968 4266 m
958 4269 l
958 4269 m
951 4269 l
951 4269 m
945 4266 l
945 4266 m
941 4263 l
941 4263 m
938 4256 l
938 4256 m
934 4239 l
934 4239 m
934 4229 l
934 4229 m
938 4212 l
938 4212 m
941 4205 l
941 4205 m
945 4201 l
945 4201 m
951 4198 l
958 4198 m
965 4201 l
965 4201 m
968 4205 l
968 4205 m
972 4212 l
972 4212 m
975 4229 l
975 4229 m
975 4239 l
975 4239 m
972 4256 l
972 4256 m
968 4263 l
968 4263 m
965 4266 l
965 4266 m
958 4269 l
stroke
newpath
lwidth setlinewidth
stroke
newpath
3.261539 setlinewidth
880 4840 m
870 4837 l
870 4837 m
867 4830 l
867 4830 m
867 4820 l
867 4820 m
870 4813 l
870 4813 m
880 4810 l
880 4810 m
894 4810 l
894 4810 m
904 4813 l
904 4813 m
907 4820 l
907 4820 m
907 4830 l
907 4830 m
904 4837 l
904 4837 m
894 4840 l
894 4840 m
880 4840 l
880 4840 m
873 4837 l
873 4837 m
870 4830 l
870 4830 m
870 4820 l
870 4820 m
873 4813 l
873 4813 m
880 4810 l
894 4810 m
901 4813 l
901 4813 m
904 4820 l
904 4820 m
904 4830 l
904 4830 m
901 4837 l
901 4837 m
894 4840 l
880 4810 m
870 4806 l
870 4806 m
867 4803 l
867 4803 m
863 4796 l
863 4796 m
863 4782 l
863 4782 m
867 4776 l
867 4776 m
870 4772 l
870 4772 m
880 4769 l
880 4769 m
894 4769 l
894 4769 m
904 4772 l
904 4772 m
907 4776 l
907 4776 m
911 4782 l
911 4782 m
911 4796 l
911 4796 m
907 4803 l
907 4803 m
904 4806 l
904 4806 m
894 4810 l
880 4810 m
873 4806 l
873 4806 m
870 4803 l
870 4803 m
867 4796 l
867 4796 m
867 4782 l
867 4782 m
870 4776 l
870 4776 m
873 4772 l
873 4772 m
880 4769 l
894 4769 m
901 4772 l
901 4772 m
904 4776 l
904 4776 m
907 4782 l
907 4782 m
907 4796 l
907 4796 m
904 4803 l
904 4803 m
901 4806 l
901 4806 m
894 4810 l
951 4840 m
941 4837 l
941 4837 m
934 4826 l
934 4826 m
931 4810 l
931 4810 m
931 4799 l
931 4799 m
934 4782 l
934 4782 m
941 4772 l
941 4772 m
951 4769 l
951 4769 m
958 4769 l
958 4769 m
968 4772 l
968 4772 m
975 4782 l
975 4782 m
979 4799 l
979 4799 m
979 4810 l
979 4810 m
975 4826 l
975 4826 m
968 4837 l
968 4837 m
958 4840 l
958 4840 m
951 4840 l
951 4840 m
945 4837 l
stroke
945 4837 m
941 4833 l
941 4833 m
938 4826 l
938 4826 m
934 4810 l
934 4810 m
934 4799 l
934 4799 m
938 4782 l
938 4782 m
941 4776 l
941 4776 m
945 4772 l
945 4772 m
951 4769 l
958 4769 m
965 4772 l
965 4772 m
968 4776 l
968 4776 m
972 4782 l
972 4782 m
975 4799 l
975 4799 m
975 4810 l
975 4810 m
972 4826 l
972 4826 m
968 4833 l
968 4833 m
965 4837 l
965 4837 m
958 4840 l
stroke
newpath
lwidth setlinewidth
stroke
newpath
3.261539 setlinewidth
819 5397 m
826 5401 l
826 5401 m
836 5411 l
836 5411 m
836 5340 l
833 5407 m
833 5340 l
819 5340 m
850 5340 l
897 5411 m
887 5407 l
887 5407 m
880 5397 l
880 5397 m
877 5380 l
877 5380 m
877 5370 l
877 5370 m
880 5353 l
880 5353 m
887 5343 l
887 5343 m
897 5340 l
897 5340 m
904 5340 l
904 5340 m
914 5343 l
914 5343 m
921 5353 l
921 5353 m
924 5370 l
924 5370 m
924 5380 l
924 5380 m
921 5397 l
921 5397 m
914 5407 l
914 5407 m
904 5411 l
904 5411 m
897 5411 l
897 5411 m
890 5407 l
890 5407 m
887 5404 l
887 5404 m
884 5397 l
884 5397 m
880 5380 l
880 5380 m
880 5370 l
880 5370 m
884 5353 l
884 5353 m
887 5346 l
887 5346 m
890 5343 l
890 5343 m
897 5340 l
904 5340 m
911 5343 l
911 5343 m
914 5346 l
914 5346 m
917 5353 l
917 5353 m
921 5370 l
921 5370 m
921 5380 l
921 5380 m
917 5397 l
917 5397 m
914 5404 l
914 5404 m
911 5407 l
911 5407 m
904 5411 l
965 5411 m
955 5407 l
955 5407 m
948 5397 l
948 5397 m
945 5380 l
945 5380 m
945 5370 l
945 5370 m
948 5353 l
948 5353 m
955 5343 l
955 5343 m
965 5340 l
965 5340 m
972 5340 l
972 5340 m
982 5343 l
982 5343 m
989 5353 l
989 5353 m
992 5370 l
992 5370 m
992 5380 l
992 5380 m
989 5397 l
989 5397 m
982 5407 l
982 5407 m
972 5411 l
972 5411 m
965 5411 l
965 5411 m
958 5407 l
958 5407 m
955 5404 l
955 5404 m
951 5397 l
951 5397 m
948 5380 l
948 5380 m
948 5370 l
948 5370 m
951 5353 l
951 5353 m
955 5346 l
955 5346 m
958 5343 l
958 5343 m
965 5340 l
972 5340 m
979 5343 l
979 5343 m
982 5346 l
982 5346 m
985 5353 l
985 5353 m
989 5370 l
989 5370 m
989 5380 l
989 5380 m
985 5397 l
985 5397 m
982 5404 l
982 5404 m
979 5407 l
979 5407 m
972 5411 l
stroke
newpath
lwidth setlinewidth
4647 2526 m
4770 2526 l
4729 2641 m
4770 2641 l
4729 2755 m
4770 2755 l
4729 2869 m
4770 2869 l
4729 2983 m
4770 2983 l
4647 3097 m
4770 3097 l
4729 3211 m
4770 3211 l
4729 3326 m
4770 3326 l
4729 3440 m
4770 3440 l
4729 3554 m
4770 3554 l
4647 3668 m
4770 3668 l
4729 3782 m
4770 3782 l
4729 3896 m
4770 3896 l
4729 4010 m
4770 4010 l
4729 4125 m
4770 4125 l
4647 4239 m
4770 4239 l
4729 4353 m
4770 4353 l
4729 4467 m
4770 4467 l
4729 4581 m
4770 4581 l
4729 4695 m
4770 4695 l
4647 4810 m
4770 4810 l
4729 4924 m
4770 4924 l
4729 5038 m
4770 5038 l
4729 5152 m
4770 5152 l
4729 5266 m
4770 5266 l
4647 5380 m
4770 5380 l
4484 3294 m
4484 3306 l
4484 3306 m
4484 3294 l
4484 3294 m
4484 3311 l
4484 3311 m
4485 3312 l
4484 3311 m
4484 3317 l
4484 3317 m
4199 3337 l
4199 3337 m
4200 3338 l
4199 3337 m
4199 3343 l
4199 3343 m
3913 3328 l
3913 3328 m
3914 3329 l
3913 3328 m
3913 3334 l
3913 3334 m
3771 3343 l
3771 3343 m
3771 3345 l
3771 3345 m
3772 3346 l
3771 3345 m
3628 3334 l
3628 3334 m
3628 3337 l
3628 3337 m
3628 3340 l
3628 3340 m
3343 3343 l
3343 3343 m
3343 3348 l
3343 3348 m
3344 3349 l
3343 3348 m
3057 3360 l
3057 3360 m
3057 3363 l
3057 3363 m
3057 3357 l
3057 3357 m
3057 3360 l
3057 3360 m
3057 3365 l
3057 3365 m
3057 3371 l
3057 3371 m
2772 3383 l
2772 3383 m
2772 3388 l
2772 3388 m
2772 3394 l
2772 3394 m
2486 3460 l
2486 3460 m
2487 3461 l
2486 3460 m
2486 3465 l
2486 3465 m
2201 3574 l
2201 3574 m
2201 3577 l
2201 3577 m
2202 3578 l
2201 3577 m
2201 3579 l
2201 3579 m
2201 3588 l
2201 3588 m
2201 3574 l
2201 3574 m
1916 3754 l
1916 3754 m
1916 3771 l
1916 3771 m
1916 3768 l
1916 3768 m
1630 4033 l
1630 4033 m
1630 4028 l
1630 4028 m
1630 4033 l
1630 4033 m
1345 4521 l
1345 4521 m
1345 4498 l
1345 4498 m
1345 4518 l
stroke
grestore
showpage
%%PageTrailer
%%Trailer
%%Pages: 1
%%EOF
