%!PS-Adobe-2.0 EPSF-2.0
%%Title: spacers.fig
%%Creator: fig2dev Version 3.1 Patchlevel 1
%%CreationDate: Mon Aug  9 12:05:36 1999
%%For: morgan@vpihe1.phys.vt.edu (Norman Morgan)
%%Orientation: Portrait
%%BoundingBox: 0 0 381 207
%%Pages: 0
%%BeginSetup
%%IncludeFeature: *PageSize Letter
%%EndSetup
%%EndComments
/$F2psDict 200 dict def
$F2psDict begin
$F2psDict /mtrx matrix put
/col-1 {} def
/col0 {0.000 0.000 0.000 srgb} bind def
/col1 {0.000 0.000 1.000 srgb} bind def
/col2 {0.000 1.000 0.000 srgb} bind def
/col3 {0.000 1.000 1.000 srgb} bind def
/col4 {1.000 0.000 0.000 srgb} bind def
/col5 {1.000 0.000 1.000 srgb} bind def
/col6 {1.000 1.000 0.000 srgb} bind def
/col7 {1.000 1.000 1.000 srgb} bind def
/col8 {0.000 0.000 0.560 srgb} bind def
/col9 {0.000 0.000 0.690 srgb} bind def
/col10 {0.000 0.000 0.820 srgb} bind def
/col11 {0.530 0.810 1.000 srgb} bind def
/col12 {0.000 0.560 0.000 srgb} bind def
/col13 {0.000 0.690 0.000 srgb} bind def
/col14 {0.000 0.820 0.000 srgb} bind def
/col15 {0.000 0.560 0.560 srgb} bind def
/col16 {0.000 0.690 0.690 srgb} bind def
/col17 {0.000 0.820 0.820 srgb} bind def
/col18 {0.560 0.000 0.000 srgb} bind def
/col19 {0.690 0.000 0.000 srgb} bind def
/col20 {0.820 0.000 0.000 srgb} bind def
/col21 {0.560 0.000 0.560 srgb} bind def
/col22 {0.690 0.000 0.690 srgb} bind def
/col23 {0.820 0.000 0.820 srgb} bind def
/col24 {0.500 0.190 0.000 srgb} bind def
/col25 {0.630 0.250 0.000 srgb} bind def
/col26 {0.750 0.380 0.000 srgb} bind def
/col27 {1.000 0.500 0.500 srgb} bind def
/col28 {1.000 0.630 0.630 srgb} bind def
/col29 {1.000 0.750 0.750 srgb} bind def
/col30 {1.000 0.880 0.880 srgb} bind def
/col31 {1.000 0.840 0.000 srgb} bind def

end
save
-198.0 422.0 translate
1 -1 scale

/clp {closepath} bind def
/ef {eofill} bind def
/gr {grestore} bind def
/gs {gsave} bind def
/l {lineto} bind def
/m {moveto} bind def
/n {newpath} bind def
/s {stroke} bind def
/slc {setlinecap} bind def
/slj {setlinejoin} bind def
/slw {setlinewidth} bind def
/srgb {setrgbcolor} bind def
/rot {rotate} bind def
/sc {scale} bind def
/tr {translate} bind def
/tnt {dup dup currentrgbcolor
  4 -2 roll dup 1 exch sub 3 -1 roll mul add
  4 -2 roll dup 1 exch sub 3 -1 roll mul add
  4 -2 roll dup 1 exch sub 3 -1 roll mul add srgb}
  bind def
/shd {dup dup currentrgbcolor 4 -2 roll mul 4 -2 roll mul
  4 -2 roll mul srgb} bind def
/$F2psBegin {$F2psDict begin /$F2psEnteredState save def} def
/$F2psEnd {$F2psEnteredState restore end} def
%%EndProlog

$F2psBegin
10 setmiterlimit
 0.06000 0.06000 sc
15.000 slw
% Polyline
n 3525 4500 m 8625 4500 l  gs col-1 s gr 
% Polyline
n 5700 3900 m 5700 4500 l  5475 4275 l  gs col-1 s gr 
% Polyline
n 5700 4500 m 5925 4275 l  gs col-1 s gr 
% Polyline
n 5700 5925 m 5700 5400 l  5475 5625 l  gs col-1 s gr 
% Polyline
n 5700 5400 m 5925 5625 l  gs col-1 s gr 
% Polyline
n 3525 5400 m 8700 5400 l  gs col-1 s gr 
0.000 slw
% Interp Spline
n 3896 5343 m
	3896.00 5343.00 3838.70 5338.82 3821 5343 curveto
	3781.42 5352.34 3725.90 5426.91 3671 5418 curveto
	3601.56 5406.73 3537.94 5329.17 3521 5268 curveto
	3496.30 5178.83 3596.00 5043.52 3596 4968 curveto
	3596.00 4892.48 3496.30 4757.17 3521 4668 curveto
	3537.94 4606.83 3609.83 4534.94 3671 4518 curveto
	3760.16 4493.30 3895.48 4593.00 3971 4593 curveto
	4046.52 4593.00 4181.83 4493.30 4271 4518 curveto
	4332.17 4534.94 4404.06 4606.83 4421 4668 curveto
	4445.70 4757.17 4346.00 4892.48 4346 4968 curveto
	4346.00 5043.52 4445.70 5178.83 4421 5268 curveto
	4404.06 5329.17 4332.17 5401.06 4271 5418 curveto
	4181.83 5442.70 4042.18 5351.76 3971 5343 curveto
	3953.74 5340.87 3896.00 5343.00 3896 5343 curveto
	3896.00 5343.00 3896.00 5343.00 3896 5343 curveto
 clp gs 0.60 setgray ef gr 
/Times-Roman findfont 240.00 scalefont setfont
7800 6975 m
gs 1 -1 sc (Edge Spacer) col-1 show gr
% Interp Spline
n 3900 4575 m
	3900.00 4575.00 3842.70 4579.18 3825 4575 curveto
	3785.42 4565.66 3729.90 4491.09 3675 4500 curveto
	3605.56 4511.27 3541.94 4588.83 3525 4650 curveto
	3500.30 4739.17 3600.00 4874.48 3600 4950 curveto
	3600.00 5025.52 3500.30 5160.83 3525 5250 curveto
	3541.94 5311.17 3613.83 5383.06 3675 5400 curveto
	3764.17 5424.70 3899.48 5325.00 3975 5325 curveto
	4050.52 5325.00 4185.84 5424.70 4275 5400 curveto
	4336.17 5383.06 4408.06 5311.17 4425 5250 curveto
	4449.70 5160.83 4350.00 5025.52 4350 4950 curveto
	4350.00 4874.48 4449.70 4739.17 4425 4650 curveto
	4408.06 4588.83 4336.17 4516.94 4275 4500 curveto
	4185.83 4475.30 4046.18 4566.24 3975 4575 curveto
	3957.74 4577.13 3900.00 4575.00 3900 4575 curveto
	3900.00 4575.00 3900.00 4575.00 3900 4575 curveto
 clp gs 0.60 setgray ef gr 
% Interp Spline
n 8100 4725 m
	8101.28 4704.37 7635.92 4680.83 7500 4650 curveto
	7393.38 4625.82 7193.09 4466.22 7050 4500 curveto
	6986.01 4515.11 6916.94 4588.83 6900 4650 curveto
	6875.30 4739.17 6975.00 4874.48 6975 4950 curveto
	6975.00 5025.52 6875.30 5160.83 6900 5250 curveto
	6916.94 5311.17 6993.90 5379.98 7050 5400 curveto
	7249.32 5471.15 7627.99 5333.58 7800 5325 curveto
	7936.93 5318.17 8263.31 5325.00 8400 5325 curveto
	8468.34 5325.00 8625.26 5294.04 8700 5325 curveto
	8726.43 5335.95 8764.99 5371.95 8775 5400 curveto
	8846.15 5599.32 8628.85 5950.68 8700 6150 curveto
	8720.03 6206.10 8788.83 6283.06 8850 6300 curveto
	8939.17 6324.70 9074.48 6225.00 9150 6225 curveto
	9225.52 6225.00 9360.84 6324.70 9450 6300 curveto
	9511.17 6283.06 9579.97 6206.10 9600 6150 curveto
	9671.15 5950.67 9533.58 5572.01 9525 5400 curveto
	9521.59 5331.54 9533.50 5169.06 9525 5100 curveto
	9516.24 5028.82 9522.22 4866.67 9450 4800 curveto
	9343.45 4701.64 9104.43 4733.64 9000 4725 curveto
	8776.82 4706.53 8025.00 4725.00 8025 4725 curveto
	8025.00 4725.00 8099.84 4727.56 8100 4725 curveto
 clp gs 0.60 setgray ef gr 
% Interp Spline
n 8100 5175 m
	8101.28 5195.63 7635.92 5219.17 7500 5250 curveto
	7393.38 5274.18 7193.09 5433.78 7050 5400 curveto
	6986.01 5384.89 6916.94 5311.17 6900 5250 curveto
	6875.30 5160.83 6975.00 5025.52 6975 4950 curveto
	6975.00 4874.48 6875.30 4739.17 6900 4650 curveto
	6916.94 4588.83 6993.90 4520.02 7050 4500 curveto
	7249.32 4428.85 7627.99 4566.42 7800 4575 curveto
	7936.93 4581.83 8263.31 4575.00 8400 4575 curveto
	8468.34 4575.00 8625.26 4605.96 8700 4575 curveto
	8726.43 4564.05 8764.99 4528.05 8775 4500 curveto
	8846.15 4300.68 8628.85 3949.32 8700 3750 curveto
	8720.03 3693.90 8788.83 3616.94 8850 3600 curveto
	8939.17 3575.30 9074.48 3675.00 9150 3675 curveto
	9225.52 3675.00 9360.84 3575.30 9450 3600 curveto
	9511.17 3616.94 9579.97 3693.90 9600 3750 curveto
	9671.15 3949.33 9533.58 4327.99 9525 4500 curveto
	9521.59 4568.46 9533.50 4730.94 9525 4800 curveto
	9516.24 4871.18 9522.22 5033.33 9450 5100 curveto
	9343.45 5198.36 9104.43 5166.36 9000 5175 curveto
	8776.82 5193.47 8025.00 5175.00 8025 5175 curveto
	8025.00 5175.00 8099.84 5172.44 8100 5175 curveto
 clp gs 0.60 setgray ef gr 
/Times-Roman findfont 300.00 scalefont setfont
4800 5100 m
gs 1 -1 sc (1.90+-0.05mm) col-1 show gr
/Times-Roman findfont 240.00 scalefont setfont
3300 6975 m
gs 1 -1 sc (Internal Spacer) col-1 show gr
$F2psEnd
restore
