%!PS-Adobe-2.0 EPSF-1.2
%%Title: plot.ps (Portrait A 4)
%%Creator: HIGZ Version 1.22/09
%%CreationDate: 99/07/18   12.00
%%For:yamag yamag
%%Pages: 1
%%DocumentFonts: Helvetica Times-Roman
%%BoundingBox: 49 154 522 605
%%BeginPreview: 474 450 1 450
% 00000000000000007fffffffffffffffffffffffffffffffffffffffffffffffffffffffffffffffffffffffffffffffffffffffffffffffffffff00
% 000000000000000040400000004000000020000000200000001000000010000000080000000800000004000000040000000200000002000000010100
% 000000000000000040400000004000000020000000200000001000000010000000080000000800000004000000040000000200000002000000010100
% 000000000000000040400000004000000020000000200000001000000010000000080000000800000004000000040000000200000002000000010100
% 000000000000000040400000004000000020000000200000001000000010000000080000000800000004000000040000000200000002000000010100
% 000000000000000040400000004000000020000000200000001000000010000000080000000800000004000000040000000200000002000000010100
% 000000000000000040400000000000000020000000000000001000000000000000080000000000000004000000000000000200000000000000010100
% 000000000000000040400000000000000020000000000000001000000000000000080000000000000004000000000000000200000000000000010100
% 000000000000000040400000000000000020000000000000001000000000000000080000000000000004000000000000000200000000000000010100
% 000000000000000040400000000000000020000000000000001000000000000000080000000000000004000000000000000200000000000000010100
% 000000000000000040400000000000000020000000000000001000000000000000080000000000000004000000000000000200000000000000010100
% 000000000000000040400000000000000020000000000000001000000000000000080000000000000004000000000000000200000000000000010100
% 000000000000000040000000000000000000000000000000000000000000000000000000000000000000000000000000000000000000000000000100
% 000000000000000040000000000000000000000000000000000000000000000000000000000000000000000000000000000000000000000000000100
% 000000000000000040000000000000000000000000000000000000000000000000000000000000000000000000000000000000000000000000000100
% 000000000000000040000000000000000000000000000000000000000000000000000000000000000000000000000000000000000000000000000100
% 000000000000000040000000000000000000000000000000000000000000000000000000000000000000000000000000000000000000000000000100
% 000000000000000040000000000000000000000000000000000000000000000000000000000000000000000000000000000000000000000000000100
% 000000000000000040000000000000000000000000000000000000000000000000000000000000000000000000000000000000000000000000000100
% 000000000000000040000000000000000000000000000000000000000000000000000000000000000000000000000000000000000000000000000100
% 000000000000000040000000000000000000000000000000000000000000000000000000000000000000000000000000000000000000000000000100
% 000000000000000040000000000000000000000000000000000000000000000000000000000000000000000000000000000000000000000000000100
% 000000000000000040000000000000000000000000000000000000000000000000000000000000000000000000000000000000000000000000000100
% 000000000000000040000000000000000000000000000000000000000000000000000000000000000000000000000000000000000000000000000100
% 000000000000000040000000000000000000000000000000000000000000000000000000000000000000000000000000000000000000000000000100
% 000000000000000040000000000000000000000000000000000000000000000000000000000000000000000000000000000000000000000000000100
% 00000000000000004000000000000000000000000000000000000000000000000b000000000000000000000000000000000000000000000000000100
% 00000000000000007e000000000000000000000000000000000000000000000008000000000000000000000000000000000000000000000000007f00
% 000000000000000040000000000000000000000000000000000000000000000000800000000000000000000000000000000000000000000000000100
% 000000000000000040000000000000000000000000000000000000000000000008800000000000000000000000000000000000000000000000000100
% 000000000000000040000000000000000000000000000000000000000000000008000000000000000000000000000000000000000000000000000100
% 000000000000000040000000000000000000000000000000000000000000000000800000000000000000000000000000000000000000000000000100
% 000000000000000040000000000000000000000000000000000000000000000008b00000000000000000000000000000000000000000000000000100
% 000000000000000040000000000000000000000000000000000000000000000008080000000000000000000000000000000000000000000000000100
% 000000000000000040000000000000000000000000000000000000000000000000080000000000000000000000000000000000000000000000000100
% 000000000000000040000000000000000000000000000000000000000000000008000000000000000000000000000000000000000000000000000100
% 000000000000000040000000000000000000000000000000000000000000000008080000000000000000000000000000000000000000000000000100
% 0000000000000000400000000000000000000000000000000000000000000000000b0000000000000000000000000000000000000000000000000100
% 000000000000000040000000000000000000000000000000000000000000000008008000000000000000000000000000000000000000000000000100
% 000000000000000040000000000000000000000000000000000000000000000008008000000000000000000000000000000000000000000000000100
% 000000000000000040000000000000000000000000000000000000000000000000000000000000000000000000000000000000000000000000000100
% 000000000000000040000000000000000000000000000000000000000000000008008000000000000000000000000000000000000000000000000100
% 000000000000000040000000000000000000000000000000000000000000000008008000000000000000000000000000000000000000000000000100
% 000000000000000040000000000000000000000000000000000000000000000000000000000000000000000000000000000000000000000000000100
% 000000000000000040000000000000000000000000000000000000000000000008008000000000000000000000000000000000000000000000000100
% 00000000000000004000000000000000000000000000000000000000000000000800b000000000000000000000000000000000000000000000000100
% 000000000000000040000000000000000000000000000000000000000000000000000800000000000000000000000000000000000000000000000100
% 000000000000000040000000000000000000000000000000000000000000000008000800000000000000000000000000000000000000000000000100
% 000000000000000040000000000000000000000000000000000000000000000008000000000000000000000000000000000000000000000000000100
% 000000000000000040000000000000000000000000000000000000000000000000000800000000000000000000000000000000000000000000000100
% 000000000000000040000000000000000000000000000000000000000000000008000800000000000000000000000000000000000000000000000100
% 000000000000000040000000000000000000000000000000000000000000000008000000000000000000000000000000000000000000000000000100
% 000000000000000040000000000000000000000000000000000000000000000000000800000000000000000000000000000000000000000000000100
% 000000000000000040000000000000000000000000000000000000000000000008000800000000000000000000000000000000000000000000000100
% 00000000000000007e000000000000000000000000000000000000000000000008000000000000000000000000000000000000000000000000007f00
% 000000000000000040000000000000000000000000000000000000000000000000000800000000000000000000000000000000000000000000000100
% 000000000000000040000000000000000000000000000000000000000000000008000800000000000000000000000000000000000000000000000100
% 000000000000000040000000000000000000000000000000000000000000000008000000000000000000000000000000000000000000000000000100
% 0000000000000000400000000000000000000000000000000000000000000000000f8800000000000000000000000000000000000000000000000100
% 000000000000000040000000000000000000000000000000000000000000000008088800000000000000000000000000000000000000000000000100
% 000000000000000040000000000000000000000000000000000000000000000008088000000000000000000000000000000000000000000000000100
% 000000000000000040000000000000000000000000000000000000000000000000088800000000000000000000000000000000000000000000000100
% 000000000000000040000000000000000000000000000000000000000000000008088800000000000000000000000000000000000000000000000100
% 000000000000000040000000000000000000000000000000000000000000000008088000000000000000000000000000000000000000000000000100
% 000000000000000040000000000000000000000000000000000000000000000000088800000000000000000000000000000000000000000000000100
% 000000000000000040000000000000000000000000000000000000000000000008f88800000000000000000000000000000000000000000000000100
% 000000000000000040000000000000000000000000000000000000000000000008808000000000000000000000000000000000000000000000000100
% 000000000000000040000000000000000000000000000000000000000000000000808800000000000000000000000000000000000000000000000100
% 000000000000000040000000000000000000000000000000000000000000000008808800000000000000000000000000000000000000000000000100
% 000000000000000040000000000000000000000000000000000000000000000008808000000000000000000000000000000000000000000000000100
% 0000000000000000400000000000000000000000000000000000000000000000b0808800000000000000000000000000000000000000000000000100
% 000000000000000040000000000000000000000000000000000000000000000080808800000000000000000000000000000000000000000000000100
% 000000000000000040000000000000000000000000000000000000000000000000808000000000000000000000000000000000000000000000000100
% 000000000000000040000000000000000000000000000000000000000000000080808800000000000000000000000000000000000000000000000100
% 0000000000000000400000000000000000000000000000000000000000000000808088000000000000000000fc000100003806000c00000400000100
% 000000000040000040000000000000000000000000000000000000000000000000808f800000000000000001c618030000380e000cc0000c00000100
% 00000000018783c040000000000000000000000000000000000000000000000080808880000000000000000383180000003c0e000cc0001c00000100
% 00000000020cc66040000000000000000000000000000000000000000000000080808880000000000000000303980000003c0e000cc0007c00000100
% 00000000060c66304000000000000000000000000000000000000000000000000f8088800000000000000003013edb3780341e30cdf0007c00000100
% 000000000c186c30400000000000000000000000000000000000000000000000880088800000000000000003c018fb38c0361630ccc0000c00000100
% 000000000f986c30400000000000000000000000000000000000000000000000880088800000000000000001f818e338e0361630ccc0000c00000100
% 0000000008d86c307ff800000000000000000000000000000000000000000000080088800003fffffffffe007f18c33060323630ccc0000c000fff00
% 0000000008586c304000000000000000000000000000000000000000000000008800888000020000000002000f98c33060332630ccc0000c00000100
% 0000000008586c304000000000000000000000000000000000000000000000008800888000020000000002000198c33060332630ccc0000c00000100
% 000000000c4c66304000000000000000000000000000000000000000000000000800888000020000000002030198c33060316630ccc0000c00000100
% 000000000cccc6604000000000000000000000000000000000000000000000008800f88000020000000002030198c338e031e630ccc0000c00000100
% 00000000078783c0400000000000000000000000000000000000000000000000880008800002000000000201ff18c338c031c639ccc3000c00000100
% 0000000000000000400000000000000000000000000000000000000000000000080000800002000000000200fe1ec33f8030c61eccf3000c00000100
% 0000000000000000400000000000000000000000000000000000000000000000f8000880000200000000020000000030000000000000000000000100
% 000000000000000040000000000000000000000000000000000000000000000080000880000000000000000000000030000000000000000000000100
% 000000000000000040000000000000000000000000000000000000000000000080000080000000000000000000000030000000000000000000000100
% 000000000000000040000000000000000000000000000000000000000000000080000880000000000000000000000030000000000000000000000100
% 000000000000000040000000000000000000000000000000000000000000000080000880000000000000000000000000000000000000000000000100
% 000000000000000040000000000000000000000000000000000000000000000080000080000000000000000000000000000000000000000000000100
% 000000000000000040000000000000000000000000000000000000000000000080000880000000000000000000000000000000000000000000000100
% 000000000000000040000000000000000000000000000000000000000000000080000880000000000000000000000000000000000000000000000100
% 000000000000000040000000000000000000000000000000000000000000000080000080000000000000000000000000000000000000000000000100
% 0000000000000000400000000000000000000000000000000000000000000000800008f8000000000000000000000000000000000000000000000100
% 000000000000000040000000000000000000000000000000000000000000000080000808000000000000000000000000000000000000000000000100
% 000000000000000040000000000000000000000000000000000000000000000080000008000000000000000000000000000000000000000000000100
% 000000000000000040000000000000000000000000000000000000000000000080000808000000000000000000000000000000000000000000000100
% 0000000000000000400000000000000000000000000000000000000000000000800008080000000000000000fc000100003806000c00000000000100
% 0000000000000000400000000000000000000000000000000000000000000000800000080000000000000001c618030000380e000cc0003e00000100
% 000000000000000040000000000000000000000000000000000000000000000080000808000000000000000383180000003c0e000cc0006300000100
% 000000000000000040000000000000000000000000000000000000000000000080000808000000000000000303980000003c0e000cc000c180000100
% 0000000000000000400000000000000000000000000000000000000000000000800000080000000000000003013edb3780341e30cdf000c180000100
% 0000000000000000400000000000000000000000000000000000000000000000800008080000000000000003c018fb38c0361630ccc0000180000100
% 0000000000000000400000000000000000000000000000000000000000000000800008080000000000000001f818e338e0361630ccc0000300000100
% 00000000000000007e0000000000000000000000000000000000000000000000800000080002db6db6db6c007f18c33060323630ccc0000600007f00
% 00000000000000004000000000000000000000000000000000000000000000008000080800020000000002000f98c33060332630ccc0001c00000100
% 000000000000000040000000000000000000000000000000000000000000000f8000080800000000000002000198c33060332630ccc0007000000100
% 00000000000000004000000000000000000000000000000000000000000000080000000800020000000000030198c33060316630ccc0006000000100
% 00000000000000004000000000000000000000000000000000000000000000088000080800020000000002030198c338e031e630ccc000c000000100
% 0000000000000000400000000000000000000000000000000000000000000008800008080000000000000201ff18c338c031c639ccc300ff80000100
% 0000000000000000400000000000000000000000000000000000000000000008000000080002000000000000fe1ec33f8030c61eccf301ff80000100
% 000000000000000040000000000000000000000000000000000000000000000880000808000200000000000000000030000000000000000000000100
% 000000000000000040000000000000000000000000000000000000000000000880000808000000000000000000000030000000000000000000000100
% 000000000000000040000000000000000000000000000000000000000000000800000008000000000000000000000030000000000000000000000100
% 000000000000000040000000000000000000000000000000000000000000000880000808000000000000000000000030000000000000000000000100
% 000000000000000040000000000000000000000000000000000000000000000880000808000000000000000000000000000000000000000000000100
% 000000000000000040000000000000000000000000000000000000000000000800000008000000000000000000000000000000000000000000000100
% 000000000000000040000000000000000000000000000000000000000000000880000808000000000000000000000000000000000000000000000100
% 000000000000000040000000000000000000000000000000000000000000000880000808000000000000000000000000000000000000000000000100
% 000000000000000040000000000000000000000000000000000000000000000800000008000000000000000000000000000000000000000000000100
% 00000000000000004000000000000000000000000000000000000000000000f880000d88000000000000000000000000000000000000000000000100
% 000000000000000040000000000000000000000000000000000000000000008080000008000000000000000000000000000000000000000000000100
% 000000000000000040000000000000000000000000000000000000000000008000000088000000000000000000000000000000000000000000000100
% 000000000000000040000000000000000000000000000000000000000000008080000088000000000000000000000000000000000000000000000100
% 000000000000000040000000000000000000000000000000000000000000008080000008000000000000000000000000000000000000000000000100
% 0000000000000000400000000000000000000000000000000000000000000080000000880000000000000000fc000100003806000c00000000000100
% 0000000000000000400000000000000000000000000000000000000000000080800000880000000000000001c618030000380e000cc0003e00000100
% 000000000000000040000000000000000000000000000000000000000000008080000008000000000000000383180000003c0e000cc000e700000100
% 000000000000000040000000000000000000000000000000000000000000008000000088000000000000000303980000003c0e000cc000c300000100
% 0000000000000000400000000000000000000000000000000000000000000080800000880000000000000003013edb3780341e30cdf000c300000100
% 0000000000000000400000000000000000000000000000000000000000000080800000080000000000000003c018fb38c0361630ccc0000300000100
% 00000000000000007e00000000000000000000000000000000000000000000800000008800033c63c678c601f818e338e0361630ccc0000e00007f00
% 00000000000000004000000000000000000000000000000000000000000000808000008800000000000002007f18c33060323630ccc0001e00000100
% 00000000000000004000000000000000000000000000000000000000000000808000000800000000000002000f98c33060332630ccc0000380000100
% 00000000000000004000000000000000000000000000000000000000000000800000008800000000000000000198c33060332630ccc0000180000100
% 00000000000000004000000000000000000000000000000000000000000000808000008800020000000000030198c33060316630ccc0018180000100
% 00000000000000004000000000000000000000000000000000000000000000808000000800020000000000030198c338e031e630ccc000c180000100
% 0000000000000000400000000000000000000000000000000000000000000080000000880002000000000201ff18c338c031c639ccc300c300000100
% 0000000000000000400000000000000000000000000000000000000000000080800000880002000000000200fe1ec33f8030c61eccf3007e00000100
% 000000000000000040000000000000000000000000000000000000000000008080000008000000000000000000000030000000000000000000000100
% 000000000000000040000000000000000000000000000000000000000000008000000088000000000000000000000030000000000000000000000100
% 000000000000000040000000000000000000000000000000000000000000008080000088000000000000000000000030000000000000000000000100
% 000000000000000040000000000000000000000000000000000000000000008080000008000000000000000000000030000000000000000000000100
% 000000000000000040000000000000000000000000000000000000000000008000000088000000000000000000000000000000000000000000000100
% 000000000000000040000000000000000000000000000000000000000000008d80000088000000000000000000000000000000000000000000000100
% 000000000000000040000000000000000000000000000000000000000000008000000008000000000000000000000000000000000000000000000100
% 000000000000000040000000000000000000000000000000000000000000008800000088000000000000000000000000000000000000000000000100
% 000000000000000040000000000000000000000000000000000000000000008800000088000000000000000000000000000000000000000000000100
% 000000000000000040000000000000000000000000000000000000000000008000000008000000000000000000000000000000000000000000000100
% 000000000000000040000000000000000000000000000000000000000000008800000088000000000000000000000000000000000000000000000100
% 000000000000000040000000000000000000000000000000000000000000008800000088000000000000000000000000000000000000000000000100
% 000000000000000040000000000000000000000000000000000000000000008000000008000000000000000000000000000000000000000000000100
% 0000000000000000400000000000000000000000000000000000000000000088000000880000000000000000fc000100003806000c00000000000100
% 0000000000000000400000000000000000000000000000000000000000000088000000880000000000000001c618030000380e000cc0000600000100
% 000000000000000040000000000000000000000000000000000000000000008000000008000000000000000383180000003c0e000cc0000e00000100
% 000000000000000040000000000000000000000000000000000000000000008800000088000000000000000303980000003c0e000cc0001e00000100
% 0000000000000000400000000000000000000000000000000000000000000088000000880000000000000003013edb3780341e30cdf0001600000100
% 0000000000000000400000000000000000000000000000000000000000000080000000080000000000000003c018fb38c0361630ccc0003600000100
% 00000000000000007e000000000000000000000000000000000000000000008800000088000301fe03fe0201f818e338e0361630ccc0006600007f00
% 00000000000000004000000000000000000000000000000000000000000000880000008800020000000002007f18c33060323630ccc0006600000100
% 00000000000000004000000000000000000000000000000000000000000000800000000800020000000002000f98c33060332630ccc000c600000100
% 00000000000000004000000000000000000000000000000000000000000000880000008800020000000002000198c33060332630ccc0018600000100
% 00000000000000004000000000000000000000000000000000000000000000880000008800020000000002030198c33060316630ccc001ff80000100
% 00000000000000004000000000000000000000000000000000000000000000800000000800020000000002030198c338e031e630ccc0000600000100
% 0000000000000000400000000000000000000000000000000000000000000088000000880002000000000201ff18c338c031c639ccc3000600000100
% 0000000000000000400000000000000000000000000000000000000000000088000000880002000000000200fe1ec33f8030c61eccf3000600000100
% 000000000000000040000000000000000000000000000000000000000000008000000008000000000000000000000030000000000000000000000100
% 000000000000000040000000000000000000000000000000000000000000008800000088000000000000000000000030000000000000000000000100
% 000000000000000040000000000000000000000000000000000000000000008800000088000000000000000000000030000000000000000000000100
% 000000000000000040000000000000000000000000000000000000000000008000000008000000000000000000000030000000000000000000000100
% 00000000000000004000000000000000000000000000000000000000000000880000008f800000000000000000000000000000000000000000000100
% 000000000000000040000000000000000000000000000000000000000000008800000080800000000000000000000000000000000000000000000100
% 000000000000000040000000000000000000000000000000000000000000008000000000800000000000000000000000000000000000000000000100
% 000000000000000040000000000000000000000000000000000000000000008800000080800000000000000000000000000000000000000000000100
% 000000000000000040000000000000000000000000000000000000000000008800000080800000000000000000000000000000000000000000000100
% 000000000000000040000000000000000000000000000000000000000000008000000000800000000000000000000000000000000000000000000100
% 08c000000000000040000000000000000000000000000000000000000000008800000080800000000000000000000000000000000000000000000100
% 0da000000000000040000000000000000000000000000000000000000000008800000080800000000000000000000000000000000000000000000100
% 0b2000000000000040000000000000000000000000000000000000000000008000000068800000000000000000000000000000000000000000000100
% 0b2000000000000040000000000000000000000000000000000000000000008800000008800000000000000000000000000000000000000000000100
% 0e600000008783c040000000000000000000000000000000000000000000008800000000800000000000000000000000000000000000000000000100
% 00000000018cc66040000000000000000000000000000000000000000000008000000008800000000000000000000000000000000000000000000100
% 00000000018c663040000000000000000000000000000000000000000000008800000008800000000000000000000000000000000000000000000100
% 0820000001986c3040000000000000000000000000000000000000000000008800000000800000000000000000000000000000000000000000000100
% 0820000005986c3040000000000000000000000000000000000000000000008000000008800000000000000000000000000000000000000000000100
% 1fe0000009986c307ff800000000000000000000000000000000000000000088000000088000000000000000000000000000000000000000000fff00
% 0800000001986c3040000000000000000000000000000000000000000000008800000000800000000000000000000000000000000000000000000100
% 000000001ff86c3040000000000000000000000000000000000000000000008000000008800000000000000000000000000000000000000000000100
% 0fe00000008c663040000000000000000000000000000000000000000000008800000008800000000000000000000000000000000000000000000100
% 08200000008cc66040000000000000000000000000000000000000000000008800000000800000000000000000000000000000000000000000000100
% 08000000008783c040000000000000000000000000000000000000000000008000000008800000000000000000000000000000000000000000000100
% 080000000000000040000000000000000000000000000000000000000000008800000008800000000000000000000000000000000000000000000100
% 1fe000000000000040000000000000000000000000000000000000000000008800000000800000000000000000000000000000000000000000000100
% 082000000000000040000000000000000000000000000000000000000000008000000008800000000000000000000000000000000000000000000100
% 000000000000000040000000000000000000000000000000000000000000008800000008800000000000000000000000000000000000000000000100
% 00000000000000004000000000000000000000000000000000000000000000e800000000800000000000000000000000000000000000000000000100
% 0fe0000000000000400000000000000000000000000000000000000000001f8000000008800000000000000000000000000000000000000000000100
% 084000000000000040000000000000000000000000000000000000000000108000000008800000000000000000000000000000000000000000000100
% 082000000000000040000000000000000000000000000000000000000000100000000000800000000000000000000000000000000000000000000100
% 002000000000000040000000000000000000000000000000000000000000108000000008800000000000000000000000000000000000000000000100
% 006000000000000040000000000000000000000000000000000000000000108000000008800000000000000000000000000000000000000000000100
% 0fc000000000000040000000000000000000000000000000000000000000100000000000800000000000000000000000000000000000000000000100
% 080000000000000040000000000000000000000000000000000000000000108000000008800000000000000000000000000000000000000000000100
% 000000000000000040000000000000000000000000000000000000000000108000000008800000000000000000000000000000000000000000000100
% 078000000000000040000000000000000000000000000000000000000000100000000000800000000000000000000000000000000000000000000100
% 0c4000000000000040000000000000000000000000000000000000000000108000000008800000000000000000000000000000000000000000000100
% 082000000000000040000000000000000000000000000000000000000000108000000008800000000000000000000000000000000000000000000100
% 082000000000000040000000000000000000000000000000000000000000100000000000800000000000000000000000000000000000000000000100
% 082000000000000040000000000000000000000000000000000000000000108000000008800000000000000000000000000000000000000000000100
% 08e000000000000040000000000000000000000000000000000000000000108000000008800000000000000000000000000000000000000000000100
% 07c000000000000040000000000000000000000000000000000000000000100000000000800000000000000000000000000000000000000000000100
% 000000000000000040000000000000000000000000000000000000000000108000000008800000000000000000000000000000000000000000000100
% 40000000000000007e000000000000000000000000000000000000000000108000000008800000000000000000000000000000000000000000007f00
% e04000000000000040000000000000000000000000000000000000000000100000000000800000000000000000000000000000000000000000000100
% c02000000000000040000000000000000000000000000000000000000000108000000008800000000000000000000000000000000000000000000100
% 802000000000000040000000000000000000000000000000000000000000108000000008800000000000000000000000000000000000000000000100
% 802000000000000040000000000000000000000000000000000000000000100000000000800000000000000000000000000000000000000000000100
% 802000000000000040000000000000000000000000000000000000000000108000000008f80000000000000000000000000000000000000000000100
% 802000000000000040000000000000000000000000000000000000000000108000000008080000000000000000000000000000000000000000000100
% c0600000000000004000000000000000000000000000000000000000000010000000000d880000000000000000000000000000000000000000000100
% 61c000000000000040000000000000000000000000000000000000000000108000000000880000000000000000000000000000000000000000000100
% 3f8000000000000040000000000000000000000000000000000000000000108000000000080000000000000000000000000000000000000000000100
% 1f0000000000000040000000000000000000000000000000000000000000100000000000880000000000000000000000000000000000000000000100
% 000000000000000040000000000000000000000000000000000000000000108000000000880000000000000000000000000000000000000000000100
% 000000000000000040000000000000000000000000000000000000000000108000000000080000000000000000000000000000000000000000000100
% 000000000000000040000000000000000000000000000000000000000000100000000000880000000000000000000000000000000000000000000100
% 000000000000000040000000000000000000000000000000000000000000108000000000880000000000000000000000000000000000000000000100
% 000000000000000040000000000000000000000000000000000000000000108000000000080000000000000000000000000000000000000000000100
% 000000000000000040000000000000000000000000000000000000000000100000000000880000000000000000000000000000000000000000000100
% 000000000000000040000000000000000000000000000000000000000000108000000000880000000000000000000000000000000000000000000100
% 000000000000000040000000000000000000000000000000000000000000108000000000080000000000000000000000000000000000000000000100
% 000000000000000040000000000000000000000000000000000000000001f00000000000880000000000000000000000000000000000000000000100
% 000000000000000040000000000000000000000000000000000000000001008000000000880000000000000000000000000000000000000000000100
% 000000000000000040000000000000000000000000000000000000000001008000000000080000000000000000000000000000000000000000000100
% 000000000000000040000000000000000000000000000000000000000001000000000000880000000000000000000000000000000000000000000100
% 000000000000000040000000000000000000000000000000000000000001008000000000880000000000000000000000000000000000000000000100
% 000000000000000040000000000000000000000000000000000000000001008000000000080000000000000000000000000000000000000000000100
% 000000000000000040000000000000000000000000000000000000000001000000000000880000000000000000000000000000000000000000000100
% 0000000000000000400000000000000000000000000000000000000000010d8000000000880000000000000000000000000000000000000000000100
% 000000000000000040000000000000000000000000000000000000000001100000000000080000000000000000000000000000000000000000000100
% 00000000000000007e000000000000000000000000000000000000000001100000000000880000000000000000000000000000000000000000007f00
% 000000000000000040000000000000000000000000000000000000000001000000000000880000000000000000000000000000000000000000000100
% 000000000000000040000000000000000000000000000000000000000001100000000000080000000000000000000000000000000000000000000100
% 000000000000000040000000000000000000000000000000000000000001100000000000880000000000000000000000000000000000000000000100
% 000000000000000040000000000000000000000000000000000000000001000000000000880000000000000000000000000000000000000000000100
% 000000000000000040000000000000000000000000000000000000000001100000000000080000000000000000000000000000000000000000000100
% 000000000000000040000000000000000000000000000000000000000001100000000000880000000000000000000000000000000000000000000100
% 000000000000000040000000000000000000000000000000000000000001000000000000880000000000000000000000000000000000000000000100
% 000000000000000040000000000000000000000000000000000000000001100000000000080000000000000000000000000000000000000000000100
% 000000000000000040000000000000000000000000000000000000000001100000000000880000000000000000000000000000000000000000000100
% 000000000000000040000000000000000000000000000000000000000001000000000000880000000000000000000000000000000000000000000100
% 000000000000000040000000000000000000000000000000000000000001100000000000080000000000000000000000000000000000000000000100
% 000000000000000040000000000000000000000000000000000000000001100000000000880000000000000000000000000000000000000000000100
% 000000000000000040000000000000000000000000000000000000000001000000000000880000000000000000000000000000000000000000000100
% 000000000000000040000000000000000000000000000000000000000001100000000000080000000000000000000000000000000000000000000100
% 000000000000000040000000000000000000000000000000000000000001100000000000880000000000000000000000000000000000000000000100
% 000000000000000040000000000000000000000000000000000000000001000000000000880000000000000000000000000000000000000000000100
% 000000000000000040000000000000000000000000000000000000000001100000000000080000000000000000000000000000000000000000000100
% 000000000000000040000000000000000000000000000000000000000001100000000000880000000000000000000000000000000000000000000100
% 000000000000000040000000000000000000000000000000000000000001000000000000880000000000000000000000000000000000000000000100
% 000000000000000040000000000000000000000000000000000000000001100000000000080000000000000000000000000000000000000000000100
% 000000000000000040000000000000000000000000000000000000000001100000000000880000000000000000000000000000000000000000000100
% 000000000000000040000000000000000000000000000000000000000001000000000000880000000000000000000000000000000000000000000100
% 000000000000000040000000000000000000000000000000000000000001100000000000080000000000000000000000000000000000000000000100
% 000000000000000040000000000000000000000000000000000000000001100000000000880000000000000000000000000000000000000000000100
% 000000000000000040000000000000000000000000000000000000000001000000000000880000000000000000000000000000000000000000000100
% 000000000000000040000000000000000000000000000000000000000001100000000000080000000000000000000000000000000000000000000100
% 00000000000000007e000000000000000000000000000000000000000001100000000000880000000000000000000000000000000000000000007f00
% 000000000000000040000000000000000000000000000000000000000001000000000000880000000000000000000000000000000000000000000100
% 000000000000000040000000000000000000000000000000000000000001100000000000080000000000000000000000000000000000000000000100
% 000000000000000040000000000000000000000000000000000000000001100000000000880000000000000000000000000000000000000000000100
% 000000000000000040000000000000000000000000000000000000000001000000000000e80000000000000000000000000000000000000000000100
% 000000000000000040000000000000000000000000000000000000000001100000000000080000000000000000000000000000000000000000000100
% 000000000000000040000000000000000000000000000000000000000001100000000000080000000000000000000000000000000000000000000100
% 000000000000000040000000000000000000000000000000000000000001000000000000080000000000000000000000000000000000000000000100
% 0000000000000000400000000000000000000000000000000000000000011000000000000f8000000000000000000000000000000000000000000100
% 000000000000000040000000000000000000000000000000000000000001100000000000088000000000000000000000000000000000000000000100
% 000000000000000040000000000000000000000000000000000000000001000000000000008000000000000000000000000000000000000000000100
% 000000000000000040000000000000000000000000000000000000000001100000000000088000000000000000000000000000000000000000000100
% 000000000000000040000000000000000000000000000000000000000001100000000000088000000000000000000000000000000000000000000100
% 000000000000000040000000000000000000000000000000000000000001000000000000008000000000000000000000000000000000000000000100
% 000000000000000040000000000000000000000000000000000000000001100000000000088000000000000000000000000000000000000000000100
% 000000000000000040000000000000000000000000000000000000000001100000000000088000000000000000000000000000000000000000000100
% 000000000000000040000000000000000000000000000000000000000001000000000000008000000000000000000000000000000000000000000100
% 000000000000000040000000000000000000000000000000000000000001b00000000000088000000000000000000000000000000000000000000100
% 000000000000000040000000000000000000000000000000000000000001000000000000088000000000000000000000000000000000000000000100
% 000000000000000040000000000000000000000000000000000000000001000000000000008000000000000000000000000000000000000000000100
% 000000000000000040000000000000000000000000000000000000000001000000000000088000000000000000000000000000000000000000000100
% 000000000000000040000000000000000000000000000000000000000001000000000000088000000000000000000000000000000000000000000100
% 00000000078783c040000000000000000000000000000000000000000001000000000000008000000000000000000000000000000000000000000100
% 0000000008ccc6604000000000000000000000000000000000000000001f000000000000088000000000000000000000000000000000000000000100
% 00000000104c663040000000000000000000000000000000000000000010000000000000088000000000000000000000000000000000000000000100
% 0000000000586c3040000000000000000000000000000000000000000011000000000000008000000000000000000000000000000000000000000100
% 0000000000586c3040000000000000000000000000000000000000000011000000000000088000000000000000000000000000000000000000000100
% 0000000000986c307ff800000000000000000000000000000000000000100000000000000880000000000000000000000000000000000000000fff00
% 0000000001986c3040000000000000000000000000000000000000000011000000000000008000000000000000000000000000000000000000000100
% 0000000003186c3040000000000000000000000000000000000000000011000000000000088000000000000000000000000000000000000000000100
% 00000000060c663040000000000000000000000000000000000000000010000000000000088000000000000000000000000000000000000000000100
% 000000000c2cc66040000000000000000000000000000000000000000011000000000000008000000000000000000000000000000000000000000100
% 000000000fc783c040000000000000000000000000000000000000000011000000000000088000000000000000000000000000000000000000000100
% 000000000000000040000000000000000000000000000000000000000010000000000000088000000000000000000000000000000000000000000100
% 000000000000000040000000000000000000000000000000000000000011000000000000008000000000000000000000000000000000000000000100
% 00000000000000004000000000000000000000000000000000000000001d0000000000000b8000000000000000000000000000000000000000000100
% 000000000000000040000000000000000000000000000000000000000010000000000000008000000000000000000000000000000000000000000100
% 000000000000000040000000000000000000000000000000000000000010000000000000008000000000000000000000000000000000000000000100
% 000000000000000040000000000000000000000000000000000000000010000000000000008000000000000000000000000000000000000000000100
% 000000000000000040000000000000000000000000000000000000000010000000000000008000000000000000000000000000000000000000000100
% 000000000000000040000000000000000000000000000000000000000010000000000000008000000000000000000000000000000000000000000100
% 000000000000000040000000000000000000000000000000000000000010000000000000008000000000000000000000000000000000000000000100
% 000000000000000040000000000000000000000000000000000000000010000000000000008000000000000000000000000000000000000000000100
% 000000000000000040000000000000000000000000000000000000000010000000000000008000000000000000000000000000000000000000000100
% 000000000000000040000000000000000000000000000000000000000010000000000000008000000000000000000000000000000000000000000100
% 000000000000000040000000000000000000000000000000000000000010000000000000008000000000000000000000000000000000000000000100
% 000000000000000040000000000000000000000000000000000000000010000000000000008000000000000000000000000000000000000000000100
% 000000000000000040000000000000000000000000000000000000000010000000000000008000000000000000000000000000000000000000000100
% 000000000000000040000000000000000000000000000000000000000010000000000000008000000000000000000000000000000000000000000100
% 000000000000000040000000000000000000000000000000000000000010000000000000008000000000000000000000000000000000000000000100
% 000000000000000040000000000000000000000000000000000000000010000000000000008000000000000000000000000000000000000000000100
% 000000000000000040000000000000000000000000000000000000000010000000000000008000000000000000000000000000000000000000000100
% 00000000000000004000000000000000000000000000000000000000001000000000000000d800000000000000000000000000000000000000000100
% 000000000000000040000000000000000000000000000000000000000010000000000000008800000000000000000000000000000000000000000100
% 00000000000000007e000000000000000000000000000000000000000010000000000000008800000000000000000000000000000000000000007f00
% 000000000000000040000000000000000000000000000000000000000010000000000000008000000000000000000000000000000000000000000100
% 000000000000000040000000000000000000000000000000000000000010000000000000008800000000000000000000000000000000000000000100
% 000000000000000040000000000000000000000000000000000000000010000000000000008800000000000000000000000000000000000000000100
% 000000000000000040000000000000000000000000000000000000000010000000000000008000000000000000000000000000000000000000000100
% 000000000000000040000000000000000000000000000000000000000010000000000000008800000000000000000000000000000000000000000100
% 000000000000000040000000000000000000000000000000000000000010000000000000008800000000000000000000000000000000000000000100
% 000000000000000040000000000000000000000000000000000000000010000000000000008000000000000000000000000000000000000000000100
% 00000000000000004000000000000000000000000000000000000000001000000000000000f800000000000000000000000000000000000000000100
% 000000000000000040000000000000000000000000000000000000000010000000000000000800000000000000000000000000000000000000000100
% 000000000000000040000000000000000000000000000000000000000010000000000000000800000000000000000000000000000000000000000100
% 000000000000000040000000000000000000000000000000000000000010000000000000000800000000000000000000000000000000000000000100
% 000000000000000040000000000000000000000000000000000000000010000000000000000800000000000000000000000000000000000000000100
% 000000000000000040000000000000000000000000000000000000000010000000000000000800000000000000000000000000000000000000000100
% 000000000000000040000000000000000000000000000000000000000010000000000000000d80000000000000000000000000000000000000000100
% 0000000000000000400000000000000000000000000000000000000001b00000000000f0000800000000000000000000000000000000000000000100
% 000000000000000040000000000000000000000000000000000000000010000000000000000880000000000000000000000000000000000000000100
% 000000000000000040000000000000000000000000000000000000000110000000000000000880000000000000000000000000000000000000000100
% 000000000000000040000000000000000000000000000000000000000110000000000008000800000000000000000000000000000000000000000100
% 000000000000000040000000000000000000000000000000000000000010000007800088000880000000000000000000000000000000000000000100
% 000000000000000040000000000000000000000000000000000000000110000000800080000880000000000000000000000000000000000000000100
% 0000000000000000400000000000000000000000000000000000000001f00000080c8000000800000000000000000000000000000000000000000100
% 000000000000000040000000000000000000000000000000000000000100009c08008f00000880000000000000000000000000000000000000000100
% 000000000000000040000000000000000000000000000000000000000100008000808008000880000000000000000000000000000000000000000100
% 000000000000000040000000000000000000000000000000000000000100000080808008000800000000000000000000000000000000000000000100
% 000000000000000040000000000000000000000000000000000000000100000080080008000880000000000000000000000000000000000000000100
% 000000000000000040000000000000000000000000000000000000000100000008083008000fd8000000000000000000000000000000000000000100
% 00000000000000007e000000000000000000000000000000000000000100008078080000000088000000000000000000000000000000000000007f00
% 000000000000000040000000000000000000000000000000000000000100008000880000000088000000000000000000000000000000000000000100
% 000000000000000040000000000000000000000000000000000000001b00008000800000000080000000000000000000000000000000000000000100
% 000000000000000040000000000000000000000000000000000000000100008000800008000088000000000000000000000000000000000000000100
% 000000000000000040000000000000000000000000000000000000001100000000800008000088000000000000000000000000000000000000000100
% 000000000000000040000000000000000000000000000000000000001100000000180000000080000000000000000000000000000000000000000100
% 000000000000000040000000000000000000000000000000000000000100000000000000000088000000000000000000000000000000000000000100
% 00000000000000004000000000000000000000000000000000000000110000800000000f198088000000000000000000000000000000000000000100
% 000000000000000040000000000000000000000000000000000000001100188000000000008080000000000000000000000000000000000000000100
% 000000000000000040000000000000000000000000000000000000000100300000000000008088000000000000000000000000000000000000000100
% 000000000000000040000000000000000000000000000000000000001101000000000000000088000000000000000000000000000000000000000100
% 000000000000000040000000000000000000000000000000000000001101000000000000000080000000000000000000000000000000000000000100
% 000000000000000040000000000000000000000000000000000000000100000000000000000088000000000000000000000000000000000000000100
% 00000000000000004000000000000000000000000000000000000001b100000000000000008088000000000000000000000000000000000000000100
% 000000000000000040000000000000000000000000000000000000000100000000000000008080000000000000000000000000000000000000000100
% 000000000000000040000000000000000000000000000000000000011f01000000000000000088000000000000000000000000000000000000000100
% 00000000000000004000000000000000000000000000000000000001100100000000000000008d800000000000000000000000000000000000000100
% 000000000000000040000000000000000000000000000000000000001001000000000000000080800000000000000000000000000000000000000100
% 00000000000000004000000000000000000000000000000000000001100100000000000000f080800000000000000000000000000000000000000100
% 000000000000000040000000000000000000000000000000000000011018000000000000000080000000000000000000000000000000000000000100
% 000000000000000040000000000000000000000000000000000000001000000000000000000880800000000000000000000000000000000000000100
% 000000000000000040000000000000000000000000000000000000011000000000000000000880800000000000000000000000000000000000000100
% 000000000000000040000000000000000000000000000000000000011010000000000000000080000000000000000000000000000000000000000100
% 000000000000000040000000000000000000000000000000000000001010000000000000000080800000000000000000000000000000000000000100
% 000000000000000040000000000000000000000000000000000000011010000000000000000080800000000000000000000000000000000000000100
% 000000000000000040000000000000000000000000000000000000011010000000000000000880000000000000000000000000000000000000000100
% 000000000000000040000000000000000000000000000000000000001000000000000000000e80800000000000000000000000000000000000000100
% 00000000000000007e000000000000000000000000000000000000011c60000000000000000080800000000000000000000000000000000000007f00
% 000000000000000040000000000000000000000000000000000000011000000000000000000080000000000000000000000000000000000000000100
% 0000000000000000400000000000000000000000000000000000000010000000000000000000f86c0000000000000000000000000000000000000100
% 0000000000000000400000000000000000000000000000000000001f1000000000000000000008000000000000000000000000000000000000000100
% 0000000000000000400000000000000000000000000000000000001d1000000000000000000038040000000000000000000000000000000000000100
% 000000000000000040000000000000000000000000000000000001b1f00000000000000000000f840000000000000000000000000000000000000100
% 000000000000000040000000000000000000000000000000000000100000000000000000000000800000000000000000000000000000000000000100
% 000000000000000040000000000000000000000000000000000001100000000000000000000000840000000000000000000000000000000000000100
% 00000000000000004000000000000000000000000000000000000111e000000000000000000008840000000000000000000000000000000000000100
% 000000000000000040000000000000000000000000000000000000100000000000000000000008800000000000000000000000000000000000000100
% 00000000000000004000000000000000000000000000000000000110000000000000000000000086c000000000000000000000000000000000000100
% 00000000000000004000000000000000000000000000000000000d100000000000000000000001c40000000000000000000000000000000000000100
% 000000000000000040000000000000000000000000000000000010110000000000000000000000844000000000000000000000000000000000000100
% 0000000000000000400000000000000000000000000000000000d0190000000000000000000000fc4000000000000000000000000000000000000100
% 000000000000000040000000000000000000000000000000000101f00000000000000000000000040000000000000000000000000000000000000100
% 000000000000000040000000000000000000000000000000000101300000000000000000000000046c00000000000000000000000000000000000100
% 000000000000000040400000000000000020000000000000001001000000000000080000080000040004000000000000000200000000000000010100
% 000000000000000040400000000000000020000000000000001101000000000000080000880000040404000000000000000200000000000000010100
% 000000000000000040400000000000000020000000000000001d01000000000003880000880000041d84000000000000000200000000000000010100
% 00000000000000004040000000000000002000000000000000103100000000008088000088000004c444000000000000000200000000000000010100
% 000000000000000040400000000000000020000000000000001e010001f000008088f80088000007c07403c000000000000200000000000000010100
% 00000000000000004040000000400000002000000020000000100700011800008088880f880fe0047c07000000040000000200000002000000010100
% 00000000000003c0404000000040000000200000002000001f101f0001101f0080e88000081800040404400000040000000200000002000000010100
% 0000000000000660404000000040000000200000002000007111f0000110100080088000080800fc047f440000040000000200000002000000010100
% 00000000000006304040000000400000002000000020001d617f001fc010700f800880000c0800803fc445c3c0040000000200000002000000010100
% 0000000000000c304040000000400000002000000023e011ff9f0030001000000008000000080000047fff6fd867c000000200000002000000010100
% 0000000000000c3040407c00004000003e2203ee1b7f3dff1ff1e00000100000000800000008000007c47fc6fffe7c0723fe3fe3e00203ff60010100
% 0000000000000c307fffffffffffffffffffffffffffffffffffffffffffffffffffffffffffffffffffffffffffffffffffffffffffffffffffff00
% 0000000000000c3000000000000000000000000000000000000000000000000000000000000000000000000000000000000000000000000000000000
% 0000000000000c3000000000000000000000000000000000000000000000000000000000000000000000000000000000000000000000000000000000
% 000000000000063000000000000000000000000000000000000000000000000000000000000000000000000000000000000000000000000000000000
% 000000000000066000000000000000000000000000000000000000000000000000000000000000000000000000000000000000000000000000000000
% 00000000000003c000000000000000000000000000000000000000000000000000000000000000000000000000000000000000000000000000000000
% 000000000000000000000000000000000000000000000000000000000000000000000000000000000000000000000000000000000000000000000000
% 000000000000000000000000000000000000000000000000000000000000000000000000000000000000000000000000000000000000000000000000
% 000000000000000000000000000000000000000000000000000000000000000000000000000000000000000000000000000000000000000000000000
% 000000000000000000000000000000000000000000000000000000000000000000000000000000000000000000000000000000000000000000000000
% 000000000000000000000000000000000000000000000000000000000000000000000000000000000000000000000000000000000000000000000000
% 00000000000000000183c00000000000001e0000000000000001000000000000003c0000000000000002000000000000000f00000000000000307800
% 000000000000000003846000000000000023000000000000000300000000000000660000000000000006000000000000001180000000000000708c00
% 000000000000000000882000000000000021000000000000000300000000000000630000000000000006000000000000001080000000000000110400
% 000000000000000000802000000000000033000000000000000300000000000000c30000000000000006000000000000001980000000000000100400
% 00000000000000000080200000000000001e000000000000000b00000000000000c30000000000000016000000000000000f00000000000000100400
% 00000000000000000080400000000000001c000000000000001300000000000000c30000000000000026000000000000000e00000000000000100800
% 00000000000000000080c000000000000016000000000000000300000000000000c30000000000000006000000000000000b00000000000000101800
% 0000000000000001e0818000000000000f2300000000000007bfc0000000000000c3000000000000007f800000000000001180000000000000103000
% 000000000000000000830000000000000021000000000000000100000000000000630000000000000002000000000000001080000000000000106000
% 00000000000000000086100000000000003100000000000000010000000000000066000000000000000200000000000000188000000000000010c200
% 000000000000000003e7e00000000000001e0000000000000001000000000000003c0000000000000002000000000000000f000000000000007cfc00
% 000000000000000000000000000000000000000000000000000000000000000000000000000000000000000000000000000000000000000000000000
% 000000000000000000000000000000000000000000000000000000000000000000000000000000000000000000000000000000000000000000000000
% 000000000000000000000000000000000000000000000000000000000000000000000000000000000000000000000000000000000000000000000000
% 000000000000000000000000000000000000000000000000000000000000000000000000000000000000000000000000000000000000000000000000
% 000000000000000000000000000000000000000000000000000000000000000000000000000000000000000000000000000000000000000000000000
% 000000000000000000000000000000000000000000000000000000000000000000000000000000000000000000000000000000000000000000000000
% 000000000000000000000000000000000000000000000000000000000000000000000000000000000000000000000000000000000000000000000000
% 000000000000000000000000000000000000000000000000000000000000000000000000000000000000000000000000000000000000000000000000
% 00000000000000000000000000000000000000000000000000000001f8000180c0000c00800002000000000000000000000000000000000000000000
% 00000000000000000000000000000000000000000000000000000000ce00018040000401000003000000000000000000000000000000000000000000
% 00000000000000000000000000000000000000000000000000000000c600000040000402000001000000000000000000000000000000000000000000
% 00000000000000000000000000000000000000000000000000000000c600008040000406002000800000000000000000000000000000000000000000
% 00000000000000000000000000000000000000000000000000000000ce1e7d87d9c7c4061e6fe0800000000000000000000000000000000000000000
% 00000000000000000000000000000000000000000000000000000000f823488c48444404232210800000000000000000000000000000000000000000
% 00000000000000000000000000000000000000000000000000000000d87f70884841c404202210800000000000000000000000000000000000000000
% 00000000000000000000000000000000000000000000000000000000dc60388848464404202210800000000000000000000000000000000000000000
% 00000000000000000000000000000000000000000000000000000000cc610c8848444404202210800000000000000000000000000000000000000000
% 00000000000000000000000000000000000000000000000000000000c633448c4cccc406332210800000000000000000000000000000000000000000
% 00000000000000000000000000000000000000000000000000000001c31e79c7e747ee021e77b0800000000000000000000000000000000000000000
% 000000000000000000000000000000000000000000000000000000000000000000000002000001000000000000000000000000000000000000000000
% 000000000000000000000000000000000000000000000000000000000000000000000001000003000000000000000000000000000000000000000000
% 000000000000000000000000000000000000000000000000000000000000000000000000800002000000000000000000000000000000000000000000
%%EndImage
%%EndPreview
save
countdictstack
mark
newpath
/showpage {} def
%%EndProlog
%%Page 1 1
/s {stroke} def /l {lineto} def /m {moveto} def /t {translate} def
/sw {stringwidth} def /r {rotate} def /rl {roll}  def /R {repeat} def
/d {rlineto} def /rm {rmoveto} def /gr {grestore} def /f {eofill} def
/c {setrgbcolor} def /lw {setlinewidth} def /sd {setdash} def
/cl {closepath} def /sf {scalefont setfont} def /black {0 setgray} def
/box {m dup 0 exch d exch 0 d 0 exch neg d cl} def
/NC{systemdict begin initclip end}def/C{NC box clip newpath}def
/bl {box s} def /bf {box f} def /Y { 0 exch d} def /X { 0 d} def 
/mp {newpath /y exch def /x exch def} def
/side {[w .77 mul w .23 mul] .385 w mul sd w 0 l currentpoint t -144 r} def
/mr {mp x y w2 0 360 arc} def /m24 {mr s} def /m20 {mr f} def
/mb {mp x y w2 add m w2 neg 0 d 0 w neg d w 0 d 0 w d cl} def
/mt {mp x y w2 add m w2 neg w neg d w 0 d cl} def
/m21 {mb f} def /m25 {mb s} def /m22 {mt f} def /m26 {mt s} def
/m23 {mp x y w2 sub m w2 w d w neg 0 d cl f} def
/m27 {mp x y w2 add m w3 neg w2 neg d w3 w2 neg d w3  w2 d cl s} def
/m28 {mp x w2 sub y w2 sub w3 add m w3 0 d 0 w3 neg d w3 0 d 0 w3 d w3 0 d
 0 w3 d w3 neg 0 d 0 w3 d w3 neg 0 d
 0 w3 neg d w3 neg 0 d cl s } def
/m29 {mp gsave x w2 sub y w2 add w3 sub m currentpoint t
 4 {side} repeat cl fill gr} def
/m30 {mp gsave x w2 sub y w2 add w3 sub m currentpoint t
 5 {side} repeat s gr} def
/m31 {mp x y w2 sub m 0 w d x w2 sub y m w 0 d
 x w2 sub y w2 add m w w neg d x w2 sub y w2
 sub m w w d s} def
/m2 {mp x y w2 sub m 0 w d x w2 sub y m w 0 d s} def
/m5 {mp x w2 sub y w2 sub m w w d x w2 sub y w2 add m w w neg d s} def
/DP {/PT exch def gsave 47.2 47.2 scale PT 1 eq { 16 16 1 [ 16 0 0 16 neg 0 16
] { < AA AA 55 55 AA AA 55 55 AA AA 55 55 AA AA 55 55 AA AA 55 55 AA AA 55 55
AA AA 55 55 AA AA 55 55 > } image } if PT 2 eq { 16 16 1 [ 16 0 0 16 neg 0 16
] { < BB BB EE EE BB BB EE EE BB BB EE EE BB BB EE EE BB BB EE EE BB BB EE EE
BB BB EE EE BB BB EE EE > } image } if PT 3 eq { 16 16 1 [ 16 0 0 16 neg 0 16
] { < FF FF BB BB FF FF EE EE FF FF BB BB FF FF EE EE FF FF BB BB FF FF EE EE
FF FF BB BB FF FF EE EE > } image } if PT 4 eq { 16 16 1 [ 16 0 0 16 neg 0 16
] { < DF DF BF BF 7F 7F FE FE FD FD FB FB F7 F7 EF EF DF DF BF BF 7F 7F FE FE
FD FD FB FB F7 F7 EF EF > } image } if PT 5 eq { 16 16 1 [ 16 0 0 16 neg 0 16
] { < 7F 7F BF B F DF DF EF EF F7 F7 FB FB FD FD FE FE 7F 7F BF BF DF DF EF
EF F7 F7 FB FB FD FD FE FE > } image } if PT 6 eq { 16 16 1 [ 16 0 0 16 neg 0
16 ] { < BB BB BB BB BB BB BB BB BB BB BB BB BB BB BB BB BB BB BB BB BB BB BB
BB BB BB BB BB BB BB BB BB > } image } if PT 7 eq { 16 16 1 [ 16 0 0 16 neg 0
16 ] { < FF FF FF FF FF FF 00 00 FF FF FF FF FF FF 00 00 FF FF FF FF FF FF 00
00 FF FF FF FF FF FF 00 00 > } image } if PT 8 eq { 16 16 1 [ 16 0 0 16 neg 0
16 ] { < EE EE 47 47 83 83 C5 C5 EE EE 5C 5C 38 38 74 74 EE EE 47 47 83 83 C5
C5 EE EE 5C 5C 38 38 74 74 > } image } if PT 9 eq { 16 16 1 [ 16 0 0 16 neg 0
16 ] { < EF EF EF EF D7 D7 38 38 FE FE FE FE 7D 7D 83 83 EF EF EF EF D7 D7 38
38 FE FE FE FE 7D 7D 83 83 > } image } if PT 10 eq { 16 16 1 [ 16 0 0 16 neg
0 16 ] { < EF EF EF EF EF EF 00 00 FE FE FE FE FE FE 00 00 EF EF EF EF EF EF
00 00 FE FE FE FE FE FE 00 00 > } image } if PT 11 eq { 16 16 1 [ 16 0 0 16
neg 0 16 ] { < F7 F7 B6 B6 D5 D5 E3 E3 D5 D5 B6 B6 F7 F7 FF FF 7F 7F 6B 6B 5D
5D 3E 3E 5D 5D 6B 6B 7F 7F FF FF > } image } if PT 12 eq { 16 16 1 [ 16 0 0
16 neg 0 16 ] { < E3 E3 DD DD BE BE BE BE BE BE DD DD E3 E3 FF FF 3E 3E DD DD
EB EB EB EB EB EB DD DD 3E 3E FF FF > } image } if PT 13 eq { 16 16 1 [ 16 0
0 16 neg 0 16 ] { < FE FE 7D 7D BB BB D7 D7 EF EF D7 D7 BB BB 7D 7D FE FE 7D
7D BB BB D7 D7 EF EF D7 D7 BB BB 7D 7D > } image } if PT 14 eq { 16 16 1 [ 16
0 0 16 neg 0 16 ] { < 00 00 EE EF EE EF EE EF 0E E0 EE EE EE EE EE EE 00 EE
FE EE FE EE FE EE 00 00 FE EF FE EF FE EF > } image } if PT 15 eq { 16 16 1 [
16 0 0 16 neg 0 16 ] { < DD DD AA AA DD DD FF FF 77 77 AA AA 77 77 FF FF DD
DD AA AA DD DD FF FF 77 77 AA AA 77 77 FF FF > } image } if PT 16 eq { 16 16
1 [ 16 0 0 16 neg 0 16 ] { < F1 F1 EE EE 1F 1F FF FF F1 F1 EE EE 1F 1F FF FF
F1 F1 EE EE 1F 1F FF FF F1 F1 EE EE 1F 1F FF FF > } image } if PT 17 eq { 16
16 1 [ 16 0 0 16 neg 0 16 ] { < EE EE DD DD BB BB FF FF EE EE DD DD BB BB FF
FF EE EE DD DD BB BB FF FF EE EE DD DD BB BB FF FF > } image } if PT 18 eq {
16 16 1 [ 16 0 0 16 neg 0 16 ] { < BB BB DD DD EE EE FF FF BB BB DD DD EE EE
FF FF BB BB DD DD EE EE FF FF BB BB DD DD EE EE FF FF > } image } if PT 19 eq
{ 16 16 1 [ 16 0 0 16 neg 0 16 ] { < 1F FC 67 F3 7B EF BD DE BD DE DE BD E6
B3 F8 0F E6 B3 DE BD BD DE BD DE 7B EF 67 F3 1F FC 7F FF > } image } if PT
20 eq { 16 16 1 [ 16 0 0 16 neg 0 16 ] { < DD DD EE EE EE EE EE EE DD DD BB
BB BB BB BB BB DD DD EE EE EE EE EE EE DD DD BB BB BB BB BB BB > } image }
if PT 21 eq { 16 16 1 [ 16 0 0 16 neg 0 16 ] { < 0E 0E EF EF EF EF EF EF E0
E0 FE FE FE FE FE FE 0E 0E EF EF EF EF EF EF E0 E0 FE FE FE FE FE FE > }
image } if PT 22 eq { 16 16 1 [ 16 0 0 16 neg 0 16 ] { < 70 70 F7 F7 F7 F7 F7
F7 07 07 7F 7F 7F 7F 7F 7F 70 70 F7 F7 F7 F7 F7 F7 07 07 7F 7F 7F 7F 7F 7F >
} image } if PT 23 eq { 16 16 1 [ 16 0 0 16 neg 0 16 ] { < AA AA 55 55 A9 A9
D1 D1 E1 E1 D1 D1 A9 A9 55 55 AA AA 55 55 A9 A9 D1 D1 E1 E1 D1 D1 A9 A9 55 55
> } image } if PT 24 eq { 16 16 1 [ 16 0 0 16 neg 0 16 ] { < FF FE FF FC EA
A8 D5 54 EA A8 D5 54 E8 28 D4 54 E8 E8 D4 D4 E8 EA 54 D5 A8 EA 54 D5 00 C0 00
80 > } image } if PT 25 eq { 16 16 1 [ 16 0 0 16 neg 0 16 ] { < FF FE FF FC
FF F8 FF F0 F0 00 F0 00 F0 20 F0 60 F0 E0 F1 E0 F3 E0 F0 00 E0 00 C0 00 80 00
00 00 > } image } if gr } def /FA { /PT exch def gsave clip 0 0 translate 1 1
54 { 1 sub 47.2 mul /Xcurr exch def 1 1 74 { 1 sub 47.2 mul /Ycurr exch def
gsave Xcurr Ycurr translate PT DP gr } for } for gr } def
/reencdict 24 dict def /ReEncode {reencdict begin /nco&na exch def
/nfnam exch def /basefontname exch def /basefontdict basefontname findfont def
/newfont basefontdict maxlength dict def basefontdict {exch dup /FID ne
{dup /Encoding eq {exch dup length array copy newfont 3 1 roll put} {exch
newfont 3 1 roll put} ifelse} {pop pop} ifelse } forall newfont
/FontName nfnam put nco&na aload pop nco&na length 2 idiv {newfont
/Encoding get 3 1 roll put} repeat nfnam newfont definefont pop end } def
/accvec [ 176 /agrave 181 /Agrave 190 /acircumflex 192 /Acircumflex
201 /adieresis 204 /Adieresis 209 /ccedilla 210 /Ccedilla 211 /eacute
212 /Eacute 213 /egrave 214 /Egrave 215 /ecircumflex 216 /Ecircumflex
217 /edieresis 218 /Edieresis 219 /icircumflex 220 /Icircumflex
221 /idieresis 222 /Idieresis 223 /ntilde 224 /Ntilde 226 /ocircumflex
228 /Ocircumflex 229 /odieresis 230 /Odieresis 231 /ucircumflex 236 /Ucircumflex
237 /udieresis 238 /Udieresis 239 /aring 242 /Aring 243 /ydieresis
244 /Ydieresis 246 /aacute 247 /Aacute 252 /ugrave 253 /Ugrave] def
/Times-Roman /Times-Roman accvec ReEncode
/Times-Italic /Times-Italic accvec ReEncode
/Times-Bold /Times-Bold accvec ReEncode
/Times-BoldItalic /Times-BoldItalic accvec ReEncode
/Helvetica /Helvetica accvec ReEncode
/Helvetica-Oblique /Helvetica-Oblique accvec ReEncode
/Helvetica-Bold /Helvetica-Bold accvec ReEncode
/Helvetica-BoldOblique /Helvetica-BoldOblique  accvec ReEncode
/Courier /Courier accvec ReEncode
/Courier-Oblique /Courier-Oblique accvec ReEncode
/Courier-Bold /Courier-Bold accvec ReEncode
/Courier-BoldOblique /Courier-BoldOblique accvec ReEncode
/oshow {gsave [] 0 sd true charpath stroke gr} def
/stwn { /fs exch def /fn exch def /text exch def fn findfont fs sf
 text sw pop xs add /xs exch def} def
/stwb { /fs exch def /fn exch def /nbas exch def /textf exch def
textf length /tlen exch def nbas tlen gt {/nbas tlen def} if
fn findfont fs sf textf dup length nbas sub nbas getinterval sw
pop neg xs add /xs exch def} def
/accspe [ 65 /plusminus 66 /bar 67 /existential 68 /universal
69 /exclam 70 /numbersign 71 /greater 72 /question 73 /integral
74 /colon 75 /semicolon 76 /less 77 /bracketleft 78 /bracketright
79 /greaterequal 80 /braceleft 81 /braceright 82 /radical
83 /spade 84 /heart 85 /diamond 86 /club 87 /lessequal
88 /multiply 89 /percent 90 /infinity 48 /circlemultiply 49 /circleplus
50 /emptyset 51 /lozenge 52 /bullet 53 /arrowright 54 /arrowup
55 /arrowleft 56 /arrowdown 57 /arrowboth 48 /degree 44 /comma 43 /plus
 45 /angle 42 /angleleft 47 /divide 61 /notequal 40 /equivalence 41 /second
 97 /approxequal 98 /congruent 99 /perpendicular 100 /partialdiff 101 /florin
 102 /intersection 103 /union 104 /propersuperset 105 /reflexsuperset
 106 /notsubset 107 /propersubset 108 /reflexsubset 109 /element 110 /notelement
 111 /gradient 112 /logicaland 113 /logicalor 114 /arrowdblboth
 115 /arrowdblleft 116 /arrowdblup 117 /arrowdblright 118 /arrowdbldown
 119 /ampersand 120 /omega1 121 /similar 122 /aleph ] def
/Symbol /Special accspe ReEncode
/Zone {/iy exch def /ix exch def  gsave ix 1 sub  2224 mul  1 iy sub  3144
 mul t} def
gsave 20 28 t .25 .25 scale  gsave
 1 1 Zone
 gsave 0 0 t black [] 0 sd 1 lw
 /xs 0 def 
(Residual vs. Multiplicity)
 /Times-Roman     66 stwn 
 gsave  1193 2346
 t   0 r  xs 2 div neg 0 t 0 0 m
 /Times-Roman findfont   66 sf 0    0 m 
( )
 show 
 gr
 381 679 m 260 X 2 Y 16 X -2 Y 65 X 2 Y 16 X -2 Y 114 X 4 Y 32 X 2 Y 16 X -2 Y
 17 X -2 Y 16 X 4 Y 16 X 9 Y 16 X 4 Y 17 X 31 Y 16 X 47 Y 16 X -8 Y 16 X 65 Y 17
 X 86 Y 16 X 206 Y 16 X 238 Y 16 X 141 Y 17 X 303 Y 16 X 54 Y 16 X 89 Y 16 X 39
 Y 16 X 54 Y 17 X 28 Y 16 X -108 Y 16 X 39 Y 16 X -87 Y 17 X -309 Y 16 X -189 Y
 16 X -229 Y 16 X -217 Y 17 X -73 Y 16 X -119 Y 16 X -13 Y 16 X -33 Y 17 X -28 Y
 16 X -4 Y 16 X -18 Y 16 X 5 Y 16 X -3 Y 17 X -4 Y 32 X -2 Y 49 X 2 Y 16 X -2 Y
 33 X 2 Y 16 X -2 Y 65 X 2 Y 32 X -2 Y 17 X 2 Y 32 X -2 Y 16 X 2 Y 16 X -2 Y 82
 X 2 Y 32 X -2 Y 98 X s 413 722 m -43 Y s
 /xs 0 def 
(-12)
 /Times-Roman     66 stwn 
 gsave  413 592
 t   0 r  xs 2 div neg 0 t 0 0 m
 /Times-Roman findfont   66 sf 0    0 m 
(-12)
 show 
 gr
 543 701 m -22 Y s 673 722 m -43 Y s
 /xs 0 def 
(-8)
 /Times-Roman     66 stwn 
 gsave  673 592
 t   0 r  xs 2 div neg 0 t 0 0 m
 /Times-Roman findfont   66 sf 0    0 m 
(-8)
 show 
 gr
 803 701 m -22 Y s 933 722 m -43 Y s
 /xs 0 def 
(-4)
 /Times-Roman     66 stwn 
 gsave  933 592
 t   0 r  xs 2 div neg 0 t 0 0 m
 /Times-Roman findfont   66 sf 0    0 m 
(-4)
 show 
 gr
 1063 701 m -22 Y s 1193 722 m -43 Y s
 /xs 0 def 
(0)
 /Times-Roman     66 stwn 
 gsave  1193 592
 t   0 r  xs 2 div neg 0 t 0 0 m
 /Times-Roman findfont   66 sf 0    0 m 
(0)
 show 
 gr
 1323 701 m -22 Y s 1452 722 m -43 Y s
 /xs 0 def 
(4)
 /Times-Roman     66 stwn 
 gsave  1452 592
 t   0 r  xs 2 div neg 0 t 0 0 m
 /Times-Roman findfont   66 sf 0    0 m 
(4)
 show 
 gr
 1582 701 m -22 Y s 1712 722 m -43 Y s
 /xs 0 def 
(8)
 /Times-Roman     66 stwn 
 gsave  1712 592
 t   0 r  xs 2 div neg 0 t 0 0 m
 /Times-Roman findfont   66 sf 0    0 m 
(8)
 show 
 gr
 1842 701 m -22 Y s 1972 722 m -43 Y s
 /xs 0 def 
(12)
 /Times-Roman     66 stwn 
 gsave  1972 592
 t   0 r  xs 2 div neg 0 t 0 0 m
 /Times-Roman findfont   66 sf 0    0 m 
(12)
 show 
 gr
 /xs 0 def 
(Residual (cm))
 /Times-Roman     66 stwn 
 gsave  1193 517
 t   0 r  xs 2 div neg 0 t 0 0 m
 /Times-Roman findfont   66 sf 0    0 m 
(Residual (cm))
 show 
 gr
 413 2259 m 44 Y s 543 2281 m 22 Y s 673 2259 m 44 Y s 803 2281 m 22 Y s 933
 2259 m 44 Y s 1063 2281 m 22 Y s 1193 2259 m 44 Y s 1323 2281 m 22 Y s 1452
 2259 m 44 Y s 1582 2281 m 22 Y s 1712 2259 m 44 Y s 1842 2281 m 22 Y s 1972
 2259 m 44 Y s 424 679 m -43 X s
 /xs 0 def 
(0)
 /Times-Roman     66 stwn 
 gsave  359 657
 t   0 r  xs neg 0 t 0 0 m
 /Times-Roman findfont   66 sf 0    0 m 
(0)
 show 
 gr
 402 787 m -21 X s 402 895 m -21 X s 402 1004 m -21 X s 424 1112 m -43 X s
 /xs 0 def 
(200)
 /Times-Roman     66 stwn 
 gsave  359 1090
 t   0 r  xs neg 0 t 0 0 m
 /Times-Roman findfont   66 sf 0    0 m 
(200)
 show 
 gr
 402 1220 m -21 X s 402 1328 m -21 X s 402 1437 m -21 X s 424 1545 m -43 X s
 /xs 0 def 
(400)
 /Times-Roman     66 stwn 
 gsave  359 1523
 t   0 r  xs neg 0 t 0 0 m
 /Times-Roman findfont   66 sf 0    0 m 
(400)
 show 
 gr
 402 1653 m -21 X s 402 1761 m -21 X s 402 1870 m -21 X s 424 1978 m -43 X s
 /xs 0 def 
(600)
 /Times-Roman     66 stwn 
 gsave  359 1956
 t   0 r  xs neg 0 t 0 0 m
 /Times-Roman findfont   66 sf 0    0 m 
(600)
 show 
 gr
 402 2086 m -21 X s 402 2194 m -21 X s 402 2303 m -21 X s
 /xs 0 def 
(Counts)
 /Times-Roman     66 stwn 
 gsave  164 1491
 t  90 r  xs 2 div neg 0 t 0 0 m
 /Times-Roman findfont   66 sf 0    0 m 
(Counts)
 show 
 gr
 1961 679 m 44 X s 1983 787 m 22 X s 1983 895 m 22 X s 1983 1004 m 22 X s 1961
 1112 m 44 X s 1983 1220 m 22 X s 1983 1328 m 22 X s 1983 1437 m 22 X s 1961
 1545 m 44 X s 1983 1653 m 22 X s 1983 1761 m 22 X s 1983 1870 m 22 X s 1961
 1978 m 44 X s 1983 2086 m 22 X s 1983 2194 m 22 X s 1983 2303 m 22 X s 381 679
 m 1624 X s 381 2303 m 1624 X s 381 679 m 1624 Y s 2005 679 m 1624 Y s 1328 1951
 m 27 Y 162 X -27 Y s
 gsave  1517 1951
 t   0 r 0 0 m
 /Helvetica findfont   75 sf 0    0 m 
(Strip Mult. 1)
 show 
 gr
 [4 8] 0 sd 1328 1843 m 27 Y 162 X -27 Y s
 gsave  1517 1843
 t   0 r 0 0 m
 /Helvetica findfont   75 sf 0    0 m 
(Strip Mult. 2)
 show 
 gr
 [12 15 4 15] 0 sd 1328 1734 m 27 Y 162 X -27 Y s
 gsave  1517 1734
 t   0 r 0 0 m
 /Helvetica findfont   75 sf 0    0 m 
(Strip Mult. 3)
 show 
 gr
 3144 3144 -460 0 C [] 0 sd 1328 1626 m 27 Y s 1328 1653 m 4 X s 1364 1653 m 31
 X s 1427 1653 m 31 X s 1490 1653 m s 1490 1653 m -27 Y s 2111 2220 56 462 C
 gsave  1517 1626
 t   0 r 0 0 m
 /Helvetica findfont   75 sf 0    0 m 
(Strip Mult. 4)
 show 
 gr
 [4 8] 0 sd 381 679 m 390 X 2 Y 32 X -2 Y 32 X 2 Y 33 X 2 Y 16 X 7 Y 16 X -2 Y
 17 X 4 Y 16 X 22 Y 16 X 19 Y 16 X 11 Y 17 X 22 Y 16 X 4 Y 16 X 73 Y 16 X 44 Y
 17 X 56 Y 16 X 136 Y 16 X 72 Y 16 X 184 Y 17 X 171 Y 16 X 206 Y 16 X 309 Y 16 X
 176 Y 16 X -22 Y 17 X -20 Y 16 X -32 Y 16 X -316 Y 16 X -232 Y 17 X -166 Y 16 X
 -208 Y 16 X -124 Y 16 X -65 Y 17 X -67 Y 16 X -45 Y 16 X -69 Y 16 X -52 Y 17 X
 -33 Y 16 X -19 Y 16 X -13 Y 16 X -9 Y 16 X -11 Y 17 X -13 Y 16 X 11 Y 16 X -4 Y
 16 X -7 Y 17 X -2 Y 65 X 2 Y 16 X -2 Y 292 X 2 Y 16 X -2 Y 82 X s [] 0 sd 381
 679 m 1624 X s 381 2303 m 1624 X s 381 679 m 1624 Y s 2005 679 m 1624 Y s
 [12 15 4 15] 0 sd 381 679 m 357 X 2 Y 16 X -2 Y 49 X 2 Y 65 X 2 Y 16 X 11 Y 16
 X -6 Y 33 X 19 Y 16 X 2 Y 16 X -6 Y 17 X 24 Y 16 X 6 Y 16 X 22 Y 16 X 32 Y 17 X
 -2 Y 16 X 35 Y 16 X 39 Y 16 X 4 Y 17 X 52 Y 16 X -2 Y 16 X -18 Y 16 X 31 Y 16 X
 -50 Y 17 X 43 Y 16 X -19 Y 16 X 13 Y 16 X 28 Y 17 X -76 Y 32 X 2 Y 16 X -43 Y
 17 X -35 Y 16 X -19 Y 16 X -26 Y 16 X -2 Y 17 X -33 Y 16 X 7 Y 16 X -22 Y 16 X
 2 Y 16 X 7 Y 17 X -15 Y 16 X 17 Y 16 X -17 Y 33 X -3 Y 16 X -2 Y 16 X 2 Y 16 X
 -4 Y 17 X -2 Y 48 X 4 Y 17 X -4 Y 341 X s [] 0 sd 381 679 m 1624 X s 381 2303 m
 1624 X s 381 679 m 1624 Y s 2005 679 m 1624 Y s 3144 3144 -460 0 C 381 679 m 16
 X s 397 679 m 15 X s 444 679 m 2 X s 446 679 m 2 Y s 446 681 m 16 X s 462 681 m
 -2 Y s 462 679 m 9 X s 502 679 m 9 X s 511 679 m 16 X s 527 679 m 7 X s 565 679
 m 11 X s 576 679 m 16 X s 592 679 m 5 X s 628 679 m 13 X s 641 679 m 16 X s 657
 679 m 2 X s 689 681 m s 689 681 m -2 Y s 689 679 m 17 X s 706 679 m 12 X s 745
 679 m 9 X s 754 679 m 17 X s 771 679 m 6 X s 806 681 m 13 X s 819 681 m 4 Y s
 819 685 m 14 X s 858 679 m 10 X s 868 679 m 11 Y s 868 690 m 11 X s 900 695 m 3
 Y s 900 698 m 17 X s 917 698 m -11 Y s 938 690 m 11 X s 949 690 m -7 Y s 949
 683 m 14 X s 992 685 m 6 X s 998 685 m 5 Y s 998 690 m 16 X s 1014 690 m 6 X s
 1047 694 m 11 Y s 1047 705 m 16 X s 1063 705 m -2 Y s 1063 703 m 2 X s 1086 692
 m 9 X s 1095 692 m 6 Y s 1095 698 m 16 X s 1131 692 m 13 X s 1144 692 m 17 Y s
 1144 709 m 1 X s 1170 716 m 6 X s 1176 716 m -18 Y s 1176 698 m 8 X s 1209 692
 m 13 Y s 1209 705 m 16 X s 1225 705 m -2 Y s 1225 703 m 1 X s 1257 703 m 1 X s
 1258 703 m 16 X s 1274 703 m 14 Y s 1290 721 m -29 Y s 1290 692 m 3 X s 1318
 698 m 5 X s 1323 698 m 3 Y s 1323 701 m 16 X s 1339 701 m 8 X s 1368 690 m 3 X
 s 1371 690 m 4 Y s 1371 694 m 17 X s 1388 694 m 7 Y s 1388 701 m s 1409 690 m
 11 X s 1420 690 m 2 Y s 1420 692 m 16 X s 1436 692 m -2 Y s 1463 685 m 6 X s
 1469 685 m 16 X s 1485 685 m 10 X s 1522 690 m 12 X s 1534 690 m -7 Y s 1534
 683 m 13 X s 1570 683 m 12 X s 1582 683 m 2 Y s 1582 685 m 17 X s 1599 685 m s
 1624 679 m 7 X s 1631 679 m 16 X s 1647 679 m 2 Y s 1647 681 m 6 X s 1680 681 m
 16 X s 1696 681 m 16 X s 1741 679 m 4 X s 1745 679 m 16 X s 1761 679 m 11 X s
 1804 679 m 6 X s 1810 679 m 16 X s 1826 679 m 9 X s 1867 679 m 8 X s 1875 679 m
 16 X s 1891 679 m 7 X s 1930 679 m 10 X s 1940 679 m 16 X s 1956 679 m 5 X s
 1992 679 m 13 X s 2111 2220 56 462 C 381 679 m 1624 X s 381 2303 m 1624 X s 381
 679 m 1624 Y s 2005 679 m 1624 Y s gr
showpage gr
gr gr
%%Trailer
cleartomark
countdictstack exch sub { end } repeat
restore
%%EOF
