%!PS-Adobe-2.0 EPSF-2.0
%%Title: brpc.fig
%%Creator: fig2dev Version 3.1 Patchlevel 1
%%CreationDate: Tue Aug 31 16:50:39 1999
%%For: morgan@vpihe1.phys.vt.edu (Norman Morgan)
%%Orientation: Portrait
%%BoundingBox: 0 0 601 417
%%Pages: 0
%%BeginSetup
%%IncludeFeature: *PageSize Letter
%%EndSetup
%%EndComments
/$F2psDict 200 dict def
$F2psDict begin
$F2psDict /mtrx matrix put
/col-1 {} def
/col0 {0.000 0.000 0.000 srgb} bind def
/col1 {0.000 0.000 1.000 srgb} bind def
/col2 {0.000 1.000 0.000 srgb} bind def
/col3 {0.000 1.000 1.000 srgb} bind def
/col4 {1.000 0.000 0.000 srgb} bind def
/col5 {1.000 0.000 1.000 srgb} bind def
/col6 {1.000 1.000 0.000 srgb} bind def
/col7 {1.000 1.000 1.000 srgb} bind def
/col8 {0.000 0.000 0.560 srgb} bind def
/col9 {0.000 0.000 0.690 srgb} bind def
/col10 {0.000 0.000 0.820 srgb} bind def
/col11 {0.530 0.810 1.000 srgb} bind def
/col12 {0.000 0.560 0.000 srgb} bind def
/col13 {0.000 0.690 0.000 srgb} bind def
/col14 {0.000 0.820 0.000 srgb} bind def
/col15 {0.000 0.560 0.560 srgb} bind def
/col16 {0.000 0.690 0.690 srgb} bind def
/col17 {0.000 0.820 0.820 srgb} bind def
/col18 {0.560 0.000 0.000 srgb} bind def
/col19 {0.690 0.000 0.000 srgb} bind def
/col20 {0.820 0.000 0.000 srgb} bind def
/col21 {0.560 0.000 0.560 srgb} bind def
/col22 {0.690 0.000 0.690 srgb} bind def
/col23 {0.820 0.000 0.820 srgb} bind def
/col24 {0.500 0.190 0.000 srgb} bind def
/col25 {0.630 0.250 0.000 srgb} bind def
/col26 {0.750 0.380 0.000 srgb} bind def
/col27 {1.000 0.500 0.500 srgb} bind def
/col28 {1.000 0.630 0.630 srgb} bind def
/col29 {1.000 0.750 0.750 srgb} bind def
/col30 {1.000 0.880 0.880 srgb} bind def
/col31 {1.000 0.840 0.000 srgb} bind def

end
save
-83.0 489.0 translate
1 -1 scale

/clp {closepath} bind def
/ef {eofill} bind def
/gr {grestore} bind def
/gs {gsave} bind def
/l {lineto} bind def
/m {moveto} bind def
/n {newpath} bind def
/s {stroke} bind def
/slc {setlinecap} bind def
/slj {setlinejoin} bind def
/slw {setlinewidth} bind def
/srgb {setrgbcolor} bind def
/rot {rotate} bind def
/sc {scale} bind def
/tr {translate} bind def
/tnt {dup dup currentrgbcolor
  4 -2 roll dup 1 exch sub 3 -1 roll mul add
  4 -2 roll dup 1 exch sub 3 -1 roll mul add
  4 -2 roll dup 1 exch sub 3 -1 roll mul add srgb}
  bind def
/shd {dup dup currentrgbcolor 4 -2 roll mul 4 -2 roll mul
  4 -2 roll mul srgb} bind def
/$F2psBegin {$F2psDict begin /$F2psEnteredState save def} def
/$F2psEnd {$F2psEnteredState restore end} def
%%EndProlog

$F2psBegin
10 setmiterlimit
 0.06000 0.06000 sc
15.000 slw
% Arc
n 8891.67 5833.33 408.67 106.59 2.34 arcn
gs col-1 s gr

7.500 slw
% Polyline
n 1500 2100 m 8700 2100 l  8700 7200 l  1500 7200 l  clp  gs col-1 s gr 
30.000 slw
% Polyline
n 1425 2025 m 8775 2025 l  8775 7275 l  1425 7275 l  clp  gs col-1 s gr 
15.000 slw
% Polyline
n 8775 2400 m 8925 2400 l  8925 2625 l  8775 2625 l  clp  gs col-1 s gr 
% Polyline
n 8775 6675 m 8925 6675 l  8925 6900 l  8775 6900 l  clp  gs col-1 s gr 
7.500 slw
% Polyline
	[66.7] 0 setdash
n 8700 2700 m 2100 2700 l  2100 2775 l  8700 2775 l  clp  gs col-1 s gr 	[] 0 setdash
% Polyline
	[66.7] 0 setdash
n 8700 3825 m 2100 3825 l  2100 3900 l  8700 3900 l  clp  gs col-1 s gr 	[] 0 setdash
% Polyline
	[66.7] 0 setdash
n 8700 5100 m 2100 5100 l  2100 5175 l  8700 5175 l  clp  gs col-1 s gr 	[] 0 setdash
% Polyline
	[66.7] 0 setdash
n 8025 3300 m 1425 3300 l  1425 3375 l  8025 3375 l  clp  gs col-1 s gr 	[] 0 setdash
% Polyline
	[66.7] 0 setdash
n 8025 4500 m 1425 4500 l  1425 4575 l  8025 4575 l  clp  gs col-1 s gr 	[] 0 setdash
% Polyline
	[66.7] 0 setdash
n 8100 5700 m 1500 5700 l  1500 5775 l  8100 5775 l  clp  gs col-1 s gr 	[] 0 setdash
% Polyline
	[66.7] 0 setdash
n 8700 6375 m 2100 6375 l  2100 6450 l  8700 6450 l  clp  gs col-1 s gr 	[] 0 setdash
% Polyline
n 8625 3150 m 8700 3150 l  8700 3300 l  8625 3300 l  clp  gs col-1 s gr 
% Polyline
n 9375 2475 m 9075 2475 l  9150 2400 l  gs col-1 s gr 
% Polyline
n 9075 2475 m 9150 2550 l  gs col-1 s gr 
% Polyline
n 9375 6825 m 9075 6825 l  9150 6750 l  gs col-1 s gr 
% Polyline
n 9075 6825 m 9150 6900 l  gs col-1 s gr 
% Polyline
n 5475 1500 m 5250 2775 l  5175 2475 l  gs col-1 s gr 
% Polyline
n 5400 7950 m 8775 7950 l  8625 7800 l  gs col-1 s gr 
% Polyline
n 8775 7950 m 8625 8100 l  gs col-1 s gr 
% Polyline
n 1425 7950 m 1575 7800 l  gs col-1 s gr 
% Polyline
n 1425 7950 m 4200 7950 l  gs col-1 s gr 
% Polyline
n 1425 7950 m 1575 8100 l  gs col-1 s gr 
15.000 slw
% Arc
n 8850.00 2712.50 534.00 106.31 32.57 arcn
gs col-1 s gr

7.500 slw
% Polyline
n 5250 2775 m 5400 2550 l  gs col-1 s gr 
/Times-Roman findfont 300.00 scalefont setfont
9525 6900 m
gs 1 -1 sc (Gas output) col-1 show gr
% Polyline
n 9300 4350 m 7875 4200 l  8175 4050 l  gs col-1 s gr 
% Polyline
n 7875 4200 m 8100 4425 l  gs col-1 s gr 
% Polyline
n 8700 6000 m 7500 7200 l  gs col-1 s gr 
% Polyline
n 8700 5100 m 6600 7200 l  gs col-1 s gr 
% Polyline
n 8700 4200 m 5700 7200 l  gs col-1 s gr 
% Polyline
n 8700 3300 m 4800 7200 l  gs col-1 s gr 
% Polyline
n 8700 2400 m 3900 7200 l  gs col-1 s gr 
% Polyline
n 8100 2100 m 3000 7200 l  gs col-1 s gr 
% Polyline
n 7200 2100 m 2100 7200 l  gs col-1 s gr 
% Polyline
n 6300 2100 m 1500 6900 l  gs col-1 s gr 
% Polyline
n 5400 2100 m 1500 6000 l  gs col-1 s gr 
% Polyline
n 4500 2100 m 1500 5100 l  gs col-1 s gr 
% Polyline
n 3600 2100 m 1500 4200 l  gs col-1 s gr 
% Polyline
n 2700 2100 m 1500 3300 l  gs col-1 s gr 
% Polyline
n 1800 2100 m 1500 2400 l  gs col-1 s gr 
% Polyline
n 8850 2850 m 8925 2850 l  8925 2625 l  8850 2625 l  clp  gs col-1 s gr 
% Polyline
n 8850 6675 m 8925 6675 l  8925 6450 l  8850 6450 l  clp  gs col-1 s gr 
/Times-Roman findfont 300.00 scalefont setfont
4350 8100 m
gs 1 -1 sc (220 cm) col-1 show gr
/Times-Roman findfont 300.00 scalefont setfont
9600 3075 m
gs 1 -1 sc (+HV) col-1 show gr
/Times-Roman findfont 300.00 scalefont setfont
9600 5925 m
gs 1 -1 sc (-HV) col-1 show gr
/Times-Roman findfont 300.00 scalefont setfont
4950 1425 m
gs 1 -1 sc (Internal spacers) col-1 show gr
/Times-Roman findfont 300.00 scalefont setfont
9450 4425 m
gs 1 -1 sc (Conducting Ink) col-1 show gr
/Times-Roman findfont 300.00 scalefont setfont
9525 2550 m
gs 1 -1 sc (Gas input) col-1 show gr
$F2psEnd
restore
