%!PS-Adobe-2.0 EPSF-2.0
%%BoundingBox: 0 0 567 567
%%Title: /data02/moduletest.kek/Figure/fig970522/psfiles.m03
%%Creator: HIGZ Version 1.23/07
%%CreationDate: 97/09/12   17.58
%%EndComments
%%BeginProlog
80 dict begin
/s {stroke} def /l {lineto} def /m {moveto} def /t {translate} def
/sw {stringwidth} def /r {rotate} def /rl {roll}  def /R {repeat} def
/d {rlineto} def /rm {rmoveto} def /gr {grestore} def /f {eofill} def
/c {setrgbcolor} def /lw {setlinewidth} def /sd {setdash} def
/cl {closepath} def /sf {scalefont setfont} def /black {0 setgray} def
/box {m dup 0 exch d exch 0 d 0 exch neg d cl} def
/NC{systemdict begin initclip end}def/C{NC box clip newpath}def
/bl {box s} def /bf {box f} def /Y { 0 exch d} def /X { 0 d} def 
/mp {newpath /y exch def /x exch def} def
/side {[w .77 mul w .23 mul] .385 w mul sd w 0 l currentpoint t -144 r} def
/mr {mp x y w2 0 360 arc} def /m24 {mr s} def /m20 {mr f} def
/mb {mp x y w2 add m w2 neg 0 d 0 w neg d w 0 d 0 w d cl} def
/mt {mp x y w2 add m w2 neg w neg d w 0 d cl} def
/m21 {mb f} def /m25 {mb s} def /m22 {mt f} def /m26{mt s} def
/m23 {mp x y w2 sub m w2 w d w neg 0 d cl f} def
/m27 {mp x y w2 add m w3 neg w2 neg d w3 w2 neg d w3 w2 d cl s} def
/m28 {mp x w2 sub y w2 sub w3 add m w3 0 d 0 w3 neg d w3 0 d 0 w3 d w3 0 d
 0 w3 d w3 neg 0 d 0 w3 d w3 neg 0 d
 0 w3 neg d w3 neg 0 d cl s } def
/m29 {mp gsave x w2 sub y w2 add w3 sub m currentpoint t
 4 {side} repeat cl fill gr} def
/m30 {mp gsave x w2 sub y w2 add w3 sub m currentpoint t
 5 {side} repeat s gr} def
/m31 {mp x y w2 sub m 0 w d x w2 sub y m w 0 d
 x w2 sub y w2 add m w w neg d x w2 sub y w2
 sub m w w d s} def
/m2 {mp x y w2 sub m 0 w d x w2 sub y m w 0 d s} def
/m5 {mp x w2 sub y w2 sub m w w d x w2 sub y w2 add m w w neg d s} def
/DP {/PT exch def gsave 47.2 47.2 scale PT 1  eq { 16 16 1 [ 16 0 0 16 neg 0 16
] { < AA AA 55 55 AA AA 55 55 AA AA 55 55 AA AA 55 55 AA AA 55 55 AA AA 55 55
AA AA 55 55 AA AA 55 55 > } image } if PT 2 eq { 16 16 1 [ 16 0 0 16 neg 0 16
] { < BB BB EE EE BB BB EE EE BB BB EE EE BB BB EE EE BB BB EE EE BB BB EE EE
BB BB EE EE BB BB EE EE > } image } if PT 3 eq { 16 16 1 [ 16 0 0 16 neg 0 16
] { < FF FF BB BB FF FF EE EE FF FF BB BB FF FF EE EE FF FF BB BB FF FF EE EE
FF FF BB BB FF FF EE EE > } image } if PT 4 eq { 16 16 1 [ 16 0 0 16 neg 0 16
] { < DF DF BF BF 7F 7F FE FE FD FD FB FB F7 F7 EF EF DF DF BF BF 7F 7F FE FE
FD FD FB FB F7 F7 EF EF > } image } if PT 5 eq { 16 16 1 [ 16 0 0 16 neg 0 16
] { < 7F 7F BF B F DF DF EF EF F7 F7 FB FB FD FD FE FE 7F 7F BF BF DF DF EF
EF F7 F7 FB FB FD FD FE FE > } image } if PT 6 eq { 16 16 1 [ 16 0 0 16 neg 0
16 ] { < BB BB BB BB BB BB BB BB BB BB BB BB BB BB BB BB BB BB BB BB BB BB BB
BB BB BB BB BB BB BB BB BB > } image } if PT 7 eq { 16 16 1 [ 16 0 0 16 neg 0
16 ] { < FF FF FF FF FF FF 00 00 FF FF FF FF FF FF 00 00 FF FF FF FF FF FF 00
00 FF FF FF FF FF FF 00 00 > } image } if PT 8 eq { 16 16 1 [ 16 0 0 16 neg 0
16 ] { < EE EE 47 47 83 83 C5 C5 EE EE 5C 5C 38 38 74 74 EE EE 47 47 83 83 C5
C5 EE EE 5C 5C 38 38 74 74 > } image } if PT 9 eq { 16 16 1 [ 16 0 0 16 neg 0
16 ] { < EF EF EF EF D7 D7 38 38 FE FE FE FE 7D 7D 83 83 EF EF EF EF D7 D7 38
38  FE FE FE FE 7D 7D 83 83 > } image } if PT 10 eq { 16 16 1 [ 16 0 0 16 neg
0 16 ] { <  EF EF EF EF EF EF 00 00 FE FE FE FE FE FE 00 00 EF EF EF EF EF EF
00 00 FE FE FE FE FE FE 00 00 > } image } if PT 11 eq { 16 16 1 [ 16 0 0 16
neg 0 16 ] { < F7 F7 B6 B6 D5 D5 E3 E3 D5 D5 B6 B6 F7 F7 FF FF 7F 7F 6B 6B 5D
5D 3E 3E 5D 5D 6B 6B 7F 7F FF FF > } image } if PT 12 eq { 16 16 1 [ 16 0 0
16 neg 0 16 ] { < E3 E3 DD DD BE BE BE BE BE BE DD DD E3 E3 FF FF 3E 3E DD DD
EB EB EB EB EB EB DD DD 3E 3E FF FF > } image } if PT 13 eq { 16 16 1 [ 16 0
0 16 neg 0 16 ] { <  FE FE 7D 7D BB BB D7 D7 EF EF D7 D7 BB BB 7D 7D FE FE 7D
7D BB BB D7 D7 EF EF D7 D7 BB BB 7D 7D > } image } if PT 14 eq { 16 16 1 [ 16
0 0 16 neg 0 16 ] { < 00 00 EE EF EE EF EE EF 0E E0 EE EE EE EE EE EE 00 EE
FE EE FE EE FE EE 00 00 FE EF FE EF FE EF > } image } if PT 15 eq { 16 16 1 [
16 0 0 16 neg 0 16 ] { < DD DD AA AA DD DD FF FF 77 77 AA AA 77 77 FF FF DD
DD AA AA DD DD FF FF 77 77 AA AA 77 77 FF FF > } image } if PT 16 eq { 16 16
1 [ 16 0 0 16 neg 0 16 ] { <  F1 F1 EE EE 1F 1F FF FF F1 F1 EE EE 1F 1F FF FF
F1 F1 EE EE 1F 1F FF FF F1 F1 EE EE 1F 1F FF FF > } image } if PT 17 eq { 16
16 1 [ 16 0 0 16 neg 0 16 ] { <  EE EE DD DD BB BB FF FF EE EE DD DD BB BB FF
 FF EE EE DD DD BB BB FF FF EE EE DD DD BB BB FF FF > } image } if PT 18 eq {
16 16 1 [ 16 0 0 16 neg 0 16 ] { <  BB BB DD DD EE EE FF FF BB BB DD DD EE EE
FF FF BB BB DD DD EE EE FF FF BB BB DD DD EE EE FF FF > } image } if PT 19 eq
{ 16 16 1 [ 16 0 0 16 neg 0 16 ] { < 1F FC 67 F3 7B EF BD DE BD DE DE BD E6
B3 F8 0F E6 B3 DE BD BD DE BD DE 7B EF 67 F3 1F FC 7F FF > } image } if PT
20 eq { 16 16 1 [ 16 0 0 16 neg 0 16 ] { < DD DD EE EE EE EE EE EE DD DD BB
BB BB BB BB BB DD DD EE EE EE EE EE EE DD DD BB BB BB BB BB BB > } image }
if PT 21 eq { 16 16 1 [ 16 0 0 16 neg 0 16 ] { < 0E 0E EF EF EF EF EF EF E0
E0 FE FE FE FE FE FE 0E 0E EF EF EF EF EF EF E0 E0 FE FE FE FE FE FE > }
image }  if PT 22 eq { 16 16 1 [ 16 0 0 16 neg 0 16 ] { < 70 70 F7 F7 F7 F7 F7
F7 07 07 7F 7F 7F 7F 7F 7F 70 70 F7 F7 F7 F7 F7 F7 07 07 7F 7F 7F 7F 7F 7F >
} image } if PT 23 eq  { 16 16 1 [ 16 0 0 16 neg 0 16 ] { < AA AA 55 55 A9 A9
D1 D1 E1 E1 D1 D1 A9 A9 55 55 AA AA 55 55 A9 A9 D1 D1 E1 E1 D1 D1 A9 A9 55 55
> } image } if PT 24 eq { 16 16 1 [ 16 0 0 16 neg 0 16 ] { < FF FE FF FC EA
A8 D5 54 EA A8 D5 54 E8 28 D4 54 E8 E8 D4 D4 E8 EA 54 D5 A8 EA 54 D5 00 C0 00
80 > } image } if PT 25 eq {  16 16 1 [ 16 0 0 16 neg 0 16 ] { < FF FE FF FC
FF F8 FF F0 F0 00 F0 00 F0 20 F0 60 F0 E0 F1 E0 F3 E0 F0 00 E0 00 C0 00 80 00
00 00 > } image } if gr } def /FA { /PT exch def gsave clip 0 0 translate 1 1
54 { 1 sub 47.2 mul /Xcurr exch def 1 1 74 { 1 sub 47.2 mul /Ycurr exch def
gsave Xcurr Ycurr translate PT DP gr } for } for gr } def
/reencdict 24 dict def /ReEncode {reencdict begin /nco&na exch def
/nfnam exch def /basefontname exch def /basefontdict basefontname findfont def
/newfont basefontdict maxlength dict def basefontdict {exch dup /FID ne
{dup /Encoding eq {exch dup length array copy newfont 3 1 roll put} {exch
newfont 3 1 roll put} ifelse} {pop pop} ifelse } forall newfont
/FontName nfnam put nco&na aload pop nco&na length 2 idiv {newfont
/Encoding get 3 1 roll put} repeat nfnam newfont definefont pop end } def
/accvec [ 176 /agrave 181 /Agrave 190 /acircumflex 192 /Acircumflex
201 /adieresis 204 /Adieresis 209 /ccedilla 210 /Ccedilla 211 /eacute
212 /Eacute 213 /egrave 214 /Egrave 215 /ecircumflex 216 /Ecircumflex
217 /edieresis 218 /Edieresis 219 /icircumflex 220 /Icircumflex
221 /idieresis 222 /Idieresis 223 /ntilde 224 /Ntilde 226 /ocircumflex
228 /Ocircumflex 229 /odieresis 230 /Odieresis 231 /ucircumflex 236 /Ucircumflex
237 /udieresis 238 /Udieresis 239 /aring 242 /Aring 243 /ydieresis
244 /Ydieresis 246 /aacute 247 /Aacute 252 /ugrave 253 /Ugrave] def
/Times-Roman /Times-Roman accvec ReEncode
/Times-Italic /Times-Italic accvec ReEncode
/Times-Bold /Times-Bold accvec ReEncode
/Times-BoldItalic /Times-BoldItalic accvec ReEncode
/Helvetica /Helvetica accvec ReEncode
/Helvetica-Oblique /Helvetica-Oblique accvec ReEncode
/Helvetica-Bold /Helvetica-Bold accvec ReEncode
/Helvetica-BoldOblique /Helvetica-BoldOblique  accvec ReEncode
/Courier /Courier accvec ReEncode
/Courier-Oblique /Courier-Oblique accvec ReEncode
/Courier-Bold /Courier-Bold accvec ReEncode
/Courier-BoldOblique /Courier-BoldOblique accvec ReEncode
/oshow {gsave [] 0 sd true charpath stroke gr} def
/stwn { /fs exch def /fn exch def /text exch def fn findfont fs sf
 text sw pop xs add /xs exch def} def
/stwb { /fs exch def /fn exch def /nbas exch def /textf exch def
textf length /tlen exch def nbas tlen gt {/nbas tlendef} if
fn findfont fs sf textf dup length nbas sub nbas getinterval sw
pop neg xs add /xs exch def} def
/accspe [ 65 /plusminus 66 /bar 67 /existential 68 /universal
69 /exclam 70 /numbersign 71 /greater 72 /question 73 /integral
74 /colon 75 /semicolon 76 /less 77 /bracketleft 78 /bracketright
79 /greaterequal 80 /braceleft 81 /braceright 82 /radical
83 /spade 84 /heart 85 /diamond 86 /club 87 /lessequal
88 /multiply 89 /percent 90 /infinity 48 /circlemultiply 49 /circleplus
50 /emptyset 51 /lozenge 52 /bullet 53 /arrowright 54 /arrowup
55 /arrowleft 56 /arrowdown 57 /arrowboth 48 /degree 44 /comma 43 /plus
 45 /angle 42 /angleleft 47 /divide 61 /notequal 40 /equivalence 41 /second
 97 /approxequal 98 /congruent 99 /perpendicular 100 /partialdiff 101 /florin
 102 /intersection 103 /union 104 /propersuperset 105 /reflexsuperset
 106 /notsubset 107 /propersubset 108 /reflexsubset 109 /element 110 /notelement
 111 /gradient 112 /logicaland 113 /logicalor 114 /arrowdblboth
 115 /arrowdblleft 116 /arrowdblup 117 /arrowdblright 118 /arrowdbldown
 119 /ampersand 120 /omega1 121 /similar 122 /aleph ] def
/Symbol /Special accspe ReEncode
%%EndProlog
 gsave  .25 .25 scale  gsave 0 0 t black [] 0 sd 1 lw 1724 1770 295 249 bl 1724
 1770 295 249 C NC 295 249 m 1770 Y s 329 249 m -34 X s [4 8] 0 sd 2019 249 m
 -1724 X s [] 0 sd 312 285 m -17 X s 312 320 m -17 X s 312 356 m -17 X s 312 391
 m -17 X s 329 426 m -34 X s [4 8] 0 sd 2019 426 m -1724 X s [] 0 sd 312 462 m
 -17 X s 312 497 m -17 X s 312 533 m -17 X s 312 568 m -17 X s 329 603 m -34 X s
 [4 8] 0 sd 2019 603 m -1724 X s [] 0 sd 312 639 m -17 X s 312 674 m -17 X s 312
 709 m -17 X s 312 745 m -17 X s 329 780 m -34 X s [4 8] 0 sd 2019 780 m -1724 X
 s [] 0 sd 312 816 m -17 X s 312 851 m -17 X s 312 886 m -17 X s 312 922 m -17 X
 s 329 957 m -34 X s [4 8] 0 sd 2019 957 m -1724 X s [] 0 sd 312 992 m -17 X s
 312 1028 m -17 X s 312 1063 m -17 X s 312 1099 m -17 X s 329 1134 m -34 X s
 [4 8] 0 sd 2019 1134 m -1724 X s [] 0 sd 312 1169 m -17 X s 312 1205 m -17 X s
 312 1240 m -17 X s 312 1276 m -17 X s 329 1311 m -34 X s [4 8] 0 sd 2019 1311 m
 -1724 X s [] 0 sd 312 1346 m -17 X s 312 1382 m -17 X s 312 1417 m -17 X s 312
 1452 m -17 X s 329 1488 m -34 X s [4 8] 0 sd 2019 1488 m -1724 X s [] 0 sd 312
 1523 m -17 X s 312 1559 m -17 X s 312 1594 m -17 X s 312 1629 m -17 X s 329
 1665 m -34 X s [4 8] 0 sd 2019 1665 m -1724 X s [] 0 sd 312 1700 m -17 X s 312
 1735 m -17 X s 312 1771 m -17 X s 312 1806 m -17 X s 329 1842 m -34 X s
 [4 8] 0 sd 2019 1842 m -1724 X s [] 0 sd 312 1877 m -17 X s 312 1912 m -17 X s
 312 1948 m -17 X s 312 1983 m -17 X s 329 2019 m -34 X s [4 8] 0 sd 2019 2019 m
 -1724 X s
 /xs 0 def 
(0)
 /Times-Italic    103 stwn 
 gsave  249 215
 t   0 r  xs neg 0 t 0 0 m
 /Times-Italic findfont  103 sf 0    0 m 
(0)
 show 
 gr 
 /xs 0 def 
(0.1)
 /Times-Italic    103 stwn 
 gsave  249 392
 t   0 r  xs neg 0 t 0 0 m
 /Times-Italic findfont  103 sf 0    0 m 
(0.1)
 show 
 gr 
 /xs 0 def 
(0.2)
 /Times-Italic    103 stwn 
 gsave  249 569
 t   0 r  xs neg 0 t 0 0 m
 /Times-Italic findfont  103 sf 0    0 m 
(0.2)
 show 
 gr 
 /xs 0 def 
(0.3)
 /Times-Italic    103 stwn 
 gsave  249 746
 t   0 r  xs neg 0 t 0 0 m
 /Times-Italic findfont  103 sf 0    0 m 
(0.3)
 show 
 gr 
 /xs 0 def 
(0.4)
 /Times-Italic    103 stwn 
 gsave  249 923
 t   0 r  xs neg 0 t 0 0 m
 /Times-Italic findfont  103 sf 0    0 m 
(0.4)
 show 
 gr 
 /xs 0 def 
(0.5)
 /Times-Italic    103 stwn 
 gsave  249 1100
 t   0 r  xs neg 0 t 0 0 m
 /Times-Italic findfont  103 sf 0    0 m 
(0.5)
 show 
 gr 
 /xs 0 def 
(0.6)
 /Times-Italic    103 stwn 
 gsave  249 1277
 t   0 r  xs neg 0 t 0 0 m
 /Times-Italic findfont  103 sf 0    0 m 
(0.6)
 show 
 gr 
 /xs 0 def 
(0.7)
 /Times-Italic    103 stwn 
 gsave  249 1454
 t   0 r  xs neg 0 t 0 0 m
 /Times-Italic findfont  103 sf 0    0 m 
(0.7)
 show 
 gr 
 /xs 0 def 
(0.8)
 /Times-Italic    103 stwn 
 gsave  249 1631
 t   0 r  xs neg 0 t 0 0 m
 /Times-Italic findfont  103 sf 0    0 m 
(0.8)
 show 
 gr 
 /xs 0 def 
(0.9)
 /Times-Italic    103 stwn 
 gsave  249 1808
 t   0 r  xs neg 0 t 0 0 m
 /Times-Italic findfont  103 sf 0    0 m 
(0.9)
 show 
 gr 
 /xs 0 def 
(1)
 /Times-Italic    103 stwn 
 gsave  249 1985
 t   0 r  xs neg 0 t 0 0 m
 /Times-Italic findfont  103 sf 0    0 m 
(1)
 show 
 gr  [] 0 sd 295 249 m 1724 X s 295 284 m -35 Y s [4 8] 0 sd 295 2019 m -1770 Y
 s [] 0 sd 356 266 m -17 Y s 418 266 m -17 Y s 480 266 m -17 Y s 541 284 m -35 Y
 s [4 8] 0 sd 541 2019 m -1770 Y s [] 0 sd 603 266 m -17 Y s 664 266 m -17 Y s
 726 266 m -17 Y s 787 284 m -35 Y s [4 8] 0 sd 787 2019 m -1770 Y s [] 0 sd 849
 266 m -17 Y s 910 266 m -17 Y s 972 266 m -17 Y s 1034 284 m -35 Y s [4 8] 0 sd
 1034 2019 m -1770 Y s [] 0 sd 1095 266 m -17 Y s 1157 266 m -17 Y s 1218 266 m
 -17 Y s 1280 284 m -35 Y s [4 8] 0 sd 1280 2019 m -1770 Y s [] 0 sd 1341 266 m
 -17 Y s 1403 266 m -17 Y s 1464 266 m -17 Y s 1526 284 m -35 Y s [4 8] 0 sd
 1526 2019 m -1770 Y s [] 0 sd 1588 266 m -17 Y s 1649 266 m -17 Y s 1711 266 m
 -17 Y s 1772 284 m -35 Y s [4 8] 0 sd 1772 2019 m -1770 Y s [] 0 sd 1834 266 m
 -17 Y s 1895 266 m -17 Y s 1957 266 m -17 Y s 2019 284 m -35 Y s [4 8] 0 sd
 2019 2019 m -1770 Y s
 /xs 0 def 
(3.4)
 /Times-Italic    103 stwn 
 gsave  295 159
 t   0 r  xs 2 div neg 0 t 0 0 m
 /Times-Italic findfont  103 sf 0    0 m 
(3.4)
 show 
 gr 
 /xs 0 def 
(3.6)
 /Times-Italic    103 stwn 
 gsave  541 159
 t   0 r  xs 2 div neg 0 t 0 0 m
 /Times-Italic findfont  103 sf 0    0 m 
(3.6)
 show 
 gr 
 /xs 0 def 
(3.8)
 /Times-Italic    103 stwn 
 gsave  787 159
 t   0 r  xs 2 div neg 0 t 0 0 m
 /Times-Italic findfont  103 sf 0    0 m 
(3.8)
 show 
 gr 
 /xs 0 def 
(4)
 /Times-Italic    103 stwn 
 gsave  1034 159
 t   0 r  xs 2 div neg 0 t 0 0 m
 /Times-Italic findfont  103 sf 0    0 m 
(4)
 show 
 gr 
 /xs 0 def 
(4.2)
 /Times-Italic    103 stwn 
 gsave  1280 159
 t   0 r  xs 2 div neg 0 t 0 0 m
 /Times-Italic findfont  103 sf 0    0 m 
(4.2)
 show 
 gr 
 /xs 0 def 
(4.4)
 /Times-Italic    103 stwn 
 gsave  1526 159
 t   0 r  xs 2 div neg 0 t 0 0 m
 /Times-Italic findfont  103 sf 0    0 m 
(4.4)
 show 
 gr 
 /xs 0 def 
(4.6)
 /Times-Italic    103 stwn 
 gsave  1772 159
 t   0 r  xs 2 div neg 0 t 0 0 m
 /Times-Italic findfont  103 sf 0    0 m 
(4.6)
 show 
 gr 
 /xs 0 def 
(4.8)
 /Times-Italic    103 stwn 
 gsave  2019 159
 t   0 r  xs 2 div neg 0 t 0 0 m
 /Times-Italic findfont  103 sf 0    0 m 
(4.8)
 show 
 gr  1724 1770 295 249 C NC [] 0 sd 2019 249 m 1770 Y s 1985 249 m 34 X s 2002
 285 m 17 X s 2002 320 m 17 X s 2002 356 m 17 X s 2002 391 m 17 X s 1985 426 m
 34 X s 2002 462 m 17 X s 2002 497 m 17 X s 2002 533 m 17 X s 2002 568 m 17 X s
 1985 603 m 34 X s 2002 639 m 17 X s 2002 674 m 17 X s 2002 709 m 17 X s 2002
 745 m 17 X s 1985 780 m 34 X s 2002 816 m 17 X s 2002 851 m 17 X s 2002 886 m
 17 X s 2002 922 m 17 X s 1985 957 m 34 X s 2002 992 m 17 X s 2002 1028 m 17 X s
 2002 1063 m 17 X s 2002 1099 m 17 X s 1985 1134 m 34 X s 2002 1169 m 17 X s
 2002 1205 m 17 X s 2002 1240 m 17 X s 2002 1276 m 17 X s 1985 1311 m 34 X s
 2002 1346 m 17 X s 2002 1382 m 17 X s 2002 1417 m 17 X s 2002 1452 m 17 X s
 1985 1488 m 34 X s 2002 1523 m 17 X s 2002 1559 m 17 X s 2002 1594 m 17 X s
 2002 1629 m 17 X s 1985 1665 m 34 X s 2002 1700 m 17 X s 2002 1735 m 17 X s
 2002 1771 m 17 X s 2002 1806 m 17 X s 1985 1842 m 34 X s 2002 1877 m 17 X s
 2002 1912 m 17 X s 2002 1948 m 17 X s 2002 1983 m 17 X s 1985 2019 m 34 X s 295
 2019 m 1724 X s 295 1985 m 34 Y s 356 2002 m 17 Y s 418 2002 m 17 Y s 480 2002
 m 17 Y s 541 1985 m 34 Y s 603 2002 m 17 Y s 664 2002 m 17 Y s 726 2002 m 17 Y
 s 787 1985 m 34 Y s 849 2002 m 17 Y s 910 2002 m 17 Y s 972 2002 m 17 Y s 1034
 1985 m 34 Y s 1095 2002 m 17 Y s 1157 2002 m 17 Y s 1218 2002 m 17 Y s 1280
 1985 m 34 Y s 1341 2002 m 17 Y s 1403 2002 m 17 Y s 1464 2002 m 17 Y s 1526
 1985 m 34 Y s 1588 2002 m 17 Y s 1649 2002 m 17 Y s 1711 2002 m 17 Y s 1772
 1985 m 34 Y s 1834 2002 m 17 Y s 1895 2002 m 17 Y s 1957 2002 m 17 Y s 2019
 1985 m 34 Y s 1724 1770 295 249 C 664 602 m 123 249 d 123 341 d 124 469 d 123
 276 d 123 55 d 123 10 d 123 2 d 123 1 d 123 X s /w 33
 def /w2 {w 2 div} def /w3 {w 3 div} def 664 602 787 851 910 1192 1034 1661 1157
 1937 1280 1992 1403 2002 1526 2004 1649 2005 1772 2005 10 { m21} R 664 506 m
 123 177 d 123 238 d 124 370 d 123 354 d 123 162 d 123 49 d 123 21 d 123 6 d 123
 9 d s 664 506 787 683 910 921 1034 1291 1157 1645 1280 1807 1403 1856 1526 1877
 1649 1883 1772 1892 10 { m22} R 664 383 m 123 183 d 123 248 d 124 365 d 123 430
 d 123 199 d 123 55 d 123 20 d 123 13 d 123 5 d s 664 383 787 566 910 814 1034
 1179 1157 1609 1280 1808 1403 1863 1526 1883 1649 1896 1772 1901 10 { m23} R
 2268 2268 0 0 C
 /xs 0 def 
(HV \( kV/mm \))
 /Times-Italic    103 stwn 
 gsave  2019 68
 t   0 r  xs neg 0 t 0 0 m
 /Times-Italic findfont  103 sf 0    0 m 
(HV \( kV/mm \))
 show 
 gr 
 /xs 0 def 
(Efficiency)
 /Times-Italic    103 stwn 
 gsave  91 2019
 t  90 r  xs neg 0 t 0 0 m
 /Times-Italic findfont  103 sf 0    0 m 
(Efficiency)
 show 
 gr  /w 32 def /w2 {w 2 div} def /w3 {w 3 div} def 381 1877 m21
 gsave  445 1843
 t   0 r 0 0 m
 /Times-Italic findfont  103 sf 0    0 m 
(Super)
 show 
 gr  381 1789 m22
 gsave  445 1755
 t   0 r 0 0 m
 /Times-Italic findfont  103 sf 0    0 m 
(Top)
 show 
 gr  381 1700 m23
 gsave  445 1666
 t   0 r 0 0 m
 /Times-Italic findfont  103 sf 0    0 m 
(Bottom)
 show 
 gr  1724 1770 295 249 C
 gr  gr 
showpage
end
%%EOF
