%!PS-Adobe-2.0 EPSF-2.0
%%Title: gas_supply.eps
%%Creator: fig2dev Version 3.2 Patchlevel 0-beta3
%%CreationDate: Wed Sep 22 12:14:18 1999
%%For: abez@bwgklm (ABE Kazuo)
%%Orientation: Portrait
%%BoundingBox: 0 0 654 554
%%Pages: 0
%%BeginSetup
%%EndSetup
%%Magnification: 1.0000
%%EndComments
/$F2psDict 200 dict def
$F2psDict begin
$F2psDict /mtrx matrix put
/col-1 {0 setgray} bind def
/col0 {0.000 0.000 0.000 srgb} bind def
/col1 {0.000 0.000 1.000 srgb} bind def
/col2 {0.000 1.000 0.000 srgb} bind def
/col3 {0.000 1.000 1.000 srgb} bind def
/col4 {1.000 0.000 0.000 srgb} bind def
/col5 {1.000 0.000 1.000 srgb} bind def
/col6 {1.000 1.000 0.000 srgb} bind def
/col7 {1.000 1.000 1.000 srgb} bind def
/col8 {0.000 0.000 0.560 srgb} bind def
/col9 {0.000 0.000 0.690 srgb} bind def
/col10 {0.000 0.000 0.820 srgb} bind def
/col11 {0.530 0.810 1.000 srgb} bind def
/col12 {0.000 0.560 0.000 srgb} bind def
/col13 {0.000 0.690 0.000 srgb} bind def
/col14 {0.000 0.820 0.000 srgb} bind def
/col15 {0.000 0.560 0.560 srgb} bind def
/col16 {0.000 0.690 0.690 srgb} bind def
/col17 {0.000 0.820 0.820 srgb} bind def
/col18 {0.560 0.000 0.000 srgb} bind def
/col19 {0.690 0.000 0.000 srgb} bind def
/col20 {0.820 0.000 0.000 srgb} bind def
/col21 {0.560 0.000 0.560 srgb} bind def
/col22 {0.690 0.000 0.690 srgb} bind def
/col23 {0.820 0.000 0.820 srgb} bind def
/col24 {0.500 0.190 0.000 srgb} bind def
/col25 {0.630 0.250 0.000 srgb} bind def
/col26 {0.750 0.380 0.000 srgb} bind def
/col27 {1.000 0.500 0.500 srgb} bind def
/col28 {1.000 0.630 0.630 srgb} bind def
/col29 {1.000 0.750 0.750 srgb} bind def
/col30 {1.000 0.880 0.880 srgb} bind def
/col31 {1.000 0.840 0.000 srgb} bind def

end
save
-31.0 572.0 translate
1 -1 scale

/cp {closepath} bind def
/ef {eofill} bind def
/gr {grestore} bind def
/gs {gsave} bind def
/sa {save} bind def
/rs {restore} bind def
/l {lineto} bind def
/m {moveto} bind def
/rm {rmoveto} bind def
/n {newpath} bind def
/s {stroke} bind def
/sh {show} bind def
/slc {setlinecap} bind def
/slj {setlinejoin} bind def
/slw {setlinewidth} bind def
/srgb {setrgbcolor} bind def
/rot {rotate} bind def
/sc {scale} bind def
/sd {setdash} bind def
/ff {findfont} bind def
/sf {setfont} bind def
/scf {scalefont} bind def
/sw {stringwidth} bind def
/tr {translate} bind def
/tnt {dup dup currentrgbcolor
  4 -2 roll dup 1 exch sub 3 -1 roll mul add
  4 -2 roll dup 1 exch sub 3 -1 roll mul add
  4 -2 roll dup 1 exch sub 3 -1 roll mul add srgb}
  bind def
/shd {dup dup currentrgbcolor 4 -2 roll mul 4 -2 roll mul
  4 -2 roll mul srgb} bind def
 /DrawEllipse {
	/endangle exch def
	/startangle exch def
	/yrad exch def
	/xrad exch def
	/y exch def
	/x exch def
	/savematrix mtrx currentmatrix def
	x y tr xrad yrad sc 0 0 1 startangle endangle arc
	closepath
	savematrix setmatrix
	} def

/$F2psBegin {$F2psDict begin /$F2psEnteredState save def} def
/$F2psEnd {$F2psEnteredState restore end} def
%%EndProlog

$F2psBegin
10 setmiterlimit
n -1000 10525 m -1000 -1000 l 12411 -1000 l 12411 10525 l cp clip
 0.06000 0.06000 sc
15.000 slw
% Ellipse
n 6300 1426 146 146 0 360 DrawEllipse gs col-1 s gr

% Polyline
2 slj
n 6224 1538 m 6375 1294 l gs col-1 s gr 
% Polyline
n 6206 1332 m 6394 1520 l gs col-1 s gr 
% Ellipse
n 6301 1801 146 146 0 360 DrawEllipse gs col-1 s gr

% Polyline
n 6225 1913 m 6376 1669 l gs col-1 s gr 
% Polyline
n 6207 1707 m 6395 1895 l gs col-1 s gr 
% Ellipse
n 6301 2251 146 146 0 360 DrawEllipse gs col-1 s gr

% Polyline
n 6225 2363 m 6376 2119 l gs col-1 s gr 
% Polyline
n 6207 2157 m 6395 2345 l gs col-1 s gr 
% Polyline
0 slj
n 6724 1202 m 6946 1202 l 6946 1426 l 6724 1426 l cp gs col-1 s gr 
% Polyline
n 6634 1426 m 7035 1426 l 7035 1471 l 6634 1471 l cp gs col-1 s gr 
% Polyline
n 6724 1605 m 6946 1605 l 6946 1828 l 6724 1828 l cp gs col-1 s gr 
% Polyline
n 6634 1828 m 7035 1828 l 7035 1872 l 6634 1872 l cp gs col-1 s gr 
% Polyline
n 6724 2007 m 6946 2007 l 6946 2230 l 6724 2230 l cp gs col-1 s gr 
% Polyline
n 6634 2230 m 7035 2230 l 7035 2275 l 6634 2275 l cp gs col-1 s gr 
% Polyline
n 6691 7088 m 6913 7088 l 6913 7311 l 6691 7311 l cp gs col-1 s gr 
% Polyline
n 6601 7311 m 7003 7311 l 7003 7356 l 6601 7356 l cp gs col-1 s gr 
% Polyline
n 6691 7491 m 6913 7491 l 6913 7713 l 6691 7713 l cp gs col-1 s gr 
% Polyline
n 6601 7713 m 7003 7713 l 7003 7758 l 6601 7758 l cp gs col-1 s gr 
% Polyline
n 6691 7892 m 6913 7892 l 6913 8117 l 6691 8117 l cp gs col-1 s gr 
% Polyline
n 6601 8117 m 7003 8117 l 7003 8161 l 6601 8161 l cp gs col-1 s gr 
% Polyline
n 6691 5229 m 6913 5229 l 6913 5453 l 6691 5453 l cp gs col-1 s gr 
% Polyline
n 6601 5453 m 7003 5453 l 7003 5498 l 6601 5498 l cp gs col-1 s gr 
% Polyline
n 6691 5632 m 6913 5632 l 6913 5855 l 6691 5855 l cp gs col-1 s gr 
% Polyline
n 6601 5855 m 7003 5855 l 7003 5899 l 6601 5899 l cp gs col-1 s gr 
% Polyline
n 6691 6034 m 6913 6034 l 6913 6257 l 6691 6257 l cp gs col-1 s gr 
% Polyline
n 6601 6257 m 7003 6257 l 7003 6302 l 6601 6302 l cp gs col-1 s gr 
% Polyline
n 6691 3138 m 6913 3138 l 6913 3361 l 6691 3361 l cp gs col-1 s gr 
% Polyline
n 6601 3361 m 7003 3361 l 7003 3407 l 6601 3407 l cp gs col-1 s gr 
% Polyline
n 6691 3541 m 6913 3541 l 6913 3764 l 6691 3764 l cp gs col-1 s gr 
% Polyline
n 6601 3764 m 7003 3764 l 7003 3808 l 6601 3808 l cp gs col-1 s gr 
% Polyline
n 6691 3942 m 6913 3942 l 6913 4167 l 6691 4167 l cp gs col-1 s gr 
% Polyline
n 6601 4167 m 7003 4167 l 7003 4211 l 6601 4211 l cp gs col-1 s gr 
% Polyline
2 slj
n 7050 1425 m 7800 1425 l gs col-1 s gr 
% Polyline
n 7050 1875 m 7800 1875 l gs col-1 s gr 
% Polyline
n 7050 2250 m 7800 2250 l gs col-1 s gr 
% Polyline
n 7800 1425 m 7800 2250 l gs col-1 s gr 
% Polyline
n 6450 1425 m 6600 1425 l gs col-1 s gr 
% Polyline
n 6450 1800 m 6600 1800 l gs col-1 s gr 
% Polyline
n 6450 2250 m 6600 2250 l gs col-1 s gr 
% Ellipse
n 6300 3376 146 146 0 360 DrawEllipse gs col-1 s gr

% Polyline
n 6224 3488 m 6375 3244 l gs col-1 s gr 
% Polyline
n 6206 3282 m 6394 3470 l gs col-1 s gr 
% Ellipse
n 6301 3751 146 146 0 360 DrawEllipse gs col-1 s gr

% Polyline
n 6225 3863 m 6376 3619 l gs col-1 s gr 
% Polyline
n 6207 3657 m 6395 3845 l gs col-1 s gr 
% Ellipse
n 6301 4200 146 146 0 360 DrawEllipse gs col-1 s gr

% Polyline
n 6225 4312 m 6376 4068 l gs col-1 s gr 
% Polyline
n 6207 4106 m 6395 4294 l gs col-1 s gr 
% Ellipse
n 6301 5400 146 146 0 360 DrawEllipse gs col-1 s gr

% Polyline
n 6225 5512 m 6376 5268 l gs col-1 s gr 
% Polyline
n 6207 5306 m 6395 5494 l gs col-1 s gr 
% Ellipse
n 6301 5850 146 146 0 360 DrawEllipse gs col-1 s gr

% Polyline
n 6225 5962 m 6376 5718 l gs col-1 s gr 
% Polyline
n 6207 5756 m 6395 5944 l gs col-1 s gr 
% Ellipse
n 6301 6300 146 146 0 360 DrawEllipse gs col-1 s gr

% Polyline
n 6225 6412 m 6376 6168 l gs col-1 s gr 
% Polyline
n 6207 6206 m 6395 6394 l gs col-1 s gr 
% Ellipse
n 6301 7275 146 146 0 360 DrawEllipse gs col-1 s gr

% Polyline
n 6225 7387 m 6376 7143 l gs col-1 s gr 
% Polyline
n 6207 7181 m 6395 7369 l gs col-1 s gr 
% Ellipse
n 6301 7725 146 146 0 360 DrawEllipse gs col-1 s gr

% Polyline
n 6225 7837 m 6376 7593 l gs col-1 s gr 
% Polyline
n 6207 7631 m 6395 7819 l gs col-1 s gr 
% Ellipse
n 6301 8175 146 146 0 360 DrawEllipse gs col-1 s gr

% Polyline
n 6225 8287 m 6376 8043 l gs col-1 s gr 
% Polyline
n 6207 8081 m 6395 8269 l gs col-1 s gr 
% Ellipse
n 9075 1876 146 146 0 360 DrawEllipse gs col-1 s gr

% Polyline
n 8999 1988 m 9150 1744 l gs col-1 s gr 
% Polyline
n 8981 1782 m 9169 1970 l gs col-1 s gr 
% Ellipse
n 9151 3826 146 146 0 360 DrawEllipse gs col-1 s gr

% Polyline
n 9075 3938 m 9226 3694 l gs col-1 s gr 
% Polyline
n 9057 3732 m 9245 3920 l gs col-1 s gr 
% Ellipse
n 9150 5851 146 146 0 360 DrawEllipse gs col-1 s gr

% Polyline
n 9074 5963 m 9225 5719 l gs col-1 s gr 
% Polyline
n 9056 5757 m 9244 5945 l gs col-1 s gr 
% Ellipse
n 9150 7726 146 146 0 360 DrawEllipse gs col-1 s gr

% Polyline
n 9074 7838 m 9225 7594 l gs col-1 s gr 
% Polyline
n 9056 7632 m 9244 7820 l gs col-1 s gr 
% Ellipse
n 2527 3768 101 101 0 360 DrawEllipse gs col-1 s gr

% Polyline
n 2475 3845 m 2578 3677 l gs col-1 s gr 
% Polyline
n 2462 3703 m 2591 3833 l gs col-1 s gr 
% Ellipse
n 2940 3768 101 101 0 360 DrawEllipse gs col-1 s gr

% Polyline
n 2888 3845 m 2993 3677 l gs col-1 s gr 
% Polyline
n 2876 3703 m 3006 3833 l gs col-1 s gr 
% Ellipse
n 2106 3503 98 98 0 360 DrawEllipse gs col-1 s gr

% Polyline
n 2069 3539 m 2155 3430 l 2142 3442 l gs col-1 s gr 
% Ellipse
n 3400 3503 98 98 0 360 DrawEllipse gs col-1 s gr

% Polyline
n 3363 3539 m 3448 3430 l 3436 3442 l gs col-1 s gr 
% Polyline
n 2112 3767 m 2422 3767 l gs col-1 s gr 
% Polyline
n 3043 3767 m 3354 3767 l gs col-1 s gr 
% Polyline
n 2630 3767 m 2837 3767 l gs col-1 s gr 
% Polyline
n 2112 3612 m 2215 3767 l gs col-1 s gr 
% Polyline
n 3250 3767 m 3354 3612 l gs col-1 s gr 
% Polyline
n 2733 3767 m 2733 3353 l gs col-1 s gr 
% Polyline
n 2733 3353 m 3665 3353 l gs col-1 s gr 
% Polyline
n 3716 3302 m 4234 3302 l 4234 3405 l 3716 3405 l cp gs col-1 s gr 
% Polyline
0 slj
7.500 slw
n 3298 4388 m 3306 4388 l gs col-1 s gr
% Polyline
2 slj
15.000 slw
n 1979 3922 m 1904 3922 1904 4675 75 arcto 4 {pop} repeat
  1904 4750 2243 4750 75 arcto 4 {pop} repeat
  2318 4750 2318 3997 75 arcto 4 {pop} repeat
  2318 3922 1979 3922 75 arcto 4 {pop} repeat
 cp gs col-1 s gr 
% Polyline
n 1801 4750 m 2422 4750 l 2422 4802 l 1801 4802 l cp gs col-1 s gr 
% Polyline
n 3222 3922 m 3147 3922 3147 4675 75 arcto 4 {pop} repeat
  3147 4750 3485 4750 75 arcto 4 {pop} repeat
  3560 4750 3560 3997 75 arcto 4 {pop} repeat
  3560 3922 3222 3922 75 arcto 4 {pop} repeat
 cp gs col-1 s gr 
% Polyline
n 3043 4750 m 3664 4750 l 3664 4802 l 3043 4802 l cp gs col-1 s gr 
% Polyline
n 2112 3767 m 2112 3922 l gs col-1 s gr 
% Polyline
n 3353 3767 m 3353 3922 l gs col-1 s gr 
% Ellipse
n 2527 6468 101 101 0 360 DrawEllipse gs col-1 s gr

% Polyline
n 2475 6545 m 2578 6377 l gs col-1 s gr 
% Polyline
n 2462 6403 m 2591 6533 l gs col-1 s gr 
% Ellipse
n 2940 6468 101 101 0 360 DrawEllipse gs col-1 s gr

% Polyline
n 2888 6545 m 2993 6377 l gs col-1 s gr 
% Polyline
n 2876 6403 m 3006 6533 l gs col-1 s gr 
% Ellipse
n 2106 6203 98 98 0 360 DrawEllipse gs col-1 s gr

% Polyline
n 2069 6239 m 2155 6130 l 2142 6142 l gs col-1 s gr 
% Ellipse
n 3400 6203 98 98 0 360 DrawEllipse gs col-1 s gr

% Polyline
n 3363 6239 m 3448 6130 l 3436 6142 l gs col-1 s gr 
% Polyline
n 2112 6467 m 2422 6467 l gs col-1 s gr 
% Polyline
n 3043 6467 m 3354 6467 l gs col-1 s gr 
% Polyline
n 2630 6467 m 2837 6467 l gs col-1 s gr 
% Polyline
n 2112 6312 m 2215 6467 l gs col-1 s gr 
% Polyline
n 3250 6467 m 3354 6312 l gs col-1 s gr 
% Polyline
n 2733 6467 m 2733 6053 l gs col-1 s gr 
% Polyline
n 2733 6053 m 3665 6053 l gs col-1 s gr 
% Polyline
n 3716 6002 m 4234 6002 l 4234 6105 l 3716 6105 l cp gs col-1 s gr 
% Polyline
0 slj
7.500 slw
n 3298 7088 m 3306 7088 l gs col-1 s gr
% Polyline
2 slj
15.000 slw
n 1979 6622 m 1904 6622 1904 7375 75 arcto 4 {pop} repeat
  1904 7450 2243 7450 75 arcto 4 {pop} repeat
  2318 7450 2318 6697 75 arcto 4 {pop} repeat
  2318 6622 1979 6622 75 arcto 4 {pop} repeat
 cp gs col-1 s gr 
% Polyline
n 1801 7450 m 2422 7450 l 2422 7502 l 1801 7502 l cp gs col-1 s gr 
% Polyline
n 3222 6622 m 3147 6622 3147 7375 75 arcto 4 {pop} repeat
  3147 7450 3485 7450 75 arcto 4 {pop} repeat
  3560 7450 3560 6697 75 arcto 4 {pop} repeat
  3560 6622 3222 6622 75 arcto 4 {pop} repeat
 cp gs col-1 s gr 
% Polyline
n 3043 7450 m 3664 7450 l 3664 7502 l 3043 7502 l cp gs col-1 s gr 
% Polyline
n 2112 6467 m 2112 6622 l gs col-1 s gr 
% Polyline
n 3353 6467 m 3353 6622 l gs col-1 s gr 
% Ellipse
n 2512 1538 110 110 0 360 DrawEllipse gs col-1 s gr

% Polyline
n 2455 1622 m 2569 1439 l gs col-1 s gr 
% Polyline
n 2442 1468 m 2583 1609 l gs col-1 s gr 
% Ellipse
n 2962 1538 110 110 0 360 DrawEllipse gs col-1 s gr

% Polyline
n 2905 1622 m 3019 1439 l gs col-1 s gr 
% Polyline
n 2892 1468 m 3033 1609 l gs col-1 s gr 
% Polyline
0 slj
n 2095 1388 m 2192 1243 l gs col-1 s gr 
% Ellipse
n 2137 1313 107 108 0 360 DrawEllipse gs col-1 s gr

% Polyline
n 3371 1388 m 3468 1243 l gs col-1 s gr 
% Ellipse
n 3413 1313 107 108 0 360 DrawEllipse gs col-1 s gr

% Polyline
n 4871 788 m 4968 643 l gs col-1 s gr 
% Ellipse
n 4913 713 107 108 0 360 DrawEllipse gs col-1 s gr

% Polyline
n 4871 3038 m 4968 2893 l gs col-1 s gr 
% Ellipse
n 4913 2963 107 108 0 360 DrawEllipse gs col-1 s gr

% Polyline
n 4871 5813 m 4968 5668 l gs col-1 s gr 
% Ellipse
n 4913 5738 107 108 0 360 DrawEllipse gs col-1 s gr

% Polyline
7.500 slw
n 6225 7200 m 6150 7200 l cp gs col-1 s gr 
% Polyline
2 slj
15.000 slw
n 5700 3300 m 5700 7725 l gs col-1 s gr 
% Polyline
n 6000 1425 m 6150 1425 l gs col-1 s gr 
% Polyline
n 6000 1800 m 6150 1800 l gs col-1 s gr 
% Polyline
n 6000 2250 m 6150 2250 l gs col-1 s gr 
% Polyline
n 6000 3375 m 6150 3375 l gs col-1 s gr 
% Polyline
n 6450 3375 m 6600 3375 l gs col-1 s gr 
% Polyline
n 6000 3750 m 6150 3750 l gs col-1 s gr 
% Polyline
n 6450 3750 m 6600 3750 l gs col-1 s gr 
% Polyline
n 6000 4200 m 6150 4200 l gs col-1 s gr 
% Polyline
n 6450 4200 m 6600 4200 l gs col-1 s gr 
% Polyline
n 6000 5475 m 6225 5475 l gs col-1 s gr 
% Polyline
n 6450 5475 m 6600 5475 l gs col-1 s gr 
% Polyline
n 6000 5850 m 6150 5850 l gs col-1 s gr 
% Polyline
n 6450 5850 m 6600 5850 l gs col-1 s gr 
% Polyline
n 6000 6300 m 6150 6300 l gs col-1 s gr 
% Polyline
n 6450 6300 m 6600 6300 l gs col-1 s gr 
% Polyline
n 6000 7275 m 6150 7275 l gs col-1 s gr 
% Polyline
n 6450 7275 m 6600 7275 l gs col-1 s gr 
% Polyline
n 5700 7725 m 6150 7725 l gs col-1 s gr 
% Polyline
n 6450 7725 m 6600 7725 l gs col-1 s gr 
% Polyline
n 5400 8100 m 6225 8100 l gs col-1 s gr 
% Polyline
n 6450 8100 m 6600 8100 l gs col-1 s gr 
% Polyline
n 5700 3300 m 5700 1800 l gs col-1 s gr 
% Polyline
n 5700 1800 m 6000 1800 l gs col-1 s gr 
% Polyline
n 5700 3750 m 6000 3750 l gs col-1 s gr 
% Polyline
n 5700 5850 m 6000 5850 l gs col-1 s gr 
% Polyline
n 5400 5775 m 5400 2250 l gs col-1 s gr 
% Polyline
n 5400 2250 m 6000 2250 l gs col-1 s gr 
% Polyline
n 5400 4200 m 6000 4200 l gs col-1 s gr 
% Polyline
n 5400 6300 m 6000 6300 l gs col-1 s gr 
% Polyline
n 7050 3375 m 7800 3375 l gs col-1 s gr 
% Polyline
n 7050 3825 m 7800 3825 l gs col-1 s gr 
% Polyline
n 7050 5475 m 7800 5475 l gs col-1 s gr 
% Polyline
n 7050 5850 m 7800 5850 l gs col-1 s gr 
% Polyline
n 6975 6225 m 7800 6225 l gs col-1 s gr 
% Polyline
n 6975 7350 m 7800 7350 l gs col-1 s gr 
% Polyline
n 7050 7725 m 7800 7725 l gs col-1 s gr 
% Polyline
n 7050 8175 m 7800 8175 l gs col-1 s gr 
% Polyline
n 7800 3375 m 7800 4125 l gs col-1 s gr 
% Polyline
n 7800 5475 m 7800 6225 l gs col-1 s gr 
% Polyline
n 7800 7350 m 7800 8175 l gs col-1 s gr 
% Polyline
n 7800 1875 m 8925 1875 l gs col-1 s gr 
% Polyline
n 7800 3825 m 9000 3825 l gs col-1 s gr 
% Polyline
n 7800 5850 m 9000 5850 l gs col-1 s gr 
% Polyline
n 7800 7725 m 9000 7725 l gs col-1 s gr 
% Polyline
n 7950 900 m 8850 900 l 8850 1200 l 7950 1200 l cp gs col-1 s gr 
% Polyline
n 7950 2925 m 8850 2925 l 8850 3225 l 7950 3225 l cp gs col-1 s gr 
% Polyline
n 7950 4950 m 8850 4950 l 8850 5250 l 7950 5250 l cp gs col-1 s gr 
% Polyline
n 7950 6825 m 8850 6825 l 8850 7125 l 7950 7125 l cp gs col-1 s gr 
% Polyline
7.500 slw
gs  clippath
8370 2697 m 8400 2577 l 8430 2697 l 8430 2535 l 8370 2535 l cp
clip
n 8400 2925 m 8400 2550 l gs col-1 s gr gr

% arrowhead
0 slj
n 8370 2697 m 8400 2577 l 8430 2697 l  col-1 s
% Polyline
2 slj
gs  clippath
8370 4722 m 8400 4602 l 8430 4722 l 8430 4560 l 8370 4560 l cp
clip
n 8400 4950 m 8400 4575 l gs col-1 s gr gr

% arrowhead
0 slj
n 8370 4722 m 8400 4602 l 8430 4722 l  col-1 s
% Polyline
2 slj
gs  clippath
8370 6597 m 8400 6477 l 8430 6597 l 8430 6435 l 8370 6435 l cp
clip
n 8400 6825 m 8400 6450 l gs col-1 s gr gr

% arrowhead
0 slj
n 8370 6597 m 8400 6477 l 8430 6597 l  col-1 s
% Polyline
15.000 slw
n 2055 1800 m 1950 1800 1950 2595 105 arcto 4 {pop} repeat
  1950 2700 2220 2700 105 arcto 4 {pop} repeat
  2325 2700 2325 1905 105 arcto 4 {pop} repeat
  2325 1800 2055 1800 105 arcto 4 {pop} repeat
 cp gs col-1 s gr 
% Polyline
n 3180 1800 m 3075 1800 3075 2520 105 arcto 4 {pop} repeat
  3075 2625 3345 2625 105 arcto 4 {pop} repeat
  3450 2625 3450 1905 105 arcto 4 {pop} repeat
  3450 1800 3180 1800 105 arcto 4 {pop} repeat
 cp gs col-1 s gr 
% Polyline
n 2175 1575 m 2175 1800 l gs col-1 s gr 
% Polyline
n 3300 1575 m 3300 1800 l gs col-1 s gr 
% Polyline
n 2625 1575 m 2850 1575 l gs col-1 s gr 
% Polyline
n 2175 1575 m 2400 1575 l gs col-1 s gr 
% Polyline
n 3075 1575 m 3300 1575 l gs col-1 s gr 
% Polyline
n 2175 1350 m 2325 1575 l gs col-1 s gr 
% Polyline
n 3375 1350 m 3225 1575 l gs col-1 s gr 
% Polyline
n 2700 1575 m 2700 1050 l gs col-1 s gr 
% Polyline
n 2700 1050 m 3675 1050 l gs col-1 s gr 
% Polyline
n 4200 1050 m 6000 1050 l gs col-1 s gr 
% Polyline
n 4275 6075 m 5400 6075 l gs col-1 s gr 
% Polyline
0.000 slw
n 6975 1275 m 7200 1275 l 
% Polyline
n 6975 1275 m 7200 1275 l 
% Polyline
7.500 slw
n 6975 1275 m 7200 1275 l gs col-1 s gr 
% Polyline
n 6975 1725 m 7275 1725 l gs col-1 s gr 
% Polyline
n 6975 2100 m 7350 2100 l gs col-1 s gr 
% Polyline
n 7200 975 m 7200 1275 l gs col-1 s gr 
% Polyline
n 7275 1050 m 7275 1725 l gs col-1 s gr 
% Polyline
n 7350 1125 m 7350 2100 l gs col-1 s gr 
% Polyline
n 7200 975 m 7950 975 l gs col-1 s gr 
% Polyline
n 7275 1050 m 7950 1050 l gs col-1 s gr 
% Polyline
n 7350 1125 m 7950 1125 l gs col-1 s gr 
% Polyline
n 6900 3225 m 7200 3225 l gs col-1 s gr 
% Polyline
n 7200 3000 m 7200 3225 l gs col-1 s gr 
% Polyline
n 6900 3600 m 7275 3600 l gs col-1 s gr 
% Polyline
n 7275 3075 m 7275 3600 l gs col-1 s gr 
% Polyline
n 7350 3150 m 7350 4050 l gs col-1 s gr 
% Polyline
n 7200 3000 m 7950 3000 l gs col-1 s gr 
% Polyline
n 7275 3075 m 7950 3075 l gs col-1 s gr 
% Polyline
n 7350 3150 m 7950 3150 l gs col-1 s gr 
% Polyline
15.000 slw
n 7050 4200 m 7800 4200 l gs col-1 s gr 
% Polyline
7.500 slw
n 6975 4050 m 7350 4050 l gs col-1 s gr 
% Polyline
n 6900 5325 m 7200 5325 l gs col-1 s gr 
% Polyline
n 7200 5025 m 7200 5325 l gs col-1 s gr 
% Polyline
n 7200 5025 m 7950 5025 l gs col-1 s gr 
% Polyline
n 6975 5700 m 7275 5700 l gs col-1 s gr 
% Polyline
n 7271 5100 m 7279 5100 l gs col-1 s gr
% Polyline
n 7275 5100 m 7275 5700 l gs col-1 s gr 
% Polyline
n 7275 5100 m 7950 5100 l gs col-1 s gr 
% Polyline
n 6975 6075 m 7350 6075 l gs col-1 s gr 
% Polyline
n 7350 5175 m 7350 6075 l gs col-1 s gr 
% Polyline
n 7350 5175 m 7950 5175 l gs col-1 s gr 
% Polyline
n 6900 7200 m 7200 7200 l gs col-1 s gr 
% Polyline
n 7200 6900 m 7200 7200 l gs col-1 s gr 
% Polyline
n 7200 6900 m 7950 6900 l gs col-1 s gr 
% Polyline
n 6900 7575 m 7275 7575 l gs col-1 s gr 
% Polyline
n 7275 6975 m 7275 7575 l gs col-1 s gr 
% Polyline
n 7275 6975 m 7950 6975 l gs col-1 s gr 
% Polyline
n 6900 7950 m 7350 7950 l gs col-1 s gr 
% Polyline
n 7350 7050 m 7350 7950 l gs col-1 s gr 
% Polyline
n 7350 7050 m 7950 7050 l gs col-1 s gr 
% Polyline
n 1200 7650 m 2100 7650 l gs col-1 s gr 
% Polyline
n 1200 7950 m 2925 7950 l gs col-1 s gr 
% Polyline
n 1200 8100 m 3300 8100 l gs col-1 s gr 
% Polyline
n 3300 7500 m 3300 8100 l gs col-1 s gr 
% Polyline
n 2925 6525 m 2925 7950 l gs col-1 s gr 
% Polyline
n 2550 6525 m 2550 7800 l gs col-1 s gr 
% Polyline
n 2100 7500 m 2100 7650 l gs col-1 s gr 
% Polyline
n 1200 5250 m 2925 5250 l gs col-1 s gr 
% Polyline
n 1200 5400 m 3300 5400 l gs col-1 s gr 
% Polyline
n 2475 3825 m 2475 5100 l gs col-1 s gr 
% Polyline
n 2925 3825 m 2925 5250 l gs col-1 s gr 
% Polyline
n 3296 4800 m 3304 4800 l gs col-1 s gr
% Polyline
n 3300 4800 m 3300 5400 l gs col-1 s gr 
% Polyline
15.000 slw
n 600 4800 m 1200 4800 l 1200 5475 l 600 5475 l cp gs col-1 s gr 
% Polyline
n 600 7500 m 1200 7500 l 1200 8175 l 600 8175 l cp gs col-1 s gr 
% Polyline
7.500 slw
gs  clippath
930 8628 m 900 8748 l 870 8628 l 870 8790 l 930 8790 l cp
clip
n 900 8775 m 900 8175 l gs col-1 s gr gr

% arrowhead
n 930 8628 m 900 8748 l 870 8628 l  col-1 s
% Polyline
gs  clippath
855 5853 m 825 5973 l 795 5853 l 795 6015 l 855 6015 l cp
clip
n 825 6000 m 825 5475 l gs col-1 s gr gr

% arrowhead
n 855 5853 m 825 5973 l 795 5853 l  col-1 s
% Polyline
15.000 slw
n 4875 750 m 4875 1050 l gs col-1 s gr 
% Polyline
n 4875 3075 m 4875 3300 l gs col-1 s gr 
% Polyline
n 4950 5850 m 4950 6075 l gs col-1 s gr 
% Polyline
7.500 slw
gs  clippath
1347 5430 m 1227 5400 l 1347 5370 l 1185 5370 l 1185 5430 l cp
clip
n 1350 5400 m 1200 5400 l gs col-1 s gr gr

% arrowhead
n 1347 5430 m 1227 5400 l 1347 5370 l  col-1 s
% Polyline
gs  clippath
2445 4047 m 2475 3927 l 2505 4047 l 2505 3885 l 2445 3885 l cp
clip
n 2475 4125 m 2475 3900 l gs col-1 s gr gr

% arrowhead
n 2445 4047 m 2475 3927 l 2505 4047 l  col-1 s
% Polyline
gs  clippath
2895 4047 m 2925 3927 l 2955 4047 l 2955 3885 l 2895 3885 l cp
clip
n 2925 4125 m 2925 3900 l gs col-1 s gr gr

% arrowhead
n 2895 4047 m 2925 3927 l 2955 4047 l  col-1 s
% Polyline
gs  clippath
1347 8130 m 1227 8100 l 1347 8070 l 1185 8070 l 1185 8130 l cp
clip
n 1425 8100 m 1200 8100 l gs col-1 s gr gr

% arrowhead
n 1347 8130 m 1227 8100 l 1347 8070 l  col-1 s
% Polyline
gs  clippath
2520 6672 m 2550 6552 l 2580 6672 l 2580 6510 l 2520 6510 l cp
clip
n 2550 6750 m 2550 6525 l gs col-1 s gr gr

% arrowhead
n 2520 6672 m 2550 6552 l 2580 6672 l  col-1 s
% Polyline
gs  clippath
2895 6822 m 2925 6702 l 2955 6822 l 2955 6660 l 2895 6660 l cp
clip
n 2925 6825 m 2925 6675 l gs col-1 s gr gr

% arrowhead
n 2895 6822 m 2925 6702 l 2955 6822 l  col-1 s
% Polyline
gs  clippath
7122 1305 m 7002 1275 l 7122 1245 l 6960 1245 l 6960 1305 l cp
clip
n 7125 1275 m 6975 1275 l gs col-1 s gr gr

% arrowhead
n 7122 1305 m 7002 1275 l 7122 1245 l  col-1 s
% Polyline
gs  clippath
7122 1755 m 7002 1725 l 7122 1695 l 6960 1695 l 6960 1755 l cp
clip
n 7125 1725 m 6975 1725 l gs col-1 s gr gr

% arrowhead
n 7122 1755 m 7002 1725 l 7122 1695 l  col-1 s
% Polyline
gs  clippath
7122 2130 m 7002 2100 l 7122 2070 l 6960 2070 l 6960 2130 l cp
clip
n 7125 2100 m 6975 2100 l gs col-1 s gr gr

% arrowhead
n 7122 2130 m 7002 2100 l 7122 2070 l  col-1 s
% Polyline
gs  clippath
7047 3255 m 6927 3225 l 7047 3195 l 6885 3195 l 6885 3255 l cp
clip
n 7050 3225 m 6900 3225 l gs col-1 s gr gr

% arrowhead
n 7047 3255 m 6927 3225 l 7047 3195 l  col-1 s
% Polyline
gs  clippath
7047 3630 m 6927 3600 l 7047 3570 l 6885 3570 l 6885 3630 l cp
clip
n 7050 3600 m 6900 3600 l gs col-1 s gr gr

% arrowhead
n 7047 3630 m 6927 3600 l 7047 3570 l  col-1 s
% Polyline
gs  clippath
7047 4080 m 6927 4050 l 7047 4020 l 6885 4020 l 6885 4080 l cp
clip
n 7125 4050 m 6900 4050 l gs col-1 s gr gr

% arrowhead
n 7047 4080 m 6927 4050 l 7047 4020 l  col-1 s
% Polyline
gs  clippath
7122 5355 m 7002 5325 l 7122 5295 l 6960 5295 l 6960 5355 l cp
clip
n 7050 5325 m 6975 5325 l gs col-1 s gr gr

% arrowhead
n 7122 5355 m 7002 5325 l 7122 5295 l  col-1 s
% Polyline
gs  clippath
7047 5730 m 6927 5700 l 7047 5670 l 6885 5670 l 6885 5730 l cp
clip
n 7050 5700 m 6900 5700 l gs col-1 s gr gr

% arrowhead
n 7047 5730 m 6927 5700 l 7047 5670 l  col-1 s
% Polyline
gs  clippath
7047 6105 m 6927 6075 l 7047 6045 l 6885 6045 l 6885 6105 l cp
clip
n 7125 6075 m 6900 6075 l gs col-1 s gr gr

% arrowhead
n 7047 6105 m 6927 6075 l 7047 6045 l  col-1 s
% Polyline
gs  clippath
7047 7230 m 6927 7200 l 7047 7170 l 6885 7170 l 6885 7230 l cp
clip
n 7125 7200 m 6900 7200 l gs col-1 s gr gr

% arrowhead
n 7047 7230 m 6927 7200 l 7047 7170 l  col-1 s
% Polyline
gs  clippath
7047 7605 m 6927 7575 l 7047 7545 l 6885 7545 l 6885 7605 l cp
clip
n 7050 7575 m 6900 7575 l gs col-1 s gr gr

% arrowhead
n 7047 7605 m 6927 7575 l 7047 7545 l  col-1 s
% Polyline
gs  clippath
7047 7980 m 6927 7950 l 7047 7920 l 6885 7920 l 6885 7980 l cp
clip
n 7125 7950 m 6900 7950 l gs col-1 s gr gr

% arrowhead
n 7047 7980 m 6927 7950 l 7047 7920 l  col-1 s
% Polyline
gs  clippath
7803 945 m 7923 975 l 7803 1005 l 7965 1005 l 7965 945 l cp
clip
n 7725 975 m 7950 975 l gs col-1 s gr gr

% arrowhead
n 7803 945 m 7923 975 l 7803 1005 l  col-1 s
% Polyline
gs  clippath
7728 1020 m 7848 1050 l 7728 1080 l 7890 1080 l 7890 1020 l cp
clip
n 7725 1050 m 7875 1050 l gs col-1 s gr gr

% arrowhead
n 7728 1020 m 7848 1050 l 7728 1080 l  col-1 s
% Polyline
gs  clippath
7803 1095 m 7923 1125 l 7803 1155 l 7965 1155 l 7965 1095 l cp
clip
n 7800 1125 m 7950 1125 l gs col-1 s gr gr

% arrowhead
n 7803 1095 m 7923 1125 l 7803 1155 l  col-1 s
% Polyline
gs  clippath
7728 2970 m 7848 3000 l 7728 3030 l 7890 3030 l 7890 2970 l cp
clip
n 7650 3000 m 7875 3000 l gs col-1 s gr gr

% arrowhead
n 7728 2970 m 7848 3000 l 7728 3030 l  col-1 s
% Polyline
gs  clippath
7803 3045 m 7923 3075 l 7803 3105 l 7965 3105 l 7965 3045 l cp
clip
n 7725 3075 m 7950 3075 l gs col-1 s gr gr

% arrowhead
n 7803 3045 m 7923 3075 l 7803 3105 l  col-1 s
% Polyline
gs  clippath
7803 3120 m 7923 3150 l 7803 3180 l 7965 3180 l 7965 3120 l cp
clip
n 7725 3150 m 7950 3150 l gs col-1 s gr gr

% arrowhead
n 7803 3120 m 7923 3150 l 7803 3180 l  col-1 s
% Polyline
gs  clippath
7803 4995 m 7923 5025 l 7803 5055 l 7965 5055 l 7965 4995 l cp
clip
n 7725 5025 m 7950 5025 l gs col-1 s gr gr

% arrowhead
n 7803 4995 m 7923 5025 l 7803 5055 l  col-1 s
% Polyline
gs  clippath
7803 5070 m 7923 5100 l 7803 5130 l 7965 5130 l 7965 5070 l cp
clip
n 7650 5100 m 7950 5100 l gs col-1 s gr gr

% arrowhead
n 7803 5070 m 7923 5100 l 7803 5130 l  col-1 s
% Polyline
gs  clippath
7803 5145 m 7923 5175 l 7803 5205 l 7965 5205 l 7965 5145 l cp
clip
n 7725 5175 m 7950 5175 l gs col-1 s gr gr

% arrowhead
n 7803 5145 m 7923 5175 l 7803 5205 l  col-1 s
% Polyline
gs  clippath
7803 6870 m 7923 6900 l 7803 6930 l 7965 6930 l 7965 6870 l cp
clip
n 7800 6900 m 7950 6900 l gs col-1 s gr gr

% arrowhead
n 7803 6870 m 7923 6900 l 7803 6930 l  col-1 s
% Polyline
gs  clippath
7803 6945 m 7923 6975 l 7803 7005 l 7965 7005 l 7965 6945 l cp
clip
n 7725 6975 m 7950 6975 l gs col-1 s gr gr

% arrowhead
n 7803 6945 m 7923 6975 l 7803 7005 l  col-1 s
% Polyline
gs  clippath
7803 7020 m 7923 7050 l 7803 7080 l 7965 7080 l 7965 7020 l cp
clip
n 7725 7050 m 7950 7050 l gs col-1 s gr gr

% arrowhead
n 7803 7020 m 7923 7050 l 7803 7080 l  col-1 s
% Polyline
15.000 slw
n 7800 4125 m 7800 4200 l gs col-1 s gr 
% Polyline
n 3668 6075 m 3683 6075 l gs col0 s gr
% Polyline
n 5400 5775 m 5400 8100 l gs col0 s gr 
% Polyline
n 6000 1050 m 6000 7275 l gs col0 s gr 
% Polyline
gs  clippath
5358 990 m 5646 1050 l 5358 1110 l 5730 1110 l 5730 990 l cp
clip
n 5400 1050 m 5700 1050 l gs col0 s gr gr

% arrowhead
n 5358 990 m 5646 1050 l 5358 1110 l 5406 1050 l 5358 990 l  cp gs 0.00 setgray ef gr  col0 s
% Polyline
gs  clippath
5058 6015 m 5346 6075 l 5058 6135 l 5430 6135 l 5430 6015 l cp
clip
n 4950 6075 m 5400 6075 l gs col0 s gr gr

% arrowhead
n 5058 6015 m 5346 6075 l 5058 6135 l 5106 6075 l 5058 6015 l  cp gs 0.00 setgray ef gr  col0 s
% Polyline
7.500 slw
gs  clippath
1347 5130 m 1227 5100 l 1347 5070 l 1185 5070 l 1185 5130 l cp
clip
n 1200 5100 m 2475 5100 l gs col0 s gr gr

% arrowhead
n 1347 5130 m 1227 5100 l 1347 5070 l  col0 s
% Polyline
gs  clippath
1347 4980 m 1227 4950 l 1347 4920 l 1185 4920 l 1185 4980 l cp
clip
n 1200 4950 m 2100 4950 l gs col0 s gr gr

% arrowhead
n 1347 4980 m 1227 4950 l 1347 4920 l  col0 s
% Polyline
n 2100 4800 m 2100 4950 l gs col0 s gr 
% Polyline
n 1950 5100 m 2250 5100 l gs col0 s gr 
% Polyline
gs  clippath
1347 5280 m 1227 5250 l 1347 5220 l 1185 5220 l 1185 5280 l cp
clip
n 1200 5250 m 1500 5250 l gs col0 s gr gr

% arrowhead
n 1347 5280 m 1227 5250 l 1347 5220 l  col0 s
% Polyline
gs  clippath
1347 7680 m 1227 7650 l 1347 7620 l 1185 7620 l 1185 7680 l cp
clip
n 1200 7650 m 1500 7650 l gs col0 s gr gr

% arrowhead
n 1347 7680 m 1227 7650 l 1347 7620 l  col0 s
% Polyline
gs  clippath
1347 7830 m 1227 7800 l 1347 7770 l 1185 7770 l 1185 7830 l cp
clip
n 1200 7800 m 2550 7800 l gs col0 s gr gr

% arrowhead
n 1347 7830 m 1227 7800 l 1347 7770 l  col0 s
% Polyline
gs  clippath
1347 7980 m 1227 7950 l 1347 7920 l 1185 7920 l 1185 7980 l cp
clip
n 1200 7950 m 1500 7950 l gs col0 s gr gr

% arrowhead
n 1347 7980 m 1227 7950 l 1347 7920 l  col0 s
% Polyline
gs  clippath
8370 672 m 8400 552 l 8430 672 l 8430 510 l 8370 510 l cp
clip
n 8400 900 m 8400 525 l gs col0 s gr gr

% arrowhead
n 8370 672 m 8400 552 l 8430 672 l  col0 s
% Polyline
15.000 slw
gs  clippath
5358 3240 m 5646 3300 l 5358 3360 l 5730 3360 l 5730 3240 l cp
clip
n 5400 3300 m 5700 3300 l gs col0 s gr gr

% arrowhead
n 5358 3240 m 5646 3300 l 5358 3360 l 5406 3300 l 5358 3240 l  cp gs 0.00 setgray ef gr  col0 s
% Polyline
gs  clippath
9858 1815 m 10146 1875 l 9858 1935 l 10230 1935 l 10230 1815 l cp
clip
n 9225 1875 m 10200 1875 l gs col0 s gr gr

% arrowhead
n 9858 1815 m 10146 1875 l 9858 1935 l 9906 1875 l 9858 1815 l  cp gs 0.00 setgray ef gr  col0 s
% Polyline
gs  clippath
9858 5790 m 10146 5850 l 9858 5910 l 10230 5910 l 10230 5790 l cp
clip
n 9300 5850 m 10200 5850 l gs col0 s gr gr

% arrowhead
n 9858 5790 m 10146 5850 l 9858 5910 l 9906 5850 l 9858 5790 l  cp gs 0.00 setgray ef gr  col0 s
% Polyline
gs  clippath
9858 7665 m 10146 7725 l 9858 7785 l 10230 7785 l 10230 7665 l cp
clip
n 9300 7725 m 10200 7725 l gs col0 s gr gr

% arrowhead
n 9858 7665 m 10146 7725 l 9858 7785 l 9906 7725 l 9858 7665 l  cp gs 0.00 setgray ef gr  col0 s
% Polyline
gs  clippath
9858 3765 m 10146 3825 l 9858 3885 l 10230 3885 l 10230 3765 l cp
clip
n 9300 3825 m 10200 3825 l gs col0 s gr gr

% arrowhead
n 9858 3765 m 10146 3825 l 9858 3885 l 9906 3825 l 9858 3765 l  cp gs 0.00 setgray ef gr  col0 s
% Polyline
n 4200 3300 m 5400 3300 l gs col-1 s gr 
% Polyline
n 3675 975 m 4200 975 l 4200 1125 l 3675 1125 l cp gs col0 s gr 
% Polyline
7.500 slw
gs  clippath
8430 753 m 8400 873 l 8370 753 l 8370 915 l 8430 915 l cp
clip
n 8400 900 m 8400 600 l gs col0 s gr gr

% arrowhead
n 8430 753 m 8400 873 l 8370 753 l 8400 753 l 8430 753 l  cp gs 0.00 setgray ef gr  col0 s
% Polyline
gs  clippath
8430 2778 m 8400 2898 l 8370 2778 l 8370 2940 l 8430 2940 l cp
clip
n 8400 2925 m 8400 2700 l gs col0 s gr gr

% arrowhead
n 8430 2778 m 8400 2898 l 8370 2778 l 8400 2778 l 8430 2778 l  cp gs 0.00 setgray ef gr  col0 s
% Polyline
gs  clippath
8430 4803 m 8400 4923 l 8370 4803 l 8370 4965 l 8430 4965 l cp
clip
n 8400 4950 m 8400 4650 l gs col0 s gr gr

% arrowhead
n 8430 4803 m 8400 4923 l 8370 4803 l 8400 4803 l 8430 4803 l  cp gs 0.00 setgray ef gr  col0 s
% Polyline
gs  clippath
8430 6678 m 8400 6798 l 8370 6678 l 8370 6840 l 8430 6840 l cp
clip
n 8400 6825 m 8400 6525 l gs col0 s gr gr

% arrowhead
n 8430 6678 m 8400 6798 l 8370 6678 l 8400 6678 l 8430 6678 l  cp gs 0.00 setgray ef gr  col0 s
/Times-Roman ff 180.00 scf sf
8025 1125 m
gs 1 -1 sc (MKS647B) col-1 sh gr
/Times-Roman ff 180.00 scf sf
8025 3150 m
gs 1 -1 sc (MKS647B) col-1 sh gr
/Times-Roman ff 180.00 scf sf
8025 5175 m
gs 1 -1 sc (MKS647B) col-1 sh gr
/Times-Roman ff 180.00 scf sf
8025 7050 m
gs 1 -1 sc (MKS647B) col-1 sh gr
/Times-Roman ff 260.00 scf sf
3600 2325 m
gs 1 -1 sc (argon) col-1 sh gr
/Times-Roman ff 260.00 scf sf
3675 7125 m
gs 1 -1 sc (HFC134a) col-1 sh gr
/Times-Roman ff 260.00 scf sf
4725 2775 m
gs 1 -1 sc (\(1kg\)) col-1 sh gr
/Times-Roman ff 260.00 scf sf
4800 5550 m
gs 1 -1 sc (\(1kg\)) col-1 sh gr
/Times-Roman ff 260.00 scf sf
5100 675 m
gs 1 -1 sc (\(3kg\)) col-1 sh gr
/Times-Roman ff 260.00 scf sf
3675 4275 m
gs 1 -1 sc (Butane) col0 sh gr
/Times-Roman ff 260.00 scf sf
6300 9000 m
gs 1 -1 sc (Mass Flow ) col0 sh gr
/Times-Roman ff 260.00 scf sf
6300 9225 m
gs 1 -1 sc (Controllers) col0 sh gr
/Times-Roman ff 260.00 scf sf
6300 9525 m
gs 1 -1 sc (\(MFC\)) col0 sh gr
/Times-Roman ff 260.00 scf sf
7950 9000 m
gs 1 -1 sc (Controllers) col0 sh gr
/Times-Roman ff 260.00 scf sf
7950 9225 m
gs 1 -1 sc (for MFCs) col0 sh gr
/Times-Roman ff 260.00 scf sf
10350 1950 m
gs 1 -1 sc (Barrel Inner) col0 sh gr
/Times-Roman ff 260.00 scf sf
10275 3900 m
gs 1 -1 sc (Barrel Outer) col0 sh gr
/Times-Roman ff 260.00 scf sf
10350 5925 m
gs 1 -1 sc (Endcap Inner) col0 sh gr
/Times-Roman ff 260.00 scf sf
10350 7800 m
gs 1 -1 sc (Endcap Outer) col0 sh gr
/Times-Roman ff 260.00 scf sf
6525 900 m
gs 1 -1 sc (MKS1179A) col0 sh gr
/Times-Roman ff 260.00 scf sf
8100 450 m
gs 1 -1 sc (Ethernet) col0 sh gr
/Times-Roman ff 260.00 scf sf
3900 7650 m
gs 1 -1 sc (Scales for) col0 sh gr
/Times-Roman ff 260.00 scf sf
3900 7875 m
gs 1 -1 sc (Gas Weight) col0 sh gr
/Times-Roman ff 260.00 scf sf
600 6225 m
gs 1 -1 sc (Ethernet) col0 sh gr
/Times-Roman ff 260.00 scf sf
525 9150 m
gs 1 -1 sc (Controllers ) col0 sh gr
/Times-Roman ff 260.00 scf sf
525 9450 m
gs 1 -1 sc (for Valves) col0 sh gr
/Times-Roman ff 260.00 scf sf
9900 9000 m
gs 1 -1 sc (Mixed Gas outputs) col0 sh gr
/Times-Roman ff 260.00 scf sf
1800 9150 m
gs 1 -1 sc (Two Banks of Gas bottles) col0 sh gr
/Times-Roman ff 260.00 scf sf
3675 825 m
gs 1 -1 sc (Filters) col0 sh gr
/Times-Roman ff 260.00 scf sf
2175 5850 m
gs 1 -1 sc (Solenoid Valves) col0 sh gr
/Times-Roman ff 260.00 scf sf
4425 450 m
gs 1 -1 sc (Pressure Gauges) col0 sh gr
$F2psEnd
rs
