%!PS-Adobe-2.0 EPSF-2.0
%%Title: nim_rpc_readout_block.eps
%%Creator: fig2dev Version 3.2 Patchlevel 0-beta2
%%CreationDate: Thu Jul 29 15:00:15 1999
%%For: marlow@viper.hep.princeton.edu (Daniel R. Marlow,381 Jadwin Hall,8-4383)
%%Orientation: Portrait
%%BoundingBox: 0 0 1086 512
%%Pages: 0
%%BeginSetup
%%IncludeFeature: *PageSize Letter
%%EndSetup
%%Magnification: 1.00
%%EndComments
/$F2psDict 200 dict def
$F2psDict begin
$F2psDict /mtrx matrix put
/col-1 {0 setgray} bind def
/col0 {0.000 0.000 0.000 srgb} bind def
/col1 {0.000 0.000 1.000 srgb} bind def
/col2 {0.000 1.000 0.000 srgb} bind def
/col3 {0.000 1.000 1.000 srgb} bind def
/col4 {1.000 0.000 0.000 srgb} bind def
/col5 {1.000 0.000 1.000 srgb} bind def
/col6 {1.000 1.000 0.000 srgb} bind def
/col7 {1.000 1.000 1.000 srgb} bind def
/col8 {0.000 0.000 0.560 srgb} bind def
/col9 {0.000 0.000 0.690 srgb} bind def
/col10 {0.000 0.000 0.820 srgb} bind def
/col11 {0.530 0.810 1.000 srgb} bind def
/col12 {0.000 0.560 0.000 srgb} bind def
/col13 {0.000 0.690 0.000 srgb} bind def
/col14 {0.000 0.820 0.000 srgb} bind def
/col15 {0.000 0.560 0.560 srgb} bind def
/col16 {0.000 0.690 0.690 srgb} bind def
/col17 {0.000 0.820 0.820 srgb} bind def
/col18 {0.560 0.000 0.000 srgb} bind def
/col19 {0.690 0.000 0.000 srgb} bind def
/col20 {0.820 0.000 0.000 srgb} bind def
/col21 {0.560 0.000 0.560 srgb} bind def
/col22 {0.690 0.000 0.690 srgb} bind def
/col23 {0.820 0.000 0.820 srgb} bind def
/col24 {0.500 0.190 0.000 srgb} bind def
/col25 {0.630 0.250 0.000 srgb} bind def
/col26 {0.750 0.380 0.000 srgb} bind def
/col27 {1.000 0.500 0.500 srgb} bind def
/col28 {1.000 0.630 0.630 srgb} bind def
/col29 {1.000 0.750 0.750 srgb} bind def
/col30 {1.000 0.880 0.880 srgb} bind def
/col31 {1.000 0.840 0.000 srgb} bind def

end
save
-14.0 526.0 translate
1 -1 scale

/cp {closepath} bind def
/ef {eofill} bind def
/gr {grestore} bind def
/gs {gsave} bind def
/sa {save} bind def
/rs {restore} bind def
/l {lineto} bind def
/m {moveto} bind def
/rm {rmoveto} bind def
/n {newpath} bind def
/s {stroke} bind def
/sh {show} bind def
/slc {setlinecap} bind def
/slj {setlinejoin} bind def
/slw {setlinewidth} bind def
/srgb {setrgbcolor} bind def
/rot {rotate} bind def
/sc {scale} bind def
/sd {setdash} bind def
/ff {findfont} bind def
/sf {setfont} bind def
/scf {scalefont} bind def
/sw {stringwidth} bind def
/tr {translate} bind def
/tnt {dup dup currentrgbcolor
  4 -2 roll dup 1 exch sub 3 -1 roll mul add
  4 -2 roll dup 1 exch sub 3 -1 roll mul add
  4 -2 roll dup 1 exch sub 3 -1 roll mul add srgb}
  bind def
/shd {dup dup currentrgbcolor 4 -2 roll mul 4 -2 roll mul
  4 -2 roll mul srgb} bind def
 /DrawEllipse {
	/endangle exch def
	/startangle exch def
	/yrad exch def
	/xrad exch def
	/y exch def
	/x exch def
	/savematrix mtrx currentmatrix def
	x y tr xrad yrad sc 0 0 1 startangle endangle arc
	closepath
	savematrix setmatrix
	} def

/$F2psBegin {$F2psDict begin /$F2psEnteredState save def} def
/$F2psEnd {$F2psEnteredState restore end} def
%%EndProlog

$F2psBegin
10 setmiterlimit
n 0 8797 m 0 0 l 18373 0 l 18373 8797 l cp clip
 0.06000 0.06000 sc
% Polyline
30.000 slw
n 10950 5625 m 11325 5625 l 11775 5175 l 12225 5625 l 12675 5175 l 13125 5625 l
 13500 5625 l gs col0 s gr 
% Polyline
n 9975 5625 m 10725 5625 l gs col0 s gr 
% Polyline
n 9750 5175 m 10725 5175 l gs col0 s gr 
% Polyline
n 9525 5025 m 10125 5400 l 9525 5775 l 9525 5025 l  cp gs col-1 s gr 
% Polyline
n 8250 5400 m 9525 5400 l gs col0 s gr 
% Polyline
n 10950 5175 m 11325 5175 l 11775 5625 l 12225 5175 l 12675 5625 l 13125 5175 l
 13500 5175 l gs col0 s gr 
% Polyline
15.000 slw
gs  clippath
13448 2924 m 13439 2676 l 13563 2891 l 13474 2580 l 13359 2613 l cp
clip
n 13575 3150 m 13425 2625 l gs col0 s gr gr

% arrowhead
n 13448 2924 m 13439 2676 l 13563 2891 l  col0 s
% Polyline
gs  clippath
13466 4673 m 13360 4897 l 13349 4650 l 13285 4968 l 13403 4991 l cp
clip
n 13500 4200 m 13350 4950 l gs col0 s gr gr

% arrowhead
n 13466 4673 m 13360 4897 l 13349 4650 l  col0 s
% Polyline
30.000 slw
 [120] 0 sd
n 12225 750 m 12225 8700 l gs col0 s gr  [] 0 sd
% Polyline
n 15600 4875 m 18300 4875 l 18300 5925 l 15600 5925 l cp gs col0 s gr 
% Polyline
n 13725 5625 m 14175 5625 l gs col0 s gr 
% Polyline
n 13725 5175 m 14325 5175 l gs col0 s gr 
% Polyline
n 15600 1575 m 18300 1575 l 18300 2625 l 15600 2625 l cp gs col0 s gr 
% Polyline
n 8250 2100 m 9525 2100 l gs col0 s gr 
% Polyline
15.000 slw
gs  clippath
8631 3690 m 8871 3750 l 8631 3810 l 8955 3810 l 8955 3690 l cp
8544 3810 m 8304 3750 l 8544 3690 l 8220 3690 l 8220 3810 l cp
clip
n 8250 3750 m 8925 3750 l gs col0 s gr gr

% arrowhead
n 8544 3810 m 8304 3750 l 8544 3690 l  col0 s
% arrowhead
n 8631 3690 m 8871 3750 l 8631 3810 l  col0 s
% Polyline
45.000 slw
gs  clippath
9045 6912 m 8925 7392 l 8805 6912 l 8805 7560 l 9045 7560 l cp
8805 888 m 8925 408 l 9045 888 l 9045 240 l 8805 240 l cp
clip
n 8925 300 m 8925 7500 l gs col0 s gr gr

% arrowhead
n 8805 888 m 8925 408 l 9045 888 l  col0 s
% arrowhead
n 9045 6912 m 8925 7392 l 8805 6912 l  col0 s
% Polyline
30.000 slw
n 3001 6001 m 3600 6000 l gs col-1 s gr 
% Polyline
n 1501 5776 m 1576 5851 l 1501 5926 l gs col-1 s gr 
% Polyline
n 2476 5701 m 3001 6001 l 2476 6301 l 2476 5701 l  cp gs col-1 s gr 
% Polyline
n 9525 1725 m 10125 2100 l 9525 2475 l 9525 1725 l  cp gs col-1 s gr 
% Polyline
n 13725 2325 m 14175 2325 l gs col0 s gr 
% Polyline
n 13725 1875 m 14325 1875 l gs col0 s gr 
% Polyline
n 10950 1875 m 11325 1875 l 11775 2325 l 12225 1875 l 12675 2325 l 13125 1875 l
 13500 1875 l gs col0 s gr 
% Polyline
n 10950 2325 m 11325 2325 l 11775 1875 l 12225 2325 l 12675 1875 l 13125 2325 l
 13500 2325 l gs col0 s gr 
% Polyline
n 9975 2325 m 10725 2325 l gs col0 s gr 
% Polyline
n 9750 1875 m 10725 1875 l gs col0 s gr 
% Polyline
15.000 slw
n 9300 3000 m 9600 3000 l 9600 2700 l 9750 2700 l 9750 3000 l 10200 3000 l
 10200 2700 l 10725 2700 l 10725 3000 l 11250 3000 l 11250 2700 l
 11400 2700 l 11400 3000 l 11850 3000 l gs col0 s gr 
/Helvetica ff 360.00 scf sf
15900 5550 m
gs 1 -1 sc (Pipeline TDC) col0 sh gr
/Helvetica ff 360.00 scf sf
15900 2250 m
gs 1 -1 sc (Pipeline TDC) col0 sh gr
/Helvetica ff 360.00 scf sf
525 4500 m
gs 1 -1 sc  90.0 rot (Analog Inputs) col-1 sh gr
/Helvetica ff 300.00 scf sf
1950 900 m
gs 1 -1 sc (\(MAXIM 908\)) col0 sh gr
/Helvetica ff 360.00 scf sf
1800 525 m
gs 1 -1 sc (Comparators) col-1 sh gr
/Helvetica ff 360.00 scf sf
3450 8700 m
gs 1 -1 sc (On detector) col0 sh gr
/Helvetica ff 300.00 scf sf
13275 4050 m
gs 1 -1 sc (strip-hit information) col0 sh gr
/Helvetica ff 300.00 scf sf
13275 3600 m
gs 1 -1 sc (Time-multiplexed ) col0 sh gr
/Helvetica ff 300.00 scf sf
11400 1575 m
gs 1 -1 sc (ECL) col0 sh gr
/Helvetica ff 300.00 scf sf
11400 4875 m
gs 1 -1 sc (ECL) col0 sh gr
/Helvetica ff 300.00 scf sf
8175 7950 m
gs 1 -1 sc (Control Bus ) col0 sh gr
/Helvetica ff 360.00 scf sf
15075 8700 m
gs 1 -1 sc (Electronics Hut) col0 sh gr
/Helvetica ff 300.00 scf sf
4875 6225 m
gs 1 -1 sc (Serial Out) col-1 sh gr
/Helvetica ff 360.00 scf sf
4950 3375 m
gs 1 -1 sc (Xilinx FPGA) col-1 sh gr
/Helvetica ff 360.00 scf sf
5175 3900 m
gs 1 -1 sc (XC4005E) col-1 sh gr
/Helvetica ff 360.00 scf sf
7950 4200 m
gs 1 -1 sc  90.0 rot (Control) col-1 sh gr
/Helvetica ff 360.00 scf sf
3975 2400 m
gs 1 -1 sc  270.0 rot (Digital Inputs ) col-1 sh gr
% Polyline
30.000 slw
n 1576 5851 m 1578 5851 l 1582 5851 l 1590 5851 l 1603 5851 l 1621 5851 l
 1645 5851 l 1675 5851 l 1711 5851 l 1753 5851 l 1800 5851 l
 1852 5851 l 1908 5851 l 1966 5851 l 2026 5851 l 2086 5851 l
 2144 5851 l 2200 5851 l 2252 5851 l 2299 5851 l 2341 5851 l
 2377 5851 l 2407 5851 l 2431 5851 l 2449 5851 l 2462 5851 l
 2470 5851 l 2474 5851 l 2476 5851 l gs col7 0.00 shd ef gr gs col-1 s gr 
% Polyline
15.000 slw
n 9300 6300 m 9600 6300 l 9600 6000 l 9750 6000 l 9750 6300 l 10950 6300 l
 10950 6000 l 11400 6000 l 11400 6300 l 11850 6300 l gs col0 s gr 
/Helvetica ff 360.00 scf sf
3825 7350 m
gs 1 -1 sc (DAC) col-1 sh gr
/Helvetica ff 300.00 scf sf
3225 1425 m
gs 1 -1 sc (1) col-1 sh gr
/Helvetica ff 300.00 scf sf
3225 2325 m
gs 1 -1 sc (2) col-1 sh gr
/Helvetica ff 300.00 scf sf
3225 3150 m
gs 1 -1 sc (3) col-1 sh gr
/Helvetica ff 300.00 scf sf
3075 5850 m
gs 1 -1 sc (24) col-1 sh gr
/Helvetica ff 300.00 scf sf
1575 7575 m
gs 1 -1 sc (Threshold) col-1 sh gr
/Helvetica ff 300.00 scf sf
1725 7875 m
gs 1 -1 sc (Setting) col-1 sh gr
% Polyline
30.000 slw
gs  clippath
5241 7290 m 4881 7200 l 5241 7110 l 4755 7110 l 4755 7290 l cp
clip
n 5400 6300 m 5400 7200 l 4800 7200 l gs col-1 s gr gr

% arrowhead
n 5241 7290 m 4881 7200 l 5241 7110 l  col-1 s
% Polyline
n 10575 1800 m 10725 1875 l 10575 1950 l gs col0 s gr 
% Polyline
n 14925 2100 m 15600 2100 l gs col0 s gr 
% Polyline
n 14325 1725 m 14925 2100 l 14325 2475 l 14325 1725 l  cp gs col-1 s gr 
% Ellipse
n 14256 2312 84 84 0 360 DrawEllipse gs col0 s gr

% Polyline
n 1501 3151 m 1503 3151 l 1507 3151 l 1515 3151 l 1528 3151 l 1546 3151 l
 1570 3151 l 1600 3151 l 1636 3151 l 1678 3151 l 1725 3151 l
 1777 3151 l 1833 3151 l 1891 3151 l 1951 3151 l 2011 3151 l
 2069 3151 l 2125 3151 l 2177 3151 l 2224 3151 l 2266 3151 l
 2302 3151 l 2332 3151 l 2356 3151 l 2374 3151 l 2387 3151 l
 2395 3151 l 2399 3151 l 2401 3151 l gs col7 0.00 shd ef gr gs col-1 s gr 
% Polyline
n 10575 2250 m 10725 2325 l 10575 2400 l gs col0 s gr 
% Polyline
n 13575 2250 m 13725 2325 l 13575 2400 l gs col0 s gr 
% Polyline
n 13575 1800 m 13725 1875 l 13575 1950 l gs col0 s gr 
% Polyline
n 13350 2250 m 13500 2325 l 13350 2400 l gs col0 s gr 
% Polyline
n 13350 1800 m 13500 1875 l 13350 1950 l gs col0 s gr 
% Polyline
n 10800 2250 m 10950 2325 l 10800 2400 l gs col0 s gr 
% Polyline
n 10800 1800 m 10950 1875 l 10800 1950 l gs col0 s gr 
% Polyline
n 2926 3301 m 3601 3301 l gs col-1 s gr 
% Ellipse
n 2326 2551 75 75 0 360 DrawEllipse gs col-1 s gr

% Polyline
n 1500 1350 m 1502 1350 l 1506 1350 l 1514 1350 l 1527 1350 l 1545 1350 l
 1569 1350 l 1599 1350 l 1635 1350 l 1677 1350 l 1724 1350 l
 1776 1350 l 1832 1350 l 1890 1350 l 1950 1350 l 2010 1350 l
 2068 1350 l 2124 1350 l 2176 1350 l 2223 1350 l 2265 1350 l
 2301 1350 l 2331 1350 l 2355 1350 l 2373 1350 l 2386 1350 l
 2394 1350 l 2398 1350 l 2400 1350 l gs col7 0.00 shd ef gr gs col-1 s gr 
% Polyline
n 2925 1500 m 3600 1500 l gs col-1 s gr 
% Polyline
n 1425 1275 m 1500 1350 l 1425 1425 l gs col-1 s gr 
% Polyline
n 2400 1200 m 2925 1500 l 2400 1800 l 2400 1200 l  cp gs col-1 s gr 
% Ellipse
n 2325 1650 75 75 0 360 DrawEllipse gs col-1 s gr

% Polyline
n 2401 2101 m 2926 2401 l 2401 2701 l 2401 2101 l  cp gs col-1 s gr 
% Polyline
n 1426 3076 m 1501 3151 l 1426 3226 l gs col-1 s gr 
% Polyline
n 2401 3001 m 2926 3301 l 2401 3601 l 2401 3001 l  cp gs col-1 s gr 
% Ellipse
n 2326 3451 75 75 0 360 DrawEllipse gs col-1 s gr

% Polyline
n 1501 2251 m 1503 2251 l 1507 2251 l 1515 2251 l 1528 2251 l 1546 2251 l
 1570 2251 l 1600 2251 l 1636 2251 l 1678 2251 l 1725 2251 l
 1777 2251 l 1833 2251 l 1891 2251 l 1951 2251 l 2011 2251 l
 2069 2251 l 2125 2251 l 2177 2251 l 2224 2251 l 2266 2251 l
 2302 2251 l 2332 2251 l 2356 2251 l 2374 2251 l 2387 2251 l
 2395 2251 l 2399 2251 l 2401 2251 l gs col7 0.00 shd ef gr gs col-1 s gr 
% Polyline
n 2926 2401 m 3601 2401 l gs col-1 s gr 
% Polyline
n 1426 2176 m 1501 2251 l 1426 2326 l gs col-1 s gr 
% Ellipse
n 14256 5612 84 84 0 360 DrawEllipse gs col0 s gr

% Ellipse
n 9900 2362 84 84 0 360 DrawEllipse gs col0 s gr

% Ellipse
n 2401 6151 75 75 0 360 DrawEllipse gs col-1 s gr

% Ellipse
n 2100 6150 38 38 0 360 DrawEllipse gs col7 0.00 shd ef gr gs col-1 s gr

% Ellipse
n 2100 3450 38 38 0 360 DrawEllipse gs col7 0.00 shd ef gr gs col-1 s gr

% Ellipse
n 2100 2550 38 38 0 360 DrawEllipse gs col7 0.00 shd ef gr gs col-1 s gr

% Ellipse
n 2700 5250 75 75 0 360 DrawEllipse gs col7 0.00 shd ef gr gs col-1 s gr

% Ellipse
n 9900 5662 84 84 0 360 DrawEllipse gs col0 s gr

% Polyline
n 3600 1200 m 8250 1200 l 8250 6300 l 3600 6300 l cp gs col-1 s gr 
% Polyline
n 2100 6150 m 2325 6150 l gs col-1 s gr 
% Polyline
n 2100 5400 m 2100 7200 l 3300 7200 l 3600 6900 l 4800 6900 l 4800 7500 l
 3600 7500 l 3300 7200 l gs col-1 s gr 
% Polyline
n 2100 3450 m 2250 3450 l gs col-1 s gr 
% Polyline
n 2100 2550 m 2250 2550 l gs col-1 s gr 
% Polyline
n 2250 1650 m 2100 1650 l 2100 3900 l gs col-1 s gr 
% Ellipse
n 2700 4800 75 75 0 360 DrawEllipse gs col7 0.00 shd ef gr gs col-1 s gr

% Polyline
n 10800 5550 m 10950 5625 l 10800 5700 l gs col0 s gr 
% Polyline
n 10800 5100 m 10950 5175 l 10800 5250 l gs col0 s gr 
% Polyline
n 10575 5550 m 10725 5625 l 10575 5700 l gs col0 s gr 
% Polyline
n 10575 5100 m 10725 5175 l 10575 5250 l gs col0 s gr 
% Polyline
n 14925 5400 m 15600 5400 l gs col0 s gr 
% Polyline
n 14325 5025 m 14925 5400 l 14325 5775 l 14325 5025 l  cp gs col-1 s gr 
% Polyline
n 13350 5100 m 13500 5175 l 13350 5250 l gs col0 s gr 
% Ellipse
n 2700 4350 75 75 0 360 DrawEllipse gs col7 0.00 shd ef gr gs col-1 s gr

% Polyline
15.000 slw
n 772 1909 m 773 1909 l 781 1909 l 792 1909 l 802 1909 l 810 1909 l
 817 1909 l 820 1909 l 823 1909 l 826 1910 l 829 1910 l
 832 1912 l 835 1914 l 838 1917 l 842 1921 l 845 1926 l
 848 1932 l 850 1939 l 853 1947 l 855 1957 l 857 1967 l
 859 1978 l 861 1990 l 863 2003 l 865 2018 l 866 2034 l
 868 2052 l 870 2070 l 872 2089 l 873 2109 l 875 2129 l
 876 2149 l 878 2168 l 879 2187 l 881 2205 l 882 2223 l
 883 2240 l 885 2261 l 887 2283 l 889 2304 l 891 2324 l
 893 2343 l 895 2361 l 897 2376 l 900 2388 l 902 2397 l
 905 2403 l 907 2405 l 910 2405 l 912 2401 l 915 2394 l
 918 2384 l 922 2371 l 925 2355 l 930 2337 l 934 2318 l
 938 2298 l 943 2277 l 948 2258 l 953 2239 l 958 2220 l
 962 2205 l 967 2190 l 972 2176 l 977 2161 l 983 2146 l
 990 2132 l 996 2118 l 1003 2104 l 1010 2091 l 1016 2078 l
 1023 2067 l 1030 2056 l 1036 2045 l 1043 2036 l 1050 2025 l
 1058 2014 l 1067 2003 l 1076 1992 l 1085 1982 l 1095 1972 l
 1105 1962 l 1114 1953 l 1124 1946 l 1133 1939 l 1141 1933 l
 1150 1929 l 1160 1924 l 1171 1920 l 1182 1916 l 1193 1914 l
 1204 1912 l 1216 1910 l 1226 1910 l 1236 1909 l 1245 1909 l
 1254 1909 l 1264 1909 l 1274 1909 l 1285 1909 l 1298 1909 l
 1311 1909 l 1321 1909 l 1327 1909 l 1328 1909 l gs col0 s gr 
% Polyline
n 697 5434 m 698 5434 l 706 5434 l 717 5434 l 727 5434 l 735 5434 l
 742 5434 l 745 5434 l 748 5434 l 751 5435 l 754 5435 l
 757 5437 l 760 5439 l 763 5442 l 767 5446 l 770 5451 l
 773 5457 l 775 5464 l 778 5472 l 780 5482 l 782 5492 l
 784 5503 l 786 5515 l 788 5528 l 790 5543 l 791 5559 l
 793 5577 l 795 5595 l 797 5614 l 798 5634 l 800 5654 l
 801 5674 l 803 5693 l 804 5712 l 806 5730 l 807 5748 l
 808 5765 l 810 5786 l 812 5808 l 814 5829 l 816 5849 l
 818 5868 l 820 5886 l 822 5901 l 825 5913 l 827 5922 l
 830 5928 l 832 5930 l 835 5930 l 837 5926 l 840 5919 l
 843 5909 l 847 5896 l 850 5880 l 855 5862 l 859 5843 l
 863 5823 l 868 5802 l 873 5783 l 878 5764 l 883 5745 l
 887 5730 l 892 5715 l 897 5701 l 902 5686 l 908 5671 l
 915 5657 l 921 5643 l 928 5629 l 935 5616 l 941 5603 l
 948 5592 l 955 5581 l 961 5570 l 968 5561 l 975 5550 l
 983 5539 l 992 5528 l 1001 5517 l 1010 5507 l 1020 5497 l
 1030 5487 l 1039 5478 l 1049 5471 l 1058 5464 l 1066 5458 l
 1075 5454 l 1085 5449 l 1096 5445 l 1107 5441 l 1118 5439 l
 1129 5437 l 1141 5435 l 1151 5435 l 1161 5434 l 1170 5434 l
 1179 5434 l 1189 5434 l 1199 5434 l 1210 5434 l 1223 5434 l
 1236 5434 l 1246 5434 l 1252 5434 l 1253 5434 l gs col0 s gr 
% Polyline
30.000 slw
n 13575 5550 m 13725 5625 l 13575 5700 l gs col0 s gr 
% Polyline
n 13575 5100 m 13725 5175 l 13575 5250 l gs col0 s gr 
% Polyline
n 13350 5550 m 13500 5625 l 13350 5700 l gs col0 s gr 
$F2psEnd
rs
