%!PS-Adobe-2.0 EPSF-2.0
%%BoundingBox: 0 0 567 567
%%Title: nim_eff.eps
%%Creator: HIGZ Version 1.23/07
%%CreationDate: :0/08/28   17.01
%%EndComments
%%BeginProlog
80 dict begin
/s {stroke} def /l {lineto} def /m {moveto} def /t {translate} def
/sw {stringwidth} def /r {rotate} def /rl {roll}  def /R {repeat} def
/d {rlineto} def /rm {rmoveto} def /gr {grestore} def /f {eofill} def
/c {setrgbcolor} def /lw {setlinewidth} def /sd {setdash} def
/cl {closepath} def /sf {scalefont setfont} def /black {0 setgray} def
/box {m dup 0 exch d exch 0 d 0 exch neg d cl} def
/NC{systemdict begin initclip end}def/C{NC box clip newpath}def
/bl {box s} def /bf {box f} def /Y { 0 exch d} def /X { 0 d} def 
/mp {newpath /y exch def /x exch def} def
/side {[w .77 mul w .23 mul] .385 w mul sd w 0 l currentpoint t -144 r} def
/mr {mp x y w2 0 360 arc} def /m24 {mr s} def /m20 {mr f} def
/mb {mp x y w2 add m w2 neg 0 d 0 w neg d w 0 d 0 w d cl} def
/mt {mp x y w2 add m w2 neg w neg d w 0 d cl} def
/m21 {mb f} def /m25 {mb s} def /m22 {mt f} def /m26 {mt s} def
/m23 {mp x y w2 sub m w2 w d w neg 0 d cl f} def
/m27 {mp x y w2 add m w3 neg w2 neg d w3 w2 neg d w3  w2 d cl s} def
/m28 {mp x w2 sub y w2 sub w3 add m w3 0 d 0 w3 neg d w3 0 d 0 w3 d w3 0 d
 0 w3 d w3 neg 0 d 0 w3 d w3 neg 0 d
 0 w3 neg d w3 neg 0 d cl s } def
/m29 {mp gsave x w2 sub y w2 add w3 sub m currentpoint t
 4 {side} repeat cl fill gr} def
/m30 {mp gsave x w2 sub y w2 add w3 sub m currentpoint t
 5 {side} repeat s gr} def
/m31 {mp x y w2 sub m 0 w d x w2 sub y m w 0 d
 x w2 sub y w2 add m w w neg d x w2 sub y w2
 sub m w w d s} def
/m2 {mp x y w2 sub m 0 w d x w2 sub y m w 0 d s} def
/m5 {mp x w2 sub y w2 sub m w w d x w2 sub y w2 add m w w neg d s} def
/DP {/PT exch def gsave 47.2 47.2 scale PT 1  eq { 16 16 1 [ 16 0 0 16 neg 0 16
] { < AA AA 55 55 AA AA 55 55 AA AA 55 55 AA AA 55 55 AA AA 55 55 AA AA 55 55
AA AA 55 55 AA AA 55 55 > } image } if PT 2 eq { 16 16 1 [ 16 0 0 16 neg 0 16
] { < BB BB EE EE BB BB EE EE BB BB EE EE BB BB EE EE BB BB EE EE BB BB EE EE
BB BB EE EE BB BB EE EE > } image } if PT 3 eq { 16 16 1 [ 16 0 0 16 neg 0 16
] { < FF FF BB BB FF FF EE EE FF FF BB BB FF FF EE EE FF FF BB BB FF FF EE EE
FF FF BB BB FF FF EE EE > } image } if PT 4 eq { 16 16 1 [ 16 0 0 16 neg 0 16
] { < DF DF BF BF 7F 7F FE FE FD FD FB FB F7 F7 EF EF DF DF BF BF 7F 7F FE FE
FD FD FB FB F7 F7 EF EF > } image } if PT 5 eq { 16 16 1 [ 16 0 0 16 neg 0 16
] { < 7F 7F BF B F DF DF EF EF F7 F7 FB FB FD FD FE FE 7F 7F BF BF DF DF EF
EF F7 F7 FB FB FD FD FE FE > } image } if PT 6 eq { 16 16 1 [ 16 0 0 16 neg 0
16 ] { < BB BB BB BB BB BB BB BB BB BB BB BB BB BB BB BB BB BB BB BB BB BB BB
BB BB BB BB BB BB BB BB BB > } image } if PT 7 eq { 16 16 1 [ 16 0 0 16 neg 0
16 ] { < FF FF FF FF FF FF 00 00 FF FF FF FF FF FF 00 00 FF FF FF FF FF FF 00
00 FF FF FF FF FF FF 00 00 > } image } if PT 8 eq { 16 16 1 [ 16 0 0 16 neg 0
16 ] { < EE EE 47 47 83 83 C5 C5 EE EE 5C 5C 38 38 74 74 EE EE 47 47 83 83 C5
C5 EE EE 5C 5C 38 38 74 74 > } image } if PT 9 eq { 16 16 1 [ 16 0 0 16 neg 0
16 ] { < EF EF EF EF D7 D7 38 38 FE FE FE FE 7D 7D 83 83 EF EF EF EF D7 D7 38
38  FE FE FE FE 7D 7D 83 83 > } image } if PT 10 eq { 16 16 1 [ 16 0 0 16 neg
0 16 ] { <  EF EF EF EF EF EF 00 00 FE FE FE FE FE FE 00 00 EF EF EF EF EF EF
00 00 FE FE FE FE FE FE 00 00 > } image } if PT 11 eq { 16 16 1 [ 16 0 0 16
neg 0 16 ] { < F7 F7 B6 B6 D5 D5 E3 E3 D5 D5 B6 B6 F7 F7 FF FF 7F 7F 6B 6B 5D
5D 3E 3E 5D 5D 6B 6B 7F 7F FF FF > } image } if PT 12 eq { 16 16 1 [ 16 0 0
16 neg 0 16 ] { < E3 E3 DD DD BE BE BE BE BE BE DD DD E3 E3 FF FF 3E 3E DD DD
EB EB EB EB EB EB DD DD 3E 3E FF FF > } image } if PT 13 eq { 16 16 1 [ 16 0
0 16 neg 0 16 ] { <  FE FE 7D 7D BB BB D7 D7 EF EF D7 D7 BB BB 7D 7D FE FE 7D
7D BB BB D7 D7 EF EF D7 D7 BB BB 7D 7D > } image } if PT 14 eq { 16 16 1 [ 16
0 0 16 neg 0 16 ] { < 00 00 EE EF EE EF EE EF 0E E0 EE EE EE EE EE EE 00 EE
FE EE FE EE FE EE 00 00 FE EF FE EF FE EF > } image } if PT 15 eq { 16 16 1 [
16 0 0 16 neg 0 16 ] { < DD DD AA AA DD DD FF FF 77 77 AA AA 77 77 FF FF DD
DD AA AA DD DD FF FF 77 77 AA AA 77 77 FF FF > } image } if PT 16 eq { 16 16
1 [ 16 0 0 16 neg 0 16 ] { <  F1 F1 EE EE 1F 1F FF FF F1 F1 EE EE 1F 1F FF FF
F1 F1 EE EE 1F 1F FF FF F1 F1 EE EE 1F 1F FF FF > } image } if PT 17 eq { 16
16 1 [ 16 0 0 16 neg 0 16 ] { <  EE EE DD DD BB BB FF FF EE EE DD DD BB BB FF
 FF EE EE DD DD BB BB FF FF EE EE DD DD BB BB FF FF > } image } if PT 18 eq {
16 16 1 [ 16 0 0 16 neg 0 16 ] { <  BB BB DD DD EE EE FF FF BB BB DD DD EE EE
FF FF BB BB DD DD EE EE FF FF BB BB DD DD EE EE FF FF > } image } if PT 19 eq
{ 16 16 1 [ 16 0 0 16 neg 0 16 ] { < 1F FC 67 F3 7B EF BD DE BD DE DE BD E6
B3 F8 0F E6 B3 DE BD BD DE BD DE 7B EF 67 F3 1F FC 7F FF > } image } if PT
20 eq { 16 16 1 [ 16 0 0 16 neg 0 16 ] { < DD DD EE EE EE EE EE EE DD DD BB
BB BB BB BB BB DD DD EE EE EE EE EE EE DD DD BB BB BB BB BB BB > } image }
if PT 21 eq { 16 16 1 [ 16 0 0 16 neg 0 16 ] { < 0E 0E EF EF EF EF EF EF E0
E0 FE FE FE FE FE FE 0E 0E EF EF EF EF EF EF E0 E0 FE FE FE FE FE FE > }
image }  if PT 22 eq { 16 16 1 [ 16 0 0 16 neg 0 16 ] { < 70 70 F7 F7 F7 F7 F7
F7 07 07 7F 7F 7F 7F 7F 7F 70 70 F7 F7 F7 F7 F7 F7 07 07 7F 7F 7F 7F 7F 7F >
} image } if PT 23 eq  { 16 16 1 [ 16 0 0 16 neg 0 16 ] { < AA AA 55 55 A9 A9
D1 D1 E1 E1 D1 D1 A9 A9 55 55 AA AA 55 55 A9 A9 D1 D1 E1 E1 D1 D1 A9 A9 55 55
> } image } if PT 24 eq { 16 16 1 [ 16 0 0 16 neg 0 16 ] { < FF FE FF FC EA
A8 D5 54 EA A8 D5 54 E8 28 D4 54 E8 E8 D4 D4 E8 EA 54 D5 A8 EA 54 D5 00 C0 00
80 > } image } if PT 25 eq {  16 16 1 [ 16 0 0 16 neg 0 16 ] { < FF FE FF FC
FF F8 FF F0 F0 00 F0 00 F0 20 F0 60 F0 E0 F1 E0 F3 E0 F0 00 E0 00 C0 00 80 00
00 00 > } image } if gr } def /FA { /PT exch def gsave clip 0 0 translate 1 1
54 { 1 sub 47.2 mul /Xcurr exch def 1 1 74 { 1 sub 47.2 mul /Ycurr exch def
gsave Xcurr Ycurr translate PT DP gr } for } for gr } def
/reencdict 24 dict def /ReEncode {reencdict begin /nco&na exch def
/nfnam exch def /basefontname exch def /basefontdict basefontname findfont def
/newfont basefontdict maxlength dict def basefontdict {exch dup /FID ne
{dup /Encoding eq {exch dup length array copy newfont 3 1 roll put} {exch
newfont 3 1 roll put} ifelse} {pop pop} ifelse } forall newfont
/FontName nfnam put nco&na aload pop nco&na length 2 idiv {newfont
/Encoding get 3 1 roll put} repeat nfnam newfont definefont pop end } def
/accvec [ 176 /agrave 181 /Agrave 190 /acircumflex 192 /Acircumflex
201 /adieresis 204 /Adieresis 209 /ccedilla 210 /Ccedilla 211 /eacute
212 /Eacute 213 /egrave 214 /Egrave 215 /ecircumflex 216 /Ecircumflex
217 /edieresis 218 /Edieresis 219 /icircumflex 220 /Icircumflex
221 /idieresis 222 /Idieresis 223 /ntilde 224 /Ntilde 226 /ocircumflex
228 /Ocircumflex 229 /odieresis 230 /Odieresis 231 /ucircumflex 236 /Ucircumflex
237 /udieresis 238 /Udieresis 239 /aring 242 /Aring 243 /ydieresis
244 /Ydieresis 246 /aacute 247 /Aacute 252 /ugrave 253 /Ugrave] def
/Times-Roman /Times-Roman accvec ReEncode
/Times-Italic /Times-Italic accvec ReEncode
/Times-Bold /Times-Bold accvec ReEncode
/Times-BoldItalic /Times-BoldItalic accvec ReEncode
/Helvetica /Helvetica accvec ReEncode
/Helvetica-Oblique /Helvetica-Oblique accvec ReEncode
/Helvetica-Bold /Helvetica-Bold accvec ReEncode
/Helvetica-BoldOblique /Helvetica-BoldOblique  accvec ReEncode
/Courier /Courier accvec ReEncode
/Courier-Oblique /Courier-Oblique accvec ReEncode
/Courier-Bold /Courier-Bold accvec ReEncode
/Courier-BoldOblique /Courier-BoldOblique accvec ReEncode
/oshow {gsave [] 0 sd true charpath stroke gr} def
/stwn { /fs exch def /fn exch def /text exch def fn findfont fs sf
 text sw pop xs add /xs exch def} def
/stwb { /fs exch def /fn exch def /nbas exch def /textf exch def
textf length /tlen exch def nbas tlen gt {/nbas tlen def} if
fn findfont fs sf textf dup length nbas sub nbas getinterval sw
pop neg xs add /xs exch def} def
/accspe [ 65 /plusminus 66 /bar 67 /existential 68 /universal
69 /exclam 70 /numbersign 71 /greater 72 /question 73 /integral
74 /colon 75 /semicolon 76 /less 77 /bracketleft 78 /bracketright
79 /greaterequal 80 /braceleft 81 /braceright 82 /radical
83 /spade 84 /heart 85 /diamond 86 /club 87 /lessequal
88 /multiply 89 /percent 90 /infinity 48 /circlemultiply 49 /circleplus
50 /emptyset 51 /lozenge 52 /bullet 53 /arrowright 54 /arrowup
55 /arrowleft 56 /arrowdown 57 /arrowboth 48 /degree 44 /comma 43 /plus
 45 /angle 42 /angleleft 47 /divide 61 /notequal 40 /equivalence 41 /second
 97 /approxequal 98 /congruent 99 /perpendicular 100 /partialdiff 101 /florin
 102 /intersection 103 /union 104 /propersuperset 105 /reflexsuperset
 106 /notsubset 107 /propersubset 108 /reflexsubset 109 /element 110 /notelement
 111 /gradient 112 /logicaland 113 /logicalor 114 /arrowdblboth
 115 /arrowdblleft 116 /arrowdblup 117 /arrowdblright 118 /arrowdbldown
 119 /ampersand 120 /omega1 121 /similar 122 /aleph ] def
/Symbol /Special accspe ReEncode
%%EndProlog
 gsave  .25 .25 scale  gsave 0 0 t black [] 0 sd 1 lw 5 lw 1814 1815 397 340 bl
 1814 1815 397 340 C NC 1 lw 397 340 m 1815 Y s 431 340 m -34 X s [4 8] 0 sd
 2211 340 m -1814 X s [] 0 sd 414 423 m -17 X s 414 505 m -17 X s 414 588 m -17
 X s 414 670 m -17 X s 431 753 m -34 X s [4 8] 0 sd 2211 753 m -1814 X s [] 0 sd
 414 835 m -17 X s 414 918 m -17 X s 414 1000 m -17 X s 414 1082 m -17 X s 431
 1165 m -34 X s [4 8] 0 sd 2211 1165 m -1814 X s [] 0 sd 414 1247 m -17 X s 414
 1330 m -17 X s 414 1412 m -17 X s 414 1495 m -17 X s 431 1577 m -34 X s
 [4 8] 0 sd 2211 1577 m -1814 X s [] 0 sd 414 1660 m -17 X s 414 1742 m -17 X s
 414 1825 m -17 X s 414 1907 m -17 X s 431 1990 m -34 X s [4 8] 0 sd 2211 1990 m
 -1814 X s [] 0 sd 431 1990 m -34 X s [4 8] 0 sd 2211 1990 m -1814 X s [] 0 sd
 414 2072 m -17 X s
 /xs 0 def 
(0)
 /Times-Bold     83 stwn 
 gsave  363 312
 t   0 r  xs neg 0 t 0 0 m
 /Times-Bold findfont   83 sf 0    0 m 
(0)
 show 
 gr 
 /xs 0 def 
(0.25)
 /Times-Bold     83 stwn 
 gsave  363 724
 t   0 r  xs neg 0 t 0 0 m
 /Times-Bold findfont   83 sf 0    0 m 
(0.25)
 show 
 gr 
 /xs 0 def 
(0.5)
 /Times-Bold     83 stwn 
 gsave  363 1137
 t   0 r  xs neg 0 t 0 0 m
 /Times-Bold findfont   83 sf 0    0 m 
(0.5)
 show 
 gr 
 /xs 0 def 
(0.75)
 /Times-Bold     83 stwn 
 gsave  363 1549
 t   0 r  xs neg 0 t 0 0 m
 /Times-Bold findfont   83 sf 0    0 m 
(0.75)
 show 
 gr 
 /xs 0 def 
(1)
 /Times-Bold     83 stwn 
 gsave  363 1961
 t   0 r  xs neg 0 t 0 0 m
 /Times-Bold findfont   83 sf 0    0 m 
(1)
 show 
 gr  397 340 m 1814 X s 397 374 m -34 Y s [4 8] 0 sd 397 2155 m -1815 Y s
 [] 0 sd 457 357 m -17 Y s 518 357 m -17 Y s 578 357 m -17 Y s 639 357 m -17 Y s
 699 374 m -34 Y s [4 8] 0 sd 699 2155 m -1815 Y s [] 0 sd 760 357 m -17 Y s 820
 357 m -17 Y s 881 357 m -17 Y s 941 357 m -17 Y s 1002 374 m -34 Y s [4 8] 0 sd
 1002 2155 m -1815 Y s [] 0 sd 1062 357 m -17 Y s 1123 357 m -17 Y s 1183 357 m
 -17 Y s 1244 357 m -17 Y s 1304 374 m -34 Y s [4 8] 0 sd 1304 2155 m -1815 Y s
 [] 0 sd 1365 357 m -17 Y s 1425 357 m -17 Y s 1486 357 m -17 Y s 1546 357 m -17
 Y s 1607 374 m -34 Y s [4 8] 0 sd 1607 2155 m -1815 Y s [] 0 sd 1667 357 m -17
 Y s 1727 357 m -17 Y s 1788 357 m -17 Y s 1848 357 m -17 Y s 1909 374 m -34 Y s
 [4 8] 0 sd 1909 2155 m -1815 Y s [] 0 sd 1969 357 m -17 Y s 2030 357 m -17 Y s
 2090 357 m -17 Y s 2151 357 m -17 Y s 2211 374 m -34 Y s [4 8] 0 sd 2211 2155 m
 -1815 Y s
 /xs 0 def 
(0)
 /Times-Bold     83 stwn 
 gsave  397 249
 t   0 r  xs 2 div neg 0 t 0 0 m
 /Times-Bold findfont   83 sf 0    0 m 
(0)
 show 
 gr 
 /xs 0 def 
(0.5)
 /Times-Bold     83 stwn 
 gsave  699 249
 t   0 r  xs 2 div neg 0 t 0 0 m
 /Times-Bold findfont   83 sf 0    0 m 
(0.5)
 show 
 gr 
 /xs 0 def 
(1)
 /Times-Bold     83 stwn 
 gsave  1002 249
 t   0 r  xs 2 div neg 0 t 0 0 m
 /Times-Bold findfont   83 sf 0    0 m 
(1)
 show 
 gr 
 /xs 0 def 
(1.5)
 /Times-Bold     83 stwn 
 gsave  1304 249
 t   0 r  xs 2 div neg 0 t 0 0 m
 /Times-Bold findfont   83 sf 0    0 m 
(1.5)
 show 
 gr 
 /xs 0 def 
(2)
 /Times-Bold     83 stwn 
 gsave  1607 249
 t   0 r  xs 2 div neg 0 t 0 0 m
 /Times-Bold findfont   83 sf 0    0 m 
(2)
 show 
 gr 
 /xs 0 def 
(2.5)
 /Times-Bold     83 stwn 
 gsave  1909 249
 t   0 r  xs 2 div neg 0 t 0 0 m
 /Times-Bold findfont   83 sf 0    0 m 
(2.5)
 show 
 gr 
 /xs 0 def 
(3)
 /Times-Bold     83 stwn 
 gsave  2211 249
 t   0 r  xs 2 div neg 0 t 0 0 m
 /Times-Bold findfont   83 sf 0    0 m 
(3)
 show 
 gr  1814 1815 397 340 C NC [] 0 sd 2211 340 m 1815 Y s 2177 340 m 34 X s 2194
 423 m 17 X s 2194 505 m 17 X s 2194 588 m 17 X s 2194 670 m 17 X s 2177 753 m
 34 X s 2194 835 m 17 X s 2194 918 m 17 X s 2194 1000 m 17 X s 2194 1082 m 17 X
 s 2177 1165 m 34 X s 2194 1247 m 17 X s 2194 1330 m 17 X s 2194 1412 m 17 X s
 2194 1495 m 17 X s 2177 1577 m 34 X s 2194 1660 m 17 X s 2194 1742 m 17 X s
 2194 1825 m 17 X s 2194 1907 m 17 X s 2177 1990 m 34 X s 2177 1990 m 34 X s
 2194 2072 m 17 X s 1814 1815 397 340 C NC 397 2155 m 1814 X s 397 2121 m 34 Y s
 457 2138 m 17 Y s 518 2138 m 17 Y s 578 2138 m 17 Y s 639 2138 m 17 Y s 699
 2121 m 34 Y s 760 2138 m 17 Y s 820 2138 m 17 Y s 881 2138 m 17 Y s 941 2138 m
 17 Y s 1002 2121 m 34 Y s 1062 2138 m 17 Y s 1123 2138 m 17 Y s 1183 2138 m 17
 Y s 1244 2138 m 17 Y s 1304 2121 m 34 Y s 1365 2138 m 17 Y s 1425 2138 m 17 Y s
 1486 2138 m 17 Y s 1546 2138 m 17 Y s 1607 2121 m 34 Y s 1667 2138 m 17 Y s
 1727 2138 m 17 Y s 1788 2138 m 17 Y s 1848 2138 m 17 Y s 1909 2121 m 34 Y s
 1969 2138 m 17 Y s 2030 2138 m 17 Y s 2090 2138 m 17 Y s 2151 2138 m 17 Y s
 2211 2121 m 34 Y s 1814 1815 397 340 C 2268 2268 0 0 C
 /xs 0 def 
(P\(GeV/c\))
 /Times-Bold     83 stwn 
 gsave  2211 159
 t   0 r  xs neg 0 t 0 0 m
 /Times-Bold findfont   83 sf 0    0 m 
(P\(GeV/c\))
 show 
 gr 
 /xs 0 def 
(efficiency)
 /Times-Bold     83 stwn 
 gsave  193 2155
 t  90 r  xs neg 0 t 0 0 m
 /Times-Bold findfont   83 sf 0    0 m 
(efficiency)
 show 
 gr  1814 1815 397 340 C 5 lw 397 340 m 30 X s 427 340 m 30 X s 457 340 m 31 X s
 488 340 m 30 X s 518 340 m 30 X s 548 340 m 30 X s 578 340 m 31 X s 609 340 m
 30 X s 639 340 m 30 X s 669 340 m 30 X s 699 340 m 31 X s 730 340 m 30 X s 790
 983 m 14 Y s 790 1019 m 15 Y s 760 1008 m 19 X s 801 1008 m 19 X s /w 23
 def /w2 {w 2 div} def /w3 {w 3 div} def 790 1008 m20 851 1503 m 10 Y s 851 1536
 m 10 Y s 820 1524 m 19 X s 862 1524 m 19 X s 851 1524 m20 911 1666 m 7 Y s 911
 1695 m 7 Y s 881 1684 m 19 X s 922 1684 m 19 X s 911 1684 m20 971 1716 m 6 Y s
 971 1745 m 5 Y s 941 1733 m 19 X s 983 1733 m 19 X s 971 1733 m20 1032 1746 m 5
 Y s 1032 1773 m 6 Y s 1002 1762 m 19 X s 1043 1762 m 19 X s 1032 1762 m20 1092
 1750 m 5 Y s 1092 1778 m 4 Y s 1062 1766 m 19 X s 1104 1766 m 19 X s 1092 1766
 m20 1153 1771 m 3 Y s 1153 1797 m 4 Y s 1123 1786 m 19 X s 1164 1786 m 19 X s
 1153 1786 m20 1213 1804 m 2 Y s 1213 1829 m 3 Y s 1183 1818 m 19 X s 1225 1818
 m 19 X s 1213 1818 m20 1274 1824 m 2 Y s 1274 1848 m 2 Y s 1244 1837 m 19 X s
 1285 1837 m 19 X s 1274 1837 m20 1334 1858 m 1 Y s 1334 1882 m s 1304 1870 m 19
 X s 1346 1870 m 19 X s 1334 1870 m20 1395 1828 m 2 Y s 1395 1853 m 2 Y s 1365
 1842 m 18 X s 1406 1842 m 19 X s 1395 1842 m20 1455 1829 m 2 Y s 1455 1854 m 2
 Y s 1425 1842 m 19 X s 1467 1842 m 19 X s 1455 1842 m20 1516 1840 m 1 Y s 1516
 1864 m 1 Y s 1486 1852 m 18 X s 1527 1852 m 19 X s 1516 1852 m20 1576 1822 m 2
 Y s 1576 1847 m 2 Y s 1546 1836 m 19 X s 1588 1836 m 19 X s 1576 1836 m20 1637
 1846 m 2 Y s 1637 1871 m 1 Y s 1607 1859 m 18 X s 1648 1859 m 19 X s 1637 1859
 m20 1697 1861 m 1 Y s 1697 1885 m s 1667 1873 m 19 X s 1709 1873 m 18 X s 1697
 1873 m20 1758 1846 m 1 Y s 1758 1870 m 1 Y s 1727 1859 m 19 X s 1769 1859 m 19
 X s 1758 1859 m20 1818 1844 m 2 Y s 1818 1868 m 2 Y s 1788 1857 m 19 X s 1830
 1857 m 18 X s 1818 1857 m20 1879 1825 m 2 Y s 1879 1850 m 2 Y s 1848 1838 m 19
 X s 1890 1838 m 19 X s 1879 1838 m20 1939 1848 m 1 Y s 1939 1872 m 1 Y s 1909
 1861 m 19 X s 1950 1861 m 19 X s 1939 1861 m20 2000 1859 m s 2000 1882 m s 1969
 1871 m 19 X s 2011 1871 m 19 X s 2000 1871 m20 2060 1861 m 1 Y s 2060 1885 m s
 2030 1873 m 19 X s 2071 1873 m 19 X s 2060 1873 m20 2090 1892 m 19 X s 2132
 1892 m 19 X s 2121 1892 m20 2181 1875 m s 2181 1898 m 1 Y s 2151 1887 m 19 X s
 2192 1887 m 19 X s 2181 1887 m20
 gr  gr 
showpage
end
%%EOF
