%!PS-Adobe-2.0 EPSF-2.0
%%BoundingBox:  0 0 567 178
%%Title: ./plots/s0/pAll_s1s2_s0.eps: rf101_basics
%%Creator: ROOT Version 6.13/01
%%CreationDate: Thu Dec 28 11:47:01 2017
%%DocumentNeededResources: ProcSet (FontSetInit)
%%EndComments
%%BeginProlog
80 dict begin
/s {stroke} def /l {lineto} def /m {moveto} def /t {translate} def
/r {rotate} def /rl {roll}  def /R {repeat} def
/d {rlineto} def /rm {rmoveto} def /gr {grestore} def /f {eofill} def
/c {setrgbcolor} def /black {0 setgray} def /sd {setdash} def
/cl {closepath} def /sf {scalefont setfont} def /lw {setlinewidth} def
/box {m dup 0 exch d exch 0 d 0 exch neg d cl} def
/NC{systemdict begin initclip end}def/C{NC box clip newpath}def
/bl {box s} def /bf {gsave box gsave f grestore 1 lw [] 0 sd s grestore} def /Y { 0 exch d} def /X { 0 d} def 
/K {{pop pop 0 moveto} exch kshow} bind def
/ita {/ang 15 def gsave [1 0 ang dup sin exch cos div 1 0 0] concat} def 
/mp {newpath /y exch def /x exch def} def
/side {[w .77 mul w .23 mul] .385 w mul sd w 0 l currentpoint t -144 r} def
/mr {mp x y w2 0 360 arc} def /m24 {mr s} def /m20 {mr f} def
/mb {mp x y w2 add m w2 neg 0 d 0 w neg d w 0 d 0 w d cl} def
/mt {mp x y w2 add m w2 neg w neg d w 0 d cl} def
/w4 {w 4 div} def
/w6 {w 6 div} def
/w8 {w 8 div} def
/m21 {mb f} def /m25 {mb s} def /m22 {mt f} def /m26{mt s} def
/m23 {mp x y w2 sub m w2 w d w neg 0 d cl f} def
/m27 {mp x y w2 add m w3 neg w2 neg d w3 w2 neg d w3 w2 d cl s} def
/m28 {mp x w2 sub y w2 sub w3 add m w3 0 d  0 w3 neg d w3 0 d 0 w3 d w3 0 d  0 w3 d w3 neg 0 d 0 w3 d w3 neg 0 d 0 w3 neg d w3 neg 0 d cl s } def
/m29 {mp gsave x w2 sub y w2 add w3 sub m currentpoint t 4 {side} repeat cl fill gr} def
/m30 {mp gsave x w2 sub y w2 add w3 sub m currentpoint t 4 {side} repeat cl s gr} def
/m31 {mp x y w2 sub m 0 w d x w2 sub y m w 0 d x w2 sub y w2 add m w w neg d x w2 sub y w2 sub m w w d s} def
/m32 {mp x y w2 sub m w2 w d w neg 0 d cl s} def
/m33 {mp x y w2 add m w3 neg w2 neg d w3 w2 neg d w3 w2 d cl f} def
/m34 {mp x w2 sub y w2 sub w3 add m w3 0 d  0 w3 neg d w3 0 d 0 w3 d w3 0 d  0 w3 d w3 neg 0 d 0 w3 d w3 neg 0 d 0 w3 neg d w3 neg 0 d cl f } def
/m35 {mp x y w2 add m w2 neg w2 neg d w2 w2 neg d w2 w2 d w2 neg w2 d x y w2 sub m 0 w d x w2 sub y m w 0 d s} def
/m36 {mb x w2 sub y w2 add m w w neg d x w2 sub y w2 sub m w w d s} def
/m37 {mp x y m w4 neg w2 d w4 neg w2 neg d w2 0 d  w4 neg w2 neg d w2 0 d w4 neg w2 d w2 0 d w4 neg w2 d w4 neg w2 neg d cl s} def
/m38 {mp x w4 sub y w2 add m w4 neg w4 neg d 0 w2 neg d w4 w4 neg d w2 0 d w4 w4 d 0 w2 d w4 neg w4 d w2 neg 0 d x y w2 sub m 0 w d x w2 sub y m w 0 d cl s} def
/m39 {mp x y m w4 neg w2 d w4 neg w2 neg d w2 0 d  w4 neg w2 neg d w2 0 d w4 neg w2 d w2 0 d w4 neg w2 d w4 neg w2 neg d cl f} def
/m40 {mp x y m w4 w2 d w4 w4 neg d w2 neg w4 neg d w2 w4 neg d w4 neg w4 neg d w4 neg w2 d w4 neg w2 neg d w4 neg w4 d w2 w4 d w2 neg w4 d w4 w4 d w4 w2 neg d cl s} def
/m41 {mp x y m w4 w2 d w4 w4 neg d w2 neg w4 neg d w2 w4 neg d w4 neg w4 neg d w4 neg w2 d w4 neg w2 neg d w4 neg w4 d w2 w4 d w2 neg w4 d w4 w4 d w4 w2 neg d cl f} def
/m42 {mp x y w2 add m w8 neg w2 -3 4 div mul d w2 -3 4 div mul w8 neg d w2 3 4 div mul w8 neg d w8 w2 -3 4 div mul d w8 w2 3 4 div mul d w2 3 4 div mul w8 d w2 -3 4 div mul w8 d w8 neg w2 3 4 div mul d cl s} def
/m43 {mp x y w2 add m w8 neg w2 -3 4 div mul d w2 -3 4 div mul w8 neg d w2 3 4 div mul w8 neg d w8 w2 -3 4 div mul d w8 w2 3 4 div mul d w2 3 4 div mul w8 d w2 -3 4 div mul w8 d w8 neg w2 3 4 div mul d cl f} def
/m44 {mp x y m w6 neg w2 d w2 2 3 div mul 0 d w6 neg w2 neg d w2 w6 d 0 w2 -2 3 div mul d w2 neg w6 d w6 w2 neg d w2 -2 3 div mul 0 d w6 w2 d w2 neg w6 neg d 0 w2 2 3 div mul d w2 w6 neg d cl s} def
/m45 {mp x y m w6 neg w2 d w2 2 3 div mul 0 d w6 neg w2 neg d w2 w6 d 0 w2 -2 3 div mul d w2 neg w6 d w6 w2 neg d w2 -2 3 div mul 0 d w6 w2 d w2 neg w6 neg d 0 w2 2 3 div mul d w2 w6 neg d cl f} def
/m46 {mp x y w4 add m w4 neg w4 d w4 neg w4 neg d  w4 w4 neg d w4 neg w4 neg d w4 w4 neg d w4 w4 d w4 w4 neg d w4 w4 d w4 neg w4 d w4 w4 d w4 neg w4 d w4 neg w4 neg d cl s} def
/m47 {mp x y w4 add m w4 neg w4 d w4 neg w4 neg d w4 w4 neg d w4 neg w4 neg d  w4 w4 neg d w4 w4 d w4 w4 neg d w4 w4 d w4 neg w4 d w4 w4 d w4 neg w4 d w4 neg w4 neg d cl f} def
/m48 {mp x y w4 add m w4 neg w4 d w4 neg w4 neg d w4 w4 neg d  w4 neg w4 neg d w4 w4 neg d w4 w4 d w4 w4 neg d w4 w4 d w4 neg w4 d w4 w4 d w4 neg w4 d w4 neg w4 neg d  w4 w4 neg d w4 neg w4 neg d w4 neg w4 d w4 w4 d cl f} def
/m49 {mp x w2 sub w3 add y w2 sub w3 add m  0 w3 neg d w3 0 d 0 w3 d w3 0 d 0 w3 d w3 neg 0 d 0 w3 d w3 neg 0 d 0 w3 neg d w3 neg 0 d 0 w3 neg d w3 0 d 0 w3 d w3 0 d 0 w3 neg d w3 neg 0 d cl f } def
/m2 {mp x y w2 sub m 0 w d x w2 sub y m w 0 d s} def
/m5 {mp x w2 sub y w2 sub m w w d x w2 sub y w2 add m w w neg d s} def
%%IncludeResource: ProcSet (FontSetInit)
%%IncludeResource: font Times-Roman
%%IncludeResource: font Times-Italic
%%IncludeResource: font Times-Bold
%%IncludeResource: font Times-BoldItalic
%%IncludeResource: font Helvetica
%%IncludeResource: font Helvetica-Oblique
%%IncludeResource: font Helvetica-Bold
%%IncludeResource: font Helvetica-BoldOblique
%%IncludeResource: font Courier
%%IncludeResource: font Courier-Oblique
%%IncludeResource: font Courier-Bold
%%IncludeResource: font Courier-BoldOblique
%%IncludeResource: font Symbol
%%IncludeResource: font ZapfDingbats
/reEncode {exch findfont dup length dict begin {1 index /FID eq  {pop pop} {def} ifelse } forall /Encoding exch def currentdict end dup /FontName get exch definefont pop } def [/Times-Bold /Times-Italic /Times-BoldItalic /Helvetica /Helvetica-Oblique
 /Helvetica-Bold /Helvetica-BoldOblique /Courier /Courier-Oblique /Courier-Bold /Courier-BoldOblique /Times-Roman /AvantGarde-Book /AvantGarde-BookOblique /AvantGarde-Demi /AvantGarde-DemiOblique /Bookman-Demi /Bookman-DemiItalic /Bookman-Light
 /Bookman-LightItalic /Helvetica-Narrow /Helvetica-Narrow-Bold /Helvetica-Narrow-BoldOblique /Helvetica-Narrow-Oblique /NewCenturySchlbk-Roman /NewCenturySchlbk-Bold /NewCenturySchlbk-BoldItalic /NewCenturySchlbk-Italic /Palatino-Bold
 /Palatino-BoldItalic /Palatino-Italic /Palatino-Roman ] {ISOLatin1Encoding reEncode } forall
%%EndProlog
%%BeginSetup
%%EndSetup
newpath  gsave  .25 .25 scale  gsave  0 0 t black[  ] 0 sd 3 lw 1 1 1 c 2268 713 0 0 bf black 1 1 1 c 710 699 23 7 bf black 1 1 1 c 533 559 129 77 bf black 533 559 129 77 bl 129 77 m 533 X s 129 93 m -16 Y s 143 85 m -8 Y s 156 85 m -8 Y s 169 85 m
 -8 Y s 183 85 m -8 Y s 196 93 m -16 Y s 209 85 m -8 Y s 223 85 m -8 Y s 236 85 m -8 Y s 249 85 m -8 Y s 262 93 m -16 Y s 276 85 m -8 Y s 289 85 m -8 Y s 302 85 m -8 Y s 316 85 m -8 Y s 329 93 m -16 Y s 342 85 m -8 Y s 356 85 m -8 Y s 369 85 m -8 Y s
 382 85 m -8 Y s 396 93 m -16 Y s 409 85 m -8 Y s 422 85 m -8 Y s 436 85 m -8 Y s 449 85 m -8 Y s 462 93 m -16 Y s 476 85 m -8 Y s 489 85 m -8 Y s 502 85 m -8 Y s 516 85 m -8 Y s 529 93 m -16 Y s 542 85 m -8 Y s 556 85 m -8 Y s 569 85 m -8 Y s 582 85
 m -8 Y s 596 93 m -16 Y s 609 85 m -8 Y s 622 85 m -8 Y s 636 85 m -8 Y s 649 85 m -8 Y s 662 93 m -16 Y s
 gsave  710 699 23 7 C 105.968 54.4979 t 0 r /Helvetica findfont 22.736 sf 0 0 m (5.25) show NC gr 
 gsave  710 699 23 7 C 166.521 54.4979 t 0 r /Helvetica findfont 22.736 sf 0 0 m (5.255) show NC gr 
 gsave  710 699 23 7 C 239.185 54.4979 t 0 r /Helvetica findfont 22.736 sf 0 0 m (5.26) show NC gr 
 gsave  710 699 23 7 C 299.738 54.4979 t 0 r /Helvetica findfont 22.736 sf 0 0 m (5.265) show NC gr 
 gsave  710 699 23 7 C 372.402 54.4979 t 0 r /Helvetica findfont 22.736 sf 0 0 m (5.27) show NC gr 
 gsave  710 699 23 7 C 432.955 54.4979 t 0 r /Helvetica findfont 22.736 sf 0 0 m (5.275) show NC gr 
 gsave  710 699 23 7 C 505.619 54.4979 t 0 r /Helvetica findfont 22.736 sf 0 0 m (5.28) show NC gr 
 gsave  710 699 23 7 C 566.172 54.4979 t 0 r /Helvetica findfont 22.736 sf 0 0 m (5.285) show NC gr 
 gsave  710 699 23 7 C 638.836 54.4979 t 0 r /Helvetica findfont 22.736 sf 0 0 m (5.29) show NC gr 
 gsave  710 699 23 7 C 499.564 31.7904 t 0 r /Helvetica findfont 22.736 sf 0 0 m (m_bc \(GeV/c^2\)) show NC gr  129 77 m 559 Y s 146 77 m -17 X s 138 88 m -9 X s 138 100 m -9 X s 138 111 m -9 X s 138 123 m -9 X s 146 134 m -17 X s 138 146 m -9 X s
 138 157 m -9 X s 138 168 m -9 X s 138 180 m -9 X s 146 191 m -17 X s 138 203 m -9 X s 138 214 m -9 X s 138 225 m -9 X s 138 237 m -9 X s 146 248 m -17 X s 138 260 m -9 X s 138 271 m -9 X s 138 283 m -9 X s 138 294 m -9 X s 146 305 m -17 X s 138 317
 m -9 X s 138 328 m -9 X s 138 340 m -9 X s 138 351 m -9 X s 146 362 m -17 X s 138 374 m -9 X s 138 385 m -9 X s 138 397 m -9 X s 138 408 m -9 X s 146 420 m -17 X s 138 431 m -9 X s 138 442 m -9 X s 138 454 m -9 X s 138 465 m -9 X s 146 477 m -17 X s
 138 488 m -9 X s 138 499 m -9 X s 138 511 m -9 X s 138 522 m -9 X s 146 534 m -17 X s 138 545 m -9 X s 138 557 m -9 X s 138 568 m -9 X s 138 579 m -9 X s 146 591 m -17 X s 146 591 m -17 X s 138 602 m -9 X s 138 614 m -9 X s 138 625 m -9 X s
 gsave  710 699 23 7 C 113.537 68.1223 t 0 r /Helvetica findfont 22.736 sf 0 0 m (0) show NC gr 
 gsave  710 699 23 7 C 87.8021 125.648 t 0 r /Helvetica findfont 22.736 sf 0 0 m (100) show NC gr 
 gsave  710 699 23 7 C 87.8021 183.173 t 0 r /Helvetica findfont 22.736 sf 0 0 m (200) show NC gr 
 gsave  710 699 23 7 C 87.8021 240.699 t 0 r /Helvetica findfont 22.736 sf 0 0 m (300) show NC gr 
 gsave  710 699 23 7 C 87.8021 296.711 t 0 r /Helvetica findfont 22.736 sf 0 0 m (400) show NC gr 
 gsave  710 699 23 7 C 87.8021 354.236 t 0 r /Helvetica findfont 22.736 sf 0 0 m (500) show NC gr 
 gsave  710 699 23 7 C 87.8021 411.762 t 0 r /Helvetica findfont 22.736 sf 0 0 m (600) show NC gr 
 gsave  710 699 23 7 C 87.8021 467.773 t 0 r /Helvetica findfont 22.736 sf 0 0 m (700) show NC gr 
 gsave  710 699 23 7 C 87.8021 525.299 t 0 r /Helvetica findfont 22.736 sf 0 0 m (800) show NC gr 
 gsave  710 699 23 7 C 87.8021 582.824 t 0 r /Helvetica findfont 22.736 sf 0 0 m (900) show NC gr 
 gsave  710 699 23 7 C 71.15 360.291 t 90 r /Helvetica findfont 22.736 sf 0 0 m (Events / \( 0.0004 GeV/c^2 \)) show NC gr  1 1 1 c black
 gsave  710 699 23 7 C 328.501 670.626 t 0 r /Helvetica findfont 34.8619 sf 0 0 m (Signal) show NC gr  132 77 m -3 X s 129 77 m 3 Y s 132 77 m 3 X s 135 77 m 3 Y s 132 77 m 1 Y s 129 78 m 6 X s 137 77 m -2 X s 135 77 m 3 Y s 137 77 m 3 X s 140 77 m 3
 Y s 137 77 m 1 Y s 134 78 m 6 X s 143 77 m -3 X s 140 77 m 3 Y s 143 77 m 2 X s 145 77 m 3 Y s 143 77 m 1 Y s 140 78 m 6 X s 148 77 m -3 X s 145 77 m 3 Y s 148 77 m 3 X s 151 77 m 3 Y s 148 77 m 1 Y s 145 78 m 6 X s 153 77 m -2 X s 151 77 m 3 Y s
 153 77 m 3 X s 156 77 m 3 Y s 153 77 m 1 Y s 150 78 m 6 X s 159 78 m -3 X s 156 77 m 4 Y s 159 78 m 2 X s 161 77 m 4 Y s 159 78 m 1 Y s 156 79 m 6 X s 159 78 m -1 Y s 156 77 m 6 X s 164 77 m -3 X s 161 77 m 3 Y s 164 77 m 3 X s 167 77 m 3 Y s 164 77
 m 1 Y s 161 78 m 6 X s 169 77 m -2 X s 167 77 m 3 Y s 169 77 m 3 X s 172 77 m 3 Y s 169 77 m 1 Y s 166 78 m 6 X s 175 77 m -3 X s 172 77 m 3 Y s 175 77 m 2 X s 177 77 m 3 Y s 175 77 m 1 Y s 172 78 m 6 X s 180 77 m -3 X s 177 77 m 3 Y s 180 77 m 3 X
 s 183 77 m 3 Y s 180 77 m 1 Y s 177 78 m 6 X s 185 77 m -2 X s 183 77 m 3 Y s 185 77 m 3 X s 188 77 m 3 Y s 185 77 m 1 Y s 182 78 m 6 X s 191 77 m -3 X s 188 77 m 3 Y s 191 77 m 2 X s 193 77 m 3 Y s 191 77 m 1 Y s 188 78 m 6 X s 196 77 m -3 X s 193
 77 m 3 Y s 196 77 m 3 X s 199 77 m 3 Y s 196 77 m 1 Y s 193 78 m 6 X s 201 77 m -2 X s 199 77 m 3 Y s 201 77 m 3 X s 204 77 m 3 Y s 201 77 m 1 Y s 198 78 m 6 X s 207 77 m -3 X s 204 77 m 3 Y s 207 77 m 2 X s 209 77 m 3 Y s 207 77 m 1 Y s 204 78 m 6
 X s 212 77 m -3 X s 209 77 m 3 Y s 212 77 m 3 X s 215 77 m 3 Y s 212 77 m 1 Y s 209 78 m 6 X s 217 77 m -2 X s 215 77 m 3 Y s 217 77 m 3 X s 220 77 m 3 Y s 217 77 m 1 Y s 214 78 m 6 X s 223 77 m -3 X s 220 77 m 3 Y s 223 77 m 2 X s 225 77 m 3 Y s
 223 77 m 1 Y s 219 78 m 7 X s 228 77 m -3 X s 225 77 m 3 Y s 228 77 m 3 X s 231 77 m 3 Y s 228 77 m 1 Y s 225 78 m 6 X s 233 77 m -2 X s 231 77 m 3 Y s 233 77 m 3 X s 236 77 m 3 Y s 233 77 m 1 Y s 230 78 m 6 X s 239 78 m -3 X s 236 77 m 4 Y s 239 78
 m 2 X s 241 77 m 4 Y s 239 78 m 1 Y s 235 79 m 7 X s 239 78 m -1 Y s 235 77 m 7 X s 244 77 m -3 X s 241 77 m 3 Y s 244 77 m 3 X s 247 77 m 3 Y s 244 77 m 1 Y s 241 78 m 6 X s 249 77 m -2 X s 247 77 m 3 Y s 249 77 m 3 X s 252 77 m 3 Y s 249 77 m 1 Y
 s 246 78 m 6 X s 254 77 m -2 X s 252 77 m 3 Y s 254 77 m 3 X s 257 77 m 3 Y s 254 77 m 1 Y s 251 78 m 7 X s 260 77 m -3 X s 257 77 m 3 Y s 260 77 m 2 X s 262 77 m 3 Y s 260 77 m 1 Y s 257 78 m 6 X s 265 77 m -3 X s 262 77 m 3 Y s 265 77 m 3 X s 268
 77 m 3 Y s 265 77 m 1 Y s 262 78 m 6 X s 270 78 m -2 X s 268 77 m 4 Y s 270 78 m 3 X s 273 77 m 4 Y s 270 78 m 1 Y s 267 79 m 7 X s 270 78 m -1 Y s 267 77 m 7 X s 276 77 m -3 X s 273 77 m 3 Y s 276 77 m 2 X s 278 77 m 3 Y s 276 77 m 1 Y s 273 78 m 6
 X s 281 77 m -3 X s 278 77 m 3 Y s 281 77 m 3 X s 284 77 m 3 Y s 281 77 m 1 Y s 278 78 m 6 X s 286 77 m -2 X s 284 77 m 3 Y s 286 77 m 3 X s 289 77 m 3 Y s 286 77 m 1 Y s 283 78 m 6 X s 292 77 m -3 X s 289 77 m 3 Y s 292 77 m 2 X s 294 77 m 3 Y s
 292 77 m 1 Y s 289 78 m 6 X s 297 77 m -3 X s 294 77 m 3 Y s 297 77 m 3 X s 300 77 m 3 Y s 297 77 m 1 Y s 294 78 m 6 X s 302 78 m -2 X s 300 77 m 4 Y s 302 78 m 3 X s 305 77 m 4 Y s 302 78 m 1 Y s 299 79 m 6 X s 302 78 m -1 Y s 299 77 m 6 X s 308 77
 m -3 X s 305 77 m 3 Y s 308 77 m 2 X s 310 77 m 3 Y s 308 77 m 1 Y s 305 78 m 6 X s 313 77 m -3 X s 310 77 m 3 Y s 313 77 m 3 X s 316 77 m 3 Y s 313 77 m 1 Y s 310 78 m 6 X s 318 78 m -2 X s 316 77 m 4 Y s 318 78 m 3 X s 321 77 m 4 Y s 318 78 m 2 Y
 s 315 80 m 6 X s 318 78 m -1 Y s 315 77 m 6 X s 324 77 m -3 X s 321 77 m 3 Y s 324 77 m 2 X s 326 77 m 3 Y s 324 77 m 1 Y s 321 78 m 6 X s 329 78 m -3 X s 326 77 m 4 Y s 329 78 m 3 X s 332 77 m 4 Y s 329 78 m 1 Y s 326 79 m 6 X s 329 78 m -1 Y s 326
 77 m 6 X s 334 78 m -2 X s 332 77 m 4 Y s 334 78 m 3 X s 337 77 m 4 Y s 334 78 m 1 Y s 331 79 m 6 X s 334 78 m -1 Y s 331 77 m 6 X s 340 78 m -3 X s 337 77 m 4 Y s 340 78 m 2 X s 342 77 m 4 Y s 340 78 m 1 Y s 337 79 m 6 X s 340 78 m -1 Y s 337 77 m
 6 X s 345 77 m -3 X s 342 77 m 3 Y s 345 77 m 3 X s 348 77 m 3 Y s 345 77 m 1 Y s 342 78 m 6 X s 350 77 m -2 X s 348 77 m 3 Y s 350 77 m 3 X s 353 77 m 3 Y s 350 77 m 1 Y s 347 78 m 6 X s 356 78 m -3 X s 353 77 m 4 Y s 356 78 m 2 X s 358 77 m 4 Y s
 356 78 m 1 Y s 353 79 m 6 X s 356 78 m -1 Y s 353 77 m 6 X s 361 77 m -3 X s 358 77 m 3 Y s 361 77 m 3 X s 364 77 m 3 Y s 361 77 m 1 Y s 358 78 m 6 X s 366 77 m -2 X s 364 77 m 3 Y s 366 77 m 3 X s 369 77 m 3 Y s 366 77 m 1 Y s 363 78 m 6 X s 372 78
 m -3 X s 369 77 m 4 Y s 372 78 m 2 X s 374 77 m 4 Y s 372 78 m 1 Y s 369 79 m 6 X s 372 78 m -1 Y s 369 77 m 6 X s 377 78 m -3 X s 374 77 m 4 Y s 377 78 m 3 X s 380 77 m 4 Y s 377 78 m 1 Y s 374 79 m 6 X s 377 78 m -1 Y s 374 77 m 6 X s 382 77 m -2
 X s 380 77 m 3 Y s 382 77 m 3 X s 385 77 m 3 Y s 382 77 m 1 Y s 379 78 m 6 X s 388 78 m -3 X s 385 77 m 4 Y s 388 78 m 2 X s 390 77 m 4 Y s 388 78 m 1 Y s 385 79 m 6 X s 388 78 m -1 Y s 385 77 m 6 X s 393 77 m -3 X s 390 77 m 3 Y s 393 77 m 3 X s
 396 77 m 3 Y s 393 77 m 1 Y s 390 78 m 6 X s 398 78 m -2 X s 396 77 m 4 Y s 398 78 m 3 X s 401 77 m 4 Y s 398 78 m 2 Y s 395 80 m 6 X s 398 78 m -1 Y s 395 77 m 6 X s 404 78 m -3 X s 401 77 m 4 Y s 404 78 m 2 X s 406 77 m 4 Y s 404 78 m 2 Y s 401 80
 m 6 X s 404 78 m -1 Y s 401 77 m 6 X s 409 79 m -3 X s 406 77 m 5 Y s 409 79 m 3 X s 412 77 m 5 Y s 409 79 m 1 Y s 406 80 m 6 X s 409 79 m -1 Y s 406 78 m 6 X s 414 79 m -2 X s 412 77 m 5 Y s 414 79 m 3 X s 417 77 m 5 Y s 414 79 m 2 Y s 411 81 m 6 X
 s 414 79 m -1 Y s 411 78 m 6 X s 420 83 m -3 X s 417 80 m 6 Y s 420 83 m 2 X s 422 80 m 6 Y s 420 83 m 2 Y s 417 85 m 6 X s 420 83 m -2 Y s 417 81 m 6 X s 425 82 m -3 X s 422 79 m 6 Y s 425 82 m 3 X s 428 79 m 6 Y s 425 82 m 2 Y s 422 84 m 6 X s 425
 82 m -2 Y s 422 80 m 6 X s 430 86 m -2 X s 428 83 m 6 Y s 430 86 m 3 X s 433 83 m 6 Y s 430 86 m 2 Y s 427 88 m 6 X s 430 86 m -3 Y s 427 83 m 6 X s 436 88 m -3 X s 433 85 m 6 Y s 436 88 m 2 X s 438 85 m 6 Y s 436 88 m 3 Y s 433 91 m 6 X s 436 88 m
 -3 Y s 433 85 m 6 X s 441 102 m -3 X s 438 99 m 6 Y s 441 102 m 3 X s 444 99 m 6 Y s 441 102 m 5 Y s 438 107 m 6 X s 441 102 m -4 Y s 438 98 m 6 X s 446 97 m -2 X s 444 94 m 6 Y s 446 97 m 3 X s 449 94 m 6 Y s 446 97 m 4 Y s 443 101 m 6 X s 446 97 m
 -3 Y s 443 94 m 6 X s 452 107 m -3 X s 449 104 m 6 Y s 452 107 m 2 X s 454 104 m 6 Y s 452 107 m 5 Y s 449 112 m 6 X s 452 107 m -4 Y s 449 103 m 6 X s 457 123 m -3 X s 454 120 m 6 Y s 457 123 m 3 X s 460 120 m 6 Y s 457 123 m 6 Y s 454 129 m 6 X s
 457 123 m -5 Y s 454 118 m 6 X s 462 132 m -2 X s 460 129 m 6 Y s 462 132 m 3 X s 465 129 m 6 Y s 462 132 m 6 Y s 459 138 m 6 X s 462 132 m -6 Y s 459 126 m 6 X s 468 149 m -3 X s 465 146 m 6 Y s 468 149 m 2 X s 470 146 m 6 Y s 468 149 m 7 Y s 465
 156 m 6 X s 468 149 m -6 Y s 465 143 m 6 X s 473 183 m -3 X s 470 180 m 6 Y s 473 183 m 3 X s 476 180 m 6 Y s 473 183 m 8 Y s 470 191 m 6 X s 473 183 m -7 Y s 470 176 m 6 X s 478 203 m -2 X s 476 200 m 6 Y s 478 203 m 3 X s 481 200 m 6 Y s 478 203 m
 8 Y s 475 211 m 6 X s 478 203 m -9 Y s 475 194 m 6 X s 484 236 m -3 X s 481 233 m 6 Y s 484 236 m 2 X s 486 233 m 6 Y s 484 236 m 10 Y s 481 246 m 6 X s 484 236 m -9 Y s 481 227 m 6 X s 489 273 m -3 X s 486 270 m 6 Y s 489 273 m 3 X s 492 270 m 6 Y
 s 489 273 m 11 Y s 486 284 m 6 X s 489 273 m -10 Y s 486 263 m 6 X s 494 312 m -2 X s 492 309 m 6 Y s 494 312 m 3 X s 497 309 m 6 Y s 494 312 m 12 Y s 491 324 m 6 X s 494 312 m -12 Y s 491 300 m 6 X s 500 376 m -3 X s 497 373 m 6 Y s 500 376 m 2 X s
 502 373 m 6 Y s 500 376 m 14 Y s 497 390 m 6 X s 500 376 m -13 Y s 497 363 m 6 X s 505 445 m -3 X s 502 442 m 6 Y s 505 445 m 3 X s 508 442 m 6 Y s 505 445 m 15 Y s 502 460 m 6 X s 505 445 m -14 Y s 502 431 m 6 X s 510 482 m -2 X s 508 479 m 6 Y s
 510 482 m 3 X s 513 479 m 6 Y s 510 482 m 15 Y s 507 497 m 6 X s 510 482 m -15 Y s 507 467 m 6 X s 516 539 m -3 X s 513 536 m 6 Y s 516 539 m 2 X s 518 536 m 6 Y s 516 539 m 17 Y s 513 556 m 6 X s 516 539 m -16 Y s 513 523 m 6 X s 521 551 m -3 X s
 518 548 m 6 Y s 521 551 m 3 X s 524 548 m 6 Y s 521 551 m 17 Y s 518 568 m 6 X s 521 551 m -16 Y s 518 535 m 6 X s 526 566 m -2 X s 524 563 m 6 Y s 526 566 m 3 X s 529 563 m 6 Y s 526 566 m 17 Y s 523 583 m 6 X s 526 566 m -16 Y s 523 550 m 6 X s
 532 592 m -3 X s 529 589 m 6 Y s 532 592 m 2 X s 534 589 m 6 Y s 532 592 m 17 Y s 529 609 m 6 X s 532 592 m -17 Y s 529 575 m 6 X s 537 574 m -3 X s 534 571 m 6 Y s 537 574 m 3 X s 540 571 m 6 Y s 537 574 m 17 Y s 534 591 m 6 X s 537 574 m -16 Y s
 534 558 m 6 X s 542 553 m -2 X s 540 550 m 6 Y s 542 553 m 3 X s 545 550 m 6 Y s 542 553 m 16 Y s 539 569 m 6 X s 542 553 m -17 Y s 539 536 m 6 X s 548 534 m -3 X s 545 531 m 6 Y s 548 534 m 2 X s 550 531 m 6 Y s 548 534 m 17 Y s 545 551 m 6 X s 548
 534 m -16 Y s 545 518 m 6 X s 553 529 m -3 X s 550 526 m 6 Y s 553 529 m 3 X s 556 526 m 6 Y s 553 529 m 16 Y s 550 545 m 6 X s 553 529 m -16 Y s 550 513 m 6 X s 558 481 m -2 X s 556 478 m 6 Y s 558 481 m 3 X s 561 478 m 6 Y s 558 481 m 16 Y s 555
 497 m 6 X s 558 481 m -15 Y s 555 466 m 6 X s 564 430 m -3 X s 561 427 m 6 Y s 564 430 m 2 X s 566 427 m 6 Y s 564 430 m 15 Y s 561 445 m 6 X s 564 430 m -14 Y s 561 416 m 6 X s 569 402 m -3 X s 566 399 m 6 Y s 569 402 m 3 X s 572 399 m 6 Y s 569
 402 m 14 Y s 566 416 m 6 X s 569 402 m -13 Y s 566 389 m 6 X s 574 344 m -2 X s 572 341 m 6 Y s 574 344 m 3 X s 577 341 m 6 Y s 574 344 m 13 Y s 571 357 m 6 X s 574 344 m -12 Y s 571 332 m 6 X s 580 301 m -3 X s 577 298 m 6 Y s 580 301 m 2 X s 582
 298 m 6 Y s 580 301 m 12 Y s 577 313 m 6 X s 580 301 m -11 Y s 577 290 m 6 X s 585 247 m -3 X s 582 244 m 6 Y s 585 247 m 3 X s 588 244 m 6 Y s 585 247 m 10 Y s 582 257 m 6 X s 585 247 m -10 Y s 582 237 m 6 X s 590 237 m -2 X s 588 234 m 6 Y s 590
 237 m 3 X s 593 234 m 6 Y s 590 237 m 10 Y s 587 247 m 6 X s 590 237 m -9 Y s 587 228 m 6 X s 596 187 m -3 X s 593 184 m 6 Y s 596 187 m 2 X s 598 184 m 6 Y s 596 187 m 8 Y s 593 195 m 6 X s 596 187 m -8 Y s 593 179 m 6 X s 601 157 m -3 X s 598 154
 m 6 Y s 601 157 m 3 X s 604 154 m 6 Y s 601 157 m 7 Y s 598 164 m 6 X s 601 157 m -7 Y s 598 150 m 6 X s 606 133 m -2 X s 604 130 m 6 Y s 606 133 m 3 X s 609 130 m 6 Y s 606 133 m 6 Y s 603 139 m 6 X s 606 133 m -6 Y s 603 127 m 6 X s 612 117 m -3 X
 s 609 114 m 6 Y s 612 117 m 2 X s 614 114 m 6 Y s 612 117 m 5 Y s 609 122 m 6 X s 612 117 m -5 Y s 609 112 m 6 X s 617 107 m -3 X s 614 104 m 6 Y s 617 107 m 3 X s 620 104 m 6 Y s 617 107 m 4 Y s 614 111 m 6 X s 617 107 m -4 Y s 614 103 m 6 X s 622
 102 m -2 X s 620 99 m 6 Y s 622 102 m 3 X s 625 99 m 6 Y s 622 102 m 5 Y s 619 107 m 6 X s 622 102 m -4 Y s 619 98 m 6 X s 628 91 m -3 X s 625 88 m 6 Y s 628 91 m 2 X s 630 88 m 6 Y s 628 91 m 3 Y s 625 94 m 6 X s 628 91 m -3 Y s 625 88 m 6 X s 633
 86 m -3 X s 630 83 m 6 Y s 633 86 m 3 X s 636 83 m 6 Y s 633 86 m 3 Y s 630 89 m 6 X s 633 86 m -2 Y s 630 84 m 6 X s 638 84 m -2 X s 636 81 m 6 Y s 638 84 m 3 X s 641 81 m 6 Y s 638 84 m 3 Y s 635 87 m 6 X s 638 84 m -2 Y s 635 82 m 6 X s 644 86 m
 -3 X s 641 83 m 6 Y s 644 86 m 2 X s 646 83 m 6 Y s 644 86 m 2 Y s 640 88 m 7 X s 644 86 m -3 Y s 640 83 m 7 X s 649 78 m -3 X s 646 77 m 4 Y s 649 78 m 3 X s 652 77 m 4 Y s 649 78 m 2 Y s 646 80 m 6 X s 649 78 m -1 Y s 646 77 m 6 X s 654 77 m -2 X
 s 652 77 m 3 Y s 654 77 m 3 X s 657 77 m 3 Y s 654 77 m 1 Y s 651 78 m 6 X s 660 77 m -3 X s 657 77 m 3 Y s 660 77 m 2 X s 662 77 m 3 Y s 660 77 m 1 Y s 656 78 m 6 X s 1 1 1 c black /w 12 def /w2 {w 2 div} def /w3 {w 3 div} def 132 77 137 77 143 77
 148 77 153 77 159 78 164 77 169 77 175 77 180 77 185 77 191 77 196 77 201 77 207 77 212 77 217 77 223 77 228 77 233 77 239 78 244 77 249 77 254 77 260 77 265 77 270 78 276 77 281 77 286 77 292 77 297 77 302 78 308 77 313 77 318 78 324 77 329 78 334
 78 340 78 345 77 350 77 356 78 361 77 366 77 372 78 377 78 382 77 388 78 393 77 398 78 404 78 409 79 414 79 420 83 425 82 430 86 436 88 441 102 446 97 452 107 457 123 462 132 468 149 473 183 478 203 484 236 489 273 494 312 500 376 505 445 510 482
 516 539 521 551 526 566 532 592 537 574 542 553 548 534 553 529 558 481 564 430 569 402 574 344 580 301 585 247 590 237 596 187 601 157 606 133 612 117 617 107 622 102 628 91 633 86 638 84 644 86 649 78 654 77 660 77 100 { m20} R 0 0 1 c 9 lw 1 1 1
 c black 0 0 1 c 129 77 m cl s 129 77 m 267 X 5 1 d 11 X 5 1 d 5 1 d 6 2 d 5 2 d 5 4 d 6 6 d 5 8 d 5 11 d 6 14 d 2 9 d 3 10 d 3 11 d 2 12 d 3 13 d 3 15 d 2 16 d 3 18 d 3 19 d 2 19 d 6 43 d 5 46 d 5 46 d 6 46 d 2 21 d 3 21 d 3 19 d 2 17 d 3 15 d 3 13
 d 2 11 d 3 7 d 3 5 d 2 2 d 3 -1 d 3 -4 d 2 -6 d 3 -10 d 3 -12 d 2 -14 d 3 -17 d 3 -18 d 2 -20 d 3 -22 d 5 -45 d 6 -46 d 5 -46 d 5 -43 d 3 -21 d 3 -19 d 2 -18 d 3 -16 d 3 -16 d 2 -14 d 3 -12 d 3 -12 d 2 -10 d 3 -9 d 5 -15 d 6 -12 d 5 -8 d 5 -6 d 6 -4
 d 5 -3 d 5 -2 d 6 -1 d 5 -1 d 5 X s black 3 lw 129 77 m 533 X s 129 93 m -16 Y s 143 85 m -8 Y s 156 85 m -8 Y s 169 85 m -8 Y s 183 85 m -8 Y s 196 93 m -16 Y s 209 85 m -8 Y s 223 85 m -8 Y s 236 85 m -8 Y s 249 85 m -8 Y s 262 93 m -16 Y s 276 85
 m -8 Y s 289 85 m -8 Y s 302 85 m -8 Y s 316 85 m -8 Y s 329 93 m -16 Y s 342 85 m -8 Y s 356 85 m -8 Y s 369 85 m -8 Y s 382 85 m -8 Y s 396 93 m -16 Y s 409 85 m -8 Y s 422 85 m -8 Y s 436 85 m -8 Y s 449 85 m -8 Y s 462 93 m -16 Y s 476 85 m -8 Y
 s 489 85 m -8 Y s 502 85 m -8 Y s 516 85 m -8 Y s 529 93 m -16 Y s 542 85 m -8 Y s 556 85 m -8 Y s 569 85 m -8 Y s 582 85 m -8 Y s 596 93 m -16 Y s 609 85 m -8 Y s 622 85 m -8 Y s 636 85 m -8 Y s 649 85 m -8 Y s 662 93 m -16 Y s 129 77 m 559 Y s 146
 77 m -17 X s 138 88 m -9 X s 138 100 m -9 X s 138 111 m -9 X s 138 123 m -9 X s 146 134 m -17 X s 138 146 m -9 X s 138 157 m -9 X s 138 168 m -9 X s 138 180 m -9 X s 146 191 m -17 X s 138 203 m -9 X s 138 214 m -9 X s 138 225 m -9 X s 138 237 m -9 X
 s 146 248 m -17 X s 138 260 m -9 X s 138 271 m -9 X s 138 283 m -9 X s 138 294 m -9 X s 146 305 m -17 X s 138 317 m -9 X s 138 328 m -9 X s 138 340 m -9 X s 138 351 m -9 X s 146 362 m -17 X s 138 374 m -9 X s 138 385 m -9 X s 138 397 m -9 X s 138
 408 m -9 X s 146 420 m -17 X s 138 431 m -9 X s 138 442 m -9 X s 138 454 m -9 X s 138 465 m -9 X s 146 477 m -17 X s 138 488 m -9 X s 138 499 m -9 X s 138 511 m -9 X s 138 522 m -9 X s 146 534 m -17 X s 138 545 m -9 X s 138 557 m -9 X s 138 568 m -9
 X s 138 579 m -9 X s 146 591 m -17 X s 146 591 m -17 X s 138 602 m -9 X s 138 614 m -9 X s 138 625 m -9 X s 1 1 1 c black
 gsave  710 699 23 7 C 328.501 670.626 t 0 r /Helvetica findfont 34.8619 sf 0 0 m (Signal) show NC gr  1 1 1 c 710 699 779 7 bf black 1 1 1 c 533 559 885 77 bf black 533 559 885 77 bl 885 77 m 533 X s 885 93 m -16 Y s 898 85 m -8 Y s 912 85 m -8 Y s
 925 85 m -8 Y s 938 85 m -8 Y s 952 93 m -16 Y s 965 85 m -8 Y s 978 85 m -8 Y s 992 85 m -8 Y s 1005 85 m -8 Y s 1018 93 m -16 Y s 1032 85 m -8 Y s 1045 85 m -8 Y s 1058 85 m -8 Y s 1072 85 m -8 Y s 1085 93 m -16 Y s 1098 85 m -8 Y s 1112 85 m -8 Y
 s 1125 85 m -8 Y s 1138 85 m -8 Y s 1152 93 m -16 Y s 1165 85 m -8 Y s 1178 85 m -8 Y s 1192 85 m -8 Y s 1205 85 m -8 Y s 1218 93 m -16 Y s 1232 85 m -8 Y s 1245 85 m -8 Y s 1258 85 m -8 Y s 1272 85 m -8 Y s 1285 93 m -16 Y s 1298 85 m -8 Y s 1311
 85 m -8 Y s 1325 85 m -8 Y s 1338 85 m -8 Y s 1351 93 m -16 Y s 1365 85 m -8 Y s 1378 85 m -8 Y s 1391 85 m -8 Y s 1405 85 m -8 Y s 1418 93 m -16 Y s
 gsave  710 699 779 7 C 861.369 54.4979 t 0 r /Helvetica findfont 22.736 sf 0 0 m (5.25) show NC gr 
 gsave  710 699 779 7 C 921.922 54.4979 t 0 r /Helvetica findfont 22.736 sf 0 0 m (5.255) show NC gr 
 gsave  710 699 779 7 C 994.586 54.4979 t 0 r /Helvetica findfont 22.736 sf 0 0 m (5.26) show NC gr 
 gsave  710 699 779 7 C 1055.14 54.4979 t 0 r /Helvetica findfont 22.736 sf 0 0 m (5.265) show NC gr 
 gsave  710 699 779 7 C 1127.8 54.4979 t 0 r /Helvetica findfont 22.736 sf 0 0 m (5.27) show NC gr 
 gsave  710 699 779 7 C 1188.36 54.4979 t 0 r /Helvetica findfont 22.736 sf 0 0 m (5.275) show NC gr 
 gsave  710 699 779 7 C 1261.02 54.4979 t 0 r /Helvetica findfont 22.736 sf 0 0 m (5.28) show NC gr 
 gsave  710 699 779 7 C 1321.57 54.4979 t 0 r /Helvetica findfont 22.736 sf 0 0 m (5.285) show NC gr 
 gsave  710 699 779 7 C 1394.24 54.4979 t 0 r /Helvetica findfont 22.736 sf 0 0 m (5.29) show NC gr 
 gsave  710 699 779 7 C 1254.96 31.7904 t 0 r /Helvetica findfont 22.736 sf 0 0 m (m_bc \(GeV/c^2\)) show NC gr  885 77 m 559 Y s 902 77 m -17 X s 894 97 m -9 X s 894 118 m -9 X s 894 138 m -9 X s 902 158 m -17 X s 894 178 m -9 X s 894 198 m -9 X s
 894 219 m -9 X s 902 239 m -17 X s 894 259 m -9 X s 894 279 m -9 X s 894 300 m -9 X s 902 320 m -17 X s 894 340 m -9 X s 894 360 m -9 X s 894 381 m -9 X s 902 401 m -17 X s 894 421 m -9 X s 894 441 m -9 X s 894 462 m -9 X s 902 482 m -17 X s 894 502
 m -9 X s 894 522 m -9 X s 894 543 m -9 X s 902 563 m -17 X s 902 563 m -17 X s 894 583 m -9 X s 894 603 m -9 X s 894 624 m -9 X s
 gsave  710 699 779 7 C 868.938 68.1223 t 0 r /Helvetica findfont 22.736 sf 0 0 m (0) show NC gr 
 gsave  710 699 779 7 C 856.827 149.869 t 0 r /Helvetica findfont 22.736 sf 0 0 m (20) show NC gr 
 gsave  710 699 779 7 C 856.827 230.102 t 0 r /Helvetica findfont 22.736 sf 0 0 m (40) show NC gr 
 gsave  710 699 779 7 C 856.827 311.849 t 0 r /Helvetica findfont 22.736 sf 0 0 m (60) show NC gr 
 gsave  710 699 779 7 C 856.827 392.082 t 0 r /Helvetica findfont 22.736 sf 0 0 m (80) show NC gr 
 gsave  710 699 779 7 C 843.203 473.829 t 0 r /Helvetica findfont 22.736 sf 0 0 m (100) show NC gr 
 gsave  710 699 779 7 C 843.203 554.062 t 0 r /Helvetica findfont 22.736 sf 0 0 m (120) show NC gr 
 gsave  710 699 779 7 C 828.065 360.291 t 90 r /Helvetica findfont 22.736 sf 0 0 m (Events / \( 0.0004 GeV/c^2 \)) show NC gr  1 1 1 c black
 gsave  710 699 779 7 C 1041.51 672.14 t 0 r /Helvetica findfont 34.8619 sf 0 0 m (Background) show NC gr  888 126 m -3 X s 885 123 m 6 Y s 888 126 m 2 X s 890 123 m 6 Y s 888 126 m 18 Y s 885 144 m 6 X s 888 126 m -14 Y s 885 112 m 6 X s 893 118 m
 -3 X s 890 114 m 7 Y s 893 118 m 3 X s 896 114 m 7 Y s 893 118 m 17 Y s 890 135 m 6 X s 893 118 m -13 Y s 890 105 m 6 X s 898 122 m -2 X s 896 119 m 6 Y s 898 122 m 3 X s 901 119 m 6 Y s 898 122 m 17 Y s 895 139 m 7 X s 898 122 m -14 Y s 895 108 m 7
 X s 904 158 m -3 X s 901 155 m 6 Y s 904 158 m 2 X s 906 155 m 6 Y s 904 158 m 22 Y s 901 180 m 6 X s 904 158 m -18 Y s 901 140 m 6 X s 909 130 m -3 X s 906 127 m 6 Y s 909 130 m 3 X s 912 127 m 6 Y s 909 130 m 19 Y s 906 149 m 6 X s 909 130 m -15 Y
 s 906 115 m 6 X s 914 126 m -2 X s 912 123 m 6 Y s 914 126 m 3 X s 917 123 m 6 Y s 914 126 m 18 Y s 911 144 m 7 X s 914 126 m -14 Y s 911 112 m 7 X s 920 113 m -3 X s 917 110 m 6 Y s 920 113 m 2 X s 922 110 m 6 Y s 920 113 m 17 Y s 917 130 m 6 X s
 920 113 m -11 Y s 917 102 m 6 X s 925 130 m -3 X s 922 127 m 6 Y s 925 130 m 3 X s 928 127 m 6 Y s 925 130 m 19 Y s 922 149 m 6 X s 925 130 m -15 Y s 922 115 m 6 X s 930 118 m -2 X s 928 114 m 7 Y s 930 118 m 3 X s 933 114 m 7 Y s 930 118 m 17 Y s
 927 135 m 6 X s 930 118 m -13 Y s 927 105 m 6 X s 936 154 m -3 X s 933 151 m 6 Y s 936 154 m 2 X s 938 151 m 6 Y s 936 154 m 22 Y s 933 176 m 6 X s 936 154 m -18 Y s 933 136 m 6 X s 941 134 m -3 X s 938 131 m 6 Y s 941 134 m 3 X s 944 131 m 6 Y s
 941 134 m 19 Y s 938 153 m 6 X s 941 134 m -15 Y s 938 119 m 6 X s 946 158 m -2 X s 944 155 m 6 Y s 946 158 m 3 X s 949 155 m 6 Y s 946 158 m 22 Y s 943 180 m 6 X s 946 158 m -18 Y s 943 140 m 6 X s 952 126 m -3 X s 949 123 m 6 Y s 952 126 m 2 X s
 954 123 m 6 Y s 952 126 m 18 Y s 949 144 m 6 X s 952 126 m -14 Y s 949 112 m 6 X s 957 146 m -3 X s 954 143 m 6 Y s 957 146 m 3 X s 960 143 m 6 Y s 957 146 m 21 Y s 954 167 m 6 X s 957 146 m -17 Y s 954 129 m 6 X s 962 142 m -2 X s 960 139 m 6 Y s
 962 142 m 3 X s 965 139 m 6 Y s 962 142 m 20 Y s 959 162 m 6 X s 962 142 m -16 Y s 959 126 m 6 X s 968 122 m -3 X s 965 119 m 6 Y s 968 122 m 2 X s 970 119 m 6 Y s 968 122 m 17 Y s 965 139 m 6 X s 968 122 m -14 Y s 965 108 m 6 X s 973 109 m -3 X s
 970 106 m 6 Y s 973 109 m 3 X s 976 106 m 6 Y s 973 109 m 16 Y s 970 125 m 6 X s 973 109 m -11 Y s 970 98 m 6 X s 978 130 m -2 X s 976 127 m 6 Y s 978 130 m 3 X s 981 127 m 6 Y s 978 130 m 19 Y s 975 149 m 6 X s 978 130 m -15 Y s 975 115 m 6 X s 984
 130 m -3 X s 981 127 m 6 Y s 984 130 m 2 X s 986 127 m 6 Y s 984 130 m 19 Y s 981 149 m 6 X s 984 130 m -15 Y s 981 115 m 6 X s 989 126 m -3 X s 986 123 m 6 Y s 989 126 m 3 X s 992 123 m 6 Y s 989 126 m 18 Y s 986 144 m 6 X s 989 126 m -14 Y s 986
 112 m 6 X s 994 113 m -2 X s 992 110 m 6 Y s 994 113 m 3 X s 997 110 m 6 Y s 994 113 m 17 Y s 991 130 m 6 X s 994 113 m -11 Y s 991 102 m 6 X s 1000 162 m -3 X s 997 159 m 6 Y s 1000 162 m 2 X s 1002 159 m 6 Y s 1000 162 m 23 Y s 997 185 m 6 X s
 1000 162 m -18 Y s 997 144 m 6 X s 1005 134 m -3 X s 1002 131 m 6 Y s 1005 134 m 3 X s 1008 131 m 6 Y s 1005 134 m 19 Y s 1002 153 m 6 X s 1005 134 m -15 Y s 1002 119 m 6 X s 1010 105 m -2 X s 1008 102 m 6 Y s 1010 105 m 3 X s 1013 102 m 6 Y s 1010
 105 m 16 Y s 1007 121 m 6 X s 1010 105 m -10 Y s 1007 95 m 6 X s 1016 138 m -3 X s 1013 135 m 6 Y s 1016 138 m 2 X s 1018 135 m 6 Y s 1016 138 m 20 Y s 1013 158 m 6 X s 1016 138 m -16 Y s 1013 122 m 6 X s 1021 150 m -3 X s 1018 147 m 6 Y s 1021 150
 m 3 X s 1024 147 m 6 Y s 1021 150 m 21 Y s 1018 171 m 6 X s 1021 150 m -17 Y s 1018 133 m 6 X s 1026 146 m -2 X s 1024 143 m 6 Y s 1026 146 m 3 X s 1029 143 m 6 Y s 1026 146 m 21 Y s 1023 167 m 6 X s 1026 146 m -17 Y s 1023 129 m 6 X s 1032 122 m -3
 X s 1029 119 m 6 Y s 1032 122 m 2 X s 1034 119 m 6 Y s 1032 122 m 17 Y s 1029 139 m 6 X s 1032 122 m -14 Y s 1029 108 m 6 X s 1037 138 m -3 X s 1034 135 m 6 Y s 1037 138 m 3 X s 1040 135 m 6 Y s 1037 138 m 20 Y s 1034 158 m 6 X s 1037 138 m -16 Y s
 1034 122 m 6 X s 1042 150 m -2 X s 1040 147 m 6 Y s 1042 150 m 3 X s 1045 147 m 6 Y s 1042 150 m 21 Y s 1039 171 m 6 X s 1042 150 m -17 Y s 1039 133 m 6 X s 1048 122 m -3 X s 1045 119 m 6 Y s 1048 122 m 2 X s 1050 119 m 6 Y s 1048 122 m 17 Y s 1045
 139 m 6 X s 1048 122 m -14 Y s 1045 108 m 6 X s 1053 142 m -3 X s 1050 139 m 6 Y s 1053 142 m 3 X s 1056 139 m 6 Y s 1053 142 m 20 Y s 1050 162 m 6 X s 1053 142 m -16 Y s 1050 126 m 6 X s 1058 134 m -2 X s 1056 131 m 6 Y s 1058 134 m 3 X s 1061 131
 m 6 Y s 1058 134 m 19 Y s 1055 153 m 6 X s 1058 134 m -15 Y s 1055 119 m 6 X s 1064 130 m -3 X s 1061 127 m 6 Y s 1064 130 m 2 X s 1066 127 m 6 Y s 1064 130 m 19 Y s 1061 149 m 6 X s 1064 130 m -15 Y s 1061 115 m 6 X s 1069 118 m -3 X s 1066 114 m 7
 Y s 1069 118 m 3 X s 1072 114 m 7 Y s 1069 118 m 17 Y s 1066 135 m 6 X s 1069 118 m -13 Y s 1066 105 m 6 X s 1074 138 m -2 X s 1072 135 m 6 Y s 1074 138 m 3 X s 1077 135 m 6 Y s 1074 138 m 20 Y s 1071 158 m 6 X s 1074 138 m -16 Y s 1071 122 m 6 X s
 1080 138 m -3 X s 1077 135 m 6 Y s 1080 138 m 2 X s 1082 135 m 6 Y s 1080 138 m 20 Y s 1077 158 m 6 X s 1080 138 m -16 Y s 1077 122 m 6 X s 1085 138 m -3 X s 1082 135 m 6 Y s 1085 138 m 3 X s 1088 135 m 6 Y s 1085 138 m 20 Y s 1082 158 m 6 X s 1085
 138 m -16 Y s 1082 122 m 6 X s 1090 138 m -2 X s 1088 135 m 6 Y s 1090 138 m 3 X s 1093 135 m 6 Y s 1090 138 m 20 Y s 1087 158 m 6 X s 1090 138 m -16 Y s 1087 122 m 6 X s 1096 126 m -3 X s 1093 123 m 6 Y s 1096 126 m 2 X s 1098 123 m 6 Y s 1096 126
 m 18 Y s 1093 144 m 6 X s 1096 126 m -14 Y s 1093 112 m 6 X s 1101 150 m -3 X s 1098 147 m 6 Y s 1101 150 m 3 X s 1104 147 m 6 Y s 1101 150 m 21 Y s 1098 171 m 6 X s 1101 150 m -17 Y s 1098 133 m 6 X s 1106 122 m -2 X s 1104 119 m 6 Y s 1106 122 m 3
 X s 1109 119 m 6 Y s 1106 122 m 17 Y s 1103 139 m 6 X s 1106 122 m -14 Y s 1103 108 m 6 X s 1112 146 m -3 X s 1109 143 m 6 Y s 1112 146 m 2 X s 1114 143 m 6 Y s 1112 146 m 21 Y s 1109 167 m 6 X s 1112 146 m -17 Y s 1109 129 m 6 X s 1117 134 m -3 X s
 1114 131 m 6 Y s 1117 134 m 3 X s 1120 131 m 6 Y s 1117 134 m 19 Y s 1114 153 m 6 X s 1117 134 m -15 Y s 1114 119 m 6 X s 1122 154 m -2 X s 1120 151 m 6 Y s 1122 154 m 3 X s 1125 151 m 6 Y s 1122 154 m 22 Y s 1119 176 m 6 X s 1122 154 m -18 Y s 1119
 136 m 6 X s 1128 142 m -3 X s 1125 139 m 6 Y s 1128 142 m 2 X s 1130 139 m 6 Y s 1128 142 m 20 Y s 1125 162 m 6 X s 1128 142 m -16 Y s 1125 126 m 6 X s 1133 138 m -3 X s 1130 135 m 6 Y s 1133 138 m 3 X s 1136 135 m 6 Y s 1133 138 m 20 Y s 1130 158 m
 6 X s 1133 138 m -16 Y s 1130 122 m 6 X s 1138 146 m -2 X s 1136 143 m 6 Y s 1138 146 m 3 X s 1141 143 m 6 Y s 1138 146 m 21 Y s 1135 167 m 6 X s 1138 146 m -17 Y s 1135 129 m 6 X s 1144 170 m -3 X s 1141 167 m 6 Y s 1144 170 m 2 X s 1146 167 m 6 Y
 s 1144 170 m 24 Y s 1141 194 m 6 X s 1144 170 m -19 Y s 1141 151 m 6 X s 1149 146 m -3 X s 1146 143 m 6 Y s 1149 146 m 3 X s 1152 143 m 6 Y s 1149 146 m 21 Y s 1146 167 m 6 X s 1149 146 m -17 Y s 1146 129 m 6 X s 1154 138 m -2 X s 1152 135 m 6 Y s
 1154 138 m 3 X s 1157 135 m 6 Y s 1154 138 m 20 Y s 1151 158 m 6 X s 1154 138 m -16 Y s 1151 122 m 6 X s 1160 154 m -3 X s 1157 151 m 6 Y s 1160 154 m 2 X s 1162 151 m 6 Y s 1160 154 m 22 Y s 1157 176 m 6 X s 1160 154 m -18 Y s 1157 136 m 6 X s 1165
 162 m -3 X s 1162 159 m 6 Y s 1165 162 m 3 X s 1168 159 m 6 Y s 1165 162 m 23 Y s 1162 185 m 6 X s 1165 162 m -18 Y s 1162 144 m 6 X s 1170 162 m -2 X s 1168 159 m 6 Y s 1170 162 m 3 X s 1173 159 m 6 Y s 1170 162 m 23 Y s 1167 185 m 6 X s 1170 162 m
 -18 Y s 1167 144 m 6 X s 1176 146 m -3 X s 1173 143 m 6 Y s 1176 146 m 2 X s 1178 143 m 6 Y s 1176 146 m 21 Y s 1173 167 m 6 X s 1176 146 m -17 Y s 1173 129 m 6 X s 1181 190 m -3 X s 1178 187 m 6 Y s 1181 190 m 3 X s 1184 187 m 6 Y s 1181 190 m 26 Y
 s 1178 216 m 6 X s 1181 190 m -21 Y s 1178 169 m 6 X s 1186 227 m -2 X s 1184 224 m 6 Y s 1186 227 m 3 X s 1189 224 m 6 Y s 1186 227 m 29 Y s 1183 256 m 6 X s 1186 227 m -25 Y s 1183 202 m 6 X s 1192 182 m -3 X s 1189 179 m 6 Y s 1192 182 m 2 X s
 1194 179 m 6 Y s 1192 182 m 25 Y s 1189 207 m 6 X s 1192 182 m -20 Y s 1189 162 m 6 X s 1197 186 m -3 X s 1194 183 m 6 Y s 1197 186 m 3 X s 1200 183 m 6 Y s 1197 186 m 26 Y s 1194 212 m 6 X s 1197 186 m -21 Y s 1194 165 m 6 X s 1202 194 m -2 X s
 1200 191 m 6 Y s 1202 194 m 3 X s 1205 191 m 6 Y s 1202 194 m 27 Y s 1199 221 m 6 X s 1202 194 m -21 Y s 1199 173 m 6 X s 1208 223 m -3 X s 1205 220 m 6 Y s 1208 223 m 2 X s 1210 220 m 6 Y s 1208 223 m 28 Y s 1205 251 m 6 X s 1208 223 m -24 Y s 1205
 199 m 6 X s 1213 198 m -3 X s 1210 195 m 7 Y s 1213 198 m 3 X s 1216 195 m 7 Y s 1213 198 m 27 Y s 1210 225 m 6 X s 1213 198 m -22 Y s 1210 176 m 6 X s 1218 271 m -2 X s 1216 268 m 6 Y s 1218 271 m 3 X s 1221 268 m 6 Y s 1218 271 m 33 Y s 1215 304 m
 6 X s 1218 271 m -28 Y s 1215 243 m 6 X s 1224 194 m -3 X s 1221 191 m 6 Y s 1224 194 m 2 X s 1226 191 m 6 Y s 1224 194 m 27 Y s 1221 221 m 6 X s 1224 194 m -21 Y s 1221 173 m 6 X s 1229 275 m -3 X s 1226 272 m 6 Y s 1229 275 m 3 X s 1232 272 m 6 Y
 s 1229 275 m 33 Y s 1226 308 m 6 X s 1229 275 m -28 Y s 1226 247 m 6 X s 1234 300 m -2 X s 1232 297 m 6 Y s 1234 300 m 3 X s 1237 297 m 6 Y s 1234 300 m 34 Y s 1231 334 m 6 X s 1234 300 m -30 Y s 1231 270 m 6 X s 1240 304 m -3 X s 1237 301 m 6 Y s
 1240 304 m 2 X s 1242 301 m 6 Y s 1240 304 m 34 Y s 1237 338 m 6 X s 1240 304 m -30 Y s 1237 274 m 6 X s 1245 352 m -3 X s 1242 349 m 6 Y s 1245 352 m 3 X s 1248 349 m 6 Y s 1245 352 m 38 Y s 1242 390 m 6 X s 1245 352 m -33 Y s 1242 319 m 6 X s 1250
 356 m -2 X s 1248 353 m 6 Y s 1250 356 m 3 X s 1253 353 m 6 Y s 1250 356 m 38 Y s 1247 394 m 6 X s 1250 356 m -33 Y s 1247 323 m 6 X s 1256 377 m -3 X s 1253 374 m 6 Y s 1256 377 m 2 X s 1258 374 m 6 Y s 1256 377 m 39 Y s 1253 416 m 6 X s 1256 377 m
 -35 Y s 1253 342 m 6 X s 1261 373 m -3 X s 1258 370 m 6 Y s 1261 373 m 3 X s 1264 370 m 6 Y s 1261 373 m 38 Y s 1258 411 m 6 X s 1261 373 m -35 Y s 1258 338 m 6 X s 1266 494 m -2 X s 1264 491 m 6 Y s 1266 494 m 3 X s 1269 491 m 6 Y s 1266 494 m 43 Y
 s 1263 537 m 6 X s 1266 494 m -39 Y s 1263 455 m 6 X s 1272 518 m -3 X s 1269 515 m 6 Y s 1272 518 m 2 X s 1274 515 m 6 Y s 1272 518 m 45 Y s 1268 563 m 7 X s 1272 518 m -40 Y s 1268 478 m 7 X s 1277 462 m -3 X s 1274 459 m 6 Y s 1277 462 m 3 X s
 1280 459 m 6 Y s 1277 462 m 43 Y s 1274 505 m 6 X s 1277 462 m -40 Y s 1274 422 m 6 X s 1282 563 m -2 X s 1280 560 m 6 Y s 1282 563 m 3 X s 1285 560 m 6 Y s 1282 563 m 46 Y s 1279 609 m 6 X s 1282 563 m -42 Y s 1279 521 m 6 X s 1288 539 m -3 X s
 1285 536 m 6 Y s 1288 539 m 2 X s 1290 536 m 6 Y s 1288 539 m 45 Y s 1284 584 m 7 X s 1288 539 m -42 Y s 1284 497 m 7 X s 1293 551 m -3 X s 1290 548 m 6 Y s 1293 551 m 3 X s 1296 548 m 6 Y s 1293 551 m 46 Y s 1290 597 m 6 X s 1293 551 m -42 Y s 1290
 509 m 6 X s 1298 502 m -2 X s 1296 499 m 6 Y s 1298 502 m 3 X s 1301 499 m 6 Y s 1298 502 m 44 Y s 1295 546 m 6 X s 1298 502 m -39 Y s 1295 463 m 6 X s 1304 502 m -3 X s 1301 499 m 6 Y s 1304 502 m 2 X s 1306 499 m 6 Y s 1304 502 m 44 Y s 1300 546 m
 7 X s 1304 502 m -39 Y s 1300 463 m 7 X s 1309 531 m -3 X s 1306 528 m 6 Y s 1309 531 m 2 X s 1311 528 m 6 Y s 1309 531 m 44 Y s 1306 575 m 6 X s 1309 531 m -41 Y s 1306 490 m 6 X s 1314 478 m -3 X s 1311 475 m 6 Y s 1314 478 m 3 X s 1317 475 m 6 Y
 s 1314 478 m 44 Y s 1311 522 m 6 X s 1314 478 m -40 Y s 1311 438 m 6 X s 1319 514 m -2 X s 1317 511 m 6 Y s 1319 514 m 3 X s 1322 511 m 6 Y s 1319 514 m 45 Y s 1316 559 m 7 X s 1319 514 m -40 Y s 1316 474 m 7 X s 1325 381 m -3 X s 1322 378 m 6 Y s
 1325 381 m 2 X s 1327 378 m 6 Y s 1325 381 m 39 Y s 1322 420 m 6 X s 1325 381 m -35 Y s 1322 346 m 6 X s 1330 393 m -3 X s 1327 390 m 6 Y s 1330 393 m 3 X s 1333 390 m 6 Y s 1330 393 m 40 Y s 1327 433 m 6 X s 1330 393 m -36 Y s 1327 357 m 6 X s 1335
 312 m -2 X s 1333 309 m 6 Y s 1335 312 m 3 X s 1338 309 m 6 Y s 1335 312 m 35 Y s 1332 347 m 7 X s 1335 312 m -31 Y s 1332 281 m 7 X s 1341 235 m -3 X s 1338 232 m 6 Y s 1341 235 m 2 X s 1343 232 m 6 Y s 1341 235 m 29 Y s 1338 264 m 6 X s 1341 235 m
 -25 Y s 1338 210 m 6 X s 1346 279 m -3 X s 1343 276 m 7 Y s 1346 279 m 3 X s 1349 276 m 7 Y s 1346 279 m 33 Y s 1343 312 m 6 X s 1346 279 m -28 Y s 1343 251 m 6 X s 1351 239 m -2 X s 1349 236 m 6 Y s 1351 239 m 3 X s 1354 236 m 6 Y s 1351 239 m 30 Y
 s 1348 269 m 6 X s 1351 239 m -26 Y s 1348 213 m 6 X s 1357 235 m -3 X s 1354 232 m 6 Y s 1357 235 m 2 X s 1359 232 m 6 Y s 1357 235 m 29 Y s 1354 264 m 6 X s 1357 235 m -25 Y s 1354 210 m 6 X s 1362 194 m -3 X s 1359 191 m 6 Y s 1362 194 m 3 X s
 1365 191 m 6 Y s 1362 194 m 27 Y s 1359 221 m 6 X s 1362 194 m -21 Y s 1359 173 m 6 X s 1367 166 m -2 X s 1365 163 m 6 Y s 1367 166 m 3 X s 1370 163 m 6 Y s 1367 166 m 23 Y s 1364 189 m 6 X s 1367 166 m -19 Y s 1364 147 m 6 X s 1373 142 m -3 X s
 1370 139 m 6 Y s 1373 142 m 2 X s 1375 139 m 6 Y s 1373 142 m 20 Y s 1370 162 m 6 X s 1373 142 m -16 Y s 1370 126 m 6 X s 1378 142 m -3 X s 1375 139 m 6 Y s 1378 142 m 3 X s 1381 139 m 6 Y s 1378 142 m 20 Y s 1375 162 m 6 X s 1378 142 m -16 Y s 1375
 126 m 6 X s 1383 146 m -2 X s 1381 143 m 6 Y s 1383 146 m 3 X s 1386 143 m 6 Y s 1383 146 m 21 Y s 1380 167 m 6 X s 1383 146 m -17 Y s 1380 129 m 6 X s 1389 105 m -3 X s 1386 102 m 6 Y s 1389 105 m 2 X s 1391 102 m 6 Y s 1389 105 m 16 Y s 1386 121 m
 6 X s 1389 105 m -10 Y s 1386 95 m 6 X s 1394 101 m -3 X s 1391 98 m 6 Y s 1394 101 m 3 X s 1397 98 m 6 Y s 1394 101 m 15 Y s 1391 116 m 6 X s 1394 101 m -9 Y s 1391 92 m 6 X s 1399 118 m -2 X s 1397 114 m 7 Y s 1399 118 m 3 X s 1402 114 m 7 Y s
 1399 118 m 17 Y s 1396 135 m 6 X s 1399 118 m -13 Y s 1396 105 m 6 X s 1405 101 m -3 X s 1402 98 m 6 Y s 1405 101 m 2 X s 1407 98 m 6 Y s 1405 101 m 15 Y s 1402 116 m 6 X s 1405 101 m -9 Y s 1402 92 m 6 X s 1410 97 m -3 X s 1407 94 m 6 Y s 1410 97 m
 3 X s 1413 94 m 6 Y s 1410 97 m 14 Y s 1407 111 m 6 X s 1410 97 m -8 Y s 1407 89 m 6 X s 1415 93 m -2 X s 1413 90 m 6 Y s 1415 93 m 3 X s 1418 90 m 6 Y s 1415 93 m 13 Y s 1412 106 m 6 X s 1415 93 m -8 Y s 1412 85 m 6 X s 1 1 1 c black 888 126 893
 118 898 122 904 158 909 130 914 126 920 113 925 130 930 118 936 154 941 134 946 158 952 126 957 146 962 142 968 122 973 109 978 130 984 130 989 126 994 113 1000 162 1005 134 1010 105 1016 138 1021 150 1026 146 1032 122 1037 138 1042 150 1048 122
 1053 142 1058 134 1064 130 1069 118 1074 138 1080 138 1085 138 1090 138 1096 126 1101 150 1106 122 1112 146 1117 134 1122 154 1128 142 1133 138 1138 146 1144 170 1149 146 1154 138 1160 154 1165 162 1170 162 1176 146 1181 190 1186 227 1192 182 1197
 186 1202 194 1208 223 1213 198 1218 271 1224 194 1229 275 1234 300 1240 304 1245 352 1250 356 1256 377 1261 373 1266 494 1272 518 1277 462 1282 563 1288 539 1293 551 1298 502 1304 502 1309 531 1314 478 1319 514 1325 381 1330 393 1335 312 1341 235
 1346 279 1351 239 1357 235 1362 194 1367 166 1373 142 1378 142 1383 146 1389 105 1394 101 1399 118 1405 101 1410 97 1415 93 100 { m20} R 0 0 1 c 9 lw 1 1 1 c black 0 0 1 c 885 128 m cl s 885 128 m 11 X 5 1 d 5 X 6 1 d 10 X 6 1 d 5 X 5 1 d 11 X 5 1 d
 11 X 5 1 d 6 X 5 1 d 11 X 5 1 d 11 X 5 1 d 5 X 6 1 d 10 X 6 1 d 10 X 6 1 d 10 X 6 1 d 10 X 6 1 d 16 X 5 1 d 11 X 5 1 d 16 X 5 1 d 6 X 5 1 d 5 1 d 6 1 d 5 1 d 5 3 d 6 3 d 5 4 d 5 5 d 6 8 d 5 9 d 5 12 d 6 15 d 5 18 d 5 20 d 6 25 d 5 27 d 5 29 d 6 31 d
 5 32 d 5 32 d 6 30 d 2 14 d 3 13 d 3 12 d 2 11 d 3 9 d 3 8 d 2 6 d 3 5 d 3 2 d 2 1 d 3 -1 d 3 -2 d 2 -5 d 3 -6 d 3 -8 d 2 -9 d 3 -11 d 2 -12 d 3 -13 d 3 -14 d 5 -31 d 5 -33 d 6 -33 d 5 -33 d 5 -31 d 6 -29 d 5 -26 d 5 -24 d 6 -20 d 5 -17 d 5 -14 d 6
 -13 d 5 -10 d 5 -9 d 6 -8 d 5 -7 d 5 -7 d 6 -9 d 2 -6 d 2 -4 d -3 Y 1 -6 d s black 3 lw 885 77 m 533 X s 885 93 m -16 Y s 898 85 m -8 Y s 912 85 m -8 Y s 925 85 m -8 Y s 938 85 m -8 Y s 952 93 m -16 Y s 965 85 m -8 Y s 978 85 m -8 Y s 992 85 m -8 Y
 s 1005 85 m -8 Y s 1018 93 m -16 Y s 1032 85 m -8 Y s 1045 85 m -8 Y s 1058 85 m -8 Y s 1072 85 m -8 Y s 1085 93 m -16 Y s 1098 85 m -8 Y s 1112 85 m -8 Y s 1125 85 m -8 Y s 1138 85 m -8 Y s 1152 93 m -16 Y s 1165 85 m -8 Y s 1178 85 m -8 Y s 1192
 85 m -8 Y s 1205 85 m -8 Y s 1218 93 m -16 Y s 1232 85 m -8 Y s 1245 85 m -8 Y s 1258 85 m -8 Y s 1272 85 m -8 Y s 1285 93 m -16 Y s 1298 85 m -8 Y s 1311 85 m -8 Y s 1325 85 m -8 Y s 1338 85 m -8 Y s 1351 93 m -16 Y s 1365 85 m -8 Y s 1378 85 m -8
 Y s 1391 85 m -8 Y s 1405 85 m -8 Y s 1418 93 m -16 Y s 885 77 m 559 Y s 902 77 m -17 X s 894 97 m -9 X s 894 118 m -9 X s 894 138 m -9 X s 902 158 m -17 X s 894 178 m -9 X s 894 198 m -9 X s 894 219 m -9 X s 902 239 m -17 X s 894 259 m -9 X s 894
 279 m -9 X s 894 300 m -9 X s 902 320 m -17 X s 894 340 m -9 X s 894 360 m -9 X s 894 381 m -9 X s 902 401 m -17 X s 894 421 m -9 X s 894 441 m -9 X s 894 462 m -9 X s 902 482 m -17 X s 894 502 m -9 X s 894 522 m -9 X s 894 543 m -9 X s 902 563 m
 -17 X s 902 563 m -17 X s 894 583 m -9 X s 894 603 m -9 X s 894 624 m -9 X s 1 1 1 c black
 gsave  710 699 779 7 C 1041.51 672.14 t 0 r /Helvetica findfont 34.8619 sf 0 0 m (Background) show NC gr  1 1 1 c 711 699 1534 7 bf black 1 1 1 c 533 559 1641 77 bf black 533 559 1641 77 bl 1641 77 m 533 X s 1641 93 m -16 Y s 1654 85 m -8 Y s 1668
 85 m -8 Y s 1681 85 m -8 Y s 1694 85 m -8 Y s 1708 93 m -16 Y s 1721 85 m -8 Y s 1734 85 m -8 Y s 1748 85 m -8 Y s 1761 85 m -8 Y s 1774 93 m -16 Y s 1788 85 m -8 Y s 1801 85 m -8 Y s 1814 85 m -8 Y s 1828 85 m -8 Y s 1841 93 m -16 Y s 1854 85 m -8
 Y s 1868 85 m -8 Y s 1881 85 m -8 Y s 1894 85 m -8 Y s 1908 93 m -16 Y s 1921 85 m -8 Y s 1934 85 m -8 Y s 1947 85 m -8 Y s 1961 85 m -8 Y s 1974 93 m -16 Y s 1987 85 m -8 Y s 2001 85 m -8 Y s 2014 85 m -8 Y s 2027 85 m -8 Y s 2041 93 m -16 Y s 2054
 85 m -8 Y s 2067 85 m -8 Y s 2081 85 m -8 Y s 2094 85 m -8 Y s 2107 93 m -16 Y s 2121 85 m -8 Y s 2134 85 m -8 Y s 2147 85 m -8 Y s 2161 85 m -8 Y s 2174 93 m -16 Y s
 gsave  711 699 1534 7 C 1618.28 54.4979 t 0 r /Helvetica findfont 22.736 sf 0 0 m (5.25) show NC gr 
 gsave  711 699 1534 7 C 1678.84 54.4979 t 0 r /Helvetica findfont 22.736 sf 0 0 m (5.255) show NC gr 
 gsave  711 699 1534 7 C 1751.5 54.4979 t 0 r /Helvetica findfont 22.736 sf 0 0 m (5.26) show NC gr 
 gsave  711 699 1534 7 C 1812.05 54.4979 t 0 r /Helvetica findfont 22.736 sf 0 0 m (5.265) show NC gr 
 gsave  711 699 1534 7 C 1884.72 54.4979 t 0 r /Helvetica findfont 22.736 sf 0 0 m (5.27) show NC gr 
 gsave  711 699 1534 7 C 1945.27 54.4979 t 0 r /Helvetica findfont 22.736 sf 0 0 m (5.275) show NC gr 
 gsave  711 699 1534 7 C 2017.93 54.4979 t 0 r /Helvetica findfont 22.736 sf 0 0 m (5.28) show NC gr 
 gsave  711 699 1534 7 C 2078.49 54.4979 t 0 r /Helvetica findfont 22.736 sf 0 0 m (5.285) show NC gr 
 gsave  711 699 1534 7 C 2151.15 54.4979 t 0 r /Helvetica findfont 22.736 sf 0 0 m (5.29) show NC gr 
 gsave  711 699 1534 7 C 2011.88 31.7904 t 0 r /Helvetica findfont 22.736 sf 0 0 m (m_bc \(GeV/c^2\)) show NC gr  1641 77 m 559 Y s 1658 77 m -17 X s 1650 96 m -9 X s 1650 115 m -9 X s 1650 135 m -9 X s 1650 154 m -9 X s 1658 173 m -17 X s 1650 192 m
 -9 X s 1650 211 m -9 X s 1650 230 m -9 X s 1650 249 m -9 X s 1658 269 m -17 X s 1650 288 m -9 X s 1650 307 m -9 X s 1650 326 m -9 X s 1650 345 m -9 X s 1658 364 m -17 X s 1650 384 m -9 X s 1650 403 m -9 X s 1650 422 m -9 X s 1650 441 m -9 X s 1658
 460 m -17 X s 1650 479 m -9 X s 1650 499 m -9 X s 1650 518 m -9 X s 1650 537 m -9 X s 1658 556 m -17 X s 1658 556 m -17 X s 1650 575 m -9 X s 1650 594 m -9 X s 1650 614 m -9 X s 1650 633 m -9 X s
 gsave  711 699 1534 7 C 1624.34 68.1223 t 0 r /Helvetica findfont 22.736 sf 0 0 m (0) show NC gr 
 gsave  711 699 1534 7 C 1598.6 165.007 t 0 r /Helvetica findfont 22.736 sf 0 0 m (100) show NC gr 
 gsave  711 699 1534 7 C 1598.6 260.379 t 0 r /Helvetica findfont 22.736 sf 0 0 m (200) show NC gr 
 gsave  711 699 1534 7 C 1598.6 355.75 t 0 r /Helvetica findfont 22.736 sf 0 0 m (300) show NC gr 
 gsave  711 699 1534 7 C 1598.6 452.635 t 0 r /Helvetica findfont 22.736 sf 0 0 m (400) show NC gr 
 gsave  711 699 1534 7 C 1598.6 548.006 t 0 r /Helvetica findfont 22.736 sf 0 0 m (500) show NC gr 
 gsave  711 699 1534 7 C 1583.47 360.291 t 90 r /Helvetica findfont 22.736 sf 0 0 m (Events / \( 0.0004 GeV/c^2 \)) show NC gr  1 1 1 c black
 gsave  711 699 1534 7 C 1728.79 670.626 t 0 r /Helvetica findfont 34.8619 sf 0 0 m (Signal + Background) show NC gr  1644 79 m -3 X s 1641 77 m 5 Y s 1644 79 m 2 X s 1646 77 m 5 Y s 1644 79 m 2 Y s 1641 81 m 6 X s 1644 79 m -1 Y s 1641 78 m 6 X s
 1649 88 m -3 X s 1646 85 m 6 Y s 1649 88 m 3 X s 1652 85 m 6 Y s 1649 88 m 4 Y s 1646 92 m 6 X s 1649 88 m -4 Y s 1646 84 m 6 X s 1654 87 m -2 X s 1652 84 m 6 Y s 1654 87 m 3 X s 1657 84 m 6 Y s 1654 87 m 4 Y s 1651 91 m 6 X s 1654 87 m -3 Y s 1651
 84 m 6 X s 1660 78 m -3 X s 1657 77 m 4 Y s 1660 78 m 2 X s 1662 77 m 4 Y s 1660 78 m 2 Y s 1657 80 m 6 X s 1660 78 m -1 Y s 1657 77 m 6 X s 1665 88 m -3 X s 1662 85 m 6 Y s 1665 88 m 3 X s 1668 85 m 6 Y s 1665 88 m 4 Y s 1662 92 m 6 X s 1665 88 m
 -4 Y s 1662 84 m 6 X s 1670 84 m -2 X s 1668 81 m 6 Y s 1670 84 m 3 X s 1673 81 m 6 Y s 1670 84 m 3 Y s 1667 87 m 6 X s 1670 84 m -3 Y s 1667 81 m 6 X s 1676 80 m -3 X s 1673 77 m 6 Y s 1676 80 m 2 X s 1678 77 m 6 Y s 1676 80 m 3 Y s 1673 83 m 6 X s
 1676 80 m -2 Y s 1673 78 m 6 X s 1681 84 m -3 X s 1678 81 m 6 Y s 1681 84 m 3 X s 1684 81 m 6 Y s 1681 84 m 3 Y s 1678 87 m 6 X s 1681 84 m -3 Y s 1678 81 m 6 X s 1686 83 m -2 X s 1684 80 m 6 Y s 1686 83 m 3 X s 1689 80 m 6 Y s 1686 83 m 3 Y s 1683
 86 m 6 X s 1686 83 m -3 Y s 1683 80 m 6 X s 1692 83 m -3 X s 1689 80 m 6 Y s 1692 83 m 2 X s 1694 80 m 6 Y s 1692 83 m 3 Y s 1689 86 m 6 X s 1692 83 m -3 Y s 1689 80 m 6 X s 1697 80 m -3 X s 1694 77 m 6 Y s 1697 80 m 3 X s 1700 77 m 6 Y s 1697 80 m
 3 Y s 1694 83 m 6 X s 1697 80 m -2 Y s 1694 78 m 6 X s 1702 82 m -2 X s 1700 79 m 6 Y s 1702 82 m 3 X s 1705 79 m 6 Y s 1702 82 m 3 Y s 1699 85 m 6 X s 1702 82 m -2 Y s 1699 80 m 6 X s 1708 84 m -3 X s 1705 81 m 6 Y s 1708 84 m 2 X s 1710 81 m 6 Y s
 1708 84 m 3 Y s 1705 87 m 6 X s 1708 84 m -3 Y s 1705 81 m 6 X s 1713 81 m -3 X s 1710 78 m 6 Y s 1713 81 m 3 X s 1716 78 m 6 Y s 1713 81 m 3 Y s 1710 84 m 6 X s 1713 81 m -2 Y s 1710 79 m 6 X s 1718 80 m -2 X s 1716 77 m 6 Y s 1718 80 m 3 X s 1721
 77 m 6 Y s 1718 80 m 3 Y s 1715 83 m 6 X s 1718 80 m -2 Y s 1715 78 m 6 X s 1724 84 m -3 X s 1721 81 m 6 Y s 1724 84 m 2 X s 1726 81 m 6 Y s 1724 84 m 3 Y s 1721 87 m 6 X s 1724 84 m -3 Y s 1721 81 m 6 X s 1729 85 m -3 X s 1726 82 m 6 Y s 1729 85 m
 3 X s 1732 82 m 6 Y s 1729 85 m 3 Y s 1726 88 m 6 X s 1729 85 m -3 Y s 1726 82 m 6 X s 1734 83 m -2 X s 1732 80 m 6 Y s 1734 83 m 3 X s 1737 80 m 6 Y s 1734 83 m 3 Y s 1731 86 m 6 X s 1734 83 m -3 Y s 1731 80 m 6 X s 1740 81 m -3 X s 1737 78 m 6 Y s
 1740 81 m 2 X s 1742 78 m 6 Y s 1740 81 m 3 Y s 1737 84 m 6 X s 1740 81 m -2 Y s 1737 79 m 6 X s 1745 89 m -3 X s 1742 85 m 7 Y s 1745 89 m 3 X s 1748 85 m 7 Y s 1745 89 m 4 Y s 1742 93 m 6 X s 1745 89 m -4 Y s 1742 85 m 6 X s 1750 80 m -2 X s 1748
 77 m 6 Y s 1750 80 m 3 X s 1753 77 m 6 Y s 1750 80 m 3 Y s 1747 83 m 6 X s 1750 80 m -2 Y s 1747 78 m 6 X s 1756 82 m -3 X s 1753 79 m 6 Y s 1756 82 m 2 X s 1758 79 m 6 Y s 1756 82 m 3 Y s 1753 85 m 6 X s 1756 82 m -2 Y s 1753 80 m 6 X s 1761 86 m
 -3 X s 1758 83 m 6 Y s 1761 86 m 3 X s 1764 83 m 6 Y s 1761 86 m 4 Y s 1758 90 m 6 X s 1761 86 m -3 Y s 1758 83 m 6 X s 1766 84 m -2 X s 1764 81 m 6 Y s 1766 84 m 3 X s 1769 81 m 6 Y s 1766 84 m 3 Y s 1763 87 m 6 X s 1766 84 m -3 Y s 1763 81 m 6 X s
 1772 87 m -3 X s 1769 84 m 6 Y s 1772 87 m 2 X s 1774 84 m 6 Y s 1772 87 m 4 Y s 1769 91 m 6 X s 1772 87 m -3 Y s 1769 84 m 6 X s 1777 85 m -3 X s 1774 82 m 6 Y s 1777 85 m 3 X s 1780 82 m 6 Y s 1777 85 m 3 Y s 1774 88 m 6 X s 1777 85 m -3 Y s 1774
 82 m 6 X s 1782 86 m -2 X s 1780 83 m 6 Y s 1782 86 m 3 X s 1785 83 m 6 Y s 1782 86 m 4 Y s 1779 90 m 6 X s 1782 86 m -3 Y s 1779 83 m 6 X s 1788 83 m -3 X s 1785 80 m 6 Y s 1788 83 m 2 X s 1790 80 m 6 Y s 1788 83 m 3 Y s 1785 86 m 6 X s 1788 83 m
 -3 Y s 1785 80 m 6 X s 1793 84 m -3 X s 1790 81 m 6 Y s 1793 84 m 3 X s 1796 81 m 6 Y s 1793 84 m 3 Y s 1790 87 m 6 X s 1793 84 m -3 Y s 1790 81 m 6 X s 1798 82 m -2 X s 1796 79 m 6 Y s 1798 82 m 3 X s 1801 79 m 6 Y s 1798 82 m 3 Y s 1795 85 m 6 X s
 1798 82 m -2 Y s 1795 80 m 6 X s 1804 83 m -3 X s 1801 80 m 6 Y s 1804 83 m 2 X s 1806 80 m 6 Y s 1804 83 m 3 Y s 1801 86 m 6 X s 1804 83 m -3 Y s 1801 80 m 6 X s 1809 85 m -3 X s 1806 82 m 6 Y s 1809 85 m 3 X s 1812 82 m 6 Y s 1809 85 m 3 Y s 1806
 88 m 6 X s 1809 85 m -3 Y s 1806 82 m 6 X s 1814 82 m -2 X s 1812 79 m 6 Y s 1814 82 m 3 X s 1817 79 m 6 Y s 1814 82 m 3 Y s 1811 85 m 6 X s 1814 82 m -2 Y s 1811 80 m 6 X s 1820 86 m -3 X s 1817 83 m 6 Y s 1820 86 m 2 X s 1822 83 m 6 Y s 1820 86 m
 4 Y s 1817 90 m 6 X s 1820 86 m -3 Y s 1817 83 m 6 X s 1825 83 m -3 X s 1822 80 m 6 Y s 1825 83 m 3 X s 1828 80 m 6 Y s 1825 83 m 3 Y s 1822 86 m 6 X s 1825 83 m -3 Y s 1822 80 m 6 X s 1830 83 m -2 X s 1828 80 m 6 Y s 1830 83 m 3 X s 1833 80 m 6 Y s
 1830 83 m 3 Y s 1827 86 m 6 X s 1830 83 m -3 Y s 1827 80 m 6 X s 1836 89 m -3 X s 1833 86 m 6 Y s 1836 89 m 2 X s 1838 86 m 6 Y s 1836 89 m 5 Y s 1833 94 m 6 X s 1836 89 m -3 Y s 1833 86 m 6 X s 1841 86 m -3 X s 1838 83 m 6 Y s 1841 86 m 3 X s 1844
 83 m 6 Y s 1841 86 m 4 Y s 1838 90 m 6 X s 1841 86 m -3 Y s 1838 83 m 6 X s 1846 86 m -2 X s 1844 83 m 6 Y s 1846 86 m 3 X s 1849 83 m 6 Y s 1846 86 m 4 Y s 1843 90 m 6 X s 1846 86 m -3 Y s 1843 83 m 6 X s 1852 82 m -3 X s 1849 79 m 6 Y s 1852 82 m
 2 X s 1854 79 m 6 Y s 1852 82 m 3 Y s 1849 85 m 6 X s 1852 82 m -2 Y s 1849 80 m 6 X s 1857 84 m -3 X s 1854 81 m 6 Y s 1857 84 m 3 X s 1860 81 m 6 Y s 1857 84 m 3 Y s 1854 87 m 6 X s 1857 84 m -3 Y s 1854 81 m 6 X s 1862 81 m -2 X s 1860 78 m 6 Y s
 1862 81 m 3 X s 1865 78 m 6 Y s 1862 81 m 3 Y s 1859 84 m 6 X s 1862 81 m -2 Y s 1859 79 m 6 X s 1868 87 m -3 X s 1865 84 m 6 Y s 1868 87 m 2 X s 1870 84 m 6 Y s 1868 87 m 4 Y s 1865 91 m 6 X s 1868 87 m -3 Y s 1865 84 m 6 X s 1873 85 m -3 X s 1870
 82 m 6 Y s 1873 85 m 3 X s 1876 82 m 6 Y s 1873 85 m 3 Y s 1870 88 m 6 X s 1873 85 m -3 Y s 1870 82 m 6 X s 1878 84 m -2 X s 1876 81 m 6 Y s 1878 84 m 3 X s 1881 81 m 6 Y s 1878 84 m 3 Y s 1875 87 m 6 X s 1878 84 m -3 Y s 1875 81 m 6 X s 1884 86 m
 -3 X s 1881 83 m 6 Y s 1884 86 m 2 X s 1886 83 m 6 Y s 1884 86 m 4 Y s 1881 90 m 6 X s 1884 86 m -3 Y s 1881 83 m 6 X s 1889 82 m -3 X s 1886 79 m 6 Y s 1889 82 m 3 X s 1892 79 m 6 Y s 1889 82 m 3 Y s 1886 85 m 6 X s 1889 82 m -2 Y s 1886 80 m 6 X s
 1894 88 m -2 X s 1892 85 m 6 Y s 1894 88 m 3 X s 1897 85 m 6 Y s 1894 88 m 4 Y s 1891 92 m 6 X s 1894 88 m -4 Y s 1891 84 m 6 X s 1900 85 m -3 X s 1897 82 m 6 Y s 1900 85 m 2 X s 1902 82 m 6 Y s 1900 85 m 3 Y s 1897 88 m 6 X s 1900 85 m -3 Y s 1897
 82 m 6 X s 1905 86 m -3 X s 1902 83 m 6 Y s 1905 86 m 3 X s 1908 83 m 6 Y s 1905 86 m 4 Y s 1902 90 m 6 X s 1905 86 m -3 Y s 1902 83 m 6 X s 1910 85 m -2 X s 1908 82 m 6 Y s 1910 85 m 3 X s 1913 82 m 6 Y s 1910 85 m 3 Y s 1907 88 m 6 X s 1910 85 m
 -3 Y s 1907 82 m 6 X s 1916 86 m -3 X s 1913 83 m 6 Y s 1916 86 m 2 X s 1918 83 m 6 Y s 1916 86 m 4 Y s 1912 90 m 7 X s 1916 86 m -3 Y s 1912 83 m 7 X s 1921 86 m -3 X s 1918 83 m 6 Y s 1921 86 m 3 X s 1924 83 m 6 Y s 1921 86 m 4 Y s 1918 90 m 6 X s
 1921 86 m -3 Y s 1918 83 m 6 X s 1926 88 m -2 X s 1924 85 m 6 Y s 1926 88 m 3 X s 1929 85 m 6 Y s 1926 88 m 4 Y s 1923 92 m 6 X s 1926 88 m -4 Y s 1923 84 m 6 X s 1932 89 m -3 X s 1929 86 m 6 Y s 1932 89 m 2 X s 1934 86 m 6 Y s 1932 89 m 5 Y s 1928
 94 m 7 X s 1932 89 m -3 Y s 1928 86 m 7 X s 1937 91 m -3 X s 1934 88 m 6 Y s 1937 91 m 3 X s 1940 88 m 6 Y s 1937 91 m 5 Y s 1934 96 m 6 X s 1937 91 m -3 Y s 1934 88 m 6 X s 1942 98 m -2 X s 1940 95 m 6 Y s 1942 98 m 3 X s 1945 95 m 6 Y s 1942 98 m
 6 Y s 1939 104 m 6 X s 1942 98 m -4 Y s 1939 94 m 6 X s 1947 99 m -2 X s 1945 96 m 6 Y s 1947 99 m 3 X s 1950 96 m 6 Y s 1947 99 m 6 Y s 1944 105 m 7 X s 1947 99 m -5 Y s 1944 94 m 7 X s 1953 108 m -3 X s 1950 105 m 6 Y s 1953 108 m 2 X s 1955 105 m
 6 Y s 1953 108 m 6 Y s 1950 114 m 6 X s 1953 108 m -6 Y s 1950 102 m 6 X s 1958 106 m -3 X s 1955 103 m 6 Y s 1958 106 m 3 X s 1961 103 m 6 Y s 1958 106 m 6 Y s 1955 112 m 6 X s 1958 106 m -5 Y s 1955 101 m 6 X s 1963 124 m -2 X s 1961 121 m 6 Y s
 1963 124 m 3 X s 1966 121 m 6 Y s 1963 124 m 8 Y s 1960 132 m 7 X s 1963 124 m -7 Y s 1960 117 m 7 X s 1969 123 m -3 X s 1966 120 m 6 Y s 1969 123 m 2 X s 1971 120 m 6 Y s 1969 123 m 8 Y s 1966 131 m 6 X s 1969 123 m -7 Y s 1966 116 m 6 X s 1974 138
 m -3 X s 1971 135 m 6 Y s 1974 138 m 3 X s 1977 135 m 6 Y s 1974 138 m 9 Y s 1971 147 m 6 X s 1974 138 m -7 Y s 1971 131 m 6 X s 1979 154 m -2 X s 1977 151 m 6 Y s 1979 154 m 3 X s 1982 151 m 6 Y s 1979 154 m 9 Y s 1976 163 m 6 X s 1979 154 m -9 Y s
 1976 145 m 6 X s 1985 188 m -3 X s 1982 185 m 6 Y s 1985 188 m 2 X s 1987 185 m 6 Y s 1985 188 m 11 Y s 1982 199 m 6 X s 1985 188 m -10 Y s 1982 178 m 6 X s 1990 224 m -3 X s 1987 221 m 6 Y s 1990 224 m 3 X s 1993 221 m 6 Y s 1990 224 m 12 Y s 1987
 236 m 6 X s 1990 224 m -12 Y s 1987 212 m 6 X s 1995 231 m -2 X s 1993 228 m 6 Y s 1995 231 m 3 X s 1998 228 m 6 Y s 1995 231 m 13 Y s 1992 244 m 6 X s 1995 231 m -11 Y s 1992 220 m 6 X s 2001 281 m -3 X s 1998 278 m 6 Y s 2001 281 m 2 X s 2003 278
 m 6 Y s 2001 281 m 15 Y s 1998 296 m 6 X s 2001 281 m -13 Y s 1998 268 m 6 X s 2006 311 m -3 X s 2003 308 m 6 Y s 2006 311 m 3 X s 2009 308 m 6 Y s 2006 311 m 15 Y s 2003 326 m 6 X s 2006 311 m -15 Y s 2003 296 m 6 X s 2011 364 m -2 X s 2009 361 m 7
 Y s 2011 364 m 3 X s 2014 361 m 7 Y s 2011 364 m 18 Y s 2008 382 m 6 X s 2011 364 m -16 Y s 2008 348 m 6 X s 2017 410 m -3 X s 2014 406 m 7 Y s 2017 410 m 2 X s 2019 406 m 7 Y s 2017 410 m 18 Y s 2014 428 m 6 X s 2017 410 m -18 Y s 2014 392 m 6 X s
 2022 425 m -3 X s 2019 422 m 6 Y s 2022 425 m 3 X s 2025 422 m 6 Y s 2022 425 m 19 Y s 2019 444 m 6 X s 2022 425 m -18 Y s 2019 407 m 6 X s 2027 533 m -2 X s 2025 530 m 6 Y s 2027 533 m 3 X s 2030 530 m 6 Y s 2027 533 m 22 Y s 2024 555 m 6 X s 2027
 533 m -20 Y s 2024 513 m 6 X s 2033 539 m -3 X s 2030 536 m 6 Y s 2033 539 m 2 X s 2035 536 m 6 Y s 2033 539 m 21 Y s 2030 560 m 6 X s 2033 539 m -21 Y s 2030 518 m 6 X s 2038 533 m -3 X s 2035 530 m 6 Y s 2038 533 m 3 X s 2041 530 m 6 Y s 2038 533
 m 22 Y s 2035 555 m 6 X s 2038 533 m -20 Y s 2035 513 m 6 X s 2043 549 m -2 X s 2041 546 m 6 Y s 2043 549 m 3 X s 2046 546 m 6 Y s 2043 549 m 22 Y s 2040 571 m 6 X s 2043 549 m -20 Y s 2040 529 m 6 X s 2049 531 m -3 X s 2046 528 m 6 Y s 2049 531 m 2
 X s 2051 528 m 6 Y s 2049 531 m 22 Y s 2046 553 m 6 X s 2049 531 m -20 Y s 2046 511 m 6 X s 2054 587 m -3 X s 2051 584 m 6 Y s 2054 587 m 3 X s 2057 584 m 6 Y s 2054 587 m 22 Y s 2051 609 m 6 X s 2054 587 m -22 Y s 2051 565 m 6 X s 2059 532 m -2 X s
 2057 529 m 6 Y s 2059 532 m 3 X s 2062 529 m 6 Y s 2059 532 m 22 Y s 2056 554 m 6 X s 2059 532 m -20 Y s 2056 512 m 6 X s 2065 505 m -3 X s 2062 502 m 6 Y s 2065 505 m 2 X s 2067 502 m 6 Y s 2065 505 m 21 Y s 2062 526 m 6 X s 2065 505 m -19 Y s 2062
 486 m 6 X s 2070 469 m -3 X s 2067 466 m 6 Y s 2070 469 m 3 X s 2073 466 m 6 Y s 2070 469 m 20 Y s 2067 489 m 6 X s 2070 469 m -19 Y s 2067 450 m 6 X s 2075 418 m -2 X s 2073 415 m 6 Y s 2075 418 m 3 X s 2078 415 m 6 Y s 2075 418 m 19 Y s 2072 437 m
 6 X s 2075 418 m -17 Y s 2072 401 m 6 X s 2081 392 m -3 X s 2078 389 m 6 Y s 2081 392 m 2 X s 2083 389 m 6 Y s 2081 392 m 18 Y s 2078 410 m 6 X s 2081 392 m -17 Y s 2078 375 m 6 X s 2086 352 m -3 X s 2083 349 m 6 Y s 2086 352 m 3 X s 2089 349 m 6 Y
 s 2086 352 m 17 Y s 2083 369 m 6 X s 2086 352 m -16 Y s 2083 336 m 6 X s 2091 273 m -2 X s 2089 270 m 6 Y s 2091 273 m 3 X s 2094 270 m 6 Y s 2091 273 m 15 Y s 2088 288 m 6 X s 2091 273 m -13 Y s 2088 260 m 6 X s 2097 261 m -3 X s 2094 258 m 6 Y s
 2097 261 m 2 X s 2099 258 m 6 Y s 2097 261 m 14 Y s 2094 275 m 6 X s 2097 261 m -13 Y s 2094 248 m 6 X s 2102 218 m -3 X s 2099 215 m 6 Y s 2102 218 m 3 X s 2105 215 m 6 Y s 2102 218 m 12 Y s 2099 230 m 6 X s 2102 218 m -11 Y s 2099 207 m 6 X s 2107
 187 m -2 X s 2105 184 m 6 Y s 2107 187 m 3 X s 2110 184 m 6 Y s 2107 187 m 11 Y s 2104 198 m 6 X s 2107 187 m -10 Y s 2104 177 m 6 X s 2113 158 m -3 X s 2110 155 m 6 Y s 2113 158 m 2 X s 2115 155 m 6 Y s 2113 158 m 10 Y s 2110 168 m 6 X s 2113 158 m
 -8 Y s 2110 150 m 6 X s 2118 136 m -3 X s 2115 133 m 6 Y s 2118 136 m 3 X s 2121 133 m 6 Y s 2118 136 m 9 Y s 2115 145 m 6 X s 2118 136 m -7 Y s 2115 129 m 6 X s 2123 121 m -2 X s 2121 118 m 6 Y s 2123 121 m 3 X s 2126 118 m 6 Y s 2123 121 m 8 Y s
 2120 129 m 6 X s 2123 121 m -6 Y s 2120 115 m 6 X s 2129 115 m -3 X s 2126 112 m 6 Y s 2129 115 m 2 X s 2131 112 m 6 Y s 2129 115 m 7 Y s 2126 122 m 6 X s 2129 115 m -6 Y s 2126 109 m 6 X s 2134 101 m -3 X s 2131 98 m 6 Y s 2134 101 m 3 X s 2137 98
 m 6 Y s 2134 101 m 6 Y s 2131 107 m 6 X s 2134 101 m -5 Y s 2131 96 m 6 X s 2139 93 m -2 X s 2137 90 m 6 Y s 2139 93 m 3 X s 2142 90 m 6 Y s 2139 93 m 5 Y s 2136 98 m 6 X s 2139 93 m -4 Y s 2136 89 m 6 X s 2145 91 m -3 X s 2142 88 m 6 Y s 2145 91 m
 2 X s 2147 88 m 6 Y s 2145 91 m 5 Y s 2142 96 m 6 X s 2145 91 m -3 Y s 2142 88 m 6 X s 2150 82 m -3 X s 2147 79 m 6 Y s 2150 82 m 3 X s 2153 79 m 6 Y s 2150 82 m 3 Y s 2147 85 m 6 X s 2150 82 m -2 Y s 2147 80 m 6 X s 2155 83 m -2 X s 2153 80 m 6 Y s
 2155 83 m 3 X s 2158 80 m 6 Y s 2155 83 m 3 Y s 2152 86 m 6 X s 2155 83 m -3 Y s 2152 80 m 6 X s 2161 81 m -3 X s 2158 78 m 6 Y s 2161 81 m 2 X s 2163 78 m 6 Y s 2161 81 m 3 Y s 2158 84 m 6 X s 2161 81 m -2 Y s 2158 79 m 6 X s 2166 83 m -3 X s 2163
 80 m 6 Y s 2166 83 m 3 X s 2169 80 m 6 Y s 2166 83 m 3 Y s 2163 86 m 6 X s 2166 83 m -3 Y s 2163 80 m 6 X s 2171 80 m -2 X s 2169 77 m 6 Y s 2171 80 m 3 X s 2174 77 m 6 Y s 2171 80 m 3 Y s 2168 83 m 6 X s 2171 80 m -2 Y s 2168 78 m 6 X s 1 1 1 c
 black /w 13 def /w2 {w 2 div} def /w3 {w 3 div} def 1644 79 1649 88 1654 87 1660 78 1665 88 1670 84 1676 80 1681 84 1686 83 1692 83 1697 80 1702 82 1708 84 1713 81 1718 80 1724 84 1729 85 1734 83 1740 81 1745 89 1750 80 1756 82 1761 86 1766 84 1772
 87 1777 85 1782 86 1788 83 1793 84 1798 82 1804 83 1809 85 1814 82 1820 86 1825 83 1830 83 1836 89 1841 86 1846 86 1852 82 1857 84 1862 81 1868 87 1873 85 1878 84 1884 86 1889 82 1894 88 1900 85 1905 86 1910 85 1916 86 1921 86 1926 88 1932 89 1937
 91 1942 98 1947 99 1953 108 1958 106 1963 124 1969 123 1974 138 1979 154 1985 188 1990 224 1995 231 2001 281 2006 311 2011 364 2017 410 2022 425 2027 533 2033 539 2038 533 2043 549 2049 531 2054 587 2059 532 2065 505 2070 469 2075 418 2081 392 2086
 352 2091 273 2097 261 2102 218 2107 187 2113 158 2118 136 2123 121 2129 115 2134 101 2139 93 2145 91 2150 82 2155 83 2161 81 2166 83 2171 80 100 { m20} R 0 0 1 c 9 lw 1 1 1 c black 0 0 1 c 1641 83 m cl s 1641 83 m 91 X 5 1 d 144 X 5 1 d 32 X 6 1 d 5
 1 d 5 1 d 6 2 d 5 2 d 5 4 d 5 6 d 6 8 d 5 10 d 5 14 d 3 8 d 3 10 d 2 10 d 3 12 d 3 13 d 2 14 d 3 15 d 3 16 d 2 18 d 3 18 d 5 40 d 6 42 d 5 43 d 5 42 d 3 20 d 3 19 d 2 18 d 3 16 d 3 14 d 2 11 d 3 10 d 3 7 d 2 4 d 3 2 d 3 -1 d 2 -3 d 3 -7 d 3 -8 d 2
 -11 d 3 -14 d 3 -15 d 2 -17 d 3 -18 d 3 -20 d 5 -42 d 5 -43 d 6 -43 d 5 -40 d 3 -19 d 2 -18 d 3 -17 d 3 -16 d 2 -14 d 3 -14 d 3 -12 d 2 -11 d 3 -10 d 3 -8 d 5 -15 d 5 -11 d 6 -9 d 5 -6 d 5 -4 d 6 -4 d 5 -2 d 5 -2 d 6 -2 d 5 -2 d s[ 12 12] 0 sd 1 1 1
 c black 0 0 1 c 1641 83 m cl s 1641 83 m 123 X 5 1 d 139 X 5 1 d 27 X 5 1 d 5 1 d 5 X 6 1 d 5 2 d 5 1 d 6 2 d 5 2 d 5 3 d 6 3 d 5 3 d 5 4 d 6 3 d 5 4 d 5 3 d 3 1 d 3 2 d 2 1 d 3 1 d 3 1 d 2 1 d 3 1 d 3 X 2 1 d 6 X 2 -1 d 3 X 3 -1 d 2 -1 d 3 -1 d 3
 -1 d 2 -1 d 3 -2 d 3 -1 d 5 -3 d 5 -4 d 6 -4 d 5 -3 d 5 -4 d 6 -3 d 5 -3 d 5 -2 d 6 -2 d 5 -2 d 5 -2 d 6 -1 d 5 -1 d 5 -1 d 6 -1 d 5 -1 d 5 -1 d 6 -1 d 2 X 2 -1 d 1 -1 d s black[  ] 0 sd 3 lw 1641 77 m 533 X s 1641 93 m -16 Y s 1654 85 m -8 Y s 1668
 85 m -8 Y s 1681 85 m -8 Y s 1694 85 m -8 Y s 1708 93 m -16 Y s 1721 85 m -8 Y s 1734 85 m -8 Y s 1748 85 m -8 Y s 1761 85 m -8 Y s 1774 93 m -16 Y s 1788 85 m -8 Y s 1801 85 m -8 Y s 1814 85 m -8 Y s 1828 85 m -8 Y s 1841 93 m -16 Y s 1854 85 m -8
 Y s 1868 85 m -8 Y s 1881 85 m -8 Y s 1894 85 m -8 Y s 1908 93 m -16 Y s 1921 85 m -8 Y s 1934 85 m -8 Y s 1947 85 m -8 Y s 1961 85 m -8 Y s 1974 93 m -16 Y s 1987 85 m -8 Y s 2001 85 m -8 Y s 2014 85 m -8 Y s 2027 85 m -8 Y s 2041 93 m -16 Y s 2054
 85 m -8 Y s 2067 85 m -8 Y s 2081 85 m -8 Y s 2094 85 m -8 Y s 2107 93 m -16 Y s 2121 85 m -8 Y s 2134 85 m -8 Y s 2147 85 m -8 Y s 2161 85 m -8 Y s 2174 93 m -16 Y s 1641 77 m 559 Y s 1658 77 m -17 X s 1650 96 m -9 X s 1650 115 m -9 X s 1650 135 m
 -9 X s 1650 154 m -9 X s 1658 173 m -17 X s 1650 192 m -9 X s 1650 211 m -9 X s 1650 230 m -9 X s 1650 249 m -9 X s 1658 269 m -17 X s 1650 288 m -9 X s 1650 307 m -9 X s 1650 326 m -9 X s 1650 345 m -9 X s 1658 364 m -17 X s 1650 384 m -9 X s 1650
 403 m -9 X s 1650 422 m -9 X s 1650 441 m -9 X s 1658 460 m -17 X s 1650 479 m -9 X s 1650 499 m -9 X s 1650 518 m -9 X s 1650 537 m -9 X s 1658 556 m -17 X s 1658 556 m -17 X s 1650 575 m -9 X s 1650 594 m -9 X s 1650 614 m -9 X s 1650 633 m -9 X s
 1 1 1 c black
 gsave  711 699 1534 7 C 1728.79 670.626 t 0 r /Helvetica findfont 34.8619 sf 0 0 m (Signal + Background) show NC gr 
 gr  gr showpage
end
%%EOF
