%!PS-Adobe-2.0 EPSF-2.0
%%BoundingBox:  0 0 567 536
%%Title: ./plots/s0/pBg_s1s2.eps: Background
%%Creator: ROOT Version 6.13/01
%%CreationDate: Thu Dec 28 11:47:01 2017
%%DocumentNeededResources: ProcSet (FontSetInit)
%%EndComments
%%BeginProlog
80 dict begin
/s {stroke} def /l {lineto} def /m {moveto} def /t {translate} def
/r {rotate} def /rl {roll}  def /R {repeat} def
/d {rlineto} def /rm {rmoveto} def /gr {grestore} def /f {eofill} def
/c {setrgbcolor} def /black {0 setgray} def /sd {setdash} def
/cl {closepath} def /sf {scalefont setfont} def /lw {setlinewidth} def
/box {m dup 0 exch d exch 0 d 0 exch neg d cl} def
/NC{systemdict begin initclip end}def/C{NC box clip newpath}def
/bl {box s} def /bf {gsave box gsave f grestore 1 lw [] 0 sd s grestore} def /Y { 0 exch d} def /X { 0 d} def 
/K {{pop pop 0 moveto} exch kshow} bind def
/ita {/ang 15 def gsave [1 0 ang dup sin exch cos div 1 0 0] concat} def 
/mp {newpath /y exch def /x exch def} def
/side {[w .77 mul w .23 mul] .385 w mul sd w 0 l currentpoint t -144 r} def
/mr {mp x y w2 0 360 arc} def /m24 {mr s} def /m20 {mr f} def
/mb {mp x y w2 add m w2 neg 0 d 0 w neg d w 0 d 0 w d cl} def
/mt {mp x y w2 add m w2 neg w neg d w 0 d cl} def
/w4 {w 4 div} def
/w6 {w 6 div} def
/w8 {w 8 div} def
/m21 {mb f} def /m25 {mb s} def /m22 {mt f} def /m26{mt s} def
/m23 {mp x y w2 sub m w2 w d w neg 0 d cl f} def
/m27 {mp x y w2 add m w3 neg w2 neg d w3 w2 neg d w3 w2 d cl s} def
/m28 {mp x w2 sub y w2 sub w3 add m w3 0 d  0 w3 neg d w3 0 d 0 w3 d w3 0 d  0 w3 d w3 neg 0 d 0 w3 d w3 neg 0 d 0 w3 neg d w3 neg 0 d cl s } def
/m29 {mp gsave x w2 sub y w2 add w3 sub m currentpoint t 4 {side} repeat cl fill gr} def
/m30 {mp gsave x w2 sub y w2 add w3 sub m currentpoint t 4 {side} repeat cl s gr} def
/m31 {mp x y w2 sub m 0 w d x w2 sub y m w 0 d x w2 sub y w2 add m w w neg d x w2 sub y w2 sub m w w d s} def
/m32 {mp x y w2 sub m w2 w d w neg 0 d cl s} def
/m33 {mp x y w2 add m w3 neg w2 neg d w3 w2 neg d w3 w2 d cl f} def
/m34 {mp x w2 sub y w2 sub w3 add m w3 0 d  0 w3 neg d w3 0 d 0 w3 d w3 0 d  0 w3 d w3 neg 0 d 0 w3 d w3 neg 0 d 0 w3 neg d w3 neg 0 d cl f } def
/m35 {mp x y w2 add m w2 neg w2 neg d w2 w2 neg d w2 w2 d w2 neg w2 d x y w2 sub m 0 w d x w2 sub y m w 0 d s} def
/m36 {mb x w2 sub y w2 add m w w neg d x w2 sub y w2 sub m w w d s} def
/m37 {mp x y m w4 neg w2 d w4 neg w2 neg d w2 0 d  w4 neg w2 neg d w2 0 d w4 neg w2 d w2 0 d w4 neg w2 d w4 neg w2 neg d cl s} def
/m38 {mp x w4 sub y w2 add m w4 neg w4 neg d 0 w2 neg d w4 w4 neg d w2 0 d w4 w4 d 0 w2 d w4 neg w4 d w2 neg 0 d x y w2 sub m 0 w d x w2 sub y m w 0 d cl s} def
/m39 {mp x y m w4 neg w2 d w4 neg w2 neg d w2 0 d  w4 neg w2 neg d w2 0 d w4 neg w2 d w2 0 d w4 neg w2 d w4 neg w2 neg d cl f} def
/m40 {mp x y m w4 w2 d w4 w4 neg d w2 neg w4 neg d w2 w4 neg d w4 neg w4 neg d w4 neg w2 d w4 neg w2 neg d w4 neg w4 d w2 w4 d w2 neg w4 d w4 w4 d w4 w2 neg d cl s} def
/m41 {mp x y m w4 w2 d w4 w4 neg d w2 neg w4 neg d w2 w4 neg d w4 neg w4 neg d w4 neg w2 d w4 neg w2 neg d w4 neg w4 d w2 w4 d w2 neg w4 d w4 w4 d w4 w2 neg d cl f} def
/m42 {mp x y w2 add m w8 neg w2 -3 4 div mul d w2 -3 4 div mul w8 neg d w2 3 4 div mul w8 neg d w8 w2 -3 4 div mul d w8 w2 3 4 div mul d w2 3 4 div mul w8 d w2 -3 4 div mul w8 d w8 neg w2 3 4 div mul d cl s} def
/m43 {mp x y w2 add m w8 neg w2 -3 4 div mul d w2 -3 4 div mul w8 neg d w2 3 4 div mul w8 neg d w8 w2 -3 4 div mul d w8 w2 3 4 div mul d w2 3 4 div mul w8 d w2 -3 4 div mul w8 d w8 neg w2 3 4 div mul d cl f} def
/m44 {mp x y m w6 neg w2 d w2 2 3 div mul 0 d w6 neg w2 neg d w2 w6 d 0 w2 -2 3 div mul d w2 neg w6 d w6 w2 neg d w2 -2 3 div mul 0 d w6 w2 d w2 neg w6 neg d 0 w2 2 3 div mul d w2 w6 neg d cl s} def
/m45 {mp x y m w6 neg w2 d w2 2 3 div mul 0 d w6 neg w2 neg d w2 w6 d 0 w2 -2 3 div mul d w2 neg w6 d w6 w2 neg d w2 -2 3 div mul 0 d w6 w2 d w2 neg w6 neg d 0 w2 2 3 div mul d w2 w6 neg d cl f} def
/m46 {mp x y w4 add m w4 neg w4 d w4 neg w4 neg d  w4 w4 neg d w4 neg w4 neg d w4 w4 neg d w4 w4 d w4 w4 neg d w4 w4 d w4 neg w4 d w4 w4 d w4 neg w4 d w4 neg w4 neg d cl s} def
/m47 {mp x y w4 add m w4 neg w4 d w4 neg w4 neg d w4 w4 neg d w4 neg w4 neg d  w4 w4 neg d w4 w4 d w4 w4 neg d w4 w4 d w4 neg w4 d w4 w4 d w4 neg w4 d w4 neg w4 neg d cl f} def
/m48 {mp x y w4 add m w4 neg w4 d w4 neg w4 neg d w4 w4 neg d  w4 neg w4 neg d w4 w4 neg d w4 w4 d w4 w4 neg d w4 w4 d w4 neg w4 d w4 w4 d w4 neg w4 d w4 neg w4 neg d  w4 w4 neg d w4 neg w4 neg d w4 neg w4 d w4 w4 d cl f} def
/m49 {mp x w2 sub w3 add y w2 sub w3 add m  0 w3 neg d w3 0 d 0 w3 d w3 0 d 0 w3 d w3 neg 0 d 0 w3 d w3 neg 0 d 0 w3 neg d w3 neg 0 d 0 w3 neg d w3 0 d 0 w3 d w3 0 d 0 w3 neg d w3 neg 0 d cl f } def
/m2 {mp x y w2 sub m 0 w d x w2 sub y m w 0 d s} def
/m5 {mp x w2 sub y w2 sub m w w d x w2 sub y w2 add m w w neg d s} def
%%IncludeResource: ProcSet (FontSetInit)
%%IncludeResource: font Times-Roman
%%IncludeResource: font Times-Italic
%%IncludeResource: font Times-Bold
%%IncludeResource: font Times-BoldItalic
%%IncludeResource: font Helvetica
%%IncludeResource: font Helvetica-Oblique
%%IncludeResource: font Helvetica-Bold
%%IncludeResource: font Helvetica-BoldOblique
%%IncludeResource: font Courier
%%IncludeResource: font Courier-Oblique
%%IncludeResource: font Courier-Bold
%%IncludeResource: font Courier-BoldOblique
%%IncludeResource: font Symbol
%%IncludeResource: font ZapfDingbats
/reEncode {exch findfont dup length dict begin {1 index /FID eq  {pop pop} {def} ifelse } forall /Encoding exch def currentdict end dup /FontName get exch definefont pop } def [/Times-Bold /Times-Italic /Times-BoldItalic /Helvetica /Helvetica-Oblique
 /Helvetica-Bold /Helvetica-BoldOblique /Courier /Courier-Oblique /Courier-Bold /Courier-BoldOblique /Times-Roman /AvantGarde-Book /AvantGarde-BookOblique /AvantGarde-Demi /AvantGarde-DemiOblique /Bookman-Demi /Bookman-DemiItalic /Bookman-Light
 /Bookman-LightItalic /Helvetica-Narrow /Helvetica-Narrow-Bold /Helvetica-Narrow-BoldOblique /Helvetica-Narrow-Oblique /NewCenturySchlbk-Roman /NewCenturySchlbk-Bold /NewCenturySchlbk-BoldItalic /NewCenturySchlbk-Italic /Palatino-Bold
 /Palatino-BoldItalic /Palatino-Italic /Palatino-Roman ] {ISOLatin1Encoding reEncode } forall
%%EndProlog
%%BeginSetup
%%EndSetup
newpath  gsave  .25 .25 scale  gsave  0 0 t black[  ] 0 sd 3 lw 1 1 1 c 2268 2145 0 0 bf black 1 1 1 c 1814 1716 227 214 bf black 1814 1716 227 214 bl 227 214 m 1814 X s 227 266 m -52 Y s 272 240 m -26 Y s 317 240 m -26 Y s 363 240 m -26 Y s 408 240
 m -26 Y s 454 266 m -52 Y s 499 240 m -26 Y s 544 240 m -26 Y s 590 240 m -26 Y s 635 240 m -26 Y s 680 266 m -52 Y s 726 240 m -26 Y s 771 240 m -26 Y s 816 240 m -26 Y s 862 240 m -26 Y s 907 266 m -52 Y s 952 240 m -26 Y s 998 240 m -26 Y s 1043
 240 m -26 Y s 1089 240 m -26 Y s 1134 266 m -52 Y s 1179 240 m -26 Y s 1225 240 m -26 Y s 1270 240 m -26 Y s 1315 240 m -26 Y s 1361 266 m -52 Y s 1406 240 m -26 Y s 1451 240 m -26 Y s 1497 240 m -26 Y s 1542 240 m -26 Y s 1587 266 m -52 Y s 1633
 240 m -26 Y s 1678 240 m -26 Y s 1723 240 m -26 Y s 1769 240 m -26 Y s 1814 266 m -52 Y s 1860 240 m -26 Y s 1905 240 m -26 Y s 1950 240 m -26 Y s 1996 240 m -26 Y s 2041 266 m -52 Y s
 gsave  2268 2145 0 0 C 154.824 145.717 t 0 r /Helvetica findfont 68.3047 sf 0 0 m (5.25) show NC gr 
 gsave  2268 2145 0 0 C 364.292 145.717 t 0 r /Helvetica findfont 68.3047 sf 0 0 m (5.255) show NC gr 
 gsave  2268 2145 0 0 C 610.189 145.717 t 0 r /Helvetica findfont 68.3047 sf 0 0 m (5.26) show NC gr 
 gsave  2268 2145 0 0 C 819.657 145.717 t 0 r /Helvetica findfont 68.3047 sf 0 0 m (5.265) show NC gr 
 gsave  2268 2145 0 0 C 1065.55 145.717 t 0 r /Helvetica findfont 68.3047 sf 0 0 m (5.27) show NC gr 
 gsave  2268 2145 0 0 C 1270.47 145.717 t 0 r /Helvetica findfont 68.3047 sf 0 0 m (5.275) show NC gr 
 gsave  2268 2145 0 0 C 1516.36 145.717 t 0 r /Helvetica findfont 68.3047 sf 0 0 m (5.28) show NC gr 
 gsave  2268 2145 0 0 C 1725.83 145.717 t 0 r /Helvetica findfont 68.3047 sf 0 0 m (5.285) show NC gr 
 gsave  2268 2145 0 0 C 1971.73 145.717 t 0 r /Helvetica findfont 68.3047 sf 0 0 m (5.29) show NC gr 
 gsave  2268 2145 0 0 C 1552.79 72.8584 t 0 r /Helvetica findfont 68.3047 sf 0 0 m (m_bc \(GeV/c^2\)) show NC gr  227 214 m 1716 Y s 281 214 m -54 X s 254 277 m -27 X s 254 339 m -27 X s 254 401 m -27 X s 281 463 m -54 X s 254 525 m -27 X s 254 587 m
 -27 X s 254 650 m -27 X s 281 712 m -54 X s 254 774 m -27 X s 254 836 m -27 X s 254 898 m -27 X s 281 960 m -54 X s 254 1022 m -27 X s 254 1085 m -27 X s 254 1147 m -27 X s 281 1209 m -54 X s 254 1271 m -27 X s 254 1333 m -27 X s 254 1395 m -27 X s
 281 1457 m -54 X s 254 1520 m -27 X s 254 1582 m -27 X s 254 1644 m -27 X s 281 1706 m -54 X s 281 1706 m -54 X s 254 1768 m -27 X s 254 1830 m -27 X s 254 1893 m -27 X s
 gsave  2268 2145 0 0 C 177.592 191.253 t 0 r /Helvetica findfont 68.3047 sf 0 0 m (0) show NC gr 
 gsave  2268 2145 0 0 C 141.163 437.15 t 0 r /Helvetica findfont 68.3047 sf 0 0 m (20) show NC gr 
 gsave  2268 2145 0 0 C 141.163 687.601 t 0 r /Helvetica findfont 68.3047 sf 0 0 m (40) show NC gr 
 gsave  2268 2145 0 0 C 141.163 933.498 t 0 r /Helvetica findfont 68.3047 sf 0 0 m (60) show NC gr 
 gsave  2268 2145 0 0 C 141.163 1183.95 t 0 r /Helvetica findfont 68.3047 sf 0 0 m (80) show NC gr 
 gsave  2268 2145 0 0 C 100.18 1434.4 t 0 r /Helvetica findfont 68.3047 sf 0 0 m (100) show NC gr 
 gsave  2268 2145 0 0 C 100.18 1680.3 t 0 r /Helvetica findfont 68.3047 sf 0 0 m (120) show NC gr 
 gsave  2268 2145 0 0 C 50.0901 1097.43 t 90 r /Helvetica findfont 68.3047 sf 0 0 m (Events / \( 0.0004 GeV/c^2 \)) show NC gr  1 1 1 c black
 gsave  2268 2145 0 0 C 856.086 2044.59 t 0 r /Helvetica findfont 104.734 sf 0 0 m (Background) show NC gr  236 364 m -9 X s 227 355 m 18 Y s 236 364 m 9 X s 245 355 m 18 Y s 236 364 m 56 Y s 227 420 m 18 X s 236 364 m -43 Y s 227 321 m 18 X s 254
 339 m -9 X s 245 330 m 18 Y s 254 339 m 9 X s 263 330 m 18 Y s 254 339 m 53 Y s 245 392 m 18 X s 254 339 m -39 Y s 245 300 m 18 X s 272 351 m -9 X s 263 342 m 18 Y s 272 351 m 9 X s 281 342 m 18 Y s 272 351 m 55 Y s 263 406 m 18 X s 272 351 m -40 Y
 s 263 311 m 18 X s 290 463 m -9 X s 281 454 m 18 Y s 290 463 m 9 X s 299 454 m 18 Y s 290 463 m 69 Y s 281 532 m 18 X s 290 463 m -55 Y s 281 408 m 18 X s 308 376 m -9 X s 299 367 m 18 Y s 308 376 m 9 X s 317 367 m 18 Y s 308 376 m 58 Y s 299 434 m
 19 X s 308 376 m -44 Y s 299 332 m 19 X s 327 364 m -10 X s 317 355 m 18 Y s 327 364 m 9 X s 336 355 m 18 Y s 327 364 m 56 Y s 317 420 m 19 X s 327 364 m -43 Y s 317 321 m 19 X s 345 326 m -9 X s 336 317 m 18 Y s 345 326 m 9 X s 354 317 m 18 Y s 345
 326 m 51 Y s 336 377 m 18 X s 345 326 m -36 Y s 336 290 m 18 X s 363 376 m -9 X s 354 367 m 18 Y s 363 376 m 9 X s 372 367 m 18 Y s 363 376 m 58 Y s 354 434 m 18 X s 363 376 m -44 Y s 354 332 m 18 X s 381 339 m -9 X s 372 330 m 18 Y s 381 339 m 9 X
 s 390 330 m 18 Y s 381 339 m 53 Y s 372 392 m 18 X s 381 339 m -39 Y s 372 300 m 18 X s 399 451 m -9 X s 390 442 m 18 Y s 399 451 m 9 X s 408 442 m 18 Y s 399 451 m 67 Y s 390 518 m 18 X s 399 451 m -54 Y s 390 397 m 18 X s 417 388 m -9 X s 408 379
 m 19 Y s 417 388 m 9 X s 426 379 m 19 Y s 417 388 m 61 Y s 408 449 m 18 X s 417 388 m -45 Y s 408 343 m 18 X s 435 463 m -9 X s 426 454 m 18 Y s 435 463 m 9 X s 444 454 m 18 Y s 435 463 m 69 Y s 426 532 m 19 X s 435 463 m -55 Y s 426 408 m 19 X s
 454 364 m -10 X s 444 355 m 18 Y s 454 364 m 9 X s 463 355 m 18 Y s 454 364 m 56 Y s 444 420 m 19 X s 454 364 m -43 Y s 444 321 m 19 X s 472 426 m -9 X s 463 417 m 18 Y s 472 426 m 9 X s 481 417 m 18 Y s 472 426 m 64 Y s 463 490 m 18 X s 472 426 m
 -51 Y s 463 375 m 18 X s 490 413 m -9 X s 481 404 m 18 Y s 490 413 m 9 X s 499 404 m 18 Y s 490 413 m 64 Y s 481 477 m 18 X s 490 413 m -49 Y s 481 364 m 18 X s 508 351 m -9 X s 499 342 m 18 Y s 508 351 m 9 X s 517 342 m 18 Y s 508 351 m 55 Y s 499
 406 m 18 X s 508 351 m -40 Y s 499 311 m 18 X s 526 314 m -9 X s 517 305 m 18 Y s 526 314 m 9 X s 535 305 m 18 Y s 526 314 m 49 Y s 517 363 m 18 X s 526 314 m -34 Y s 517 280 m 18 X s 544 376 m -9 X s 535 367 m 18 Y s 544 376 m 9 X s 553 367 m 18 Y
 s 544 376 m 58 Y s 535 434 m 18 X s 544 376 m -44 Y s 535 332 m 18 X s 562 376 m -9 X s 553 367 m 18 Y s 562 376 m 9 X s 571 367 m 18 Y s 562 376 m 58 Y s 553 434 m 19 X s 562 376 m -44 Y s 553 332 m 19 X s 581 364 m -10 X s 571 355 m 18 Y s 581 364
 m 9 X s 590 355 m 18 Y s 581 364 m 56 Y s 571 420 m 19 X s 581 364 m -43 Y s 571 321 m 19 X s 599 326 m -9 X s 590 317 m 18 Y s 599 326 m 9 X s 608 317 m 18 Y s 599 326 m 51 Y s 590 377 m 18 X s 599 326 m -36 Y s 590 290 m 18 X s 617 476 m -9 X s
 608 466 m 19 Y s 617 476 m 9 X s 626 466 m 19 Y s 617 476 m 70 Y s 608 546 m 18 X s 617 476 m -57 Y s 608 419 m 18 X s 635 388 m -9 X s 626 379 m 19 Y s 635 388 m 9 X s 644 379 m 19 Y s 635 388 m 61 Y s 626 449 m 18 X s 635 388 m -45 Y s 626 343 m
 18 X s 653 301 m -9 X s 644 292 m 19 Y s 653 301 m 9 X s 662 292 m 19 Y s 653 301 m 47 Y s 644 348 m 18 X s 653 301 m -32 Y s 644 269 m 18 X s 671 401 m -9 X s 662 392 m 18 Y s 671 401 m 9 X s 680 392 m 18 Y s 671 401 m 62 Y s 662 463 m 18 X s 671
 401 m -48 Y s 662 353 m 18 X s 689 438 m -9 X s 680 429 m 18 Y s 689 438 m 9 X s 698 429 m 18 Y s 689 438 m 66 Y s 680 504 m 18 X s 689 438 m -52 Y s 680 386 m 18 X s 708 426 m -10 X s 698 417 m 18 Y s 708 426 m 9 X s 717 417 m 18 Y s 708 426 m 64 Y
 s 698 490 m 19 X s 708 426 m -51 Y s 698 375 m 19 X s 726 351 m -9 X s 717 342 m 18 Y s 726 351 m 9 X s 735 342 m 18 Y s 726 351 m 55 Y s 717 406 m 18 X s 726 351 m -40 Y s 717 311 m 18 X s 744 401 m -9 X s 735 392 m 18 Y s 744 401 m 9 X s 753 392 m
 18 Y s 744 401 m 62 Y s 735 463 m 18 X s 744 401 m -48 Y s 735 353 m 18 X s 762 438 m -9 X s 753 429 m 18 Y s 762 438 m 9 X s 771 429 m 18 Y s 762 438 m 66 Y s 753 504 m 18 X s 762 438 m -52 Y s 753 386 m 18 X s 780 351 m -9 X s 771 342 m 18 Y s 780
 351 m 9 X s 789 342 m 18 Y s 780 351 m 55 Y s 771 406 m 18 X s 780 351 m -40 Y s 771 311 m 18 X s 798 413 m -9 X s 789 404 m 18 Y s 798 413 m 9 X s 807 404 m 18 Y s 798 413 m 64 Y s 789 477 m 18 X s 798 413 m -49 Y s 789 364 m 18 X s 816 388 m -9 X
 s 807 379 m 19 Y s 816 388 m 9 X s 825 379 m 19 Y s 816 388 m 61 Y s 807 449 m 18 X s 816 388 m -45 Y s 807 343 m 18 X s 835 376 m -10 X s 825 367 m 18 Y s 835 376 m 9 X s 844 367 m 18 Y s 835 376 m 58 Y s 825 434 m 19 X s 835 376 m -44 Y s 825 332
 m 19 X s 853 339 m -9 X s 844 330 m 18 Y s 853 339 m 9 X s 862 330 m 18 Y s 853 339 m 53 Y s 844 392 m 18 X s 853 339 m -39 Y s 844 300 m 18 X s 871 401 m -9 X s 862 392 m 18 Y s 871 401 m 9 X s 880 392 m 18 Y s 871 401 m 62 Y s 862 463 m 18 X s 871
 401 m -48 Y s 862 353 m 18 X s 889 401 m -9 X s 880 392 m 18 Y s 889 401 m 9 X s 898 392 m 18 Y s 889 401 m 62 Y s 880 463 m 18 X s 889 401 m -48 Y s 880 353 m 18 X s 907 401 m -9 X s 898 392 m 18 Y s 907 401 m 9 X s 916 392 m 18 Y s 907 401 m 62 Y
 s 898 463 m 18 X s 907 401 m -48 Y s 898 353 m 18 X s 925 401 m -9 X s 916 392 m 18 Y s 925 401 m 9 X s 934 392 m 18 Y s 925 401 m 62 Y s 916 463 m 18 X s 925 401 m -48 Y s 916 353 m 18 X s 943 364 m -9 X s 934 355 m 18 Y s 943 364 m 9 X s 952 355 m
 18 Y s 943 364 m 56 Y s 934 420 m 18 X s 943 364 m -43 Y s 934 321 m 18 X s 962 438 m -10 X s 952 429 m 18 Y s 962 438 m 9 X s 971 429 m 18 Y s 962 438 m 66 Y s 952 504 m 19 X s 962 438 m -52 Y s 952 386 m 19 X s 980 351 m -9 X s 971 342 m 18 Y s
 980 351 m 9 X s 989 342 m 18 Y s 980 351 m 55 Y s 971 406 m 18 X s 980 351 m -40 Y s 971 311 m 18 X s 998 426 m -9 X s 989 417 m 18 Y s 998 426 m 9 X s 1007 417 m 18 Y s 998 426 m 64 Y s 989 490 m 18 X s 998 426 m -51 Y s 989 375 m 18 X s 1016 388 m
 -9 X s 1007 379 m 19 Y s 1016 388 m 9 X s 1025 379 m 19 Y s 1016 388 m 61 Y s 1007 449 m 18 X s 1016 388 m -45 Y s 1007 343 m 18 X s 1034 451 m -9 X s 1025 442 m 18 Y s 1034 451 m 9 X s 1043 442 m 18 Y s 1034 451 m 67 Y s 1025 518 m 18 X s 1034 451
 m -54 Y s 1025 397 m 18 X s 1052 413 m -9 X s 1043 404 m 18 Y s 1052 413 m 9 X s 1061 404 m 18 Y s 1052 413 m 64 Y s 1043 477 m 18 X s 1052 413 m -49 Y s 1043 364 m 18 X s 1070 401 m -9 X s 1061 392 m 18 Y s 1070 401 m 9 X s 1079 392 m 18 Y s 1070
 401 m 62 Y s 1061 463 m 18 X s 1070 401 m -48 Y s 1061 353 m 18 X s 1089 426 m -10 X s 1079 417 m 18 Y s 1089 426 m 9 X s 1098 417 m 18 Y s 1089 426 m 64 Y s 1079 490 m 19 X s 1089 426 m -51 Y s 1079 375 m 19 X s 1107 500 m -9 X s 1098 491 m 18 Y s
 1107 500 m 9 X s 1116 491 m 18 Y s 1107 500 m 73 Y s 1098 573 m 18 X s 1107 500 m -59 Y s 1098 441 m 18 X s 1125 426 m -9 X s 1116 417 m 18 Y s 1125 426 m 9 X s 1134 417 m 18 Y s 1125 426 m 64 Y s 1116 490 m 18 X s 1125 426 m -51 Y s 1116 375 m 18 X
 s 1143 401 m -9 X s 1134 392 m 18 Y s 1143 401 m 9 X s 1152 392 m 18 Y s 1143 401 m 62 Y s 1134 463 m 18 X s 1143 401 m -48 Y s 1134 353 m 18 X s 1161 451 m -9 X s 1152 442 m 18 Y s 1161 451 m 9 X s 1170 442 m 18 Y s 1161 451 m 67 Y s 1152 518 m 18
 X s 1161 451 m -54 Y s 1152 397 m 18 X s 1179 476 m -9 X s 1170 466 m 19 Y s 1179 476 m 9 X s 1188 466 m 19 Y s 1179 476 m 70 Y s 1170 546 m 18 X s 1179 476 m -57 Y s 1170 419 m 18 X s 1197 476 m -9 X s 1188 466 m 19 Y s 1197 476 m 9 X s 1206 466 m
 19 Y s 1197 476 m 70 Y s 1188 546 m 18 X s 1197 476 m -57 Y s 1188 419 m 18 X s 1215 426 m -9 X s 1206 417 m 18 Y s 1215 426 m 10 X s 1225 417 m 18 Y s 1215 426 m 64 Y s 1206 490 m 19 X s 1215 426 m -51 Y s 1206 375 m 19 X s 1234 563 m -9 X s 1225
 553 m 19 Y s 1234 563 m 9 X s 1243 553 m 19 Y s 1234 563 m 78 Y s 1225 641 m 18 X s 1234 563 m -66 Y s 1225 497 m 18 X s 1252 674 m -9 X s 1243 665 m 18 Y s 1252 674 m 9 X s 1261 665 m 18 Y s 1252 674 m 89 Y s 1243 763 m 18 X s 1252 674 m -75 Y s
 1243 599 m 18 X s 1270 538 m -9 X s 1261 529 m 18 Y s 1270 538 m 9 X s 1279 529 m 18 Y s 1270 538 m 76 Y s 1261 614 m 18 X s 1270 538 m -63 Y s 1261 475 m 18 X s 1288 550 m -9 X s 1279 541 m 18 Y s 1288 550 m 9 X s 1297 541 m 18 Y s 1288 550 m 78 Y
 s 1279 628 m 18 X s 1288 550 m -64 Y s 1279 486 m 18 X s 1306 575 m -9 X s 1297 566 m 18 Y s 1306 575 m 9 X s 1315 566 m 18 Y s 1306 575 m 80 Y s 1297 655 m 18 X s 1306 575 m -67 Y s 1297 508 m 18 X s 1324 662 m -9 X s 1315 653 m 18 Y s 1324 662 m 9
 X s 1333 653 m 18 Y s 1324 662 m 88 Y s 1315 750 m 18 X s 1324 662 m -74 Y s 1315 588 m 18 X s 1342 587 m -9 X s 1333 578 m 18 Y s 1342 587 m 10 X s 1352 578 m 18 Y s 1342 587 m 82 Y s 1333 669 m 19 X s 1342 587 m -67 Y s 1333 520 m 19 X s 1361 811
 m -9 X s 1352 802 m 18 Y s 1361 811 m 9 X s 1370 802 m 18 Y s 1361 811 m 99 Y s 1352 910 m 18 X s 1361 811 m -86 Y s 1352 725 m 18 X s 1379 575 m -9 X s 1370 566 m 18 Y s 1379 575 m 9 X s 1388 566 m 18 Y s 1379 575 m 80 Y s 1370 655 m 18 X s 1379
 575 m -67 Y s 1370 508 m 18 X s 1397 824 m -9 X s 1388 814 m 19 Y s 1397 824 m 9 X s 1406 814 m 19 Y s 1397 824 m 100 Y s 1388 924 m 18 X s 1397 824 m -87 Y s 1388 737 m 18 X s 1415 898 m -9 X s 1406 889 m 18 Y s 1415 898 m 9 X s 1424 889 m 18 Y s
 1415 898 m 105 Y s 1406 1003 m 18 X s 1415 898 m -92 Y s 1406 806 m 18 X s 1433 911 m -9 X s 1424 901 m 19 Y s 1433 911 m 9 X s 1442 901 m 19 Y s 1433 911 m 106 Y s 1424 1017 m 18 X s 1433 911 m -93 Y s 1424 818 m 18 X s 1451 1060 m -9 X s 1442 1051
 m 18 Y s 1451 1060 m 9 X s 1460 1051 m 18 Y s 1451 1060 m 115 Y s 1442 1175 m 18 X s 1451 1060 m -103 Y s 1442 957 m 18 X s 1469 1072 m -9 X s 1460 1063 m 18 Y s 1469 1072 m 10 X s 1479 1063 m 18 Y s 1469 1072 m 116 Y s 1460 1188 m 19 X s 1469 1072
 m -103 Y s 1460 969 m 19 X s 1488 1134 m -9 X s 1479 1125 m 18 Y s 1488 1134 m 9 X s 1497 1125 m 18 Y s 1488 1134 m 120 Y s 1479 1254 m 18 X s 1488 1134 m -106 Y s 1479 1028 m 18 X s 1506 1122 m -9 X s 1497 1113 m 18 Y s 1506 1122 m 9 X s 1515 1113
 m 18 Y s 1506 1122 m 119 Y s 1497 1241 m 18 X s 1506 1122 m -106 Y s 1497 1016 m 18 X s 1524 1495 m -9 X s 1515 1486 m 18 Y s 1524 1495 m 9 X s 1533 1486 m 18 Y s 1524 1495 m 132 Y s 1515 1627 m 18 X s 1524 1495 m -120 Y s 1515 1375 m 18 X s 1542
 1569 m -9 X s 1533 1560 m 18 Y s 1542 1569 m 9 X s 1551 1560 m 18 Y s 1542 1569 m 136 Y s 1533 1705 m 18 X s 1542 1569 m -123 Y s 1533 1446 m 18 X s 1560 1395 m -9 X s 1551 1386 m 18 Y s 1560 1395 m 9 X s 1569 1386 m 18 Y s 1560 1395 m 134 Y s 1551
 1529 m 18 X s 1560 1395 m -121 Y s 1551 1274 m 18 X s 1578 1706 m -9 X s 1569 1697 m 18 Y s 1578 1706 m 9 X s 1587 1697 m 18 Y s 1578 1706 m 143 Y s 1569 1849 m 18 X s 1578 1706 m -130 Y s 1569 1576 m 18 X s 1596 1631 m -9 X s 1587 1622 m 19 Y s
 1596 1631 m 10 X s 1606 1622 m 19 Y s 1596 1631 m 140 Y s 1587 1771 m 19 X s 1596 1631 m -126 Y s 1587 1505 m 19 X s 1615 1669 m -9 X s 1606 1660 m 18 Y s 1615 1669 m 9 X s 1624 1660 m 18 Y s 1615 1669 m 141 Y s 1606 1810 m 18 X s 1615 1669 m -129 Y
 s 1606 1540 m 18 X s 1633 1520 m -9 X s 1624 1511 m 18 Y s 1633 1520 m 9 X s 1642 1511 m 18 Y s 1633 1520 m 133 Y s 1624 1653 m 18 X s 1633 1520 m -122 Y s 1624 1398 m 18 X s 1651 1520 m -9 X s 1642 1511 m 18 Y s 1651 1520 m 9 X s 1660 1511 m 18 Y s
 1651 1520 m 133 Y s 1642 1653 m 18 X s 1651 1520 m -122 Y s 1642 1398 m 18 X s 1669 1607 m -9 X s 1660 1598 m 18 Y s 1669 1607 m 9 X s 1678 1598 m 18 Y s 1669 1607 m 138 Y s 1660 1745 m 18 X s 1669 1607 m -126 Y s 1660 1481 m 18 X s 1687 1445 m -9 X
 s 1678 1436 m 18 Y s 1687 1445 m 9 X s 1696 1436 m 18 Y s 1687 1445 m 137 Y s 1678 1582 m 18 X s 1687 1445 m -123 Y s 1678 1322 m 18 X s 1705 1557 m -9 X s 1696 1548 m 18 Y s 1705 1557 m 9 X s 1714 1548 m 18 Y s 1705 1557 m 135 Y s 1696 1692 m 18 X
 s 1705 1557 m -123 Y s 1696 1434 m 18 X s 1723 1147 m -9 X s 1714 1138 m 18 Y s 1723 1147 m 10 X s 1733 1138 m 18 Y s 1723 1147 m 120 Y s 1714 1267 m 19 X s 1723 1147 m -108 Y s 1714 1039 m 19 X s 1742 1184 m -9 X s 1733 1175 m 18 Y s 1742 1184 m 9
 X s 1751 1175 m 18 Y s 1742 1184 m 123 Y s 1732 1307 m 19 X s 1742 1184 m -110 Y s 1732 1074 m 19 X s 1760 935 m -9 X s 1751 926 m 19 Y s 1760 935 m 9 X s 1769 926 m 19 Y s 1760 935 m 108 Y s 1751 1043 m 18 X s 1760 935 m -94 Y s 1751 841 m 18 X s
 1778 699 m -9 X s 1769 690 m 18 Y s 1778 699 m 9 X s 1787 690 m 18 Y s 1778 699 m 91 Y s 1769 790 m 18 X s 1778 699 m -77 Y s 1769 622 m 18 X s 1796 836 m -9 X s 1787 827 m 18 Y s 1796 836 m 9 X s 1805 827 m 18 Y s 1796 836 m 101 Y s 1787 937 m 18 X
 s 1796 836 m -88 Y s 1787 748 m 18 X s 1814 712 m -9 X s 1805 703 m 18 Y s 1814 712 m 9 X s 1823 703 m 18 Y s 1814 712 m 91 Y s 1805 803 m 18 X s 1814 712 m -79 Y s 1805 633 m 18 X s 1832 699 m -9 X s 1823 690 m 18 Y s 1832 699 m 9 X s 1841 690 m 18
 Y s 1832 699 m 91 Y s 1823 790 m 18 X s 1832 699 m -77 Y s 1823 622 m 18 X s 1850 575 m -9 X s 1841 566 m 18 Y s 1850 575 m 10 X s 1860 566 m 18 Y s 1850 575 m 80 Y s 1841 655 m 19 X s 1850 575 m -67 Y s 1841 508 m 19 X s 1869 488 m -9 X s 1860 479
 m 18 Y s 1869 488 m 9 X s 1878 479 m 18 Y s 1869 488 m 72 Y s 1859 560 m 19 X s 1869 488 m -58 Y s 1859 430 m 19 X s 1887 413 m -9 X s 1878 404 m 18 Y s 1887 413 m 9 X s 1896 404 m 18 Y s 1887 413 m 64 Y s 1878 477 m 18 X s 1887 413 m -49 Y s 1878
 364 m 18 X s 1905 413 m -9 X s 1896 404 m 18 Y s 1905 413 m 9 X s 1914 404 m 18 Y s 1905 413 m 64 Y s 1896 477 m 18 X s 1905 413 m -49 Y s 1896 364 m 18 X s 1923 426 m -9 X s 1914 417 m 18 Y s 1923 426 m 9 X s 1932 417 m 18 Y s 1923 426 m 64 Y s
 1914 490 m 18 X s 1923 426 m -51 Y s 1914 375 m 18 X s 1941 301 m -9 X s 1932 292 m 19 Y s 1941 301 m 9 X s 1950 292 m 19 Y s 1941 301 m 47 Y s 1932 348 m 18 X s 1941 301 m -32 Y s 1932 269 m 18 X s 1959 289 m -9 X s 1950 280 m 18 Y s 1959 289 m 9 X
 s 1968 280 m 18 Y s 1959 289 m 45 Y s 1950 334 m 18 X s 1959 289 m -30 Y s 1950 259 m 18 X s 1977 339 m -9 X s 1968 330 m 18 Y s 1977 339 m 10 X s 1987 330 m 18 Y s 1977 339 m 53 Y s 1968 392 m 19 X s 1977 339 m -39 Y s 1968 300 m 19 X s 1996 289 m
 -9 X s 1987 280 m 18 Y s 1996 289 m 9 X s 2005 280 m 18 Y s 1996 289 m 45 Y s 1986 334 m 19 X s 1996 289 m -30 Y s 1986 259 m 19 X s 2014 277 m -9 X s 2005 268 m 18 Y s 2014 277 m 9 X s 2023 268 m 18 Y s 2014 277 m 42 Y s 2005 319 m 18 X s 2014 277
 m -27 Y s 2005 250 m 18 X s 2032 264 m -9 X s 2023 255 m 18 Y s 2032 264 m 9 X s 2041 255 m 18 Y s 2032 264 m 40 Y s 2023 304 m 18 X s 2032 264 m -24 Y s 2023 240 m 18 X s 1 1 1 c black /w 36 def /w2 {w 2 div} def /w3 {w 3 div} def 236 364 254 339
 272 351 290 463 308 376 327 364 345 326 363 376 381 339 399 451 417 388 435 463 454 364 472 426 490 413 508 351 526 314 544 376 562 376 581 364 599 326 617 476 635 388 653 301 671 401 689 438 708 426 726 351 744 401 762 438 780 351 798 413 816 388
 835 376 853 339 871 401 889 401 907 401 925 401 943 364 962 438 980 351 998 426 1016 388 1034 451 1052 413 1070 401 1089 426 1107 500 1125 426 1143 401 1161 451 1179 476 1197 476 1215 426 1234 563 1252 674 1270 538 1288 550 1306 575 1324 662 1342
 587 1361 811 1379 575 1397 824 1415 898 1433 911 1451 1060 1469 1072 1488 1134 1506 1122 1524 1495 1542 1569 1560 1395 1578 1706 1596 1631 1615 1669 1633 1520 1651 1520 1669 1607 1687 1445 1705 1557 1723 1147 1742 1184 1760 935 1778 699 1796 836
 1814 712 1832 699 1850 575 1869 488 1887 413 1905 413 1923 426 1941 301 1959 289 1977 339 1996 289 2014 277 2032 264 100 { m20} R 0 0 1 c 9 lw 1 1 1 c black 0 0 1 c 227 370 m cl s 227 370 m 18 1 d 18 1 d 18 1 d 18 2 d 18 1 d 19 1 d 18 1 d 18 1 d 18
 2 d 18 1 d 18 1 d 18 1 d 19 1 d 18 2 d 18 1 d 18 1 d 18 1 d 18 1 d 18 1 d 19 2 d 18 1 d 18 1 d 18 1 d 18 1 d 18 1 d 18 1 d 19 2 d 18 1 d 18 1 d 18 1 d 18 1 d 18 1 d 18 1 d 19 1 d 18 1 d 18 1 d 18 1 d 18 1 d 18 1 d 18 1 d 19 X 18 1 d 18 1 d 18 1 d 18
 1 d 18 1 d 18 1 d 19 1 d 18 1 d 18 1 d 18 2 d 18 3 d 18 3 d 18 5 d 19 7 d 18 9 d 18 13 d 18 17 d 18 22 d 18 29 d 18 37 d 19 45 d 18 54 d 18 65 d 18 74 d 18 83 d 18 90 d 18 96 d 19 98 d 18 97 d 18 92 d 9 43 d 9 40 d 9 37 d 9 33 d 9 28 d 9 25 d 9 19 d
 9 14 d 9 8 d 10 3 d 9 -3 d 9 -8 d 9 -13 d 9 -19 d 9 -25 d 9 -28 d 9 -34 d 9 -37 d 9 -40 d 9 -44 d 18 -94 d 19 -101 d 18 -102 d 18 -100 d 18 -96 d 18 -89 d 18 -81 d 18 -71 d 19 -62 d 18 -52 d 18 -45 d 18 -38 d 18 -31 d 18 -27 d 18 -25 d 19 -22 d 18
 -23 d 18 -26 d 9 -18 d 4 -12 d 3 -9 d 2 -20 d s black 3 lw 227 214 m 1814 X s 227 266 m -52 Y s 272 240 m -26 Y s 317 240 m -26 Y s 363 240 m -26 Y s 408 240 m -26 Y s 454 266 m -52 Y s 499 240 m -26 Y s 544 240 m -26 Y s 590 240 m -26 Y s 635 240 m
 -26 Y s 680 266 m -52 Y s 726 240 m -26 Y s 771 240 m -26 Y s 816 240 m -26 Y s 862 240 m -26 Y s 907 266 m -52 Y s 952 240 m -26 Y s 998 240 m -26 Y s 1043 240 m -26 Y s 1089 240 m -26 Y s 1134 266 m -52 Y s 1179 240 m -26 Y s 1225 240 m -26 Y s
 1270 240 m -26 Y s 1315 240 m -26 Y s 1361 266 m -52 Y s 1406 240 m -26 Y s 1451 240 m -26 Y s 1497 240 m -26 Y s 1542 240 m -26 Y s 1587 266 m -52 Y s 1633 240 m -26 Y s 1678 240 m -26 Y s 1723 240 m -26 Y s 1769 240 m -26 Y s 1814 266 m -52 Y s
 1860 240 m -26 Y s 1905 240 m -26 Y s 1950 240 m -26 Y s 1996 240 m -26 Y s 2041 266 m -52 Y s 227 214 m 1716 Y s 281 214 m -54 X s 254 277 m -27 X s 254 339 m -27 X s 254 401 m -27 X s 281 463 m -54 X s 254 525 m -27 X s 254 587 m -27 X s 254 650 m
 -27 X s 281 712 m -54 X s 254 774 m -27 X s 254 836 m -27 X s 254 898 m -27 X s 281 960 m -54 X s 254 1022 m -27 X s 254 1085 m -27 X s 254 1147 m -27 X s 281 1209 m -54 X s 254 1271 m -27 X s 254 1333 m -27 X s 254 1395 m -27 X s 281 1457 m -54 X s
 254 1520 m -27 X s 254 1582 m -27 X s 254 1644 m -27 X s 281 1706 m -54 X s 281 1706 m -54 X s 254 1768 m -27 X s 254 1830 m -27 X s 254 1893 m -27 X s 1 1 1 c black
 gsave  2268 2145 0 0 C 856.086 2044.59 t 0 r /Helvetica findfont 104.734 sf 0 0 m (Background) show NC gr 
 gr  gr showpage
end
%%EOF
