%!PS-Adobe-2.0 EPSF-2.0
%%BoundingBox:  0 0 567 536
%%Title: ./plots/s0/pBgSig_s0.eps: Signal + Background
%%Creator: ROOT Version 6.13/01
%%CreationDate: Thu Dec 28 11:47:01 2017
%%DocumentNeededResources: ProcSet (FontSetInit)
%%EndComments
%%BeginProlog
80 dict begin
/s {stroke} def /l {lineto} def /m {moveto} def /t {translate} def
/r {rotate} def /rl {roll}  def /R {repeat} def
/d {rlineto} def /rm {rmoveto} def /gr {grestore} def /f {eofill} def
/c {setrgbcolor} def /black {0 setgray} def /sd {setdash} def
/cl {closepath} def /sf {scalefont setfont} def /lw {setlinewidth} def
/box {m dup 0 exch d exch 0 d 0 exch neg d cl} def
/NC{systemdict begin initclip end}def/C{NC box clip newpath}def
/bl {box s} def /bf {gsave box gsave f grestore 1 lw [] 0 sd s grestore} def /Y { 0 exch d} def /X { 0 d} def 
/K {{pop pop 0 moveto} exch kshow} bind def
/ita {/ang 15 def gsave [1 0 ang dup sin exch cos div 1 0 0] concat} def 
/mp {newpath /y exch def /x exch def} def
/side {[w .77 mul w .23 mul] .385 w mul sd w 0 l currentpoint t -144 r} def
/mr {mp x y w2 0 360 arc} def /m24 {mr s} def /m20 {mr f} def
/mb {mp x y w2 add m w2 neg 0 d 0 w neg d w 0 d 0 w d cl} def
/mt {mp x y w2 add m w2 neg w neg d w 0 d cl} def
/w4 {w 4 div} def
/w6 {w 6 div} def
/w8 {w 8 div} def
/m21 {mb f} def /m25 {mb s} def /m22 {mt f} def /m26{mt s} def
/m23 {mp x y w2 sub m w2 w d w neg 0 d cl f} def
/m27 {mp x y w2 add m w3 neg w2 neg d w3 w2 neg d w3 w2 d cl s} def
/m28 {mp x w2 sub y w2 sub w3 add m w3 0 d  0 w3 neg d w3 0 d 0 w3 d w3 0 d  0 w3 d w3 neg 0 d 0 w3 d w3 neg 0 d 0 w3 neg d w3 neg 0 d cl s } def
/m29 {mp gsave x w2 sub y w2 add w3 sub m currentpoint t 4 {side} repeat cl fill gr} def
/m30 {mp gsave x w2 sub y w2 add w3 sub m currentpoint t 4 {side} repeat cl s gr} def
/m31 {mp x y w2 sub m 0 w d x w2 sub y m w 0 d x w2 sub y w2 add m w w neg d x w2 sub y w2 sub m w w d s} def
/m32 {mp x y w2 sub m w2 w d w neg 0 d cl s} def
/m33 {mp x y w2 add m w3 neg w2 neg d w3 w2 neg d w3 w2 d cl f} def
/m34 {mp x w2 sub y w2 sub w3 add m w3 0 d  0 w3 neg d w3 0 d 0 w3 d w3 0 d  0 w3 d w3 neg 0 d 0 w3 d w3 neg 0 d 0 w3 neg d w3 neg 0 d cl f } def
/m35 {mp x y w2 add m w2 neg w2 neg d w2 w2 neg d w2 w2 d w2 neg w2 d x y w2 sub m 0 w d x w2 sub y m w 0 d s} def
/m36 {mb x w2 sub y w2 add m w w neg d x w2 sub y w2 sub m w w d s} def
/m37 {mp x y m w4 neg w2 d w4 neg w2 neg d w2 0 d  w4 neg w2 neg d w2 0 d w4 neg w2 d w2 0 d w4 neg w2 d w4 neg w2 neg d cl s} def
/m38 {mp x w4 sub y w2 add m w4 neg w4 neg d 0 w2 neg d w4 w4 neg d w2 0 d w4 w4 d 0 w2 d w4 neg w4 d w2 neg 0 d x y w2 sub m 0 w d x w2 sub y m w 0 d cl s} def
/m39 {mp x y m w4 neg w2 d w4 neg w2 neg d w2 0 d  w4 neg w2 neg d w2 0 d w4 neg w2 d w2 0 d w4 neg w2 d w4 neg w2 neg d cl f} def
/m40 {mp x y m w4 w2 d w4 w4 neg d w2 neg w4 neg d w2 w4 neg d w4 neg w4 neg d w4 neg w2 d w4 neg w2 neg d w4 neg w4 d w2 w4 d w2 neg w4 d w4 w4 d w4 w2 neg d cl s} def
/m41 {mp x y m w4 w2 d w4 w4 neg d w2 neg w4 neg d w2 w4 neg d w4 neg w4 neg d w4 neg w2 d w4 neg w2 neg d w4 neg w4 d w2 w4 d w2 neg w4 d w4 w4 d w4 w2 neg d cl f} def
/m42 {mp x y w2 add m w8 neg w2 -3 4 div mul d w2 -3 4 div mul w8 neg d w2 3 4 div mul w8 neg d w8 w2 -3 4 div mul d w8 w2 3 4 div mul d w2 3 4 div mul w8 d w2 -3 4 div mul w8 d w8 neg w2 3 4 div mul d cl s} def
/m43 {mp x y w2 add m w8 neg w2 -3 4 div mul d w2 -3 4 div mul w8 neg d w2 3 4 div mul w8 neg d w8 w2 -3 4 div mul d w8 w2 3 4 div mul d w2 3 4 div mul w8 d w2 -3 4 div mul w8 d w8 neg w2 3 4 div mul d cl f} def
/m44 {mp x y m w6 neg w2 d w2 2 3 div mul 0 d w6 neg w2 neg d w2 w6 d 0 w2 -2 3 div mul d w2 neg w6 d w6 w2 neg d w2 -2 3 div mul 0 d w6 w2 d w2 neg w6 neg d 0 w2 2 3 div mul d w2 w6 neg d cl s} def
/m45 {mp x y m w6 neg w2 d w2 2 3 div mul 0 d w6 neg w2 neg d w2 w6 d 0 w2 -2 3 div mul d w2 neg w6 d w6 w2 neg d w2 -2 3 div mul 0 d w6 w2 d w2 neg w6 neg d 0 w2 2 3 div mul d w2 w6 neg d cl f} def
/m46 {mp x y w4 add m w4 neg w4 d w4 neg w4 neg d  w4 w4 neg d w4 neg w4 neg d w4 w4 neg d w4 w4 d w4 w4 neg d w4 w4 d w4 neg w4 d w4 w4 d w4 neg w4 d w4 neg w4 neg d cl s} def
/m47 {mp x y w4 add m w4 neg w4 d w4 neg w4 neg d w4 w4 neg d w4 neg w4 neg d  w4 w4 neg d w4 w4 d w4 w4 neg d w4 w4 d w4 neg w4 d w4 w4 d w4 neg w4 d w4 neg w4 neg d cl f} def
/m48 {mp x y w4 add m w4 neg w4 d w4 neg w4 neg d w4 w4 neg d  w4 neg w4 neg d w4 w4 neg d w4 w4 d w4 w4 neg d w4 w4 d w4 neg w4 d w4 w4 d w4 neg w4 d w4 neg w4 neg d  w4 w4 neg d w4 neg w4 neg d w4 neg w4 d w4 w4 d cl f} def
/m49 {mp x w2 sub w3 add y w2 sub w3 add m  0 w3 neg d w3 0 d 0 w3 d w3 0 d 0 w3 d w3 neg 0 d 0 w3 d w3 neg 0 d 0 w3 neg d w3 neg 0 d 0 w3 neg d w3 0 d 0 w3 d w3 0 d 0 w3 neg d w3 neg 0 d cl f } def
/m2 {mp x y w2 sub m 0 w d x w2 sub y m w 0 d s} def
/m5 {mp x w2 sub y w2 sub m w w d x w2 sub y w2 add m w w neg d s} def
%%IncludeResource: ProcSet (FontSetInit)
%%IncludeResource: font Times-Roman
%%IncludeResource: font Times-Italic
%%IncludeResource: font Times-Bold
%%IncludeResource: font Times-BoldItalic
%%IncludeResource: font Helvetica
%%IncludeResource: font Helvetica-Oblique
%%IncludeResource: font Helvetica-Bold
%%IncludeResource: font Helvetica-BoldOblique
%%IncludeResource: font Courier
%%IncludeResource: font Courier-Oblique
%%IncludeResource: font Courier-Bold
%%IncludeResource: font Courier-BoldOblique
%%IncludeResource: font Symbol
%%IncludeResource: font ZapfDingbats
/reEncode {exch findfont dup length dict begin {1 index /FID eq  {pop pop} {def} ifelse } forall /Encoding exch def currentdict end dup /FontName get exch definefont pop } def [/Times-Bold /Times-Italic /Times-BoldItalic /Helvetica /Helvetica-Oblique
 /Helvetica-Bold /Helvetica-BoldOblique /Courier /Courier-Oblique /Courier-Bold /Courier-BoldOblique /Times-Roman /AvantGarde-Book /AvantGarde-BookOblique /AvantGarde-Demi /AvantGarde-DemiOblique /Bookman-Demi /Bookman-DemiItalic /Bookman-Light
 /Bookman-LightItalic /Helvetica-Narrow /Helvetica-Narrow-Bold /Helvetica-Narrow-BoldOblique /Helvetica-Narrow-Oblique /NewCenturySchlbk-Roman /NewCenturySchlbk-Bold /NewCenturySchlbk-BoldItalic /NewCenturySchlbk-Italic /Palatino-Bold
 /Palatino-BoldItalic /Palatino-Italic /Palatino-Roman ] {ISOLatin1Encoding reEncode } forall
%%EndProlog
%%BeginSetup
%%EndSetup
newpath  gsave  .25 .25 scale  gsave  0 0 t black[  ] 0 sd 3 lw 1 1 1 c 2268 2145 0 0 bf black 1 1 1 c 1814 1716 227 214 bf black 1814 1716 227 214 bl 227 214 m 1814 X s 227 266 m -52 Y s 272 240 m -26 Y s 317 240 m -26 Y s 363 240 m -26 Y s 408 240
 m -26 Y s 454 266 m -52 Y s 499 240 m -26 Y s 544 240 m -26 Y s 590 240 m -26 Y s 635 240 m -26 Y s 680 266 m -52 Y s 726 240 m -26 Y s 771 240 m -26 Y s 816 240 m -26 Y s 862 240 m -26 Y s 907 266 m -52 Y s 952 240 m -26 Y s 998 240 m -26 Y s 1043
 240 m -26 Y s 1089 240 m -26 Y s 1134 266 m -52 Y s 1179 240 m -26 Y s 1225 240 m -26 Y s 1270 240 m -26 Y s 1315 240 m -26 Y s 1361 266 m -52 Y s 1406 240 m -26 Y s 1451 240 m -26 Y s 1497 240 m -26 Y s 1542 240 m -26 Y s 1587 266 m -52 Y s 1633
 240 m -26 Y s 1678 240 m -26 Y s 1723 240 m -26 Y s 1769 240 m -26 Y s 1814 266 m -52 Y s 1860 240 m -26 Y s 1905 240 m -26 Y s 1950 240 m -26 Y s 1996 240 m -26 Y s 2041 266 m -52 Y s
 gsave  2268 2145 0 0 C 154.824 145.717 t 0 r /Helvetica findfont 68.3047 sf 0 0 m (5.25) show NC gr 
 gsave  2268 2145 0 0 C 364.292 145.717 t 0 r /Helvetica findfont 68.3047 sf 0 0 m (5.255) show NC gr 
 gsave  2268 2145 0 0 C 610.189 145.717 t 0 r /Helvetica findfont 68.3047 sf 0 0 m (5.26) show NC gr 
 gsave  2268 2145 0 0 C 819.657 145.717 t 0 r /Helvetica findfont 68.3047 sf 0 0 m (5.265) show NC gr 
 gsave  2268 2145 0 0 C 1065.55 145.717 t 0 r /Helvetica findfont 68.3047 sf 0 0 m (5.27) show NC gr 
 gsave  2268 2145 0 0 C 1270.47 145.717 t 0 r /Helvetica findfont 68.3047 sf 0 0 m (5.275) show NC gr 
 gsave  2268 2145 0 0 C 1516.36 145.717 t 0 r /Helvetica findfont 68.3047 sf 0 0 m (5.28) show NC gr 
 gsave  2268 2145 0 0 C 1725.83 145.717 t 0 r /Helvetica findfont 68.3047 sf 0 0 m (5.285) show NC gr 
 gsave  2268 2145 0 0 C 1971.73 145.717 t 0 r /Helvetica findfont 68.3047 sf 0 0 m (5.29) show NC gr 
 gsave  2268 2145 0 0 C 1552.79 72.8584 t 0 r /Helvetica findfont 68.3047 sf 0 0 m (m_bc \(GeV/c^2\)) show NC gr  227 214 m 1716 Y s 281 214 m -54 X s 254 273 m -27 X s 254 332 m -27 X s 254 391 m -27 X s 254 450 m -27 X s 281 509 m -54 X s 254 567 m
 -27 X s 254 626 m -27 X s 254 685 m -27 X s 254 744 m -27 X s 281 803 m -54 X s 254 862 m -27 X s 254 920 m -27 X s 254 979 m -27 X s 254 1038 m -27 X s 281 1097 m -54 X s 254 1156 m -27 X s 254 1215 m -27 X s 254 1273 m -27 X s 254 1332 m -27 X s
 281 1391 m -54 X s 254 1450 m -27 X s 254 1509 m -27 X s 254 1567 m -27 X s 254 1626 m -27 X s 281 1685 m -54 X s 281 1685 m -54 X s 254 1744 m -27 X s 254 1803 m -27 X s 254 1862 m -27 X s 254 1920 m -27 X s
 gsave  2268 2145 0 0 C 177.592 191.253 t 0 r /Helvetica findfont 68.3047 sf 0 0 m (0) show NC gr 
 gsave  2268 2145 0 0 C 100.18 482.687 t 0 r /Helvetica findfont 68.3047 sf 0 0 m (100) show NC gr 
 gsave  2268 2145 0 0 C 100.18 778.674 t 0 r /Helvetica findfont 68.3047 sf 0 0 m (200) show NC gr 
 gsave  2268 2145 0 0 C 100.18 1070.11 t 0 r /Helvetica findfont 68.3047 sf 0 0 m (300) show NC gr 
 gsave  2268 2145 0 0 C 100.18 1366.09 t 0 r /Helvetica findfont 68.3047 sf 0 0 m (400) show NC gr 
 gsave  2268 2145 0 0 C 100.18 1662.08 t 0 r /Helvetica findfont 68.3047 sf 0 0 m (500) show NC gr 
 gsave  2268 2145 0 0 C 50.0901 1097.43 t 90 r /Helvetica findfont 68.3047 sf 0 0 m (Events / \( 0.0004 GeV/c^2 \)) show NC gr  1 1 1 c black
 gsave  2268 2145 0 0 C 651.172 2040.03 t 0 r /Helvetica findfont 104.734 sf 0 0 m (Signal + Background) show NC gr  236 220 m -9 X s 227 214 m 15 Y s 236 220 m 9 X s 245 214 m 15 Y s 236 220 m 8 Y s 227 228 m 18 X s 236 220 m -3 Y s 227 217 m 18 X s
 254 247 m -9 X s 245 238 m 18 Y s 254 247 m 9 X s 263 238 m 18 Y s 254 247 m 13 Y s 245 260 m 18 X s 254 247 m -10 Y s 245 237 m 18 X s 272 244 m -9 X s 263 235 m 18 Y s 272 244 m 9 X s 281 235 m 18 Y s 272 244 m 12 Y s 263 256 m 18 X s 272 244 m -9
 Y s 263 235 m 18 X s 290 217 m -9 X s 281 214 m 13 Y s 290 217 m 9 X s 299 214 m 13 Y s 290 217 m 7 Y s 281 224 m 18 X s 290 217 m -2 Y s 281 215 m 18 X s 308 247 m -9 X s 299 238 m 18 Y s 308 247 m 9 X s 317 238 m 18 Y s 308 247 m 13 Y s 299 260 m
 19 X s 308 247 m -10 Y s 299 237 m 19 X s 327 235 m -10 X s 317 226 m 18 Y s 327 235 m 9 X s 336 226 m 18 Y s 327 235 m 11 Y s 317 246 m 19 X s 327 235 m -8 Y s 317 227 m 19 X s 345 223 m -9 X s 336 214 m 18 Y s 345 223 m 9 X s 354 214 m 18 Y s 345
 223 m 9 Y s 336 232 m 18 X s 345 223 m -5 Y s 336 218 m 18 X s 363 235 m -9 X s 354 226 m 18 Y s 363 235 m 9 X s 372 226 m 18 Y s 363 235 m 11 Y s 354 246 m 18 X s 363 235 m -8 Y s 354 227 m 18 X s 381 232 m -9 X s 372 223 m 18 Y s 381 232 m 9 X s
 390 223 m 18 Y s 381 232 m 11 Y s 372 243 m 18 X s 381 232 m -7 Y s 372 225 m 18 X s 399 232 m -9 X s 390 223 m 18 Y s 399 232 m 9 X s 408 223 m 18 Y s 399 232 m 11 Y s 390 243 m 18 X s 399 232 m -7 Y s 390 225 m 18 X s 417 223 m -9 X s 408 214 m 18
 Y s 417 223 m 9 X s 426 214 m 18 Y s 417 223 m 9 Y s 408 232 m 18 X s 417 223 m -5 Y s 408 218 m 18 X s 435 229 m -9 X s 426 220 m 18 Y s 435 229 m 9 X s 444 220 m 18 Y s 435 229 m 10 Y s 426 239 m 19 X s 435 229 m -6 Y s 426 223 m 19 X s 454 235 m
 -10 X s 444 226 m 18 Y s 454 235 m 9 X s 463 226 m 18 Y s 454 235 m 11 Y s 444 246 m 19 X s 454 235 m -8 Y s 444 227 m 19 X s 472 226 m -9 X s 463 217 m 18 Y s 472 226 m 9 X s 481 217 m 18 Y s 472 226 m 10 Y s 463 236 m 18 X s 472 226 m -5 Y s 463
 221 m 18 X s 490 223 m -9 X s 481 214 m 18 Y s 490 223 m 9 X s 499 214 m 18 Y s 490 223 m 9 Y s 481 232 m 18 X s 490 223 m -5 Y s 481 218 m 18 X s 508 235 m -9 X s 499 226 m 18 Y s 508 235 m 9 X s 517 226 m 18 Y s 508 235 m 11 Y s 499 246 m 18 X s
 508 235 m -8 Y s 499 227 m 18 X s 526 238 m -9 X s 517 229 m 18 Y s 526 238 m 9 X s 535 229 m 18 Y s 526 238 m 12 Y s 517 250 m 18 X s 526 238 m -8 Y s 517 230 m 18 X s 544 232 m -9 X s 535 223 m 18 Y s 544 232 m 9 X s 553 223 m 18 Y s 544 232 m 11
 Y s 535 243 m 18 X s 544 232 m -7 Y s 535 225 m 18 X s 562 226 m -9 X s 553 217 m 18 Y s 562 226 m 9 X s 571 217 m 18 Y s 562 226 m 10 Y s 553 236 m 19 X s 562 226 m -5 Y s 553 221 m 19 X s 581 250 m -10 X s 571 241 m 18 Y s 581 250 m 9 X s 590 241
 m 18 Y s 581 250 m 13 Y s 571 263 m 19 X s 581 250 m -10 Y s 571 240 m 19 X s 599 223 m -9 X s 590 214 m 18 Y s 599 223 m 9 X s 608 214 m 18 Y s 599 223 m 9 Y s 590 232 m 18 X s 599 223 m -5 Y s 590 218 m 18 X s 617 229 m -9 X s 608 220 m 18 Y s 617
 229 m 9 X s 626 220 m 18 Y s 617 229 m 10 Y s 608 239 m 18 X s 617 229 m -6 Y s 608 223 m 18 X s 635 241 m -9 X s 626 232 m 18 Y s 635 241 m 9 X s 644 232 m 18 Y s 635 241 m 12 Y s 626 253 m 18 X s 635 241 m -9 Y s 626 232 m 18 X s 653 235 m -9 X s
 644 226 m 18 Y s 653 235 m 9 X s 662 226 m 18 Y s 653 235 m 11 Y s 644 246 m 18 X s 653 235 m -8 Y s 644 227 m 18 X s 671 244 m -9 X s 662 235 m 18 Y s 671 244 m 9 X s 680 235 m 18 Y s 671 244 m 12 Y s 662 256 m 18 X s 671 244 m -9 Y s 662 235 m 18
 X s 689 238 m -9 X s 680 229 m 18 Y s 689 238 m 9 X s 698 229 m 18 Y s 689 238 m 12 Y s 680 250 m 18 X s 689 238 m -8 Y s 680 230 m 18 X s 708 241 m -10 X s 698 232 m 18 Y s 708 241 m 9 X s 717 232 m 18 Y s 708 241 m 12 Y s 698 253 m 19 X s 708 241
 m -9 Y s 698 232 m 19 X s 726 232 m -9 X s 717 223 m 18 Y s 726 232 m 9 X s 735 223 m 18 Y s 726 232 m 11 Y s 717 243 m 18 X s 726 232 m -7 Y s 717 225 m 18 X s 744 235 m -9 X s 735 226 m 18 Y s 744 235 m 9 X s 753 226 m 18 Y s 744 235 m 11 Y s 735
 246 m 18 X s 744 235 m -8 Y s 735 227 m 18 X s 762 229 m -9 X s 753 220 m 18 Y s 762 229 m 9 X s 771 220 m 18 Y s 762 229 m 10 Y s 753 239 m 18 X s 762 229 m -6 Y s 753 223 m 18 X s 780 232 m -9 X s 771 223 m 18 Y s 780 232 m 9 X s 789 223 m 18 Y s
 780 232 m 11 Y s 771 243 m 18 X s 780 232 m -7 Y s 771 225 m 18 X s 798 238 m -9 X s 789 229 m 18 Y s 798 238 m 9 X s 807 229 m 18 Y s 798 238 m 12 Y s 789 250 m 18 X s 798 238 m -8 Y s 789 230 m 18 X s 816 229 m -9 X s 807 220 m 18 Y s 816 229 m 9
 X s 825 220 m 18 Y s 816 229 m 10 Y s 807 239 m 18 X s 816 229 m -6 Y s 807 223 m 18 X s 835 241 m -10 X s 825 232 m 18 Y s 835 241 m 9 X s 844 232 m 18 Y s 835 241 m 12 Y s 825 253 m 19 X s 835 241 m -9 Y s 825 232 m 19 X s 853 232 m -9 X s 844 223
 m 18 Y s 853 232 m 9 X s 862 223 m 18 Y s 853 232 m 11 Y s 844 243 m 18 X s 853 232 m -7 Y s 844 225 m 18 X s 871 232 m -9 X s 862 223 m 18 Y s 871 232 m 9 X s 880 223 m 18 Y s 871 232 m 11 Y s 862 243 m 18 X s 871 232 m -7 Y s 862 225 m 18 X s 889
 253 m -9 X s 880 244 m 18 Y s 889 253 m 9 X s 898 244 m 18 Y s 889 253 m 14 Y s 880 267 m 18 X s 889 253 m -11 Y s 880 242 m 18 X s 907 241 m -9 X s 898 232 m 18 Y s 907 241 m 9 X s 916 232 m 18 Y s 907 241 m 12 Y s 898 253 m 18 X s 907 241 m -9 Y s
 898 232 m 18 X s 925 241 m -9 X s 916 232 m 18 Y s 925 241 m 9 X s 934 232 m 18 Y s 925 241 m 12 Y s 916 253 m 18 X s 925 241 m -9 Y s 916 232 m 18 X s 943 229 m -9 X s 934 220 m 18 Y s 943 229 m 9 X s 952 220 m 18 Y s 943 229 m 10 Y s 934 239 m 18
 X s 943 229 m -6 Y s 934 223 m 18 X s 962 235 m -10 X s 952 226 m 18 Y s 962 235 m 9 X s 971 226 m 18 Y s 962 235 m 11 Y s 952 246 m 19 X s 962 235 m -8 Y s 952 227 m 19 X s 980 226 m -9 X s 971 217 m 18 Y s 980 226 m 9 X s 989 217 m 18 Y s 980 226
 m 10 Y s 971 236 m 18 X s 980 226 m -5 Y s 971 221 m 18 X s 998 244 m -9 X s 989 235 m 18 Y s 998 244 m 9 X s 1007 235 m 18 Y s 998 244 m 12 Y s 989 256 m 18 X s 998 244 m -9 Y s 989 235 m 18 X s 1016 238 m -9 X s 1007 229 m 18 Y s 1016 238 m 9 X s
 1025 229 m 18 Y s 1016 238 m 12 Y s 1007 250 m 18 X s 1016 238 m -8 Y s 1007 230 m 18 X s 1034 235 m -9 X s 1025 226 m 18 Y s 1034 235 m 9 X s 1043 226 m 18 Y s 1034 235 m 11 Y s 1025 246 m 18 X s 1034 235 m -8 Y s 1025 227 m 18 X s 1052 241 m -9 X
 s 1043 232 m 18 Y s 1052 241 m 9 X s 1061 232 m 18 Y s 1052 241 m 12 Y s 1043 253 m 18 X s 1052 241 m -9 Y s 1043 232 m 18 X s 1070 229 m -9 X s 1061 220 m 18 Y s 1070 229 m 9 X s 1079 220 m 18 Y s 1070 229 m 10 Y s 1061 239 m 18 X s 1070 229 m -6 Y
 s 1061 223 m 18 X s 1089 247 m -10 X s 1079 238 m 18 Y s 1089 247 m 9 X s 1098 238 m 18 Y s 1089 247 m 13 Y s 1079 260 m 19 X s 1089 247 m -10 Y s 1079 237 m 19 X s 1107 238 m -9 X s 1098 229 m 18 Y s 1107 238 m 9 X s 1116 229 m 18 Y s 1107 238 m 12
 Y s 1098 250 m 18 X s 1107 238 m -8 Y s 1098 230 m 18 X s 1125 241 m -9 X s 1116 232 m 18 Y s 1125 241 m 9 X s 1134 232 m 18 Y s 1125 241 m 12 Y s 1116 253 m 18 X s 1125 241 m -9 Y s 1116 232 m 18 X s 1143 238 m -9 X s 1134 229 m 18 Y s 1143 238 m 9
 X s 1152 229 m 18 Y s 1143 238 m 12 Y s 1134 250 m 18 X s 1143 238 m -8 Y s 1134 230 m 18 X s 1161 241 m -9 X s 1152 232 m 18 Y s 1161 241 m 9 X s 1170 232 m 18 Y s 1161 241 m 12 Y s 1152 253 m 18 X s 1161 241 m -9 Y s 1152 232 m 18 X s 1179 241 m
 -9 X s 1170 232 m 18 Y s 1179 241 m 9 X s 1188 232 m 18 Y s 1179 241 m 12 Y s 1170 253 m 18 X s 1179 241 m -9 Y s 1170 232 m 18 X s 1197 247 m -9 X s 1188 238 m 18 Y s 1197 247 m 9 X s 1206 238 m 18 Y s 1197 247 m 13 Y s 1188 260 m 18 X s 1197 247 m
 -10 Y s 1188 237 m 18 X s 1215 253 m -9 X s 1206 244 m 18 Y s 1215 253 m 10 X s 1225 244 m 18 Y s 1215 253 m 14 Y s 1206 267 m 19 X s 1215 253 m -11 Y s 1206 242 m 19 X s 1234 259 m -9 X s 1225 249 m 19 Y s 1234 259 m 9 X s 1243 249 m 19 Y s 1234
 259 m 14 Y s 1225 273 m 18 X s 1234 259 m -12 Y s 1225 247 m 18 X s 1252 279 m -9 X s 1243 270 m 18 Y s 1252 279 m 9 X s 1261 270 m 18 Y s 1252 279 m 17 Y s 1243 296 m 18 X s 1252 279 m -14 Y s 1243 265 m 18 X s 1270 282 m -9 X s 1261 273 m 18 Y s
 1270 282 m 9 X s 1279 273 m 18 Y s 1270 282 m 17 Y s 1261 299 m 18 X s 1270 282 m -14 Y s 1261 268 m 18 X s 1288 309 m -9 X s 1279 299 m 19 Y s 1288 309 m 9 X s 1297 299 m 19 Y s 1288 309 m 19 Y s 1279 328 m 18 X s 1288 309 m -17 Y s 1279 292 m 18 X
 s 1306 303 m -9 X s 1297 294 m 18 Y s 1306 303 m 9 X s 1315 294 m 18 Y s 1306 303 m 19 Y s 1297 322 m 18 X s 1306 303 m -16 Y s 1297 287 m 18 X s 1324 359 m -9 X s 1315 349 m 19 Y s 1324 359 m 9 X s 1333 349 m 19 Y s 1324 359 m 23 Y s 1315 382 m 18
 X s 1324 359 m -21 Y s 1315 338 m 18 X s 1342 356 m -9 X s 1333 347 m 18 Y s 1342 356 m 10 X s 1352 347 m 18 Y s 1342 356 m 23 Y s 1333 379 m 19 X s 1342 356 m -21 Y s 1333 335 m 19 X s 1361 403 m -9 X s 1352 394 m 18 Y s 1361 403 m 9 X s 1370 394 m
 18 Y s 1361 403 m 26 Y s 1352 429 m 18 X s 1361 403 m -24 Y s 1352 379 m 18 X s 1379 450 m -9 X s 1370 441 m 18 Y s 1379 450 m 9 X s 1388 441 m 18 Y s 1379 450 m 29 Y s 1370 479 m 18 X s 1379 450 m -26 Y s 1370 424 m 18 X s 1397 556 m -9 X s 1388
 547 m 18 Y s 1397 556 m 9 X s 1406 547 m 18 Y s 1397 556 m 33 Y s 1388 589 m 18 X s 1397 556 m -31 Y s 1388 525 m 18 X s 1415 664 m -9 X s 1406 655 m 19 Y s 1415 664 m 9 X s 1424 655 m 19 Y s 1415 664 m 38 Y s 1406 702 m 18 X s 1415 664 m -34 Y s
 1406 630 m 18 X s 1433 688 m -9 X s 1424 679 m 18 Y s 1433 688 m 9 X s 1442 679 m 18 Y s 1433 688 m 39 Y s 1424 727 m 18 X s 1433 688 m -36 Y s 1424 652 m 18 X s 1451 841 m -9 X s 1442 832 m 18 Y s 1451 841 m 9 X s 1460 832 m 18 Y s 1451 841 m 44 Y
 s 1442 885 m 18 X s 1451 841 m -42 Y s 1442 799 m 18 X s 1469 932 m -9 X s 1460 923 m 18 Y s 1469 932 m 10 X s 1479 923 m 18 Y s 1469 932 m 48 Y s 1460 980 m 19 X s 1469 932 m -44 Y s 1460 888 m 19 X s 1488 1097 m -9 X s 1479 1088 m 18 Y s 1488 1097
 m 9 X s 1497 1088 m 18 Y s 1488 1097 m 52 Y s 1479 1149 m 18 X s 1488 1097 m -50 Y s 1479 1047 m 18 X s 1506 1235 m -9 X s 1497 1226 m 18 Y s 1506 1235 m 9 X s 1515 1226 m 18 Y s 1506 1235 m 56 Y s 1497 1291 m 18 X s 1506 1235 m -53 Y s 1497 1182 m
 18 X s 1524 1282 m -9 X s 1515 1273 m 18 Y s 1524 1282 m 9 X s 1533 1273 m 18 Y s 1524 1282 m 58 Y s 1515 1340 m 18 X s 1524 1282 m -54 Y s 1515 1228 m 18 X s 1542 1615 m -9 X s 1533 1605 m 19 Y s 1542 1615 m 9 X s 1551 1605 m 19 Y s 1542 1615 m 65
 Y s 1533 1680 m 18 X s 1542 1615 m -63 Y s 1533 1552 m 18 X s 1560 1632 m -9 X s 1551 1623 m 18 Y s 1560 1632 m 9 X s 1569 1623 m 18 Y s 1560 1632 m 66 Y s 1551 1698 m 18 X s 1560 1632 m -63 Y s 1551 1569 m 18 X s 1578 1615 m -9 X s 1569 1605 m 19 Y
 s 1578 1615 m 9 X s 1587 1605 m 19 Y s 1578 1615 m 65 Y s 1569 1680 m 18 X s 1578 1615 m -63 Y s 1569 1552 m 18 X s 1596 1665 m -9 X s 1587 1655 m 19 Y s 1596 1665 m 10 X s 1606 1655 m 19 Y s 1596 1665 m 66 Y s 1587 1731 m 19 X s 1596 1665 m -64 Y s
 1587 1601 m 19 X s 1615 1609 m -9 X s 1606 1600 m 18 Y s 1615 1609 m 9 X s 1624 1600 m 18 Y s 1615 1609 m 65 Y s 1606 1674 m 18 X s 1615 1609 m -63 Y s 1606 1546 m 18 X s 1633 1779 m -9 X s 1624 1770 m 18 Y s 1633 1779 m 9 X s 1642 1770 m 18 Y s
 1633 1779 m 70 Y s 1624 1849 m 18 X s 1633 1779 m -66 Y s 1624 1713 m 18 X s 1651 1612 m -9 X s 1642 1602 m 19 Y s 1651 1612 m 9 X s 1660 1602 m 19 Y s 1651 1612 m 65 Y s 1642 1677 m 18 X s 1651 1612 m -63 Y s 1642 1549 m 18 X s 1669 1529 m -9 X s
 1660 1520 m 18 Y s 1669 1529 m 9 X s 1678 1520 m 18 Y s 1669 1529 m 64 Y s 1660 1593 m 18 X s 1669 1529 m -60 Y s 1660 1469 m 18 X s 1687 1417 m -9 X s 1678 1408 m 19 Y s 1687 1417 m 9 X s 1696 1408 m 19 Y s 1687 1417 m 61 Y s 1678 1478 m 18 X s
 1687 1417 m -58 Y s 1678 1359 m 18 X s 1705 1262 m -9 X s 1696 1252 m 19 Y s 1705 1262 m 9 X s 1714 1252 m 19 Y s 1705 1262 m 57 Y s 1696 1319 m 18 X s 1705 1262 m -54 Y s 1696 1208 m 18 X s 1723 1182 m -9 X s 1714 1173 m 18 Y s 1723 1182 m 10 X s
 1733 1173 m 18 Y s 1723 1182 m 55 Y s 1714 1237 m 19 X s 1723 1182 m -52 Y s 1714 1130 m 19 X s 1742 1059 m -9 X s 1733 1050 m 18 Y s 1742 1059 m 9 X s 1751 1050 m 18 Y s 1742 1059 m 51 Y s 1732 1110 m 19 X s 1742 1059 m -49 Y s 1732 1010 m 19 X s
 1760 817 m -9 X s 1751 808 m 19 Y s 1760 817 m 9 X s 1769 808 m 19 Y s 1760 817 m 44 Y s 1751 861 m 18 X s 1760 817 m -40 Y s 1751 777 m 18 X s 1778 779 m -9 X s 1769 770 m 18 Y s 1778 779 m 9 X s 1787 770 m 18 Y s 1778 779 m 42 Y s 1769 821 m 18 X
 s 1778 779 m -39 Y s 1769 740 m 18 X s 1796 647 m -9 X s 1787 638 m 18 Y s 1796 647 m 9 X s 1805 638 m 18 Y s 1796 647 m 37 Y s 1787 684 m 18 X s 1796 647 m -34 Y s 1787 613 m 18 X s 1814 553 m -9 X s 1805 544 m 18 Y s 1814 553 m 9 X s 1823 544 m 18
 Y s 1814 553 m 33 Y s 1805 586 m 18 X s 1814 553 m -30 Y s 1805 523 m 18 X s 1832 464 m -9 X s 1823 455 m 19 Y s 1832 464 m 9 X s 1841 455 m 19 Y s 1832 464 m 31 Y s 1823 495 m 18 X s 1832 464 m -27 Y s 1823 437 m 18 X s 1850 397 m -9 X s 1841 388 m
 18 Y s 1850 397 m 10 X s 1860 388 m 18 Y s 1850 397 m 26 Y s 1841 423 m 19 X s 1850 397 m -23 Y s 1841 374 m 19 X s 1869 350 m -9 X s 1860 341 m 18 Y s 1869 350 m 9 X s 1878 341 m 18 Y s 1869 350 m 23 Y s 1859 373 m 19 X s 1869 350 m -20 Y s 1859
 330 m 19 X s 1887 332 m -9 X s 1878 323 m 18 Y s 1887 332 m 9 X s 1896 323 m 18 Y s 1887 332 m 22 Y s 1878 354 m 18 X s 1887 332 m -18 Y s 1878 314 m 18 X s 1905 288 m -9 X s 1896 279 m 18 Y s 1905 288 m 9 X s 1914 279 m 18 Y s 1905 288 m 18 Y s
 1896 306 m 18 X s 1905 288 m -15 Y s 1896 273 m 18 X s 1923 264 m -9 X s 1914 255 m 19 Y s 1923 264 m 9 X s 1932 255 m 19 Y s 1923 264 m 16 Y s 1914 280 m 18 X s 1923 264 m -12 Y s 1914 252 m 18 X s 1941 259 m -9 X s 1932 249 m 19 Y s 1941 259 m 9 X
 s 1950 249 m 19 Y s 1941 259 m 14 Y s 1932 273 m 18 X s 1941 259 m -12 Y s 1932 247 m 18 X s 1959 229 m -9 X s 1950 220 m 18 Y s 1959 229 m 9 X s 1968 220 m 18 Y s 1959 229 m 10 Y s 1950 239 m 18 X s 1959 229 m -6 Y s 1950 223 m 18 X s 1977 232 m -9
 X s 1968 223 m 18 Y s 1977 232 m 10 X s 1987 223 m 18 Y s 1977 232 m 11 Y s 1968 243 m 19 X s 1977 232 m -7 Y s 1968 225 m 19 X s 1996 226 m -9 X s 1987 217 m 18 Y s 1996 226 m 9 X s 2005 217 m 18 Y s 1996 226 m 10 Y s 1986 236 m 19 X s 1996 226 m
 -5 Y s 1986 221 m 19 X s 2014 232 m -9 X s 2005 223 m 18 Y s 2014 232 m 9 X s 2023 223 m 18 Y s 2014 232 m 11 Y s 2005 243 m 18 X s 2014 232 m -7 Y s 2005 225 m 18 X s 2032 223 m -9 X s 2023 214 m 18 Y s 2032 223 m 9 X s 2041 214 m 18 Y s 2032 223 m
 9 Y s 2023 232 m 18 X s 2032 223 m -5 Y s 2023 218 m 18 X s 1 1 1 c black /w 36 def /w2 {w 2 div} def /w3 {w 3 div} def 236 220 254 247 272 244 290 217 308 247 327 235 345 223 363 235 381 232 399 232 417 223 435 229 454 235 472 226 490 223 508 235
 526 238 544 232 562 226 581 250 599 223 617 229 635 241 653 235 671 244 689 238 708 241 726 232 744 235 762 229 780 232 798 238 816 229 835 241 853 232 871 232 889 253 907 241 925 241 943 229 962 235 980 226 998 244 1016 238 1034 235 1052 241 1070
 229 1089 247 1107 238 1125 241 1143 238 1161 241 1179 241 1197 247 1215 253 1234 259 1252 279 1270 282 1288 309 1306 303 1324 359 1342 356 1361 403 1379 450 1397 556 1415 664 1433 688 1451 841 1469 932 1488 1097 1506 1235 1524 1282 1542 1615 1560
 1632 1578 1615 1596 1665 1615 1609 1633 1779 1651 1612 1669 1529 1687 1417 1705 1262 1723 1182 1742 1059 1760 817 1778 779 1796 647 1814 553 1832 464 1850 397 1869 350 1887 332 1905 288 1923 264 1941 259 1959 229 1977 232 1996 226 2014 232 2032 223
 100 { m20} R 0 0 1 c 9 lw 1 1 1 c black 0 0 1 c 227 232 m cl s 227 232 m 54 X 18 1 d 109 X 18 1 d 127 X 18 1 d 127 X 19 1 d 145 X 18 1 d 163 X 18 1 d 73 X 18 1 d 18 1 d 18 1 d 18 3 d 19 3 d 18 6 d 18 8 d 18 12 d 18 17 d 18 24 d 18 32 d 19 43 d 9 25
 d 9 29 d 9 33 d 9 35 d 9 40 d 9 43 d 9 46 d 9 51 d 9 53 d 9 57 d 18 122 d 19 130 d 18 133 d 18 129 d 9 61 d 9 58 d 9 53 d 9 49 d 9 43 d 9 36 d 9 29 d 9 22 d 9 14 d 10 5 d 9 -3 d 9 -11 d 9 -19 d 9 -26 d 9 -35 d 9 -40 d 9 -47 d 9 -52 d 9 -57 d 9 -61 d
 18 -128 d 19 -133 d 18 -131 d 18 -124 d 9 -58 d 9 -55 d 9 -52 d 9 -48 d 9 -44 d 9 -41 d 9 -38 d 9 -33 d 9 -31 d 10 -27 d 18 -45 d 18 -34 d 18 -26 d 18 -19 d 18 -14 d 18 -10 d 19 -7 d 18 -6 d 18 -5 d 18 -8 d s[ 12 12] 0 sd 1 1 1 c black 0 0 1 c 227
 231 m cl s 227 231 m 18 1 d 127 X 18 1 d 109 X 18 1 d 127 X 18 1 d 145 X 18 1 d 164 X 18 1 d 127 X 18 1 d 36 X 18 1 d 19 X 18 2 d 18 1 d 18 2 d 18 2 d 18 3 d 18 4 d 19 5 d 18 6 d 18 7 d 18 8 d 18 9 d 18 10 d 18 11 d 19 10 d 18 11 d 18 10 d 9 5 d 9 4
 d 9 4 d 9 4 d 9 3 d 9 2 d 9 2 d 9 2 d 9 1 d 19 X 9 -1 d 9 -1 d 9 -3 d 9 -2 d 9 -3 d 9 -4 d 9 -4 d 9 -4 d 9 -5 d 18 -10 d 19 -11 d 18 -12 d 18 -10 d 18 -11 d 18 -10 d 18 -8 d 18 -8 d 19 -7 d 18 -6 d 18 -5 d 18 -4 d 18 -3 d 18 -3 d 18 -3 d 19 -2 d 18
 -3 d 18 -3 d 9 -1 d 4 -2 d 3 -1 d 2 -2 d s black[  ] 0 sd 3 lw 227 214 m 1814 X s 227 266 m -52 Y s 272 240 m -26 Y s 317 240 m -26 Y s 363 240 m -26 Y s 408 240 m -26 Y s 454 266 m -52 Y s 499 240 m -26 Y s 544 240 m -26 Y s 590 240 m -26 Y s 635
 240 m -26 Y s 680 266 m -52 Y s 726 240 m -26 Y s 771 240 m -26 Y s 816 240 m -26 Y s 862 240 m -26 Y s 907 266 m -52 Y s 952 240 m -26 Y s 998 240 m -26 Y s 1043 240 m -26 Y s 1089 240 m -26 Y s 1134 266 m -52 Y s 1179 240 m -26 Y s 1225 240 m -26
 Y s 1270 240 m -26 Y s 1315 240 m -26 Y s 1361 266 m -52 Y s 1406 240 m -26 Y s 1451 240 m -26 Y s 1497 240 m -26 Y s 1542 240 m -26 Y s 1587 266 m -52 Y s 1633 240 m -26 Y s 1678 240 m -26 Y s 1723 240 m -26 Y s 1769 240 m -26 Y s 1814 266 m -52 Y
 s 1860 240 m -26 Y s 1905 240 m -26 Y s 1950 240 m -26 Y s 1996 240 m -26 Y s 2041 266 m -52 Y s 227 214 m 1716 Y s 281 214 m -54 X s 254 273 m -27 X s 254 332 m -27 X s 254 391 m -27 X s 254 450 m -27 X s 281 509 m -54 X s 254 567 m -27 X s 254 626
 m -27 X s 254 685 m -27 X s 254 744 m -27 X s 281 803 m -54 X s 254 862 m -27 X s 254 920 m -27 X s 254 979 m -27 X s 254 1038 m -27 X s 281 1097 m -54 X s 254 1156 m -27 X s 254 1215 m -27 X s 254 1273 m -27 X s 254 1332 m -27 X s 281 1391 m -54 X
 s 254 1450 m -27 X s 254 1509 m -27 X s 254 1567 m -27 X s 254 1626 m -27 X s 281 1685 m -54 X s 281 1685 m -54 X s 254 1744 m -27 X s 254 1803 m -27 X s 254 1862 m -27 X s 254 1920 m -27 X s 1 1 1 c black
 gsave  2268 2145 0 0 C 651.172 2040.03 t 0 r /Helvetica findfont 104.734 sf 0 0 m (Signal + Background) show NC gr 
 gr  gr showpage
end
%%EOF
