%!PS-Adobe-2.0 EPSF-2.0
%%BoundingBox:  0 0 567 536
%%Title: ./plots/s0/pSig_s1s2.eps: Signal
%%Creator: ROOT Version 6.13/01
%%CreationDate: Thu Dec 28 11:47:00 2017
%%DocumentNeededResources: ProcSet (FontSetInit)
%%EndComments
%%BeginProlog
80 dict begin
/s {stroke} def /l {lineto} def /m {moveto} def /t {translate} def
/r {rotate} def /rl {roll}  def /R {repeat} def
/d {rlineto} def /rm {rmoveto} def /gr {grestore} def /f {eofill} def
/c {setrgbcolor} def /black {0 setgray} def /sd {setdash} def
/cl {closepath} def /sf {scalefont setfont} def /lw {setlinewidth} def
/box {m dup 0 exch d exch 0 d 0 exch neg d cl} def
/NC{systemdict begin initclip end}def/C{NC box clip newpath}def
/bl {box s} def /bf {gsave box gsave f grestore 1 lw [] 0 sd s grestore} def /Y { 0 exch d} def /X { 0 d} def 
/K {{pop pop 0 moveto} exch kshow} bind def
/ita {/ang 15 def gsave [1 0 ang dup sin exch cos div 1 0 0] concat} def 
/mp {newpath /y exch def /x exch def} def
/side {[w .77 mul w .23 mul] .385 w mul sd w 0 l currentpoint t -144 r} def
/mr {mp x y w2 0 360 arc} def /m24 {mr s} def /m20 {mr f} def
/mb {mp x y w2 add m w2 neg 0 d 0 w neg d w 0 d 0 w d cl} def
/mt {mp x y w2 add m w2 neg w neg d w 0 d cl} def
/w4 {w 4 div} def
/w6 {w 6 div} def
/w8 {w 8 div} def
/m21 {mb f} def /m25 {mb s} def /m22 {mt f} def /m26{mt s} def
/m23 {mp x y w2 sub m w2 w d w neg 0 d cl f} def
/m27 {mp x y w2 add m w3 neg w2 neg d w3 w2 neg d w3 w2 d cl s} def
/m28 {mp x w2 sub y w2 sub w3 add m w3 0 d  0 w3 neg d w3 0 d 0 w3 d w3 0 d  0 w3 d w3 neg 0 d 0 w3 d w3 neg 0 d 0 w3 neg d w3 neg 0 d cl s } def
/m29 {mp gsave x w2 sub y w2 add w3 sub m currentpoint t 4 {side} repeat cl fill gr} def
/m30 {mp gsave x w2 sub y w2 add w3 sub m currentpoint t 4 {side} repeat cl s gr} def
/m31 {mp x y w2 sub m 0 w d x w2 sub y m w 0 d x w2 sub y w2 add m w w neg d x w2 sub y w2 sub m w w d s} def
/m32 {mp x y w2 sub m w2 w d w neg 0 d cl s} def
/m33 {mp x y w2 add m w3 neg w2 neg d w3 w2 neg d w3 w2 d cl f} def
/m34 {mp x w2 sub y w2 sub w3 add m w3 0 d  0 w3 neg d w3 0 d 0 w3 d w3 0 d  0 w3 d w3 neg 0 d 0 w3 d w3 neg 0 d 0 w3 neg d w3 neg 0 d cl f } def
/m35 {mp x y w2 add m w2 neg w2 neg d w2 w2 neg d w2 w2 d w2 neg w2 d x y w2 sub m 0 w d x w2 sub y m w 0 d s} def
/m36 {mb x w2 sub y w2 add m w w neg d x w2 sub y w2 sub m w w d s} def
/m37 {mp x y m w4 neg w2 d w4 neg w2 neg d w2 0 d  w4 neg w2 neg d w2 0 d w4 neg w2 d w2 0 d w4 neg w2 d w4 neg w2 neg d cl s} def
/m38 {mp x w4 sub y w2 add m w4 neg w4 neg d 0 w2 neg d w4 w4 neg d w2 0 d w4 w4 d 0 w2 d w4 neg w4 d w2 neg 0 d x y w2 sub m 0 w d x w2 sub y m w 0 d cl s} def
/m39 {mp x y m w4 neg w2 d w4 neg w2 neg d w2 0 d  w4 neg w2 neg d w2 0 d w4 neg w2 d w2 0 d w4 neg w2 d w4 neg w2 neg d cl f} def
/m40 {mp x y m w4 w2 d w4 w4 neg d w2 neg w4 neg d w2 w4 neg d w4 neg w4 neg d w4 neg w2 d w4 neg w2 neg d w4 neg w4 d w2 w4 d w2 neg w4 d w4 w4 d w4 w2 neg d cl s} def
/m41 {mp x y m w4 w2 d w4 w4 neg d w2 neg w4 neg d w2 w4 neg d w4 neg w4 neg d w4 neg w2 d w4 neg w2 neg d w4 neg w4 d w2 w4 d w2 neg w4 d w4 w4 d w4 w2 neg d cl f} def
/m42 {mp x y w2 add m w8 neg w2 -3 4 div mul d w2 -3 4 div mul w8 neg d w2 3 4 div mul w8 neg d w8 w2 -3 4 div mul d w8 w2 3 4 div mul d w2 3 4 div mul w8 d w2 -3 4 div mul w8 d w8 neg w2 3 4 div mul d cl s} def
/m43 {mp x y w2 add m w8 neg w2 -3 4 div mul d w2 -3 4 div mul w8 neg d w2 3 4 div mul w8 neg d w8 w2 -3 4 div mul d w8 w2 3 4 div mul d w2 3 4 div mul w8 d w2 -3 4 div mul w8 d w8 neg w2 3 4 div mul d cl f} def
/m44 {mp x y m w6 neg w2 d w2 2 3 div mul 0 d w6 neg w2 neg d w2 w6 d 0 w2 -2 3 div mul d w2 neg w6 d w6 w2 neg d w2 -2 3 div mul 0 d w6 w2 d w2 neg w6 neg d 0 w2 2 3 div mul d w2 w6 neg d cl s} def
/m45 {mp x y m w6 neg w2 d w2 2 3 div mul 0 d w6 neg w2 neg d w2 w6 d 0 w2 -2 3 div mul d w2 neg w6 d w6 w2 neg d w2 -2 3 div mul 0 d w6 w2 d w2 neg w6 neg d 0 w2 2 3 div mul d w2 w6 neg d cl f} def
/m46 {mp x y w4 add m w4 neg w4 d w4 neg w4 neg d  w4 w4 neg d w4 neg w4 neg d w4 w4 neg d w4 w4 d w4 w4 neg d w4 w4 d w4 neg w4 d w4 w4 d w4 neg w4 d w4 neg w4 neg d cl s} def
/m47 {mp x y w4 add m w4 neg w4 d w4 neg w4 neg d w4 w4 neg d w4 neg w4 neg d  w4 w4 neg d w4 w4 d w4 w4 neg d w4 w4 d w4 neg w4 d w4 w4 d w4 neg w4 d w4 neg w4 neg d cl f} def
/m48 {mp x y w4 add m w4 neg w4 d w4 neg w4 neg d w4 w4 neg d  w4 neg w4 neg d w4 w4 neg d w4 w4 d w4 w4 neg d w4 w4 d w4 neg w4 d w4 w4 d w4 neg w4 d w4 neg w4 neg d  w4 w4 neg d w4 neg w4 neg d w4 neg w4 d w4 w4 d cl f} def
/m49 {mp x w2 sub w3 add y w2 sub w3 add m  0 w3 neg d w3 0 d 0 w3 d w3 0 d 0 w3 d w3 neg 0 d 0 w3 d w3 neg 0 d 0 w3 neg d w3 neg 0 d 0 w3 neg d w3 0 d 0 w3 d w3 0 d 0 w3 neg d w3 neg 0 d cl f } def
/m2 {mp x y w2 sub m 0 w d x w2 sub y m w 0 d s} def
/m5 {mp x w2 sub y w2 sub m w w d x w2 sub y w2 add m w w neg d s} def
%%IncludeResource: ProcSet (FontSetInit)
%%IncludeResource: font Times-Roman
%%IncludeResource: font Times-Italic
%%IncludeResource: font Times-Bold
%%IncludeResource: font Times-BoldItalic
%%IncludeResource: font Helvetica
%%IncludeResource: font Helvetica-Oblique
%%IncludeResource: font Helvetica-Bold
%%IncludeResource: font Helvetica-BoldOblique
%%IncludeResource: font Courier
%%IncludeResource: font Courier-Oblique
%%IncludeResource: font Courier-Bold
%%IncludeResource: font Courier-BoldOblique
%%IncludeResource: font Symbol
%%IncludeResource: font ZapfDingbats
/reEncode {exch findfont dup length dict begin {1 index /FID eq  {pop pop} {def} ifelse } forall /Encoding exch def currentdict end dup /FontName get exch definefont pop } def [/Times-Bold /Times-Italic /Times-BoldItalic /Helvetica /Helvetica-Oblique
 /Helvetica-Bold /Helvetica-BoldOblique /Courier /Courier-Oblique /Courier-Bold /Courier-BoldOblique /Times-Roman /AvantGarde-Book /AvantGarde-BookOblique /AvantGarde-Demi /AvantGarde-DemiOblique /Bookman-Demi /Bookman-DemiItalic /Bookman-Light
 /Bookman-LightItalic /Helvetica-Narrow /Helvetica-Narrow-Bold /Helvetica-Narrow-BoldOblique /Helvetica-Narrow-Oblique /NewCenturySchlbk-Roman /NewCenturySchlbk-Bold /NewCenturySchlbk-BoldItalic /NewCenturySchlbk-Italic /Palatino-Bold
 /Palatino-BoldItalic /Palatino-Italic /Palatino-Roman ] {ISOLatin1Encoding reEncode } forall
%%EndProlog
%%BeginSetup
%%EndSetup
newpath  gsave  .25 .25 scale  gsave  0 0 t black[  ] 0 sd 3 lw 1 1 1 c 2268 2145 0 0 bf black 1 1 1 c 1814 1716 227 214 bf black 1814 1716 227 214 bl 227 214 m 1814 X s 227 266 m -52 Y s 272 240 m -26 Y s 317 240 m -26 Y s 363 240 m -26 Y s 408 240
 m -26 Y s 454 266 m -52 Y s 499 240 m -26 Y s 544 240 m -26 Y s 590 240 m -26 Y s 635 240 m -26 Y s 680 266 m -52 Y s 726 240 m -26 Y s 771 240 m -26 Y s 816 240 m -26 Y s 862 240 m -26 Y s 907 266 m -52 Y s 952 240 m -26 Y s 998 240 m -26 Y s 1043
 240 m -26 Y s 1089 240 m -26 Y s 1134 266 m -52 Y s 1179 240 m -26 Y s 1225 240 m -26 Y s 1270 240 m -26 Y s 1315 240 m -26 Y s 1361 266 m -52 Y s 1406 240 m -26 Y s 1451 240 m -26 Y s 1497 240 m -26 Y s 1542 240 m -26 Y s 1587 266 m -52 Y s 1633
 240 m -26 Y s 1678 240 m -26 Y s 1723 240 m -26 Y s 1769 240 m -26 Y s 1814 266 m -52 Y s 1860 240 m -26 Y s 1905 240 m -26 Y s 1950 240 m -26 Y s 1996 240 m -26 Y s 2041 266 m -52 Y s
 gsave  2268 2145 0 0 C 154.824 145.717 t 0 r /Helvetica findfont 68.3047 sf 0 0 m (5.25) show NC gr 
 gsave  2268 2145 0 0 C 364.292 145.717 t 0 r /Helvetica findfont 68.3047 sf 0 0 m (5.255) show NC gr 
 gsave  2268 2145 0 0 C 610.189 145.717 t 0 r /Helvetica findfont 68.3047 sf 0 0 m (5.26) show NC gr 
 gsave  2268 2145 0 0 C 819.657 145.717 t 0 r /Helvetica findfont 68.3047 sf 0 0 m (5.265) show NC gr 
 gsave  2268 2145 0 0 C 1065.55 145.717 t 0 r /Helvetica findfont 68.3047 sf 0 0 m (5.27) show NC gr 
 gsave  2268 2145 0 0 C 1270.47 145.717 t 0 r /Helvetica findfont 68.3047 sf 0 0 m (5.275) show NC gr 
 gsave  2268 2145 0 0 C 1516.36 145.717 t 0 r /Helvetica findfont 68.3047 sf 0 0 m (5.28) show NC gr 
 gsave  2268 2145 0 0 C 1725.83 145.717 t 0 r /Helvetica findfont 68.3047 sf 0 0 m (5.285) show NC gr 
 gsave  2268 2145 0 0 C 1971.73 145.717 t 0 r /Helvetica findfont 68.3047 sf 0 0 m (5.29) show NC gr 
 gsave  2268 2145 0 0 C 1552.79 72.8584 t 0 r /Helvetica findfont 68.3047 sf 0 0 m (m_bc \(GeV/c^2\)) show NC gr  227 214 m 1716 Y s 281 214 m -54 X s 254 250 m -27 X s 254 285 m -27 X s 254 320 m -27 X s 254 355 m -27 X s 281 390 m -54 X s 254 425 m
 -27 X s 254 460 m -27 X s 254 495 m -27 X s 254 530 m -27 X s 281 565 m -54 X s 254 600 m -27 X s 254 635 m -27 X s 254 670 m -27 X s 254 705 m -27 X s 281 740 m -54 X s 254 775 m -27 X s 254 810 m -27 X s 254 845 m -27 X s 254 880 m -27 X s 281 915
 m -54 X s 254 950 m -27 X s 254 985 m -27 X s 254 1021 m -27 X s 254 1056 m -27 X s 281 1091 m -54 X s 254 1126 m -27 X s 254 1161 m -27 X s 254 1196 m -27 X s 254 1231 m -27 X s 281 1266 m -54 X s 254 1301 m -27 X s 254 1336 m -27 X s 254 1371 m
 -27 X s 254 1406 m -27 X s 281 1441 m -54 X s 254 1476 m -27 X s 254 1511 m -27 X s 254 1546 m -27 X s 254 1581 m -27 X s 281 1616 m -54 X s 254 1651 m -27 X s 254 1686 m -27 X s 254 1721 m -27 X s 254 1757 m -27 X s 281 1792 m -54 X s 281 1792 m
 -54 X s 254 1827 m -27 X s 254 1862 m -27 X s 254 1897 m -27 X s
 gsave  2268 2145 0 0 C 177.592 191.253 t 0 r /Helvetica findfont 68.3047 sf 0 0 m (0) show NC gr 
 gsave  2268 2145 0 0 C 100.18 364.292 t 0 r /Helvetica findfont 68.3047 sf 0 0 m (100) show NC gr 
 gsave  2268 2145 0 0 C 100.18 541.884 t 0 r /Helvetica findfont 68.3047 sf 0 0 m (200) show NC gr 
 gsave  2268 2145 0 0 C 100.18 714.923 t 0 r /Helvetica findfont 68.3047 sf 0 0 m (300) show NC gr 
 gsave  2268 2145 0 0 C 100.18 892.515 t 0 r /Helvetica findfont 68.3047 sf 0 0 m (400) show NC gr 
 gsave  2268 2145 0 0 C 100.18 1065.55 t 0 r /Helvetica findfont 68.3047 sf 0 0 m (500) show NC gr 
 gsave  2268 2145 0 0 C 100.18 1238.59 t 0 r /Helvetica findfont 68.3047 sf 0 0 m (600) show NC gr 
 gsave  2268 2145 0 0 C 100.18 1416.18 t 0 r /Helvetica findfont 68.3047 sf 0 0 m (700) show NC gr 
 gsave  2268 2145 0 0 C 100.18 1589.22 t 0 r /Helvetica findfont 68.3047 sf 0 0 m (800) show NC gr 
 gsave  2268 2145 0 0 C 100.18 1766.82 t 0 r /Helvetica findfont 68.3047 sf 0 0 m (900) show NC gr 
 gsave  2268 2145 0 0 C 50.0901 1097.43 t 90 r /Helvetica findfont 68.3047 sf 0 0 m (Events / \( 0.0004 GeV/c^2 \)) show NC gr  1 1 1 c black
 gsave  2268 2145 0 0 C 988.142 2040.03 t 0 r /Helvetica findfont 104.734 sf 0 0 m (Signal) show NC gr  236 214 m -9 X s 227 214 m 10 Y s 236 214 m 9 X s 245 214 m 10 Y s 236 214 m 2 Y s 227 216 m 18 X s 254 214 m -9 X s 245 214 m 10 Y s 254 214 m 9
 X s 263 214 m 10 Y s 254 214 m 2 Y s 245 216 m 18 X s 272 214 m -9 X s 263 214 m 10 Y s 272 214 m 9 X s 281 214 m 10 Y s 272 214 m 2 Y s 263 216 m 18 X s 290 214 m -9 X s 281 214 m 10 Y s 290 214 m 9 X s 299 214 m 10 Y s 290 214 m 2 Y s 281 216 m 18
 X s 308 214 m -9 X s 299 214 m 10 Y s 308 214 m 9 X s 317 214 m 10 Y s 308 214 m 2 Y s 299 216 m 19 X s 327 216 m -10 X s 317 214 m 11 Y s 327 216 m 9 X s 336 214 m 11 Y s 327 216 m 4 Y s 317 220 m 19 X s 327 216 m -1 Y s 317 215 m 19 X s 345 214 m
 -9 X s 336 214 m 10 Y s 345 214 m 9 X s 354 214 m 10 Y s 345 214 m 2 Y s 336 216 m 18 X s 363 214 m -9 X s 354 214 m 10 Y s 363 214 m 9 X s 372 214 m 10 Y s 363 214 m 2 Y s 354 216 m 18 X s 381 214 m -9 X s 372 214 m 10 Y s 381 214 m 9 X s 390 214 m
 10 Y s 381 214 m 2 Y s 372 216 m 18 X s 399 214 m -9 X s 390 214 m 10 Y s 399 214 m 9 X s 408 214 m 10 Y s 399 214 m 2 Y s 390 216 m 18 X s 417 214 m -9 X s 408 214 m 10 Y s 417 214 m 9 X s 426 214 m 10 Y s 417 214 m 2 Y s 408 216 m 18 X s 435 214 m
 -9 X s 426 214 m 10 Y s 435 214 m 9 X s 444 214 m 10 Y s 435 214 m 2 Y s 426 216 m 19 X s 454 214 m -10 X s 444 214 m 10 Y s 454 214 m 9 X s 463 214 m 10 Y s 454 214 m 2 Y s 444 216 m 19 X s 472 214 m -9 X s 463 214 m 10 Y s 472 214 m 9 X s 481 214
 m 10 Y s 472 214 m 2 Y s 463 216 m 18 X s 490 214 m -9 X s 481 214 m 10 Y s 490 214 m 9 X s 499 214 m 10 Y s 490 214 m 2 Y s 481 216 m 18 X s 508 214 m -9 X s 499 214 m 10 Y s 508 214 m 9 X s 517 214 m 10 Y s 508 214 m 2 Y s 499 216 m 18 X s 526 214
 m -9 X s 517 214 m 10 Y s 526 214 m 9 X s 535 214 m 10 Y s 526 214 m 2 Y s 517 216 m 18 X s 544 214 m -9 X s 535 214 m 10 Y s 544 214 m 9 X s 553 214 m 10 Y s 544 214 m 2 Y s 535 216 m 18 X s 562 214 m -9 X s 553 214 m 10 Y s 562 214 m 9 X s 571 214
 m 10 Y s 562 214 m 2 Y s 553 216 m 19 X s 581 214 m -10 X s 571 214 m 10 Y s 581 214 m 9 X s 590 214 m 10 Y s 581 214 m 2 Y s 571 216 m 19 X s 599 216 m -9 X s 590 214 m 11 Y s 599 216 m 9 X s 608 214 m 11 Y s 599 216 m 4 Y s 590 220 m 18 X s 599
 216 m -1 Y s 590 215 m 18 X s 617 214 m -9 X s 608 214 m 10 Y s 617 214 m 9 X s 626 214 m 10 Y s 617 214 m 2 Y s 608 216 m 18 X s 635 214 m -9 X s 626 214 m 10 Y s 635 214 m 9 X s 644 214 m 10 Y s 635 214 m 2 Y s 626 216 m 18 X s 653 214 m -9 X s
 644 214 m 10 Y s 653 214 m 9 X s 662 214 m 10 Y s 653 214 m 2 Y s 644 216 m 18 X s 671 214 m -9 X s 662 214 m 10 Y s 671 214 m 9 X s 680 214 m 10 Y s 671 214 m 2 Y s 662 216 m 18 X s 689 214 m -9 X s 680 214 m 10 Y s 689 214 m 9 X s 698 214 m 10 Y s
 689 214 m 2 Y s 680 216 m 18 X s 708 216 m -10 X s 698 214 m 11 Y s 708 216 m 9 X s 717 214 m 11 Y s 708 216 m 4 Y s 698 220 m 19 X s 708 216 m -1 Y s 698 215 m 19 X s 726 214 m -9 X s 717 214 m 10 Y s 726 214 m 9 X s 735 214 m 10 Y s 726 214 m 2 Y
 s 717 216 m 18 X s 744 214 m -9 X s 735 214 m 10 Y s 744 214 m 9 X s 753 214 m 10 Y s 744 214 m 2 Y s 735 216 m 18 X s 762 214 m -9 X s 753 214 m 10 Y s 762 214 m 9 X s 771 214 m 10 Y s 762 214 m 2 Y s 753 216 m 18 X s 780 214 m -9 X s 771 214 m 10
 Y s 780 214 m 9 X s 789 214 m 10 Y s 780 214 m 2 Y s 771 216 m 18 X s 798 214 m -9 X s 789 214 m 10 Y s 798 214 m 9 X s 807 214 m 10 Y s 798 214 m 2 Y s 789 216 m 18 X s 816 216 m -9 X s 807 214 m 11 Y s 816 216 m 9 X s 825 214 m 11 Y s 816 216 m 4
 Y s 807 220 m 18 X s 816 216 m -1 Y s 807 215 m 18 X s 835 214 m -10 X s 825 214 m 10 Y s 835 214 m 9 X s 844 214 m 10 Y s 835 214 m 2 Y s 825 216 m 19 X s 853 214 m -9 X s 844 214 m 10 Y s 853 214 m 9 X s 862 214 m 10 Y s 853 214 m 2 Y s 844 216 m
 18 X s 871 218 m -9 X s 862 214 m 13 Y s 871 218 m 9 X s 880 214 m 13 Y s 871 218 m 5 Y s 862 223 m 18 X s 871 218 m -2 Y s 862 216 m 18 X s 889 214 m -9 X s 880 214 m 10 Y s 889 214 m 9 X s 898 214 m 10 Y s 889 214 m 2 Y s 880 216 m 18 X s 907 216
 m -9 X s 898 214 m 11 Y s 907 216 m 9 X s 916 214 m 11 Y s 907 216 m 4 Y s 898 220 m 18 X s 907 216 m -1 Y s 898 215 m 18 X s 925 216 m -9 X s 916 214 m 11 Y s 925 216 m 9 X s 934 214 m 11 Y s 925 216 m 4 Y s 916 220 m 18 X s 925 216 m -1 Y s 916
 215 m 18 X s 943 216 m -9 X s 934 214 m 11 Y s 943 216 m 9 X s 952 214 m 11 Y s 943 216 m 4 Y s 934 220 m 18 X s 943 216 m -1 Y s 934 215 m 18 X s 962 214 m -10 X s 952 214 m 10 Y s 962 214 m 9 X s 971 214 m 10 Y s 962 214 m 2 Y s 952 216 m 19 X s
 980 214 m -9 X s 971 214 m 10 Y s 980 214 m 9 X s 989 214 m 10 Y s 980 214 m 2 Y s 971 216 m 18 X s 998 216 m -9 X s 989 214 m 11 Y s 998 216 m 9 X s 1007 214 m 11 Y s 998 216 m 4 Y s 989 220 m 18 X s 998 216 m -1 Y s 989 215 m 18 X s 1016 214 m -9
 X s 1007 214 m 10 Y s 1016 214 m 9 X s 1025 214 m 10 Y s 1016 214 m 2 Y s 1007 216 m 18 X s 1034 214 m -9 X s 1025 214 m 10 Y s 1034 214 m 9 X s 1043 214 m 10 Y s 1034 214 m 2 Y s 1025 216 m 18 X s 1052 216 m -9 X s 1043 214 m 11 Y s 1052 216 m 9 X
 s 1061 214 m 11 Y s 1052 216 m 4 Y s 1043 220 m 18 X s 1052 216 m -1 Y s 1043 215 m 18 X s 1070 216 m -9 X s 1061 214 m 11 Y s 1070 216 m 9 X s 1079 214 m 11 Y s 1070 216 m 4 Y s 1061 220 m 18 X s 1070 216 m -1 Y s 1061 215 m 18 X s 1089 214 m -10 X
 s 1079 214 m 10 Y s 1089 214 m 9 X s 1098 214 m 10 Y s 1089 214 m 2 Y s 1079 216 m 19 X s 1107 216 m -9 X s 1098 214 m 11 Y s 1107 216 m 9 X s 1116 214 m 11 Y s 1107 216 m 4 Y s 1098 220 m 18 X s 1107 216 m -1 Y s 1098 215 m 18 X s 1125 214 m -9 X s
 1116 214 m 10 Y s 1125 214 m 9 X s 1134 214 m 10 Y s 1125 214 m 2 Y s 1116 216 m 18 X s 1143 218 m -9 X s 1134 214 m 13 Y s 1143 218 m 9 X s 1152 214 m 13 Y s 1143 218 m 5 Y s 1134 223 m 18 X s 1143 218 m -2 Y s 1134 216 m 18 X s 1161 218 m -9 X s
 1152 214 m 13 Y s 1161 218 m 9 X s 1170 214 m 13 Y s 1161 218 m 5 Y s 1152 223 m 18 X s 1161 218 m -2 Y s 1152 216 m 18 X s 1179 220 m -9 X s 1170 214 m 15 Y s 1179 220 m 9 X s 1188 214 m 15 Y s 1179 220 m 5 Y s 1170 225 m 18 X s 1179 220 m -3 Y s
 1170 217 m 18 X s 1197 221 m -9 X s 1188 214 m 17 Y s 1197 221 m 9 X s 1206 214 m 17 Y s 1197 221 m 6 Y s 1188 227 m 18 X s 1197 221 m -3 Y s 1188 218 m 18 X s 1215 232 m -9 X s 1206 223 m 18 Y s 1215 232 m 10 X s 1225 223 m 18 Y s 1215 232 m 7 Y s
 1206 239 m 19 X s 1215 232 m -5 Y s 1206 227 m 19 X s 1234 230 m -9 X s 1225 221 m 18 Y s 1234 230 m 9 X s 1243 221 m 18 Y s 1234 230 m 7 Y s 1225 237 m 18 X s 1234 230 m -5 Y s 1225 225 m 18 X s 1252 241 m -9 X s 1243 232 m 18 Y s 1252 241 m 9 X s
 1261 232 m 18 Y s 1252 241 m 8 Y s 1243 249 m 18 X s 1252 241 m -7 Y s 1243 234 m 18 X s 1270 248 m -9 X s 1261 239 m 18 Y s 1270 248 m 9 X s 1279 239 m 18 Y s 1270 248 m 9 Y s 1261 257 m 18 X s 1270 248 m -8 Y s 1261 240 m 18 X s 1288 292 m -9 X s
 1279 282 m 19 Y s 1288 292 m 9 X s 1297 282 m 19 Y s 1288 292 m 13 Y s 1279 305 m 18 X s 1288 292 m -12 Y s 1279 280 m 18 X s 1306 276 m -9 X s 1297 267 m 18 Y s 1306 276 m 9 X s 1315 267 m 18 Y s 1306 276 m 12 Y s 1297 288 m 18 X s 1306 276 m -11 Y
 s 1297 265 m 18 X s 1324 307 m -9 X s 1315 298 m 18 Y s 1324 307 m 9 X s 1333 298 m 18 Y s 1324 307 m 15 Y s 1315 322 m 18 X s 1324 307 m -12 Y s 1315 295 m 18 X s 1342 356 m -9 X s 1333 347 m 19 Y s 1342 356 m 10 X s 1352 347 m 19 Y s 1342 356 m 18
 Y s 1333 374 m 19 X s 1342 356 m -15 Y s 1333 341 m 19 X s 1361 383 m -9 X s 1352 374 m 18 Y s 1361 383 m 9 X s 1370 374 m 18 Y s 1361 383 m 19 Y s 1352 402 m 18 X s 1361 383 m -17 Y s 1352 366 m 18 X s 1379 435 m -9 X s 1370 426 m 18 Y s 1379 435 m
 9 X s 1388 426 m 18 Y s 1379 435 m 21 Y s 1370 456 m 18 X s 1379 435 m -19 Y s 1370 416 m 18 X s 1397 540 m -9 X s 1388 531 m 19 Y s 1397 540 m 9 X s 1406 531 m 19 Y s 1397 540 m 25 Y s 1388 565 m 18 X s 1397 540 m -23 Y s 1388 517 m 18 X s 1415 600
 m -9 X s 1406 591 m 18 Y s 1415 600 m 9 X s 1424 591 m 18 Y s 1415 600 m 27 Y s 1406 627 m 18 X s 1415 600 m -25 Y s 1406 575 m 18 X s 1433 703 m -9 X s 1424 694 m 18 Y s 1433 703 m 9 X s 1442 694 m 18 Y s 1433 703 m 31 Y s 1424 734 m 18 X s 1433
 703 m -28 Y s 1424 675 m 18 X s 1451 816 m -9 X s 1442 806 m 19 Y s 1451 816 m 9 X s 1460 806 m 19 Y s 1451 816 m 33 Y s 1442 849 m 18 X s 1451 816 m -32 Y s 1442 784 m 18 X s 1469 935 m -9 X s 1460 926 m 18 Y s 1469 935 m 10 X s 1479 926 m 18 Y s
 1469 935 m 36 Y s 1460 971 m 19 X s 1469 935 m -35 Y s 1460 900 m 19 X s 1488 1133 m -9 X s 1479 1124 m 18 Y s 1488 1133 m 9 X s 1497 1124 m 18 Y s 1488 1133 m 41 Y s 1479 1174 m 18 X s 1488 1133 m -40 Y s 1479 1093 m 18 X s 1506 1345 m -9 X s 1497
 1336 m 18 Y s 1506 1345 m 9 X s 1515 1336 m 18 Y s 1506 1345 m 45 Y s 1497 1390 m 18 X s 1506 1345 m -44 Y s 1497 1301 m 18 X s 1524 1457 m -9 X s 1515 1448 m 18 Y s 1524 1457 m 9 X s 1533 1448 m 18 Y s 1524 1457 m 47 Y s 1515 1504 m 18 X s 1524
 1457 m -46 Y s 1515 1411 m 18 X s 1542 1634 m -9 X s 1533 1625 m 18 Y s 1542 1634 m 9 X s 1551 1625 m 18 Y s 1542 1634 m 51 Y s 1533 1685 m 18 X s 1542 1634 m -49 Y s 1533 1585 m 18 X s 1560 1669 m -9 X s 1551 1660 m 18 Y s 1560 1669 m 9 X s 1569
 1660 m 18 Y s 1560 1669 m 51 Y s 1551 1720 m 18 X s 1560 1669 m -50 Y s 1551 1619 m 18 X s 1578 1716 m -9 X s 1569 1707 m 18 Y s 1578 1716 m 9 X s 1587 1707 m 18 Y s 1578 1716 m 52 Y s 1569 1768 m 18 X s 1578 1716 m -50 Y s 1569 1666 m 18 X s 1596
 1795 m -9 X s 1587 1786 m 18 Y s 1596 1795 m 10 X s 1606 1786 m 18 Y s 1596 1795 m 54 Y s 1587 1849 m 19 X s 1596 1795 m -52 Y s 1587 1743 m 19 X s 1615 1741 m -9 X s 1606 1732 m 18 Y s 1615 1741 m 9 X s 1624 1732 m 18 Y s 1615 1741 m 52 Y s 1606
 1793 m 18 X s 1615 1741 m -51 Y s 1606 1690 m 18 X s 1633 1674 m -9 X s 1624 1665 m 18 Y s 1633 1674 m 9 X s 1642 1665 m 18 Y s 1633 1674 m 52 Y s 1624 1726 m 18 X s 1633 1674 m -50 Y s 1624 1624 m 18 X s 1651 1618 m -9 X s 1642 1609 m 18 Y s 1651
 1618 m 9 X s 1660 1609 m 18 Y s 1651 1618 m 51 Y s 1642 1669 m 18 X s 1651 1618 m -49 Y s 1642 1569 m 18 X s 1669 1601 m -9 X s 1660 1591 m 19 Y s 1669 1601 m 9 X s 1678 1591 m 19 Y s 1669 1601 m 50 Y s 1660 1651 m 18 X s 1669 1601 m -49 Y s 1660
 1552 m 18 X s 1687 1455 m -9 X s 1678 1446 m 18 Y s 1687 1455 m 9 X s 1696 1446 m 18 Y s 1687 1455 m 48 Y s 1678 1503 m 18 X s 1687 1455 m -46 Y s 1678 1409 m 18 X s 1705 1299 m -9 X s 1696 1290 m 18 Y s 1705 1299 m 9 X s 1714 1290 m 18 Y s 1705
 1299 m 45 Y s 1696 1344 m 18 X s 1705 1299 m -43 Y s 1696 1256 m 18 X s 1723 1212 m -9 X s 1714 1202 m 19 Y s 1723 1212 m 10 X s 1733 1202 m 19 Y s 1723 1212 m 42 Y s 1714 1254 m 19 X s 1723 1212 m -41 Y s 1714 1171 m 19 X s 1742 1035 m -9 X s 1733
 1025 m 19 Y s 1742 1035 m 9 X s 1751 1025 m 19 Y s 1742 1035 m 38 Y s 1732 1073 m 19 X s 1742 1035 m -37 Y s 1732 998 m 19 X s 1760 903 m -9 X s 1751 894 m 18 Y s 1760 903 m 9 X s 1769 894 m 18 Y s 1760 903 m 36 Y s 1751 939 m 18 X s 1760 903 m -34
 Y s 1751 869 m 18 X s 1778 735 m -9 X s 1769 726 m 18 Y s 1778 735 m 9 X s 1787 726 m 18 Y s 1778 735 m 31 Y s 1769 766 m 18 X s 1778 735 m -29 Y s 1769 706 m 18 X s 1796 705 m -9 X s 1787 696 m 18 Y s 1796 705 m 9 X s 1805 696 m 18 Y s 1796 705 m
 30 Y s 1787 735 m 18 X s 1796 705 m -28 Y s 1787 677 m 18 X s 1814 551 m -9 X s 1805 542 m 18 Y s 1814 551 m 9 X s 1823 542 m 18 Y s 1814 551 m 25 Y s 1805 576 m 18 X s 1814 551 m -23 Y s 1805 528 m 18 X s 1832 460 m -9 X s 1823 451 m 18 Y s 1832
 460 m 9 X s 1841 451 m 18 Y s 1832 460 m 21 Y s 1823 481 m 18 X s 1832 460 m -20 Y s 1823 440 m 18 X s 1850 386 m -9 X s 1841 377 m 18 Y s 1850 386 m 10 X s 1860 377 m 18 Y s 1850 386 m 19 Y s 1841 405 m 19 X s 1850 386 m -17 Y s 1841 369 m 19 X s
 1869 337 m -9 X s 1860 328 m 18 Y s 1869 337 m 9 X s 1878 328 m 18 Y s 1869 337 m 17 Y s 1859 354 m 19 X s 1869 337 m -14 Y s 1859 323 m 19 X s 1887 306 m -9 X s 1878 296 m 19 Y s 1887 306 m 9 X s 1896 296 m 19 Y s 1887 306 m 14 Y s 1878 320 m 18 X
 s 1887 306 m -13 Y s 1878 293 m 18 X s 1905 292 m -9 X s 1896 282 m 19 Y s 1905 292 m 9 X s 1914 282 m 19 Y s 1905 292 m 13 Y s 1896 305 m 18 X s 1905 292 m -12 Y s 1896 280 m 18 X s 1923 257 m -9 X s 1914 247 m 19 Y s 1923 257 m 9 X s 1932 247 m 19
 Y s 1923 257 m 10 Y s 1914 267 m 18 X s 1923 257 m -9 Y s 1914 248 m 18 X s 1941 243 m -9 X s 1932 233 m 19 Y s 1941 243 m 9 X s 1950 233 m 19 Y s 1941 243 m 8 Y s 1932 251 m 18 X s 1941 243 m -7 Y s 1932 236 m 18 X s 1959 237 m -9 X s 1950 228 m 18
 Y s 1959 237 m 9 X s 1968 228 m 18 Y s 1959 237 m 8 Y s 1950 245 m 18 X s 1959 237 m -6 Y s 1950 231 m 18 X s 1977 241 m -9 X s 1968 232 m 18 Y s 1977 241 m 10 X s 1987 232 m 18 Y s 1977 241 m 8 Y s 1968 249 m 19 X s 1977 241 m -7 Y s 1968 234 m 19
 X s 1996 218 m -9 X s 1987 214 m 13 Y s 1996 218 m 9 X s 2005 214 m 13 Y s 1996 218 m 5 Y s 1986 223 m 19 X s 1996 218 m -2 Y s 1986 216 m 19 X s 2014 214 m -9 X s 2005 214 m 10 Y s 2014 214 m 9 X s 2023 214 m 10 Y s 2014 214 m 2 Y s 2005 216 m 18 X
 s 2032 214 m -9 X s 2023 214 m 10 Y s 2032 214 m 9 X s 2041 214 m 10 Y s 2032 214 m 2 Y s 2023 216 m 18 X s 1 1 1 c black /w 36 def /w2 {w 2 div} def /w3 {w 3 div} def 236 214 254 214 272 214 290 214 308 214 327 216 345 214 363 214 381 214 399 214
 417 214 435 214 454 214 472 214 490 214 508 214 526 214 544 214 562 214 581 214 599 216 617 214 635 214 653 214 671 214 689 214 708 216 726 214 744 214 762 214 780 214 798 214 816 216 835 214 853 214 871 218 889 214 907 216 925 216 943 216 962 214
 980 214 998 216 1016 214 1034 214 1052 216 1070 216 1089 214 1107 216 1125 214 1143 218 1161 218 1179 220 1197 221 1215 232 1234 230 1252 241 1270 248 1288 292 1306 276 1324 307 1342 356 1361 383 1379 435 1397 540 1415 600 1433 703 1451 816 1469 935
 1488 1133 1506 1345 1524 1457 1542 1634 1560 1669 1578 1716 1596 1795 1615 1741 1633 1674 1651 1618 1669 1601 1687 1455 1705 1299 1723 1212 1742 1035 1760 903 1778 735 1796 705 1814 551 1832 460 1850 386 1869 337 1887 306 1905 292 1923 257 1941 243
 1959 237 1977 241 1996 218 2014 214 2032 214 100 { m20} R 0 0 1 c 9 lw 1 1 1 c black 0 0 1 c 227 215 m cl s 227 215 m 871 X 18 1 d 36 X 18 1 d 18 1 d 18 2 d 19 4 d 18 5 d 18 8 d 18 12 d 18 17 d 18 25 d 18 33 d 19 44 d 9 27 d 9 30 d 9 34 d 9 37 d 9
 42 d 9 46 d 9 49 d 9 54 d 9 57 d 9 61 d 18 131 d 19 140 d 18 143 d 18 140 d 9 66 d 9 63 d 9 58 d 9 53 d 9 47 d 9 39 d 9 32 d 9 24 d 9 15 d 10 6 d 9 -3 d 9 -12 d 9 -21 d 9 -29 d 9 -37 d 9 -44 d 9 -51 d 9 -56 d 9 -61 d 9 -66 d 18 -138 d 19 -143 d 18
 -141 d 18 -133 d 9 -62 d 9 -59 d 9 -55 d 9 -51 d 9 -47 d 9 -43 d 9 -39 d 9 -35 d 9 -31 d 10 -28 d 18 -46 d 18 -35 d 18 -26 d 18 -18 d 18 -13 d 18 -9 d 19 -5 d 18 -4 d 18 -2 d 18 -2 d s black 3 lw 227 214 m 1814 X s 227 266 m -52 Y s 272 240 m -26 Y
 s 317 240 m -26 Y s 363 240 m -26 Y s 408 240 m -26 Y s 454 266 m -52 Y s 499 240 m -26 Y s 544 240 m -26 Y s 590 240 m -26 Y s 635 240 m -26 Y s 680 266 m -52 Y s 726 240 m -26 Y s 771 240 m -26 Y s 816 240 m -26 Y s 862 240 m -26 Y s 907 266 m -52
 Y s 952 240 m -26 Y s 998 240 m -26 Y s 1043 240 m -26 Y s 1089 240 m -26 Y s 1134 266 m -52 Y s 1179 240 m -26 Y s 1225 240 m -26 Y s 1270 240 m -26 Y s 1315 240 m -26 Y s 1361 266 m -52 Y s 1406 240 m -26 Y s 1451 240 m -26 Y s 1497 240 m -26 Y s
 1542 240 m -26 Y s 1587 266 m -52 Y s 1633 240 m -26 Y s 1678 240 m -26 Y s 1723 240 m -26 Y s 1769 240 m -26 Y s 1814 266 m -52 Y s 1860 240 m -26 Y s 1905 240 m -26 Y s 1950 240 m -26 Y s 1996 240 m -26 Y s 2041 266 m -52 Y s 227 214 m 1716 Y s
 281 214 m -54 X s 254 250 m -27 X s 254 285 m -27 X s 254 320 m -27 X s 254 355 m -27 X s 281 390 m -54 X s 254 425 m -27 X s 254 460 m -27 X s 254 495 m -27 X s 254 530 m -27 X s 281 565 m -54 X s 254 600 m -27 X s 254 635 m -27 X s 254 670 m -27 X
 s 254 705 m -27 X s 281 740 m -54 X s 254 775 m -27 X s 254 810 m -27 X s 254 845 m -27 X s 254 880 m -27 X s 281 915 m -54 X s 254 950 m -27 X s 254 985 m -27 X s 254 1021 m -27 X s 254 1056 m -27 X s 281 1091 m -54 X s 254 1126 m -27 X s 254 1161
 m -27 X s 254 1196 m -27 X s 254 1231 m -27 X s 281 1266 m -54 X s 254 1301 m -27 X s 254 1336 m -27 X s 254 1371 m -27 X s 254 1406 m -27 X s 281 1441 m -54 X s 254 1476 m -27 X s 254 1511 m -27 X s 254 1546 m -27 X s 254 1581 m -27 X s 281 1616 m
 -54 X s 254 1651 m -27 X s 254 1686 m -27 X s 254 1721 m -27 X s 254 1757 m -27 X s 281 1792 m -54 X s 281 1792 m -54 X s 254 1827 m -27 X s 254 1862 m -27 X s 254 1897 m -27 X s 1 1 1 c black
 gsave  2268 2145 0 0 C 988.142 2040.03 t 0 r /Helvetica findfont 104.734 sf 0 0 m (Signal) show NC gr 
 gr  gr showpage
end
%%EOF
