%!PS-Adobe-2.0 EPSF-2.0
%%BoundingBox:  0 0 567 176
%%Title: ./plots/chi2Nfit_pull.eps: pull_test
%%Creator: ROOT Version 6.11/01
%%CreationDate: Fri Sep 29 17:42:19 2017
%%DocumentNeededResources: ProcSet (FontSetInit)
%%EndComments
%%BeginProlog
80 dict begin
/s {stroke} def /l {lineto} def /m {moveto} def /t {translate} def
/r {rotate} def /rl {roll}  def /R {repeat} def
/d {rlineto} def /rm {rmoveto} def /gr {grestore} def /f {eofill} def
/c {setrgbcolor} def /black {0 setgray} def /sd {setdash} def
/cl {closepath} def /sf {scalefont setfont} def /lw {setlinewidth} def
/box {m dup 0 exch d exch 0 d 0 exch neg d cl} def
/NC{systemdict begin initclip end}def/C{NC box clip newpath}def
/bl {box s} def /bf {gsave box gsave f grestore 1 lw [] 0 sd s grestore} def /Y { 0 exch d} def /X { 0 d} def 
/K {{pop pop 0 moveto} exch kshow} bind def
/ita {/ang 15 def gsave [1 0 ang dup sin exch cos div 1 0 0] concat} def 
/mp {newpath /y exch def /x exch def} def
/side {[w .77 mul w .23 mul] .385 w mul sd w 0 l currentpoint t -144 r} def
/mr {mp x y w2 0 360 arc} def /m24 {mr s} def /m20 {mr f} def
/mb {mp x y w2 add m w2 neg 0 d 0 w neg d w 0 d 0 w d cl} def
/mt {mp x y w2 add m w2 neg w neg d w 0 d cl} def
/w4 {w 4 div} def
/w6 {w 6 div} def
/w8 {w 8 div} def
/m21 {mb f} def /m25 {mb s} def /m22 {mt f} def /m26{mt s} def
/m23 {mp x y w2 sub m w2 w d w neg 0 d cl f} def
/m27 {mp x y w2 add m w3 neg w2 neg d w3 w2 neg d w3 w2 d cl s} def
/m28 {mp x w2 sub y w2 sub w3 add m w3 0 d  0 w3 neg d w3 0 d 0 w3 d w3 0 d  0 w3 d w3 neg 0 d 0 w3 d w3 neg 0 d 0 w3 neg d w3 neg 0 d cl s } def
/m29 {mp gsave x w2 sub y w2 add w3 sub m currentpoint t 4 {side} repeat cl fill gr} def
/m30 {mp gsave x w2 sub y w2 add w3 sub m currentpoint t 4 {side} repeat cl s gr} def
/m31 {mp x y w2 sub m 0 w d x w2 sub y m w 0 d x w2 sub y w2 add m w w neg d x w2 sub y w2 sub m w w d s} def
/m32 {mp x y w2 sub m w2 w d w neg 0 d cl s} def
/m33 {mp x y w2 add m w3 neg w2 neg d w3 w2 neg d w3 w2 d cl f} def
/m34 {mp x w2 sub y w2 sub w3 add m w3 0 d  0 w3 neg d w3 0 d 0 w3 d w3 0 d  0 w3 d w3 neg 0 d 0 w3 d w3 neg 0 d 0 w3 neg d w3 neg 0 d cl f } def
/m35 {mp x y w2 add m w2 neg w2 neg d w2 w2 neg d w2 w2 d w2 neg w2 d x y w2 sub m 0 w d x w2 sub y m w 0 d s} def
/m36 {mb x w2 sub y w2 add m w w neg d x w2 sub y w2 sub m w w d s} def
/m37 {mp x y m w4 neg w2 d w4 neg w2 neg d w2 0 d  w4 neg w2 neg d w2 0 d w4 neg w2 d w2 0 d w4 neg w2 d w4 neg w2 neg d cl s} def
/m38 {mp x w4 sub y w2 add m w4 neg w4 neg d 0 w2 neg d w4 w4 neg d w2 0 d w4 w4 d 0 w2 d w4 neg w4 d w2 neg 0 d x y w2 sub m 0 w d x w2 sub y m w 0 d cl s} def
/m39 {mp x y m w4 neg w2 d w4 neg w2 neg d w2 0 d  w4 neg w2 neg d w2 0 d w4 neg w2 d w2 0 d w4 neg w2 d w4 neg w2 neg d cl f} def
/m40 {mp x y m w4 w2 d w4 w4 neg d w2 neg w4 neg d w2 w4 neg d w4 neg w4 neg d w4 neg w2 d w4 neg w2 neg d w4 neg w4 d w2 w4 d w2 neg w4 d w4 w4 d w4 w2 neg d cl s} def
/m41 {mp x y m w4 w2 d w4 w4 neg d w2 neg w4 neg d w2 w4 neg d w4 neg w4 neg d w4 neg w2 d w4 neg w2 neg d w4 neg w4 d w2 w4 d w2 neg w4 d w4 w4 d w4 w2 neg d cl f} def
/m42 {mp x y w2 add m w8 neg w2 -3 4 div mul d w2 -3 4 div mul w8 neg d w2 3 4 div mul w8 neg d w8 w2 -3 4 div mul d w8 w2 3 4 div mul d w2 3 4 div mul w8 d w2 -3 4 div mul w8 d w8 neg w2 3 4 div mul d cl s} def
/m43 {mp x y w2 add m w8 neg w2 -3 4 div mul d w2 -3 4 div mul w8 neg d w2 3 4 div mul w8 neg d w8 w2 -3 4 div mul d w8 w2 3 4 div mul d w2 3 4 div mul w8 d w2 -3 4 div mul w8 d w8 neg w2 3 4 div mul d cl f} def
/m44 {mp x y m w6 neg w2 d w2 2 3 div mul 0 d w6 neg w2 neg d w2 w6 d 0 w2 -2 3 div mul d w2 neg w6 d w6 w2 neg d w2 -2 3 div mul 0 d w6 w2 d w2 neg w6 neg d 0 w2 2 3 div mul d w2 w6 neg d cl s} def
/m45 {mp x y m w6 neg w2 d w2 2 3 div mul 0 d w6 neg w2 neg d w2 w6 d 0 w2 -2 3 div mul d w2 neg w6 d w6 w2 neg d w2 -2 3 div mul 0 d w6 w2 d w2 neg w6 neg d 0 w2 2 3 div mul d w2 w6 neg d cl f} def
/m46 {mp x y w4 add m w4 neg w4 d w4 neg w4 neg d  w4 w4 neg d w4 neg w4 neg d w4 w4 neg d w4 w4 d w4 w4 neg d w4 w4 d w4 neg w4 d w4 w4 d w4 neg w4 d w4 neg w4 neg d cl s} def
/m47 {mp x y w4 add m w4 neg w4 d w4 neg w4 neg d w4 w4 neg d w4 neg w4 neg d  w4 w4 neg d w4 w4 d w4 w4 neg d w4 w4 d w4 neg w4 d w4 w4 d w4 neg w4 d w4 neg w4 neg d cl f} def
/m48 {mp x y w4 add m w4 neg w4 d w4 neg w4 neg d w4 w4 neg d  w4 neg w4 neg d w4 w4 neg d w4 w4 d w4 w4 neg d w4 w4 d w4 neg w4 d w4 w4 d w4 neg w4 d w4 neg w4 neg d  w4 w4 neg d w4 neg w4 neg d w4 neg w4 d w4 w4 d cl f} def
/m49 {mp x w2 sub w3 add y w2 sub w3 add m  0 w3 neg d w3 0 d 0 w3 d w3 0 d 0 w3 d w3 neg 0 d 0 w3 d w3 neg 0 d 0 w3 neg d w3 neg 0 d 0 w3 neg d w3 0 d 0 w3 d w3 0 d 0 w3 neg d w3 neg 0 d cl f } def
/m2 {mp x y w2 sub m 0 w d x w2 sub y m w 0 d s} def
/m5 {mp x w2 sub y w2 sub m w w d x w2 sub y w2 add m w w neg d s} def
%%IncludeResource: ProcSet (FontSetInit)
%%IncludeResource: font Times-Roman
%%IncludeResource: font Times-Italic
%%IncludeResource: font Times-Bold
%%IncludeResource: font Times-BoldItalic
%%IncludeResource: font Helvetica
%%IncludeResource: font Helvetica-Oblique
%%IncludeResource: font Helvetica-Bold
%%IncludeResource: font Helvetica-BoldOblique
%%IncludeResource: font Courier
%%IncludeResource: font Courier-Oblique
%%IncludeResource: font Courier-Bold
%%IncludeResource: font Courier-BoldOblique
%%IncludeResource: font Symbol
%%IncludeResource: font ZapfDingbats
/reEncode {exch findfont dup length dict begin {1 index /FID eq  {pop pop} {def} ifelse } forall /Encoding exch def currentdict end dup /FontName get exch definefont pop } def [/Times-Bold /Times-Italic /Times-BoldItalic /Helvetica /Helvetica-Oblique
 /Helvetica-Bold /Helvetica-BoldOblique /Courier /Courier-Oblique /Courier-Bold /Courier-BoldOblique /Times-Roman /AvantGarde-Book /AvantGarde-BookOblique /AvantGarde-Demi /AvantGarde-DemiOblique /Bookman-Demi /Bookman-DemiItalic /Bookman-Light
 /Bookman-LightItalic /Helvetica-Narrow /Helvetica-Narrow-Bold /Helvetica-Narrow-BoldOblique /Helvetica-Narrow-Oblique /NewCenturySchlbk-Roman /NewCenturySchlbk-Bold /NewCenturySchlbk-BoldItalic /NewCenturySchlbk-Italic /Palatino-Bold
 /Palatino-BoldItalic /Palatino-Italic /Palatino-Roman ] {ISOLatin1Encoding reEncode } forall
%%EndProlog
%%BeginSetup
%%EndSetup
newpath  gsave  .25 .25 scale  gsave  0 0 t black[  ] 0 sd 3 lw 1 1 1 c 2268 702 0 0 bf black 1 1 1 c 1088 688 23 7 bf black 1 1 1 c 816 550 186 76 bf black 816 550 186 76 bl 186 76 m 816 X s 186 91 m -15 Y s 206 84 m -8 Y s 227 84 m -8 Y s 247 84 m
 -8 Y s 268 84 m -8 Y s 288 91 m -15 Y s 308 84 m -8 Y s 329 84 m -8 Y s 349 84 m -8 Y s 370 84 m -8 Y s 390 91 m -15 Y s 410 84 m -8 Y s 431 84 m -8 Y s 451 84 m -8 Y s 472 84 m -8 Y s 492 91 m -15 Y s 513 84 m -8 Y s 533 84 m -8 Y s 553 84 m -8 Y s
 574 84 m -8 Y s 594 91 m -15 Y s 615 84 m -8 Y s 635 84 m -8 Y s 655 84 m -8 Y s 676 84 m -8 Y s 696 91 m -15 Y s 717 84 m -8 Y s 737 84 m -8 Y s 757 84 m -8 Y s 778 84 m -8 Y s 798 91 m -15 Y s 819 84 m -8 Y s 839 84 m -8 Y s 859 84 m -8 Y s 880 84
 m -8 Y s 900 91 m -15 Y s 921 84 m -8 Y s 941 84 m -8 Y s 962 84 m -8 Y s 982 84 m -8 Y s 1002 91 m -15 Y s
 gsave  1088 688 23 7 C 183.613 54.8946 t 0 r /Helvetica findfont 22.7513 sf 0 0 m (2) show NC gr 
 gsave  1088 688 23 7 C 172.256 54.8946 t 0 r /Symbol findfont 22.7513 sf 0 0 m (-) show NC gr 
 gsave  1088 688 23 7 C 276.366 54.8946 t 0 r /Helvetica findfont 22.7513 sf 0 0 m (1.5) show NC gr 
 gsave  1088 688 23 7 C 265.009 54.8946 t 0 r /Symbol findfont 22.7513 sf 0 0 m (-) show NC gr 
 gsave  1088 688 23 7 C 389.941 54.8946 t 0 r /Helvetica findfont 22.7513 sf 0 0 m (1) show NC gr 
 gsave  1088 688 23 7 C 378.584 54.8946 t 0 r /Symbol findfont 22.7513 sf 0 0 m (-) show NC gr 
 gsave  1088 688 23 7 C 478.908 54.8946 t 0 r /Helvetica findfont 22.7513 sf 0 0 m (0.5) show NC gr 
 gsave  1088 688 23 7 C 467.551 54.8946 t 0 r /Symbol findfont 22.7513 sf 0 0 m (-) show NC gr 
 gsave  1088 688 23 7 C 584.912 54.8946 t 0 r /Helvetica findfont 22.7513 sf 0 0 m (0) show NC gr 
 gsave  1088 688 23 7 C 677.665 54.8946 t 0 r /Helvetica findfont 22.7513 sf 0 0 m (0.5) show NC gr 
 gsave  1088 688 23 7 C 791.24 54.8946 t 0 r /Helvetica findfont 22.7513 sf 0 0 m (1) show NC gr 
 gsave  1088 688 23 7 C 882.1 54.8946 t 0 r /Helvetica findfont 22.7513 sf 0 0 m (1.5) show NC gr 
 gsave  1088 688 23 7 C 993.782 54.8946 t 0 r /Helvetica findfont 22.7513 sf 0 0 m (2) show NC gr 
 gsave  1088 688 23 7 C 989.996 30.2867 t 0 r /Helvetica findfont 22.7513 sf 0 0 m (x) show NC gr  186 76 m 550 Y s 212 76 m -26 X s 199 87 m -13 X s 199 98 m -13 X s 199 110 m -13 X s 199 121 m -13 X s 212 132 m -26 X s 199 144 m -13 X s 199 155 m
 -13 X s 199 166 m -13 X s 199 178 m -13 X s 212 189 m -26 X s 199 200 m -13 X s 199 212 m -13 X s 199 223 m -13 X s 199 234 m -13 X s 212 245 m -26 X s 199 257 m -13 X s 199 268 m -13 X s 199 279 m -13 X s 199 291 m -13 X s 212 302 m -26 X s 199 313
 m -13 X s 199 325 m -13 X s 199 336 m -13 X s 199 347 m -13 X s 212 358 m -26 X s 199 370 m -13 X s 199 381 m -13 X s 199 392 m -13 X s 199 404 m -13 X s 212 415 m -26 X s 199 426 m -13 X s 199 438 m -13 X s 199 449 m -13 X s 199 460 m -13 X s 212
 472 m -26 X s 199 483 m -13 X s 199 494 m -13 X s 199 505 m -13 X s 199 517 m -13 X s 212 528 m -26 X s 199 539 m -13 X s 199 551 m -13 X s 199 562 m -13 X s 199 573 m -13 X s 212 585 m -26 X s 212 585 m -26 X s 199 596 m -13 X s 199 607 m -13 X s
 199 619 m -13 X s
 gsave  1088 688 23 7 C 166.577 68.1451 t 0 r /Helvetica findfont 22.7513 sf 0 0 m (0) show NC gr 
 gsave  1088 688 23 7 C 147.648 123.04 t 0 r /Helvetica findfont 22.7513 sf 0 0 m (0.5) show NC gr 
 gsave  1088 688 23 7 C 170.363 179.827 t 0 r /Helvetica findfont 22.7513 sf 0 0 m (1) show NC gr 
 gsave  1088 688 23 7 C 147.648 236.615 t 0 r /Helvetica findfont 22.7513 sf 0 0 m (1.5) show NC gr 
 gsave  1088 688 23 7 C 166.577 293.402 t 0 r /Helvetica findfont 22.7513 sf 0 0 m (2) show NC gr 
 gsave  1088 688 23 7 C 147.648 350.19 t 0 r /Helvetica findfont 22.7513 sf 0 0 m (2.5) show NC gr 
 gsave  1088 688 23 7 C 166.577 406.978 t 0 r /Helvetica findfont 22.7513 sf 0 0 m (3) show NC gr 
 gsave  1088 688 23 7 C 147.648 463.765 t 0 r /Helvetica findfont 22.7513 sf 0 0 m (3.5) show NC gr 
 gsave  1088 688 23 7 C 166.577 518.66 t 0 r /Helvetica findfont 22.7513 sf 0 0 m (4) show NC gr 
 gsave  1088 688 23 7 C 147.648 575.447 t 0 r /Helvetica findfont 22.7513 sf 0 0 m (4.5) show NC gr 
 gsave  1088 688 23 7 C 94.6459 478.908 t 90 r /Helvetica findfont 22.7513 sf 0 0 m (Events / \( 0.4 \)) show NC gr  1 1 1 c black
 gsave  1088 688 23 7 C 458.086 662.521 t 0 r /Helvetica findfont 30.3351 sf 0 0 m (A RooPlot of "x") show NC gr  227 76 m -41 X s 186 76 m 4 Y s 227 76 m 41 X s 268 76 m 4 Y s 227 76 m 130 Y s 223 206 m 8 X s 308 76 m -40 X s 268 76 m 4 Y s 308 76 m
 41 X s 349 76 m 4 Y s 308 76 m 130 Y s 305 206 m 7 X s 390 76 m -41 X s 349 76 m 4 Y s 390 76 m 41 X s 431 76 m 4 Y s 390 76 m 130 Y s 386 206 m 8 X s 472 76 m -41 X s 431 76 m 4 Y s 472 76 m 41 X s 513 76 m 4 Y s 472 76 m 130 Y s 468 206 m 7 X s
 553 302 m -40 X s 513 298 m 8 Y s 553 302 m 41 X s 594 298 m 8 Y s 553 302 m 298 Y s 550 600 m 7 X s 553 302 m -146 Y s 550 156 m 7 X s 635 189 m -41 X s 594 185 m 8 Y s 635 189 m 41 X s 676 185 m 8 Y s 635 189 m 260 Y s 631 449 m 8 X s 635 189 m
 -94 Y s 631 95 m 8 X s 717 76 m -41 X s 676 76 m 4 Y s 717 76 m 40 X s 757 76 m 4 Y s 717 76 m 130 Y s 713 206 m 7 X s 798 76 m -41 X s 757 76 m 4 Y s 798 76 m 41 X s 839 76 m 4 Y s 798 76 m 130 Y s 794 206 m 8 X s 880 76 m -41 X s 839 76 m 4 Y s
 880 76 m 41 X s 921 76 m 4 Y s 880 76 m 130 Y s 876 206 m 8 X s 962 76 m -41 X s 921 76 m 4 Y s 962 76 m 40 X s 1002 76 m 4 Y s 962 76 m 130 Y s 958 206 m 7 X s /w 15 def /w2 {w 2 div} def /w3 {w 3 div} def 227 76 308 76 390 76 472 76 553 302 635
 189 717 76 798 76 880 76 962 76 10 { m20} R 0 0 1 c[ 4 8] 0 sd 9 lw black 0 0 1 c 186 84 m cl s 186 84 m 8 X 8 1 d 8 1 d 9 X 8 1 d 8 1 d 8 1 d 8 1 d 8 1 d 9 1 d 8 1 d 8 1 d 8 1 d 8 1 d 8 1 d 9 1 d 8 2 d 8 1 d 8 1 d 8 1 d 8 2 d 9 1 d 8 1 d 8 2 d 8 1
 d 8 2 d 8 1 d 9 1 d 8 2 d 8 1 d 8 1 d 8 2 d 8 1 d 9 1 d 8 1 d 8 1 d 8 1 d 8 1 d 8 1 d 9 1 d 8 1 d 8 1 d 8 X 8 1 d 8 X 8 1 d 17 X 8 1 d 16 X 8 -1 d 17 X 8 -1 d 8 X 8 -1 d 8 X 9 -1 d 8 -1 d 8 -1 d 8 -1 d 8 -1 d 8 -1 d 9 -1 d 8 -1 d 8 -1 d 8 -1 d 8 -2
 d 8 -1 d 9 -1 d 8 -2 d 8 -1 d 8 -1 d 8 -2 d 8 -1 d 9 -2 d 8 -1 d 8 -1 d 8 -2 d 8 -1 d 8 -1 d 9 -1 d 8 -2 d 8 -1 d 8 -1 d 8 -1 d 8 -1 d 9 -1 d 8 -1 d 8 -1 d 8 -1 d 8 -1 d 8 -1 d 9 -1 d 8 -1 d 8 X 8 -1 d 8 -1 d 8 X s[ 12 12] 0 sd black 0 0 1 c 186 82
 m cl s 186 82 m 8 X 8 1 d 8 1 d 9 X 8 1 d 8 X 8 1 d 8 1 d 8 1 d 9 X 8 1 d 8 1 d 8 1 d 8 1 d 8 1 d 9 1 d 8 1 d 8 1 d 8 1 d 8 1 d 8 1 d 9 1 d 8 1 d 8 1 d 8 1 d 8 1 d 8 1 d 9 1 d 8 2 d 8 1 d 8 1 d 8 1 d 8 1 d 9 1 d 8 1 d 8 X 8 1 d 8 1 d 8 1 d 9 X 8 1 d
 8 1 d 8 X 8 1 d 16 X 9 1 d 49 X 8 -1 d 16 X 8 -1 d 8 X 9 -1 d 8 -1 d 8 X 8 -1 d 8 -1 d 8 -1 d 9 X 8 -1 d 8 -1 d 8 -1 d 8 -1 d 8 -1 d 9 -1 d 8 -2 d 8 -1 d 8 -1 d 8 -1 d 8 -1 d 9 -1 d 8 -1 d 8 -1 d 8 -1 d 8 -1 d 8 -1 d 9 -1 d 8 -1 d 8 -1 d 8 -1 d 8 -1
 d 8 -1 d 9 -1 d 8 -1 d 8 X 8 -1 d 8 -1 d 8 -1 d 9 X 8 -1 d 8 X 8 -1 d 8 -1 d 8 X s[  ] 0 sd black 0 0 1 c 186 94 m cl s 186 94 m 8 2 d 8 1 d 8 2 d 9 2 d 8 2 d 8 2 d 8 2 d 8 2 d 8 2 d 9 2 d 8 3 d 8 2 d 8 3 d 8 3 d 8 2 d 9 3 d 8 3 d 8 3 d 8 3 d 8 4 d
 8 3 d 9 3 d 8 3 d 8 3 d 8 4 d 8 3 d 8 3 d 9 3 d 8 4 d 8 3 d 8 3 d 8 3 d 8 3 d 9 3 d 8 3 d 8 2 d 8 3 d 8 2 d 8 2 d 9 2 d 8 2 d 8 2 d 8 2 d 8 1 d 8 1 d 8 1 d 9 1 d 8 X 8 1 d 16 X 8 -1 d 9 X 8 -1 d 8 -1 d 8 -1 d 8 -1 d 8 -2 d 9 -2 d 8 -2 d 8 -2 d 8 -2
 d 8 -2 d 8 -3 d 9 -2 d 8 -3 d 8 -3 d 8 -3 d 8 -3 d 8 -3 d 9 -3 d 8 -4 d 8 -3 d 8 -3 d 8 -3 d 8 -4 d 9 -3 d 8 -3 d 8 -3 d 8 -3 d 8 -4 d 8 -3 d 9 -3 d 8 -3 d 8 -3 d 8 -2 d 8 -3 d 8 -3 d 9 -2 d 8 -3 d 8 -2 d 8 -2 d 8 -2 d 8 -2 d 9 -2 d 8 -2 d 8 -2 d 8
 -2 d 8 -1 d 8 -2 d s black 3 lw 186 76 m 816 X s 186 91 m -15 Y s 206 84 m -8 Y s 227 84 m -8 Y s 247 84 m -8 Y s 268 84 m -8 Y s 288 91 m -15 Y s 308 84 m -8 Y s 329 84 m -8 Y s 349 84 m -8 Y s 370 84 m -8 Y s 390 91 m -15 Y s 410 84 m -8 Y s 431
 84 m -8 Y s 451 84 m -8 Y s 472 84 m -8 Y s 492 91 m -15 Y s 513 84 m -8 Y s 533 84 m -8 Y s 553 84 m -8 Y s 574 84 m -8 Y s 594 91 m -15 Y s 615 84 m -8 Y s 635 84 m -8 Y s 655 84 m -8 Y s 676 84 m -8 Y s 696 91 m -15 Y s 717 84 m -8 Y s 737 84 m
 -8 Y s 757 84 m -8 Y s 778 84 m -8 Y s 798 91 m -15 Y s 819 84 m -8 Y s 839 84 m -8 Y s 859 84 m -8 Y s 880 84 m -8 Y s 900 91 m -15 Y s 921 84 m -8 Y s 941 84 m -8 Y s 962 84 m -8 Y s 982 84 m -8 Y s 1002 91 m -15 Y s 186 76 m 550 Y s 212 76 m -26
 X s 199 87 m -13 X s 199 98 m -13 X s 199 110 m -13 X s 199 121 m -13 X s 212 132 m -26 X s 199 144 m -13 X s 199 155 m -13 X s 199 166 m -13 X s 199 178 m -13 X s 212 189 m -26 X s 199 200 m -13 X s 199 212 m -13 X s 199 223 m -13 X s 199 234 m -13
 X s 212 245 m -26 X s 199 257 m -13 X s 199 268 m -13 X s 199 279 m -13 X s 199 291 m -13 X s 212 302 m -26 X s 199 313 m -13 X s 199 325 m -13 X s 199 336 m -13 X s 199 347 m -13 X s 212 358 m -26 X s 199 370 m -13 X s 199 381 m -13 X s 199 392 m
 -13 X s 199 404 m -13 X s 212 415 m -26 X s 199 426 m -13 X s 199 438 m -13 X s 199 449 m -13 X s 199 460 m -13 X s 212 472 m -26 X s 199 483 m -13 X s 199 494 m -13 X s 199 505 m -13 X s 199 517 m -13 X s 212 528 m -26 X s 199 539 m -13 X s 199 551
 m -13 X s 199 562 m -13 X s 199 573 m -13 X s 212 585 m -26 X s 212 585 m -26 X s 199 596 m -13 X s 199 607 m -13 X s 199 619 m -13 X s 1 1 1 c black
 gsave  1088 688 23 7 C 458.086 662.521 t 0 r /Helvetica findfont 30.3351 sf 0 0 m (A RooPlot of "x") show NC gr  1 1 1 c 1088 688 1157 7 bf black 1 1 1 c 816 550 1320 76 bf black 816 550 1320 76 bl 1320 76 m 816 X s 1320 91 m -15 Y s 1340 84 m -8 Y
 s 1361 84 m -8 Y s 1381 84 m -8 Y s 1401 84 m -8 Y s 1422 91 m -15 Y s 1442 84 m -8 Y s 1463 84 m -8 Y s 1483 84 m -8 Y s 1503 84 m -8 Y s 1524 91 m -15 Y s 1544 84 m -8 Y s 1565 84 m -8 Y s 1585 84 m -8 Y s 1606 84 m -8 Y s 1626 91 m -15 Y s 1646
 84 m -8 Y s 1667 84 m -8 Y s 1687 84 m -8 Y s 1708 84 m -8 Y s 1728 91 m -15 Y s 1748 84 m -8 Y s 1769 84 m -8 Y s 1789 84 m -8 Y s 1810 84 m -8 Y s 1830 91 m -15 Y s 1850 84 m -8 Y s 1871 84 m -8 Y s 1891 84 m -8 Y s 1912 84 m -8 Y s 1932 91 m -15
 Y s 1953 84 m -8 Y s 1973 84 m -8 Y s 1993 84 m -8 Y s 2014 84 m -8 Y s 2034 91 m -15 Y s 2055 84 m -8 Y s 2075 84 m -8 Y s 2095 84 m -8 Y s 2116 84 m -8 Y s 2136 91 m -15 Y s
 gsave  1088 688 1157 7 C 1317.47 54.8946 t 0 r /Helvetica findfont 22.7513 sf 0 0 m (2) show NC gr 
 gsave  1088 688 1157 7 C 1306.11 54.8946 t 0 r /Symbol findfont 22.7513 sf 0 0 m (-) show NC gr 
 gsave  1088 688 1157 7 C 1410.22 54.8946 t 0 r /Helvetica findfont 22.7513 sf 0 0 m (1.5) show NC gr 
 gsave  1088 688 1157 7 C 1398.87 54.8946 t 0 r /Symbol findfont 22.7513 sf 0 0 m (-) show NC gr 
 gsave  1088 688 1157 7 C 1523.8 54.8946 t 0 r /Helvetica findfont 22.7513 sf 0 0 m (1) show NC gr 
 gsave  1088 688 1157 7 C 1512.44 54.8946 t 0 r /Symbol findfont 22.7513 sf 0 0 m (-) show NC gr 
 gsave  1088 688 1157 7 C 1612.77 54.8946 t 0 r /Helvetica findfont 22.7513 sf 0 0 m (0.5) show NC gr 
 gsave  1088 688 1157 7 C 1601.41 54.8946 t 0 r /Symbol findfont 22.7513 sf 0 0 m (-) show NC gr 
 gsave  1088 688 1157 7 C 1718.77 54.8946 t 0 r /Helvetica findfont 22.7513 sf 0 0 m (0) show NC gr 
 gsave  1088 688 1157 7 C 1811.52 54.8946 t 0 r /Helvetica findfont 22.7513 sf 0 0 m (0.5) show NC gr 
 gsave  1088 688 1157 7 C 1925.1 54.8946 t 0 r /Helvetica findfont 22.7513 sf 0 0 m (1) show NC gr 
 gsave  1088 688 1157 7 C 2015.96 54.8946 t 0 r /Helvetica findfont 22.7513 sf 0 0 m (1.5) show NC gr 
 gsave  1088 688 1157 7 C 2127.64 54.8946 t 0 r /Helvetica findfont 22.7513 sf 0 0 m (2) show NC gr 
 gsave  1088 688 1157 7 C 2123.85 30.2867 t 0 r /Helvetica findfont 22.7513 sf 0 0 m (x) show NC gr  1320 76 m 550 Y s 1346 76 m -26 X s 1333 102 m -13 X s 1333 128 m -13 X s 1333 155 m -13 X s 1346 181 m -26 X s 1333 207 m -13 X s 1333 233 m -13 X s
 1333 259 m -13 X s 1346 286 m -26 X s 1333 312 m -13 X s 1333 338 m -13 X s 1333 364 m -13 X s 1346 390 m -26 X s 1333 417 m -13 X s 1333 443 m -13 X s 1333 469 m -13 X s 1346 495 m -26 X s 1333 522 m -13 X s 1333 548 m -13 X s 1333 574 m -13 X s
 1346 600 m -26 X s 1346 600 m -26 X s
 gsave  1088 688 1157 7 C 1300.44 68.1451 t 0 r /Helvetica findfont 22.7513 sf 0 0 m (0) show NC gr 
 gsave  1088 688 1157 7 C 1281.51 172.256 t 0 r /Helvetica findfont 22.7513 sf 0 0 m (0.2) show NC gr 
 gsave  1088 688 1157 7 C 1281.51 276.366 t 0 r /Helvetica findfont 22.7513 sf 0 0 m (0.4) show NC gr 
 gsave  1088 688 1157 7 C 1281.51 382.37 t 0 r /Helvetica findfont 22.7513 sf 0 0 m (0.6) show NC gr 
 gsave  1088 688 1157 7 C 1281.51 486.48 t 0 r /Helvetica findfont 22.7513 sf 0 0 m (0.8) show NC gr 
 gsave  1088 688 1157 7 C 1304.22 592.484 t 0 r /Helvetica findfont 22.7513 sf 0 0 m (1) show NC gr 
 gsave  1088 688 1157 7 C 1228.5 444.836 t 90 r /Helvetica findfont 22.7513 sf 0 0 m (Projection of gaus) show NC gr  1 1 1 c black
 gsave  1088 688 1157 7 C 1591.94 662.521 t 0 r /Helvetica findfont 30.3351 sf 0 0 m (A RooPlot of "x") show NC gr  0 0 1 c 9 lw black 0 0 1 c 1320 76 m cl s 1320 76 m 400 X 8 2147483572 d 8 -2147483572 d 400 X s black 3 lw 1320 76 m 816 X s 1320 91
 m -15 Y s 1340 84 m -8 Y s 1361 84 m -8 Y s 1381 84 m -8 Y s 1401 84 m -8 Y s 1422 91 m -15 Y s 1442 84 m -8 Y s 1463 84 m -8 Y s 1483 84 m -8 Y s 1503 84 m -8 Y s 1524 91 m -15 Y s 1544 84 m -8 Y s 1565 84 m -8 Y s 1585 84 m -8 Y s 1606 84 m -8 Y s
 1626 91 m -15 Y s 1646 84 m -8 Y s 1667 84 m -8 Y s 1687 84 m -8 Y s 1708 84 m -8 Y s 1728 91 m -15 Y s 1748 84 m -8 Y s 1769 84 m -8 Y s 1789 84 m -8 Y s 1810 84 m -8 Y s 1830 91 m -15 Y s 1850 84 m -8 Y s 1871 84 m -8 Y s 1891 84 m -8 Y s 1912 84
 m -8 Y s 1932 91 m -15 Y s 1953 84 m -8 Y s 1973 84 m -8 Y s 1993 84 m -8 Y s 2014 84 m -8 Y s 2034 91 m -15 Y s 2055 84 m -8 Y s 2075 84 m -8 Y s 2095 84 m -8 Y s 2116 84 m -8 Y s 2136 91 m -15 Y s 1320 76 m 550 Y s 1346 76 m -26 X s 1333 102 m -13
 X s 1333 128 m -13 X s 1333 155 m -13 X s 1346 181 m -26 X s 1333 207 m -13 X s 1333 233 m -13 X s 1333 259 m -13 X s 1346 286 m -26 X s 1333 312 m -13 X s 1333 338 m -13 X s 1333 364 m -13 X s 1346 390 m -26 X s 1333 417 m -13 X s 1333 443 m -13 X
 s 1333 469 m -13 X s 1346 495 m -26 X s 1333 522 m -13 X s 1333 548 m -13 X s 1333 574 m -13 X s 1346 600 m -26 X s 1346 600 m -26 X s 1 1 1 c black
 gsave  1088 688 1157 7 C 1591.94 662.521 t 0 r /Helvetica findfont 30.3351 sf 0 0 m (A RooPlot of "x") show NC gr 
 gr  gr showpage
end
%%EOF
