inFile1: 0x39988e0
#### Signal ####
meanSig: 5.28045
sigmSig1: 0.0023324
sigmSig2: 0.00283087
weiSig: 0.493297
#### Background ####
sigmBg: 0.00292884
argpar: -32.9981
weiBg: 0.390958
#### Signal + Background #### 
nS: 14138.3
nB: 2436.72
####################
