%!PS-Adobe-2.0 EPSF-2.0
%%BoundingBox:  0 0 567 178
%%Title: ./plots/pAll_s0s1_s2.eps: rf101_basics
%%Creator: ROOT Version 6.11/01
%%CreationDate: Sat Sep 23 20:37:54 2017
%%DocumentNeededResources: ProcSet (FontSetInit)
%%EndComments
%%BeginProlog
80 dict begin
/s {stroke} def /l {lineto} def /m {moveto} def /t {translate} def
/r {rotate} def /rl {roll}  def /R {repeat} def
/d {rlineto} def /rm {rmoveto} def /gr {grestore} def /f {eofill} def
/c {setrgbcolor} def /black {0 setgray} def /sd {setdash} def
/cl {closepath} def /sf {scalefont setfont} def /lw {setlinewidth} def
/box {m dup 0 exch d exch 0 d 0 exch neg d cl} def
/NC{systemdict begin initclip end}def/C{NC box clip newpath}def
/bl {box s} def /bf {gsave box gsave f grestore 1 lw [] 0 sd s grestore} def /Y { 0 exch d} def /X { 0 d} def 
/K {{pop pop 0 moveto} exch kshow} bind def
/ita {/ang 15 def gsave [1 0 ang dup sin exch cos div 1 0 0] concat} def 
/mp {newpath /y exch def /x exch def} def
/side {[w .77 mul w .23 mul] .385 w mul sd w 0 l currentpoint t -144 r} def
/mr {mp x y w2 0 360 arc} def /m24 {mr s} def /m20 {mr f} def
/mb {mp x y w2 add m w2 neg 0 d 0 w neg d w 0 d 0 w d cl} def
/mt {mp x y w2 add m w2 neg w neg d w 0 d cl} def
/w4 {w 4 div} def
/w6 {w 6 div} def
/w8 {w 8 div} def
/m21 {mb f} def /m25 {mb s} def /m22 {mt f} def /m26{mt s} def
/m23 {mp x y w2 sub m w2 w d w neg 0 d cl f} def
/m27 {mp x y w2 add m w3 neg w2 neg d w3 w2 neg d w3 w2 d cl s} def
/m28 {mp x w2 sub y w2 sub w3 add m w3 0 d  0 w3 neg d w3 0 d 0 w3 d w3 0 d  0 w3 d w3 neg 0 d 0 w3 d w3 neg 0 d 0 w3 neg d w3 neg 0 d cl s } def
/m29 {mp gsave x w2 sub y w2 add w3 sub m currentpoint t 4 {side} repeat cl fill gr} def
/m30 {mp gsave x w2 sub y w2 add w3 sub m currentpoint t 4 {side} repeat cl s gr} def
/m31 {mp x y w2 sub m 0 w d x w2 sub y m w 0 d x w2 sub y w2 add m w w neg d x w2 sub y w2 sub m w w d s} def
/m32 {mp x y w2 sub m w2 w d w neg 0 d cl s} def
/m33 {mp x y w2 add m w3 neg w2 neg d w3 w2 neg d w3 w2 d cl f} def
/m34 {mp x w2 sub y w2 sub w3 add m w3 0 d  0 w3 neg d w3 0 d 0 w3 d w3 0 d  0 w3 d w3 neg 0 d 0 w3 d w3 neg 0 d 0 w3 neg d w3 neg 0 d cl f } def
/m35 {mp x y w2 add m w2 neg w2 neg d w2 w2 neg d w2 w2 d w2 neg w2 d x y w2 sub m 0 w d x w2 sub y m w 0 d s} def
/m36 {mb x w2 sub y w2 add m w w neg d x w2 sub y w2 sub m w w d s} def
/m37 {mp x y m w4 neg w2 d w4 neg w2 neg d w2 0 d  w4 neg w2 neg d w2 0 d w4 neg w2 d w2 0 d w4 neg w2 d w4 neg w2 neg d cl s} def
/m38 {mp x w4 sub y w2 add m w4 neg w4 neg d 0 w2 neg d w4 w4 neg d w2 0 d w4 w4 d 0 w2 d w4 neg w4 d w2 neg 0 d x y w2 sub m 0 w d x w2 sub y m w 0 d cl s} def
/m39 {mp x y m w4 neg w2 d w4 neg w2 neg d w2 0 d  w4 neg w2 neg d w2 0 d w4 neg w2 d w2 0 d w4 neg w2 d w4 neg w2 neg d cl f} def
/m40 {mp x y m w4 w2 d w4 w4 neg d w2 neg w4 neg d w2 w4 neg d w4 neg w4 neg d w4 neg w2 d w4 neg w2 neg d w4 neg w4 d w2 w4 d w2 neg w4 d w4 w4 d w4 w2 neg d cl s} def
/m41 {mp x y m w4 w2 d w4 w4 neg d w2 neg w4 neg d w2 w4 neg d w4 neg w4 neg d w4 neg w2 d w4 neg w2 neg d w4 neg w4 d w2 w4 d w2 neg w4 d w4 w4 d w4 w2 neg d cl f} def
/m42 {mp x y w2 add m w8 neg w2 -3 4 div mul d w2 -3 4 div mul w8 neg d w2 3 4 div mul w8 neg d w8 w2 -3 4 div mul d w8 w2 3 4 div mul d w2 3 4 div mul w8 d w2 -3 4 div mul w8 d w8 neg w2 3 4 div mul d cl s} def
/m43 {mp x y w2 add m w8 neg w2 -3 4 div mul d w2 -3 4 div mul w8 neg d w2 3 4 div mul w8 neg d w8 w2 -3 4 div mul d w8 w2 3 4 div mul d w2 3 4 div mul w8 d w2 -3 4 div mul w8 d w8 neg w2 3 4 div mul d cl f} def
/m44 {mp x y m w6 neg w2 d w2 2 3 div mul 0 d w6 neg w2 neg d w2 w6 d 0 w2 -2 3 div mul d w2 neg w6 d w6 w2 neg d w2 -2 3 div mul 0 d w6 w2 d w2 neg w6 neg d 0 w2 2 3 div mul d w2 w6 neg d cl s} def
/m45 {mp x y m w6 neg w2 d w2 2 3 div mul 0 d w6 neg w2 neg d w2 w6 d 0 w2 -2 3 div mul d w2 neg w6 d w6 w2 neg d w2 -2 3 div mul 0 d w6 w2 d w2 neg w6 neg d 0 w2 2 3 div mul d w2 w6 neg d cl f} def
/m46 {mp x y w4 add m w4 neg w4 d w4 neg w4 neg d  w4 w4 neg d w4 neg w4 neg d w4 w4 neg d w4 w4 d w4 w4 neg d w4 w4 d w4 neg w4 d w4 w4 d w4 neg w4 d w4 neg w4 neg d cl s} def
/m47 {mp x y w4 add m w4 neg w4 d w4 neg w4 neg d w4 w4 neg d w4 neg w4 neg d  w4 w4 neg d w4 w4 d w4 w4 neg d w4 w4 d w4 neg w4 d w4 w4 d w4 neg w4 d w4 neg w4 neg d cl f} def
/m48 {mp x y w4 add m w4 neg w4 d w4 neg w4 neg d w4 w4 neg d  w4 neg w4 neg d w4 w4 neg d w4 w4 d w4 w4 neg d w4 w4 d w4 neg w4 d w4 w4 d w4 neg w4 d w4 neg w4 neg d  w4 w4 neg d w4 neg w4 neg d w4 neg w4 d w4 w4 d cl f} def
/m49 {mp x w2 sub w3 add y w2 sub w3 add m  0 w3 neg d w3 0 d 0 w3 d w3 0 d 0 w3 d w3 neg 0 d 0 w3 d w3 neg 0 d 0 w3 neg d w3 neg 0 d 0 w3 neg d w3 0 d 0 w3 d w3 0 d 0 w3 neg d w3 neg 0 d cl f } def
/m2 {mp x y w2 sub m 0 w d x w2 sub y m w 0 d s} def
/m5 {mp x w2 sub y w2 sub m w w d x w2 sub y w2 add m w w neg d s} def
%%IncludeResource: ProcSet (FontSetInit)
%%IncludeResource: font Times-Roman
%%IncludeResource: font Times-Italic
%%IncludeResource: font Times-Bold
%%IncludeResource: font Times-BoldItalic
%%IncludeResource: font Helvetica
%%IncludeResource: font Helvetica-Oblique
%%IncludeResource: font Helvetica-Bold
%%IncludeResource: font Helvetica-BoldOblique
%%IncludeResource: font Courier
%%IncludeResource: font Courier-Oblique
%%IncludeResource: font Courier-Bold
%%IncludeResource: font Courier-BoldOblique
%%IncludeResource: font Symbol
%%IncludeResource: font ZapfDingbats
/reEncode {exch findfont dup length dict begin {1 index /FID eq  {pop pop} {def} ifelse } forall /Encoding exch def currentdict end dup /FontName get exch definefont pop } def [/Times-Bold /Times-Italic /Times-BoldItalic /Helvetica /Helvetica-Oblique
 /Helvetica-Bold /Helvetica-BoldOblique /Courier /Courier-Oblique /Courier-Bold /Courier-BoldOblique /Times-Roman /AvantGarde-Book /AvantGarde-BookOblique /AvantGarde-Demi /AvantGarde-DemiOblique /Bookman-Demi /Bookman-DemiItalic /Bookman-Light
 /Bookman-LightItalic /Helvetica-Narrow /Helvetica-Narrow-Bold /Helvetica-Narrow-BoldOblique /Helvetica-Narrow-Oblique /NewCenturySchlbk-Roman /NewCenturySchlbk-Bold /NewCenturySchlbk-BoldItalic /NewCenturySchlbk-Italic /Palatino-Bold
 /Palatino-BoldItalic /Palatino-Italic /Palatino-Roman ] {ISOLatin1Encoding reEncode } forall
%%EndProlog
%%BeginSetup
%%EndSetup
newpath  gsave  .25 .25 scale  gsave  0 0 t black[  ] 0 sd 3 lw 1 1 1 c 2268 713 0 0 bf black 1 1 1 c 710 699 23 7 bf black 1 1 1 c 533 559 129 77 bf black 533 559 129 77 bl 1 1 1 c 533 559 129 77 bf black 533 559 129 77 bl 129 77 m 533 X s 129 93 m
 -16 Y s 143 85 m -8 Y s 156 85 m -8 Y s 169 85 m -8 Y s 183 85 m -8 Y s 196 93 m -16 Y s 209 85 m -8 Y s 223 85 m -8 Y s 236 85 m -8 Y s 249 85 m -8 Y s 262 93 m -16 Y s 276 85 m -8 Y s 289 85 m -8 Y s 302 85 m -8 Y s 316 85 m -8 Y s 329 93 m -16 Y
 s 342 85 m -8 Y s 356 85 m -8 Y s 369 85 m -8 Y s 382 85 m -8 Y s 396 93 m -16 Y s 409 85 m -8 Y s 422 85 m -8 Y s 436 85 m -8 Y s 449 85 m -8 Y s 462 93 m -16 Y s 476 85 m -8 Y s 489 85 m -8 Y s 502 85 m -8 Y s 516 85 m -8 Y s 529 93 m -16 Y s 542
 85 m -8 Y s 556 85 m -8 Y s 569 85 m -8 Y s 582 85 m -8 Y s 596 93 m -16 Y s 609 85 m -8 Y s 622 85 m -8 Y s 636 85 m -8 Y s 649 85 m -8 Y s 662 93 m -16 Y s
 gsave  710 699 23 7 C 105.968 54.4979 t 0 r /Helvetica findfont 22.736 sf 0 0 m (5.25) show NC gr 
 gsave  710 699 23 7 C 166.521 54.4979 t 0 r /Helvetica findfont 22.736 sf 0 0 m (5.255) show NC gr 
 gsave  710 699 23 7 C 239.185 54.4979 t 0 r /Helvetica findfont 22.736 sf 0 0 m (5.26) show NC gr 
 gsave  710 699 23 7 C 299.738 54.4979 t 0 r /Helvetica findfont 22.736 sf 0 0 m (5.265) show NC gr 
 gsave  710 699 23 7 C 372.402 54.4979 t 0 r /Helvetica findfont 22.736 sf 0 0 m (5.27) show NC gr 
 gsave  710 699 23 7 C 432.955 54.4979 t 0 r /Helvetica findfont 22.736 sf 0 0 m (5.275) show NC gr 
 gsave  710 699 23 7 C 505.619 54.4979 t 0 r /Helvetica findfont 22.736 sf 0 0 m (5.28) show NC gr 
 gsave  710 699 23 7 C 566.172 54.4979 t 0 r /Helvetica findfont 22.736 sf 0 0 m (5.285) show NC gr 
 gsave  710 699 23 7 C 638.836 54.4979 t 0 r /Helvetica findfont 22.736 sf 0 0 m (5.29) show NC gr 
 gsave  710 699 23 7 C 605.532 31.7904 t 0 r /Helvetica findfont 22.736 sf 0 0 m (m_bc) show NC gr  129 77 m 559 Y s 146 77 m -17 X s 138 89 m -9 X s 138 100 m -9 X s 138 112 m -9 X s 138 123 m -9 X s 146 135 m -17 X s 138 147 m -9 X s 138 158 m -9 X
 s 138 170 m -9 X s 138 181 m -9 X s 146 193 m -17 X s 138 205 m -9 X s 138 216 m -9 X s 138 228 m -9 X s 138 240 m -9 X s 146 251 m -17 X s 138 263 m -9 X s 138 274 m -9 X s 138 286 m -9 X s 138 298 m -9 X s 146 309 m -17 X s 138 321 m -9 X s 138
 332 m -9 X s 138 344 m -9 X s 138 356 m -9 X s 146 367 m -17 X s 138 379 m -9 X s 138 390 m -9 X s 138 402 m -9 X s 138 414 m -9 X s 146 425 m -17 X s 138 437 m -9 X s 138 448 m -9 X s 138 460 m -9 X s 138 472 m -9 X s 146 483 m -17 X s 138 495 m -9
 X s 138 506 m -9 X s 138 518 m -9 X s 138 530 m -9 X s 146 541 m -17 X s 138 553 m -9 X s 138 565 m -9 X s 138 576 m -9 X s 138 588 m -9 X s 146 599 m -17 X s 146 599 m -17 X s 138 611 m -9 X s 138 623 m -9 X s 138 634 m -9 X s
 gsave  710 699 23 7 C 113.537 68.1223 t 0 r /Helvetica findfont 22.736 sf 0 0 m (0) show NC gr 
 gsave  710 699 23 7 C 87.8021 127.162 t 0 r /Helvetica findfont 22.736 sf 0 0 m (100) show NC gr 
 gsave  710 699 23 7 C 87.8021 184.687 t 0 r /Helvetica findfont 22.736 sf 0 0 m (200) show NC gr 
 gsave  710 699 23 7 C 87.8021 242.213 t 0 r /Helvetica findfont 22.736 sf 0 0 m (300) show NC gr 
 gsave  710 699 23 7 C 87.8021 301.252 t 0 r /Helvetica findfont 22.736 sf 0 0 m (400) show NC gr 
 gsave  710 699 23 7 C 87.8021 358.778 t 0 r /Helvetica findfont 22.736 sf 0 0 m (500) show NC gr 
 gsave  710 699 23 7 C 87.8021 416.303 t 0 r /Helvetica findfont 22.736 sf 0 0 m (600) show NC gr 
 gsave  710 699 23 7 C 87.8021 475.342 t 0 r /Helvetica findfont 22.736 sf 0 0 m (700) show NC gr 
 gsave  710 699 23 7 C 87.8021 532.868 t 0 r /Helvetica findfont 22.736 sf 0 0 m (800) show NC gr 
 gsave  710 699 23 7 C 87.8021 590.393 t 0 r /Helvetica findfont 22.736 sf 0 0 m (900) show NC gr 
 gsave  710 699 23 7 C 71.15 452.635 t 90 r /Helvetica findfont 22.736 sf 0 0 m (Events / \( 0.0004 \)) show NC gr  132 77 m -3 X s 129 77 m 3 Y s 132 77 m 3 X s 135 77 m 3 Y s 132 77 m 1 Y s 129 78 m 6 X s 137 77 m -2 X s 135 77 m 3 Y s 137 77 m 3 X
 s 140 77 m 3 Y s 137 77 m 1 Y s 134 78 m 6 X s 143 77 m -3 X s 140 77 m 3 Y s 143 77 m 2 X s 145 77 m 3 Y s 143 77 m 1 Y s 140 78 m 6 X s 148 77 m -3 X s 145 77 m 3 Y s 148 77 m 3 X s 151 77 m 3 Y s 148 77 m 1 Y s 145 78 m 6 X s 153 77 m -2 X s 151
 77 m 3 Y s 153 77 m 3 X s 156 77 m 3 Y s 153 77 m 1 Y s 150 78 m 6 X s 159 77 m -3 X s 156 77 m 3 Y s 159 77 m 2 X s 161 77 m 3 Y s 159 77 m 1 Y s 156 78 m 6 X s 164 77 m -3 X s 161 77 m 3 Y s 164 77 m 3 X s 167 77 m 3 Y s 164 77 m 1 Y s 161 78 m 6
 X s 169 77 m -2 X s 167 77 m 3 Y s 169 77 m 3 X s 172 77 m 3 Y s 169 77 m 1 Y s 166 78 m 6 X s 175 77 m -3 X s 172 77 m 3 Y s 175 77 m 2 X s 177 77 m 3 Y s 175 77 m 1 Y s 172 78 m 6 X s 180 77 m -3 X s 177 77 m 3 Y s 180 77 m 3 X s 183 77 m 3 Y s
 180 77 m 1 Y s 177 78 m 6 X s 185 77 m -2 X s 183 77 m 3 Y s 185 77 m 3 X s 188 77 m 3 Y s 185 77 m 1 Y s 182 78 m 6 X s 191 77 m -3 X s 188 77 m 3 Y s 191 77 m 2 X s 193 77 m 3 Y s 191 77 m 1 Y s 188 78 m 6 X s 196 77 m -3 X s 193 77 m 3 Y s 196 77
 m 3 X s 199 77 m 3 Y s 196 77 m 1 Y s 193 78 m 6 X s 201 77 m -2 X s 199 77 m 3 Y s 201 77 m 3 X s 204 77 m 3 Y s 201 77 m 1 Y s 198 78 m 6 X s 207 77 m -3 X s 204 77 m 3 Y s 207 77 m 2 X s 209 77 m 3 Y s 207 77 m 1 Y s 204 78 m 6 X s 212 77 m -3 X
 s 209 77 m 3 Y s 212 77 m 3 X s 215 77 m 3 Y s 212 77 m 1 Y s 209 78 m 6 X s 217 77 m -2 X s 215 77 m 3 Y s 217 77 m 3 X s 220 77 m 3 Y s 217 77 m 1 Y s 214 78 m 6 X s 223 77 m -3 X s 220 77 m 3 Y s 223 77 m 2 X s 225 77 m 3 Y s 223 77 m 1 Y s 219
 78 m 7 X s 228 77 m -3 X s 225 77 m 3 Y s 228 77 m 3 X s 231 77 m 3 Y s 228 77 m 1 Y s 225 78 m 6 X s 233 77 m -2 X s 231 77 m 3 Y s 233 77 m 3 X s 236 77 m 3 Y s 233 77 m 1 Y s 230 78 m 6 X s 239 77 m -3 X s 236 77 m 3 Y s 239 77 m 2 X s 241 77 m 3
 Y s 239 77 m 1 Y s 235 78 m 7 X s 244 77 m -3 X s 241 77 m 3 Y s 244 77 m 3 X s 247 77 m 3 Y s 244 77 m 1 Y s 241 78 m 6 X s 249 77 m -2 X s 247 77 m 3 Y s 249 77 m 3 X s 252 77 m 3 Y s 249 77 m 1 Y s 246 78 m 6 X s 254 77 m -2 X s 252 77 m 3 Y s
 254 77 m 3 X s 257 77 m 3 Y s 254 77 m 1 Y s 251 78 m 7 X s 260 77 m -3 X s 257 77 m 3 Y s 260 77 m 2 X s 262 77 m 3 Y s 260 77 m 1 Y s 257 78 m 6 X s 265 77 m -3 X s 262 77 m 3 Y s 265 77 m 3 X s 268 77 m 3 Y s 265 77 m 1 Y s 262 78 m 6 X s 270 77
 m -2 X s 268 77 m 3 Y s 270 77 m 3 X s 273 77 m 3 Y s 270 77 m 1 Y s 267 78 m 7 X s 276 77 m -3 X s 273 77 m 3 Y s 276 77 m 2 X s 278 77 m 3 Y s 276 77 m 1 Y s 273 78 m 6 X s 281 77 m -3 X s 278 77 m 3 Y s 281 77 m 3 X s 284 77 m 3 Y s 281 77 m 1 Y
 s 278 78 m 6 X s 286 77 m -2 X s 284 77 m 3 Y s 286 77 m 3 X s 289 77 m 3 Y s 286 77 m 1 Y s 283 78 m 6 X s 292 77 m -3 X s 289 77 m 3 Y s 292 77 m 2 X s 294 77 m 3 Y s 292 77 m 1 Y s 289 78 m 6 X s 297 77 m -3 X s 294 77 m 3 Y s 297 77 m 3 X s 300
 77 m 3 Y s 297 77 m 1 Y s 294 78 m 6 X s 302 77 m -2 X s 300 77 m 3 Y s 302 77 m 3 X s 305 77 m 3 Y s 302 77 m 1 Y s 299 78 m 6 X s 308 77 m -3 X s 305 77 m 3 Y s 308 77 m 2 X s 310 77 m 3 Y s 308 77 m 1 Y s 305 78 m 6 X s 313 77 m -3 X s 310 77 m 3
 Y s 313 77 m 3 X s 316 77 m 3 Y s 313 77 m 1 Y s 310 78 m 6 X s 318 77 m -2 X s 316 77 m 3 Y s 318 77 m 3 X s 321 77 m 3 Y s 318 77 m 1 Y s 315 78 m 6 X s 324 77 m -3 X s 321 77 m 3 Y s 324 77 m 2 X s 326 77 m 3 Y s 324 77 m 1 Y s 321 78 m 6 X s 329
 77 m -3 X s 326 77 m 3 Y s 329 77 m 3 X s 332 77 m 3 Y s 329 77 m 1 Y s 326 78 m 6 X s 334 77 m -2 X s 332 77 m 3 Y s 334 77 m 3 X s 337 77 m 3 Y s 334 77 m 1 Y s 331 78 m 6 X s 340 77 m -3 X s 337 77 m 3 Y s 340 77 m 2 X s 342 77 m 3 Y s 340 77 m 1
 Y s 337 78 m 6 X s 345 77 m -3 X s 342 77 m 3 Y s 345 77 m 3 X s 348 77 m 3 Y s 345 77 m 1 Y s 342 78 m 6 X s 350 77 m -2 X s 348 77 m 3 Y s 350 77 m 3 X s 353 77 m 3 Y s 350 77 m 1 Y s 347 78 m 6 X s 356 77 m -3 X s 353 77 m 3 Y s 356 77 m 2 X s
 358 77 m 3 Y s 356 77 m 1 Y s 353 78 m 6 X s 361 77 m -3 X s 358 77 m 3 Y s 361 77 m 3 X s 364 77 m 3 Y s 361 77 m 1 Y s 358 78 m 6 X s 366 77 m -2 X s 364 77 m 3 Y s 366 77 m 3 X s 369 77 m 3 Y s 366 77 m 1 Y s 363 78 m 6 X s 372 77 m -3 X s 369 77
 m 3 Y s 372 77 m 2 X s 374 77 m 3 Y s 372 77 m 1 Y s 369 78 m 6 X s 377 77 m -3 X s 374 77 m 3 Y s 377 77 m 3 X s 380 77 m 3 Y s 377 77 m 1 Y s 374 78 m 6 X s 382 77 m -2 X s 380 77 m 3 Y s 382 77 m 3 X s 385 77 m 3 Y s 382 77 m 1 Y s 379 78 m 6 X s
 388 77 m -3 X s 385 77 m 3 Y s 388 77 m 2 X s 390 77 m 3 Y s 388 77 m 1 Y s 385 78 m 6 X s 393 77 m -3 X s 390 77 m 3 Y s 393 77 m 3 X s 396 77 m 3 Y s 393 77 m 1 Y s 390 78 m 6 X s 398 77 m -2 X s 396 77 m 3 Y s 398 77 m 3 X s 401 77 m 3 Y s 398 77
 m 1 Y s 395 78 m 6 X s 404 78 m -3 X s 401 77 m 4 Y s 404 78 m 2 X s 406 77 m 4 Y s 404 78 m 1 Y s 401 79 m 6 X s 404 78 m -1 Y s 401 77 m 6 X s 409 79 m -3 X s 406 77 m 5 Y s 409 79 m 3 X s 412 77 m 5 Y s 409 79 m 1 Y s 406 80 m 6 X s 409 79 m -1 Y
 s 406 78 m 6 X s 414 79 m -2 X s 412 77 m 5 Y s 414 79 m 3 X s 417 77 m 5 Y s 414 79 m 1 Y s 411 80 m 6 X s 414 79 m -1 Y s 411 78 m 6 X s 420 79 m -3 X s 417 77 m 5 Y s 420 79 m 2 X s 422 77 m 5 Y s 420 79 m 1 Y s 417 80 m 6 X s 420 79 m -1 Y s 417
 78 m 6 X s 425 80 m -3 X s 422 77 m 7 Y s 425 80 m 3 X s 428 77 m 7 Y s 425 80 m 3 Y s 422 83 m 6 X s 425 80 m -1 Y s 422 79 m 6 X s 430 83 m -2 X s 428 80 m 6 Y s 430 83 m 3 X s 433 80 m 6 Y s 430 83 m 3 Y s 427 86 m 6 X s 430 83 m -2 Y s 427 81 m
 6 X s 436 88 m -3 X s 433 85 m 6 Y s 436 88 m 2 X s 438 85 m 6 Y s 436 88 m 3 Y s 433 91 m 6 X s 436 88 m -2 Y s 433 86 m 6 X s 441 99 m -3 X s 438 96 m 6 Y s 441 99 m 3 X s 444 96 m 6 Y s 441 99 m 4 Y s 438 103 m 6 X s 441 99 m -4 Y s 438 95 m 6 X
 s 446 94 m -2 X s 444 91 m 6 Y s 446 94 m 3 X s 449 91 m 6 Y s 446 94 m 4 Y s 443 98 m 6 X s 446 94 m -3 Y s 443 91 m 6 X s 452 107 m -3 X s 449 104 m 6 Y s 452 107 m 2 X s 454 104 m 6 Y s 452 107 m 4 Y s 449 111 m 6 X s 452 107 m -5 Y s 449 102 m 6
 X s 457 123 m -3 X s 454 120 m 6 Y s 457 123 m 3 X s 460 120 m 6 Y s 457 123 m 6 Y s 454 129 m 6 X s 457 123 m -5 Y s 454 118 m 6 X s 462 127 m -2 X s 460 124 m 6 Y s 462 127 m 3 X s 465 124 m 6 Y s 462 127 m 6 Y s 459 133 m 6 X s 462 127 m -5 Y s
 459 122 m 6 X s 468 143 m -3 X s 465 140 m 6 Y s 468 143 m 2 X s 470 140 m 6 Y s 468 143 m 6 Y s 465 149 m 6 X s 468 143 m -6 Y s 465 137 m 6 X s 473 177 m -3 X s 470 174 m 6 Y s 473 177 m 3 X s 476 174 m 6 Y s 473 177 m 8 Y s 470 185 m 6 X s 473
 177 m -7 Y s 470 170 m 6 X s 478 198 m -2 X s 476 195 m 6 Y s 478 198 m 3 X s 481 195 m 6 Y s 478 198 m 9 Y s 475 207 m 6 X s 478 198 m -8 Y s 475 190 m 6 X s 484 231 m -3 X s 481 228 m 6 Y s 484 231 m 2 X s 486 228 m 6 Y s 484 231 m 10 Y s 481 241
 m 6 X s 484 231 m -9 Y s 481 222 m 6 X s 489 278 m -3 X s 486 275 m 6 Y s 489 278 m 3 X s 492 275 m 6 Y s 489 278 m 12 Y s 486 290 m 6 X s 489 278 m -10 Y s 486 268 m 6 X s 494 305 m -2 X s 492 301 m 7 Y s 494 305 m 3 X s 497 301 m 7 Y s 494 305 m
 11 Y s 491 316 m 6 X s 494 305 m -12 Y s 491 293 m 6 X s 500 360 m -3 X s 497 357 m 6 Y s 500 360 m 2 X s 502 357 m 6 Y s 500 360 m 13 Y s 497 373 m 6 X s 500 360 m -12 Y s 497 348 m 6 X s 505 417 m -3 X s 502 414 m 6 Y s 505 417 m 3 X s 508 414 m 6
 Y s 505 417 m 14 Y s 502 431 m 6 X s 505 417 m -14 Y s 502 403 m 6 X s 510 469 m -2 X s 508 466 m 6 Y s 510 469 m 3 X s 513 466 m 6 Y s 510 469 m 15 Y s 507 484 m 6 X s 510 469 m -15 Y s 507 454 m 6 X s 516 552 m -3 X s 513 549 m 6 Y s 516 552 m 2 X
 s 518 549 m 6 Y s 516 552 m 17 Y s 513 569 m 6 X s 516 552 m -17 Y s 513 535 m 6 X s 521 550 m -3 X s 518 547 m 6 Y s 521 550 m 3 X s 524 547 m 6 Y s 521 550 m 17 Y s 518 567 m 6 X s 521 550 m -16 Y s 518 534 m 6 X s 526 555 m -2 X s 524 552 m 6 Y s
 526 555 m 3 X s 529 552 m 6 Y s 526 555 m 17 Y s 523 572 m 6 X s 526 555 m -16 Y s 523 539 m 6 X s 532 592 m -3 X s 529 589 m 6 Y s 532 592 m 2 X s 534 589 m 6 Y s 532 592 m 17 Y s 529 609 m 6 X s 532 592 m -17 Y s 529 575 m 6 X s 537 561 m -3 X s
 534 558 m 6 Y s 537 561 m 3 X s 540 558 m 6 Y s 537 561 m 17 Y s 534 578 m 6 X s 537 561 m -16 Y s 534 545 m 6 X s 542 581 m -2 X s 540 578 m 6 Y s 542 581 m 3 X s 545 578 m 6 Y s 542 581 m 18 Y s 539 599 m 6 X s 542 581 m -16 Y s 539 565 m 6 X s
 548 549 m -3 X s 545 546 m 6 Y s 548 549 m 2 X s 550 546 m 6 Y s 548 549 m 17 Y s 545 566 m 6 X s 548 549 m -16 Y s 545 533 m 6 X s 553 529 m -3 X s 550 526 m 6 Y s 553 529 m 3 X s 556 526 m 6 Y s 553 529 m 17 Y s 550 546 m 6 X s 553 529 m -16 Y s
 550 513 m 6 X s 558 486 m -2 X s 556 483 m 6 Y s 558 486 m 3 X s 561 483 m 6 Y s 558 486 m 15 Y s 555 501 m 6 X s 558 486 m -16 Y s 555 470 m 6 X s 564 427 m -3 X s 561 424 m 6 Y s 564 427 m 2 X s 566 424 m 6 Y s 564 427 m 15 Y s 561 442 m 6 X s 564
 427 m -14 Y s 561 413 m 6 X s 569 385 m -3 X s 566 382 m 6 Y s 569 385 m 3 X s 572 382 m 6 Y s 569 385 m 14 Y s 566 399 m 6 X s 569 385 m -13 Y s 566 372 m 6 X s 574 348 m -2 X s 572 345 m 6 Y s 574 348 m 3 X s 577 345 m 6 Y s 574 348 m 13 Y s 571
 361 m 6 X s 574 348 m -12 Y s 571 336 m 6 X s 580 289 m -3 X s 577 286 m 6 Y s 580 289 m 2 X s 582 286 m 6 Y s 580 289 m 11 Y s 577 300 m 6 X s 580 289 m -11 Y s 577 278 m 6 X s 585 249 m -3 X s 582 246 m 6 Y s 585 249 m 3 X s 588 246 m 6 Y s 585
 249 m 11 Y s 582 260 m 6 X s 585 249 m -9 Y s 582 240 m 6 X s 590 228 m -2 X s 588 225 m 7 Y s 590 228 m 3 X s 593 225 m 7 Y s 590 228 m 10 Y s 587 238 m 6 X s 590 228 m -9 Y s 587 219 m 6 X s 596 186 m -3 X s 593 183 m 6 Y s 596 186 m 2 X s 598 183
 m 6 Y s 596 186 m 8 Y s 593 194 m 6 X s 596 186 m -8 Y s 593 178 m 6 X s 601 152 m -3 X s 598 149 m 6 Y s 601 152 m 3 X s 604 149 m 6 Y s 601 152 m 7 Y s 598 159 m 6 X s 601 152 m -6 Y s 598 146 m 6 X s 606 129 m -2 X s 604 126 m 6 Y s 606 129 m 3 X
 s 609 126 m 6 Y s 606 129 m 6 Y s 603 135 m 6 X s 606 129 m -5 Y s 603 124 m 6 X s 612 117 m -3 X s 609 114 m 6 Y s 612 117 m 2 X s 614 114 m 6 Y s 612 117 m 5 Y s 609 122 m 6 X s 612 117 m -5 Y s 609 112 m 6 X s 617 114 m -3 X s 614 111 m 6 Y s 617
 114 m 3 X s 620 111 m 6 Y s 617 114 m 5 Y s 614 119 m 6 X s 617 114 m -5 Y s 614 109 m 6 X s 622 99 m -2 X s 620 96 m 6 Y s 622 99 m 3 X s 625 96 m 6 Y s 622 99 m 4 Y s 619 103 m 6 X s 622 99 m -4 Y s 619 95 m 6 X s 628 88 m -3 X s 625 85 m 6 Y s
 628 88 m 2 X s 630 85 m 6 Y s 628 88 m 3 Y s 625 91 m 6 X s 628 88 m -2 Y s 625 86 m 6 X s 633 86 m -3 X s 630 83 m 6 Y s 633 86 m 3 X s 636 83 m 6 Y s 633 86 m 3 Y s 630 89 m 6 X s 633 86 m -2 Y s 630 84 m 6 X s 638 83 m -2 X s 636 80 m 6 Y s 638
 83 m 3 X s 641 80 m 6 Y s 638 83 m 3 Y s 635 86 m 6 X s 638 83 m -2 Y s 635 81 m 6 X s 644 82 m -3 X s 641 79 m 6 Y s 644 82 m 2 X s 646 79 m 6 Y s 644 82 m 2 Y s 640 84 m 7 X s 644 82 m -2 Y s 640 80 m 7 X s 649 79 m -3 X s 646 77 m 5 Y s 649 79 m
 3 X s 652 77 m 5 Y s 649 79 m 1 Y s 646 80 m 6 X s 649 79 m -1 Y s 646 78 m 6 X s 654 79 m -2 X s 652 77 m 5 Y s 654 79 m 3 X s 657 77 m 5 Y s 654 79 m 1 Y s 651 80 m 6 X s 654 79 m -1 Y s 651 78 m 6 X s 660 77 m -3 X s 657 77 m 3 Y s 660 77 m 2 X s
 662 77 m 3 Y s 660 77 m 1 Y s 656 78 m 6 X s /w 12 def /w2 {w 2 div} def /w3 {w 3 div} def 132 77 137 77 143 77 148 77 153 77 159 77 164 77 169 77 175 77 180 77 185 77 191 77 196 77 201 77 207 77 212 77 217 77 223 77 228 77 233 77 239 77 244 77 249
 77 254 77 260 77 265 77 270 77 276 77 281 77 286 77 292 77 297 77 302 77 308 77 313 77 318 77 324 77 329 77 334 77 340 77 345 77 350 77 356 77 361 77 366 77 372 77 377 77 382 77 388 77 393 77 398 77 404 78 409 79 414 79 420 79 425 80 430 83 436 88
 441 99 446 94 452 107 457 123 462 127 468 143 473 177 478 198 484 231 489 278 494 305 500 360 505 417 510 469 516 552 521 550 526 555 532 592 537 561 542 581 548 549 553 529 558 486 564 427 569 385 574 348 580 289 585 249 590 228 596 186 601 152 606
 129 612 117 617 114 622 99 628 88 633 86 638 83 644 82 649 79 654 79 660 77 100 { m20} R 0 0 1 c 9 lw black 0 0 1 c 129 77 m cl s 129 77 m 272 X 5 1 d 6 X 5 1 d 5 1 d 6 2 d 5 2 d 5 4 d 6 5 d 5 7 d 5 10 d 6 13 d 2 8 d 3 9 d 3 10 d 2 11 d 3 12 d 3 14
 d 2 15 d 3 17 d 3 18 d 2 19 d 3 21 d 3 22 d 5 46 d 5 48 d 6 49 d 5 46 d 3 21 d 2 19 d 3 18 d 3 15 d 2 12 d 3 9 d 3 6 d 2 2 d 3 X 3 -4 d 2 -7 d 3 -10 d 3 -13 d 2 -16 d 3 -18 d 3 -20 d 2 -22 d 3 -23 d 5 -48 d 6 -49 d 5 -47 d 3 -22 d 2 -22 d 3 -20 d 3
 -19 d 2 -17 d 3 -16 d 3 -15 d 2 -13 d 3 -12 d 3 -11 d 2 -10 d 3 -8 d 5 -14 d 6 -11 d 5 -8 d 5 -6 d 6 -4 d 5 -3 d 5 -1 d 6 -2 d 5 -1 d 5 X s black 3 lw 129 77 m 533 X s 129 93 m -16 Y s 143 85 m -8 Y s 156 85 m -8 Y s 169 85 m -8 Y s 183 85 m -8 Y s
 196 93 m -16 Y s 209 85 m -8 Y s 223 85 m -8 Y s 236 85 m -8 Y s 249 85 m -8 Y s 262 93 m -16 Y s 276 85 m -8 Y s 289 85 m -8 Y s 302 85 m -8 Y s 316 85 m -8 Y s 329 93 m -16 Y s 342 85 m -8 Y s 356 85 m -8 Y s 369 85 m -8 Y s 382 85 m -8 Y s 396 93
 m -16 Y s 409 85 m -8 Y s 422 85 m -8 Y s 436 85 m -8 Y s 449 85 m -8 Y s 462 93 m -16 Y s 476 85 m -8 Y s 489 85 m -8 Y s 502 85 m -8 Y s 516 85 m -8 Y s 529 93 m -16 Y s 542 85 m -8 Y s 556 85 m -8 Y s 569 85 m -8 Y s 582 85 m -8 Y s 596 93 m -16
 Y s 609 85 m -8 Y s 622 85 m -8 Y s 636 85 m -8 Y s 649 85 m -8 Y s 662 93 m -16 Y s 129 77 m 559 Y s 146 77 m -17 X s 138 89 m -9 X s 138 100 m -9 X s 138 112 m -9 X s 138 123 m -9 X s 146 135 m -17 X s 138 147 m -9 X s 138 158 m -9 X s 138 170 m
 -9 X s 138 181 m -9 X s 146 193 m -17 X s 138 205 m -9 X s 138 216 m -9 X s 138 228 m -9 X s 138 240 m -9 X s 146 251 m -17 X s 138 263 m -9 X s 138 274 m -9 X s 138 286 m -9 X s 138 298 m -9 X s 146 309 m -17 X s 138 321 m -9 X s 138 332 m -9 X s
 138 344 m -9 X s 138 356 m -9 X s 146 367 m -17 X s 138 379 m -9 X s 138 390 m -9 X s 138 402 m -9 X s 138 414 m -9 X s 146 425 m -17 X s 138 437 m -9 X s 138 448 m -9 X s 138 460 m -9 X s 138 472 m -9 X s 146 483 m -17 X s 138 495 m -9 X s 138 506
 m -9 X s 138 518 m -9 X s 138 530 m -9 X s 146 541 m -17 X s 138 553 m -9 X s 138 565 m -9 X s 138 576 m -9 X s 138 588 m -9 X s 146 599 m -17 X s 146 599 m -17 X s 138 611 m -9 X s 138 623 m -9 X s 138 634 m -9 X s 1 1 1 c black
 gsave  710 699 23 7 C 328.501 670.626 t 0 r /Helvetica findfont 34.8619 sf 0 0 m (Signal) show NC gr  1 1 1 c 710 699 779 7 bf black 1 1 1 c 533 559 885 77 bf black 533 559 885 77 bl 1 1 1 c 533 559 885 77 bf black 533 559 885 77 bl 885 77 m 533 X s
 885 93 m -16 Y s 898 85 m -8 Y s 912 85 m -8 Y s 925 85 m -8 Y s 938 85 m -8 Y s 952 93 m -16 Y s 965 85 m -8 Y s 978 85 m -8 Y s 992 85 m -8 Y s 1005 85 m -8 Y s 1018 93 m -16 Y s 1032 85 m -8 Y s 1045 85 m -8 Y s 1058 85 m -8 Y s 1072 85 m -8 Y s
 1085 93 m -16 Y s 1098 85 m -8 Y s 1112 85 m -8 Y s 1125 85 m -8 Y s 1138 85 m -8 Y s 1152 93 m -16 Y s 1165 85 m -8 Y s 1178 85 m -8 Y s 1192 85 m -8 Y s 1205 85 m -8 Y s 1218 93 m -16 Y s 1232 85 m -8 Y s 1245 85 m -8 Y s 1258 85 m -8 Y s 1272 85
 m -8 Y s 1285 93 m -16 Y s 1298 85 m -8 Y s 1311 85 m -8 Y s 1325 85 m -8 Y s 1338 85 m -8 Y s 1351 93 m -16 Y s 1365 85 m -8 Y s 1378 85 m -8 Y s 1391 85 m -8 Y s 1405 85 m -8 Y s 1418 93 m -16 Y s
 gsave  710 699 779 7 C 861.369 54.4979 t 0 r /Helvetica findfont 22.736 sf 0 0 m (5.25) show NC gr 
 gsave  710 699 779 7 C 921.922 54.4979 t 0 r /Helvetica findfont 22.736 sf 0 0 m (5.255) show NC gr 
 gsave  710 699 779 7 C 994.586 54.4979 t 0 r /Helvetica findfont 22.736 sf 0 0 m (5.26) show NC gr 
 gsave  710 699 779 7 C 1055.14 54.4979 t 0 r /Helvetica findfont 22.736 sf 0 0 m (5.265) show NC gr 
 gsave  710 699 779 7 C 1127.8 54.4979 t 0 r /Helvetica findfont 22.736 sf 0 0 m (5.27) show NC gr 
 gsave  710 699 779 7 C 1188.36 54.4979 t 0 r /Helvetica findfont 22.736 sf 0 0 m (5.275) show NC gr 
 gsave  710 699 779 7 C 1261.02 54.4979 t 0 r /Helvetica findfont 22.736 sf 0 0 m (5.28) show NC gr 
 gsave  710 699 779 7 C 1321.57 54.4979 t 0 r /Helvetica findfont 22.736 sf 0 0 m (5.285) show NC gr 
 gsave  710 699 779 7 C 1394.24 54.4979 t 0 r /Helvetica findfont 22.736 sf 0 0 m (5.29) show NC gr 
 gsave  710 699 779 7 C 1360.93 31.7904 t 0 r /Helvetica findfont 22.736 sf 0 0 m (m_bc) show NC gr  885 77 m 559 Y s 902 77 m -17 X s 894 90 m -9 X s 894 102 m -9 X s 894 115 m -9 X s 894 128 m -9 X s 902 141 m -17 X s 894 153 m -9 X s 894 166 m -9
 X s 894 179 m -9 X s 894 192 m -9 X s 902 204 m -17 X s 894 217 m -9 X s 894 230 m -9 X s 894 242 m -9 X s 894 255 m -9 X s 902 268 m -17 X s 894 281 m -9 X s 894 293 m -9 X s 894 306 m -9 X s 894 319 m -9 X s 902 332 m -17 X s 894 344 m -9 X s 894
 357 m -9 X s 894 370 m -9 X s 894 383 m -9 X s 902 395 m -17 X s 894 408 m -9 X s 894 421 m -9 X s 894 433 m -9 X s 894 446 m -9 X s 902 459 m -17 X s 894 472 m -9 X s 894 484 m -9 X s 894 497 m -9 X s 894 510 m -9 X s 902 523 m -17 X s 894 535 m -9
 X s 894 548 m -9 X s 894 561 m -9 X s 894 573 m -9 X s 902 586 m -17 X s 902 586 m -17 X s 894 599 m -9 X s 894 612 m -9 X s 894 624 m -9 X s
 gsave  710 699 779 7 C 868.938 68.1223 t 0 r /Helvetica findfont 22.736 sf 0 0 m (0) show NC gr 
 gsave  710 699 779 7 C 855.314 131.703 t 0 r /Helvetica findfont 22.736 sf 0 0 m (10) show NC gr 
 gsave  710 699 779 7 C 855.314 195.284 t 0 r /Helvetica findfont 22.736 sf 0 0 m (20) show NC gr 
 gsave  710 699 779 7 C 855.314 260.379 t 0 r /Helvetica findfont 22.736 sf 0 0 m (30) show NC gr 
 gsave  710 699 779 7 C 855.314 323.96 t 0 r /Helvetica findfont 22.736 sf 0 0 m (40) show NC gr 
 gsave  710 699 779 7 C 855.314 387.54 t 0 r /Helvetica findfont 22.736 sf 0 0 m (50) show NC gr 
 gsave  710 699 779 7 C 855.314 451.121 t 0 r /Helvetica findfont 22.736 sf 0 0 m (60) show NC gr 
 gsave  710 699 779 7 C 855.314 514.702 t 0 r /Helvetica findfont 22.736 sf 0 0 m (70) show NC gr 
 gsave  710 699 779 7 C 855.314 578.283 t 0 r /Helvetica findfont 22.736 sf 0 0 m (80) show NC gr 
 gsave  710 699 779 7 C 828.065 452.635 t 90 r /Helvetica findfont 22.736 sf 0 0 m (Events / \( 0.0004 \)) show NC gr  888 102 m -3 X s 885 99 m 6 Y s 888 102 m 2 X s 890 99 m 6 Y s 888 102 m 21 Y s 885 123 m 6 X s 888 102 m -12 Y s 885 90 m 6 X s
 893 115 m -3 X s 890 112 m 6 Y s 893 115 m 3 X s 896 112 m 6 Y s 893 115 m 23 Y s 890 138 m 6 X s 893 115 m -15 Y s 890 100 m 6 X s 898 134 m -2 X s 896 131 m 6 Y s 898 134 m 3 X s 901 131 m 6 Y s 898 134 m 26 Y s 895 160 m 7 X s 898 134 m -18 Y s
 895 116 m 7 X s 904 128 m -3 X s 901 125 m 6 Y s 904 128 m 2 X s 906 125 m 6 Y s 904 128 m 25 Y s 901 153 m 6 X s 904 128 m -18 Y s 901 110 m 6 X s 909 147 m -3 X s 906 144 m 6 Y s 909 147 m 3 X s 912 144 m 6 Y s 909 147 m 28 Y s 906 175 m 6 X s 909
 147 m -21 Y s 906 126 m 6 X s 914 109 m -2 X s 912 106 m 6 Y s 914 109 m 3 X s 917 106 m 6 Y s 914 109 m 21 Y s 911 130 m 7 X s 914 109 m -14 Y s 911 95 m 7 X s 920 109 m -3 X s 917 106 m 6 Y s 920 109 m 2 X s 922 106 m 6 Y s 920 109 m 21 Y s 917
 130 m 6 X s 920 109 m -14 Y s 917 95 m 6 X s 925 128 m -3 X s 922 125 m 6 Y s 925 128 m 3 X s 928 125 m 6 Y s 925 128 m 25 Y s 922 153 m 6 X s 925 128 m -18 Y s 922 110 m 6 X s 930 109 m -2 X s 928 106 m 6 Y s 930 109 m 3 X s 933 106 m 6 Y s 930 109
 m 21 Y s 927 130 m 6 X s 930 109 m -14 Y s 927 95 m 6 X s 936 153 m -3 X s 933 150 m 6 Y s 936 153 m 2 X s 938 150 m 6 Y s 936 153 m 29 Y s 933 182 m 6 X s 936 153 m -21 Y s 933 132 m 6 X s 941 109 m -3 X s 938 106 m 6 Y s 941 109 m 3 X s 944 106 m
 6 Y s 941 109 m 21 Y s 938 130 m 6 X s 941 109 m -14 Y s 938 95 m 6 X s 946 115 m -2 X s 944 112 m 6 Y s 946 115 m 3 X s 949 112 m 6 Y s 946 115 m 23 Y s 943 138 m 6 X s 946 115 m -15 Y s 943 100 m 6 X s 952 141 m -3 X s 949 138 m 6 Y s 952 141 m 2
 X s 954 138 m 6 Y s 952 141 m 27 Y s 949 168 m 6 X s 952 141 m -20 Y s 949 121 m 6 X s 957 122 m -3 X s 954 119 m 6 Y s 957 122 m 3 X s 960 119 m 6 Y s 957 122 m 24 Y s 954 146 m 6 X s 957 122 m -17 Y s 954 105 m 6 X s 962 115 m -2 X s 960 112 m 6 Y
 s 962 115 m 3 X s 965 112 m 6 Y s 962 115 m 23 Y s 959 138 m 6 X s 962 115 m -15 Y s 959 100 m 6 X s 968 122 m -3 X s 965 119 m 6 Y s 968 122 m 2 X s 970 119 m 6 Y s 968 122 m 24 Y s 965 146 m 6 X s 968 122 m -17 Y s 965 105 m 6 X s 973 102 m -3 X s
 970 99 m 6 Y s 973 102 m 3 X s 976 99 m 6 Y s 973 102 m 21 Y s 970 123 m 6 X s 973 102 m -12 Y s 970 90 m 6 X s 978 122 m -2 X s 976 119 m 6 Y s 978 122 m 3 X s 981 119 m 6 Y s 978 122 m 24 Y s 975 146 m 6 X s 978 122 m -17 Y s 975 105 m 6 X s 984
 134 m -3 X s 981 131 m 6 Y s 984 134 m 2 X s 986 131 m 6 Y s 984 134 m 26 Y s 981 160 m 6 X s 984 134 m -18 Y s 981 116 m 6 X s 989 153 m -3 X s 986 150 m 6 Y s 989 153 m 3 X s 992 150 m 6 Y s 989 153 m 29 Y s 986 182 m 6 X s 989 153 m -21 Y s 986
 132 m 6 X s 994 102 m -2 X s 992 99 m 6 Y s 994 102 m 3 X s 997 99 m 6 Y s 994 102 m 21 Y s 991 123 m 6 X s 994 102 m -12 Y s 991 90 m 6 X s 1000 147 m -3 X s 997 144 m 6 Y s 1000 147 m 2 X s 1002 144 m 6 Y s 1000 147 m 28 Y s 997 175 m 6 X s 1000
 147 m -21 Y s 997 126 m 6 X s 1005 147 m -3 X s 1002 144 m 6 Y s 1005 147 m 3 X s 1008 144 m 6 Y s 1005 147 m 28 Y s 1002 175 m 6 X s 1005 147 m -21 Y s 1002 126 m 6 X s 1010 109 m -2 X s 1008 106 m 6 Y s 1010 109 m 3 X s 1013 106 m 6 Y s 1010 109 m
 21 Y s 1007 130 m 6 X s 1010 109 m -14 Y s 1007 95 m 6 X s 1016 134 m -3 X s 1013 131 m 6 Y s 1016 134 m 2 X s 1018 131 m 6 Y s 1016 134 m 26 Y s 1013 160 m 6 X s 1016 134 m -18 Y s 1013 116 m 6 X s 1021 115 m -3 X s 1018 112 m 6 Y s 1021 115 m 3 X
 s 1024 112 m 6 Y s 1021 115 m 23 Y s 1018 138 m 6 X s 1021 115 m -15 Y s 1018 100 m 6 X s 1026 122 m -2 X s 1024 119 m 6 Y s 1026 122 m 3 X s 1029 119 m 6 Y s 1026 122 m 24 Y s 1023 146 m 6 X s 1026 122 m -17 Y s 1023 105 m 6 X s 1032 128 m -3 X s
 1029 125 m 6 Y s 1032 128 m 2 X s 1034 125 m 6 Y s 1032 128 m 25 Y s 1029 153 m 6 X s 1032 128 m -18 Y s 1029 110 m 6 X s 1037 102 m -3 X s 1034 99 m 6 Y s 1037 102 m 3 X s 1040 99 m 6 Y s 1037 102 m 21 Y s 1034 123 m 6 X s 1037 102 m -12 Y s 1034
 90 m 6 X s 1042 109 m -2 X s 1040 106 m 6 Y s 1042 109 m 3 X s 1045 106 m 6 Y s 1042 109 m 21 Y s 1039 130 m 6 X s 1042 109 m -14 Y s 1039 95 m 6 X s 1048 115 m -3 X s 1045 112 m 6 Y s 1048 115 m 2 X s 1050 112 m 6 Y s 1048 115 m 23 Y s 1045 138 m 6
 X s 1048 115 m -15 Y s 1045 100 m 6 X s 1053 134 m -3 X s 1050 131 m 6 Y s 1053 134 m 3 X s 1056 131 m 6 Y s 1053 134 m 26 Y s 1050 160 m 6 X s 1053 134 m -18 Y s 1050 116 m 6 X s 1058 102 m -2 X s 1056 99 m 6 Y s 1058 102 m 3 X s 1061 99 m 6 Y s
 1058 102 m 21 Y s 1055 123 m 6 X s 1058 102 m -12 Y s 1055 90 m 6 X s 1064 141 m -3 X s 1061 138 m 6 Y s 1064 141 m 2 X s 1066 138 m 6 Y s 1064 141 m 27 Y s 1061 168 m 6 X s 1064 141 m -20 Y s 1061 121 m 6 X s 1069 90 m -3 X s 1066 87 m 6 Y s 1069
 90 m 3 X s 1072 87 m 6 Y s 1069 90 m 17 Y s 1066 107 m 6 X s 1069 90 m -8 Y s 1066 82 m 6 X s 1074 115 m -2 X s 1072 112 m 6 Y s 1074 115 m 3 X s 1077 112 m 6 Y s 1074 115 m 23 Y s 1071 138 m 6 X s 1074 115 m -15 Y s 1071 100 m 6 X s 1080 147 m -3 X
 s 1077 144 m 6 Y s 1080 147 m 2 X s 1082 144 m 6 Y s 1080 147 m 28 Y s 1077 175 m 6 X s 1080 147 m -21 Y s 1077 126 m 6 X s 1085 160 m -3 X s 1082 157 m 6 Y s 1085 160 m 3 X s 1088 157 m 6 Y s 1085 160 m 30 Y s 1082 190 m 6 X s 1085 160 m -23 Y s
 1082 137 m 6 X s 1090 115 m -2 X s 1088 112 m 6 Y s 1090 115 m 3 X s 1093 112 m 6 Y s 1090 115 m 23 Y s 1087 138 m 6 X s 1090 115 m -15 Y s 1087 100 m 6 X s 1096 122 m -3 X s 1093 119 m 6 Y s 1096 122 m 2 X s 1098 119 m 6 Y s 1096 122 m 24 Y s 1093
 146 m 6 X s 1096 122 m -17 Y s 1093 105 m 6 X s 1101 128 m -3 X s 1098 125 m 6 Y s 1101 128 m 3 X s 1104 125 m 6 Y s 1101 128 m 25 Y s 1098 153 m 6 X s 1101 128 m -18 Y s 1098 110 m 6 X s 1106 128 m -2 X s 1104 125 m 6 Y s 1106 128 m 3 X s 1109 125
 m 6 Y s 1106 128 m 25 Y s 1103 153 m 6 X s 1106 128 m -18 Y s 1103 110 m 6 X s 1112 153 m -3 X s 1109 150 m 6 Y s 1112 153 m 2 X s 1114 150 m 6 Y s 1112 153 m 29 Y s 1109 182 m 6 X s 1112 153 m -21 Y s 1109 132 m 6 X s 1117 102 m -3 X s 1114 99 m 6
 Y s 1117 102 m 3 X s 1120 99 m 6 Y s 1117 102 m 21 Y s 1114 123 m 6 X s 1117 102 m -12 Y s 1114 90 m 6 X s 1122 122 m -2 X s 1120 119 m 6 Y s 1122 122 m 3 X s 1125 119 m 6 Y s 1122 122 m 24 Y s 1119 146 m 6 X s 1122 122 m -17 Y s 1119 105 m 6 X s
 1128 109 m -3 X s 1125 106 m 6 Y s 1128 109 m 2 X s 1130 106 m 6 Y s 1128 109 m 21 Y s 1125 130 m 6 X s 1128 109 m -14 Y s 1125 95 m 6 X s 1133 96 m -3 X s 1130 93 m 6 Y s 1133 96 m 3 X s 1136 93 m 6 Y s 1133 96 m 19 Y s 1130 115 m 6 X s 1133 96 m
 -10 Y s 1130 86 m 6 X s 1138 166 m -2 X s 1136 163 m 6 Y s 1138 166 m 3 X s 1141 163 m 6 Y s 1138 166 m 31 Y s 1135 197 m 6 X s 1138 166 m -23 Y s 1135 143 m 6 X s 1144 122 m -3 X s 1141 119 m 6 Y s 1144 122 m 2 X s 1146 119 m 6 Y s 1144 122 m 24 Y
 s 1141 146 m 6 X s 1144 122 m -17 Y s 1141 105 m 6 X s 1149 115 m -3 X s 1146 112 m 6 Y s 1149 115 m 3 X s 1152 112 m 6 Y s 1149 115 m 23 Y s 1146 138 m 6 X s 1149 115 m -15 Y s 1146 100 m 6 X s 1154 128 m -2 X s 1152 125 m 6 Y s 1154 128 m 3 X s
 1157 125 m 6 Y s 1154 128 m 25 Y s 1151 153 m 6 X s 1154 128 m -18 Y s 1151 110 m 6 X s 1160 128 m -3 X s 1157 125 m 6 Y s 1160 128 m 2 X s 1162 125 m 6 Y s 1160 128 m 25 Y s 1157 153 m 6 X s 1160 128 m -18 Y s 1157 110 m 6 X s 1165 115 m -3 X s
 1162 112 m 6 Y s 1165 115 m 3 X s 1168 112 m 6 Y s 1165 115 m 23 Y s 1162 138 m 6 X s 1165 115 m -15 Y s 1162 100 m 6 X s 1170 141 m -2 X s 1168 138 m 6 Y s 1170 141 m 3 X s 1173 138 m 6 Y s 1170 141 m 27 Y s 1167 168 m 6 X s 1170 141 m -20 Y s 1167
 121 m 6 X s 1176 102 m -3 X s 1173 99 m 6 Y s 1176 102 m 2 X s 1178 99 m 6 Y s 1176 102 m 21 Y s 1173 123 m 6 X s 1176 102 m -12 Y s 1173 90 m 6 X s 1181 128 m -3 X s 1178 125 m 6 Y s 1181 128 m 3 X s 1184 125 m 6 Y s 1181 128 m 25 Y s 1178 153 m 6
 X s 1181 128 m -18 Y s 1178 110 m 6 X s 1186 166 m -2 X s 1184 163 m 6 Y s 1186 166 m 3 X s 1189 163 m 6 Y s 1186 166 m 31 Y s 1183 197 m 6 X s 1186 166 m -23 Y s 1183 143 m 6 X s 1192 160 m -3 X s 1189 157 m 6 Y s 1192 160 m 2 X s 1194 157 m 6 Y s
 1192 160 m 30 Y s 1189 190 m 6 X s 1192 160 m -23 Y s 1189 137 m 6 X s 1197 134 m -3 X s 1194 131 m 6 Y s 1197 134 m 3 X s 1200 131 m 6 Y s 1197 134 m 26 Y s 1194 160 m 6 X s 1197 134 m -18 Y s 1194 116 m 6 X s 1202 153 m -2 X s 1200 150 m 6 Y s
 1202 153 m 3 X s 1205 150 m 6 Y s 1202 153 m 29 Y s 1199 182 m 6 X s 1202 153 m -21 Y s 1199 132 m 6 X s 1208 160 m -3 X s 1205 157 m 6 Y s 1208 160 m 2 X s 1210 157 m 6 Y s 1208 160 m 30 Y s 1205 190 m 6 X s 1208 160 m -23 Y s 1205 137 m 6 X s 1213
 147 m -3 X s 1210 144 m 6 Y s 1213 147 m 3 X s 1216 144 m 6 Y s 1213 147 m 28 Y s 1210 175 m 6 X s 1213 147 m -21 Y s 1210 126 m 6 X s 1218 192 m -2 X s 1216 189 m 6 Y s 1218 192 m 3 X s 1221 189 m 6 Y s 1218 192 m 33 Y s 1215 225 m 6 X s 1218 192 m
 -27 Y s 1215 165 m 6 X s 1224 172 m -3 X s 1221 169 m 7 Y s 1224 172 m 2 X s 1226 169 m 7 Y s 1224 172 m 32 Y s 1221 204 m 6 X s 1224 172 m -24 Y s 1221 148 m 6 X s 1229 236 m -3 X s 1226 233 m 6 Y s 1229 236 m 3 X s 1232 233 m 6 Y s 1229 236 m 39 Y
 s 1226 275 m 6 X s 1229 236 m -31 Y s 1226 205 m 6 X s 1234 287 m -2 X s 1232 284 m 6 Y s 1234 287 m 3 X s 1237 284 m 6 Y s 1234 287 m 43 Y s 1231 330 m 6 X s 1234 287 m -36 Y s 1231 251 m 6 X s 1240 242 m -3 X s 1237 239 m 7 Y s 1240 242 m 2 X s
 1242 239 m 7 Y s 1240 242 m 40 Y s 1237 282 m 6 X s 1240 242 m -32 Y s 1237 210 m 6 X s 1245 223 m -3 X s 1242 220 m 6 Y s 1245 223 m 3 X s 1248 220 m 6 Y s 1245 223 m 38 Y s 1242 261 m 6 X s 1245 223 m -30 Y s 1242 193 m 6 X s 1250 306 m -2 X s
 1248 303 m 6 Y s 1250 306 m 3 X s 1253 303 m 6 Y s 1250 306 m 45 Y s 1247 351 m 6 X s 1250 306 m -38 Y s 1247 268 m 6 X s 1256 332 m -3 X s 1253 329 m 6 Y s 1256 332 m 2 X s 1258 329 m 6 Y s 1256 332 m 47 Y s 1253 379 m 6 X s 1256 332 m -40 Y s 1253
 292 m 6 X s 1261 395 m -3 X s 1258 392 m 6 Y s 1261 395 m 3 X s 1264 392 m 6 Y s 1261 395 m 52 Y s 1258 447 m 6 X s 1261 395 m -45 Y s 1258 350 m 6 X s 1266 408 m -2 X s 1264 405 m 6 Y s 1266 408 m 3 X s 1269 405 m 6 Y s 1266 408 m 53 Y s 1263 461 m
 6 X s 1266 408 m -46 Y s 1263 362 m 6 X s 1272 440 m -3 X s 1269 437 m 6 Y s 1272 440 m 2 X s 1274 437 m 6 Y s 1272 440 m 55 Y s 1268 495 m 7 X s 1272 440 m -48 Y s 1268 392 m 7 X s 1277 395 m -3 X s 1274 392 m 6 Y s 1277 395 m 3 X s 1280 392 m 6 Y
 s 1277 395 m 52 Y s 1274 447 m 6 X s 1277 395 m -45 Y s 1274 350 m 6 X s 1282 491 m -2 X s 1280 488 m 6 Y s 1282 491 m 3 X s 1285 488 m 6 Y s 1282 491 m 58 Y s 1279 549 m 6 X s 1282 491 m -51 Y s 1279 440 m 6 X s 1288 472 m -3 X s 1285 469 m 6 Y s
 1288 472 m 2 X s 1290 469 m 6 Y s 1288 472 m 56 Y s 1284 528 m 7 X s 1288 472 m -50 Y s 1284 422 m 7 X s 1293 548 m -3 X s 1290 545 m 6 Y s 1293 548 m 3 X s 1296 545 m 6 Y s 1293 548 m 61 Y s 1290 609 m 6 X s 1293 548 m -55 Y s 1290 493 m 6 X s 1298
 529 m -2 X s 1296 526 m 6 Y s 1298 529 m 3 X s 1301 526 m 6 Y s 1298 529 m 60 Y s 1295 589 m 6 X s 1298 529 m -54 Y s 1295 475 m 6 X s 1304 395 m -3 X s 1301 392 m 6 Y s 1304 395 m 2 X s 1306 392 m 6 Y s 1304 395 m 52 Y s 1300 447 m 7 X s 1304 395 m
 -45 Y s 1300 350 m 7 X s 1309 472 m -3 X s 1306 469 m 6 Y s 1309 472 m 2 X s 1311 469 m 6 Y s 1309 472 m 56 Y s 1306 528 m 6 X s 1309 472 m -50 Y s 1306 422 m 6 X s 1314 408 m -3 X s 1311 405 m 6 Y s 1314 408 m 3 X s 1317 405 m 6 Y s 1314 408 m 53 Y
 s 1311 461 m 6 X s 1314 408 m -46 Y s 1311 362 m 6 X s 1319 351 m -2 X s 1317 348 m 6 Y s 1319 351 m 3 X s 1322 348 m 6 Y s 1319 351 m 48 Y s 1316 399 m 7 X s 1319 351 m -42 Y s 1316 309 m 7 X s 1325 363 m -3 X s 1322 360 m 6 Y s 1325 363 m 2 X s
 1327 360 m 6 Y s 1325 363 m 50 Y s 1322 413 m 6 X s 1325 363 m -42 Y s 1322 321 m 6 X s 1330 338 m -3 X s 1327 335 m 6 Y s 1330 338 m 3 X s 1333 335 m 6 Y s 1330 338 m 47 Y s 1327 385 m 6 X s 1330 338 m -41 Y s 1327 297 m 6 X s 1335 268 m -2 X s
 1333 265 m 6 Y s 1335 268 m 3 X s 1338 265 m 6 Y s 1335 268 m 42 Y s 1332 310 m 7 X s 1335 268 m -35 Y s 1332 233 m 7 X s 1341 236 m -3 X s 1338 233 m 6 Y s 1341 236 m 2 X s 1343 233 m 6 Y s 1341 236 m 39 Y s 1338 275 m 6 X s 1341 236 m -31 Y s 1338
 205 m 6 X s 1346 179 m -3 X s 1343 176 m 6 Y s 1346 179 m 3 X s 1349 176 m 6 Y s 1346 179 m 32 Y s 1343 211 m 6 X s 1346 179 m -25 Y s 1343 154 m 6 X s 1351 160 m -2 X s 1349 157 m 6 Y s 1351 160 m 3 X s 1354 157 m 6 Y s 1351 160 m 30 Y s 1348 190 m
 6 X s 1351 160 m -23 Y s 1348 137 m 6 X s 1357 134 m -3 X s 1354 131 m 6 Y s 1357 134 m 2 X s 1359 131 m 6 Y s 1357 134 m 26 Y s 1354 160 m 6 X s 1357 134 m -18 Y s 1354 116 m 6 X s 1362 172 m -3 X s 1359 169 m 7 Y s 1362 172 m 3 X s 1365 169 m 7 Y
 s 1362 172 m 32 Y s 1359 204 m 6 X s 1362 172 m -24 Y s 1359 148 m 6 X s 1367 134 m -2 X s 1365 131 m 6 Y s 1367 134 m 3 X s 1370 131 m 6 Y s 1367 134 m 26 Y s 1364 160 m 6 X s 1367 134 m -18 Y s 1364 116 m 6 X s 1373 102 m -3 X s 1370 99 m 6 Y s
 1373 102 m 2 X s 1375 99 m 6 Y s 1373 102 m 21 Y s 1370 123 m 6 X s 1373 102 m -12 Y s 1370 90 m 6 X s 1378 102 m -3 X s 1375 99 m 6 Y s 1378 102 m 3 X s 1381 99 m 6 Y s 1378 102 m 21 Y s 1375 123 m 6 X s 1378 102 m -12 Y s 1375 90 m 6 X s 1383 134
 m -2 X s 1381 131 m 6 Y s 1383 134 m 3 X s 1386 131 m 6 Y s 1383 134 m 26 Y s 1380 160 m 6 X s 1383 134 m -18 Y s 1380 116 m 6 X s 1389 102 m -3 X s 1386 99 m 6 Y s 1389 102 m 2 X s 1391 99 m 6 Y s 1389 102 m 21 Y s 1386 123 m 6 X s 1389 102 m -12 Y
 s 1386 90 m 6 X s 1394 96 m -3 X s 1391 93 m 6 Y s 1394 96 m 3 X s 1397 93 m 6 Y s 1394 96 m 19 Y s 1391 115 m 6 X s 1394 96 m -10 Y s 1391 86 m 6 X s 1399 90 m -2 X s 1397 87 m 6 Y s 1399 90 m 3 X s 1402 87 m 6 Y s 1399 90 m 17 Y s 1396 107 m 6 X s
 1399 90 m -8 Y s 1396 82 m 6 X s 1405 90 m -3 X s 1402 87 m 6 Y s 1405 90 m 2 X s 1407 87 m 6 Y s 1405 90 m 17 Y s 1402 107 m 6 X s 1405 90 m -8 Y s 1402 82 m 6 X s 1410 83 m -3 X s 1407 80 m 6 Y s 1410 83 m 3 X s 1413 80 m 6 Y s 1410 83 m 15 Y s
 1407 98 m 6 X s 1410 83 m -5 Y s 1407 78 m 6 X s 1415 102 m -2 X s 1413 99 m 6 Y s 1415 102 m 3 X s 1418 99 m 6 Y s 1415 102 m 21 Y s 1412 123 m 6 X s 1415 102 m -12 Y s 1412 90 m 6 X s 888 102 893 115 898 134 904 128 909 147 914 109 920 109 925 128
 930 109 936 153 941 109 946 115 952 141 957 122 962 115 968 122 973 102 978 122 984 134 989 153 994 102 1000 147 1005 147 1010 109 1016 134 1021 115 1026 122 1032 128 1037 102 1042 109 1048 115 1053 134 1058 102 1064 141 1069 90 1074 115 1080 147
 1085 160 1090 115 1096 122 1101 128 1106 128 1112 153 1117 102 1122 122 1128 109 1133 96 1138 166 1144 122 1149 115 1154 128 1160 128 1165 115 1170 141 1176 102 1181 128 1186 166 1192 160 1197 134 1202 153 1208 160 1213 147 1218 192 1224 172 1229
 236 1234 287 1240 242 1245 223 1250 306 1256 332 1261 395 1266 408 1272 440 1277 395 1282 491 1288 472 1293 548 1298 529 1304 395 1309 472 1314 408 1319 351 1325 363 1330 338 1335 268 1341 236 1346 179 1351 160 1357 134 1362 172 1367 134 1373 102
 1378 102 1383 134 1389 102 1394 96 1399 90 1405 90 1410 83 1415 102 100 { m20} R 0 0 1 c 9 lw black 0 0 1 c 885 121 m cl s 885 121 m 5 1 d 27 X 5 1 d 32 X 6 1 d 37 X 5 1 d 64 X 6 1 d 101 X 5 1 d 6 1 d 5 2 d 5 2 d 6 4 d 5 5 d 5 8 d 6 10 d 5 13 d 3 7
 d 2 9 d 3 10 d 3 10 d 2 12 d 3 12 d 3 14 d 2 14 d 6 30 d 5 33 d 5 34 d 6 33 d 2 16 d 3 15 d 3 14 d 2 12 d 3 11 d 3 10 d 2 8 d 3 5 d 3 4 d 2 1 d 3 X 3 -3 d 2 -5 d 3 -7 d 3 -9 d 2 -10 d 3 -13 d 2 -13 d 3 -15 d 3 -16 d 5 -33 d 5 -35 d 6 -35 d 5 -32 d 5
 -30 d 3 -14 d 3 -13 d 2 -11 d 3 -11 d 3 -10 d 2 -9 d 3 -8 d 3 -8 d 5 -12 d 5 -10 d 6 -8 d 5 -6 d 5 -5 d 6 -4 d 5 -4 d 5 -4 d 6 -5 d 2 -3 d 2 -2 d -2 Y 1 -4 d s black 3 lw 885 77 m 533 X s 885 93 m -16 Y s 898 85 m -8 Y s 912 85 m -8 Y s 925 85 m -8
 Y s 938 85 m -8 Y s 952 93 m -16 Y s 965 85 m -8 Y s 978 85 m -8 Y s 992 85 m -8 Y s 1005 85 m -8 Y s 1018 93 m -16 Y s 1032 85 m -8 Y s 1045 85 m -8 Y s 1058 85 m -8 Y s 1072 85 m -8 Y s 1085 93 m -16 Y s 1098 85 m -8 Y s 1112 85 m -8 Y s 1125 85 m
 -8 Y s 1138 85 m -8 Y s 1152 93 m -16 Y s 1165 85 m -8 Y s 1178 85 m -8 Y s 1192 85 m -8 Y s 1205 85 m -8 Y s 1218 93 m -16 Y s 1232 85 m -8 Y s 1245 85 m -8 Y s 1258 85 m -8 Y s 1272 85 m -8 Y s 1285 93 m -16 Y s 1298 85 m -8 Y s 1311 85 m -8 Y s
 1325 85 m -8 Y s 1338 85 m -8 Y s 1351 93 m -16 Y s 1365 85 m -8 Y s 1378 85 m -8 Y s 1391 85 m -8 Y s 1405 85 m -8 Y s 1418 93 m -16 Y s 885 77 m 559 Y s 902 77 m -17 X s 894 90 m -9 X s 894 102 m -9 X s 894 115 m -9 X s 894 128 m -9 X s 902 141 m
 -17 X s 894 153 m -9 X s 894 166 m -9 X s 894 179 m -9 X s 894 192 m -9 X s 902 204 m -17 X s 894 217 m -9 X s 894 230 m -9 X s 894 242 m -9 X s 894 255 m -9 X s 902 268 m -17 X s 894 281 m -9 X s 894 293 m -9 X s 894 306 m -9 X s 894 319 m -9 X s
 902 332 m -17 X s 894 344 m -9 X s 894 357 m -9 X s 894 370 m -9 X s 894 383 m -9 X s 902 395 m -17 X s 894 408 m -9 X s 894 421 m -9 X s 894 433 m -9 X s 894 446 m -9 X s 902 459 m -17 X s 894 472 m -9 X s 894 484 m -9 X s 894 497 m -9 X s 894 510
 m -9 X s 902 523 m -17 X s 894 535 m -9 X s 894 548 m -9 X s 894 561 m -9 X s 894 573 m -9 X s 902 586 m -17 X s 902 586 m -17 X s 894 599 m -9 X s 894 612 m -9 X s 894 624 m -9 X s 1 1 1 c black
 gsave  710 699 779 7 C 1041.51 672.14 t 0 r /Helvetica findfont 34.8619 sf 0 0 m (Background) show NC gr  1 1 1 c 711 699 1534 7 bf black 1 1 1 c 533 559 1641 77 bf black 533 559 1641 77 bl 1 1 1 c 533 559 1641 77 bf black 533 559 1641 77 bl 1641 77
 m 533 X s 1641 93 m -16 Y s 1654 85 m -8 Y s 1668 85 m -8 Y s 1681 85 m -8 Y s 1694 85 m -8 Y s 1708 93 m -16 Y s 1721 85 m -8 Y s 1734 85 m -8 Y s 1748 85 m -8 Y s 1761 85 m -8 Y s 1774 93 m -16 Y s 1788 85 m -8 Y s 1801 85 m -8 Y s 1814 85 m -8 Y
 s 1828 85 m -8 Y s 1841 93 m -16 Y s 1854 85 m -8 Y s 1868 85 m -8 Y s 1881 85 m -8 Y s 1894 85 m -8 Y s 1908 93 m -16 Y s 1921 85 m -8 Y s 1934 85 m -8 Y s 1947 85 m -8 Y s 1961 85 m -8 Y s 1974 93 m -16 Y s 1987 85 m -8 Y s 2001 85 m -8 Y s 2014
 85 m -8 Y s 2027 85 m -8 Y s 2041 93 m -16 Y s 2054 85 m -8 Y s 2067 85 m -8 Y s 2081 85 m -8 Y s 2094 85 m -8 Y s 2107 93 m -16 Y s 2121 85 m -8 Y s 2134 85 m -8 Y s 2147 85 m -8 Y s 2161 85 m -8 Y s 2174 93 m -16 Y s
 gsave  711 699 1534 7 C 1618.28 54.4979 t 0 r /Helvetica findfont 22.736 sf 0 0 m (5.25) show NC gr 
 gsave  711 699 1534 7 C 1678.84 54.4979 t 0 r /Helvetica findfont 22.736 sf 0 0 m (5.255) show NC gr 
 gsave  711 699 1534 7 C 1751.5 54.4979 t 0 r /Helvetica findfont 22.736 sf 0 0 m (5.26) show NC gr 
 gsave  711 699 1534 7 C 1812.05 54.4979 t 0 r /Helvetica findfont 22.736 sf 0 0 m (5.265) show NC gr 
 gsave  711 699 1534 7 C 1884.72 54.4979 t 0 r /Helvetica findfont 22.736 sf 0 0 m (5.27) show NC gr 
 gsave  711 699 1534 7 C 1945.27 54.4979 t 0 r /Helvetica findfont 22.736 sf 0 0 m (5.275) show NC gr 
 gsave  711 699 1534 7 C 2017.93 54.4979 t 0 r /Helvetica findfont 22.736 sf 0 0 m (5.28) show NC gr 
 gsave  711 699 1534 7 C 2078.49 54.4979 t 0 r /Helvetica findfont 22.736 sf 0 0 m (5.285) show NC gr 
 gsave  711 699 1534 7 C 2151.15 54.4979 t 0 r /Helvetica findfont 22.736 sf 0 0 m (5.29) show NC gr 
 gsave  711 699 1534 7 C 2117.85 31.7904 t 0 r /Helvetica findfont 22.736 sf 0 0 m (m_bc) show NC gr  1641 77 m 559 Y s 1658 77 m -17 X s 1650 99 m -9 X s 1650 121 m -9 X s 1650 143 m -9 X s 1650 165 m -9 X s 1658 187 m -17 X s 1650 209 m -9 X s 1650
 231 m -9 X s 1650 253 m -9 X s 1650 275 m -9 X s 1658 297 m -17 X s 1650 318 m -9 X s 1650 340 m -9 X s 1650 362 m -9 X s 1650 384 m -9 X s 1658 406 m -17 X s 1650 428 m -9 X s 1650 450 m -9 X s 1650 472 m -9 X s 1650 494 m -9 X s 1658 516 m -17 X s
 1650 538 m -9 X s 1650 560 m -9 X s 1650 582 m -9 X s 1650 604 m -9 X s 1658 626 m -17 X s 1658 626 m -17 X s
 gsave  711 699 1534 7 C 1624.34 68.1223 t 0 r /Helvetica findfont 22.736 sf 0 0 m (0) show NC gr 
 gsave  711 699 1534 7 C 1598.6 178.632 t 0 r /Helvetica findfont 22.736 sf 0 0 m (100) show NC gr 
 gsave  711 699 1534 7 C 1598.6 287.628 t 0 r /Helvetica findfont 22.736 sf 0 0 m (200) show NC gr 
 gsave  711 699 1534 7 C 1598.6 398.137 t 0 r /Helvetica findfont 22.736 sf 0 0 m (300) show NC gr 
 gsave  711 699 1534 7 C 1598.6 507.133 t 0 r /Helvetica findfont 22.736 sf 0 0 m (400) show NC gr 
 gsave  711 699 1534 7 C 1598.6 617.642 t 0 r /Helvetica findfont 22.736 sf 0 0 m (500) show NC gr 
 gsave  711 699 1534 7 C 1588.01 452.635 t 90 r /Helvetica findfont 22.736 sf 0 0 m (Events / \( 0.0004 \)) show NC gr  1644 84 m -3 X s 1641 81 m 6 Y s 1644 84 m 2 X s 1646 81 m 6 Y s 1644 84 m 4 Y s 1641 88 m 6 X s 1644 84 m -3 Y s 1641 81 m 6 X s
 1649 79 m -3 X s 1646 77 m 5 Y s 1649 79 m 3 X s 1652 77 m 5 Y s 1649 79 m 3 Y s 1646 82 m 6 X s 1649 79 m -1 Y s 1646 78 m 6 X s 1654 82 m -2 X s 1652 79 m 7 Y s 1654 82 m 3 X s 1657 79 m 7 Y s 1654 82 m 4 Y s 1651 86 m 6 X s 1654 82 m -2 Y s 1651
 80 m 6 X s 1660 81 m -3 X s 1657 78 m 6 Y s 1660 81 m 2 X s 1662 78 m 6 Y s 1660 81 m 4 Y s 1657 85 m 6 X s 1660 81 m -2 Y s 1657 79 m 6 X s 1665 80 m -3 X s 1662 77 m 6 Y s 1665 80 m 3 X s 1668 77 m 6 Y s 1665 80 m 4 Y s 1662 84 m 6 X s 1665 80 m
 -1 Y s 1662 79 m 6 X s 1670 78 m -2 X s 1668 77 m 4 Y s 1670 78 m 3 X s 1673 77 m 4 Y s 1670 78 m 3 Y s 1667 81 m 6 X s 1670 78 m -1 Y s 1667 77 m 6 X s 1676 77 m -3 X s 1673 77 m 3 Y s 1676 77 m 2 X s 1678 77 m 3 Y s 1676 77 m 1 Y s 1673 78 m 6 X s
 1681 80 m -3 X s 1678 77 m 6 Y s 1681 80 m 3 X s 1684 77 m 6 Y s 1681 80 m 4 Y s 1678 84 m 6 X s 1681 80 m -1 Y s 1678 79 m 6 X s 1686 79 m -2 X s 1684 77 m 5 Y s 1686 79 m 3 X s 1689 77 m 5 Y s 1686 79 m 3 Y s 1683 82 m 6 X s 1686 79 m -1 Y s 1683
 78 m 6 X s 1692 80 m -3 X s 1689 77 m 6 Y s 1692 80 m 2 X s 1694 77 m 6 Y s 1692 80 m 4 Y s 1689 84 m 6 X s 1692 80 m -1 Y s 1689 79 m 6 X s 1697 81 m -3 X s 1694 78 m 6 Y s 1697 81 m 3 X s 1700 78 m 6 Y s 1697 81 m 4 Y s 1694 85 m 6 X s 1697 81 m
 -2 Y s 1694 79 m 6 X s 1702 86 m -2 X s 1700 83 m 6 Y s 1702 86 m 3 X s 1705 83 m 6 Y s 1702 86 m 4 Y s 1699 90 m 6 X s 1702 86 m -3 Y s 1699 83 m 6 X s 1708 80 m -3 X s 1705 77 m 6 Y s 1708 80 m 2 X s 1710 77 m 6 Y s 1708 80 m 4 Y s 1705 84 m 6 X s
 1708 80 m -1 Y s 1705 79 m 6 X s 1713 80 m -3 X s 1710 77 m 6 Y s 1713 80 m 3 X s 1716 77 m 6 Y s 1713 80 m 4 Y s 1710 84 m 6 X s 1713 80 m -1 Y s 1710 79 m 6 X s 1718 81 m -2 X s 1716 78 m 6 Y s 1718 81 m 3 X s 1721 78 m 6 Y s 1718 81 m 4 Y s 1715
 85 m 6 X s 1718 81 m -2 Y s 1715 79 m 6 X s 1724 79 m -3 X s 1721 77 m 5 Y s 1724 79 m 2 X s 1726 77 m 5 Y s 1724 79 m 3 Y s 1721 82 m 6 X s 1724 79 m -1 Y s 1721 78 m 6 X s 1729 80 m -3 X s 1726 77 m 6 Y s 1729 80 m 3 X s 1732 77 m 6 Y s 1729 80 m
 4 Y s 1726 84 m 6 X s 1729 80 m -1 Y s 1726 79 m 6 X s 1734 79 m -2 X s 1732 77 m 5 Y s 1734 79 m 3 X s 1737 77 m 5 Y s 1734 79 m 3 Y s 1731 82 m 6 X s 1734 79 m -1 Y s 1731 78 m 6 X s 1740 79 m -3 X s 1737 77 m 5 Y s 1740 79 m 2 X s 1742 77 m 5 Y s
 1740 79 m 3 Y s 1737 82 m 6 X s 1740 79 m -1 Y s 1737 78 m 6 X s 1745 81 m -3 X s 1742 78 m 6 Y s 1745 81 m 3 X s 1748 78 m 6 Y s 1745 81 m 4 Y s 1742 85 m 6 X s 1745 81 m -2 Y s 1742 79 m 6 X s 1750 77 m -2 X s 1748 77 m 3 Y s 1750 77 m 3 X s 1753
 77 m 3 Y s 1750 77 m 1 Y s 1747 78 m 6 X s 1756 82 m -3 X s 1753 79 m 7 Y s 1756 82 m 2 X s 1758 79 m 7 Y s 1756 82 m 4 Y s 1753 86 m 6 X s 1756 82 m -2 Y s 1753 80 m 6 X s 1761 80 m -3 X s 1758 77 m 6 Y s 1761 80 m 3 X s 1764 77 m 6 Y s 1761 80 m 4
 Y s 1758 84 m 6 X s 1761 80 m -1 Y s 1758 79 m 6 X s 1766 80 m -2 X s 1764 77 m 6 Y s 1766 80 m 3 X s 1769 77 m 6 Y s 1766 80 m 4 Y s 1763 84 m 6 X s 1766 80 m -1 Y s 1763 79 m 6 X s 1772 81 m -3 X s 1769 78 m 6 Y s 1772 81 m 2 X s 1774 78 m 6 Y s
 1772 81 m 4 Y s 1769 85 m 6 X s 1772 81 m -2 Y s 1769 79 m 6 X s 1777 85 m -3 X s 1774 82 m 6 Y s 1777 85 m 3 X s 1780 82 m 6 Y s 1777 85 m 4 Y s 1774 89 m 6 X s 1777 85 m -3 Y s 1774 82 m 6 X s 1782 81 m -2 X s 1780 78 m 6 Y s 1782 81 m 3 X s 1785
 78 m 6 Y s 1782 81 m 4 Y s 1779 85 m 6 X s 1782 81 m -2 Y s 1779 79 m 6 X s 1788 79 m -3 X s 1785 77 m 5 Y s 1788 79 m 2 X s 1790 77 m 5 Y s 1788 79 m 3 Y s 1785 82 m 6 X s 1788 79 m -1 Y s 1785 78 m 6 X s 1793 82 m -3 X s 1790 79 m 7 Y s 1793 82 m
 3 X s 1796 79 m 7 Y s 1793 82 m 4 Y s 1790 86 m 6 X s 1793 82 m -2 Y s 1790 80 m 6 X s 1798 85 m -2 X s 1796 82 m 6 Y s 1798 85 m 3 X s 1801 82 m 6 Y s 1798 85 m 4 Y s 1795 89 m 6 X s 1798 85 m -3 Y s 1795 82 m 6 X s 1804 78 m -3 X s 1801 77 m 4 Y s
 1804 78 m 2 X s 1806 77 m 4 Y s 1804 78 m 3 Y s 1801 81 m 6 X s 1804 78 m -1 Y s 1801 77 m 6 X s 1809 81 m -3 X s 1806 78 m 6 Y s 1809 81 m 3 X s 1812 78 m 6 Y s 1809 81 m 4 Y s 1806 85 m 6 X s 1809 81 m -2 Y s 1806 79 m 6 X s 1814 81 m -2 X s 1812
 78 m 6 Y s 1814 81 m 3 X s 1817 78 m 6 Y s 1814 81 m 4 Y s 1811 85 m 6 X s 1814 81 m -2 Y s 1811 79 m 6 X s 1820 81 m -3 X s 1817 78 m 6 Y s 1820 81 m 2 X s 1822 78 m 6 Y s 1820 81 m 4 Y s 1817 85 m 6 X s 1820 81 m -2 Y s 1817 79 m 6 X s 1825 80 m
 -3 X s 1822 77 m 6 Y s 1825 80 m 3 X s 1828 77 m 6 Y s 1825 80 m 4 Y s 1822 84 m 6 X s 1825 80 m -1 Y s 1822 79 m 6 X s 1830 80 m -2 X s 1828 77 m 6 Y s 1830 80 m 3 X s 1833 77 m 6 Y s 1830 80 m 4 Y s 1827 84 m 6 X s 1830 80 m -1 Y s 1827 79 m 6 X s
 1836 79 m -3 X s 1833 77 m 5 Y s 1836 79 m 2 X s 1838 77 m 5 Y s 1836 79 m 3 Y s 1833 82 m 6 X s 1836 79 m -1 Y s 1833 78 m 6 X s 1841 78 m -3 X s 1838 77 m 4 Y s 1841 78 m 3 X s 1844 77 m 4 Y s 1841 78 m 3 Y s 1838 81 m 6 X s 1841 78 m -1 Y s 1838
 77 m 6 X s 1846 78 m -2 X s 1844 77 m 4 Y s 1846 78 m 3 X s 1849 77 m 4 Y s 1846 78 m 3 Y s 1843 81 m 6 X s 1846 78 m -1 Y s 1843 77 m 6 X s 1852 81 m -3 X s 1849 78 m 6 Y s 1852 81 m 2 X s 1854 78 m 6 Y s 1852 81 m 4 Y s 1849 85 m 6 X s 1852 81 m
 -2 Y s 1849 79 m 6 X s 1857 81 m -3 X s 1854 78 m 6 Y s 1857 81 m 3 X s 1860 78 m 6 Y s 1857 81 m 4 Y s 1854 85 m 6 X s 1857 81 m -2 Y s 1854 79 m 6 X s 1862 79 m -2 X s 1860 77 m 5 Y s 1862 79 m 3 X s 1865 77 m 5 Y s 1862 79 m 3 Y s 1859 82 m 6 X s
 1862 79 m -1 Y s 1859 78 m 6 X s 1868 82 m -3 X s 1865 79 m 7 Y s 1868 82 m 2 X s 1870 79 m 7 Y s 1868 82 m 4 Y s 1865 86 m 6 X s 1868 82 m -2 Y s 1865 80 m 6 X s 1873 84 m -3 X s 1870 81 m 6 Y s 1873 84 m 3 X s 1876 81 m 6 Y s 1873 84 m 4 Y s 1870
 88 m 6 X s 1873 84 m -3 Y s 1870 81 m 6 X s 1878 81 m -2 X s 1876 78 m 6 Y s 1878 81 m 3 X s 1881 78 m 6 Y s 1878 81 m 4 Y s 1875 85 m 6 X s 1878 81 m -2 Y s 1875 79 m 6 X s 1884 80 m -3 X s 1881 77 m 6 Y s 1884 80 m 2 X s 1886 77 m 6 Y s 1884 80 m
 4 Y s 1881 84 m 6 X s 1884 80 m -1 Y s 1881 79 m 6 X s 1889 81 m -3 X s 1886 78 m 6 Y s 1889 81 m 3 X s 1892 78 m 6 Y s 1889 81 m 4 Y s 1886 85 m 6 X s 1889 81 m -2 Y s 1886 79 m 6 X s 1894 82 m -2 X s 1892 79 m 7 Y s 1894 82 m 3 X s 1897 79 m 7 Y s
 1894 82 m 4 Y s 1891 86 m 6 X s 1894 82 m -2 Y s 1891 80 m 6 X s 1900 79 m -3 X s 1897 77 m 5 Y s 1900 79 m 2 X s 1902 77 m 5 Y s 1900 79 m 3 Y s 1897 82 m 6 X s 1900 79 m -1 Y s 1897 78 m 6 X s 1905 84 m -3 X s 1902 81 m 6 Y s 1905 84 m 3 X s 1908
 81 m 6 Y s 1905 84 m 4 Y s 1902 88 m 6 X s 1905 84 m -3 Y s 1902 81 m 6 X s 1910 81 m -2 X s 1908 78 m 6 Y s 1910 81 m 3 X s 1913 78 m 6 Y s 1910 81 m 4 Y s 1907 85 m 6 X s 1910 81 m -2 Y s 1907 79 m 6 X s 1916 81 m -3 X s 1913 78 m 6 Y s 1916 81 m
 2 X s 1918 78 m 6 Y s 1916 81 m 4 Y s 1912 85 m 7 X s 1916 81 m -2 Y s 1912 79 m 7 X s 1921 84 m -3 X s 1918 81 m 6 Y s 1921 84 m 3 X s 1924 81 m 6 Y s 1921 84 m 4 Y s 1918 88 m 6 X s 1921 84 m -3 Y s 1918 81 m 6 X s 1926 82 m -2 X s 1924 79 m 7 Y s
 1926 82 m 3 X s 1929 79 m 7 Y s 1926 82 m 4 Y s 1923 86 m 6 X s 1926 82 m -2 Y s 1923 80 m 6 X s 1932 87 m -3 X s 1929 84 m 6 Y s 1932 87 m 2 X s 1934 84 m 6 Y s 1932 87 m 4 Y s 1928 91 m 7 X s 1932 87 m -3 Y s 1928 84 m 7 X s 1937 87 m -3 X s 1934
 84 m 6 Y s 1937 87 m 3 X s 1940 84 m 6 Y s 1937 87 m 4 Y s 1934 91 m 6 X s 1937 87 m -3 Y s 1934 84 m 6 X s 1942 88 m -2 X s 1940 85 m 6 Y s 1942 88 m 3 X s 1945 85 m 6 Y s 1942 88 m 5 Y s 1939 93 m 6 X s 1942 88 m -3 Y s 1939 85 m 6 X s 1947 91 m
 -2 X s 1945 88 m 6 Y s 1947 91 m 3 X s 1950 88 m 6 Y s 1947 91 m 5 Y s 1944 96 m 7 X s 1947 91 m -4 Y s 1944 87 m 7 X s 1953 101 m -3 X s 1950 98 m 6 Y s 1953 101 m 2 X s 1955 98 m 6 Y s 1953 101 m 6 Y s 1950 107 m 6 X s 1953 101 m -5 Y s 1950 96 m
 6 X s 1958 106 m -3 X s 1955 103 m 6 Y s 1958 106 m 3 X s 1961 103 m 6 Y s 1958 106 m 6 Y s 1955 112 m 6 X s 1958 106 m -6 Y s 1955 100 m 6 X s 1963 108 m -2 X s 1961 105 m 6 Y s 1963 108 m 3 X s 1966 105 m 6 Y s 1963 108 m 7 Y s 1960 115 m 7 X s
 1963 108 m -6 Y s 1960 102 m 7 X s 1969 118 m -3 X s 1966 115 m 6 Y s 1969 118 m 2 X s 1971 115 m 6 Y s 1969 118 m 7 Y s 1966 125 m 6 X s 1969 118 m -7 Y s 1966 111 m 6 X s 1974 138 m -3 X s 1971 135 m 7 Y s 1974 138 m 3 X s 1977 135 m 7 Y s 1974
 138 m 10 Y s 1971 148 m 6 X s 1974 138 m -8 Y s 1971 130 m 6 X s 1979 155 m -2 X s 1977 152 m 6 Y s 1979 155 m 3 X s 1982 152 m 6 Y s 1979 155 m 10 Y s 1976 165 m 6 X s 1979 155 m -9 Y s 1976 146 m 6 X s 1985 186 m -3 X s 1982 183 m 6 Y s 1985 186 m
 2 X s 1987 183 m 6 Y s 1985 186 m 12 Y s 1982 198 m 6 X s 1985 186 m -11 Y s 1982 175 m 6 X s 1990 221 m -3 X s 1987 218 m 6 Y s 1990 221 m 3 X s 1993 218 m 6 Y s 1990 221 m 13 Y s 1987 234 m 6 X s 1990 221 m -12 Y s 1987 209 m 6 X s 1995 247 m -2 X
 s 1993 244 m 6 Y s 1995 247 m 3 X s 1998 244 m 6 Y s 1995 247 m 14 Y s 1992 261 m 6 X s 1995 247 m -13 Y s 1992 234 m 6 X s 2001 277 m -3 X s 1998 274 m 6 Y s 2001 277 m 2 X s 2003 274 m 6 Y s 2001 277 m 15 Y s 1998 292 m 6 X s 2001 277 m -14 Y s
 1998 263 m 6 X s 2006 336 m -3 X s 2003 333 m 6 Y s 2006 336 m 3 X s 2009 333 m 6 Y s 2006 336 m 17 Y s 2003 353 m 6 X s 2006 336 m -16 Y s 2003 320 m 6 X s 2011 394 m -2 X s 2009 391 m 6 Y s 2011 394 m 3 X s 2014 391 m 6 Y s 2011 394 m 19 Y s 2008
 413 m 6 X s 2011 394 m -18 Y s 2008 376 m 6 X s 2017 447 m -3 X s 2014 444 m 6 Y s 2017 447 m 2 X s 2019 444 m 6 Y s 2017 447 m 21 Y s 2014 468 m 6 X s 2017 447 m -20 Y s 2014 427 m 6 X s 2022 474 m -3 X s 2019 471 m 6 Y s 2022 474 m 3 X s 2025 471
 m 6 Y s 2022 474 m 22 Y s 2019 496 m 6 X s 2022 474 m -20 Y s 2019 454 m 6 X s 2027 527 m -2 X s 2025 524 m 6 Y s 2027 527 m 3 X s 2030 524 m 6 Y s 2027 527 m 23 Y s 2024 550 m 6 X s 2027 527 m -22 Y s 2024 505 m 6 X s 2033 569 m -3 X s 2030 566 m 6
 Y s 2033 569 m 2 X s 2035 566 m 6 Y s 2033 569 m 24 Y s 2030 593 m 6 X s 2033 569 m -23 Y s 2030 546 m 6 X s 2038 585 m -3 X s 2035 582 m 6 Y s 2038 585 m 3 X s 2041 582 m 6 Y s 2038 585 m 24 Y s 2035 609 m 6 X s 2038 585 m -23 Y s 2035 562 m 6 X s
 2043 578 m -2 X s 2041 575 m 6 Y s 2043 578 m 3 X s 2046 575 m 6 Y s 2043 578 m 24 Y s 2040 602 m 6 X s 2043 578 m -23 Y s 2040 555 m 6 X s 2049 569 m -3 X s 2046 566 m 6 Y s 2049 569 m 2 X s 2051 566 m 6 Y s 2049 569 m 24 Y s 2046 593 m 6 X s 2049
 569 m -23 Y s 2046 546 m 6 X s 2054 538 m -3 X s 2051 535 m 6 Y s 2054 538 m 3 X s 2057 535 m 6 Y s 2054 538 m 23 Y s 2051 561 m 6 X s 2054 538 m -22 Y s 2051 516 m 6 X s 2059 549 m -2 X s 2057 546 m 6 Y s 2059 549 m 3 X s 2062 546 m 6 Y s 2059 549
 m 23 Y s 2056 572 m 6 X s 2059 549 m -22 Y s 2056 527 m 6 X s 2065 541 m -3 X s 2062 538 m 6 Y s 2065 541 m 2 X s 2067 538 m 6 Y s 2065 541 m 23 Y s 2062 564 m 6 X s 2065 541 m -22 Y s 2062 519 m 6 X s 2070 479 m -3 X s 2067 476 m 6 Y s 2070 479 m 3
 X s 2073 476 m 6 Y s 2070 479 m 21 Y s 2067 500 m 6 X s 2070 479 m -21 Y s 2067 458 m 6 X s 2075 438 m -2 X s 2073 435 m 6 Y s 2075 438 m 3 X s 2078 435 m 6 Y s 2075 438 m 21 Y s 2072 459 m 6 X s 2075 438 m -19 Y s 2072 419 m 6 X s 2081 416 m -3 X s
 2078 413 m 6 Y s 2081 416 m 2 X s 2083 413 m 6 Y s 2081 416 m 20 Y s 2078 436 m 6 X s 2081 416 m -19 Y s 2078 397 m 6 X s 2086 358 m -3 X s 2083 355 m 6 Y s 2086 358 m 3 X s 2089 355 m 6 Y s 2086 358 m 18 Y s 2083 376 m 6 X s 2086 358 m -17 Y s 2083
 341 m 6 X s 2091 299 m -2 X s 2089 296 m 6 Y s 2091 299 m 3 X s 2094 296 m 6 Y s 2091 299 m 16 Y s 2088 315 m 6 X s 2091 299 m -15 Y s 2088 284 m 6 X s 2097 235 m -3 X s 2094 232 m 6 Y s 2097 235 m 2 X s 2099 232 m 6 Y s 2097 235 m 14 Y s 2094 249 m
 6 X s 2097 235 m -13 Y s 2094 222 m 6 X s 2102 245 m -3 X s 2099 242 m 6 Y s 2102 245 m 3 X s 2105 242 m 6 Y s 2102 245 m 14 Y s 2099 259 m 6 X s 2102 245 m -13 Y s 2099 232 m 6 X s 2107 197 m -2 X s 2105 194 m 6 Y s 2107 197 m 3 X s 2110 194 m 6 Y
 s 2107 197 m 12 Y s 2104 209 m 6 X s 2107 197 m -11 Y s 2104 186 m 6 X s 2113 165 m -3 X s 2110 162 m 6 Y s 2113 165 m 2 X s 2115 162 m 6 Y s 2113 165 m 11 Y s 2110 176 m 6 X s 2113 165 m -10 Y s 2110 155 m 6 X s 2118 134 m -3 X s 2115 131 m 6 Y s
 2118 134 m 3 X s 2121 131 m 6 Y s 2118 134 m 9 Y s 2115 143 m 6 X s 2118 134 m -8 Y s 2115 126 m 6 X s 2123 120 m -2 X s 2121 117 m 6 Y s 2123 120 m 3 X s 2126 117 m 6 Y s 2123 120 m 8 Y s 2120 128 m 6 X s 2123 120 m -7 Y s 2120 113 m 6 X s 2129 102
 m -3 X s 2126 99 m 6 Y s 2129 102 m 2 X s 2131 99 m 6 Y s 2129 102 m 7 Y s 2126 109 m 6 X s 2129 102 m -5 Y s 2126 97 m 6 X s 2134 107 m -3 X s 2131 104 m 6 Y s 2134 107 m 3 X s 2137 104 m 6 Y s 2134 107 m 7 Y s 2131 114 m 6 X s 2134 107 m -6 Y s
 2131 101 m 6 X s 2139 92 m -2 X s 2137 89 m 6 Y s 2139 92 m 3 X s 2142 89 m 6 Y s 2139 92 m 6 Y s 2136 98 m 6 X s 2139 92 m -4 Y s 2136 88 m 6 X s 2145 86 m -3 X s 2142 83 m 6 Y s 2145 86 m 2 X s 2147 83 m 6 Y s 2145 86 m 4 Y s 2142 90 m 6 X s 2145
 86 m -3 Y s 2142 83 m 6 X s 2150 81 m -3 X s 2147 78 m 6 Y s 2150 81 m 3 X s 2153 78 m 6 Y s 2150 81 m 4 Y s 2147 85 m 6 X s 2150 81 m -2 Y s 2147 79 m 6 X s 2155 88 m -2 X s 2153 85 m 6 Y s 2155 88 m 3 X s 2158 85 m 6 Y s 2155 88 m 5 Y s 2152 93 m
 6 X s 2155 88 m -3 Y s 2152 85 m 6 X s 2161 80 m -3 X s 2158 77 m 6 Y s 2161 80 m 2 X s 2163 77 m 6 Y s 2161 80 m 4 Y s 2158 84 m 6 X s 2161 80 m -1 Y s 2158 79 m 6 X s 2166 77 m -3 X s 2163 77 m 3 Y s 2166 77 m 3 X s 2169 77 m 3 Y s 2166 77 m 1 Y s
 2163 78 m 6 X s 2171 79 m -2 X s 2169 77 m 5 Y s 2171 79 m 3 X s 2174 77 m 5 Y s 2171 79 m 3 Y s 2168 82 m 6 X s 2171 79 m -1 Y s 2168 78 m 6 X s /w 13 def /w2 {w 2 div} def /w3 {w 3 div} def 1644 84 1649 79 1654 82 1660 81 1665 80 1670 78 1676 77
 1681 80 1686 79 1692 80 1697 81 1702 86 1708 80 1713 80 1718 81 1724 79 1729 80 1734 79 1740 79 1745 81 1750 77 1756 82 1761 80 1766 80 1772 81 1777 85 1782 81 1788 79 1793 82 1798 85 1804 78 1809 81 1814 81 1820 81 1825 80 1830 80 1836 79 1841 78
 1846 78 1852 81 1857 81 1862 79 1868 82 1873 84 1878 81 1884 80 1889 81 1894 82 1900 79 1905 84 1910 81 1916 81 1921 84 1926 82 1932 87 1937 87 1942 88 1947 91 1953 101 1958 106 1963 108 1969 118 1974 138 1979 155 1985 186 1990 221 1995 247 2001 277
 2006 336 2011 394 2017 447 2022 474 2027 527 2033 569 2038 585 2043 578 2049 569 2054 538 2059 549 2065 541 2070 479 2075 438 2081 416 2086 358 2091 299 2097 235 2102 245 2107 197 2113 165 2118 134 2123 120 2129 102 2134 107 2139 92 2145 86 2150 81
 2155 88 2161 80 2166 77 2171 79 100 { m20} R 0 0 1 c 9 lw black 0 0 1 c 1641 81 m cl s 1641 81 m 272 X 5 1 d 6 X 5 1 d 5 1 d 6 2 d 5 2 d 5 4 d 5 5 d 6 7 d 5 10 d 5 13 d 3 8 d 3 10 d 2 10 d 3 11 d 3 13 d 2 14 d 3 16 d 3 17 d 2 18 d 3 20 d 3 20 d 2 22
 d 6 47 d 5 50 d 5 49 d 6 46 d 2 22 d 3 19 d 3 17 d 2 15 d 3 13 d 3 9 d 2 6 d 3 3 d 3 -1 d 2 -4 d 3 -7 d 3 -11 d 2 -13 d 3 -16 d 3 -18 d 2 -20 d 3 -22 d 3 -23 d 5 -49 d 5 -50 d 6 -48 d 2 -22 d 3 -22 d 3 -21 d 2 -19 d 3 -18 d 3 -16 d 2 -15 d 3 -14 d 3
 -12 d 2 -11 d 3 -10 d 3 -9 d 5 -14 d 5 -11 d 6 -8 d 5 -6 d 5 -5 d 6 -3 d 5 -2 d 5 -2 d 6 -1 d 5 -1 d s black 3 lw 1641 77 m 533 X s 1641 93 m -16 Y s 1654 85 m -8 Y s 1668 85 m -8 Y s 1681 85 m -8 Y s 1694 85 m -8 Y s 1708 93 m -16 Y s 1721 85 m -8
 Y s 1734 85 m -8 Y s 1748 85 m -8 Y s 1761 85 m -8 Y s 1774 93 m -16 Y s 1788 85 m -8 Y s 1801 85 m -8 Y s 1814 85 m -8 Y s 1828 85 m -8 Y s 1841 93 m -16 Y s 1854 85 m -8 Y s 1868 85 m -8 Y s 1881 85 m -8 Y s 1894 85 m -8 Y s 1908 93 m -16 Y s 1921
 85 m -8 Y s 1934 85 m -8 Y s 1947 85 m -8 Y s 1961 85 m -8 Y s 1974 93 m -16 Y s 1987 85 m -8 Y s 2001 85 m -8 Y s 2014 85 m -8 Y s 2027 85 m -8 Y s 2041 93 m -16 Y s 2054 85 m -8 Y s 2067 85 m -8 Y s 2081 85 m -8 Y s 2094 85 m -8 Y s 2107 93 m -16
 Y s 2121 85 m -8 Y s 2134 85 m -8 Y s 2147 85 m -8 Y s 2161 85 m -8 Y s 2174 93 m -16 Y s 1641 77 m 559 Y s 1658 77 m -17 X s 1650 99 m -9 X s 1650 121 m -9 X s 1650 143 m -9 X s 1650 165 m -9 X s 1658 187 m -17 X s 1650 209 m -9 X s 1650 231 m -9 X
 s 1650 253 m -9 X s 1650 275 m -9 X s 1658 297 m -17 X s 1650 318 m -9 X s 1650 340 m -9 X s 1650 362 m -9 X s 1650 384 m -9 X s 1658 406 m -17 X s 1650 428 m -9 X s 1650 450 m -9 X s 1650 472 m -9 X s 1650 494 m -9 X s 1658 516 m -17 X s 1650 538 m
 -9 X s 1650 560 m -9 X s 1650 582 m -9 X s 1650 604 m -9 X s 1658 626 m -17 X s 1658 626 m -17 X s 1 1 1 c black
 gsave  711 699 1534 7 C 1728.79 670.626 t 0 r /Helvetica findfont 34.8619 sf 0 0 m (Signal + Background) show NC gr 
 gr  gr showpage
end
%%EOF
