%!PS-Adobe-2.0 EPSF-2.0
%%BoundingBox:  0 0 567 178
%%Title: ./plots/pAll_s2s0_s1.eps: rf101_basics
%%Creator: ROOT Version 6.11/01
%%CreationDate: Sat Sep 23 20:37:48 2017
%%DocumentNeededResources: ProcSet (FontSetInit)
%%EndComments
%%BeginProlog
80 dict begin
/s {stroke} def /l {lineto} def /m {moveto} def /t {translate} def
/r {rotate} def /rl {roll}  def /R {repeat} def
/d {rlineto} def /rm {rmoveto} def /gr {grestore} def /f {eofill} def
/c {setrgbcolor} def /black {0 setgray} def /sd {setdash} def
/cl {closepath} def /sf {scalefont setfont} def /lw {setlinewidth} def
/box {m dup 0 exch d exch 0 d 0 exch neg d cl} def
/NC{systemdict begin initclip end}def/C{NC box clip newpath}def
/bl {box s} def /bf {gsave box gsave f grestore 1 lw [] 0 sd s grestore} def /Y { 0 exch d} def /X { 0 d} def 
/K {{pop pop 0 moveto} exch kshow} bind def
/ita {/ang 15 def gsave [1 0 ang dup sin exch cos div 1 0 0] concat} def 
/mp {newpath /y exch def /x exch def} def
/side {[w .77 mul w .23 mul] .385 w mul sd w 0 l currentpoint t -144 r} def
/mr {mp x y w2 0 360 arc} def /m24 {mr s} def /m20 {mr f} def
/mb {mp x y w2 add m w2 neg 0 d 0 w neg d w 0 d 0 w d cl} def
/mt {mp x y w2 add m w2 neg w neg d w 0 d cl} def
/w4 {w 4 div} def
/w6 {w 6 div} def
/w8 {w 8 div} def
/m21 {mb f} def /m25 {mb s} def /m22 {mt f} def /m26{mt s} def
/m23 {mp x y w2 sub m w2 w d w neg 0 d cl f} def
/m27 {mp x y w2 add m w3 neg w2 neg d w3 w2 neg d w3 w2 d cl s} def
/m28 {mp x w2 sub y w2 sub w3 add m w3 0 d  0 w3 neg d w3 0 d 0 w3 d w3 0 d  0 w3 d w3 neg 0 d 0 w3 d w3 neg 0 d 0 w3 neg d w3 neg 0 d cl s } def
/m29 {mp gsave x w2 sub y w2 add w3 sub m currentpoint t 4 {side} repeat cl fill gr} def
/m30 {mp gsave x w2 sub y w2 add w3 sub m currentpoint t 4 {side} repeat cl s gr} def
/m31 {mp x y w2 sub m 0 w d x w2 sub y m w 0 d x w2 sub y w2 add m w w neg d x w2 sub y w2 sub m w w d s} def
/m32 {mp x y w2 sub m w2 w d w neg 0 d cl s} def
/m33 {mp x y w2 add m w3 neg w2 neg d w3 w2 neg d w3 w2 d cl f} def
/m34 {mp x w2 sub y w2 sub w3 add m w3 0 d  0 w3 neg d w3 0 d 0 w3 d w3 0 d  0 w3 d w3 neg 0 d 0 w3 d w3 neg 0 d 0 w3 neg d w3 neg 0 d cl f } def
/m35 {mp x y w2 add m w2 neg w2 neg d w2 w2 neg d w2 w2 d w2 neg w2 d x y w2 sub m 0 w d x w2 sub y m w 0 d s} def
/m36 {mb x w2 sub y w2 add m w w neg d x w2 sub y w2 sub m w w d s} def
/m37 {mp x y m w4 neg w2 d w4 neg w2 neg d w2 0 d  w4 neg w2 neg d w2 0 d w4 neg w2 d w2 0 d w4 neg w2 d w4 neg w2 neg d cl s} def
/m38 {mp x w4 sub y w2 add m w4 neg w4 neg d 0 w2 neg d w4 w4 neg d w2 0 d w4 w4 d 0 w2 d w4 neg w4 d w2 neg 0 d x y w2 sub m 0 w d x w2 sub y m w 0 d cl s} def
/m39 {mp x y m w4 neg w2 d w4 neg w2 neg d w2 0 d  w4 neg w2 neg d w2 0 d w4 neg w2 d w2 0 d w4 neg w2 d w4 neg w2 neg d cl f} def
/m40 {mp x y m w4 w2 d w4 w4 neg d w2 neg w4 neg d w2 w4 neg d w4 neg w4 neg d w4 neg w2 d w4 neg w2 neg d w4 neg w4 d w2 w4 d w2 neg w4 d w4 w4 d w4 w2 neg d cl s} def
/m41 {mp x y m w4 w2 d w4 w4 neg d w2 neg w4 neg d w2 w4 neg d w4 neg w4 neg d w4 neg w2 d w4 neg w2 neg d w4 neg w4 d w2 w4 d w2 neg w4 d w4 w4 d w4 w2 neg d cl f} def
/m42 {mp x y w2 add m w8 neg w2 -3 4 div mul d w2 -3 4 div mul w8 neg d w2 3 4 div mul w8 neg d w8 w2 -3 4 div mul d w8 w2 3 4 div mul d w2 3 4 div mul w8 d w2 -3 4 div mul w8 d w8 neg w2 3 4 div mul d cl s} def
/m43 {mp x y w2 add m w8 neg w2 -3 4 div mul d w2 -3 4 div mul w8 neg d w2 3 4 div mul w8 neg d w8 w2 -3 4 div mul d w8 w2 3 4 div mul d w2 3 4 div mul w8 d w2 -3 4 div mul w8 d w8 neg w2 3 4 div mul d cl f} def
/m44 {mp x y m w6 neg w2 d w2 2 3 div mul 0 d w6 neg w2 neg d w2 w6 d 0 w2 -2 3 div mul d w2 neg w6 d w6 w2 neg d w2 -2 3 div mul 0 d w6 w2 d w2 neg w6 neg d 0 w2 2 3 div mul d w2 w6 neg d cl s} def
/m45 {mp x y m w6 neg w2 d w2 2 3 div mul 0 d w6 neg w2 neg d w2 w6 d 0 w2 -2 3 div mul d w2 neg w6 d w6 w2 neg d w2 -2 3 div mul 0 d w6 w2 d w2 neg w6 neg d 0 w2 2 3 div mul d w2 w6 neg d cl f} def
/m46 {mp x y w4 add m w4 neg w4 d w4 neg w4 neg d  w4 w4 neg d w4 neg w4 neg d w4 w4 neg d w4 w4 d w4 w4 neg d w4 w4 d w4 neg w4 d w4 w4 d w4 neg w4 d w4 neg w4 neg d cl s} def
/m47 {mp x y w4 add m w4 neg w4 d w4 neg w4 neg d w4 w4 neg d w4 neg w4 neg d  w4 w4 neg d w4 w4 d w4 w4 neg d w4 w4 d w4 neg w4 d w4 w4 d w4 neg w4 d w4 neg w4 neg d cl f} def
/m48 {mp x y w4 add m w4 neg w4 d w4 neg w4 neg d w4 w4 neg d  w4 neg w4 neg d w4 w4 neg d w4 w4 d w4 w4 neg d w4 w4 d w4 neg w4 d w4 w4 d w4 neg w4 d w4 neg w4 neg d  w4 w4 neg d w4 neg w4 neg d w4 neg w4 d w4 w4 d cl f} def
/m49 {mp x w2 sub w3 add y w2 sub w3 add m  0 w3 neg d w3 0 d 0 w3 d w3 0 d 0 w3 d w3 neg 0 d 0 w3 d w3 neg 0 d 0 w3 neg d w3 neg 0 d 0 w3 neg d w3 0 d 0 w3 d w3 0 d 0 w3 neg d w3 neg 0 d cl f } def
/m2 {mp x y w2 sub m 0 w d x w2 sub y m w 0 d s} def
/m5 {mp x w2 sub y w2 sub m w w d x w2 sub y w2 add m w w neg d s} def
%%IncludeResource: ProcSet (FontSetInit)
%%IncludeResource: font Times-Roman
%%IncludeResource: font Times-Italic
%%IncludeResource: font Times-Bold
%%IncludeResource: font Times-BoldItalic
%%IncludeResource: font Helvetica
%%IncludeResource: font Helvetica-Oblique
%%IncludeResource: font Helvetica-Bold
%%IncludeResource: font Helvetica-BoldOblique
%%IncludeResource: font Courier
%%IncludeResource: font Courier-Oblique
%%IncludeResource: font Courier-Bold
%%IncludeResource: font Courier-BoldOblique
%%IncludeResource: font Symbol
%%IncludeResource: font ZapfDingbats
/reEncode {exch findfont dup length dict begin {1 index /FID eq  {pop pop} {def} ifelse } forall /Encoding exch def currentdict end dup /FontName get exch definefont pop } def [/Times-Bold /Times-Italic /Times-BoldItalic /Helvetica /Helvetica-Oblique
 /Helvetica-Bold /Helvetica-BoldOblique /Courier /Courier-Oblique /Courier-Bold /Courier-BoldOblique /Times-Roman /AvantGarde-Book /AvantGarde-BookOblique /AvantGarde-Demi /AvantGarde-DemiOblique /Bookman-Demi /Bookman-DemiItalic /Bookman-Light
 /Bookman-LightItalic /Helvetica-Narrow /Helvetica-Narrow-Bold /Helvetica-Narrow-BoldOblique /Helvetica-Narrow-Oblique /NewCenturySchlbk-Roman /NewCenturySchlbk-Bold /NewCenturySchlbk-BoldItalic /NewCenturySchlbk-Italic /Palatino-Bold
 /Palatino-BoldItalic /Palatino-Italic /Palatino-Roman ] {ISOLatin1Encoding reEncode } forall
%%EndProlog
%%BeginSetup
%%EndSetup
newpath  gsave  .25 .25 scale  gsave  0 0 t black[  ] 0 sd 3 lw 1 1 1 c 2268 713 0 0 bf black 1 1 1 c 710 699 23 7 bf black 1 1 1 c 533 559 129 77 bf black 533 559 129 77 bl 1 1 1 c 533 559 129 77 bf black 533 559 129 77 bl 129 77 m 533 X s 129 93 m
 -16 Y s 143 85 m -8 Y s 156 85 m -8 Y s 169 85 m -8 Y s 183 85 m -8 Y s 196 93 m -16 Y s 209 85 m -8 Y s 223 85 m -8 Y s 236 85 m -8 Y s 249 85 m -8 Y s 262 93 m -16 Y s 276 85 m -8 Y s 289 85 m -8 Y s 302 85 m -8 Y s 316 85 m -8 Y s 329 93 m -16 Y
 s 342 85 m -8 Y s 356 85 m -8 Y s 369 85 m -8 Y s 382 85 m -8 Y s 396 93 m -16 Y s 409 85 m -8 Y s 422 85 m -8 Y s 436 85 m -8 Y s 449 85 m -8 Y s 462 93 m -16 Y s 476 85 m -8 Y s 489 85 m -8 Y s 502 85 m -8 Y s 516 85 m -8 Y s 529 93 m -16 Y s 542
 85 m -8 Y s 556 85 m -8 Y s 569 85 m -8 Y s 582 85 m -8 Y s 596 93 m -16 Y s 609 85 m -8 Y s 622 85 m -8 Y s 636 85 m -8 Y s 649 85 m -8 Y s 662 93 m -16 Y s
 gsave  710 699 23 7 C 105.968 54.4979 t 0 r /Helvetica findfont 22.736 sf 0 0 m (5.25) show NC gr 
 gsave  710 699 23 7 C 166.521 54.4979 t 0 r /Helvetica findfont 22.736 sf 0 0 m (5.255) show NC gr 
 gsave  710 699 23 7 C 239.185 54.4979 t 0 r /Helvetica findfont 22.736 sf 0 0 m (5.26) show NC gr 
 gsave  710 699 23 7 C 299.738 54.4979 t 0 r /Helvetica findfont 22.736 sf 0 0 m (5.265) show NC gr 
 gsave  710 699 23 7 C 372.402 54.4979 t 0 r /Helvetica findfont 22.736 sf 0 0 m (5.27) show NC gr 
 gsave  710 699 23 7 C 432.955 54.4979 t 0 r /Helvetica findfont 22.736 sf 0 0 m (5.275) show NC gr 
 gsave  710 699 23 7 C 505.619 54.4979 t 0 r /Helvetica findfont 22.736 sf 0 0 m (5.28) show NC gr 
 gsave  710 699 23 7 C 566.172 54.4979 t 0 r /Helvetica findfont 22.736 sf 0 0 m (5.285) show NC gr 
 gsave  710 699 23 7 C 638.836 54.4979 t 0 r /Helvetica findfont 22.736 sf 0 0 m (5.29) show NC gr 
 gsave  710 699 23 7 C 605.532 31.7904 t 0 r /Helvetica findfont 22.736 sf 0 0 m (m_bc) show NC gr  129 77 m 559 Y s 146 77 m -17 X s 138 89 m -9 X s 138 101 m -9 X s 138 113 m -9 X s 138 125 m -9 X s 146 137 m -17 X s 138 149 m -9 X s 138 161 m -9 X
 s 138 173 m -9 X s 138 185 m -9 X s 146 197 m -17 X s 138 209 m -9 X s 138 221 m -9 X s 138 233 m -9 X s 138 245 m -9 X s 146 256 m -17 X s 138 268 m -9 X s 138 280 m -9 X s 138 292 m -9 X s 138 304 m -9 X s 146 316 m -17 X s 138 328 m -9 X s 138
 340 m -9 X s 138 352 m -9 X s 138 364 m -9 X s 146 376 m -17 X s 138 388 m -9 X s 138 400 m -9 X s 138 412 m -9 X s 138 424 m -9 X s 146 436 m -17 X s 138 448 m -9 X s 138 460 m -9 X s 138 472 m -9 X s 138 484 m -9 X s 146 496 m -17 X s 138 508 m -9
 X s 138 520 m -9 X s 138 532 m -9 X s 138 544 m -9 X s 146 556 m -17 X s 138 568 m -9 X s 138 580 m -9 X s 138 592 m -9 X s 138 604 m -9 X s 146 615 m -17 X s 146 615 m -17 X s 138 627 m -9 X s
 gsave  710 699 23 7 C 113.537 68.1223 t 0 r /Helvetica findfont 22.736 sf 0 0 m (0) show NC gr 
 gsave  710 699 23 7 C 87.8021 128.676 t 0 r /Helvetica findfont 22.736 sf 0 0 m (100) show NC gr 
 gsave  710 699 23 7 C 87.8021 187.715 t 0 r /Helvetica findfont 22.736 sf 0 0 m (200) show NC gr 
 gsave  710 699 23 7 C 87.8021 248.268 t 0 r /Helvetica findfont 22.736 sf 0 0 m (300) show NC gr 
 gsave  710 699 23 7 C 87.8021 307.307 t 0 r /Helvetica findfont 22.736 sf 0 0 m (400) show NC gr 
 gsave  710 699 23 7 C 87.8021 367.861 t 0 r /Helvetica findfont 22.736 sf 0 0 m (500) show NC gr 
 gsave  710 699 23 7 C 87.8021 428.414 t 0 r /Helvetica findfont 22.736 sf 0 0 m (600) show NC gr 
 gsave  710 699 23 7 C 87.8021 487.453 t 0 r /Helvetica findfont 22.736 sf 0 0 m (700) show NC gr 
 gsave  710 699 23 7 C 87.8021 548.006 t 0 r /Helvetica findfont 22.736 sf 0 0 m (800) show NC gr 
 gsave  710 699 23 7 C 87.8021 607.046 t 0 r /Helvetica findfont 22.736 sf 0 0 m (900) show NC gr 
 gsave  710 699 23 7 C 71.15 452.635 t 90 r /Helvetica findfont 22.736 sf 0 0 m (Events / \( 0.0004 \)) show NC gr  132 77 m -3 X s 129 77 m 3 Y s 132 77 m 3 X s 135 77 m 3 Y s 132 77 m 1 Y s 129 78 m 6 X s 137 77 m -2 X s 135 77 m 3 Y s 137 77 m 3 X
 s 140 77 m 3 Y s 137 77 m 1 Y s 134 78 m 6 X s 143 77 m -3 X s 140 77 m 3 Y s 143 77 m 2 X s 145 77 m 3 Y s 143 77 m 1 Y s 140 78 m 6 X s 148 77 m -3 X s 145 77 m 3 Y s 148 77 m 3 X s 151 77 m 3 Y s 148 77 m 1 Y s 145 78 m 6 X s 153 77 m -2 X s 151
 77 m 3 Y s 153 77 m 3 X s 156 77 m 3 Y s 153 77 m 1 Y s 150 78 m 6 X s 159 77 m -3 X s 156 77 m 3 Y s 159 77 m 2 X s 161 77 m 3 Y s 159 77 m 1 Y s 156 78 m 6 X s 164 77 m -3 X s 161 77 m 3 Y s 164 77 m 3 X s 167 77 m 3 Y s 164 77 m 1 Y s 161 78 m 6
 X s 169 77 m -2 X s 167 77 m 3 Y s 169 77 m 3 X s 172 77 m 3 Y s 169 77 m 1 Y s 166 78 m 6 X s 175 77 m -3 X s 172 77 m 3 Y s 175 77 m 2 X s 177 77 m 3 Y s 175 77 m 1 Y s 172 78 m 6 X s 180 77 m -3 X s 177 77 m 3 Y s 180 77 m 3 X s 183 77 m 3 Y s
 180 77 m 1 Y s 177 78 m 6 X s 185 77 m -2 X s 183 77 m 3 Y s 185 77 m 3 X s 188 77 m 3 Y s 185 77 m 1 Y s 182 78 m 6 X s 191 77 m -3 X s 188 77 m 3 Y s 191 77 m 2 X s 193 77 m 3 Y s 191 77 m 1 Y s 188 78 m 6 X s 196 77 m -3 X s 193 77 m 3 Y s 196 77
 m 3 X s 199 77 m 3 Y s 196 77 m 1 Y s 193 78 m 6 X s 201 77 m -2 X s 199 77 m 3 Y s 201 77 m 3 X s 204 77 m 3 Y s 201 77 m 1 Y s 198 78 m 6 X s 207 77 m -3 X s 204 77 m 3 Y s 207 77 m 2 X s 209 77 m 3 Y s 207 77 m 1 Y s 204 78 m 6 X s 212 77 m -3 X
 s 209 77 m 3 Y s 212 77 m 3 X s 215 77 m 3 Y s 212 77 m 1 Y s 209 78 m 6 X s 217 77 m -2 X s 215 77 m 3 Y s 217 77 m 3 X s 220 77 m 3 Y s 217 77 m 1 Y s 214 78 m 6 X s 223 77 m -3 X s 220 77 m 3 Y s 223 77 m 2 X s 225 77 m 3 Y s 223 77 m 1 Y s 219
 78 m 7 X s 228 77 m -3 X s 225 77 m 3 Y s 228 77 m 3 X s 231 77 m 3 Y s 228 77 m 1 Y s 225 78 m 6 X s 233 77 m -2 X s 231 77 m 3 Y s 233 77 m 3 X s 236 77 m 3 Y s 233 77 m 1 Y s 230 78 m 6 X s 239 77 m -3 X s 236 77 m 3 Y s 239 77 m 2 X s 241 77 m 3
 Y s 239 77 m 1 Y s 235 78 m 7 X s 244 77 m -3 X s 241 77 m 3 Y s 244 77 m 3 X s 247 77 m 3 Y s 244 77 m 1 Y s 241 78 m 6 X s 249 77 m -2 X s 247 77 m 3 Y s 249 77 m 3 X s 252 77 m 3 Y s 249 77 m 1 Y s 246 78 m 6 X s 254 77 m -2 X s 252 77 m 3 Y s
 254 77 m 3 X s 257 77 m 3 Y s 254 77 m 1 Y s 251 78 m 7 X s 260 77 m -3 X s 257 77 m 3 Y s 260 77 m 2 X s 262 77 m 3 Y s 260 77 m 1 Y s 257 78 m 6 X s 265 77 m -3 X s 262 77 m 3 Y s 265 77 m 3 X s 268 77 m 3 Y s 265 77 m 1 Y s 262 78 m 6 X s 270 77
 m -2 X s 268 77 m 3 Y s 270 77 m 3 X s 273 77 m 3 Y s 270 77 m 1 Y s 267 78 m 7 X s 276 77 m -3 X s 273 77 m 3 Y s 276 77 m 2 X s 278 77 m 3 Y s 276 77 m 1 Y s 273 78 m 6 X s 281 77 m -3 X s 278 77 m 3 Y s 281 77 m 3 X s 284 77 m 3 Y s 281 77 m 1 Y
 s 278 78 m 6 X s 286 77 m -2 X s 284 77 m 3 Y s 286 77 m 3 X s 289 77 m 3 Y s 286 77 m 1 Y s 283 78 m 6 X s 292 77 m -3 X s 289 77 m 3 Y s 292 77 m 2 X s 294 77 m 3 Y s 292 77 m 1 Y s 289 78 m 6 X s 297 77 m -3 X s 294 77 m 3 Y s 297 77 m 3 X s 300
 77 m 3 Y s 297 77 m 1 Y s 294 78 m 6 X s 302 77 m -2 X s 300 77 m 3 Y s 302 77 m 3 X s 305 77 m 3 Y s 302 77 m 1 Y s 299 78 m 6 X s 308 77 m -3 X s 305 77 m 3 Y s 308 77 m 2 X s 310 77 m 3 Y s 308 77 m 1 Y s 305 78 m 6 X s 313 77 m -3 X s 310 77 m 3
 Y s 313 77 m 3 X s 316 77 m 3 Y s 313 77 m 1 Y s 310 78 m 6 X s 318 77 m -2 X s 316 77 m 3 Y s 318 77 m 3 X s 321 77 m 3 Y s 318 77 m 1 Y s 315 78 m 6 X s 324 77 m -3 X s 321 77 m 3 Y s 324 77 m 2 X s 326 77 m 3 Y s 324 77 m 1 Y s 321 78 m 6 X s 329
 77 m -3 X s 326 77 m 3 Y s 329 77 m 3 X s 332 77 m 3 Y s 329 77 m 1 Y s 326 78 m 6 X s 334 77 m -2 X s 332 77 m 3 Y s 334 77 m 3 X s 337 77 m 3 Y s 334 77 m 1 Y s 331 78 m 6 X s 340 77 m -3 X s 337 77 m 3 Y s 340 77 m 2 X s 342 77 m 3 Y s 340 77 m 1
 Y s 337 78 m 6 X s 345 77 m -3 X s 342 77 m 3 Y s 345 77 m 3 X s 348 77 m 3 Y s 345 77 m 1 Y s 342 78 m 6 X s 350 77 m -2 X s 348 77 m 3 Y s 350 77 m 3 X s 353 77 m 3 Y s 350 77 m 1 Y s 347 78 m 6 X s 356 77 m -3 X s 353 77 m 3 Y s 356 77 m 2 X s
 358 77 m 3 Y s 356 77 m 1 Y s 353 78 m 6 X s 361 77 m -3 X s 358 77 m 3 Y s 361 77 m 3 X s 364 77 m 3 Y s 361 77 m 1 Y s 358 78 m 6 X s 366 77 m -2 X s 364 77 m 3 Y s 366 77 m 3 X s 369 77 m 3 Y s 366 77 m 1 Y s 363 78 m 6 X s 372 77 m -3 X s 369 77
 m 3 Y s 372 77 m 2 X s 374 77 m 3 Y s 372 77 m 1 Y s 369 78 m 6 X s 377 77 m -3 X s 374 77 m 3 Y s 377 77 m 3 X s 380 77 m 3 Y s 377 77 m 1 Y s 374 78 m 6 X s 382 77 m -2 X s 380 77 m 3 Y s 382 77 m 3 X s 385 77 m 3 Y s 382 77 m 1 Y s 379 78 m 6 X s
 388 77 m -3 X s 385 77 m 3 Y s 388 77 m 2 X s 390 77 m 3 Y s 388 77 m 1 Y s 385 78 m 6 X s 393 77 m -3 X s 390 77 m 3 Y s 393 77 m 3 X s 396 77 m 3 Y s 393 77 m 1 Y s 390 78 m 6 X s 398 77 m -2 X s 396 77 m 3 Y s 398 77 m 3 X s 401 77 m 3 Y s 398 77
 m 1 Y s 395 78 m 6 X s 404 78 m -3 X s 401 77 m 4 Y s 404 78 m 2 X s 406 77 m 4 Y s 404 78 m 1 Y s 401 79 m 6 X s 404 78 m -1 Y s 401 77 m 6 X s 409 77 m -3 X s 406 77 m 3 Y s 409 77 m 3 X s 412 77 m 3 Y s 409 77 m 1 Y s 406 78 m 6 X s 414 78 m -2 X
 s 412 77 m 4 Y s 414 78 m 3 X s 417 77 m 4 Y s 414 78 m 2 Y s 411 80 m 6 X s 414 78 m -1 Y s 411 77 m 6 X s 420 81 m -3 X s 417 78 m 6 Y s 420 81 m 2 X s 422 78 m 6 Y s 420 81 m 2 Y s 417 83 m 6 X s 420 81 m -1 Y s 417 80 m 6 X s 425 80 m -3 X s 422
 77 m 6 Y s 425 80 m 3 X s 428 77 m 6 Y s 425 80 m 2 Y s 422 82 m 6 X s 425 80 m -1 Y s 422 79 m 6 X s 430 85 m -2 X s 428 82 m 6 Y s 430 85 m 3 X s 433 82 m 6 Y s 430 85 m 3 Y s 427 88 m 6 X s 430 85 m -2 Y s 427 83 m 6 X s 436 87 m -3 X s 433 84 m
 6 Y s 436 87 m 2 X s 438 84 m 6 Y s 436 87 m 3 Y s 433 90 m 6 X s 436 87 m -2 Y s 433 85 m 6 X s 441 95 m -3 X s 438 92 m 6 Y s 441 95 m 3 X s 444 92 m 6 Y s 441 95 m 4 Y s 438 99 m 6 X s 441 95 m -3 Y s 438 92 m 6 X s 446 100 m -2 X s 444 97 m 6 Y
 s 446 100 m 3 X s 449 97 m 6 Y s 446 100 m 4 Y s 443 104 m 6 X s 446 100 m -4 Y s 443 96 m 6 X s 452 102 m -3 X s 449 99 m 6 Y s 452 102 m 2 X s 454 99 m 6 Y s 452 102 m 4 Y s 449 106 m 6 X s 452 102 m -4 Y s 449 98 m 6 X s 457 117 m -3 X s 454 114
 m 6 Y s 457 117 m 3 X s 460 114 m 6 Y s 457 117 m 6 Y s 454 123 m 6 X s 457 117 m -5 Y s 454 112 m 6 X s 462 136 m -2 X s 460 133 m 6 Y s 462 136 m 3 X s 465 133 m 6 Y s 462 136 m 7 Y s 459 143 m 6 X s 462 136 m -6 Y s 459 130 m 6 X s 468 151 m -3 X
 s 465 148 m 6 Y s 468 151 m 2 X s 470 148 m 6 Y s 468 151 m 7 Y s 465 158 m 6 X s 468 151 m -6 Y s 465 145 m 6 X s 473 181 m -3 X s 470 177 m 7 Y s 473 181 m 3 X s 476 177 m 7 Y s 473 181 m 8 Y s 470 189 m 6 X s 473 181 m -8 Y s 470 173 m 6 X s 478
 215 m -2 X s 476 212 m 6 Y s 478 215 m 3 X s 481 212 m 6 Y s 478 215 m 10 Y s 475 225 m 6 X s 478 215 m -9 Y s 475 206 m 6 X s 484 239 m -3 X s 481 236 m 6 Y s 484 239 m 2 X s 486 236 m 6 Y s 484 239 m 10 Y s 481 249 m 6 X s 484 239 m -9 Y s 481 230
 m 6 X s 489 283 m -3 X s 486 280 m 6 Y s 489 283 m 3 X s 492 280 m 6 Y s 489 283 m 11 Y s 486 294 m 6 X s 489 283 m -11 Y s 486 272 m 6 X s 494 329 m -2 X s 492 326 m 6 Y s 494 329 m 3 X s 497 326 m 6 Y s 494 329 m 12 Y s 491 341 m 6 X s 494 329 m
 -12 Y s 491 317 m 6 X s 500 392 m -3 X s 497 389 m 6 Y s 500 392 m 2 X s 502 389 m 6 Y s 500 392 m 14 Y s 497 406 m 6 X s 500 392 m -14 Y s 497 378 m 6 X s 505 437 m -3 X s 502 434 m 6 Y s 505 437 m 3 X s 508 434 m 6 Y s 505 437 m 15 Y s 502 452 m 6
 X s 505 437 m -15 Y s 502 422 m 6 X s 510 460 m -2 X s 508 457 m 6 Y s 510 460 m 3 X s 513 457 m 6 Y s 510 460 m 15 Y s 507 475 m 6 X s 510 460 m -15 Y s 507 445 m 6 X s 516 554 m -3 X s 513 551 m 6 Y s 516 554 m 2 X s 518 551 m 6 Y s 516 554 m 17 Y
 s 513 571 m 6 X s 516 554 m -17 Y s 513 537 m 6 X s 521 580 m -3 X s 518 577 m 6 Y s 521 580 m 3 X s 524 577 m 6 Y s 521 580 m 17 Y s 518 597 m 6 X s 521 580 m -17 Y s 518 563 m 6 X s 526 583 m -2 X s 524 580 m 6 Y s 526 583 m 3 X s 529 580 m 6 Y s
 526 583 m 18 Y s 523 601 m 6 X s 526 583 m -17 Y s 523 566 m 6 X s 532 592 m -3 X s 529 589 m 6 Y s 532 592 m 2 X s 534 589 m 6 Y s 532 592 m 17 Y s 529 609 m 6 X s 532 592 m -18 Y s 529 574 m 6 X s 537 573 m -3 X s 534 570 m 6 Y s 537 573 m 3 X s
 540 570 m 6 Y s 537 573 m 18 Y s 534 591 m 6 X s 537 573 m -17 Y s 534 556 m 6 X s 542 586 m -2 X s 540 583 m 6 Y s 542 586 m 3 X s 545 583 m 6 Y s 542 586 m 18 Y s 539 604 m 6 X s 542 586 m -17 Y s 539 569 m 6 X s 548 568 m -3 X s 545 565 m 6 Y s
 548 568 m 2 X s 550 565 m 6 Y s 548 568 m 17 Y s 545 585 m 6 X s 548 568 m -17 Y s 545 551 m 6 X s 553 544 m -3 X s 550 541 m 6 Y s 553 544 m 3 X s 556 541 m 6 Y s 553 544 m 17 Y s 550 561 m 6 X s 553 544 m -16 Y s 550 528 m 6 X s 558 492 m -2 X s
 556 489 m 6 Y s 558 492 m 3 X s 561 489 m 6 Y s 558 492 m 16 Y s 555 508 m 6 X s 558 492 m -16 Y s 555 476 m 6 X s 564 434 m -3 X s 561 431 m 6 Y s 564 434 m 2 X s 566 431 m 6 Y s 564 434 m 15 Y s 561 449 m 6 X s 564 434 m -14 Y s 561 420 m 6 X s
 569 411 m -3 X s 566 408 m 6 Y s 569 411 m 3 X s 572 408 m 6 Y s 569 411 m 15 Y s 566 426 m 6 X s 569 411 m -13 Y s 566 398 m 6 X s 574 364 m -2 X s 572 361 m 6 Y s 574 364 m 3 X s 577 361 m 6 Y s 574 364 m 14 Y s 571 378 m 6 X s 574 364 m -13 Y s
 571 351 m 6 X s 580 297 m -3 X s 577 294 m 6 Y s 580 297 m 2 X s 582 294 m 6 Y s 580 297 m 12 Y s 577 309 m 6 X s 580 297 m -11 Y s 577 286 m 6 X s 585 249 m -3 X s 582 246 m 6 Y s 585 249 m 3 X s 588 246 m 6 Y s 585 249 m 10 Y s 582 259 m 6 X s 585
 249 m -10 Y s 582 239 m 6 X s 590 230 m -2 X s 588 227 m 6 Y s 590 230 m 3 X s 593 227 m 6 Y s 590 230 m 9 Y s 587 239 m 6 X s 590 230 m -10 Y s 587 220 m 6 X s 596 195 m -3 X s 593 192 m 6 Y s 596 195 m 2 X s 598 192 m 6 Y s 596 195 m 9 Y s 593 204
 m 6 X s 596 195 m -8 Y s 593 187 m 6 X s 601 155 m -3 X s 598 152 m 6 Y s 601 155 m 3 X s 604 152 m 6 Y s 601 155 m 8 Y s 598 163 m 6 X s 601 155 m -6 Y s 598 149 m 6 X s 606 133 m -2 X s 604 130 m 6 Y s 606 133 m 3 X s 609 130 m 6 Y s 606 133 m 7 Y
 s 603 140 m 6 X s 606 133 m -6 Y s 603 127 m 6 X s 612 118 m -3 X s 609 115 m 6 Y s 612 118 m 2 X s 614 115 m 6 Y s 612 118 m 6 Y s 609 124 m 6 X s 612 118 m -5 Y s 609 113 m 6 X s 617 106 m -3 X s 614 103 m 6 Y s 617 106 m 3 X s 620 103 m 6 Y s 617
 106 m 4 Y s 614 110 m 6 X s 617 106 m -4 Y s 614 102 m 6 X s 622 102 m -2 X s 620 99 m 6 Y s 622 102 m 3 X s 625 99 m 6 Y s 622 102 m 5 Y s 619 107 m 6 X s 622 102 m -4 Y s 619 98 m 6 X s 628 88 m -3 X s 625 85 m 6 Y s 628 88 m 2 X s 630 85 m 6 Y s
 628 88 m 4 Y s 625 92 m 6 X s 628 88 m -2 Y s 625 86 m 6 X s 633 86 m -3 X s 630 83 m 6 Y s 633 86 m 3 X s 636 83 m 6 Y s 633 86 m 3 Y s 630 89 m 6 X s 633 86 m -2 Y s 630 84 m 6 X s 638 82 m -2 X s 636 79 m 6 Y s 638 82 m 3 X s 641 79 m 6 Y s 638
 82 m 2 Y s 635 84 m 6 X s 638 82 m -2 Y s 635 80 m 6 X s 644 82 m -3 X s 641 79 m 6 Y s 644 82 m 2 X s 646 79 m 6 Y s 644 82 m 2 Y s 640 84 m 7 X s 644 82 m -2 Y s 640 80 m 7 X s 649 79 m -3 X s 646 77 m 5 Y s 649 79 m 3 X s 652 77 m 5 Y s 649 79 m
 2 Y s 646 81 m 6 X s 649 79 m -1 Y s 646 78 m 6 X s 654 79 m -2 X s 652 77 m 5 Y s 654 79 m 3 X s 657 77 m 5 Y s 654 79 m 2 Y s 651 81 m 6 X s 654 79 m -1 Y s 651 78 m 6 X s 660 77 m -3 X s 657 77 m 3 Y s 660 77 m 2 X s 662 77 m 3 Y s 660 77 m 1 Y s
 656 78 m 6 X s /w 12 def /w2 {w 2 div} def /w3 {w 3 div} def 132 77 137 77 143 77 148 77 153 77 159 77 164 77 169 77 175 77 180 77 185 77 191 77 196 77 201 77 207 77 212 77 217 77 223 77 228 77 233 77 239 77 244 77 249 77 254 77 260 77 265 77 270 77
 276 77 281 77 286 77 292 77 297 77 302 77 308 77 313 77 318 77 324 77 329 77 334 77 340 77 345 77 350 77 356 77 361 77 366 77 372 77 377 77 382 77 388 77 393 77 398 77 404 78 409 77 414 78 420 81 425 80 430 85 436 87 441 95 446 100 452 102 457 117
 462 136 468 151 473 181 478 215 484 239 489 283 494 329 500 392 505 437 510 460 516 554 521 580 526 583 532 592 537 573 542 586 548 568 553 544 558 492 564 434 569 411 574 364 580 297 585 249 590 230 596 195 601 155 606 133 612 118 617 106 622 102
 628 88 633 86 638 82 644 82 649 79 654 79 660 77 100 { m20} R 0 0 1 c 9 lw black 0 0 1 c 129 77 m cl s 129 77 m 272 X 5 1 d 6 X 5 1 d 5 1 d 6 1 d 5 3 d 5 4 d 6 5 d 5 8 d 5 10 d 6 14 d 2 9 d 3 9 d 3 11 d 2 12 d 3 14 d 3 15 d 2 16 d 3 18 d 3 19 d 2 20
 d 3 22 d 3 23 d 5 47 d 5 50 d 6 49 d 2 23 d 3 22 d 3 21 d 2 19 d 3 17 d 3 14 d 2 11 d 3 9 d 3 6 d 2 2 d 3 -1 d 3 -4 d 2 -7 d 3 -11 d 3 -13 d 2 -15 d 3 -18 d 3 -20 d 2 -22 d 3 -23 d 5 -48 d 6 -49 d 5 -49 d 5 -45 d 3 -21 d 3 -20 d 2 -18 d 3 -17 d 3
 -16 d 2 -14 d 3 -13 d 3 -11 d 2 -10 d 3 -9 d 5 -15 d 6 -11 d 5 -8 d 5 -6 d 6 -4 d 5 -3 d 5 -2 d 6 -1 d 5 -1 d 5 X s black 3 lw 129 77 m 533 X s 129 93 m -16 Y s 143 85 m -8 Y s 156 85 m -8 Y s 169 85 m -8 Y s 183 85 m -8 Y s 196 93 m -16 Y s 209 85
 m -8 Y s 223 85 m -8 Y s 236 85 m -8 Y s 249 85 m -8 Y s 262 93 m -16 Y s 276 85 m -8 Y s 289 85 m -8 Y s 302 85 m -8 Y s 316 85 m -8 Y s 329 93 m -16 Y s 342 85 m -8 Y s 356 85 m -8 Y s 369 85 m -8 Y s 382 85 m -8 Y s 396 93 m -16 Y s 409 85 m -8 Y
 s 422 85 m -8 Y s 436 85 m -8 Y s 449 85 m -8 Y s 462 93 m -16 Y s 476 85 m -8 Y s 489 85 m -8 Y s 502 85 m -8 Y s 516 85 m -8 Y s 529 93 m -16 Y s 542 85 m -8 Y s 556 85 m -8 Y s 569 85 m -8 Y s 582 85 m -8 Y s 596 93 m -16 Y s 609 85 m -8 Y s 622
 85 m -8 Y s 636 85 m -8 Y s 649 85 m -8 Y s 662 93 m -16 Y s 129 77 m 559 Y s 146 77 m -17 X s 138 89 m -9 X s 138 101 m -9 X s 138 113 m -9 X s 138 125 m -9 X s 146 137 m -17 X s 138 149 m -9 X s 138 161 m -9 X s 138 173 m -9 X s 138 185 m -9 X s
 146 197 m -17 X s 138 209 m -9 X s 138 221 m -9 X s 138 233 m -9 X s 138 245 m -9 X s 146 256 m -17 X s 138 268 m -9 X s 138 280 m -9 X s 138 292 m -9 X s 138 304 m -9 X s 146 316 m -17 X s 138 328 m -9 X s 138 340 m -9 X s 138 352 m -9 X s 138 364
 m -9 X s 146 376 m -17 X s 138 388 m -9 X s 138 400 m -9 X s 138 412 m -9 X s 138 424 m -9 X s 146 436 m -17 X s 138 448 m -9 X s 138 460 m -9 X s 138 472 m -9 X s 138 484 m -9 X s 146 496 m -17 X s 138 508 m -9 X s 138 520 m -9 X s 138 532 m -9 X s
 138 544 m -9 X s 146 556 m -17 X s 138 568 m -9 X s 138 580 m -9 X s 138 592 m -9 X s 138 604 m -9 X s 146 615 m -17 X s 146 615 m -17 X s 138 627 m -9 X s 1 1 1 c black
 gsave  710 699 23 7 C 328.501 670.626 t 0 r /Helvetica findfont 34.8619 sf 0 0 m (Signal) show NC gr  1 1 1 c 710 699 779 7 bf black 1 1 1 c 533 559 885 77 bf black 533 559 885 77 bl 1 1 1 c 533 559 885 77 bf black 533 559 885 77 bl 885 77 m 533 X s
 885 93 m -16 Y s 898 85 m -8 Y s 912 85 m -8 Y s 925 85 m -8 Y s 938 85 m -8 Y s 952 93 m -16 Y s 965 85 m -8 Y s 978 85 m -8 Y s 992 85 m -8 Y s 1005 85 m -8 Y s 1018 93 m -16 Y s 1032 85 m -8 Y s 1045 85 m -8 Y s 1058 85 m -8 Y s 1072 85 m -8 Y s
 1085 93 m -16 Y s 1098 85 m -8 Y s 1112 85 m -8 Y s 1125 85 m -8 Y s 1138 85 m -8 Y s 1152 93 m -16 Y s 1165 85 m -8 Y s 1178 85 m -8 Y s 1192 85 m -8 Y s 1205 85 m -8 Y s 1218 93 m -16 Y s 1232 85 m -8 Y s 1245 85 m -8 Y s 1258 85 m -8 Y s 1272 85
 m -8 Y s 1285 93 m -16 Y s 1298 85 m -8 Y s 1311 85 m -8 Y s 1325 85 m -8 Y s 1338 85 m -8 Y s 1351 93 m -16 Y s 1365 85 m -8 Y s 1378 85 m -8 Y s 1391 85 m -8 Y s 1405 85 m -8 Y s 1418 93 m -16 Y s
 gsave  710 699 779 7 C 861.369 54.4979 t 0 r /Helvetica findfont 22.736 sf 0 0 m (5.25) show NC gr 
 gsave  710 699 779 7 C 921.922 54.4979 t 0 r /Helvetica findfont 22.736 sf 0 0 m (5.255) show NC gr 
 gsave  710 699 779 7 C 994.586 54.4979 t 0 r /Helvetica findfont 22.736 sf 0 0 m (5.26) show NC gr 
 gsave  710 699 779 7 C 1055.14 54.4979 t 0 r /Helvetica findfont 22.736 sf 0 0 m (5.265) show NC gr 
 gsave  710 699 779 7 C 1127.8 54.4979 t 0 r /Helvetica findfont 22.736 sf 0 0 m (5.27) show NC gr 
 gsave  710 699 779 7 C 1188.36 54.4979 t 0 r /Helvetica findfont 22.736 sf 0 0 m (5.275) show NC gr 
 gsave  710 699 779 7 C 1261.02 54.4979 t 0 r /Helvetica findfont 22.736 sf 0 0 m (5.28) show NC gr 
 gsave  710 699 779 7 C 1321.57 54.4979 t 0 r /Helvetica findfont 22.736 sf 0 0 m (5.285) show NC gr 
 gsave  710 699 779 7 C 1394.24 54.4979 t 0 r /Helvetica findfont 22.736 sf 0 0 m (5.29) show NC gr 
 gsave  710 699 779 7 C 1360.93 31.7904 t 0 r /Helvetica findfont 22.736 sf 0 0 m (m_bc) show NC gr  885 77 m 559 Y s 902 77 m -17 X s 894 91 m -9 X s 894 106 m -9 X s 894 120 m -9 X s 894 134 m -9 X s 902 149 m -17 X s 894 163 m -9 X s 894 178 m -9
 X s 894 192 m -9 X s 894 206 m -9 X s 902 221 m -17 X s 894 235 m -9 X s 894 249 m -9 X s 894 264 m -9 X s 894 278 m -9 X s 902 293 m -17 X s 894 307 m -9 X s 894 321 m -9 X s 894 336 m -9 X s 894 350 m -9 X s 902 364 m -17 X s 894 379 m -9 X s 894
 393 m -9 X s 894 407 m -9 X s 894 422 m -9 X s 902 436 m -17 X s 894 451 m -9 X s 894 465 m -9 X s 894 479 m -9 X s 894 494 m -9 X s 902 508 m -17 X s 894 522 m -9 X s 894 537 m -9 X s 894 551 m -9 X s 894 566 m -9 X s 902 580 m -17 X s 902 580 m
 -17 X s 894 594 m -9 X s 894 609 m -9 X s 894 623 m -9 X s
 gsave  710 699 779 7 C 868.938 68.1223 t 0 r /Helvetica findfont 22.736 sf 0 0 m (0) show NC gr 
 gsave  710 699 779 7 C 855.314 140.786 t 0 r /Helvetica findfont 22.736 sf 0 0 m (10) show NC gr 
 gsave  710 699 779 7 C 855.314 211.936 t 0 r /Helvetica findfont 22.736 sf 0 0 m (20) show NC gr 
 gsave  710 699 779 7 C 855.314 284.6 t 0 r /Helvetica findfont 22.736 sf 0 0 m (30) show NC gr 
 gsave  710 699 779 7 C 855.314 355.75 t 0 r /Helvetica findfont 22.736 sf 0 0 m (40) show NC gr 
 gsave  710 699 779 7 C 855.314 428.414 t 0 r /Helvetica findfont 22.736 sf 0 0 m (50) show NC gr 
 gsave  710 699 779 7 C 855.314 499.564 t 0 r /Helvetica findfont 22.736 sf 0 0 m (60) show NC gr 
 gsave  710 699 779 7 C 855.314 572.228 t 0 r /Helvetica findfont 22.736 sf 0 0 m (70) show NC gr 
 gsave  710 699 779 7 C 828.065 452.635 t 90 r /Helvetica findfont 22.736 sf 0 0 m (Events / \( 0.0004 \)) show NC gr  888 127 m -3 X s 885 124 m 6 Y s 888 127 m 2 X s 890 124 m 6 Y s 888 127 m 27 Y s 885 154 m 6 X s 888 127 m -18 Y s 885 109 m 6 X s
 893 120 m -3 X s 890 117 m 6 Y s 893 120 m 3 X s 896 117 m 6 Y s 893 120 m 26 Y s 890 146 m 6 X s 893 120 m -17 Y s 890 103 m 6 X s 898 163 m -2 X s 896 160 m 6 Y s 898 163 m 3 X s 901 160 m 6 Y s 898 163 m 33 Y s 895 196 m 7 X s 898 163 m -24 Y s
 895 139 m 7 X s 904 113 m -3 X s 901 110 m 6 Y s 904 113 m 2 X s 906 110 m 6 Y s 904 113 m 24 Y s 901 137 m 6 X s 904 113 m -16 Y s 901 97 m 6 X s 909 142 m -3 X s 906 139 m 6 Y s 909 142 m 3 X s 912 139 m 6 Y s 909 142 m 29 Y s 906 171 m 6 X s 909
 142 m -21 Y s 906 121 m 6 X s 914 106 m -2 X s 912 103 m 6 Y s 914 106 m 3 X s 917 103 m 6 Y s 914 106 m 22 Y s 911 128 m 7 X s 914 106 m -14 Y s 911 92 m 7 X s 920 99 m -3 X s 917 96 m 6 Y s 920 99 m 2 X s 922 96 m 6 Y s 920 99 m 21 Y s 917 120 m 6
 X s 920 99 m -12 Y s 917 87 m 6 X s 925 120 m -3 X s 922 117 m 6 Y s 925 120 m 3 X s 928 117 m 6 Y s 925 120 m 26 Y s 922 146 m 6 X s 925 120 m -17 Y s 922 103 m 6 X s 930 120 m -2 X s 928 117 m 6 Y s 930 120 m 3 X s 933 117 m 6 Y s 930 120 m 26 Y s
 927 146 m 6 X s 930 120 m -17 Y s 927 103 m 6 X s 936 120 m -3 X s 933 117 m 6 Y s 936 120 m 2 X s 938 117 m 6 Y s 936 120 m 26 Y s 933 146 m 6 X s 936 120 m -17 Y s 933 103 m 6 X s 941 113 m -3 X s 938 110 m 6 Y s 941 113 m 3 X s 944 110 m 6 Y s
 941 113 m 24 Y s 938 137 m 6 X s 941 113 m -16 Y s 938 97 m 6 X s 946 156 m -2 X s 944 153 m 6 Y s 946 156 m 3 X s 949 153 m 6 Y s 946 156 m 32 Y s 943 188 m 6 X s 946 156 m -23 Y s 943 133 m 6 X s 952 134 m -3 X s 949 131 m 7 Y s 952 134 m 2 X s
 954 131 m 7 Y s 952 134 m 29 Y s 949 163 m 6 X s 952 134 m -19 Y s 949 115 m 6 X s 957 120 m -3 X s 954 117 m 6 Y s 957 120 m 3 X s 960 117 m 6 Y s 957 120 m 26 Y s 954 146 m 6 X s 957 120 m -17 Y s 954 103 m 6 X s 962 120 m -2 X s 960 117 m 6 Y s
 962 120 m 3 X s 965 117 m 6 Y s 962 120 m 26 Y s 959 146 m 6 X s 962 120 m -17 Y s 959 103 m 6 X s 968 120 m -3 X s 965 117 m 6 Y s 968 120 m 2 X s 970 117 m 6 Y s 968 120 m 26 Y s 965 146 m 6 X s 968 120 m -17 Y s 965 103 m 6 X s 973 120 m -3 X s
 970 117 m 6 Y s 973 120 m 3 X s 976 117 m 6 Y s 973 120 m 26 Y s 970 146 m 6 X s 973 120 m -17 Y s 970 103 m 6 X s 978 106 m -2 X s 976 103 m 6 Y s 978 106 m 3 X s 981 103 m 6 Y s 978 106 m 22 Y s 975 128 m 6 X s 978 106 m -14 Y s 975 92 m 6 X s 984
 106 m -3 X s 981 103 m 6 Y s 984 106 m 2 X s 986 103 m 6 Y s 984 106 m 22 Y s 981 128 m 6 X s 984 106 m -14 Y s 981 92 m 6 X s 989 170 m -3 X s 986 167 m 6 Y s 989 170 m 3 X s 992 167 m 6 Y s 989 170 m 34 Y s 986 204 m 6 X s 989 170 m -25 Y s 986
 145 m 6 X s 994 91 m -2 X s 992 88 m 6 Y s 994 91 m 3 X s 997 88 m 6 Y s 994 91 m 19 Y s 991 110 m 6 X s 994 91 m -9 Y s 991 82 m 6 X s 1000 142 m -3 X s 997 139 m 6 Y s 1000 142 m 2 X s 1002 139 m 6 Y s 1000 142 m 29 Y s 997 171 m 6 X s 1000 142 m
 -21 Y s 997 121 m 6 X s 1005 142 m -3 X s 1002 139 m 6 Y s 1005 142 m 3 X s 1008 139 m 6 Y s 1005 142 m 29 Y s 1002 171 m 6 X s 1005 142 m -21 Y s 1002 121 m 6 X s 1010 120 m -2 X s 1008 117 m 6 Y s 1010 120 m 3 X s 1013 117 m 6 Y s 1010 120 m 26 Y
 s 1007 146 m 6 X s 1010 120 m -17 Y s 1007 103 m 6 X s 1016 142 m -3 X s 1013 139 m 6 Y s 1016 142 m 2 X s 1018 139 m 6 Y s 1016 142 m 29 Y s 1013 171 m 6 X s 1016 142 m -21 Y s 1013 121 m 6 X s 1021 134 m -3 X s 1018 131 m 7 Y s 1021 134 m 3 X s
 1024 131 m 7 Y s 1021 134 m 29 Y s 1018 163 m 6 X s 1021 134 m -19 Y s 1018 115 m 6 X s 1026 120 m -2 X s 1024 117 m 6 Y s 1026 120 m 3 X s 1029 117 m 6 Y s 1026 120 m 26 Y s 1023 146 m 6 X s 1026 120 m -17 Y s 1023 103 m 6 X s 1032 113 m -3 X s
 1029 110 m 6 Y s 1032 113 m 2 X s 1034 110 m 6 Y s 1032 113 m 24 Y s 1029 137 m 6 X s 1032 113 m -16 Y s 1029 97 m 6 X s 1037 134 m -3 X s 1034 131 m 7 Y s 1037 134 m 3 X s 1040 131 m 7 Y s 1037 134 m 29 Y s 1034 163 m 6 X s 1037 134 m -19 Y s 1034
 115 m 6 X s 1042 127 m -2 X s 1040 124 m 6 Y s 1042 127 m 3 X s 1045 124 m 6 Y s 1042 127 m 27 Y s 1039 154 m 6 X s 1042 127 m -18 Y s 1039 109 m 6 X s 1048 99 m -3 X s 1045 96 m 6 Y s 1048 99 m 2 X s 1050 96 m 6 Y s 1048 99 m 21 Y s 1045 120 m 6 X
 s 1048 99 m -12 Y s 1045 87 m 6 X s 1053 127 m -3 X s 1050 124 m 6 Y s 1053 127 m 3 X s 1056 124 m 6 Y s 1053 127 m 27 Y s 1050 154 m 6 X s 1053 127 m -18 Y s 1050 109 m 6 X s 1058 134 m -2 X s 1056 131 m 7 Y s 1058 134 m 3 X s 1061 131 m 7 Y s 1058
 134 m 29 Y s 1055 163 m 6 X s 1058 134 m -19 Y s 1055 115 m 6 X s 1064 149 m -3 X s 1061 146 m 6 Y s 1064 149 m 2 X s 1066 146 m 6 Y s 1064 149 m 31 Y s 1061 180 m 6 X s 1064 149 m -22 Y s 1061 127 m 6 X s 1069 106 m -3 X s 1066 103 m 6 Y s 1069 106
 m 3 X s 1072 103 m 6 Y s 1069 106 m 22 Y s 1066 128 m 6 X s 1069 106 m -14 Y s 1066 92 m 6 X s 1074 106 m -2 X s 1072 103 m 6 Y s 1074 106 m 3 X s 1077 103 m 6 Y s 1074 106 m 22 Y s 1071 128 m 6 X s 1074 106 m -14 Y s 1071 92 m 6 X s 1080 134 m -3 X
 s 1077 131 m 7 Y s 1080 134 m 2 X s 1082 131 m 7 Y s 1080 134 m 29 Y s 1077 163 m 6 X s 1080 134 m -19 Y s 1077 115 m 6 X s 1085 127 m -3 X s 1082 124 m 6 Y s 1085 127 m 3 X s 1088 124 m 6 Y s 1085 127 m 27 Y s 1082 154 m 6 X s 1085 127 m -18 Y s
 1082 109 m 6 X s 1090 99 m -2 X s 1088 96 m 6 Y s 1090 99 m 3 X s 1093 96 m 6 Y s 1090 99 m 21 Y s 1087 120 m 6 X s 1090 99 m -12 Y s 1087 87 m 6 X s 1096 120 m -3 X s 1093 117 m 6 Y s 1096 120 m 2 X s 1098 117 m 6 Y s 1096 120 m 26 Y s 1093 146 m 6
 X s 1096 120 m -17 Y s 1093 103 m 6 X s 1101 127 m -3 X s 1098 124 m 6 Y s 1101 127 m 3 X s 1104 124 m 6 Y s 1101 127 m 27 Y s 1098 154 m 6 X s 1101 127 m -18 Y s 1098 109 m 6 X s 1106 113 m -2 X s 1104 110 m 6 Y s 1106 113 m 3 X s 1109 110 m 6 Y s
 1106 113 m 24 Y s 1103 137 m 6 X s 1106 113 m -16 Y s 1103 97 m 6 X s 1112 142 m -3 X s 1109 139 m 6 Y s 1112 142 m 2 X s 1114 139 m 6 Y s 1112 142 m 29 Y s 1109 171 m 6 X s 1112 142 m -21 Y s 1109 121 m 6 X s 1117 134 m -3 X s 1114 131 m 7 Y s 1117
 134 m 3 X s 1120 131 m 7 Y s 1117 134 m 29 Y s 1114 163 m 6 X s 1117 134 m -19 Y s 1114 115 m 6 X s 1122 120 m -2 X s 1120 117 m 6 Y s 1122 120 m 3 X s 1125 117 m 6 Y s 1122 120 m 26 Y s 1119 146 m 6 X s 1122 120 m -17 Y s 1119 103 m 6 X s 1128 127
 m -3 X s 1125 124 m 6 Y s 1128 127 m 2 X s 1130 124 m 6 Y s 1128 127 m 27 Y s 1125 154 m 6 X s 1128 127 m -18 Y s 1125 109 m 6 X s 1133 106 m -3 X s 1130 103 m 6 Y s 1133 106 m 3 X s 1136 103 m 6 Y s 1133 106 m 22 Y s 1130 128 m 6 X s 1133 106 m -14
 Y s 1130 92 m 6 X s 1138 178 m -2 X s 1136 175 m 6 Y s 1138 178 m 3 X s 1141 175 m 6 Y s 1138 178 m 34 Y s 1135 212 m 6 X s 1138 178 m -27 Y s 1135 151 m 6 X s 1144 113 m -3 X s 1141 110 m 6 Y s 1144 113 m 2 X s 1146 110 m 6 Y s 1144 113 m 24 Y s
 1141 137 m 6 X s 1144 113 m -16 Y s 1141 97 m 6 X s 1149 142 m -3 X s 1146 139 m 6 Y s 1149 142 m 3 X s 1152 139 m 6 Y s 1149 142 m 29 Y s 1146 171 m 6 X s 1149 142 m -21 Y s 1146 121 m 6 X s 1154 156 m -2 X s 1152 153 m 6 Y s 1154 156 m 3 X s 1157
 153 m 6 Y s 1154 156 m 32 Y s 1151 188 m 6 X s 1154 156 m -23 Y s 1151 133 m 6 X s 1160 134 m -3 X s 1157 131 m 7 Y s 1160 134 m 2 X s 1162 131 m 7 Y s 1160 134 m 29 Y s 1157 163 m 6 X s 1160 134 m -19 Y s 1157 115 m 6 X s 1165 120 m -3 X s 1162 117
 m 6 Y s 1165 120 m 3 X s 1168 117 m 6 Y s 1165 120 m 26 Y s 1162 146 m 6 X s 1165 120 m -17 Y s 1162 103 m 6 X s 1170 149 m -2 X s 1168 146 m 6 Y s 1170 149 m 3 X s 1173 146 m 6 Y s 1170 149 m 31 Y s 1167 180 m 6 X s 1170 149 m -22 Y s 1167 127 m 6
 X s 1176 113 m -3 X s 1173 110 m 6 Y s 1176 113 m 2 X s 1178 110 m 6 Y s 1176 113 m 24 Y s 1173 137 m 6 X s 1176 113 m -16 Y s 1173 97 m 6 X s 1181 134 m -3 X s 1178 131 m 7 Y s 1181 134 m 3 X s 1184 131 m 7 Y s 1181 134 m 29 Y s 1178 163 m 6 X s
 1181 134 m -19 Y s 1178 115 m 6 X s 1186 149 m -2 X s 1184 146 m 6 Y s 1186 149 m 3 X s 1189 146 m 6 Y s 1186 149 m 31 Y s 1183 180 m 6 X s 1186 149 m -22 Y s 1183 127 m 6 X s 1192 156 m -3 X s 1189 153 m 6 Y s 1192 156 m 2 X s 1194 153 m 6 Y s 1192
 156 m 32 Y s 1189 188 m 6 X s 1192 156 m -23 Y s 1189 133 m 6 X s 1197 178 m -3 X s 1194 175 m 6 Y s 1197 178 m 3 X s 1200 175 m 6 Y s 1197 178 m 34 Y s 1194 212 m 6 X s 1197 178 m -27 Y s 1194 151 m 6 X s 1202 149 m -2 X s 1200 146 m 6 Y s 1202 149
 m 3 X s 1205 146 m 6 Y s 1202 149 m 31 Y s 1199 180 m 6 X s 1202 149 m -22 Y s 1199 127 m 6 X s 1208 192 m -3 X s 1205 189 m 6 Y s 1208 192 m 2 X s 1210 189 m 6 Y s 1208 192 m 36 Y s 1205 228 m 6 X s 1208 192 m -28 Y s 1205 164 m 6 X s 1213 163 m -3
 X s 1210 160 m 6 Y s 1213 163 m 3 X s 1216 160 m 6 Y s 1213 163 m 33 Y s 1210 196 m 6 X s 1213 163 m -24 Y s 1210 139 m 6 X s 1218 178 m -2 X s 1216 175 m 6 Y s 1218 178 m 3 X s 1221 175 m 6 Y s 1218 178 m 34 Y s 1215 212 m 6 X s 1218 178 m -27 Y s
 1215 151 m 6 X s 1224 192 m -3 X s 1221 189 m 6 Y s 1224 192 m 2 X s 1226 189 m 6 Y s 1224 192 m 36 Y s 1221 228 m 6 X s 1224 192 m -28 Y s 1221 164 m 6 X s 1229 235 m -3 X s 1226 232 m 6 Y s 1229 235 m 3 X s 1232 232 m 6 Y s 1229 235 m 41 Y s 1226
 276 m 6 X s 1229 235 m -33 Y s 1226 202 m 6 X s 1234 314 m -2 X s 1232 311 m 6 Y s 1234 314 m 3 X s 1237 311 m 6 Y s 1234 314 m 49 Y s 1231 363 m 6 X s 1234 314 m -41 Y s 1231 273 m 6 X s 1240 278 m -3 X s 1237 275 m 6 Y s 1240 278 m 2 X s 1242 275
 m 6 Y s 1240 278 m 46 Y s 1237 324 m 6 X s 1240 278 m -38 Y s 1237 240 m 6 X s 1245 264 m -3 X s 1242 261 m 6 Y s 1245 264 m 3 X s 1248 261 m 6 Y s 1245 264 m 44 Y s 1242 308 m 6 X s 1245 264 m -37 Y s 1242 227 m 6 X s 1250 350 m -2 X s 1248 347 m 6
 Y s 1250 350 m 3 X s 1253 347 m 6 Y s 1250 350 m 52 Y s 1247 402 m 6 X s 1250 350 m -44 Y s 1247 306 m 6 X s 1256 364 m -3 X s 1253 361 m 6 Y s 1256 364 m 2 X s 1258 361 m 6 Y s 1256 364 m 53 Y s 1253 417 m 6 X s 1256 364 m -45 Y s 1253 319 m 6 X s
 1261 400 m -3 X s 1258 397 m 6 Y s 1261 400 m 3 X s 1264 397 m 6 Y s 1261 400 m 56 Y s 1258 456 m 6 X s 1261 400 m -48 Y s 1258 352 m 6 X s 1266 501 m -2 X s 1264 498 m 6 Y s 1266 501 m 3 X s 1269 498 m 6 Y s 1266 501 m 63 Y s 1263 564 m 6 X s 1266
 501 m -55 Y s 1263 446 m 6 X s 1272 479 m -3 X s 1269 476 m 6 Y s 1272 479 m 2 X s 1274 476 m 6 Y s 1272 479 m 62 Y s 1268 541 m 7 X s 1272 479 m -53 Y s 1268 426 m 7 X s 1277 479 m -3 X s 1274 476 m 6 Y s 1277 479 m 3 X s 1280 476 m 6 Y s 1277 479
 m 62 Y s 1274 541 m 6 X s 1277 479 m -53 Y s 1274 426 m 6 X s 1282 544 m -2 X s 1280 541 m 6 Y s 1282 544 m 3 X s 1285 541 m 6 Y s 1282 544 m 65 Y s 1279 609 m 6 X s 1282 544 m -58 Y s 1279 486 m 6 X s 1288 508 m -3 X s 1285 505 m 6 Y s 1288 508 m 2
 X s 1290 505 m 6 Y s 1288 508 m 63 Y s 1284 571 m 7 X s 1288 508 m -55 Y s 1284 453 m 7 X s 1293 537 m -3 X s 1290 534 m 6 Y s 1293 537 m 3 X s 1296 534 m 6 Y s 1293 537 m 65 Y s 1290 602 m 6 X s 1293 537 m -58 Y s 1290 479 m 6 X s 1298 487 m -2 X s
 1296 483 m 7 Y s 1298 487 m 3 X s 1301 483 m 7 Y s 1298 487 m 61 Y s 1295 548 m 6 X s 1298 487 m -55 Y s 1295 432 m 6 X s 1304 508 m -3 X s 1301 505 m 6 Y s 1304 508 m 2 X s 1306 505 m 6 Y s 1304 508 m 63 Y s 1300 571 m 7 X s 1304 508 m -55 Y s 1300
 453 m 7 X s 1309 544 m -3 X s 1306 541 m 6 Y s 1309 544 m 2 X s 1311 541 m 6 Y s 1309 544 m 65 Y s 1306 609 m 6 X s 1309 544 m -58 Y s 1306 486 m 6 X s 1314 451 m -3 X s 1311 448 m 6 Y s 1314 451 m 3 X s 1317 448 m 6 Y s 1314 451 m 59 Y s 1311 510 m
 6 X s 1314 451 m -52 Y s 1311 399 m 6 X s 1319 472 m -2 X s 1317 469 m 6 Y s 1319 472 m 3 X s 1322 469 m 6 Y s 1319 472 m 61 Y s 1316 533 m 7 X s 1319 472 m -53 Y s 1316 419 m 7 X s 1325 379 m -3 X s 1322 376 m 6 Y s 1325 379 m 2 X s 1327 376 m 6 Y
 s 1325 379 m 54 Y s 1322 433 m 6 X s 1325 379 m -47 Y s 1322 332 m 6 X s 1330 336 m -3 X s 1327 333 m 6 Y s 1330 336 m 3 X s 1333 333 m 6 Y s 1330 336 m 50 Y s 1327 386 m 6 X s 1330 336 m -43 Y s 1327 293 m 6 X s 1335 271 m -2 X s 1333 268 m 6 Y s
 1335 271 m 3 X s 1338 268 m 6 Y s 1335 271 m 45 Y s 1332 316 m 7 X s 1335 271 m -37 Y s 1332 234 m 7 X s 1341 221 m -3 X s 1338 218 m 6 Y s 1341 221 m 2 X s 1343 218 m 6 Y s 1341 221 m 40 Y s 1338 261 m 6 X s 1341 221 m -32 Y s 1338 189 m 6 X s 1346
 249 m -3 X s 1343 246 m 6 Y s 1346 249 m 3 X s 1349 246 m 6 Y s 1346 249 m 43 Y s 1343 292 m 6 X s 1346 249 m -35 Y s 1343 214 m 6 X s 1351 178 m -2 X s 1349 175 m 6 Y s 1351 178 m 3 X s 1354 175 m 6 Y s 1351 178 m 34 Y s 1348 212 m 6 X s 1351 178 m
 -27 Y s 1348 151 m 6 X s 1357 199 m -3 X s 1354 196 m 6 Y s 1357 199 m 2 X s 1359 196 m 6 Y s 1357 199 m 38 Y s 1354 237 m 6 X s 1357 199 m -29 Y s 1354 170 m 6 X s 1362 156 m -3 X s 1359 153 m 6 Y s 1362 156 m 3 X s 1365 153 m 6 Y s 1362 156 m 32 Y
 s 1359 188 m 6 X s 1362 156 m -23 Y s 1359 133 m 6 X s 1367 149 m -2 X s 1365 146 m 6 Y s 1367 149 m 3 X s 1370 146 m 6 Y s 1367 149 m 31 Y s 1364 180 m 6 X s 1367 149 m -22 Y s 1364 127 m 6 X s 1373 127 m -3 X s 1370 124 m 6 Y s 1373 127 m 2 X s
 1375 124 m 6 Y s 1373 127 m 27 Y s 1370 154 m 6 X s 1373 127 m -18 Y s 1370 109 m 6 X s 1378 127 m -3 X s 1375 124 m 6 Y s 1378 127 m 3 X s 1381 124 m 6 Y s 1378 127 m 27 Y s 1375 154 m 6 X s 1378 127 m -18 Y s 1375 109 m 6 X s 1383 127 m -2 X s
 1381 124 m 6 Y s 1383 127 m 3 X s 1386 124 m 6 Y s 1383 127 m 27 Y s 1380 154 m 6 X s 1383 127 m -18 Y s 1380 109 m 6 X s 1389 99 m -3 X s 1386 96 m 6 Y s 1389 99 m 2 X s 1391 96 m 6 Y s 1389 99 m 21 Y s 1386 120 m 6 X s 1389 99 m -12 Y s 1386 87 m
 6 X s 1394 84 m -3 X s 1391 81 m 6 Y s 1394 84 m 3 X s 1397 81 m 6 Y s 1394 84 m 17 Y s 1391 101 m 6 X s 1394 84 m -6 Y s 1391 78 m 6 X s 1399 106 m -2 X s 1397 103 m 6 Y s 1399 106 m 3 X s 1402 103 m 6 Y s 1399 106 m 22 Y s 1396 128 m 6 X s 1399
 106 m -14 Y s 1396 92 m 6 X s 1405 106 m -3 X s 1402 103 m 6 Y s 1405 106 m 2 X s 1407 103 m 6 Y s 1405 106 m 22 Y s 1402 128 m 6 X s 1405 106 m -14 Y s 1402 92 m 6 X s 1410 84 m -3 X s 1407 81 m 6 Y s 1410 84 m 3 X s 1413 81 m 6 Y s 1410 84 m 17 Y
 s 1407 101 m 6 X s 1410 84 m -6 Y s 1407 78 m 6 X s 1415 113 m -2 X s 1413 110 m 6 Y s 1415 113 m 3 X s 1418 110 m 6 Y s 1415 113 m 24 Y s 1412 137 m 6 X s 1415 113 m -16 Y s 1412 97 m 6 X s 888 127 893 120 898 163 904 113 909 142 914 106 920 99 925
 120 930 120 936 120 941 113 946 156 952 134 957 120 962 120 968 120 973 120 978 106 984 106 989 170 994 91 1000 142 1005 142 1010 120 1016 142 1021 134 1026 120 1032 113 1037 134 1042 127 1048 99 1053 127 1058 134 1064 149 1069 106 1074 106 1080 134
 1085 127 1090 99 1096 120 1101 127 1106 113 1112 142 1117 134 1122 120 1128 127 1133 106 1138 178 1144 113 1149 142 1154 156 1160 134 1165 120 1170 149 1176 113 1181 134 1186 149 1192 156 1197 178 1202 149 1208 192 1213 163 1218 178 1224 192 1229
 235 1234 314 1240 278 1245 264 1250 350 1256 364 1261 400 1266 501 1272 479 1277 479 1282 544 1288 508 1293 537 1298 487 1304 508 1309 544 1314 451 1319 472 1325 379 1330 336 1335 271 1341 221 1346 249 1351 178 1357 199 1362 156 1367 149 1373 127
 1378 127 1383 127 1389 99 1394 84 1399 106 1405 106 1410 84 1415 113 100 { m20} R 0 0 1 c 9 lw black 0 0 1 c 885 122 m cl s 885 122 m 16 X 5 1 d 22 X 5 1 d 16 X 5 1 d 22 X 5 1 d 21 X 6 1 d 21 X 5 1 d 27 X 5 1 d 43 X 5 1 d 43 X 5 1 d 6 X 5 1 d 5 1 d
 6 2 d 5 2 d 5 4 d 6 5 d 5 7 d 5 9 d 6 12 d 5 16 d 3 9 d 2 10 d 3 12 d 3 12 d 2 13 d 3 14 d 5 31 d 6 34 d 5 36 d 5 36 d 6 36 d 2 17 d 3 15 d 3 15 d 2 13 d 3 12 d 3 10 d 2 7 d 3 6 d 3 4 d 2 1 d 3 -1 d 3 -3 d 2 -5 d 3 -7 d 3 -10 d 2 -11 d 3 -13 d 2 -15
 d 3 -16 d 3 -16 d 5 -36 d 5 -38 d 6 -37 d 5 -36 d 5 -33 d 3 -15 d 3 -14 d 2 -14 d 3 -12 d 3 -11 d 2 -11 d 6 -18 d 5 -14 d 5 -12 d 6 -10 d 5 -7 d 5 -6 d 6 -6 d 5 -5 d 5 -4 d 6 -6 d 2 -4 d 2 -3 d -2 Y 1 -4 d s black 3 lw 885 77 m 533 X s 885 93 m -16
 Y s 898 85 m -8 Y s 912 85 m -8 Y s 925 85 m -8 Y s 938 85 m -8 Y s 952 93 m -16 Y s 965 85 m -8 Y s 978 85 m -8 Y s 992 85 m -8 Y s 1005 85 m -8 Y s 1018 93 m -16 Y s 1032 85 m -8 Y s 1045 85 m -8 Y s 1058 85 m -8 Y s 1072 85 m -8 Y s 1085 93 m -16
 Y s 1098 85 m -8 Y s 1112 85 m -8 Y s 1125 85 m -8 Y s 1138 85 m -8 Y s 1152 93 m -16 Y s 1165 85 m -8 Y s 1178 85 m -8 Y s 1192 85 m -8 Y s 1205 85 m -8 Y s 1218 93 m -16 Y s 1232 85 m -8 Y s 1245 85 m -8 Y s 1258 85 m -8 Y s 1272 85 m -8 Y s 1285
 93 m -16 Y s 1298 85 m -8 Y s 1311 85 m -8 Y s 1325 85 m -8 Y s 1338 85 m -8 Y s 1351 93 m -16 Y s 1365 85 m -8 Y s 1378 85 m -8 Y s 1391 85 m -8 Y s 1405 85 m -8 Y s 1418 93 m -16 Y s 885 77 m 559 Y s 902 77 m -17 X s 894 91 m -9 X s 894 106 m -9 X
 s 894 120 m -9 X s 894 134 m -9 X s 902 149 m -17 X s 894 163 m -9 X s 894 178 m -9 X s 894 192 m -9 X s 894 206 m -9 X s 902 221 m -17 X s 894 235 m -9 X s 894 249 m -9 X s 894 264 m -9 X s 894 278 m -9 X s 902 293 m -17 X s 894 307 m -9 X s 894
 321 m -9 X s 894 336 m -9 X s 894 350 m -9 X s 902 364 m -17 X s 894 379 m -9 X s 894 393 m -9 X s 894 407 m -9 X s 894 422 m -9 X s 902 436 m -17 X s 894 451 m -9 X s 894 465 m -9 X s 894 479 m -9 X s 894 494 m -9 X s 902 508 m -17 X s 894 522 m -9
 X s 894 537 m -9 X s 894 551 m -9 X s 894 566 m -9 X s 902 580 m -17 X s 902 580 m -17 X s 894 594 m -9 X s 894 609 m -9 X s 894 623 m -9 X s 1 1 1 c black
 gsave  710 699 779 7 C 1041.51 672.14 t 0 r /Helvetica findfont 34.8619 sf 0 0 m (Background) show NC gr  1 1 1 c 711 699 1534 7 bf black 1 1 1 c 533 559 1641 77 bf black 533 559 1641 77 bl 1 1 1 c 533 559 1641 77 bf black 533 559 1641 77 bl 1641 77
 m 533 X s 1641 93 m -16 Y s 1654 85 m -8 Y s 1668 85 m -8 Y s 1681 85 m -8 Y s 1694 85 m -8 Y s 1708 93 m -16 Y s 1721 85 m -8 Y s 1734 85 m -8 Y s 1748 85 m -8 Y s 1761 85 m -8 Y s 1774 93 m -16 Y s 1788 85 m -8 Y s 1801 85 m -8 Y s 1814 85 m -8 Y
 s 1828 85 m -8 Y s 1841 93 m -16 Y s 1854 85 m -8 Y s 1868 85 m -8 Y s 1881 85 m -8 Y s 1894 85 m -8 Y s 1908 93 m -16 Y s 1921 85 m -8 Y s 1934 85 m -8 Y s 1947 85 m -8 Y s 1961 85 m -8 Y s 1974 93 m -16 Y s 1987 85 m -8 Y s 2001 85 m -8 Y s 2014
 85 m -8 Y s 2027 85 m -8 Y s 2041 93 m -16 Y s 2054 85 m -8 Y s 2067 85 m -8 Y s 2081 85 m -8 Y s 2094 85 m -8 Y s 2107 93 m -16 Y s 2121 85 m -8 Y s 2134 85 m -8 Y s 2147 85 m -8 Y s 2161 85 m -8 Y s 2174 93 m -16 Y s
 gsave  711 699 1534 7 C 1618.28 54.4979 t 0 r /Helvetica findfont 22.736 sf 0 0 m (5.25) show NC gr 
 gsave  711 699 1534 7 C 1678.84 54.4979 t 0 r /Helvetica findfont 22.736 sf 0 0 m (5.255) show NC gr 
 gsave  711 699 1534 7 C 1751.5 54.4979 t 0 r /Helvetica findfont 22.736 sf 0 0 m (5.26) show NC gr 
 gsave  711 699 1534 7 C 1812.05 54.4979 t 0 r /Helvetica findfont 22.736 sf 0 0 m (5.265) show NC gr 
 gsave  711 699 1534 7 C 1884.72 54.4979 t 0 r /Helvetica findfont 22.736 sf 0 0 m (5.27) show NC gr 
 gsave  711 699 1534 7 C 1945.27 54.4979 t 0 r /Helvetica findfont 22.736 sf 0 0 m (5.275) show NC gr 
 gsave  711 699 1534 7 C 2017.93 54.4979 t 0 r /Helvetica findfont 22.736 sf 0 0 m (5.28) show NC gr 
 gsave  711 699 1534 7 C 2078.49 54.4979 t 0 r /Helvetica findfont 22.736 sf 0 0 m (5.285) show NC gr 
 gsave  711 699 1534 7 C 2151.15 54.4979 t 0 r /Helvetica findfont 22.736 sf 0 0 m (5.29) show NC gr 
 gsave  711 699 1534 7 C 2117.85 31.7904 t 0 r /Helvetica findfont 22.736 sf 0 0 m (m_bc) show NC gr  1641 77 m 559 Y s 1658 77 m -17 X s 1650 98 m -9 X s 1650 119 m -9 X s 1650 140 m -9 X s 1650 161 m -9 X s 1658 182 m -17 X s 1650 203 m -9 X s 1650
 224 m -9 X s 1650 245 m -9 X s 1650 266 m -9 X s 1658 287 m -17 X s 1650 308 m -9 X s 1650 329 m -9 X s 1650 350 m -9 X s 1650 371 m -9 X s 1658 392 m -17 X s 1650 413 m -9 X s 1650 434 m -9 X s 1650 455 m -9 X s 1650 476 m -9 X s 1658 497 m -17 X s
 1650 518 m -9 X s 1650 539 m -9 X s 1650 560 m -9 X s 1650 581 m -9 X s 1658 601 m -17 X s 1658 601 m -17 X s 1650 622 m -9 X s
 gsave  711 699 1534 7 C 1624.34 68.1223 t 0 r /Helvetica findfont 22.736 sf 0 0 m (0) show NC gr 
 gsave  711 699 1534 7 C 1598.6 174.09 t 0 r /Helvetica findfont 22.736 sf 0 0 m (100) show NC gr 
 gsave  711 699 1534 7 C 1598.6 278.545 t 0 r /Helvetica findfont 22.736 sf 0 0 m (200) show NC gr 
 gsave  711 699 1534 7 C 1598.6 382.999 t 0 r /Helvetica findfont 22.736 sf 0 0 m (300) show NC gr 
 gsave  711 699 1534 7 C 1598.6 488.967 t 0 r /Helvetica findfont 22.736 sf 0 0 m (400) show NC gr 
 gsave  711 699 1534 7 C 1598.6 593.421 t 0 r /Helvetica findfont 22.736 sf 0 0 m (500) show NC gr 
 gsave  711 699 1534 7 C 1588.01 452.635 t 90 r /Helvetica findfont 22.736 sf 0 0 m (Events / \( 0.0004 \)) show NC gr  1644 80 m -3 X s 1641 77 m 6 Y s 1644 80 m 2 X s 1646 77 m 6 Y s 1644 80 m 3 Y s 1641 83 m 6 X s 1644 80 m -2 Y s 1641 78 m 6 X s
 1649 79 m -3 X s 1646 77 m 5 Y s 1649 79 m 3 X s 1652 77 m 5 Y s 1649 79 m 3 Y s 1646 82 m 6 X s 1649 79 m -1 Y s 1646 78 m 6 X s 1654 79 m -2 X s 1652 77 m 5 Y s 1654 79 m 3 X s 1657 77 m 5 Y s 1654 79 m 3 Y s 1651 82 m 6 X s 1654 79 m -1 Y s 1651
 78 m 6 X s 1660 84 m -3 X s 1657 81 m 6 Y s 1660 84 m 2 X s 1662 81 m 6 Y s 1660 84 m 4 Y s 1657 88 m 6 X s 1660 84 m -2 Y s 1657 82 m 6 X s 1665 82 m -3 X s 1662 79 m 6 Y s 1665 82 m 3 X s 1668 79 m 6 Y s 1665 82 m 4 Y s 1662 86 m 6 X s 1665 82 m
 -2 Y s 1662 80 m 6 X s 1670 79 m -2 X s 1668 77 m 5 Y s 1670 79 m 3 X s 1673 77 m 5 Y s 1670 79 m 3 Y s 1667 82 m 6 X s 1670 79 m -1 Y s 1667 78 m 6 X s 1676 79 m -3 X s 1673 77 m 5 Y s 1676 79 m 2 X s 1678 77 m 5 Y s 1676 79 m 3 Y s 1673 82 m 6 X s
 1676 79 m -1 Y s 1673 78 m 6 X s 1681 82 m -3 X s 1678 79 m 6 Y s 1681 82 m 3 X s 1684 79 m 6 Y s 1681 82 m 4 Y s 1678 86 m 6 X s 1681 82 m -2 Y s 1678 80 m 6 X s 1686 78 m -2 X s 1684 77 m 4 Y s 1686 78 m 3 X s 1689 77 m 4 Y s 1686 78 m 2 Y s 1683
 80 m 6 X s 1686 78 m -1 Y s 1683 77 m 6 X s 1692 86 m -3 X s 1689 83 m 6 Y s 1692 86 m 2 X s 1694 83 m 6 Y s 1692 86 m 5 Y s 1689 91 m 6 X s 1692 86 m -3 Y s 1689 83 m 6 X s 1697 81 m -3 X s 1694 78 m 6 Y s 1697 81 m 3 X s 1700 78 m 6 Y s 1697 81 m
 4 Y s 1694 85 m 6 X s 1697 81 m -2 Y s 1694 79 m 6 X s 1702 80 m -2 X s 1700 77 m 6 Y s 1702 80 m 3 X s 1705 77 m 6 Y s 1702 80 m 3 Y s 1699 83 m 6 X s 1702 80 m -2 Y s 1699 78 m 6 X s 1708 82 m -3 X s 1705 79 m 6 Y s 1708 82 m 2 X s 1710 79 m 6 Y s
 1708 82 m 4 Y s 1705 86 m 6 X s 1708 82 m -2 Y s 1705 80 m 6 X s 1713 81 m -3 X s 1710 78 m 6 Y s 1713 81 m 3 X s 1716 78 m 6 Y s 1713 81 m 4 Y s 1710 85 m 6 X s 1713 81 m -2 Y s 1710 79 m 6 X s 1718 81 m -2 X s 1716 78 m 6 Y s 1718 81 m 3 X s 1721
 78 m 6 Y s 1718 81 m 4 Y s 1715 85 m 6 X s 1718 81 m -2 Y s 1715 79 m 6 X s 1724 80 m -3 X s 1721 77 m 6 Y s 1724 80 m 2 X s 1726 77 m 6 Y s 1724 80 m 3 Y s 1721 83 m 6 X s 1724 80 m -2 Y s 1721 78 m 6 X s 1729 78 m -3 X s 1726 77 m 4 Y s 1729 78 m
 3 X s 1732 77 m 4 Y s 1729 78 m 2 Y s 1726 80 m 6 X s 1729 78 m -1 Y s 1726 77 m 6 X s 1734 82 m -2 X s 1732 79 m 6 Y s 1734 82 m 3 X s 1737 79 m 6 Y s 1734 82 m 4 Y s 1731 86 m 6 X s 1734 82 m -2 Y s 1731 80 m 6 X s 1740 84 m -3 X s 1737 81 m 6 Y s
 1740 84 m 2 X s 1742 81 m 6 Y s 1740 84 m 4 Y s 1737 88 m 6 X s 1740 84 m -2 Y s 1737 82 m 6 X s 1745 80 m -3 X s 1742 77 m 6 Y s 1745 80 m 3 X s 1748 77 m 6 Y s 1745 80 m 3 Y s 1742 83 m 6 X s 1745 80 m -2 Y s 1742 78 m 6 X s 1750 80 m -2 X s 1748
 77 m 6 Y s 1750 80 m 3 X s 1753 77 m 6 Y s 1750 80 m 3 Y s 1747 83 m 6 X s 1750 80 m -2 Y s 1747 78 m 6 X s 1756 84 m -3 X s 1753 81 m 6 Y s 1756 84 m 2 X s 1758 81 m 6 Y s 1756 84 m 4 Y s 1753 88 m 6 X s 1756 84 m -2 Y s 1753 82 m 6 X s 1761 82 m
 -3 X s 1758 79 m 6 Y s 1761 82 m 3 X s 1764 79 m 6 Y s 1761 82 m 4 Y s 1758 86 m 6 X s 1761 82 m -2 Y s 1758 80 m 6 X s 1766 79 m -2 X s 1764 77 m 5 Y s 1766 79 m 3 X s 1769 77 m 5 Y s 1766 79 m 3 Y s 1763 82 m 6 X s 1766 79 m -1 Y s 1763 78 m 6 X s
 1772 81 m -3 X s 1769 78 m 6 Y s 1772 81 m 2 X s 1774 78 m 6 Y s 1772 81 m 4 Y s 1769 85 m 6 X s 1772 81 m -2 Y s 1769 79 m 6 X s 1777 82 m -3 X s 1774 79 m 6 Y s 1777 82 m 3 X s 1780 79 m 6 Y s 1777 82 m 4 Y s 1774 86 m 6 X s 1777 82 m -2 Y s 1774
 80 m 6 X s 1782 82 m -2 X s 1780 79 m 6 Y s 1782 82 m 3 X s 1785 79 m 6 Y s 1782 82 m 4 Y s 1779 86 m 6 X s 1782 82 m -2 Y s 1779 80 m 6 X s 1788 82 m -3 X s 1785 79 m 6 Y s 1788 82 m 2 X s 1790 79 m 6 Y s 1788 82 m 4 Y s 1785 86 m 6 X s 1788 82 m
 -2 Y s 1785 80 m 6 X s 1793 78 m -3 X s 1790 77 m 4 Y s 1793 78 m 3 X s 1796 77 m 4 Y s 1793 78 m 2 Y s 1790 80 m 6 X s 1793 78 m -1 Y s 1790 77 m 6 X s 1798 82 m -2 X s 1796 79 m 6 Y s 1798 82 m 3 X s 1801 79 m 6 Y s 1798 82 m 4 Y s 1795 86 m 6 X s
 1798 82 m -2 Y s 1795 80 m 6 X s 1804 81 m -3 X s 1801 78 m 6 Y s 1804 81 m 2 X s 1806 78 m 6 Y s 1804 81 m 4 Y s 1801 85 m 6 X s 1804 81 m -2 Y s 1801 79 m 6 X s 1809 83 m -3 X s 1806 80 m 6 Y s 1809 83 m 3 X s 1812 80 m 6 Y s 1809 83 m 4 Y s 1806
 87 m 6 X s 1809 83 m -2 Y s 1806 81 m 6 X s 1814 77 m -2 X s 1812 77 m 3 Y s 1814 77 m 3 X s 1817 77 m 3 Y s 1814 77 m 1 Y s 1811 78 m 6 X s 1820 81 m -3 X s 1817 78 m 6 Y s 1820 81 m 2 X s 1822 78 m 6 Y s 1820 81 m 4 Y s 1817 85 m 6 X s 1820 81 m
 -2 Y s 1817 79 m 6 X s 1825 78 m -3 X s 1822 77 m 4 Y s 1825 78 m 3 X s 1828 77 m 4 Y s 1825 78 m 2 Y s 1822 80 m 6 X s 1825 78 m -1 Y s 1822 77 m 6 X s 1830 82 m -2 X s 1828 79 m 6 Y s 1830 82 m 3 X s 1833 79 m 6 Y s 1830 82 m 4 Y s 1827 86 m 6 X s
 1830 82 m -2 Y s 1827 80 m 6 X s 1836 82 m -3 X s 1833 79 m 6 Y s 1836 82 m 2 X s 1838 79 m 6 Y s 1836 82 m 4 Y s 1833 86 m 6 X s 1836 82 m -2 Y s 1833 80 m 6 X s 1841 83 m -3 X s 1838 80 m 6 Y s 1841 83 m 3 X s 1844 80 m 6 Y s 1841 83 m 4 Y s 1838
 87 m 6 X s 1841 83 m -2 Y s 1838 81 m 6 X s 1846 82 m -2 X s 1844 79 m 6 Y s 1846 82 m 3 X s 1849 79 m 6 Y s 1846 82 m 4 Y s 1843 86 m 6 X s 1846 82 m -2 Y s 1843 80 m 6 X s 1852 81 m -3 X s 1849 78 m 6 Y s 1852 81 m 2 X s 1854 78 m 6 Y s 1852 81 m
 4 Y s 1849 85 m 6 X s 1852 81 m -2 Y s 1849 79 m 6 X s 1857 82 m -3 X s 1854 79 m 6 Y s 1857 82 m 3 X s 1860 79 m 6 Y s 1857 82 m 4 Y s 1854 86 m 6 X s 1857 82 m -2 Y s 1854 80 m 6 X s 1862 82 m -2 X s 1860 79 m 6 Y s 1862 82 m 3 X s 1865 79 m 6 Y s
 1862 82 m 4 Y s 1859 86 m 6 X s 1862 82 m -2 Y s 1859 80 m 6 X s 1868 84 m -3 X s 1865 81 m 6 Y s 1868 84 m 2 X s 1870 81 m 6 Y s 1868 84 m 4 Y s 1865 88 m 6 X s 1868 84 m -2 Y s 1865 82 m 6 X s 1873 79 m -3 X s 1870 77 m 5 Y s 1873 79 m 3 X s 1876
 77 m 5 Y s 1873 79 m 3 Y s 1870 82 m 6 X s 1873 79 m -1 Y s 1870 78 m 6 X s 1878 82 m -2 X s 1876 79 m 6 Y s 1878 82 m 3 X s 1881 79 m 6 Y s 1878 82 m 4 Y s 1875 86 m 6 X s 1878 82 m -2 Y s 1875 80 m 6 X s 1884 78 m -3 X s 1881 77 m 4 Y s 1884 78 m
 2 X s 1886 77 m 4 Y s 1884 78 m 2 Y s 1881 80 m 6 X s 1884 78 m -1 Y s 1881 77 m 6 X s 1889 79 m -3 X s 1886 77 m 5 Y s 1889 79 m 3 X s 1892 77 m 5 Y s 1889 79 m 3 Y s 1886 82 m 6 X s 1889 79 m -1 Y s 1886 78 m 6 X s 1894 82 m -2 X s 1892 79 m 6 Y s
 1894 82 m 3 X s 1897 79 m 6 Y s 1894 82 m 4 Y s 1891 86 m 6 X s 1894 82 m -2 Y s 1891 80 m 6 X s 1900 80 m -3 X s 1897 77 m 6 Y s 1900 80 m 2 X s 1902 77 m 6 Y s 1900 80 m 3 Y s 1897 83 m 6 X s 1900 80 m -2 Y s 1897 78 m 6 X s 1905 80 m -3 X s 1902
 77 m 6 Y s 1905 80 m 3 X s 1908 77 m 6 Y s 1905 80 m 3 Y s 1902 83 m 6 X s 1905 80 m -2 Y s 1902 78 m 6 X s 1910 78 m -2 X s 1908 77 m 4 Y s 1910 78 m 3 X s 1913 77 m 4 Y s 1910 78 m 2 Y s 1907 80 m 6 X s 1910 78 m -1 Y s 1907 77 m 6 X s 1916 81 m
 -3 X s 1913 78 m 6 Y s 1916 81 m 2 X s 1918 78 m 6 Y s 1916 81 m 4 Y s 1912 85 m 7 X s 1916 81 m -2 Y s 1912 79 m 7 X s 1921 86 m -3 X s 1918 83 m 6 Y s 1921 86 m 3 X s 1924 83 m 6 Y s 1921 86 m 5 Y s 1918 91 m 6 X s 1921 86 m -3 Y s 1918 83 m 6 X s
 1926 83 m -2 X s 1924 80 m 6 Y s 1926 83 m 3 X s 1929 80 m 6 Y s 1926 83 m 4 Y s 1923 87 m 6 X s 1926 83 m -2 Y s 1923 81 m 6 X s 1932 81 m -3 X s 1929 78 m 6 Y s 1932 81 m 2 X s 1934 78 m 6 Y s 1932 81 m 4 Y s 1928 85 m 7 X s 1932 81 m -2 Y s 1928
 79 m 7 X s 1937 87 m -3 X s 1934 84 m 7 Y s 1937 87 m 3 X s 1940 84 m 7 Y s 1937 87 m 5 Y s 1934 92 m 6 X s 1937 87 m -3 Y s 1934 84 m 6 X s 1942 90 m -2 X s 1940 87 m 6 Y s 1942 90 m 3 X s 1945 87 m 6 Y s 1942 90 m 4 Y s 1939 94 m 6 X s 1942 90 m
 -4 Y s 1939 86 m 6 X s 1947 95 m -2 X s 1945 92 m 6 Y s 1947 95 m 3 X s 1950 92 m 6 Y s 1947 95 m 5 Y s 1944 100 m 7 X s 1947 95 m -4 Y s 1944 91 m 7 X s 1953 103 m -3 X s 1950 100 m 6 Y s 1953 103 m 2 X s 1955 100 m 6 Y s 1953 103 m 7 Y s 1950 110
 m 6 X s 1953 103 m -5 Y s 1950 98 m 6 X s 1958 98 m -3 X s 1955 95 m 6 Y s 1958 98 m 3 X s 1961 95 m 6 Y s 1958 98 m 6 Y s 1955 104 m 6 X s 1958 98 m -5 Y s 1955 93 m 6 X s 1963 114 m -2 X s 1961 111 m 6 Y s 1963 114 m 3 X s 1966 111 m 6 Y s 1963
 114 m 7 Y s 1960 121 m 7 X s 1963 114 m -6 Y s 1960 108 m 7 X s 1969 127 m -3 X s 1966 124 m 6 Y s 1969 127 m 2 X s 1971 124 m 6 Y s 1969 127 m 9 Y s 1966 136 m 6 X s 1969 127 m -7 Y s 1966 120 m 6 X s 1974 126 m -3 X s 1971 123 m 6 Y s 1974 126 m 3
 X s 1977 123 m 6 Y s 1974 126 m 9 Y s 1971 135 m 6 X s 1974 126 m -7 Y s 1971 119 m 6 X s 1979 139 m -2 X s 1977 136 m 6 Y s 1979 139 m 3 X s 1982 136 m 6 Y s 1979 139 m 9 Y s 1976 148 m 6 X s 1979 139 m -8 Y s 1976 131 m 6 X s 1985 183 m -3 X s
 1982 180 m 6 Y s 1985 183 m 2 X s 1987 180 m 6 Y s 1985 183 m 11 Y s 1982 194 m 6 X s 1985 183 m -10 Y s 1982 173 m 6 X s 1990 191 m -3 X s 1987 188 m 6 Y s 1990 191 m 3 X s 1993 188 m 6 Y s 1990 191 m 12 Y s 1987 203 m 6 X s 1990 191 m -10 Y s 1987
 181 m 6 X s 1995 231 m -2 X s 1993 228 m 6 Y s 1995 231 m 3 X s 1998 228 m 6 Y s 1995 231 m 13 Y s 1992 244 m 6 X s 1995 231 m -12 Y s 1992 219 m 6 X s 2001 268 m -3 X s 1998 265 m 6 Y s 2001 268 m 2 X s 2003 265 m 6 Y s 2001 268 m 15 Y s 1998 283 m
 6 X s 2001 268 m -14 Y s 1998 254 m 6 X s 2006 292 m -3 X s 2003 289 m 6 Y s 2006 292 m 3 X s 2009 289 m 6 Y s 2006 292 m 16 Y s 2003 308 m 6 X s 2006 292 m -14 Y s 2003 278 m 6 X s 2011 340 m -2 X s 2009 337 m 6 Y s 2011 340 m 3 X s 2014 337 m 6 Y
 s 2011 340 m 17 Y s 2008 357 m 6 X s 2011 340 m -16 Y s 2008 324 m 6 X s 2017 420 m -3 X s 2014 417 m 6 Y s 2017 420 m 2 X s 2019 417 m 6 Y s 2017 420 m 20 Y s 2014 440 m 6 X s 2017 420 m -18 Y s 2014 402 m 6 X s 2022 486 m -3 X s 2019 483 m 6 Y s
 2022 486 m 3 X s 2025 483 m 6 Y s 2022 486 m 21 Y s 2019 507 m 6 X s 2022 486 m -20 Y s 2019 466 m 6 X s 2027 530 m -2 X s 2025 527 m 6 Y s 2027 530 m 3 X s 2030 527 m 6 Y s 2027 530 m 22 Y s 2024 552 m 6 X s 2027 530 m -21 Y s 2024 509 m 6 X s 2033
 514 m -3 X s 2030 511 m 6 Y s 2033 514 m 2 X s 2035 511 m 6 Y s 2033 514 m 22 Y s 2030 536 m 6 X s 2033 514 m -20 Y s 2030 494 m 6 X s 2038 540 m -3 X s 2035 537 m 6 Y s 2038 540 m 3 X s 2041 537 m 6 Y s 2038 540 m 22 Y s 2035 562 m 6 X s 2038 540 m
 -22 Y s 2035 518 m 6 X s 2043 586 m -2 X s 2041 583 m 6 Y s 2043 586 m 3 X s 2046 583 m 6 Y s 2043 586 m 23 Y s 2040 609 m 6 X s 2043 586 m -23 Y s 2040 563 m 6 X s 2049 563 m -3 X s 2046 560 m 6 Y s 2049 563 m 2 X s 2051 560 m 6 Y s 2049 563 m 23 Y
 s 2046 586 m 6 X s 2049 563 m -22 Y s 2046 541 m 6 X s 2054 551 m -3 X s 2051 548 m 6 Y s 2054 551 m 3 X s 2057 548 m 6 Y s 2054 551 m 23 Y s 2051 574 m 6 X s 2054 551 m -22 Y s 2051 529 m 6 X s 2059 510 m -2 X s 2057 507 m 6 Y s 2059 510 m 3 X s
 2062 507 m 6 Y s 2059 510 m 22 Y s 2056 532 m 6 X s 2059 510 m -21 Y s 2056 489 m 6 X s 2065 515 m -3 X s 2062 512 m 7 Y s 2065 515 m 2 X s 2067 512 m 7 Y s 2065 515 m 22 Y s 2062 537 m 6 X s 2065 515 m -20 Y s 2062 495 m 6 X s 2070 472 m -3 X s
 2067 469 m 6 Y s 2070 472 m 3 X s 2073 469 m 6 Y s 2070 472 m 21 Y s 2067 493 m 6 X s 2070 472 m -19 Y s 2067 453 m 6 X s 2075 416 m -2 X s 2073 413 m 6 Y s 2075 416 m 3 X s 2078 413 m 6 Y s 2075 416 m 19 Y s 2072 435 m 6 X s 2075 416 m -19 Y s 2072
 397 m 6 X s 2081 375 m -3 X s 2078 372 m 6 Y s 2081 375 m 2 X s 2083 372 m 6 Y s 2081 375 m 18 Y s 2078 393 m 6 X s 2081 375 m -17 Y s 2078 358 m 6 X s 2086 337 m -3 X s 2083 334 m 6 Y s 2086 337 m 3 X s 2089 334 m 6 Y s 2086 337 m 17 Y s 2083 354 m
 6 X s 2086 337 m -16 Y s 2083 321 m 6 X s 2091 289 m -2 X s 2089 286 m 6 Y s 2091 289 m 3 X s 2094 286 m 6 Y s 2091 289 m 15 Y s 2088 304 m 6 X s 2091 289 m -14 Y s 2088 275 m 6 X s 2097 244 m -3 X s 2094 241 m 6 Y s 2097 244 m 2 X s 2099 241 m 6 Y
 s 2097 244 m 14 Y s 2094 258 m 6 X s 2097 244 m -13 Y s 2094 231 m 6 X s 2102 235 m -3 X s 2099 232 m 6 Y s 2102 235 m 3 X s 2105 232 m 6 Y s 2102 235 m 14 Y s 2099 249 m 6 X s 2102 235 m -12 Y s 2099 223 m 6 X s 2107 180 m -2 X s 2105 177 m 6 Y s
 2107 180 m 3 X s 2110 177 m 6 Y s 2107 180 m 11 Y s 2104 191 m 6 X s 2107 180 m -11 Y s 2104 169 m 6 X s 2113 151 m -3 X s 2110 148 m 7 Y s 2113 151 m 2 X s 2115 148 m 7 Y s 2113 151 m 10 Y s 2110 161 m 6 X s 2113 151 m -8 Y s 2110 143 m 6 X s 2118
 132 m -3 X s 2115 129 m 6 Y s 2118 132 m 3 X s 2121 129 m 6 Y s 2118 132 m 8 Y s 2115 140 m 6 X s 2118 132 m -8 Y s 2115 124 m 6 X s 2123 117 m -2 X s 2121 114 m 6 Y s 2123 117 m 3 X s 2126 114 m 6 Y s 2123 117 m 7 Y s 2120 124 m 6 X s 2123 117 m -7
 Y s 2120 110 m 6 X s 2129 114 m -3 X s 2126 111 m 6 Y s 2129 114 m 2 X s 2131 111 m 6 Y s 2129 114 m 7 Y s 2126 121 m 6 X s 2129 114 m -6 Y s 2126 108 m 6 X s 2134 98 m -3 X s 2131 95 m 6 Y s 2134 98 m 3 X s 2137 95 m 6 Y s 2134 98 m 6 Y s 2131 104
 m 6 X s 2134 98 m -5 Y s 2131 93 m 6 X s 2139 94 m -2 X s 2137 91 m 6 Y s 2139 94 m 3 X s 2142 91 m 6 Y s 2139 94 m 5 Y s 2136 99 m 6 X s 2139 94 m -4 Y s 2136 90 m 6 X s 2145 87 m -3 X s 2142 84 m 7 Y s 2145 87 m 2 X s 2147 84 m 7 Y s 2145 87 m 5 Y
 s 2142 92 m 6 X s 2145 87 m -3 Y s 2142 84 m 6 X s 2150 86 m -3 X s 2147 83 m 6 Y s 2150 86 m 3 X s 2153 83 m 6 Y s 2150 86 m 5 Y s 2147 91 m 6 X s 2150 86 m -3 Y s 2147 83 m 6 X s 2155 85 m -2 X s 2153 82 m 6 Y s 2155 85 m 3 X s 2158 82 m 6 Y s
 2155 85 m 5 Y s 2152 90 m 6 X s 2155 85 m -3 Y s 2152 82 m 6 X s 2161 78 m -3 X s 2158 77 m 4 Y s 2161 78 m 2 X s 2163 77 m 4 Y s 2161 78 m 2 Y s 2158 80 m 6 X s 2161 78 m -1 Y s 2158 77 m 6 X s 2166 77 m -3 X s 2163 77 m 3 Y s 2166 77 m 3 X s 2169
 77 m 3 Y s 2166 77 m 1 Y s 2163 78 m 6 X s 2171 78 m -2 X s 2169 77 m 4 Y s 2171 78 m 3 X s 2174 77 m 4 Y s 2171 78 m 2 Y s 2168 80 m 6 X s 2171 78 m -1 Y s 2168 77 m 6 X s /w 13 def /w2 {w 2 div} def /w3 {w 3 div} def 1644 80 1649 79 1654 79 1660
 84 1665 82 1670 79 1676 79 1681 82 1686 78 1692 86 1697 81 1702 80 1708 82 1713 81 1718 81 1724 80 1729 78 1734 82 1740 84 1745 80 1750 80 1756 84 1761 82 1766 79 1772 81 1777 82 1782 82 1788 82 1793 78 1798 82 1804 81 1809 83 1814 77 1820 81 1825
 78 1830 82 1836 82 1841 83 1846 82 1852 81 1857 82 1862 82 1868 84 1873 79 1878 82 1884 78 1889 79 1894 82 1900 80 1905 80 1910 78 1916 81 1921 86 1926 83 1932 81 1937 87 1942 90 1947 95 1953 103 1958 98 1963 114 1969 127 1974 126 1979 139 1985 183
 1990 191 1995 231 2001 268 2006 292 2011 340 2017 420 2022 486 2027 530 2033 514 2038 540 2043 586 2049 563 2054 551 2059 510 2065 515 2070 472 2075 416 2081 375 2086 337 2091 289 2097 244 2102 235 2107 180 2113 151 2118 132 2123 117 2129 114 2134
 98 2139 94 2145 87 2150 86 2155 85 2161 78 2166 77 2171 78 100 { m20} R 0 0 1 c 9 lw black 0 0 1 c 1641 81 m cl s 1641 81 m 251 X 5 1 d 27 X 5 1 d 5 1 d 6 2 d 5 2 d 5 4 d 5 5 d 6 7 d 5 9 d 5 13 d 3 8 d 3 9 d 2 10 d 3 12 d 3 12 d 2 14 d 3 15 d 3 16 d
 2 18 d 3 19 d 5 40 d 6 44 d 5 46 d 5 44 d 3 22 d 3 20 d 2 19 d 3 17 d 3 16 d 2 13 d 3 10 d 3 8 d 2 5 d 3 2 d 3 -1 d 2 -3 d 3 -7 d 3 -9 d 2 -12 d 3 -15 d 3 -16 d 2 -18 d 3 -20 d 3 -21 d 5 -45 d 5 -45 d 6 -45 d 5 -41 d 3 -20 d 2 -18 d 3 -17 d 3 -15 d
 2 -15 d 3 -13 d 3 -12 d 2 -11 d 3 -9 d 3 -9 d 5 -14 d 5 -10 d 6 -8 d 5 -5 d 5 -4 d 6 -3 d 5 -2 d 5 -2 d 6 -1 d 5 -1 d s black 3 lw 1641 77 m 533 X s 1641 93 m -16 Y s 1654 85 m -8 Y s 1668 85 m -8 Y s 1681 85 m -8 Y s 1694 85 m -8 Y s 1708 93 m -16
 Y s 1721 85 m -8 Y s 1734 85 m -8 Y s 1748 85 m -8 Y s 1761 85 m -8 Y s 1774 93 m -16 Y s 1788 85 m -8 Y s 1801 85 m -8 Y s 1814 85 m -8 Y s 1828 85 m -8 Y s 1841 93 m -16 Y s 1854 85 m -8 Y s 1868 85 m -8 Y s 1881 85 m -8 Y s 1894 85 m -8 Y s 1908
 93 m -16 Y s 1921 85 m -8 Y s 1934 85 m -8 Y s 1947 85 m -8 Y s 1961 85 m -8 Y s 1974 93 m -16 Y s 1987 85 m -8 Y s 2001 85 m -8 Y s 2014 85 m -8 Y s 2027 85 m -8 Y s 2041 93 m -16 Y s 2054 85 m -8 Y s 2067 85 m -8 Y s 2081 85 m -8 Y s 2094 85 m -8
 Y s 2107 93 m -16 Y s 2121 85 m -8 Y s 2134 85 m -8 Y s 2147 85 m -8 Y s 2161 85 m -8 Y s 2174 93 m -16 Y s 1641 77 m 559 Y s 1658 77 m -17 X s 1650 98 m -9 X s 1650 119 m -9 X s 1650 140 m -9 X s 1650 161 m -9 X s 1658 182 m -17 X s 1650 203 m -9 X
 s 1650 224 m -9 X s 1650 245 m -9 X s 1650 266 m -9 X s 1658 287 m -17 X s 1650 308 m -9 X s 1650 329 m -9 X s 1650 350 m -9 X s 1650 371 m -9 X s 1658 392 m -17 X s 1650 413 m -9 X s 1650 434 m -9 X s 1650 455 m -9 X s 1650 476 m -9 X s 1658 497 m
 -17 X s 1650 518 m -9 X s 1650 539 m -9 X s 1650 560 m -9 X s 1650 581 m -9 X s 1658 601 m -17 X s 1658 601 m -17 X s 1650 622 m -9 X s 1 1 1 c black
 gsave  711 699 1534 7 C 1728.79 670.626 t 0 r /Helvetica findfont 34.8619 sf 0 0 m (Signal + Background) show NC gr 
 gr  gr showpage
end
%%EOF
