%!PS-Adobe-2.0 EPSF-2.0
%%BoundingBox:  0 0 567 178
%%Title: ./plots/pAll_s1s2_s0.eps: rf101_basics
%%Creator: ROOT Version 6.11/01
%%CreationDate: Sat Sep 23 20:37:12 2017
%%DocumentNeededResources: ProcSet (FontSetInit)
%%EndComments
%%BeginProlog
80 dict begin
/s {stroke} def /l {lineto} def /m {moveto} def /t {translate} def
/r {rotate} def /rl {roll}  def /R {repeat} def
/d {rlineto} def /rm {rmoveto} def /gr {grestore} def /f {eofill} def
/c {setrgbcolor} def /black {0 setgray} def /sd {setdash} def
/cl {closepath} def /sf {scalefont setfont} def /lw {setlinewidth} def
/box {m dup 0 exch d exch 0 d 0 exch neg d cl} def
/NC{systemdict begin initclip end}def/C{NC box clip newpath}def
/bl {box s} def /bf {gsave box gsave f grestore 1 lw [] 0 sd s grestore} def /Y { 0 exch d} def /X { 0 d} def 
/K {{pop pop 0 moveto} exch kshow} bind def
/ita {/ang 15 def gsave [1 0 ang dup sin exch cos div 1 0 0] concat} def 
/mp {newpath /y exch def /x exch def} def
/side {[w .77 mul w .23 mul] .385 w mul sd w 0 l currentpoint t -144 r} def
/mr {mp x y w2 0 360 arc} def /m24 {mr s} def /m20 {mr f} def
/mb {mp x y w2 add m w2 neg 0 d 0 w neg d w 0 d 0 w d cl} def
/mt {mp x y w2 add m w2 neg w neg d w 0 d cl} def
/w4 {w 4 div} def
/w6 {w 6 div} def
/w8 {w 8 div} def
/m21 {mb f} def /m25 {mb s} def /m22 {mt f} def /m26{mt s} def
/m23 {mp x y w2 sub m w2 w d w neg 0 d cl f} def
/m27 {mp x y w2 add m w3 neg w2 neg d w3 w2 neg d w3 w2 d cl s} def
/m28 {mp x w2 sub y w2 sub w3 add m w3 0 d  0 w3 neg d w3 0 d 0 w3 d w3 0 d  0 w3 d w3 neg 0 d 0 w3 d w3 neg 0 d 0 w3 neg d w3 neg 0 d cl s } def
/m29 {mp gsave x w2 sub y w2 add w3 sub m currentpoint t 4 {side} repeat cl fill gr} def
/m30 {mp gsave x w2 sub y w2 add w3 sub m currentpoint t 4 {side} repeat cl s gr} def
/m31 {mp x y w2 sub m 0 w d x w2 sub y m w 0 d x w2 sub y w2 add m w w neg d x w2 sub y w2 sub m w w d s} def
/m32 {mp x y w2 sub m w2 w d w neg 0 d cl s} def
/m33 {mp x y w2 add m w3 neg w2 neg d w3 w2 neg d w3 w2 d cl f} def
/m34 {mp x w2 sub y w2 sub w3 add m w3 0 d  0 w3 neg d w3 0 d 0 w3 d w3 0 d  0 w3 d w3 neg 0 d 0 w3 d w3 neg 0 d 0 w3 neg d w3 neg 0 d cl f } def
/m35 {mp x y w2 add m w2 neg w2 neg d w2 w2 neg d w2 w2 d w2 neg w2 d x y w2 sub m 0 w d x w2 sub y m w 0 d s} def
/m36 {mb x w2 sub y w2 add m w w neg d x w2 sub y w2 sub m w w d s} def
/m37 {mp x y m w4 neg w2 d w4 neg w2 neg d w2 0 d  w4 neg w2 neg d w2 0 d w4 neg w2 d w2 0 d w4 neg w2 d w4 neg w2 neg d cl s} def
/m38 {mp x w4 sub y w2 add m w4 neg w4 neg d 0 w2 neg d w4 w4 neg d w2 0 d w4 w4 d 0 w2 d w4 neg w4 d w2 neg 0 d x y w2 sub m 0 w d x w2 sub y m w 0 d cl s} def
/m39 {mp x y m w4 neg w2 d w4 neg w2 neg d w2 0 d  w4 neg w2 neg d w2 0 d w4 neg w2 d w2 0 d w4 neg w2 d w4 neg w2 neg d cl f} def
/m40 {mp x y m w4 w2 d w4 w4 neg d w2 neg w4 neg d w2 w4 neg d w4 neg w4 neg d w4 neg w2 d w4 neg w2 neg d w4 neg w4 d w2 w4 d w2 neg w4 d w4 w4 d w4 w2 neg d cl s} def
/m41 {mp x y m w4 w2 d w4 w4 neg d w2 neg w4 neg d w2 w4 neg d w4 neg w4 neg d w4 neg w2 d w4 neg w2 neg d w4 neg w4 d w2 w4 d w2 neg w4 d w4 w4 d w4 w2 neg d cl f} def
/m42 {mp x y w2 add m w8 neg w2 -3 4 div mul d w2 -3 4 div mul w8 neg d w2 3 4 div mul w8 neg d w8 w2 -3 4 div mul d w8 w2 3 4 div mul d w2 3 4 div mul w8 d w2 -3 4 div mul w8 d w8 neg w2 3 4 div mul d cl s} def
/m43 {mp x y w2 add m w8 neg w2 -3 4 div mul d w2 -3 4 div mul w8 neg d w2 3 4 div mul w8 neg d w8 w2 -3 4 div mul d w8 w2 3 4 div mul d w2 3 4 div mul w8 d w2 -3 4 div mul w8 d w8 neg w2 3 4 div mul d cl f} def
/m44 {mp x y m w6 neg w2 d w2 2 3 div mul 0 d w6 neg w2 neg d w2 w6 d 0 w2 -2 3 div mul d w2 neg w6 d w6 w2 neg d w2 -2 3 div mul 0 d w6 w2 d w2 neg w6 neg d 0 w2 2 3 div mul d w2 w6 neg d cl s} def
/m45 {mp x y m w6 neg w2 d w2 2 3 div mul 0 d w6 neg w2 neg d w2 w6 d 0 w2 -2 3 div mul d w2 neg w6 d w6 w2 neg d w2 -2 3 div mul 0 d w6 w2 d w2 neg w6 neg d 0 w2 2 3 div mul d w2 w6 neg d cl f} def
/m46 {mp x y w4 add m w4 neg w4 d w4 neg w4 neg d  w4 w4 neg d w4 neg w4 neg d w4 w4 neg d w4 w4 d w4 w4 neg d w4 w4 d w4 neg w4 d w4 w4 d w4 neg w4 d w4 neg w4 neg d cl s} def
/m47 {mp x y w4 add m w4 neg w4 d w4 neg w4 neg d w4 w4 neg d w4 neg w4 neg d  w4 w4 neg d w4 w4 d w4 w4 neg d w4 w4 d w4 neg w4 d w4 w4 d w4 neg w4 d w4 neg w4 neg d cl f} def
/m48 {mp x y w4 add m w4 neg w4 d w4 neg w4 neg d w4 w4 neg d  w4 neg w4 neg d w4 w4 neg d w4 w4 d w4 w4 neg d w4 w4 d w4 neg w4 d w4 w4 d w4 neg w4 d w4 neg w4 neg d  w4 w4 neg d w4 neg w4 neg d w4 neg w4 d w4 w4 d cl f} def
/m49 {mp x w2 sub w3 add y w2 sub w3 add m  0 w3 neg d w3 0 d 0 w3 d w3 0 d 0 w3 d w3 neg 0 d 0 w3 d w3 neg 0 d 0 w3 neg d w3 neg 0 d 0 w3 neg d w3 0 d 0 w3 d w3 0 d 0 w3 neg d w3 neg 0 d cl f } def
/m2 {mp x y w2 sub m 0 w d x w2 sub y m w 0 d s} def
/m5 {mp x w2 sub y w2 sub m w w d x w2 sub y w2 add m w w neg d s} def
%%IncludeResource: ProcSet (FontSetInit)
%%IncludeResource: font Times-Roman
%%IncludeResource: font Times-Italic
%%IncludeResource: font Times-Bold
%%IncludeResource: font Times-BoldItalic
%%IncludeResource: font Helvetica
%%IncludeResource: font Helvetica-Oblique
%%IncludeResource: font Helvetica-Bold
%%IncludeResource: font Helvetica-BoldOblique
%%IncludeResource: font Courier
%%IncludeResource: font Courier-Oblique
%%IncludeResource: font Courier-Bold
%%IncludeResource: font Courier-BoldOblique
%%IncludeResource: font Symbol
%%IncludeResource: font ZapfDingbats
/reEncode {exch findfont dup length dict begin {1 index /FID eq  {pop pop} {def} ifelse } forall /Encoding exch def currentdict end dup /FontName get exch definefont pop } def [/Times-Bold /Times-Italic /Times-BoldItalic /Helvetica /Helvetica-Oblique
 /Helvetica-Bold /Helvetica-BoldOblique /Courier /Courier-Oblique /Courier-Bold /Courier-BoldOblique /Times-Roman /AvantGarde-Book /AvantGarde-BookOblique /AvantGarde-Demi /AvantGarde-DemiOblique /Bookman-Demi /Bookman-DemiItalic /Bookman-Light
 /Bookman-LightItalic /Helvetica-Narrow /Helvetica-Narrow-Bold /Helvetica-Narrow-BoldOblique /Helvetica-Narrow-Oblique /NewCenturySchlbk-Roman /NewCenturySchlbk-Bold /NewCenturySchlbk-BoldItalic /NewCenturySchlbk-Italic /Palatino-Bold
 /Palatino-BoldItalic /Palatino-Italic /Palatino-Roman ] {ISOLatin1Encoding reEncode } forall
%%EndProlog
%%BeginSetup
%%EndSetup
newpath  gsave  .25 .25 scale  gsave  0 0 t black[  ] 0 sd 3 lw 1 1 1 c 2268 713 0 0 bf black 1 1 1 c 710 699 23 7 bf black 1 1 1 c 533 559 129 77 bf black 533 559 129 77 bl 1 1 1 c 533 559 129 77 bf black 533 559 129 77 bl 129 77 m 533 X s 129 93 m
 -16 Y s 143 85 m -8 Y s 156 85 m -8 Y s 169 85 m -8 Y s 183 85 m -8 Y s 196 93 m -16 Y s 209 85 m -8 Y s 223 85 m -8 Y s 236 85 m -8 Y s 249 85 m -8 Y s 262 93 m -16 Y s 276 85 m -8 Y s 289 85 m -8 Y s 302 85 m -8 Y s 316 85 m -8 Y s 329 93 m -16 Y
 s 342 85 m -8 Y s 356 85 m -8 Y s 369 85 m -8 Y s 382 85 m -8 Y s 396 93 m -16 Y s 409 85 m -8 Y s 422 85 m -8 Y s 436 85 m -8 Y s 449 85 m -8 Y s 462 93 m -16 Y s 476 85 m -8 Y s 489 85 m -8 Y s 502 85 m -8 Y s 516 85 m -8 Y s 529 93 m -16 Y s 542
 85 m -8 Y s 556 85 m -8 Y s 569 85 m -8 Y s 582 85 m -8 Y s 596 93 m -16 Y s 609 85 m -8 Y s 622 85 m -8 Y s 636 85 m -8 Y s 649 85 m -8 Y s 662 93 m -16 Y s
 gsave  710 699 23 7 C 105.968 54.4979 t 0 r /Helvetica findfont 22.736 sf 0 0 m (5.25) show NC gr 
 gsave  710 699 23 7 C 166.521 54.4979 t 0 r /Helvetica findfont 22.736 sf 0 0 m (5.255) show NC gr 
 gsave  710 699 23 7 C 239.185 54.4979 t 0 r /Helvetica findfont 22.736 sf 0 0 m (5.26) show NC gr 
 gsave  710 699 23 7 C 299.738 54.4979 t 0 r /Helvetica findfont 22.736 sf 0 0 m (5.265) show NC gr 
 gsave  710 699 23 7 C 372.402 54.4979 t 0 r /Helvetica findfont 22.736 sf 0 0 m (5.27) show NC gr 
 gsave  710 699 23 7 C 432.955 54.4979 t 0 r /Helvetica findfont 22.736 sf 0 0 m (5.275) show NC gr 
 gsave  710 699 23 7 C 505.619 54.4979 t 0 r /Helvetica findfont 22.736 sf 0 0 m (5.28) show NC gr 
 gsave  710 699 23 7 C 566.172 54.4979 t 0 r /Helvetica findfont 22.736 sf 0 0 m (5.285) show NC gr 
 gsave  710 699 23 7 C 638.836 54.4979 t 0 r /Helvetica findfont 22.736 sf 0 0 m (5.29) show NC gr 
 gsave  710 699 23 7 C 605.532 31.7904 t 0 r /Helvetica findfont 22.736 sf 0 0 m (m_bc) show NC gr  129 77 m 559 Y s 146 77 m -17 X s 138 89 m -9 X s 138 100 m -9 X s 138 112 m -9 X s 138 123 m -9 X s 146 135 m -17 X s 138 146 m -9 X s 138 158 m -9 X
 s 138 170 m -9 X s 138 181 m -9 X s 146 193 m -17 X s 138 204 m -9 X s 138 216 m -9 X s 138 228 m -9 X s 138 239 m -9 X s 146 251 m -17 X s 138 262 m -9 X s 138 274 m -9 X s 138 285 m -9 X s 138 297 m -9 X s 146 309 m -17 X s 138 320 m -9 X s 138
 332 m -9 X s 138 343 m -9 X s 138 355 m -9 X s 146 367 m -17 X s 138 378 m -9 X s 138 390 m -9 X s 138 401 m -9 X s 138 413 m -9 X s 146 424 m -17 X s 138 436 m -9 X s 138 448 m -9 X s 138 459 m -9 X s 138 471 m -9 X s 146 482 m -17 X s 138 494 m -9
 X s 138 506 m -9 X s 138 517 m -9 X s 138 529 m -9 X s 146 540 m -17 X s 138 552 m -9 X s 138 563 m -9 X s 138 575 m -9 X s 138 587 m -9 X s 146 598 m -17 X s 146 598 m -17 X s 138 610 m -9 X s 138 621 m -9 X s 138 633 m -9 X s
 gsave  710 699 23 7 C 113.537 68.1223 t 0 r /Helvetica findfont 22.736 sf 0 0 m (0) show NC gr 
 gsave  710 699 23 7 C 87.8021 127.162 t 0 r /Helvetica findfont 22.736 sf 0 0 m (100) show NC gr 
 gsave  710 699 23 7 C 87.8021 184.687 t 0 r /Helvetica findfont 22.736 sf 0 0 m (200) show NC gr 
 gsave  710 699 23 7 C 87.8021 242.213 t 0 r /Helvetica findfont 22.736 sf 0 0 m (300) show NC gr 
 gsave  710 699 23 7 C 87.8021 299.738 t 0 r /Helvetica findfont 22.736 sf 0 0 m (400) show NC gr 
 gsave  710 699 23 7 C 87.8021 358.778 t 0 r /Helvetica findfont 22.736 sf 0 0 m (500) show NC gr 
 gsave  710 699 23 7 C 87.8021 416.303 t 0 r /Helvetica findfont 22.736 sf 0 0 m (600) show NC gr 
 gsave  710 699 23 7 C 87.8021 473.829 t 0 r /Helvetica findfont 22.736 sf 0 0 m (700) show NC gr 
 gsave  710 699 23 7 C 87.8021 531.354 t 0 r /Helvetica findfont 22.736 sf 0 0 m (800) show NC gr 
 gsave  710 699 23 7 C 87.8021 590.393 t 0 r /Helvetica findfont 22.736 sf 0 0 m (900) show NC gr 
 gsave  710 699 23 7 C 71.15 452.635 t 90 r /Helvetica findfont 22.736 sf 0 0 m (Events / \( 0.0004 \)) show NC gr  132 77 m -3 X s 129 77 m 3 Y s 132 77 m 3 X s 135 77 m 3 Y s 132 77 m 1 Y s 129 78 m 6 X s 137 77 m -2 X s 135 77 m 3 Y s 137 77 m 3 X
 s 140 77 m 3 Y s 137 77 m 1 Y s 134 78 m 6 X s 143 77 m -3 X s 140 77 m 3 Y s 143 77 m 2 X s 145 77 m 3 Y s 143 77 m 1 Y s 140 78 m 6 X s 148 77 m -3 X s 145 77 m 3 Y s 148 77 m 3 X s 151 77 m 3 Y s 148 77 m 1 Y s 145 78 m 6 X s 153 77 m -2 X s 151
 77 m 3 Y s 153 77 m 3 X s 156 77 m 3 Y s 153 77 m 1 Y s 150 78 m 6 X s 159 77 m -3 X s 156 77 m 3 Y s 159 77 m 2 X s 161 77 m 3 Y s 159 77 m 1 Y s 156 78 m 6 X s 164 77 m -3 X s 161 77 m 3 Y s 164 77 m 3 X s 167 77 m 3 Y s 164 77 m 1 Y s 161 78 m 6
 X s 169 77 m -2 X s 167 77 m 3 Y s 169 77 m 3 X s 172 77 m 3 Y s 169 77 m 1 Y s 166 78 m 6 X s 175 77 m -3 X s 172 77 m 3 Y s 175 77 m 2 X s 177 77 m 3 Y s 175 77 m 1 Y s 172 78 m 6 X s 180 77 m -3 X s 177 77 m 3 Y s 180 77 m 3 X s 183 77 m 3 Y s
 180 77 m 1 Y s 177 78 m 6 X s 185 77 m -2 X s 183 77 m 3 Y s 185 77 m 3 X s 188 77 m 3 Y s 185 77 m 1 Y s 182 78 m 6 X s 191 77 m -3 X s 188 77 m 3 Y s 191 77 m 2 X s 193 77 m 3 Y s 191 77 m 1 Y s 188 78 m 6 X s 196 77 m -3 X s 193 77 m 3 Y s 196 77
 m 3 X s 199 77 m 3 Y s 196 77 m 1 Y s 193 78 m 6 X s 201 77 m -2 X s 199 77 m 3 Y s 201 77 m 3 X s 204 77 m 3 Y s 201 77 m 1 Y s 198 78 m 6 X s 207 77 m -3 X s 204 77 m 3 Y s 207 77 m 2 X s 209 77 m 3 Y s 207 77 m 1 Y s 204 78 m 6 X s 212 77 m -3 X
 s 209 77 m 3 Y s 212 77 m 3 X s 215 77 m 3 Y s 212 77 m 1 Y s 209 78 m 6 X s 217 77 m -2 X s 215 77 m 3 Y s 217 77 m 3 X s 220 77 m 3 Y s 217 77 m 1 Y s 214 78 m 6 X s 223 77 m -3 X s 220 77 m 3 Y s 223 77 m 2 X s 225 77 m 3 Y s 223 77 m 1 Y s 219
 78 m 7 X s 228 77 m -3 X s 225 77 m 3 Y s 228 77 m 3 X s 231 77 m 3 Y s 228 77 m 1 Y s 225 78 m 6 X s 233 77 m -2 X s 231 77 m 3 Y s 233 77 m 3 X s 236 77 m 3 Y s 233 77 m 1 Y s 230 78 m 6 X s 239 77 m -3 X s 236 77 m 3 Y s 239 77 m 2 X s 241 77 m 3
 Y s 239 77 m 1 Y s 235 78 m 7 X s 244 77 m -3 X s 241 77 m 3 Y s 244 77 m 3 X s 247 77 m 3 Y s 244 77 m 1 Y s 241 78 m 6 X s 249 77 m -2 X s 247 77 m 3 Y s 249 77 m 3 X s 252 77 m 3 Y s 249 77 m 1 Y s 246 78 m 6 X s 254 77 m -2 X s 252 77 m 3 Y s
 254 77 m 3 X s 257 77 m 3 Y s 254 77 m 1 Y s 251 78 m 7 X s 260 77 m -3 X s 257 77 m 3 Y s 260 77 m 2 X s 262 77 m 3 Y s 260 77 m 1 Y s 257 78 m 6 X s 265 77 m -3 X s 262 77 m 3 Y s 265 77 m 3 X s 268 77 m 3 Y s 265 77 m 1 Y s 262 78 m 6 X s 270 77
 m -2 X s 268 77 m 3 Y s 270 77 m 3 X s 273 77 m 3 Y s 270 77 m 1 Y s 267 78 m 7 X s 276 77 m -3 X s 273 77 m 3 Y s 276 77 m 2 X s 278 77 m 3 Y s 276 77 m 1 Y s 273 78 m 6 X s 281 77 m -3 X s 278 77 m 3 Y s 281 77 m 3 X s 284 77 m 3 Y s 281 77 m 1 Y
 s 278 78 m 6 X s 286 77 m -2 X s 284 77 m 3 Y s 286 77 m 3 X s 289 77 m 3 Y s 286 77 m 1 Y s 283 78 m 6 X s 292 77 m -3 X s 289 77 m 3 Y s 292 77 m 2 X s 294 77 m 3 Y s 292 77 m 1 Y s 289 78 m 6 X s 297 77 m -3 X s 294 77 m 3 Y s 297 77 m 3 X s 300
 77 m 3 Y s 297 77 m 1 Y s 294 78 m 6 X s 302 77 m -2 X s 300 77 m 3 Y s 302 77 m 3 X s 305 77 m 3 Y s 302 77 m 1 Y s 299 78 m 6 X s 308 77 m -3 X s 305 77 m 3 Y s 308 77 m 2 X s 310 77 m 3 Y s 308 77 m 1 Y s 305 78 m 6 X s 313 77 m -3 X s 310 77 m 3
 Y s 313 77 m 3 X s 316 77 m 3 Y s 313 77 m 1 Y s 310 78 m 6 X s 318 77 m -2 X s 316 77 m 3 Y s 318 77 m 3 X s 321 77 m 3 Y s 318 77 m 1 Y s 315 78 m 6 X s 324 77 m -3 X s 321 77 m 3 Y s 324 77 m 2 X s 326 77 m 3 Y s 324 77 m 1 Y s 321 78 m 6 X s 329
 77 m -3 X s 326 77 m 3 Y s 329 77 m 3 X s 332 77 m 3 Y s 329 77 m 1 Y s 326 78 m 6 X s 334 77 m -2 X s 332 77 m 3 Y s 334 77 m 3 X s 337 77 m 3 Y s 334 77 m 1 Y s 331 78 m 6 X s 340 77 m -3 X s 337 77 m 3 Y s 340 77 m 2 X s 342 77 m 3 Y s 340 77 m 1
 Y s 337 78 m 6 X s 345 77 m -3 X s 342 77 m 3 Y s 345 77 m 3 X s 348 77 m 3 Y s 345 77 m 1 Y s 342 78 m 6 X s 350 77 m -2 X s 348 77 m 3 Y s 350 77 m 3 X s 353 77 m 3 Y s 350 77 m 1 Y s 347 78 m 6 X s 356 77 m -3 X s 353 77 m 3 Y s 356 77 m 2 X s
 358 77 m 3 Y s 356 77 m 1 Y s 353 78 m 6 X s 361 77 m -3 X s 358 77 m 3 Y s 361 77 m 3 X s 364 77 m 3 Y s 361 77 m 1 Y s 358 78 m 6 X s 366 77 m -2 X s 364 77 m 3 Y s 366 77 m 3 X s 369 77 m 3 Y s 366 77 m 1 Y s 363 78 m 6 X s 372 77 m -3 X s 369 77
 m 3 Y s 372 77 m 2 X s 374 77 m 3 Y s 372 77 m 1 Y s 369 78 m 6 X s 377 77 m -3 X s 374 77 m 3 Y s 377 77 m 3 X s 380 77 m 3 Y s 377 77 m 1 Y s 374 78 m 6 X s 382 77 m -2 X s 380 77 m 3 Y s 382 77 m 3 X s 385 77 m 3 Y s 382 77 m 1 Y s 379 78 m 6 X s
 388 77 m -3 X s 385 77 m 3 Y s 388 77 m 2 X s 390 77 m 3 Y s 388 77 m 1 Y s 385 78 m 6 X s 393 77 m -3 X s 390 77 m 3 Y s 393 77 m 3 X s 396 77 m 3 Y s 393 77 m 1 Y s 390 78 m 6 X s 398 77 m -2 X s 396 77 m 3 Y s 398 77 m 3 X s 401 77 m 3 Y s 398 77
 m 1 Y s 395 78 m 6 X s 404 77 m -3 X s 401 77 m 3 Y s 404 77 m 2 X s 406 77 m 3 Y s 404 77 m 1 Y s 401 78 m 6 X s 409 79 m -3 X s 406 77 m 5 Y s 409 79 m 3 X s 412 77 m 5 Y s 409 79 m 1 Y s 406 80 m 6 X s 409 79 m -1 Y s 406 78 m 6 X s 414 78 m -2 X
 s 412 77 m 4 Y s 414 78 m 3 X s 417 77 m 4 Y s 414 78 m 1 Y s 411 79 m 6 X s 414 78 m -1 Y s 411 77 m 6 X s 420 82 m -3 X s 417 79 m 6 Y s 420 82 m 2 X s 422 79 m 6 Y s 420 82 m 2 Y s 417 84 m 6 X s 420 82 m -2 Y s 417 80 m 6 X s 425 82 m -3 X s 422
 79 m 6 Y s 425 82 m 3 X s 428 79 m 6 Y s 425 82 m 3 Y s 422 85 m 6 X s 425 82 m -1 Y s 422 81 m 6 X s 430 84 m -2 X s 428 81 m 6 Y s 430 84 m 3 X s 433 81 m 6 Y s 430 84 m 3 Y s 427 87 m 6 X s 430 84 m -2 Y s 427 82 m 6 X s 436 87 m -3 X s 433 84 m
 6 Y s 436 87 m 2 X s 438 84 m 6 Y s 436 87 m 4 Y s 433 91 m 6 X s 436 87 m -2 Y s 433 85 m 6 X s 441 99 m -3 X s 438 96 m 6 Y s 441 99 m 3 X s 444 96 m 6 Y s 441 99 m 4 Y s 438 103 m 6 X s 441 99 m -4 Y s 438 95 m 6 X s 446 96 m -2 X s 444 93 m 6 Y
 s 446 96 m 3 X s 449 93 m 6 Y s 446 96 m 3 Y s 443 99 m 6 X s 446 96 m -4 Y s 443 92 m 6 X s 452 104 m -3 X s 449 101 m 6 Y s 452 104 m 2 X s 454 101 m 6 Y s 452 104 m 4 Y s 449 108 m 6 X s 452 104 m -4 Y s 449 100 m 6 X s 457 120 m -3 X s 454 117 m
 6 Y s 457 120 m 3 X s 460 117 m 6 Y s 457 120 m 5 Y s 454 125 m 6 X s 457 120 m -5 Y s 454 115 m 6 X s 462 127 m -2 X s 460 124 m 6 Y s 462 127 m 3 X s 465 124 m 6 Y s 462 127 m 6 Y s 459 133 m 6 X s 462 127 m -5 Y s 459 122 m 6 X s 468 146 m -3 X s
 465 143 m 6 Y s 468 146 m 2 X s 470 143 m 6 Y s 468 146 m 7 Y s 465 153 m 6 X s 468 146 m -6 Y s 465 140 m 6 X s 473 181 m -3 X s 470 178 m 6 Y s 473 181 m 3 X s 476 178 m 6 Y s 473 181 m 8 Y s 470 189 m 6 X s 473 181 m -8 Y s 470 173 m 6 X s 478
 199 m -2 X s 476 196 m 6 Y s 478 199 m 3 X s 481 196 m 6 Y s 478 199 m 8 Y s 475 207 m 6 X s 478 199 m -8 Y s 475 191 m 6 X s 484 236 m -3 X s 481 233 m 6 Y s 484 236 m 2 X s 486 233 m 6 Y s 484 236 m 10 Y s 481 246 m 6 X s 484 236 m -10 Y s 481 226
 m 6 X s 489 270 m -3 X s 486 267 m 6 Y s 489 270 m 3 X s 492 267 m 6 Y s 489 270 m 11 Y s 486 281 m 6 X s 489 270 m -10 Y s 486 260 m 6 X s 494 312 m -2 X s 492 309 m 6 Y s 494 312 m 3 X s 497 309 m 6 Y s 494 312 m 11 Y s 491 323 m 6 X s 494 312 m
 -12 Y s 491 300 m 6 X s 500 374 m -3 X s 497 370 m 7 Y s 500 374 m 2 X s 502 370 m 7 Y s 500 374 m 13 Y s 497 387 m 6 X s 500 374 m -13 Y s 497 361 m 6 X s 505 442 m -3 X s 502 439 m 6 Y s 505 442 m 3 X s 508 439 m 6 Y s 505 442 m 15 Y s 502 457 m 6
 X s 505 442 m -14 Y s 502 428 m 6 X s 510 481 m -2 X s 508 478 m 6 Y s 510 481 m 3 X s 513 478 m 6 Y s 510 481 m 15 Y s 507 496 m 6 X s 510 481 m -15 Y s 507 466 m 6 X s 516 536 m -3 X s 513 533 m 6 Y s 516 536 m 2 X s 518 533 m 6 Y s 516 536 m 17 Y
 s 513 553 m 6 X s 516 536 m -16 Y s 513 520 m 6 X s 521 547 m -3 X s 518 544 m 6 Y s 521 547 m 3 X s 524 544 m 6 Y s 521 547 m 16 Y s 518 563 m 6 X s 521 547 m -17 Y s 518 530 m 6 X s 526 567 m -2 X s 524 564 m 6 Y s 526 567 m 3 X s 529 564 m 6 Y s
 526 567 m 17 Y s 523 584 m 6 X s 526 567 m -17 Y s 523 550 m 6 X s 532 592 m -3 X s 529 589 m 6 Y s 532 592 m 2 X s 534 589 m 6 Y s 532 592 m 17 Y s 529 609 m 6 X s 532 592 m -17 Y s 529 575 m 6 X s 537 571 m -3 X s 534 568 m 6 Y s 537 571 m 3 X s
 540 568 m 6 Y s 537 571 m 17 Y s 534 588 m 6 X s 537 571 m -17 Y s 534 554 m 6 X s 542 550 m -2 X s 540 547 m 6 Y s 542 550 m 3 X s 545 547 m 6 Y s 542 550 m 16 Y s 539 566 m 6 X s 542 550 m -17 Y s 539 533 m 6 X s 548 530 m -3 X s 545 527 m 6 Y s
 548 530 m 2 X s 550 527 m 6 Y s 548 530 m 17 Y s 545 547 m 6 X s 548 530 m -15 Y s 545 515 m 6 X s 553 526 m -3 X s 550 523 m 6 Y s 553 526 m 3 X s 556 523 m 6 Y s 553 526 m 17 Y s 550 543 m 6 X s 553 526 m -15 Y s 550 511 m 6 X s 558 476 m -2 X s
 556 473 m 6 Y s 558 476 m 3 X s 561 473 m 6 Y s 558 476 m 16 Y s 555 492 m 6 X s 558 476 m -15 Y s 555 461 m 6 X s 564 427 m -3 X s 561 424 m 6 Y s 564 427 m 2 X s 566 424 m 6 Y s 564 427 m 14 Y s 561 441 m 6 X s 564 427 m -14 Y s 561 413 m 6 X s
 569 400 m -3 X s 566 397 m 6 Y s 569 400 m 3 X s 572 397 m 6 Y s 569 400 m 14 Y s 566 414 m 6 X s 569 400 m -13 Y s 566 387 m 6 X s 574 345 m -2 X s 572 342 m 6 Y s 574 345 m 3 X s 577 342 m 6 Y s 574 345 m 13 Y s 571 358 m 6 X s 574 345 m -12 Y s
 571 333 m 6 X s 580 299 m -3 X s 577 296 m 6 Y s 580 299 m 2 X s 582 296 m 6 Y s 580 299 m 11 Y s 577 310 m 6 X s 580 299 m -11 Y s 577 288 m 6 X s 585 243 m -3 X s 582 240 m 6 Y s 585 243 m 3 X s 588 240 m 6 Y s 585 243 m 10 Y s 582 253 m 6 X s 585
 243 m -10 Y s 582 233 m 6 X s 590 237 m -2 X s 588 234 m 6 Y s 590 237 m 3 X s 593 234 m 6 Y s 590 237 m 10 Y s 587 247 m 6 X s 590 237 m -9 Y s 587 228 m 6 X s 596 186 m -3 X s 593 183 m 6 Y s 596 186 m 2 X s 598 183 m 6 Y s 596 186 m 8 Y s 593 194
 m 6 X s 596 186 m -8 Y s 593 178 m 6 X s 601 154 m -3 X s 598 151 m 6 Y s 601 154 m 3 X s 604 151 m 6 Y s 601 154 m 7 Y s 598 161 m 6 X s 601 154 m -6 Y s 598 148 m 6 X s 606 128 m -2 X s 604 125 m 6 Y s 606 128 m 3 X s 609 125 m 6 Y s 606 128 m 6 Y
 s 603 134 m 6 X s 606 128 m -5 Y s 603 123 m 6 X s 612 115 m -3 X s 609 112 m 6 Y s 612 115 m 2 X s 614 112 m 6 Y s 612 115 m 6 Y s 609 121 m 6 X s 612 115 m -4 Y s 609 111 m 6 X s 617 107 m -3 X s 614 104 m 6 Y s 617 107 m 3 X s 620 104 m 6 Y s 617
 107 m 4 Y s 614 111 m 6 X s 617 107 m -5 Y s 614 102 m 6 X s 622 100 m -2 X s 620 97 m 6 Y s 622 100 m 3 X s 625 97 m 6 Y s 622 100 m 4 Y s 619 104 m 6 X s 622 100 m -3 Y s 619 97 m 6 X s 628 90 m -3 X s 625 87 m 6 Y s 628 90 m 2 X s 630 87 m 6 Y s
 628 90 m 3 Y s 625 93 m 6 X s 628 90 m -3 Y s 625 87 m 6 X s 633 86 m -3 X s 630 83 m 6 Y s 633 86 m 3 X s 636 83 m 6 Y s 633 86 m 3 Y s 630 89 m 6 X s 633 86 m -3 Y s 630 83 m 6 X s 638 83 m -2 X s 636 80 m 6 Y s 638 83 m 3 X s 641 80 m 6 Y s 638
 83 m 3 Y s 635 86 m 6 X s 638 83 m -2 Y s 635 81 m 6 X s 644 85 m -3 X s 641 82 m 6 Y s 644 85 m 2 X s 646 82 m 6 Y s 644 85 m 3 Y s 640 88 m 7 X s 644 85 m -2 Y s 640 83 m 7 X s 649 78 m -3 X s 646 77 m 4 Y s 649 78 m 3 X s 652 77 m 4 Y s 649 78 m
 2 Y s 646 80 m 6 X s 649 78 m -1 Y s 646 77 m 6 X s 654 77 m -2 X s 652 77 m 3 Y s 654 77 m 3 X s 657 77 m 3 Y s 654 77 m 1 Y s 651 78 m 6 X s 660 77 m -3 X s 657 77 m 3 Y s 660 77 m 2 X s 662 77 m 3 Y s 660 77 m 1 Y s 656 78 m 6 X s /w 12 def /w2
 {w 2 div} def /w3 {w 3 div} def 132 77 137 77 143 77 148 77 153 77 159 77 164 77 169 77 175 77 180 77 185 77 191 77 196 77 201 77 207 77 212 77 217 77 223 77 228 77 233 77 239 77 244 77 249 77 254 77 260 77 265 77 270 77 276 77 281 77 286 77 292 77
 297 77 302 77 308 77 313 77 318 77 324 77 329 77 334 77 340 77 345 77 350 77 356 77 361 77 366 77 372 77 377 77 382 77 388 77 393 77 398 77 404 77 409 79 414 78 420 82 425 82 430 84 436 87 441 99 446 96 452 104 457 120 462 127 468 146 473 181 478
 199 484 236 489 270 494 312 500 374 505 442 510 481 516 536 521 547 526 567 532 592 537 571 542 550 548 530 553 526 558 476 564 427 569 400 574 345 580 299 585 243 590 237 596 186 601 154 606 128 612 115 617 107 622 100 628 90 633 86 638 83 644 85
 649 78 654 77 660 77 100 { m20} R 0 0 1 c 9 lw black 0 0 1 c 129 77 m cl s 129 77 m 272 X 5 1 d 6 X 5 1 d 5 1 d 6 2 d 5 2 d 5 4 d 6 5 d 5 8 d 5 10 d 6 13 d 2 8 d 3 9 d 3 10 d 2 12 d 3 13 d 3 14 d 2 16 d 3 17 d 3 18 d 2 20 d 3 20 d 3 22 d 5 47 d 5 48
 d 6 47 d 2 23 d 3 22 d 3 21 d 2 18 d 3 17 d 3 14 d 2 11 d 3 9 d 3 5 d 2 2 d 3 X 3 -4 d 2 -8 d 3 -10 d 3 -13 d 2 -15 d 3 -18 d 3 -19 d 2 -22 d 3 -22 d 5 -47 d 6 -49 d 5 -46 d 5 -44 d 3 -20 d 3 -19 d 2 -18 d 3 -16 d 3 -15 d 2 -13 d 3 -12 d 3 -11 d 2
 -10 d 3 -9 d 5 -14 d 6 -10 d 5 -8 d 5 -6 d 6 -4 d 5 -3 d 5 -2 d 6 -1 d 5 -1 d 5 X s black 3 lw 129 77 m 533 X s 129 93 m -16 Y s 143 85 m -8 Y s 156 85 m -8 Y s 169 85 m -8 Y s 183 85 m -8 Y s 196 93 m -16 Y s 209 85 m -8 Y s 223 85 m -8 Y s 236 85
 m -8 Y s 249 85 m -8 Y s 262 93 m -16 Y s 276 85 m -8 Y s 289 85 m -8 Y s 302 85 m -8 Y s 316 85 m -8 Y s 329 93 m -16 Y s 342 85 m -8 Y s 356 85 m -8 Y s 369 85 m -8 Y s 382 85 m -8 Y s 396 93 m -16 Y s 409 85 m -8 Y s 422 85 m -8 Y s 436 85 m -8 Y
 s 449 85 m -8 Y s 462 93 m -16 Y s 476 85 m -8 Y s 489 85 m -8 Y s 502 85 m -8 Y s 516 85 m -8 Y s 529 93 m -16 Y s 542 85 m -8 Y s 556 85 m -8 Y s 569 85 m -8 Y s 582 85 m -8 Y s 596 93 m -16 Y s 609 85 m -8 Y s 622 85 m -8 Y s 636 85 m -8 Y s 649
 85 m -8 Y s 662 93 m -16 Y s 129 77 m 559 Y s 146 77 m -17 X s 138 89 m -9 X s 138 100 m -9 X s 138 112 m -9 X s 138 123 m -9 X s 146 135 m -17 X s 138 146 m -9 X s 138 158 m -9 X s 138 170 m -9 X s 138 181 m -9 X s 146 193 m -17 X s 138 204 m -9 X
 s 138 216 m -9 X s 138 228 m -9 X s 138 239 m -9 X s 146 251 m -17 X s 138 262 m -9 X s 138 274 m -9 X s 138 285 m -9 X s 138 297 m -9 X s 146 309 m -17 X s 138 320 m -9 X s 138 332 m -9 X s 138 343 m -9 X s 138 355 m -9 X s 146 367 m -17 X s 138
 378 m -9 X s 138 390 m -9 X s 138 401 m -9 X s 138 413 m -9 X s 146 424 m -17 X s 138 436 m -9 X s 138 448 m -9 X s 138 459 m -9 X s 138 471 m -9 X s 146 482 m -17 X s 138 494 m -9 X s 138 506 m -9 X s 138 517 m -9 X s 138 529 m -9 X s 146 540 m -17
 X s 138 552 m -9 X s 138 563 m -9 X s 138 575 m -9 X s 138 587 m -9 X s 146 598 m -17 X s 146 598 m -17 X s 138 610 m -9 X s 138 621 m -9 X s 138 633 m -9 X s 1 1 1 c black
 gsave  710 699 23 7 C 328.501 670.626 t 0 r /Helvetica findfont 34.8619 sf 0 0 m (Signal) show NC gr  1 1 1 c 710 699 779 7 bf black 1 1 1 c 533 559 885 77 bf black 533 559 885 77 bl 1 1 1 c 533 559 885 77 bf black 533 559 885 77 bl 885 77 m 533 X s
 885 93 m -16 Y s 898 85 m -8 Y s 912 85 m -8 Y s 925 85 m -8 Y s 938 85 m -8 Y s 952 93 m -16 Y s 965 85 m -8 Y s 978 85 m -8 Y s 992 85 m -8 Y s 1005 85 m -8 Y s 1018 93 m -16 Y s 1032 85 m -8 Y s 1045 85 m -8 Y s 1058 85 m -8 Y s 1072 85 m -8 Y s
 1085 93 m -16 Y s 1098 85 m -8 Y s 1112 85 m -8 Y s 1125 85 m -8 Y s 1138 85 m -8 Y s 1152 93 m -16 Y s 1165 85 m -8 Y s 1178 85 m -8 Y s 1192 85 m -8 Y s 1205 85 m -8 Y s 1218 93 m -16 Y s 1232 85 m -8 Y s 1245 85 m -8 Y s 1258 85 m -8 Y s 1272 85
 m -8 Y s 1285 93 m -16 Y s 1298 85 m -8 Y s 1311 85 m -8 Y s 1325 85 m -8 Y s 1338 85 m -8 Y s 1351 93 m -16 Y s 1365 85 m -8 Y s 1378 85 m -8 Y s 1391 85 m -8 Y s 1405 85 m -8 Y s 1418 93 m -16 Y s
 gsave  710 699 779 7 C 861.369 54.4979 t 0 r /Helvetica findfont 22.736 sf 0 0 m (5.25) show NC gr 
 gsave  710 699 779 7 C 921.922 54.4979 t 0 r /Helvetica findfont 22.736 sf 0 0 m (5.255) show NC gr 
 gsave  710 699 779 7 C 994.586 54.4979 t 0 r /Helvetica findfont 22.736 sf 0 0 m (5.26) show NC gr 
 gsave  710 699 779 7 C 1055.14 54.4979 t 0 r /Helvetica findfont 22.736 sf 0 0 m (5.265) show NC gr 
 gsave  710 699 779 7 C 1127.8 54.4979 t 0 r /Helvetica findfont 22.736 sf 0 0 m (5.27) show NC gr 
 gsave  710 699 779 7 C 1188.36 54.4979 t 0 r /Helvetica findfont 22.736 sf 0 0 m (5.275) show NC gr 
 gsave  710 699 779 7 C 1261.02 54.4979 t 0 r /Helvetica findfont 22.736 sf 0 0 m (5.28) show NC gr 
 gsave  710 699 779 7 C 1321.57 54.4979 t 0 r /Helvetica findfont 22.736 sf 0 0 m (5.285) show NC gr 
 gsave  710 699 779 7 C 1394.24 54.4979 t 0 r /Helvetica findfont 22.736 sf 0 0 m (5.29) show NC gr 
 gsave  710 699 779 7 C 1360.93 31.7904 t 0 r /Helvetica findfont 22.736 sf 0 0 m (m_bc) show NC gr  885 77 m 559 Y s 902 77 m -17 X s 894 91 m -9 X s 894 106 m -9 X s 894 120 m -9 X s 894 134 m -9 X s 902 149 m -17 X s 894 163 m -9 X s 894 178 m -9
 X s 894 192 m -9 X s 894 206 m -9 X s 902 221 m -17 X s 894 235 m -9 X s 894 249 m -9 X s 894 264 m -9 X s 894 278 m -9 X s 902 293 m -17 X s 894 307 m -9 X s 894 321 m -9 X s 894 336 m -9 X s 894 350 m -9 X s 902 364 m -17 X s 894 379 m -9 X s 894
 393 m -9 X s 894 407 m -9 X s 894 422 m -9 X s 902 436 m -17 X s 894 451 m -9 X s 894 465 m -9 X s 894 479 m -9 X s 894 494 m -9 X s 902 508 m -17 X s 894 522 m -9 X s 894 537 m -9 X s 894 551 m -9 X s 894 566 m -9 X s 902 580 m -17 X s 902 580 m
 -17 X s 894 594 m -9 X s 894 609 m -9 X s 894 623 m -9 X s
 gsave  710 699 779 7 C 868.938 68.1223 t 0 r /Helvetica findfont 22.736 sf 0 0 m (0) show NC gr 
 gsave  710 699 779 7 C 855.314 140.786 t 0 r /Helvetica findfont 22.736 sf 0 0 m (10) show NC gr 
 gsave  710 699 779 7 C 855.314 211.936 t 0 r /Helvetica findfont 22.736 sf 0 0 m (20) show NC gr 
 gsave  710 699 779 7 C 855.314 284.6 t 0 r /Helvetica findfont 22.736 sf 0 0 m (30) show NC gr 
 gsave  710 699 779 7 C 855.314 355.75 t 0 r /Helvetica findfont 22.736 sf 0 0 m (40) show NC gr 
 gsave  710 699 779 7 C 855.314 428.414 t 0 r /Helvetica findfont 22.736 sf 0 0 m (50) show NC gr 
 gsave  710 699 779 7 C 855.314 499.564 t 0 r /Helvetica findfont 22.736 sf 0 0 m (60) show NC gr 
 gsave  710 699 779 7 C 855.314 572.228 t 0 r /Helvetica findfont 22.736 sf 0 0 m (70) show NC gr 
 gsave  710 699 779 7 C 828.065 452.635 t 90 r /Helvetica findfont 22.736 sf 0 0 m (Events / \( 0.0004 \)) show NC gr  888 142 m -3 X s 885 139 m 6 Y s 888 142 m 2 X s 890 139 m 6 Y s 888 142 m 29 Y s 885 171 m 6 X s 888 142 m -21 Y s 885 121 m 6 X s
 893 106 m -3 X s 890 103 m 6 Y s 893 106 m 3 X s 896 103 m 6 Y s 893 106 m 22 Y s 890 128 m 6 X s 893 106 m -14 Y s 890 92 m 6 X s 898 127 m -2 X s 896 124 m 6 Y s 898 127 m 3 X s 901 124 m 6 Y s 898 127 m 27 Y s 895 154 m 7 X s 898 127 m -18 Y s
 895 109 m 7 X s 904 156 m -3 X s 901 153 m 6 Y s 904 156 m 2 X s 906 153 m 6 Y s 904 156 m 32 Y s 901 188 m 6 X s 904 156 m -23 Y s 901 133 m 6 X s 909 134 m -3 X s 906 131 m 7 Y s 909 134 m 3 X s 912 131 m 7 Y s 909 134 m 29 Y s 906 163 m 6 X s 909
 134 m -19 Y s 906 115 m 6 X s 914 99 m -2 X s 912 96 m 6 Y s 914 99 m 3 X s 917 96 m 6 Y s 914 99 m 21 Y s 911 120 m 7 X s 914 99 m -12 Y s 911 87 m 7 X s 920 91 m -3 X s 917 88 m 6 Y s 920 91 m 2 X s 922 88 m 6 Y s 920 91 m 19 Y s 917 110 m 6 X s
 920 91 m -9 Y s 917 82 m 6 X s 925 134 m -3 X s 922 131 m 7 Y s 925 134 m 3 X s 928 131 m 7 Y s 925 134 m 29 Y s 922 163 m 6 X s 925 134 m -19 Y s 922 115 m 6 X s 930 99 m -2 X s 928 96 m 6 Y s 930 99 m 3 X s 933 96 m 6 Y s 930 99 m 21 Y s 927 120 m
 6 X s 930 99 m -12 Y s 927 87 m 6 X s 936 163 m -3 X s 933 160 m 6 Y s 936 163 m 2 X s 938 160 m 6 Y s 936 163 m 33 Y s 933 196 m 6 X s 936 163 m -24 Y s 933 139 m 6 X s 941 134 m -3 X s 938 131 m 7 Y s 941 134 m 3 X s 944 131 m 7 Y s 941 134 m 29 Y
 s 938 163 m 6 X s 941 134 m -19 Y s 938 115 m 6 X s 946 156 m -2 X s 944 153 m 6 Y s 946 156 m 3 X s 949 153 m 6 Y s 946 156 m 32 Y s 943 188 m 6 X s 946 156 m -23 Y s 943 133 m 6 X s 952 134 m -3 X s 949 131 m 7 Y s 952 134 m 2 X s 954 131 m 7 Y s
 952 134 m 29 Y s 949 163 m 6 X s 952 134 m -19 Y s 949 115 m 6 X s 957 127 m -3 X s 954 124 m 6 Y s 957 127 m 3 X s 960 124 m 6 Y s 957 127 m 27 Y s 954 154 m 6 X s 957 127 m -18 Y s 954 109 m 6 X s 962 134 m -2 X s 960 131 m 7 Y s 962 134 m 3 X s
 965 131 m 7 Y s 962 134 m 29 Y s 959 163 m 6 X s 962 134 m -19 Y s 959 115 m 6 X s 968 113 m -3 X s 965 110 m 6 Y s 968 113 m 2 X s 970 110 m 6 Y s 968 113 m 24 Y s 965 137 m 6 X s 968 113 m -16 Y s 965 97 m 6 X s 973 106 m -3 X s 970 103 m 6 Y s
 973 106 m 3 X s 976 103 m 6 Y s 973 106 m 22 Y s 970 128 m 6 X s 973 106 m -14 Y s 970 92 m 6 X s 978 127 m -2 X s 976 124 m 6 Y s 978 127 m 3 X s 981 124 m 6 Y s 978 127 m 27 Y s 975 154 m 6 X s 978 127 m -18 Y s 975 109 m 6 X s 984 142 m -3 X s
 981 139 m 6 Y s 984 142 m 2 X s 986 139 m 6 Y s 984 142 m 29 Y s 981 171 m 6 X s 984 142 m -21 Y s 981 121 m 6 X s 989 127 m -3 X s 986 124 m 6 Y s 989 127 m 3 X s 992 124 m 6 Y s 989 127 m 27 Y s 986 154 m 6 X s 989 127 m -18 Y s 986 109 m 6 X s
 994 91 m -2 X s 992 88 m 6 Y s 994 91 m 3 X s 997 88 m 6 Y s 994 91 m 19 Y s 991 110 m 6 X s 994 91 m -9 Y s 991 82 m 6 X s 1000 163 m -3 X s 997 160 m 6 Y s 1000 163 m 2 X s 1002 160 m 6 Y s 1000 163 m 33 Y s 997 196 m 6 X s 1000 163 m -24 Y s 997
 139 m 6 X s 1005 134 m -3 X s 1002 131 m 7 Y s 1005 134 m 3 X s 1008 131 m 7 Y s 1005 134 m 29 Y s 1002 163 m 6 X s 1005 134 m -19 Y s 1002 115 m 6 X s 1010 113 m -2 X s 1008 110 m 6 Y s 1010 113 m 3 X s 1013 110 m 6 Y s 1010 113 m 24 Y s 1007 137 m
 6 X s 1010 113 m -16 Y s 1007 97 m 6 X s 1016 134 m -3 X s 1013 131 m 7 Y s 1016 134 m 2 X s 1018 131 m 7 Y s 1016 134 m 29 Y s 1013 163 m 6 X s 1016 134 m -19 Y s 1013 115 m 6 X s 1021 163 m -3 X s 1018 160 m 6 Y s 1021 163 m 3 X s 1024 160 m 6 Y s
 1021 163 m 33 Y s 1018 196 m 6 X s 1021 163 m -24 Y s 1018 139 m 6 X s 1026 142 m -2 X s 1024 139 m 6 Y s 1026 142 m 3 X s 1029 139 m 6 Y s 1026 142 m 29 Y s 1023 171 m 6 X s 1026 142 m -21 Y s 1023 121 m 6 X s 1032 127 m -3 X s 1029 124 m 6 Y s
 1032 127 m 2 X s 1034 124 m 6 Y s 1032 127 m 27 Y s 1029 154 m 6 X s 1032 127 m -18 Y s 1029 109 m 6 X s 1037 120 m -3 X s 1034 117 m 6 Y s 1037 120 m 3 X s 1040 117 m 6 Y s 1037 120 m 26 Y s 1034 146 m 6 X s 1037 120 m -17 Y s 1034 103 m 6 X s 1042
 163 m -2 X s 1040 160 m 6 Y s 1042 163 m 3 X s 1045 160 m 6 Y s 1042 163 m 33 Y s 1039 196 m 6 X s 1042 163 m -24 Y s 1039 139 m 6 X s 1048 113 m -3 X s 1045 110 m 6 Y s 1048 113 m 2 X s 1050 110 m 6 Y s 1048 113 m 24 Y s 1045 137 m 6 X s 1048 113 m
 -16 Y s 1045 97 m 6 X s 1053 149 m -3 X s 1050 146 m 6 Y s 1053 149 m 3 X s 1056 146 m 6 Y s 1053 149 m 31 Y s 1050 180 m 6 X s 1053 149 m -22 Y s 1050 127 m 6 X s 1058 106 m -2 X s 1056 103 m 6 Y s 1058 106 m 3 X s 1061 103 m 6 Y s 1058 106 m 22 Y
 s 1055 128 m 6 X s 1058 106 m -14 Y s 1055 92 m 6 X s 1064 134 m -3 X s 1061 131 m 7 Y s 1064 134 m 2 X s 1066 131 m 7 Y s 1064 134 m 29 Y s 1061 163 m 6 X s 1064 134 m -19 Y s 1061 115 m 6 X s 1069 106 m -3 X s 1066 103 m 6 Y s 1069 106 m 3 X s
 1072 103 m 6 Y s 1069 106 m 22 Y s 1066 128 m 6 X s 1069 106 m -14 Y s 1066 92 m 6 X s 1074 120 m -2 X s 1072 117 m 6 Y s 1074 120 m 3 X s 1077 117 m 6 Y s 1074 120 m 26 Y s 1071 146 m 6 X s 1074 120 m -17 Y s 1071 103 m 6 X s 1080 127 m -3 X s 1077
 124 m 6 Y s 1080 127 m 2 X s 1082 124 m 6 Y s 1080 127 m 27 Y s 1077 154 m 6 X s 1080 127 m -18 Y s 1077 109 m 6 X s 1085 120 m -3 X s 1082 117 m 6 Y s 1085 120 m 3 X s 1088 117 m 6 Y s 1085 120 m 26 Y s 1082 146 m 6 X s 1085 120 m -17 Y s 1082 103
 m 6 X s 1090 113 m -2 X s 1088 110 m 6 Y s 1090 113 m 3 X s 1093 110 m 6 Y s 1090 113 m 24 Y s 1087 137 m 6 X s 1090 113 m -16 Y s 1087 97 m 6 X s 1096 127 m -3 X s 1093 124 m 6 Y s 1096 127 m 2 X s 1098 124 m 6 Y s 1096 127 m 27 Y s 1093 154 m 6 X
 s 1096 127 m -18 Y s 1093 109 m 6 X s 1101 142 m -3 X s 1098 139 m 6 Y s 1101 142 m 3 X s 1104 139 m 6 Y s 1101 142 m 29 Y s 1098 171 m 6 X s 1101 142 m -21 Y s 1098 121 m 6 X s 1106 127 m -2 X s 1104 124 m 6 Y s 1106 127 m 3 X s 1109 124 m 6 Y s
 1106 127 m 27 Y s 1103 154 m 6 X s 1106 127 m -18 Y s 1103 109 m 6 X s 1112 156 m -3 X s 1109 153 m 6 Y s 1112 156 m 2 X s 1114 153 m 6 Y s 1112 156 m 32 Y s 1109 188 m 6 X s 1112 156 m -23 Y s 1109 133 m 6 X s 1117 134 m -3 X s 1114 131 m 7 Y s
 1117 134 m 3 X s 1120 131 m 7 Y s 1117 134 m 29 Y s 1114 163 m 6 X s 1117 134 m -19 Y s 1114 115 m 6 X s 1122 142 m -2 X s 1120 139 m 6 Y s 1122 142 m 3 X s 1125 139 m 6 Y s 1122 142 m 29 Y s 1119 171 m 6 X s 1122 142 m -21 Y s 1119 121 m 6 X s 1128
 106 m -3 X s 1125 103 m 6 Y s 1128 106 m 2 X s 1130 103 m 6 Y s 1128 106 m 22 Y s 1125 128 m 6 X s 1128 106 m -14 Y s 1125 92 m 6 X s 1133 113 m -3 X s 1130 110 m 6 Y s 1133 113 m 3 X s 1136 110 m 6 Y s 1133 113 m 24 Y s 1130 137 m 6 X s 1133 113 m
 -16 Y s 1130 97 m 6 X s 1138 149 m -2 X s 1136 146 m 6 Y s 1138 149 m 3 X s 1141 146 m 6 Y s 1138 149 m 31 Y s 1135 180 m 6 X s 1138 149 m -22 Y s 1135 127 m 6 X s 1144 106 m -3 X s 1141 103 m 6 Y s 1144 106 m 2 X s 1146 103 m 6 Y s 1144 106 m 22 Y
 s 1141 128 m 6 X s 1144 106 m -14 Y s 1141 92 m 6 X s 1149 142 m -3 X s 1146 139 m 6 Y s 1149 142 m 3 X s 1152 139 m 6 Y s 1149 142 m 29 Y s 1146 171 m 6 X s 1149 142 m -21 Y s 1146 121 m 6 X s 1154 113 m -2 X s 1152 110 m 6 Y s 1154 113 m 3 X s
 1157 110 m 6 Y s 1154 113 m 24 Y s 1151 137 m 6 X s 1154 113 m -16 Y s 1151 97 m 6 X s 1160 134 m -3 X s 1157 131 m 7 Y s 1160 134 m 2 X s 1162 131 m 7 Y s 1160 134 m 29 Y s 1157 163 m 6 X s 1160 134 m -19 Y s 1157 115 m 6 X s 1165 163 m -3 X s 1162
 160 m 6 Y s 1165 163 m 3 X s 1168 160 m 6 Y s 1165 163 m 33 Y s 1162 196 m 6 X s 1165 163 m -24 Y s 1162 139 m 6 X s 1170 149 m -2 X s 1168 146 m 6 Y s 1170 149 m 3 X s 1173 146 m 6 Y s 1170 149 m 31 Y s 1167 180 m 6 X s 1170 149 m -22 Y s 1167 127
 m 6 X s 1176 113 m -3 X s 1173 110 m 6 Y s 1176 113 m 2 X s 1178 110 m 6 Y s 1176 113 m 24 Y s 1173 137 m 6 X s 1176 113 m -16 Y s 1173 97 m 6 X s 1181 149 m -3 X s 1178 146 m 6 Y s 1181 149 m 3 X s 1184 146 m 6 Y s 1181 149 m 31 Y s 1178 180 m 6 X
 s 1181 149 m -22 Y s 1178 127 m 6 X s 1186 149 m -2 X s 1184 146 m 6 Y s 1186 149 m 3 X s 1189 146 m 6 Y s 1186 149 m 31 Y s 1183 180 m 6 X s 1186 149 m -22 Y s 1183 127 m 6 X s 1192 163 m -3 X s 1189 160 m 6 Y s 1192 163 m 2 X s 1194 160 m 6 Y s
 1192 163 m 33 Y s 1189 196 m 6 X s 1192 163 m -24 Y s 1189 139 m 6 X s 1197 142 m -3 X s 1194 139 m 6 Y s 1197 142 m 3 X s 1200 139 m 6 Y s 1197 142 m 29 Y s 1194 171 m 6 X s 1197 142 m -21 Y s 1194 121 m 6 X s 1202 178 m -2 X s 1200 175 m 6 Y s
 1202 178 m 3 X s 1205 175 m 6 Y s 1202 178 m 34 Y s 1199 212 m 6 X s 1202 178 m -27 Y s 1199 151 m 6 X s 1208 199 m -3 X s 1205 196 m 6 Y s 1208 199 m 2 X s 1210 196 m 6 Y s 1208 199 m 38 Y s 1205 237 m 6 X s 1208 199 m -29 Y s 1205 170 m 6 X s 1213
 156 m -3 X s 1210 153 m 6 Y s 1213 156 m 3 X s 1216 153 m 6 Y s 1213 156 m 32 Y s 1210 188 m 6 X s 1213 156 m -23 Y s 1210 133 m 6 X s 1218 192 m -2 X s 1216 189 m 6 Y s 1218 192 m 3 X s 1221 189 m 6 Y s 1218 192 m 36 Y s 1215 228 m 6 X s 1218 192 m
 -28 Y s 1215 164 m 6 X s 1224 156 m -3 X s 1221 153 m 6 Y s 1224 156 m 2 X s 1226 153 m 6 Y s 1224 156 m 32 Y s 1221 188 m 6 X s 1224 156 m -23 Y s 1221 133 m 6 X s 1229 228 m -3 X s 1226 225 m 6 Y s 1229 228 m 3 X s 1232 225 m 6 Y s 1229 228 m 41 Y
 s 1226 269 m 6 X s 1229 228 m -33 Y s 1226 195 m 6 X s 1234 293 m -2 X s 1232 290 m 6 Y s 1234 293 m 3 X s 1237 290 m 6 Y s 1234 293 m 47 Y s 1231 340 m 6 X s 1234 293 m -40 Y s 1231 253 m 6 X s 1240 278 m -3 X s 1237 275 m 6 Y s 1240 278 m 2 X s
 1242 275 m 6 Y s 1240 278 m 46 Y s 1237 324 m 6 X s 1240 278 m -38 Y s 1237 240 m 6 X s 1245 300 m -3 X s 1242 297 m 6 Y s 1245 300 m 3 X s 1248 297 m 6 Y s 1245 300 m 47 Y s 1242 347 m 6 X s 1245 300 m -40 Y s 1242 260 m 6 X s 1250 336 m -2 X s
 1248 333 m 6 Y s 1250 336 m 3 X s 1253 333 m 6 Y s 1250 336 m 50 Y s 1247 386 m 6 X s 1250 336 m -43 Y s 1247 293 m 6 X s 1256 278 m -3 X s 1253 275 m 6 Y s 1256 278 m 2 X s 1258 275 m 6 Y s 1256 278 m 46 Y s 1253 324 m 6 X s 1256 278 m -38 Y s 1253
 240 m 6 X s 1261 314 m -3 X s 1258 311 m 6 Y s 1261 314 m 3 X s 1264 311 m 6 Y s 1261 314 m 49 Y s 1258 363 m 6 X s 1261 314 m -41 Y s 1258 273 m 6 X s 1266 472 m -2 X s 1264 469 m 6 Y s 1266 472 m 3 X s 1269 469 m 6 Y s 1266 472 m 61 Y s 1263 533 m
 6 X s 1266 472 m -53 Y s 1263 419 m 6 X s 1272 429 m -3 X s 1269 426 m 6 Y s 1272 429 m 2 X s 1274 426 m 6 Y s 1272 429 m 58 Y s 1268 487 m 7 X s 1272 429 m -50 Y s 1268 379 m 7 X s 1277 465 m -3 X s 1274 462 m 6 Y s 1277 465 m 3 X s 1280 462 m 6 Y
 s 1277 465 m 60 Y s 1274 525 m 6 X s 1277 465 m -53 Y s 1274 412 m 6 X s 1282 494 m -2 X s 1280 491 m 6 Y s 1282 494 m 3 X s 1285 491 m 6 Y s 1282 494 m 62 Y s 1279 556 m 6 X s 1282 494 m -55 Y s 1279 439 m 6 X s 1288 451 m -3 X s 1285 448 m 6 Y s
 1288 451 m 2 X s 1290 448 m 6 Y s 1288 451 m 59 Y s 1284 510 m 7 X s 1288 451 m -52 Y s 1284 399 m 7 X s 1293 494 m -3 X s 1290 491 m 6 Y s 1293 494 m 3 X s 1296 491 m 6 Y s 1293 494 m 62 Y s 1290 556 m 6 X s 1293 494 m -55 Y s 1290 439 m 6 X s 1298
 479 m -2 X s 1296 476 m 6 Y s 1298 479 m 3 X s 1301 476 m 6 Y s 1298 479 m 62 Y s 1295 541 m 6 X s 1298 479 m -53 Y s 1295 426 m 6 X s 1304 508 m -3 X s 1301 505 m 6 Y s 1304 508 m 2 X s 1306 505 m 6 Y s 1304 508 m 63 Y s 1300 571 m 7 X s 1304 508 m
 -55 Y s 1300 453 m 7 X s 1309 544 m -3 X s 1306 541 m 6 Y s 1309 544 m 2 X s 1311 541 m 6 Y s 1309 544 m 65 Y s 1306 609 m 6 X s 1309 544 m -58 Y s 1306 486 m 6 X s 1314 465 m -3 X s 1311 462 m 6 Y s 1314 465 m 3 X s 1317 462 m 6 Y s 1314 465 m 60 Y
 s 1311 525 m 6 X s 1314 465 m -53 Y s 1311 412 m 6 X s 1319 422 m -2 X s 1317 419 m 6 Y s 1319 422 m 3 X s 1322 419 m 6 Y s 1319 422 m 57 Y s 1316 479 m 7 X s 1319 422 m -50 Y s 1316 372 m 7 X s 1325 328 m -3 X s 1322 325 m 6 Y s 1325 328 m 2 X s
 1327 325 m 6 Y s 1325 328 m 51 Y s 1322 379 m 6 X s 1325 328 m -42 Y s 1322 286 m 6 X s 1330 372 m -3 X s 1327 369 m 6 Y s 1330 372 m 3 X s 1333 369 m 6 Y s 1330 372 m 53 Y s 1327 425 m 6 X s 1330 372 m -46 Y s 1327 326 m 6 X s 1335 228 m -2 X s
 1333 225 m 6 Y s 1335 228 m 3 X s 1338 225 m 6 Y s 1335 228 m 41 Y s 1332 269 m 7 X s 1335 228 m -33 Y s 1332 195 m 7 X s 1341 199 m -3 X s 1338 196 m 6 Y s 1341 199 m 2 X s 1343 196 m 6 Y s 1341 199 m 38 Y s 1338 237 m 6 X s 1341 199 m -29 Y s 1338
 170 m 6 X s 1346 278 m -3 X s 1343 275 m 6 Y s 1346 278 m 3 X s 1349 275 m 6 Y s 1346 278 m 46 Y s 1343 324 m 6 X s 1346 278 m -38 Y s 1343 240 m 6 X s 1351 214 m -2 X s 1349 210 m 7 Y s 1351 214 m 3 X s 1354 210 m 7 Y s 1351 214 m 39 Y s 1348 253 m
 6 X s 1351 214 m -32 Y s 1348 182 m 6 X s 1357 206 m -3 X s 1354 203 m 6 Y s 1357 206 m 2 X s 1359 203 m 6 Y s 1357 206 m 39 Y s 1354 245 m 6 X s 1357 206 m -30 Y s 1354 176 m 6 X s 1362 192 m -3 X s 1359 189 m 6 Y s 1362 192 m 3 X s 1365 189 m 6 Y
 s 1362 192 m 36 Y s 1359 228 m 6 X s 1362 192 m -28 Y s 1359 164 m 6 X s 1367 156 m -2 X s 1365 153 m 6 Y s 1367 156 m 3 X s 1370 153 m 6 Y s 1367 156 m 32 Y s 1364 188 m 6 X s 1367 156 m -23 Y s 1364 133 m 6 X s 1373 127 m -3 X s 1370 124 m 6 Y s
 1373 127 m 2 X s 1375 124 m 6 Y s 1373 127 m 27 Y s 1370 154 m 6 X s 1373 127 m -18 Y s 1370 109 m 6 X s 1378 127 m -3 X s 1375 124 m 6 Y s 1378 127 m 3 X s 1381 124 m 6 Y s 1378 127 m 27 Y s 1375 154 m 6 X s 1378 127 m -18 Y s 1375 109 m 6 X s 1383
 134 m -2 X s 1381 131 m 7 Y s 1383 134 m 3 X s 1386 131 m 7 Y s 1383 134 m 29 Y s 1380 163 m 6 X s 1383 134 m -19 Y s 1380 115 m 6 X s 1389 99 m -3 X s 1386 96 m 6 Y s 1389 99 m 2 X s 1391 96 m 6 Y s 1389 99 m 21 Y s 1386 120 m 6 X s 1389 99 m -12 Y
 s 1386 87 m 6 X s 1394 91 m -3 X s 1391 88 m 6 Y s 1394 91 m 3 X s 1397 88 m 6 Y s 1394 91 m 19 Y s 1391 110 m 6 X s 1394 91 m -9 Y s 1391 82 m 6 X s 1399 106 m -2 X s 1397 103 m 6 Y s 1399 106 m 3 X s 1402 103 m 6 Y s 1399 106 m 22 Y s 1396 128 m 6
 X s 1399 106 m -14 Y s 1396 92 m 6 X s 1405 91 m -3 X s 1402 88 m 6 Y s 1405 91 m 2 X s 1407 88 m 6 Y s 1405 91 m 19 Y s 1402 110 m 6 X s 1405 91 m -9 Y s 1402 82 m 6 X s 1410 77 m -3 X s 1407 77 m 3 Y s 1410 77 m 3 X s 1413 77 m 3 Y s 1410 77 m 8 Y
 s 1407 85 m 6 X s 1415 99 m -2 X s 1413 96 m 6 Y s 1415 99 m 3 X s 1418 96 m 6 Y s 1415 99 m 21 Y s 1412 120 m 6 X s 1415 99 m -12 Y s 1412 87 m 6 X s 888 142 893 106 898 127 904 156 909 134 914 99 920 91 925 134 930 99 936 163 941 134 946 156 952
 134 957 127 962 134 968 113 973 106 978 127 984 142 989 127 994 91 1000 163 1005 134 1010 113 1016 134 1021 163 1026 142 1032 127 1037 120 1042 163 1048 113 1053 149 1058 106 1064 134 1069 106 1074 120 1080 127 1085 120 1090 113 1096 127 1101 142
 1106 127 1112 156 1117 134 1122 142 1128 106 1133 113 1138 149 1144 106 1149 142 1154 113 1160 134 1165 163 1170 149 1176 113 1181 149 1186 149 1192 163 1197 142 1202 178 1208 199 1213 156 1218 192 1224 156 1229 228 1234 293 1240 278 1245 300 1250
 336 1256 278 1261 314 1266 472 1272 429 1277 465 1282 494 1288 451 1293 494 1298 479 1304 508 1309 544 1314 465 1319 422 1325 328 1330 372 1335 228 1341 199 1346 278 1351 214 1357 206 1362 192 1367 156 1373 127 1378 127 1383 134 1389 99 1394 91 1399
 106 1405 91 1410 77 1415 99 100 { m20} R 0 0 1 c 9 lw black 0 0 1 c 885 127 m cl s 885 127 m 11 X 5 1 d 32 X 5 1 d 38 X 5 1 d 69 X 6 1 d 69 X 5 -1 d 16 X 6 1 d 10 X 6 1 d 5 X 5 2 d 6 2 d 5 3 d 5 4 d 6 6 d 5 7 d 5 10 d 6 13 d 5 15 d 5 19 d 6 22 d 5
 25 d 5 28 d 6 29 d 5 31 d 5 31 d 6 30 d 2 14 d 3 13 d 3 12 d 2 11 d 3 9 d 3 8 d 2 6 d 3 5 d 3 3 d 2 1 d 3 -1 d 3 -3 d 2 -4 d 3 -6 d 3 -8 d 2 -9 d 3 -11 d 2 -12 d 3 -13 d 3 -15 d 5 -30 d 5 -32 d 6 -32 d 5 -32 d 5 -29 d 6 -27 d 5 -24 d 5 -21 d 6 -18 d
 5 -15 d 5 -12 d 6 -10 d 5 -9 d 5 -6 d 6 -6 d 5 -5 d 5 -5 d 6 -6 d 2 -3 d 2 -3 d -2 Y 1 -4 d s black 3 lw 885 77 m 533 X s 885 93 m -16 Y s 898 85 m -8 Y s 912 85 m -8 Y s 925 85 m -8 Y s 938 85 m -8 Y s 952 93 m -16 Y s 965 85 m -8 Y s 978 85 m -8 Y
 s 992 85 m -8 Y s 1005 85 m -8 Y s 1018 93 m -16 Y s 1032 85 m -8 Y s 1045 85 m -8 Y s 1058 85 m -8 Y s 1072 85 m -8 Y s 1085 93 m -16 Y s 1098 85 m -8 Y s 1112 85 m -8 Y s 1125 85 m -8 Y s 1138 85 m -8 Y s 1152 93 m -16 Y s 1165 85 m -8 Y s 1178 85
 m -8 Y s 1192 85 m -8 Y s 1205 85 m -8 Y s 1218 93 m -16 Y s 1232 85 m -8 Y s 1245 85 m -8 Y s 1258 85 m -8 Y s 1272 85 m -8 Y s 1285 93 m -16 Y s 1298 85 m -8 Y s 1311 85 m -8 Y s 1325 85 m -8 Y s 1338 85 m -8 Y s 1351 93 m -16 Y s 1365 85 m -8 Y s
 1378 85 m -8 Y s 1391 85 m -8 Y s 1405 85 m -8 Y s 1418 93 m -16 Y s 885 77 m 559 Y s 902 77 m -17 X s 894 91 m -9 X s 894 106 m -9 X s 894 120 m -9 X s 894 134 m -9 X s 902 149 m -17 X s 894 163 m -9 X s 894 178 m -9 X s 894 192 m -9 X s 894 206 m
 -9 X s 902 221 m -17 X s 894 235 m -9 X s 894 249 m -9 X s 894 264 m -9 X s 894 278 m -9 X s 902 293 m -17 X s 894 307 m -9 X s 894 321 m -9 X s 894 336 m -9 X s 894 350 m -9 X s 902 364 m -17 X s 894 379 m -9 X s 894 393 m -9 X s 894 407 m -9 X s
 894 422 m -9 X s 902 436 m -17 X s 894 451 m -9 X s 894 465 m -9 X s 894 479 m -9 X s 894 494 m -9 X s 902 508 m -17 X s 894 522 m -9 X s 894 537 m -9 X s 894 551 m -9 X s 894 566 m -9 X s 902 580 m -17 X s 902 580 m -17 X s 894 594 m -9 X s 894 609
 m -9 X s 894 623 m -9 X s 1 1 1 c black
 gsave  710 699 779 7 C 1041.51 672.14 t 0 r /Helvetica findfont 34.8619 sf 0 0 m (Background) show NC gr  1 1 1 c 711 699 1534 7 bf black 1 1 1 c 533 559 1641 77 bf black 533 559 1641 77 bl 1 1 1 c 533 559 1641 77 bf black 533 559 1641 77 bl 1641 77
 m 533 X s 1641 93 m -16 Y s 1654 85 m -8 Y s 1668 85 m -8 Y s 1681 85 m -8 Y s 1694 85 m -8 Y s 1708 93 m -16 Y s 1721 85 m -8 Y s 1734 85 m -8 Y s 1748 85 m -8 Y s 1761 85 m -8 Y s 1774 93 m -16 Y s 1788 85 m -8 Y s 1801 85 m -8 Y s 1814 85 m -8 Y
 s 1828 85 m -8 Y s 1841 93 m -16 Y s 1854 85 m -8 Y s 1868 85 m -8 Y s 1881 85 m -8 Y s 1894 85 m -8 Y s 1908 93 m -16 Y s 1921 85 m -8 Y s 1934 85 m -8 Y s 1947 85 m -8 Y s 1961 85 m -8 Y s 1974 93 m -16 Y s 1987 85 m -8 Y s 2001 85 m -8 Y s 2014
 85 m -8 Y s 2027 85 m -8 Y s 2041 93 m -16 Y s 2054 85 m -8 Y s 2067 85 m -8 Y s 2081 85 m -8 Y s 2094 85 m -8 Y s 2107 93 m -16 Y s 2121 85 m -8 Y s 2134 85 m -8 Y s 2147 85 m -8 Y s 2161 85 m -8 Y s 2174 93 m -16 Y s
 gsave  711 699 1534 7 C 1618.28 54.4979 t 0 r /Helvetica findfont 22.736 sf 0 0 m (5.25) show NC gr 
 gsave  711 699 1534 7 C 1678.84 54.4979 t 0 r /Helvetica findfont 22.736 sf 0 0 m (5.255) show NC gr 
 gsave  711 699 1534 7 C 1751.5 54.4979 t 0 r /Helvetica findfont 22.736 sf 0 0 m (5.26) show NC gr 
 gsave  711 699 1534 7 C 1812.05 54.4979 t 0 r /Helvetica findfont 22.736 sf 0 0 m (5.265) show NC gr 
 gsave  711 699 1534 7 C 1884.72 54.4979 t 0 r /Helvetica findfont 22.736 sf 0 0 m (5.27) show NC gr 
 gsave  711 699 1534 7 C 1945.27 54.4979 t 0 r /Helvetica findfont 22.736 sf 0 0 m (5.275) show NC gr 
 gsave  711 699 1534 7 C 2017.93 54.4979 t 0 r /Helvetica findfont 22.736 sf 0 0 m (5.28) show NC gr 
 gsave  711 699 1534 7 C 2078.49 54.4979 t 0 r /Helvetica findfont 22.736 sf 0 0 m (5.285) show NC gr 
 gsave  711 699 1534 7 C 2151.15 54.4979 t 0 r /Helvetica findfont 22.736 sf 0 0 m (5.29) show NC gr 
 gsave  711 699 1534 7 C 2117.85 31.7904 t 0 r /Helvetica findfont 22.736 sf 0 0 m (m_bc) show NC gr  1641 77 m 559 Y s 1658 77 m -17 X s 1650 98 m -9 X s 1650 119 m -9 X s 1650 140 m -9 X s 1650 160 m -9 X s 1658 181 m -17 X s 1650 202 m -9 X s 1650
 223 m -9 X s 1650 244 m -9 X s 1650 265 m -9 X s 1658 286 m -17 X s 1650 306 m -9 X s 1650 327 m -9 X s 1650 348 m -9 X s 1650 369 m -9 X s 1658 390 m -17 X s 1650 411 m -9 X s 1650 432 m -9 X s 1650 452 m -9 X s 1650 473 m -9 X s 1658 494 m -17 X s
 1650 515 m -9 X s 1650 536 m -9 X s 1650 557 m -9 X s 1650 577 m -9 X s 1658 598 m -17 X s 1658 598 m -17 X s 1650 619 m -9 X s
 gsave  711 699 1534 7 C 1624.34 68.1223 t 0 r /Helvetica findfont 22.736 sf 0 0 m (0) show NC gr 
 gsave  711 699 1534 7 C 1598.6 172.577 t 0 r /Helvetica findfont 22.736 sf 0 0 m (100) show NC gr 
 gsave  711 699 1534 7 C 1598.6 277.031 t 0 r /Helvetica findfont 22.736 sf 0 0 m (200) show NC gr 
 gsave  711 699 1534 7 C 1598.6 381.485 t 0 r /Helvetica findfont 22.736 sf 0 0 m (300) show NC gr 
 gsave  711 699 1534 7 C 1598.6 485.939 t 0 r /Helvetica findfont 22.736 sf 0 0 m (400) show NC gr 
 gsave  711 699 1534 7 C 1598.6 590.393 t 0 r /Helvetica findfont 22.736 sf 0 0 m (500) show NC gr 
 gsave  711 699 1534 7 C 1588.01 452.635 t 90 r /Helvetica findfont 22.736 sf 0 0 m (Events / \( 0.0004 \)) show NC gr  1644 78 m -3 X s 1641 77 m 4 Y s 1644 78 m 2 X s 1646 77 m 4 Y s 1644 78 m 2 Y s 1641 80 m 6 X s 1644 78 m -1 Y s 1641 77 m 6 X s
 1649 81 m -3 X s 1646 78 m 6 Y s 1649 81 m 3 X s 1652 78 m 6 Y s 1649 81 m 3 Y s 1646 84 m 6 X s 1649 81 m -2 Y s 1646 79 m 6 X s 1654 84 m -2 X s 1652 81 m 6 Y s 1654 84 m 3 X s 1657 81 m 6 Y s 1654 84 m 4 Y s 1651 88 m 6 X s 1654 84 m -2 Y s 1651
 82 m 6 X s 1660 78 m -3 X s 1657 77 m 4 Y s 1660 78 m 2 X s 1662 77 m 4 Y s 1660 78 m 2 Y s 1657 80 m 6 X s 1660 78 m -1 Y s 1657 77 m 6 X s 1665 83 m -3 X s 1662 80 m 6 Y s 1665 83 m 3 X s 1668 80 m 6 Y s 1665 83 m 4 Y s 1662 87 m 6 X s 1665 83 m
 -2 Y s 1662 81 m 6 X s 1670 80 m -2 X s 1668 77 m 6 Y s 1670 80 m 3 X s 1673 77 m 6 Y s 1670 80 m 3 Y s 1667 83 m 6 X s 1670 80 m -2 Y s 1667 78 m 6 X s 1676 80 m -3 X s 1673 77 m 6 Y s 1676 80 m 2 X s 1678 77 m 6 Y s 1676 80 m 3 Y s 1673 83 m 6 X s
 1676 80 m -2 Y s 1673 78 m 6 X s 1681 80 m -3 X s 1678 77 m 6 Y s 1681 80 m 3 X s 1684 77 m 6 Y s 1681 80 m 3 Y s 1678 83 m 6 X s 1681 80 m -2 Y s 1678 78 m 6 X s 1686 81 m -2 X s 1684 78 m 6 Y s 1686 81 m 3 X s 1689 78 m 6 Y s 1686 81 m 3 Y s 1683
 84 m 6 X s 1686 81 m -2 Y s 1683 79 m 6 X s 1692 80 m -3 X s 1689 77 m 6 Y s 1692 80 m 2 X s 1694 77 m 6 Y s 1692 80 m 3 Y s 1689 83 m 6 X s 1692 80 m -2 Y s 1689 78 m 6 X s 1697 78 m -3 X s 1694 77 m 4 Y s 1697 78 m 3 X s 1700 77 m 4 Y s 1697 78 m
 2 Y s 1694 80 m 6 X s 1697 78 m -1 Y s 1694 77 m 6 X s 1702 80 m -2 X s 1700 77 m 6 Y s 1702 80 m 3 X s 1705 77 m 6 Y s 1702 80 m 3 Y s 1699 83 m 6 X s 1702 80 m -2 Y s 1699 78 m 6 X s 1708 82 m -3 X s 1705 79 m 6 Y s 1708 82 m 2 X s 1710 79 m 6 Y s
 1708 82 m 4 Y s 1705 86 m 6 X s 1708 82 m -2 Y s 1705 80 m 6 X s 1713 80 m -3 X s 1710 77 m 6 Y s 1713 80 m 3 X s 1716 77 m 6 Y s 1713 80 m 3 Y s 1710 83 m 6 X s 1713 80 m -2 Y s 1710 78 m 6 X s 1718 79 m -2 X s 1716 77 m 5 Y s 1718 79 m 3 X s 1721
 77 m 5 Y s 1718 79 m 3 Y s 1715 82 m 6 X s 1718 79 m -1 Y s 1715 78 m 6 X s 1724 81 m -3 X s 1721 78 m 6 Y s 1724 81 m 2 X s 1726 78 m 6 Y s 1724 81 m 3 Y s 1721 84 m 6 X s 1724 81 m -2 Y s 1721 79 m 6 X s 1729 80 m -3 X s 1726 77 m 6 Y s 1729 80 m
 3 X s 1732 77 m 6 Y s 1729 80 m 3 Y s 1726 83 m 6 X s 1729 80 m -2 Y s 1726 78 m 6 X s 1734 79 m -2 X s 1732 77 m 5 Y s 1734 79 m 3 X s 1737 77 m 5 Y s 1734 79 m 3 Y s 1731 82 m 6 X s 1734 79 m -1 Y s 1731 78 m 6 X s 1740 79 m -3 X s 1737 77 m 5 Y s
 1740 79 m 2 X s 1742 77 m 5 Y s 1740 79 m 3 Y s 1737 82 m 6 X s 1740 79 m -1 Y s 1737 78 m 6 X s 1745 86 m -3 X s 1742 83 m 6 Y s 1745 86 m 3 X s 1748 83 m 6 Y s 1745 86 m 5 Y s 1742 91 m 6 X s 1745 86 m -3 Y s 1742 83 m 6 X s 1750 79 m -2 X s 1748
 77 m 5 Y s 1750 79 m 3 X s 1753 77 m 5 Y s 1750 79 m 3 Y s 1747 82 m 6 X s 1750 79 m -1 Y s 1747 78 m 6 X s 1756 81 m -3 X s 1753 78 m 6 Y s 1756 81 m 2 X s 1758 78 m 6 Y s 1756 81 m 3 Y s 1753 84 m 6 X s 1756 81 m -2 Y s 1753 79 m 6 X s 1761 83 m
 -3 X s 1758 80 m 6 Y s 1761 83 m 3 X s 1764 80 m 6 Y s 1761 83 m 4 Y s 1758 87 m 6 X s 1761 83 m -2 Y s 1758 81 m 6 X s 1766 80 m -2 X s 1764 77 m 6 Y s 1766 80 m 3 X s 1769 77 m 6 Y s 1766 80 m 3 Y s 1763 83 m 6 X s 1766 80 m -2 Y s 1763 78 m 6 X s
 1772 82 m -3 X s 1769 79 m 6 Y s 1772 82 m 2 X s 1774 79 m 6 Y s 1772 82 m 4 Y s 1769 86 m 6 X s 1772 82 m -2 Y s 1769 80 m 6 X s 1777 78 m -3 X s 1774 77 m 4 Y s 1777 78 m 3 X s 1780 77 m 4 Y s 1777 78 m 2 Y s 1774 80 m 6 X s 1777 78 m -1 Y s 1774
 77 m 6 X s 1782 79 m -2 X s 1780 77 m 5 Y s 1782 79 m 3 X s 1785 77 m 5 Y s 1782 79 m 3 Y s 1779 82 m 6 X s 1782 79 m -1 Y s 1779 78 m 6 X s 1788 80 m -3 X s 1785 77 m 6 Y s 1788 80 m 2 X s 1790 77 m 6 Y s 1788 80 m 3 Y s 1785 83 m 6 X s 1788 80 m
 -2 Y s 1785 78 m 6 X s 1793 80 m -3 X s 1790 77 m 6 Y s 1793 80 m 3 X s 1796 77 m 6 Y s 1793 80 m 3 Y s 1790 83 m 6 X s 1793 80 m -2 Y s 1790 78 m 6 X s 1798 77 m -2 X s 1796 77 m 3 Y s 1798 77 m 3 X s 1801 77 m 3 Y s 1798 77 m 1 Y s 1795 78 m 6 X s
 1804 80 m -3 X s 1801 77 m 6 Y s 1804 80 m 2 X s 1806 77 m 6 Y s 1804 80 m 3 Y s 1801 83 m 6 X s 1804 80 m -2 Y s 1801 78 m 6 X s 1809 80 m -3 X s 1806 77 m 6 Y s 1809 80 m 3 X s 1812 77 m 6 Y s 1809 80 m 3 Y s 1806 83 m 6 X s 1809 80 m -2 Y s 1806
 78 m 6 X s 1814 81 m -2 X s 1812 78 m 6 Y s 1814 81 m 3 X s 1817 78 m 6 Y s 1814 81 m 3 Y s 1811 84 m 6 X s 1814 81 m -2 Y s 1811 79 m 6 X s 1820 83 m -3 X s 1817 80 m 6 Y s 1820 83 m 2 X s 1822 80 m 6 Y s 1820 83 m 4 Y s 1817 87 m 6 X s 1820 83 m
 -2 Y s 1817 81 m 6 X s 1825 78 m -3 X s 1822 77 m 4 Y s 1825 78 m 3 X s 1828 77 m 4 Y s 1825 78 m 2 Y s 1822 80 m 6 X s 1825 78 m -1 Y s 1822 77 m 6 X s 1830 79 m -2 X s 1828 77 m 5 Y s 1830 79 m 3 X s 1833 77 m 5 Y s 1830 79 m 3 Y s 1827 82 m 6 X s
 1830 79 m -1 Y s 1827 78 m 6 X s 1836 83 m -3 X s 1833 80 m 6 Y s 1836 83 m 2 X s 1838 80 m 6 Y s 1836 83 m 4 Y s 1833 87 m 6 X s 1836 83 m -2 Y s 1833 81 m 6 X s 1841 84 m -3 X s 1838 81 m 6 Y s 1841 84 m 3 X s 1844 81 m 6 Y s 1841 84 m 4 Y s 1838
 88 m 6 X s 1841 84 m -2 Y s 1838 82 m 6 X s 1846 79 m -2 X s 1844 77 m 5 Y s 1846 79 m 3 X s 1849 77 m 5 Y s 1846 79 m 3 Y s 1843 82 m 6 X s 1846 79 m -1 Y s 1843 78 m 6 X s 1852 80 m -3 X s 1849 77 m 6 Y s 1852 80 m 2 X s 1854 77 m 6 Y s 1852 80 m
 3 Y s 1849 83 m 6 X s 1852 80 m -2 Y s 1849 78 m 6 X s 1857 80 m -3 X s 1854 77 m 6 Y s 1857 80 m 3 X s 1860 77 m 6 Y s 1857 80 m 3 Y s 1854 83 m 6 X s 1857 80 m -2 Y s 1854 78 m 6 X s 1862 80 m -2 X s 1860 77 m 6 Y s 1862 80 m 3 X s 1865 77 m 6 Y s
 1862 80 m 3 Y s 1859 83 m 6 X s 1862 80 m -2 Y s 1859 78 m 6 X s 1868 82 m -3 X s 1865 79 m 6 Y s 1868 82 m 2 X s 1870 79 m 6 Y s 1868 82 m 4 Y s 1865 86 m 6 X s 1868 82 m -2 Y s 1865 80 m 6 X s 1873 79 m -3 X s 1870 77 m 5 Y s 1873 79 m 3 X s 1876
 77 m 5 Y s 1873 79 m 3 Y s 1870 82 m 6 X s 1873 79 m -1 Y s 1870 78 m 6 X s 1878 79 m -2 X s 1876 77 m 5 Y s 1878 79 m 3 X s 1881 77 m 5 Y s 1878 79 m 3 Y s 1875 82 m 6 X s 1878 79 m -1 Y s 1875 78 m 6 X s 1884 81 m -3 X s 1881 78 m 6 Y s 1884 81 m
 2 X s 1886 78 m 6 Y s 1884 81 m 3 Y s 1881 84 m 6 X s 1884 81 m -2 Y s 1881 79 m 6 X s 1889 78 m -3 X s 1886 77 m 4 Y s 1889 78 m 3 X s 1892 77 m 4 Y s 1889 78 m 2 Y s 1886 80 m 6 X s 1889 78 m -1 Y s 1886 77 m 6 X s 1894 87 m -2 X s 1892 84 m 6 Y s
 1894 87 m 3 X s 1897 84 m 6 Y s 1894 87 m 5 Y s 1891 92 m 6 X s 1894 87 m -3 Y s 1891 84 m 6 X s 1900 82 m -3 X s 1897 79 m 6 Y s 1900 82 m 2 X s 1902 79 m 6 Y s 1900 82 m 4 Y s 1897 86 m 6 X s 1900 82 m -2 Y s 1897 80 m 6 X s 1905 81 m -3 X s 1902
 78 m 6 Y s 1905 81 m 3 X s 1908 78 m 6 Y s 1905 81 m 3 Y s 1902 84 m 6 X s 1905 81 m -2 Y s 1902 79 m 6 X s 1910 84 m -2 X s 1908 81 m 6 Y s 1910 84 m 3 X s 1913 81 m 6 Y s 1910 84 m 4 Y s 1907 88 m 6 X s 1910 84 m -2 Y s 1907 82 m 6 X s 1916 82 m
 -3 X s 1913 79 m 6 Y s 1916 82 m 2 X s 1918 79 m 6 Y s 1916 82 m 4 Y s 1912 86 m 7 X s 1916 82 m -2 Y s 1912 80 m 7 X s 1921 77 m -3 X s 1918 77 m 3 Y s 1921 77 m 3 X s 1924 77 m 3 Y s 1921 77 m 1 Y s 1918 78 m 6 X s 1926 84 m -2 X s 1924 81 m 6 Y s
 1926 84 m 3 X s 1929 81 m 6 Y s 1926 84 m 4 Y s 1923 88 m 6 X s 1926 84 m -2 Y s 1923 82 m 6 X s 1932 80 m -3 X s 1929 77 m 6 Y s 1932 80 m 2 X s 1934 77 m 6 Y s 1932 80 m 3 Y s 1928 83 m 7 X s 1932 80 m -2 Y s 1928 78 m 7 X s 1937 81 m -3 X s 1934
 78 m 6 Y s 1937 81 m 3 X s 1940 78 m 6 Y s 1937 81 m 3 Y s 1934 84 m 6 X s 1937 81 m -2 Y s 1934 79 m 6 X s 1942 91 m -2 X s 1940 88 m 6 Y s 1942 91 m 3 X s 1945 88 m 6 Y s 1942 91 m 4 Y s 1939 95 m 6 X s 1942 91 m -4 Y s 1939 87 m 6 X s 1947 93 m
 -2 X s 1945 90 m 6 Y s 1947 93 m 3 X s 1950 90 m 6 Y s 1947 93 m 5 Y s 1944 98 m 7 X s 1947 93 m -4 Y s 1944 89 m 7 X s 1953 100 m -3 X s 1950 97 m 6 Y s 1953 100 m 2 X s 1955 97 m 6 Y s 1953 100 m 6 Y s 1950 106 m 6 X s 1953 100 m -5 Y s 1950 95 m
 6 X s 1958 100 m -3 X s 1955 97 m 6 Y s 1958 100 m 3 X s 1961 97 m 6 Y s 1958 100 m 6 Y s 1955 106 m 6 X s 1958 100 m -5 Y s 1955 95 m 6 X s 1963 107 m -2 X s 1961 104 m 6 Y s 1963 107 m 3 X s 1966 104 m 6 Y s 1963 107 m 7 Y s 1960 114 m 7 X s 1963
 107 m -5 Y s 1960 102 m 7 X s 1969 121 m -3 X s 1966 118 m 6 Y s 1969 121 m 2 X s 1971 118 m 6 Y s 1969 121 m 8 Y s 1966 129 m 6 X s 1969 121 m -7 Y s 1966 114 m 6 X s 1974 136 m -3 X s 1971 133 m 6 Y s 1974 136 m 3 X s 1977 133 m 6 Y s 1974 136 m 9
 Y s 1971 145 m 6 X s 1974 136 m -7 Y s 1971 129 m 6 X s 1979 149 m -2 X s 1977 146 m 6 Y s 1979 149 m 3 X s 1982 146 m 6 Y s 1979 149 m 10 Y s 1976 159 m 6 X s 1979 149 m -9 Y s 1976 140 m 6 X s 1985 177 m -3 X s 1982 174 m 6 Y s 1985 177 m 2 X s
 1987 174 m 6 Y s 1985 177 m 11 Y s 1982 188 m 6 X s 1985 177 m -10 Y s 1982 167 m 6 X s 1990 216 m -3 X s 1987 213 m 6 Y s 1990 216 m 3 X s 1993 213 m 6 Y s 1990 216 m 12 Y s 1987 228 m 6 X s 1990 216 m -12 Y s 1987 204 m 6 X s 1995 227 m -2 X s
 1993 224 m 6 Y s 1995 227 m 3 X s 1998 224 m 6 Y s 1995 227 m 13 Y s 1992 240 m 6 X s 1995 227 m -12 Y s 1992 215 m 6 X s 2001 273 m -3 X s 1998 270 m 6 Y s 2001 273 m 2 X s 2003 270 m 6 Y s 2001 273 m 15 Y s 1998 288 m 6 X s 2001 273 m -14 Y s 1998
 259 m 6 X s 2006 310 m -3 X s 2003 306 m 7 Y s 2006 310 m 3 X s 2009 306 m 7 Y s 2006 310 m 16 Y s 2003 326 m 6 X s 2006 310 m -16 Y s 2003 294 m 6 X s 2011 366 m -2 X s 2009 363 m 6 Y s 2011 366 m 3 X s 2014 363 m 6 Y s 2011 366 m 18 Y s 2008 384 m
 6 X s 2011 366 m -17 Y s 2008 349 m 6 X s 2017 399 m -3 X s 2014 396 m 6 Y s 2017 399 m 2 X s 2019 396 m 6 Y s 2017 399 m 19 Y s 2014 418 m 6 X s 2017 399 m -18 Y s 2014 381 m 6 X s 2022 428 m -3 X s 2019 425 m 6 Y s 2022 428 m 3 X s 2025 425 m 6 Y
 s 2022 428 m 20 Y s 2019 448 m 6 X s 2022 428 m -18 Y s 2019 410 m 6 X s 2027 539 m -2 X s 2025 536 m 6 Y s 2027 539 m 3 X s 2030 536 m 6 Y s 2027 539 m 22 Y s 2024 561 m 6 X s 2027 539 m -22 Y s 2024 517 m 6 X s 2033 544 m -3 X s 2030 541 m 6 Y s
 2033 544 m 2 X s 2035 541 m 6 Y s 2033 544 m 23 Y s 2030 567 m 6 X s 2033 544 m -21 Y s 2030 523 m 6 X s 2038 544 m -3 X s 2035 541 m 6 Y s 2038 544 m 3 X s 2041 541 m 6 Y s 2038 544 m 23 Y s 2035 567 m 6 X s 2038 544 m -21 Y s 2035 523 m 6 X s 2043
 561 m -2 X s 2041 558 m 6 Y s 2043 561 m 3 X s 2046 558 m 6 Y s 2043 561 m 23 Y s 2040 584 m 6 X s 2043 561 m -22 Y s 2040 539 m 6 X s 2049 541 m -3 X s 2046 538 m 6 Y s 2049 541 m 2 X s 2051 538 m 6 Y s 2049 541 m 23 Y s 2046 564 m 6 X s 2049 541 m
 -21 Y s 2046 520 m 6 X s 2054 586 m -3 X s 2051 583 m 6 Y s 2054 586 m 3 X s 2057 583 m 6 Y s 2054 586 m 23 Y s 2051 609 m 6 X s 2054 586 m -23 Y s 2051 563 m 6 X s 2059 546 m -2 X s 2057 543 m 6 Y s 2059 546 m 3 X s 2062 543 m 6 Y s 2059 546 m 23 Y
 s 2056 569 m 6 X s 2059 546 m -21 Y s 2056 525 m 6 X s 2065 518 m -3 X s 2062 515 m 6 Y s 2065 518 m 2 X s 2067 515 m 6 Y s 2065 518 m 22 Y s 2062 540 m 6 X s 2065 518 m -21 Y s 2062 497 m 6 X s 2070 472 m -3 X s 2067 469 m 6 Y s 2070 472 m 3 X s
 2073 469 m 6 Y s 2070 472 m 21 Y s 2067 493 m 6 X s 2070 472 m -20 Y s 2067 452 m 6 X s 2075 414 m -2 X s 2073 411 m 6 Y s 2075 414 m 3 X s 2078 411 m 6 Y s 2075 414 m 19 Y s 2072 433 m 6 X s 2075 414 m -18 Y s 2072 396 m 6 X s 2081 381 m -3 X s
 2078 378 m 6 Y s 2081 381 m 2 X s 2083 378 m 6 Y s 2081 381 m 19 Y s 2078 400 m 6 X s 2081 381 m -17 Y s 2078 364 m 6 X s 2086 348 m -3 X s 2083 345 m 6 Y s 2086 348 m 3 X s 2089 345 m 6 Y s 2086 348 m 17 Y s 2083 365 m 6 X s 2086 348 m -16 Y s 2083
 332 m 6 X s 2091 278 m -2 X s 2089 275 m 6 Y s 2091 278 m 3 X s 2094 275 m 6 Y s 2091 278 m 15 Y s 2088 293 m 6 X s 2091 278 m -14 Y s 2088 264 m 6 X s 2097 247 m -3 X s 2094 244 m 6 Y s 2097 247 m 2 X s 2099 244 m 6 Y s 2097 247 m 14 Y s 2094 261 m
 6 X s 2097 247 m -13 Y s 2094 234 m 6 X s 2102 208 m -3 X s 2099 205 m 6 Y s 2102 208 m 3 X s 2105 205 m 6 Y s 2102 208 m 13 Y s 2099 221 m 6 X s 2102 208 m -11 Y s 2099 197 m 6 X s 2107 183 m -2 X s 2105 180 m 6 Y s 2107 183 m 3 X s 2110 180 m 6 Y
 s 2107 183 m 11 Y s 2104 194 m 6 X s 2107 183 m -10 Y s 2104 173 m 6 X s 2113 148 m -3 X s 2110 145 m 6 Y s 2113 148 m 2 X s 2115 145 m 6 Y s 2113 148 m 10 Y s 2110 158 m 6 X s 2113 148 m -9 Y s 2110 139 m 6 X s 2118 132 m -3 X s 2115 129 m 6 Y s
 2118 132 m 3 X s 2121 129 m 6 Y s 2118 132 m 9 Y s 2115 141 m 6 X s 2118 132 m -7 Y s 2115 125 m 6 X s 2123 119 m -2 X s 2121 116 m 6 Y s 2123 119 m 3 X s 2126 116 m 6 Y s 2123 119 m 7 Y s 2120 126 m 6 X s 2123 119 m -7 Y s 2120 112 m 6 X s 2129 110
 m -3 X s 2126 107 m 6 Y s 2129 110 m 2 X s 2131 107 m 6 Y s 2129 110 m 7 Y s 2126 117 m 6 X s 2129 110 m -5 Y s 2126 105 m 6 X s 2134 100 m -3 X s 2131 97 m 6 Y s 2134 100 m 3 X s 2137 97 m 6 Y s 2134 100 m 6 Y s 2131 106 m 6 X s 2134 100 m -5 Y s
 2131 95 m 6 X s 2139 90 m -2 X s 2137 86 m 7 Y s 2139 90 m 3 X s 2142 86 m 7 Y s 2139 90 m 4 Y s 2136 94 m 6 X s 2139 90 m -4 Y s 2136 86 m 6 X s 2145 87 m -3 X s 2142 84 m 6 Y s 2145 87 m 2 X s 2147 84 m 6 Y s 2145 87 m 5 Y s 2142 92 m 6 X s 2145
 87 m -3 Y s 2142 84 m 6 X s 2150 82 m -3 X s 2147 79 m 6 Y s 2150 82 m 3 X s 2153 79 m 6 Y s 2150 82 m 4 Y s 2147 86 m 6 X s 2150 82 m -2 Y s 2147 80 m 6 X s 2155 79 m -2 X s 2153 77 m 5 Y s 2155 79 m 3 X s 2158 77 m 5 Y s 2155 79 m 3 Y s 2152 82 m
 6 X s 2155 79 m -1 Y s 2152 78 m 6 X s 2161 81 m -3 X s 2158 78 m 6 Y s 2161 81 m 2 X s 2163 78 m 6 Y s 2161 81 m 3 Y s 2158 84 m 6 X s 2161 81 m -2 Y s 2158 79 m 6 X s 2166 81 m -3 X s 2163 78 m 6 Y s 2166 81 m 3 X s 2169 78 m 6 Y s 2166 81 m 3 Y s
 2163 84 m 6 X s 2166 81 m -2 Y s 2163 79 m 6 X s 2171 80 m -2 X s 2169 77 m 6 Y s 2171 80 m 3 X s 2174 77 m 6 Y s 2171 80 m 3 Y s 2168 83 m 6 X s 2171 80 m -2 Y s 2168 78 m 6 X s /w 13 def /w2 {w 2 div} def /w3 {w 3 div} def 1644 78 1649 81 1654 84
 1660 78 1665 83 1670 80 1676 80 1681 80 1686 81 1692 80 1697 78 1702 80 1708 82 1713 80 1718 79 1724 81 1729 80 1734 79 1740 79 1745 86 1750 79 1756 81 1761 83 1766 80 1772 82 1777 78 1782 79 1788 80 1793 80 1798 77 1804 80 1809 80 1814 81 1820 83
 1825 78 1830 79 1836 83 1841 84 1846 79 1852 80 1857 80 1862 80 1868 82 1873 79 1878 79 1884 81 1889 78 1894 87 1900 82 1905 81 1910 84 1916 82 1921 77 1926 84 1932 80 1937 81 1942 91 1947 93 1953 100 1958 100 1963 107 1969 121 1974 136 1979 149
 1985 177 1990 216 1995 227 2001 273 2006 310 2011 366 2017 399 2022 428 2027 539 2033 544 2038 544 2043 561 2049 541 2054 586 2059 546 2065 518 2070 472 2075 414 2081 381 2086 348 2091 278 2097 247 2102 208 2107 183 2113 148 2118 132 2123 119 2129
 110 2134 100 2139 90 2145 87 2150 82 2155 79 2161 81 2166 81 2171 80 100 { m20} R 0 0 1 c 9 lw black 0 0 1 c 1641 80 m cl s 1641 80 m 32 X 5 1 d 240 X 6 1 d 5 1 d 5 1 d 6 1 d 5 3 d 5 4 d 5 5 d 6 7 d 5 10 d 5 12 d 3 8 d 3 9 d 2 10 d 3 11 d 3 13 d 2
 14 d 3 15 d 3 16 d 2 18 d 3 18 d 3 20 d 2 21 d 6 44 d 5 46 d 5 46 d 3 21 d 3 21 d 2 19 d 3 18 d 3 16 d 2 13 d 3 11 d 3 8 d 2 5 d 3 2 d 3 -1 d 2 -4 d 3 -6 d 3 -10 d 2 -12 d 3 -15 d 3 -17 d 2 -18 d 3 -20 d 3 -22 d 5 -45 d 5 -46 d 6 -45 d 5 -42 d 3 -19
 d 2 -18 d 3 -17 d 3 -16 d 2 -14 d 3 -13 d 3 -12 d 2 -10 d 3 -10 d 3 -8 d 5 -14 d 5 -11 d 6 -7 d 5 -6 d 5 -4 d 6 -3 d 5 -2 d 5 -2 d 6 -1 d 5 -1 d s black 3 lw 1641 77 m 533 X s 1641 93 m -16 Y s 1654 85 m -8 Y s 1668 85 m -8 Y s 1681 85 m -8 Y s 1694
 85 m -8 Y s 1708 93 m -16 Y s 1721 85 m -8 Y s 1734 85 m -8 Y s 1748 85 m -8 Y s 1761 85 m -8 Y s 1774 93 m -16 Y s 1788 85 m -8 Y s 1801 85 m -8 Y s 1814 85 m -8 Y s 1828 85 m -8 Y s 1841 93 m -16 Y s 1854 85 m -8 Y s 1868 85 m -8 Y s 1881 85 m -8
 Y s 1894 85 m -8 Y s 1908 93 m -16 Y s 1921 85 m -8 Y s 1934 85 m -8 Y s 1947 85 m -8 Y s 1961 85 m -8 Y s 1974 93 m -16 Y s 1987 85 m -8 Y s 2001 85 m -8 Y s 2014 85 m -8 Y s 2027 85 m -8 Y s 2041 93 m -16 Y s 2054 85 m -8 Y s 2067 85 m -8 Y s 2081
 85 m -8 Y s 2094 85 m -8 Y s 2107 93 m -16 Y s 2121 85 m -8 Y s 2134 85 m -8 Y s 2147 85 m -8 Y s 2161 85 m -8 Y s 2174 93 m -16 Y s 1641 77 m 559 Y s 1658 77 m -17 X s 1650 98 m -9 X s 1650 119 m -9 X s 1650 140 m -9 X s 1650 160 m -9 X s 1658 181
 m -17 X s 1650 202 m -9 X s 1650 223 m -9 X s 1650 244 m -9 X s 1650 265 m -9 X s 1658 286 m -17 X s 1650 306 m -9 X s 1650 327 m -9 X s 1650 348 m -9 X s 1650 369 m -9 X s 1658 390 m -17 X s 1650 411 m -9 X s 1650 432 m -9 X s 1650 452 m -9 X s
 1650 473 m -9 X s 1658 494 m -17 X s 1650 515 m -9 X s 1650 536 m -9 X s 1650 557 m -9 X s 1650 577 m -9 X s 1658 598 m -17 X s 1658 598 m -17 X s 1650 619 m -9 X s 1 1 1 c black
 gsave  711 699 1534 7 C 1728.79 670.626 t 0 r /Helvetica findfont 34.8619 sf 0 0 m (Signal + Background) show NC gr 
 gr  gr showpage
end
%%EOF
