%!PS-Adobe-2.0 EPSF-2.0
%%BoundingBox:  0 0 567 178
%%Title: ./plots/pAll_real.eps: rf101_basics
%%Creator: ROOT Version 6.11/01
%%CreationDate: Thu Oct  5 14:15:47 2017
%%DocumentNeededResources: ProcSet (FontSetInit)
%%EndComments
%%BeginProlog
80 dict begin
/s {stroke} def /l {lineto} def /m {moveto} def /t {translate} def
/r {rotate} def /rl {roll}  def /R {repeat} def
/d {rlineto} def /rm {rmoveto} def /gr {grestore} def /f {eofill} def
/c {setrgbcolor} def /black {0 setgray} def /sd {setdash} def
/cl {closepath} def /sf {scalefont setfont} def /lw {setlinewidth} def
/box {m dup 0 exch d exch 0 d 0 exch neg d cl} def
/NC{systemdict begin initclip end}def/C{NC box clip newpath}def
/bl {box s} def /bf {gsave box gsave f grestore 1 lw [] 0 sd s grestore} def /Y { 0 exch d} def /X { 0 d} def 
/K {{pop pop 0 moveto} exch kshow} bind def
/ita {/ang 15 def gsave [1 0 ang dup sin exch cos div 1 0 0] concat} def 
/mp {newpath /y exch def /x exch def} def
/side {[w .77 mul w .23 mul] .385 w mul sd w 0 l currentpoint t -144 r} def
/mr {mp x y w2 0 360 arc} def /m24 {mr s} def /m20 {mr f} def
/mb {mp x y w2 add m w2 neg 0 d 0 w neg d w 0 d 0 w d cl} def
/mt {mp x y w2 add m w2 neg w neg d w 0 d cl} def
/w4 {w 4 div} def
/w6 {w 6 div} def
/w8 {w 8 div} def
/m21 {mb f} def /m25 {mb s} def /m22 {mt f} def /m26{mt s} def
/m23 {mp x y w2 sub m w2 w d w neg 0 d cl f} def
/m27 {mp x y w2 add m w3 neg w2 neg d w3 w2 neg d w3 w2 d cl s} def
/m28 {mp x w2 sub y w2 sub w3 add m w3 0 d  0 w3 neg d w3 0 d 0 w3 d w3 0 d  0 w3 d w3 neg 0 d 0 w3 d w3 neg 0 d 0 w3 neg d w3 neg 0 d cl s } def
/m29 {mp gsave x w2 sub y w2 add w3 sub m currentpoint t 4 {side} repeat cl fill gr} def
/m30 {mp gsave x w2 sub y w2 add w3 sub m currentpoint t 4 {side} repeat cl s gr} def
/m31 {mp x y w2 sub m 0 w d x w2 sub y m w 0 d x w2 sub y w2 add m w w neg d x w2 sub y w2 sub m w w d s} def
/m32 {mp x y w2 sub m w2 w d w neg 0 d cl s} def
/m33 {mp x y w2 add m w3 neg w2 neg d w3 w2 neg d w3 w2 d cl f} def
/m34 {mp x w2 sub y w2 sub w3 add m w3 0 d  0 w3 neg d w3 0 d 0 w3 d w3 0 d  0 w3 d w3 neg 0 d 0 w3 d w3 neg 0 d 0 w3 neg d w3 neg 0 d cl f } def
/m35 {mp x y w2 add m w2 neg w2 neg d w2 w2 neg d w2 w2 d w2 neg w2 d x y w2 sub m 0 w d x w2 sub y m w 0 d s} def
/m36 {mb x w2 sub y w2 add m w w neg d x w2 sub y w2 sub m w w d s} def
/m37 {mp x y m w4 neg w2 d w4 neg w2 neg d w2 0 d  w4 neg w2 neg d w2 0 d w4 neg w2 d w2 0 d w4 neg w2 d w4 neg w2 neg d cl s} def
/m38 {mp x w4 sub y w2 add m w4 neg w4 neg d 0 w2 neg d w4 w4 neg d w2 0 d w4 w4 d 0 w2 d w4 neg w4 d w2 neg 0 d x y w2 sub m 0 w d x w2 sub y m w 0 d cl s} def
/m39 {mp x y m w4 neg w2 d w4 neg w2 neg d w2 0 d  w4 neg w2 neg d w2 0 d w4 neg w2 d w2 0 d w4 neg w2 d w4 neg w2 neg d cl f} def
/m40 {mp x y m w4 w2 d w4 w4 neg d w2 neg w4 neg d w2 w4 neg d w4 neg w4 neg d w4 neg w2 d w4 neg w2 neg d w4 neg w4 d w2 w4 d w2 neg w4 d w4 w4 d w4 w2 neg d cl s} def
/m41 {mp x y m w4 w2 d w4 w4 neg d w2 neg w4 neg d w2 w4 neg d w4 neg w4 neg d w4 neg w2 d w4 neg w2 neg d w4 neg w4 d w2 w4 d w2 neg w4 d w4 w4 d w4 w2 neg d cl f} def
/m42 {mp x y w2 add m w8 neg w2 -3 4 div mul d w2 -3 4 div mul w8 neg d w2 3 4 div mul w8 neg d w8 w2 -3 4 div mul d w8 w2 3 4 div mul d w2 3 4 div mul w8 d w2 -3 4 div mul w8 d w8 neg w2 3 4 div mul d cl s} def
/m43 {mp x y w2 add m w8 neg w2 -3 4 div mul d w2 -3 4 div mul w8 neg d w2 3 4 div mul w8 neg d w8 w2 -3 4 div mul d w8 w2 3 4 div mul d w2 3 4 div mul w8 d w2 -3 4 div mul w8 d w8 neg w2 3 4 div mul d cl f} def
/m44 {mp x y m w6 neg w2 d w2 2 3 div mul 0 d w6 neg w2 neg d w2 w6 d 0 w2 -2 3 div mul d w2 neg w6 d w6 w2 neg d w2 -2 3 div mul 0 d w6 w2 d w2 neg w6 neg d 0 w2 2 3 div mul d w2 w6 neg d cl s} def
/m45 {mp x y m w6 neg w2 d w2 2 3 div mul 0 d w6 neg w2 neg d w2 w6 d 0 w2 -2 3 div mul d w2 neg w6 d w6 w2 neg d w2 -2 3 div mul 0 d w6 w2 d w2 neg w6 neg d 0 w2 2 3 div mul d w2 w6 neg d cl f} def
/m46 {mp x y w4 add m w4 neg w4 d w4 neg w4 neg d  w4 w4 neg d w4 neg w4 neg d w4 w4 neg d w4 w4 d w4 w4 neg d w4 w4 d w4 neg w4 d w4 w4 d w4 neg w4 d w4 neg w4 neg d cl s} def
/m47 {mp x y w4 add m w4 neg w4 d w4 neg w4 neg d w4 w4 neg d w4 neg w4 neg d  w4 w4 neg d w4 w4 d w4 w4 neg d w4 w4 d w4 neg w4 d w4 w4 d w4 neg w4 d w4 neg w4 neg d cl f} def
/m48 {mp x y w4 add m w4 neg w4 d w4 neg w4 neg d w4 w4 neg d  w4 neg w4 neg d w4 w4 neg d w4 w4 d w4 w4 neg d w4 w4 d w4 neg w4 d w4 w4 d w4 neg w4 d w4 neg w4 neg d  w4 w4 neg d w4 neg w4 neg d w4 neg w4 d w4 w4 d cl f} def
/m49 {mp x w2 sub w3 add y w2 sub w3 add m  0 w3 neg d w3 0 d 0 w3 d w3 0 d 0 w3 d w3 neg 0 d 0 w3 d w3 neg 0 d 0 w3 neg d w3 neg 0 d 0 w3 neg d w3 0 d 0 w3 d w3 0 d 0 w3 neg d w3 neg 0 d cl f } def
/m2 {mp x y w2 sub m 0 w d x w2 sub y m w 0 d s} def
/m5 {mp x w2 sub y w2 sub m w w d x w2 sub y w2 add m w w neg d s} def
%%IncludeResource: ProcSet (FontSetInit)
%%IncludeResource: font Times-Roman
%%IncludeResource: font Times-Italic
%%IncludeResource: font Times-Bold
%%IncludeResource: font Times-BoldItalic
%%IncludeResource: font Helvetica
%%IncludeResource: font Helvetica-Oblique
%%IncludeResource: font Helvetica-Bold
%%IncludeResource: font Helvetica-BoldOblique
%%IncludeResource: font Courier
%%IncludeResource: font Courier-Oblique
%%IncludeResource: font Courier-Bold
%%IncludeResource: font Courier-BoldOblique
%%IncludeResource: font Symbol
%%IncludeResource: font ZapfDingbats
/reEncode {exch findfont dup length dict begin {1 index /FID eq  {pop pop} {def} ifelse } forall /Encoding exch def currentdict end dup /FontName get exch definefont pop } def [/Times-Bold /Times-Italic /Times-BoldItalic /Helvetica /Helvetica-Oblique
 /Helvetica-Bold /Helvetica-BoldOblique /Courier /Courier-Oblique /Courier-Bold /Courier-BoldOblique /Times-Roman /AvantGarde-Book /AvantGarde-BookOblique /AvantGarde-Demi /AvantGarde-DemiOblique /Bookman-Demi /Bookman-DemiItalic /Bookman-Light
 /Bookman-LightItalic /Helvetica-Narrow /Helvetica-Narrow-Bold /Helvetica-Narrow-BoldOblique /Helvetica-Narrow-Oblique /NewCenturySchlbk-Roman /NewCenturySchlbk-Bold /NewCenturySchlbk-BoldItalic /NewCenturySchlbk-Italic /Palatino-Bold
 /Palatino-BoldItalic /Palatino-Italic /Palatino-Roman ] {ISOLatin1Encoding reEncode } forall
%%EndProlog
%%BeginSetup
%%EndSetup
newpath  gsave  .25 .25 scale  gsave  0 0 t black[  ] 0 sd 3 lw 1 1 1 c 2268 713 0 0 bf black 1 1 1 c 710 699 23 7 bf black 1 1 1 c 533 559 129 77 bf black 533 559 129 77 bl 129 77 m 533 X s 129 93 m -16 Y s 148 85 m -8 Y s 166 85 m -8 Y s 184 85 m
 -8 Y s 203 85 m -8 Y s 221 93 m -16 Y s 240 85 m -8 Y s 258 85 m -8 Y s 276 85 m -8 Y s 295 85 m -8 Y s 313 93 m -16 Y s 331 85 m -8 Y s 350 85 m -8 Y s 368 85 m -8 Y s 387 85 m -8 Y s 405 93 m -16 Y s 423 85 m -8 Y s 442 85 m -8 Y s 460 85 m -8 Y s
 478 85 m -8 Y s 497 93 m -16 Y s 515 85 m -8 Y s 534 85 m -8 Y s 552 85 m -8 Y s 570 85 m -8 Y s 589 93 m -16 Y s 589 93 m -16 Y s 607 85 m -8 Y s 625 85 m -8 Y s 644 85 m -8 Y s
 gsave  710 699 23 7 C 105.968 54.4979 t 0 r /Helvetica findfont 22.736 sf 0 0 m (5.26) show NC gr 
 gsave  710 699 23 7 C 192.256 54.4979 t 0 r /Helvetica findfont 22.736 sf 0 0 m (5.265) show NC gr 
 gsave  710 699 23 7 C 289.141 54.4979 t 0 r /Helvetica findfont 22.736 sf 0 0 m (5.27) show NC gr 
 gsave  710 699 23 7 C 375.43 54.4979 t 0 r /Helvetica findfont 22.736 sf 0 0 m (5.275) show NC gr 
 gsave  710 699 23 7 C 473.829 54.4979 t 0 r /Helvetica findfont 22.736 sf 0 0 m (5.28) show NC gr 
 gsave  710 699 23 7 C 558.603 54.4979 t 0 r /Helvetica findfont 22.736 sf 0 0 m (5.285) show NC gr 
 gsave  710 699 23 7 C 605.532 31.7904 t 0 r /Helvetica findfont 22.736 sf 0 0 m (m_bc) show NC gr  129 77 m 559 Y s 146 77 m -17 X s 138 104 m -9 X s 138 131 m -9 X s 138 158 m -9 X s 146 184 m -17 X s 138 211 m -9 X s 138 238 m -9 X s 138 265 m -9
 X s 146 292 m -17 X s 138 319 m -9 X s 138 345 m -9 X s 138 372 m -9 X s 146 399 m -17 X s 138 426 m -9 X s 138 453 m -9 X s 138 480 m -9 X s 146 507 m -17 X s 138 533 m -9 X s 138 560 m -9 X s 138 587 m -9 X s 146 614 m -17 X s 146 614 m -17 X s
 gsave  710 699 23 7 C 113.537 68.1223 t 0 r /Helvetica findfont 22.736 sf 0 0 m (0) show NC gr 
 gsave  710 699 23 7 C 87.8021 175.604 t 0 r /Helvetica findfont 22.736 sf 0 0 m (200) show NC gr 
 gsave  710 699 23 7 C 87.8021 283.086 t 0 r /Helvetica findfont 22.736 sf 0 0 m (400) show NC gr 
 gsave  710 699 23 7 C 87.8021 390.568 t 0 r /Helvetica findfont 22.736 sf 0 0 m (600) show NC gr 
 gsave  710 699 23 7 C 87.8021 498.05 t 0 r /Helvetica findfont 22.736 sf 0 0 m (800) show NC gr 
 gsave  710 699 23 7 C 75.6915 605.532 t 0 r /Helvetica findfont 22.736 sf 0 0 m (1000) show NC gr 
 gsave  710 699 23 7 C 71.15 440.524 t 90 r /Helvetica findfont 22.736 sf 0 0 m (Events / \( 0.00029 \)) show NC gr  1 1 1 c black
 gsave  710 699 23 7 C 328.501 670.626 t 0 r /Helvetica findfont 34.8619 sf 0 0 m (Signal) show NC gr  132 77 m -3 X s 129 77 m 3 Y s 132 77 m 3 X s 135 77 m 3 Y s 132 77 m 1 Y s 129 78 m 6 X s 137 77 m -2 X s 135 77 m 3 Y s 137 77 m 3 X s 140 77 m 3
 Y s 137 77 m 1 Y s 134 78 m 6 X s 143 77 m -3 X s 140 77 m 3 Y s 143 77 m 2 X s 145 77 m 3 Y s 143 77 m 1 Y s 140 78 m 6 X s 148 77 m -3 X s 145 77 m 3 Y s 148 77 m 3 X s 151 77 m 3 Y s 148 77 m 1 Y s 145 78 m 6 X s 153 77 m -2 X s 151 77 m 3 Y s
 153 77 m 3 X s 156 77 m 3 Y s 153 77 m 1 Y s 150 78 m 6 X s 159 77 m -3 X s 156 77 m 3 Y s 159 77 m 2 X s 161 77 m 3 Y s 159 77 m 1 Y s 156 78 m 6 X s 164 77 m -3 X s 161 77 m 3 Y s 164 77 m 3 X s 167 77 m 3 Y s 164 77 m 1 Y s 161 78 m 6 X s 169 77
 m -2 X s 167 77 m 3 Y s 169 77 m 3 X s 172 77 m 3 Y s 169 77 m 1 Y s 166 78 m 6 X s 175 77 m -3 X s 172 77 m 3 Y s 175 77 m 2 X s 177 77 m 3 Y s 175 77 m 1 Y s 172 78 m 6 X s 180 77 m -3 X s 177 77 m 3 Y s 180 77 m 3 X s 183 77 m 3 Y s 180 77 m 1 Y
 s 177 78 m 6 X s 185 77 m -2 X s 183 77 m 3 Y s 185 77 m 3 X s 188 77 m 3 Y s 185 77 m 1 Y s 182 78 m 6 X s 191 77 m -3 X s 188 77 m 3 Y s 191 77 m 2 X s 193 77 m 3 Y s 191 77 m 1 Y s 188 78 m 6 X s 196 77 m -3 X s 193 77 m 3 Y s 196 77 m 3 X s 199
 77 m 3 Y s 196 77 m 1 Y s 193 78 m 6 X s 201 77 m -2 X s 199 77 m 3 Y s 201 77 m 3 X s 204 77 m 3 Y s 201 77 m 1 Y s 198 78 m 6 X s 207 77 m -3 X s 204 77 m 3 Y s 207 77 m 2 X s 209 77 m 3 Y s 207 77 m 1 Y s 204 78 m 6 X s 212 77 m -3 X s 209 77 m 3
 Y s 212 77 m 3 X s 215 77 m 3 Y s 212 77 m 1 Y s 209 78 m 6 X s 217 77 m -2 X s 215 77 m 3 Y s 217 77 m 3 X s 220 77 m 3 Y s 217 77 m 1 Y s 214 78 m 6 X s 223 77 m -3 X s 220 77 m 3 Y s 223 77 m 2 X s 225 77 m 3 Y s 223 77 m 1 Y s 219 78 m 7 X s 228
 77 m -3 X s 225 77 m 3 Y s 228 77 m 3 X s 231 77 m 3 Y s 228 77 m 1 Y s 225 78 m 6 X s 233 77 m -2 X s 231 77 m 3 Y s 233 77 m 3 X s 236 77 m 3 Y s 233 77 m 1 Y s 230 78 m 6 X s 239 77 m -3 X s 236 77 m 3 Y s 239 77 m 2 X s 241 77 m 3 Y s 239 77 m 1
 Y s 235 78 m 7 X s 244 77 m -3 X s 241 77 m 3 Y s 244 77 m 3 X s 247 77 m 3 Y s 244 77 m 1 Y s 241 78 m 6 X s 249 77 m -2 X s 247 77 m 3 Y s 249 77 m 3 X s 252 77 m 3 Y s 249 77 m 1 Y s 246 78 m 6 X s 254 77 m -2 X s 252 77 m 3 Y s 254 77 m 3 X s
 257 77 m 3 Y s 254 77 m 1 Y s 251 78 m 7 X s 260 77 m -3 X s 257 77 m 3 Y s 260 77 m 2 X s 262 77 m 3 Y s 260 77 m 1 Y s 257 78 m 6 X s 265 77 m -3 X s 262 77 m 3 Y s 265 77 m 3 X s 268 77 m 3 Y s 265 77 m 1 Y s 262 78 m 6 X s 270 77 m -2 X s 268 77
 m 3 Y s 270 77 m 3 X s 273 77 m 3 Y s 270 77 m 1 Y s 267 78 m 7 X s 276 77 m -3 X s 273 77 m 3 Y s 276 77 m 2 X s 278 77 m 3 Y s 276 77 m 1 Y s 273 78 m 6 X s 281 77 m -3 X s 278 77 m 3 Y s 281 77 m 3 X s 284 77 m 3 Y s 281 77 m 1 Y s 278 78 m 6 X s
 286 77 m -2 X s 284 77 m 3 Y s 286 77 m 3 X s 289 77 m 3 Y s 286 77 m 1 Y s 283 78 m 6 X s 292 77 m -3 X s 289 77 m 3 Y s 292 77 m 2 X s 294 77 m 3 Y s 292 77 m 1 Y s 289 78 m 6 X s 297 77 m -3 X s 294 77 m 3 Y s 297 77 m 3 X s 300 77 m 3 Y s 297 77
 m 1 Y s 294 78 m 6 X s 302 77 m -2 X s 300 77 m 3 Y s 302 77 m 3 X s 305 77 m 3 Y s 302 77 m 1 Y s 299 78 m 6 X s 308 77 m -3 X s 305 77 m 3 Y s 308 77 m 2 X s 310 77 m 3 Y s 308 77 m 1 Y s 305 78 m 6 X s 313 77 m -3 X s 310 77 m 3 Y s 313 77 m 3 X
 s 316 77 m 3 Y s 313 77 m 1 Y s 310 78 m 6 X s 318 77 m -2 X s 316 77 m 3 Y s 318 77 m 3 X s 321 77 m 3 Y s 318 77 m 1 Y s 315 78 m 6 X s 324 78 m -3 X s 321 77 m 4 Y s 324 78 m 2 X s 326 77 m 4 Y s 324 78 m 1 Y s 321 79 m 6 X s 324 78 m -1 Y s 321
 77 m 6 X s 329 77 m -3 X s 326 77 m 3 Y s 329 77 m 3 X s 332 77 m 3 Y s 329 77 m 1 Y s 326 78 m 6 X s 334 79 m -2 X s 332 77 m 5 Y s 334 79 m 3 X s 337 77 m 5 Y s 334 79 m 1 Y s 331 80 m 6 X s 334 79 m -1 Y s 331 78 m 6 X s 340 79 m -3 X s 337 77 m
 5 Y s 340 79 m 2 X s 342 77 m 5 Y s 340 79 m 1 Y s 337 80 m 6 X s 340 79 m -1 Y s 337 78 m 6 X s 345 81 m -3 X s 342 78 m 6 Y s 345 81 m 3 X s 348 78 m 6 Y s 345 81 m 2 Y s 342 83 m 6 X s 345 81 m -2 Y s 342 79 m 6 X s 350 82 m -2 X s 348 79 m 6 Y s
 350 82 m 3 X s 353 79 m 6 Y s 350 82 m 2 Y s 347 84 m 6 X s 350 82 m -2 Y s 347 80 m 6 X s 356 80 m -3 X s 353 77 m 6 Y s 356 80 m 2 X s 358 77 m 6 Y s 356 80 m 2 Y s 353 82 m 6 X s 356 80 m -1 Y s 353 79 m 6 X s 361 85 m -3 X s 358 81 m 7 Y s 361
 85 m 3 X s 364 81 m 7 Y s 361 85 m 2 Y s 358 87 m 6 X s 361 85 m -2 Y s 358 83 m 6 X s 366 87 m -2 X s 364 84 m 6 Y s 366 87 m 3 X s 369 84 m 6 Y s 366 87 m 3 Y s 363 90 m 6 X s 366 87 m -2 Y s 363 85 m 6 X s 372 92 m -3 X s 369 88 m 7 Y s 372 92 m
 2 X s 374 88 m 7 Y s 372 92 m 3 Y s 369 95 m 6 X s 372 92 m -3 Y s 369 89 m 6 X s 377 98 m -3 X s 374 95 m 6 Y s 377 98 m 3 X s 380 95 m 6 Y s 377 98 m 4 Y s 374 102 m 6 X s 377 98 m -3 Y s 374 95 m 6 X s 382 96 m -2 X s 380 93 m 6 Y s 382 96 m 3 X
 s 385 93 m 6 Y s 382 96 m 4 Y s 379 100 m 6 X s 382 96 m -3 Y s 379 93 m 6 X s 388 101 m -3 X s 385 98 m 6 Y s 388 101 m 2 X s 390 98 m 6 Y s 388 101 m 4 Y s 385 105 m 6 X s 388 101 m -4 Y s 385 97 m 6 X s 393 111 m -3 X s 390 108 m 6 Y s 393 111 m
 3 X s 396 108 m 6 Y s 393 111 m 5 Y s 390 116 m 6 X s 393 111 m -4 Y s 390 107 m 6 X s 398 119 m -2 X s 396 116 m 6 Y s 398 119 m 3 X s 401 116 m 6 Y s 398 119 m 5 Y s 395 124 m 6 X s 398 119 m -5 Y s 395 114 m 6 X s 404 130 m -3 X s 401 127 m 6 Y s
 404 130 m 2 X s 406 127 m 6 Y s 404 130 m 5 Y s 401 135 m 6 X s 404 130 m -6 Y s 401 124 m 6 X s 409 134 m -3 X s 406 131 m 6 Y s 409 134 m 3 X s 412 131 m 6 Y s 409 134 m 6 Y s 406 140 m 6 X s 409 134 m -5 Y s 406 129 m 6 X s 414 159 m -2 X s 412
 156 m 6 Y s 414 159 m 3 X s 417 156 m 6 Y s 414 159 m 7 Y s 411 166 m 6 X s 414 159 m -6 Y s 411 153 m 6 X s 420 180 m -3 X s 417 177 m 6 Y s 420 180 m 2 X s 422 177 m 6 Y s 420 180 m 8 Y s 417 188 m 6 X s 420 180 m -7 Y s 417 173 m 6 X s 425 196 m
 -3 X s 422 193 m 6 Y s 425 196 m 3 X s 428 193 m 6 Y s 425 196 m 8 Y s 422 204 m 6 X s 425 196 m -8 Y s 422 188 m 6 X s 430 214 m -2 X s 428 211 m 6 Y s 430 214 m 3 X s 433 211 m 6 Y s 430 214 m 9 Y s 427 223 m 6 X s 430 214 m -8 Y s 427 206 m 6 X s
 436 242 m -3 X s 433 239 m 6 Y s 436 242 m 2 X s 438 239 m 6 Y s 436 242 m 10 Y s 433 252 m 6 X s 436 242 m -9 Y s 433 233 m 6 X s 441 272 m -3 X s 438 269 m 6 Y s 441 272 m 3 X s 444 269 m 6 Y s 441 272 m 10 Y s 438 282 m 6 X s 441 272 m -10 Y s
 438 262 m 6 X s 446 290 m -2 X s 444 287 m 6 Y s 446 290 m 3 X s 449 287 m 6 Y s 446 290 m 11 Y s 443 301 m 6 X s 446 290 m -10 Y s 443 280 m 6 X s 452 343 m -3 X s 449 340 m 6 Y s 452 343 m 2 X s 454 340 m 6 Y s 452 343 m 12 Y s 449 355 m 6 X s 452
 343 m -12 Y s 449 331 m 6 X s 457 378 m -3 X s 454 375 m 6 Y s 457 378 m 3 X s 460 375 m 6 Y s 457 378 m 13 Y s 454 391 m 6 X s 457 378 m -12 Y s 454 366 m 6 X s 462 410 m -2 X s 460 407 m 6 Y s 462 410 m 3 X s 465 407 m 6 Y s 462 410 m 14 Y s 459
 424 m 6 X s 462 410 m -13 Y s 459 397 m 6 X s 468 470 m -3 X s 465 466 m 7 Y s 468 470 m 2 X s 470 466 m 7 Y s 468 470 m 14 Y s 465 484 m 6 X s 468 470 m -15 Y s 465 455 m 6 X s 473 476 m -3 X s 470 473 m 7 Y s 473 476 m 3 X s 476 473 m 7 Y s 473
 476 m 15 Y s 470 491 m 6 X s 473 476 m -14 Y s 470 462 m 6 X s 478 551 m -2 X s 476 548 m 6 Y s 478 551 m 3 X s 481 548 m 6 Y s 478 551 m 16 Y s 475 567 m 6 X s 478 551 m -16 Y s 475 535 m 6 X s 484 557 m -3 X s 481 553 m 7 Y s 484 557 m 2 X s 486
 553 m 7 Y s 484 557 m 16 Y s 481 573 m 6 X s 484 557 m -16 Y s 481 541 m 6 X s 489 538 m -3 X s 486 535 m 6 Y s 489 538 m 3 X s 492 535 m 6 Y s 489 538 m 16 Y s 486 554 m 6 X s 489 538 m -16 Y s 486 522 m 6 X s 494 592 m -2 X s 492 589 m 6 Y s 494
 592 m 3 X s 497 589 m 6 Y s 494 592 m 17 Y s 491 609 m 6 X s 494 592 m -16 Y s 491 576 m 6 X s 500 586 m -3 X s 497 583 m 6 Y s 500 586 m 2 X s 502 583 m 6 Y s 500 586 m 17 Y s 497 603 m 6 X s 500 586 m -16 Y s 497 570 m 6 X s 505 569 m -3 X s 502
 566 m 6 Y s 505 569 m 3 X s 508 566 m 6 Y s 505 569 m 17 Y s 502 586 m 6 X s 505 569 m -16 Y s 502 553 m 6 X s 510 592 m -2 X s 508 589 m 7 Y s 510 592 m 3 X s 513 589 m 7 Y s 510 592 m 17 Y s 507 609 m 6 X s 510 592 m -16 Y s 507 576 m 6 X s 516
 562 m -3 X s 513 559 m 6 Y s 516 562 m 2 X s 518 559 m 6 Y s 516 562 m 16 Y s 513 578 m 6 X s 516 562 m -16 Y s 513 546 m 6 X s 521 545 m -3 X s 518 542 m 6 Y s 521 545 m 3 X s 524 542 m 6 Y s 521 545 m 16 Y s 518 561 m 6 X s 521 545 m -16 Y s 518
 529 m 6 X s 526 550 m -2 X s 524 546 m 7 Y s 526 550 m 3 X s 529 546 m 7 Y s 526 550 m 16 Y s 523 566 m 6 X s 526 550 m -16 Y s 523 534 m 6 X s 532 512 m -3 X s 529 509 m 6 Y s 532 512 m 2 X s 534 509 m 6 Y s 532 512 m 15 Y s 529 527 m 6 X s 532 512
 m -15 Y s 529 497 m 6 X s 537 478 m -3 X s 534 475 m 6 Y s 537 478 m 3 X s 540 475 m 6 Y s 537 478 m 15 Y s 534 493 m 6 X s 537 478 m -15 Y s 534 463 m 6 X s 542 454 m -2 X s 540 451 m 6 Y s 542 454 m 3 X s 545 451 m 6 Y s 542 454 m 14 Y s 539 468 m
 6 X s 542 454 m -14 Y s 539 440 m 6 X s 548 428 m -3 X s 545 425 m 6 Y s 548 428 m 2 X s 550 425 m 6 Y s 548 428 m 14 Y s 545 442 m 6 X s 548 428 m -14 Y s 545 414 m 6 X s 553 380 m -3 X s 550 377 m 6 Y s 553 380 m 3 X s 556 377 m 6 Y s 553 380 m 13
 Y s 550 393 m 6 X s 553 380 m -12 Y s 550 368 m 6 X s 558 365 m -2 X s 556 362 m 6 Y s 558 365 m 3 X s 561 362 m 6 Y s 558 365 m 13 Y s 555 378 m 6 X s 558 365 m -12 Y s 555 353 m 6 X s 564 313 m -3 X s 561 310 m 6 Y s 564 313 m 2 X s 566 310 m 6 Y
 s 564 313 m 11 Y s 561 324 m 6 X s 564 313 m -11 Y s 561 302 m 6 X s 569 271 m -3 X s 566 268 m 6 Y s 569 271 m 3 X s 572 268 m 6 Y s 569 271 m 11 Y s 566 282 m 6 X s 569 271 m -10 Y s 566 261 m 6 X s 574 247 m -2 X s 572 244 m 6 Y s 574 247 m 3 X s
 577 244 m 6 Y s 574 247 m 10 Y s 571 257 m 6 X s 574 247 m -10 Y s 571 237 m 6 X s 580 243 m -3 X s 577 240 m 6 Y s 580 243 m 2 X s 582 240 m 6 Y s 580 243 m 10 Y s 577 253 m 6 X s 580 243 m -9 Y s 577 234 m 6 X s 585 204 m -3 X s 582 201 m 6 Y s
 585 204 m 3 X s 588 201 m 6 Y s 585 204 m 9 Y s 582 213 m 6 X s 585 204 m -8 Y s 582 196 m 6 X s 590 181 m -2 X s 588 178 m 6 Y s 590 181 m 3 X s 593 178 m 6 Y s 590 181 m 8 Y s 587 189 m 6 X s 590 181 m -7 Y s 587 174 m 6 X s 596 155 m -3 X s 593
 152 m 6 Y s 596 155 m 2 X s 598 152 m 6 Y s 596 155 m 7 Y s 593 162 m 6 X s 596 155 m -6 Y s 593 149 m 6 X s 601 145 m -3 X s 598 142 m 6 Y s 601 145 m 3 X s 604 142 m 6 Y s 601 145 m 6 Y s 598 151 m 6 X s 601 145 m -6 Y s 598 139 m 6 X s 606 116 m
 -2 X s 604 113 m 6 Y s 606 116 m 3 X s 609 113 m 6 Y s 606 116 m 5 Y s 603 121 m 6 X s 606 116 m -4 Y s 603 112 m 6 X s 612 118 m -3 X s 609 115 m 6 Y s 612 118 m 2 X s 614 115 m 6 Y s 612 118 m 5 Y s 609 123 m 6 X s 612 118 m -5 Y s 609 113 m 6 X s
 617 112 m -3 X s 614 109 m 6 Y s 617 112 m 3 X s 620 109 m 6 Y s 617 112 m 5 Y s 614 117 m 6 X s 617 112 m -4 Y s 614 108 m 6 X s 622 100 m -2 X s 620 97 m 6 Y s 622 100 m 3 X s 625 97 m 6 Y s 622 100 m 4 Y s 619 104 m 6 X s 622 100 m -3 Y s 619 97
 m 6 X s 628 96 m -3 X s 625 93 m 6 Y s 628 96 m 2 X s 630 93 m 6 Y s 628 96 m 4 Y s 625 100 m 6 X s 628 96 m -3 Y s 625 93 m 6 X s 633 90 m -3 X s 630 87 m 6 Y s 633 90 m 3 X s 636 87 m 6 Y s 633 90 m 3 Y s 630 93 m 6 X s 633 90 m -3 Y s 630 87 m 6
 X s 638 87 m -2 X s 636 84 m 6 Y s 638 87 m 3 X s 641 84 m 6 Y s 638 87 m 3 Y s 635 90 m 6 X s 638 87 m -2 Y s 635 85 m 6 X s 644 85 m -3 X s 641 82 m 6 Y s 644 85 m 2 X s 646 82 m 6 Y s 644 85 m 3 Y s 640 88 m 7 X s 644 85 m -2 Y s 640 83 m 7 X s
 649 81 m -3 X s 646 78 m 6 Y s 649 81 m 3 X s 652 78 m 6 Y s 649 81 m 2 Y s 646 83 m 6 X s 649 81 m -1 Y s 646 80 m 6 X s 654 84 m -2 X s 652 81 m 6 Y s 654 84 m 3 X s 657 81 m 6 Y s 654 84 m 3 Y s 651 87 m 6 X s 654 84 m -2 Y s 651 82 m 6 X s 660
 79 m -3 X s 657 77 m 5 Y s 660 79 m 2 X s 662 77 m 5 Y s 660 79 m 2 Y s 656 81 m 6 X s 660 79 m -1 Y s 656 78 m 6 X s /w 12 def /w2 {w 2 div} def /w3 {w 3 div} def 132 77 137 77 143 77 148 77 153 77 159 77 164 77 169 77 175 77 180 77 185 77 191 77
 196 77 201 77 207 77 212 77 217 77 223 77 228 77 233 77 239 77 244 77 249 77 254 77 260 77 265 77 270 77 276 77 281 77 286 77 292 77 297 77 302 77 308 77 313 77 318 77 324 78 329 77 334 79 340 79 345 81 350 82 356 80 361 85 366 87 372 92 377 98 382
 96 388 101 393 111 398 119 404 130 409 134 414 159 420 180 425 196 430 214 436 242 441 272 446 290 452 343 457 378 462 410 468 470 473 476 478 551 484 557 489 538 494 592 500 586 505 569 510 592 516 562 521 545 526 550 532 512 537 478 542 454 548
 428 553 380 558 365 564 313 569 271 574 247 580 243 585 204 590 181 596 155 601 145 606 116 612 118 617 112 622 100 628 96 633 90 638 87 644 85 649 81 654 84 660 79 100 { m20} R 0 0 1 c 9 lw black 0 0 1 c 129 77 m cl s 129 77 m 187 X 5 1 d 11 X 5 1
 d 5 X 6 1 d 5 1 d 5 1 d 6 2 d 5 3 d 5 3 d 6 4 d 5 5 d 5 6 d 6 8 d 5 10 d 5 12 d 6 14 d 5 17 d 5 20 d 6 23 d 5 25 d 5 29 d 6 30 d 5 33 d 5 35 d 6 35 d 5 36 d 5 34 d 6 32 d 5 29 d 3 13 d 2 11 d 3 11 d 3 9 d 2 7 d 3 6 d 3 4 d 2 3 d 3 1 d 3 -1 d 2 -2 d
 3 -4 d 3 -6 d 2 -7 d 3 -9 d 3 -10 d 2 -12 d 3 -12 d 5 -29 d 6 -32 d 5 -34 d 5 -35 d 6 -35 d 5 -35 d 5 -33 d 6 -31 d 5 -29 d 5 -26 d 6 -23 d 5 -19 d 5 -18 d 6 -14 d 5 -12 d 5 -10 d 6 -8 d 5 -7 d 5 -5 d 6 -4 d 5 -3 d 5 -3 d 6 -2 d 5 -1 d 5 -1 d s
 black 3 lw 129 77 m 533 X s 129 93 m -16 Y s 148 85 m -8 Y s 166 85 m -8 Y s 184 85 m -8 Y s 203 85 m -8 Y s 221 93 m -16 Y s 240 85 m -8 Y s 258 85 m -8 Y s 276 85 m -8 Y s 295 85 m -8 Y s 313 93 m -16 Y s 331 85 m -8 Y s 350 85 m -8 Y s 368 85 m
 -8 Y s 387 85 m -8 Y s 405 93 m -16 Y s 423 85 m -8 Y s 442 85 m -8 Y s 460 85 m -8 Y s 478 85 m -8 Y s 497 93 m -16 Y s 515 85 m -8 Y s 534 85 m -8 Y s 552 85 m -8 Y s 570 85 m -8 Y s 589 93 m -16 Y s 589 93 m -16 Y s 607 85 m -8 Y s 625 85 m -8 Y
 s 644 85 m -8 Y s 129 77 m 559 Y s 146 77 m -17 X s 138 104 m -9 X s 138 131 m -9 X s 138 158 m -9 X s 146 184 m -17 X s 138 211 m -9 X s 138 238 m -9 X s 138 265 m -9 X s 146 292 m -17 X s 138 319 m -9 X s 138 345 m -9 X s 138 372 m -9 X s 146 399
 m -17 X s 138 426 m -9 X s 138 453 m -9 X s 138 480 m -9 X s 146 507 m -17 X s 138 533 m -9 X s 138 560 m -9 X s 138 587 m -9 X s 146 614 m -17 X s 146 614 m -17 X s 1 1 1 c black
 gsave  710 699 23 7 C 328.501 670.626 t 0 r /Helvetica findfont 34.8619 sf 0 0 m (Signal) show NC gr  1 1 1 c 710 699 779 7 bf black 1 1 1 c 533 559 885 77 bf black 533 559 885 77 bl 885 77 m 533 X s 885 93 m -16 Y s 904 85 m -8 Y s 922 85 m -8 Y s
 940 85 m -8 Y s 959 85 m -8 Y s 977 93 m -16 Y s 995 85 m -8 Y s 1014 85 m -8 Y s 1032 85 m -8 Y s 1051 85 m -8 Y s 1069 93 m -16 Y s 1087 85 m -8 Y s 1106 85 m -8 Y s 1124 85 m -8 Y s 1142 85 m -8 Y s 1161 93 m -16 Y s 1179 85 m -8 Y s 1198 85 m -8
 Y s 1216 85 m -8 Y s 1234 85 m -8 Y s 1253 93 m -16 Y s 1271 85 m -8 Y s 1289 85 m -8 Y s 1308 85 m -8 Y s 1326 85 m -8 Y s 1345 93 m -16 Y s 1345 93 m -16 Y s 1363 85 m -8 Y s 1381 85 m -8 Y s 1400 85 m -8 Y s
 gsave  710 699 779 7 C 861.369 54.4979 t 0 r /Helvetica findfont 22.736 sf 0 0 m (5.26) show NC gr 
 gsave  710 699 779 7 C 947.657 54.4979 t 0 r /Helvetica findfont 22.736 sf 0 0 m (5.265) show NC gr 
 gsave  710 699 779 7 C 1046.06 54.4979 t 0 r /Helvetica findfont 22.736 sf 0 0 m (5.27) show NC gr 
 gsave  710 699 779 7 C 1130.83 54.4979 t 0 r /Helvetica findfont 22.736 sf 0 0 m (5.275) show NC gr 
 gsave  710 699 779 7 C 1229.23 54.4979 t 0 r /Helvetica findfont 22.736 sf 0 0 m (5.28) show NC gr 
 gsave  710 699 779 7 C 1315.52 54.4979 t 0 r /Helvetica findfont 22.736 sf 0 0 m (5.285) show NC gr 
 gsave  710 699 779 7 C 1360.93 31.7904 t 0 r /Helvetica findfont 22.736 sf 0 0 m (m_bc) show NC gr  885 77 m 559 Y s 902 77 m -17 X s 894 89 m -9 X s 894 101 m -9 X s 894 113 m -9 X s 894 124 m -9 X s 902 136 m -17 X s 894 148 m -9 X s 894 160 m -9
 X s 894 172 m -9 X s 894 184 m -9 X s 902 195 m -17 X s 894 207 m -9 X s 894 219 m -9 X s 894 231 m -9 X s 894 243 m -9 X s 902 255 m -17 X s 894 266 m -9 X s 894 278 m -9 X s 894 290 m -9 X s 894 302 m -9 X s 902 314 m -17 X s 894 326 m -9 X s 894
 337 m -9 X s 894 349 m -9 X s 894 361 m -9 X s 902 373 m -17 X s 894 385 m -9 X s 894 397 m -9 X s 894 408 m -9 X s 894 420 m -9 X s 902 432 m -17 X s 894 444 m -9 X s 894 456 m -9 X s 894 468 m -9 X s 894 479 m -9 X s 902 491 m -17 X s 894 503 m -9
 X s 894 515 m -9 X s 894 527 m -9 X s 894 538 m -9 X s 902 550 m -17 X s 894 562 m -9 X s 894 574 m -9 X s 894 586 m -9 X s 894 598 m -9 X s 902 609 m -17 X s 902 609 m -17 X s 894 621 m -9 X s 894 633 m -9 X s
 gsave  710 699 779 7 C 868.938 68.1223 t 0 r /Helvetica findfont 22.736 sf 0 0 m (0) show NC gr 
 gsave  710 699 779 7 C 855.314 127.162 t 0 r /Helvetica findfont 22.736 sf 0 0 m (10) show NC gr 
 gsave  710 699 779 7 C 855.314 187.715 t 0 r /Helvetica findfont 22.736 sf 0 0 m (20) show NC gr 
 gsave  710 699 779 7 C 855.314 246.754 t 0 r /Helvetica findfont 22.736 sf 0 0 m (30) show NC gr 
 gsave  710 699 779 7 C 855.314 305.794 t 0 r /Helvetica findfont 22.736 sf 0 0 m (40) show NC gr 
 gsave  710 699 779 7 C 855.314 364.833 t 0 r /Helvetica findfont 22.736 sf 0 0 m (50) show NC gr 
 gsave  710 699 779 7 C 855.314 423.872 t 0 r /Helvetica findfont 22.736 sf 0 0 m (60) show NC gr 
 gsave  710 699 779 7 C 855.314 482.912 t 0 r /Helvetica findfont 22.736 sf 0 0 m (70) show NC gr 
 gsave  710 699 779 7 C 855.314 541.951 t 0 r /Helvetica findfont 22.736 sf 0 0 m (80) show NC gr 
 gsave  710 699 779 7 C 855.314 600.99 t 0 r /Helvetica findfont 22.736 sf 0 0 m (90) show NC gr 
 gsave  710 699 779 7 C 828.065 440.524 t 90 r /Helvetica findfont 22.736 sf 0 0 m (Events / \( 0.00029 \)) show NC gr  1 1 1 c black
 gsave  710 699 779 7 C 1041.51 672.14 t 0 r /Helvetica findfont 34.8619 sf 0 0 m (Background) show NC gr  888 142 m -3 X s 885 139 m 6 Y s 888 142 m 2 X s 890 139 m 6 Y s 888 142 m 26 Y s 885 168 m 6 X s 888 142 m -19 Y s 885 123 m 6 X s 893 124 m
 -3 X s 890 121 m 6 Y s 893 124 m 3 X s 896 121 m 6 Y s 893 124 m 24 Y s 890 148 m 6 X s 893 124 m -16 Y s 890 108 m 6 X s 898 113 m -2 X s 896 109 m 7 Y s 898 113 m 3 X s 901 109 m 7 Y s 898 113 m 21 Y s 895 134 m 7 X s 898 113 m -15 Y s 895 98 m 7
 X s 904 130 m -3 X s 901 127 m 6 Y s 904 130 m 2 X s 906 127 m 6 Y s 904 130 m 25 Y s 901 155 m 6 X s 904 130 m -17 Y s 901 113 m 6 X s 909 101 m -3 X s 906 98 m 6 Y s 909 101 m 3 X s 912 98 m 6 Y s 909 101 m 18 Y s 906 119 m 6 X s 909 101 m -12 Y s
 906 89 m 6 X s 914 130 m -2 X s 912 127 m 6 Y s 914 130 m 3 X s 917 127 m 6 Y s 914 130 m 25 Y s 911 155 m 7 X s 914 130 m -17 Y s 911 113 m 7 X s 920 124 m -3 X s 917 121 m 6 Y s 920 124 m 2 X s 922 121 m 6 Y s 920 124 m 24 Y s 917 148 m 6 X s 920
 124 m -16 Y s 917 108 m 6 X s 925 107 m -3 X s 922 104 m 6 Y s 925 107 m 3 X s 928 104 m 6 Y s 925 107 m 20 Y s 922 127 m 6 X s 925 107 m -13 Y s 922 94 m 6 X s 930 130 m -2 X s 928 127 m 6 Y s 930 130 m 3 X s 933 127 m 6 Y s 930 130 m 25 Y s 927
 155 m 6 X s 930 130 m -17 Y s 927 113 m 6 X s 936 118 m -3 X s 933 115 m 6 Y s 936 118 m 2 X s 938 115 m 6 Y s 936 118 m 23 Y s 933 141 m 6 X s 936 118 m -15 Y s 933 103 m 6 X s 941 118 m -3 X s 938 115 m 6 Y s 941 118 m 3 X s 944 115 m 6 Y s 941
 118 m 23 Y s 938 141 m 6 X s 941 118 m -15 Y s 938 103 m 6 X s 946 130 m -2 X s 944 127 m 6 Y s 946 130 m 3 X s 949 127 m 6 Y s 946 130 m 25 Y s 943 155 m 6 X s 946 130 m -17 Y s 943 113 m 6 X s 952 118 m -3 X s 949 115 m 6 Y s 952 118 m 2 X s 954
 115 m 6 Y s 952 118 m 23 Y s 949 141 m 6 X s 952 118 m -15 Y s 949 103 m 6 X s 957 95 m -3 X s 954 92 m 6 Y s 957 95 m 3 X s 960 92 m 6 Y s 957 95 m 17 Y s 954 112 m 6 X s 957 95 m -10 Y s 954 85 m 6 X s 962 107 m -2 X s 960 104 m 6 Y s 962 107 m 3
 X s 965 104 m 6 Y s 962 107 m 20 Y s 959 127 m 6 X s 962 107 m -13 Y s 959 94 m 6 X s 968 142 m -3 X s 965 139 m 6 Y s 968 142 m 2 X s 970 139 m 6 Y s 968 142 m 26 Y s 965 168 m 6 X s 968 142 m -19 Y s 965 123 m 6 X s 973 130 m -3 X s 970 127 m 6 Y
 s 973 130 m 3 X s 976 127 m 6 Y s 973 130 m 25 Y s 970 155 m 6 X s 973 130 m -17 Y s 970 113 m 6 X s 978 130 m -2 X s 976 127 m 6 Y s 978 130 m 3 X s 981 127 m 6 Y s 978 130 m 25 Y s 975 155 m 6 X s 978 130 m -17 Y s 975 113 m 6 X s 984 113 m -3 X s
 981 109 m 7 Y s 984 113 m 2 X s 986 109 m 7 Y s 984 113 m 21 Y s 981 134 m 6 X s 984 113 m -15 Y s 981 98 m 6 X s 989 113 m -3 X s 986 109 m 7 Y s 989 113 m 3 X s 992 109 m 7 Y s 989 113 m 21 Y s 986 134 m 6 X s 989 113 m -15 Y s 986 98 m 6 X s 994
 113 m -2 X s 992 109 m 7 Y s 994 113 m 3 X s 997 109 m 7 Y s 994 113 m 21 Y s 991 134 m 6 X s 994 113 m -15 Y s 991 98 m 6 X s 1000 142 m -3 X s 997 139 m 6 Y s 1000 142 m 2 X s 1002 139 m 6 Y s 1000 142 m 26 Y s 997 168 m 6 X s 1000 142 m -19 Y s
 997 123 m 6 X s 1005 113 m -3 X s 1002 109 m 7 Y s 1005 113 m 3 X s 1008 109 m 7 Y s 1005 113 m 21 Y s 1002 134 m 6 X s 1005 113 m -15 Y s 1002 98 m 6 X s 1010 154 m -2 X s 1008 151 m 6 Y s 1010 154 m 3 X s 1013 151 m 6 Y s 1010 154 m 28 Y s 1007
 182 m 6 X s 1010 154 m -21 Y s 1007 133 m 6 X s 1016 130 m -3 X s 1013 127 m 6 Y s 1016 130 m 2 X s 1018 127 m 6 Y s 1016 130 m 25 Y s 1013 155 m 6 X s 1016 130 m -17 Y s 1013 113 m 6 X s 1021 113 m -3 X s 1018 109 m 7 Y s 1021 113 m 3 X s 1024 109
 m 7 Y s 1021 113 m 21 Y s 1018 134 m 6 X s 1021 113 m -15 Y s 1018 98 m 6 X s 1026 130 m -2 X s 1024 127 m 6 Y s 1026 130 m 3 X s 1029 127 m 6 Y s 1026 130 m 25 Y s 1023 155 m 6 X s 1026 130 m -17 Y s 1023 113 m 6 X s 1032 113 m -3 X s 1029 109 m 7
 Y s 1032 113 m 2 X s 1034 109 m 7 Y s 1032 113 m 21 Y s 1029 134 m 6 X s 1032 113 m -15 Y s 1029 98 m 6 X s 1037 113 m -3 X s 1034 109 m 7 Y s 1037 113 m 3 X s 1040 109 m 7 Y s 1037 113 m 21 Y s 1034 134 m 6 X s 1037 113 m -15 Y s 1034 98 m 6 X s
 1042 101 m -2 X s 1040 98 m 6 Y s 1042 101 m 3 X s 1045 98 m 6 Y s 1042 101 m 18 Y s 1039 119 m 6 X s 1042 101 m -12 Y s 1039 89 m 6 X s 1048 136 m -3 X s 1045 133 m 6 Y s 1048 136 m 2 X s 1050 133 m 6 Y s 1048 136 m 25 Y s 1045 161 m 6 X s 1048 136
 m -18 Y s 1045 118 m 6 X s 1053 154 m -3 X s 1050 151 m 6 Y s 1053 154 m 3 X s 1056 151 m 6 Y s 1053 154 m 28 Y s 1050 182 m 6 X s 1053 154 m -21 Y s 1050 133 m 6 X s 1058 113 m -2 X s 1056 109 m 7 Y s 1058 113 m 3 X s 1061 109 m 7 Y s 1058 113 m 21
 Y s 1055 134 m 6 X s 1058 113 m -15 Y s 1055 98 m 6 X s 1064 130 m -3 X s 1061 127 m 6 Y s 1064 130 m 2 X s 1066 127 m 6 Y s 1064 130 m 25 Y s 1061 155 m 6 X s 1064 130 m -17 Y s 1061 113 m 6 X s 1069 136 m -3 X s 1066 133 m 6 Y s 1069 136 m 3 X s
 1072 133 m 6 Y s 1069 136 m 25 Y s 1066 161 m 6 X s 1069 136 m -18 Y s 1066 118 m 6 X s 1074 118 m -2 X s 1072 115 m 6 Y s 1074 118 m 3 X s 1077 115 m 6 Y s 1074 118 m 23 Y s 1071 141 m 6 X s 1074 118 m -15 Y s 1071 103 m 6 X s 1080 130 m -3 X s
 1077 127 m 6 Y s 1080 130 m 2 X s 1082 127 m 6 Y s 1080 130 m 25 Y s 1077 155 m 6 X s 1080 130 m -17 Y s 1077 113 m 6 X s 1085 142 m -3 X s 1082 139 m 6 Y s 1085 142 m 3 X s 1088 139 m 6 Y s 1085 142 m 26 Y s 1082 168 m 6 X s 1085 142 m -19 Y s 1082
 123 m 6 X s 1090 113 m -2 X s 1088 109 m 7 Y s 1090 113 m 3 X s 1093 109 m 7 Y s 1090 113 m 21 Y s 1087 134 m 6 X s 1090 113 m -15 Y s 1087 98 m 6 X s 1096 142 m -3 X s 1093 139 m 6 Y s 1096 142 m 2 X s 1098 139 m 6 Y s 1096 142 m 26 Y s 1093 168 m
 6 X s 1096 142 m -19 Y s 1093 123 m 6 X s 1101 113 m -3 X s 1098 109 m 7 Y s 1101 113 m 3 X s 1104 109 m 7 Y s 1101 113 m 21 Y s 1098 134 m 6 X s 1101 113 m -15 Y s 1098 98 m 6 X s 1106 113 m -2 X s 1104 109 m 7 Y s 1106 113 m 3 X s 1109 109 m 7 Y s
 1106 113 m 21 Y s 1103 134 m 6 X s 1106 113 m -15 Y s 1103 98 m 6 X s 1112 130 m -3 X s 1109 127 m 6 Y s 1112 130 m 2 X s 1114 127 m 6 Y s 1112 130 m 25 Y s 1109 155 m 6 X s 1112 130 m -17 Y s 1109 113 m 6 X s 1117 160 m -3 X s 1114 157 m 6 Y s 1117
 160 m 3 X s 1120 157 m 6 Y s 1117 160 m 28 Y s 1114 188 m 6 X s 1117 160 m -22 Y s 1114 138 m 6 X s 1122 148 m -2 X s 1120 145 m 6 Y s 1122 148 m 3 X s 1125 145 m 6 Y s 1122 148 m 27 Y s 1119 175 m 6 X s 1122 148 m -20 Y s 1119 128 m 6 X s 1128 142
 m -3 X s 1125 139 m 6 Y s 1128 142 m 2 X s 1130 139 m 6 Y s 1128 142 m 26 Y s 1125 168 m 6 X s 1128 142 m -19 Y s 1125 123 m 6 X s 1133 166 m -3 X s 1130 163 m 6 Y s 1133 166 m 3 X s 1136 163 m 6 Y s 1133 166 m 29 Y s 1130 195 m 6 X s 1133 166 m -23
 Y s 1130 143 m 6 X s 1138 142 m -2 X s 1136 139 m 6 Y s 1138 142 m 3 X s 1141 139 m 6 Y s 1138 142 m 26 Y s 1135 168 m 6 X s 1138 142 m -19 Y s 1135 123 m 6 X s 1144 172 m -3 X s 1141 169 m 6 Y s 1144 172 m 2 X s 1146 169 m 6 Y s 1144 172 m 30 Y s
 1141 202 m 6 X s 1144 172 m -24 Y s 1141 148 m 6 X s 1149 178 m -3 X s 1146 175 m 6 Y s 1149 178 m 3 X s 1152 175 m 6 Y s 1149 178 m 30 Y s 1146 208 m 6 X s 1149 178 m -25 Y s 1146 153 m 6 X s 1154 148 m -2 X s 1152 145 m 6 Y s 1154 148 m 3 X s 1157
 145 m 6 Y s 1154 148 m 27 Y s 1151 175 m 6 X s 1154 148 m -20 Y s 1151 128 m 6 X s 1160 184 m -3 X s 1157 180 m 7 Y s 1160 184 m 2 X s 1162 180 m 7 Y s 1160 184 m 31 Y s 1157 215 m 6 X s 1160 184 m -25 Y s 1157 159 m 6 X s 1165 154 m -3 X s 1162 151
 m 6 Y s 1165 154 m 3 X s 1168 151 m 6 Y s 1165 154 m 28 Y s 1162 182 m 6 X s 1165 154 m -21 Y s 1162 133 m 6 X s 1170 184 m -2 X s 1168 180 m 7 Y s 1170 184 m 3 X s 1173 180 m 7 Y s 1170 184 m 31 Y s 1167 215 m 6 X s 1170 184 m -25 Y s 1167 159 m 6
 X s 1176 225 m -3 X s 1173 222 m 6 Y s 1176 225 m 2 X s 1178 222 m 6 Y s 1176 225 m 36 Y s 1173 261 m 6 X s 1176 225 m -29 Y s 1173 196 m 6 X s 1181 255 m -3 X s 1178 251 m 7 Y s 1181 255 m 3 X s 1184 251 m 7 Y s 1181 255 m 38 Y s 1178 293 m 6 X s
 1181 255 m -33 Y s 1178 222 m 6 X s 1186 326 m -2 X s 1184 322 m 7 Y s 1186 326 m 3 X s 1189 322 m 7 Y s 1186 326 m 44 Y s 1183 370 m 6 X s 1186 326 m -39 Y s 1183 287 m 6 X s 1192 231 m -3 X s 1189 228 m 6 Y s 1192 231 m 2 X s 1194 228 m 6 Y s 1192
 231 m 36 Y s 1189 267 m 6 X s 1192 231 m -30 Y s 1189 201 m 6 X s 1197 243 m -3 X s 1194 240 m 6 Y s 1197 243 m 3 X s 1200 240 m 6 Y s 1197 243 m 37 Y s 1194 280 m 6 X s 1197 243 m -31 Y s 1194 212 m 6 X s 1202 278 m -2 X s 1200 275 m 6 Y s 1202 278
 m 3 X s 1205 275 m 6 Y s 1202 278 m 41 Y s 1199 319 m 6 X s 1202 278 m -34 Y s 1199 244 m 6 X s 1208 331 m -3 X s 1205 328 m 6 Y s 1208 331 m 2 X s 1210 328 m 6 Y s 1208 331 m 45 Y s 1205 376 m 6 X s 1208 331 m -38 Y s 1205 293 m 6 X s 1213 302 m -3
 X s 1210 299 m 6 Y s 1213 302 m 3 X s 1216 299 m 6 Y s 1213 302 m 43 Y s 1210 345 m 6 X s 1213 302 m -36 Y s 1210 266 m 6 X s 1218 367 m -2 X s 1216 364 m 6 Y s 1218 367 m 3 X s 1221 364 m 6 Y s 1218 367 m 48 Y s 1215 415 m 6 X s 1218 367 m -41 Y s
 1215 326 m 6 X s 1224 361 m -3 X s 1221 358 m 6 Y s 1224 361 m 2 X s 1226 358 m 6 Y s 1224 361 m 47 Y s 1221 408 m 6 X s 1224 361 m -41 Y s 1221 320 m 6 X s 1229 408 m -3 X s 1226 405 m 6 Y s 1229 408 m 3 X s 1232 405 m 6 Y s 1229 408 m 51 Y s 1226
 459 m 6 X s 1229 408 m -44 Y s 1226 364 m 6 X s 1234 426 m -2 X s 1232 423 m 6 Y s 1234 426 m 3 X s 1237 423 m 6 Y s 1234 426 m 52 Y s 1231 478 m 6 X s 1234 426 m -45 Y s 1231 381 m 6 X s 1240 473 m -3 X s 1237 470 m 6 Y s 1240 473 m 2 X s 1242 470
 m 6 Y s 1240 473 m 55 Y s 1237 528 m 6 X s 1240 473 m -48 Y s 1237 425 m 6 X s 1245 468 m -3 X s 1242 464 m 7 Y s 1245 468 m 3 X s 1248 464 m 7 Y s 1245 468 m 54 Y s 1242 522 m 6 X s 1245 468 m -48 Y s 1242 420 m 6 X s 1250 468 m -2 X s 1248 464 m 7
 Y s 1250 468 m 3 X s 1253 464 m 7 Y s 1250 468 m 54 Y s 1247 522 m 6 X s 1250 468 m -48 Y s 1247 420 m 6 X s 1256 456 m -3 X s 1253 453 m 6 Y s 1256 456 m 2 X s 1258 453 m 6 Y s 1256 456 m 53 Y s 1253 509 m 6 X s 1256 456 m -48 Y s 1253 408 m 6 X s
 1261 391 m -3 X s 1258 388 m 6 Y s 1261 391 m 3 X s 1264 388 m 6 Y s 1261 391 m 49 Y s 1258 440 m 6 X s 1261 391 m -43 Y s 1258 348 m 6 X s 1266 550 m -2 X s 1264 547 m 6 Y s 1266 550 m 3 X s 1269 547 m 6 Y s 1266 550 m 59 Y s 1263 609 m 6 X s 1266
 550 m -52 Y s 1263 498 m 6 X s 1272 491 m -3 X s 1269 488 m 6 Y s 1272 491 m 2 X s 1274 488 m 6 Y s 1272 491 m 56 Y s 1268 547 m 7 X s 1272 491 m -49 Y s 1268 442 m 7 X s 1277 420 m -3 X s 1274 417 m 6 Y s 1277 420 m 3 X s 1280 417 m 6 Y s 1277 420
 m 51 Y s 1274 471 m 6 X s 1277 420 m -45 Y s 1274 375 m 6 X s 1282 479 m -2 X s 1280 476 m 6 Y s 1282 479 m 3 X s 1285 476 m 6 Y s 1282 479 m 55 Y s 1279 534 m 6 X s 1282 479 m -48 Y s 1279 431 m 6 X s 1288 473 m -3 X s 1285 470 m 6 Y s 1288 473 m 2
 X s 1290 470 m 6 Y s 1288 473 m 55 Y s 1284 528 m 7 X s 1288 473 m -48 Y s 1284 425 m 7 X s 1293 373 m -3 X s 1290 370 m 6 Y s 1293 373 m 3 X s 1296 370 m 6 Y s 1293 373 m 48 Y s 1290 421 m 6 X s 1293 373 m -42 Y s 1290 331 m 6 X s 1298 408 m -2 X s
 1296 405 m 6 Y s 1298 408 m 3 X s 1301 405 m 6 Y s 1298 408 m 51 Y s 1295 459 m 6 X s 1298 408 m -44 Y s 1295 364 m 6 X s 1304 408 m -3 X s 1301 405 m 6 Y s 1304 408 m 2 X s 1306 405 m 6 Y s 1304 408 m 51 Y s 1300 459 m 7 X s 1304 408 m -44 Y s 1300
 364 m 7 X s 1309 326 m -3 X s 1306 322 m 7 Y s 1309 326 m 2 X s 1311 322 m 7 Y s 1309 326 m 44 Y s 1306 370 m 6 X s 1309 326 m -39 Y s 1306 287 m 6 X s 1314 296 m -3 X s 1311 293 m 6 Y s 1314 296 m 3 X s 1317 293 m 6 Y s 1314 296 m 42 Y s 1311 338 m
 6 X s 1314 296 m -36 Y s 1311 260 m 6 X s 1319 314 m -2 X s 1317 311 m 6 Y s 1319 314 m 3 X s 1322 311 m 6 Y s 1319 314 m 43 Y s 1316 357 m 7 X s 1319 314 m -38 Y s 1316 276 m 7 X s 1325 231 m -3 X s 1322 228 m 6 Y s 1325 231 m 2 X s 1327 228 m 6 Y
 s 1325 231 m 36 Y s 1322 267 m 6 X s 1325 231 m -30 Y s 1322 201 m 6 X s 1330 189 m -3 X s 1327 186 m 6 Y s 1330 189 m 3 X s 1333 186 m 6 Y s 1330 189 m 33 Y s 1327 222 m 6 X s 1330 189 m -25 Y s 1327 164 m 6 X s 1335 266 m -2 X s 1333 263 m 6 Y s
 1335 266 m 3 X s 1338 263 m 6 Y s 1335 266 m 40 Y s 1332 306 m 7 X s 1335 266 m -33 Y s 1332 233 m 7 X s 1341 166 m -3 X s 1338 163 m 6 Y s 1341 166 m 2 X s 1343 163 m 6 Y s 1341 166 m 29 Y s 1338 195 m 6 X s 1341 166 m -23 Y s 1338 143 m 6 X s 1346
 195 m -3 X s 1343 192 m 6 Y s 1346 195 m 3 X s 1349 192 m 6 Y s 1346 195 m 33 Y s 1343 228 m 6 X s 1346 195 m -26 Y s 1343 169 m 6 X s 1351 184 m -2 X s 1349 180 m 7 Y s 1351 184 m 3 X s 1354 180 m 7 Y s 1351 184 m 31 Y s 1348 215 m 6 X s 1351 184 m
 -25 Y s 1348 159 m 6 X s 1357 154 m -3 X s 1354 151 m 6 Y s 1357 154 m 2 X s 1359 151 m 6 Y s 1357 154 m 28 Y s 1354 182 m 6 X s 1357 154 m -21 Y s 1354 133 m 6 X s 1362 160 m -3 X s 1359 157 m 6 Y s 1362 160 m 3 X s 1365 157 m 6 Y s 1362 160 m 28 Y
 s 1359 188 m 6 X s 1362 160 m -22 Y s 1359 138 m 6 X s 1367 136 m -2 X s 1365 133 m 6 Y s 1367 136 m 3 X s 1370 133 m 6 Y s 1367 136 m 25 Y s 1364 161 m 6 X s 1367 136 m -18 Y s 1364 118 m 6 X s 1373 124 m -3 X s 1370 121 m 6 Y s 1373 124 m 2 X s
 1375 121 m 6 Y s 1373 124 m 24 Y s 1370 148 m 6 X s 1373 124 m -16 Y s 1370 108 m 6 X s 1378 118 m -3 X s 1375 115 m 6 Y s 1378 118 m 3 X s 1381 115 m 6 Y s 1378 118 m 23 Y s 1375 141 m 6 X s 1378 118 m -15 Y s 1375 103 m 6 X s 1383 113 m -2 X s
 1381 109 m 7 Y s 1383 113 m 3 X s 1386 109 m 7 Y s 1383 113 m 21 Y s 1380 134 m 6 X s 1383 113 m -15 Y s 1380 98 m 6 X s 1389 118 m -3 X s 1386 115 m 6 Y s 1389 118 m 2 X s 1391 115 m 6 Y s 1389 118 m 23 Y s 1386 141 m 6 X s 1389 118 m -15 Y s 1386
 103 m 6 X s 1394 101 m -3 X s 1391 98 m 6 Y s 1394 101 m 3 X s 1397 98 m 6 Y s 1394 101 m 18 Y s 1391 119 m 6 X s 1394 101 m -12 Y s 1391 89 m 6 X s 1399 101 m -2 X s 1397 98 m 6 Y s 1399 101 m 3 X s 1402 98 m 6 Y s 1399 101 m 18 Y s 1396 119 m 6 X
 s 1399 101 m -12 Y s 1396 89 m 6 X s 1405 95 m -3 X s 1402 92 m 6 Y s 1405 95 m 2 X s 1407 92 m 6 Y s 1405 95 m 17 Y s 1402 112 m 6 X s 1405 95 m -10 Y s 1402 85 m 6 X s 1410 89 m -3 X s 1407 86 m 6 Y s 1410 89 m 3 X s 1413 86 m 6 Y s 1410 89 m 15 Y
 s 1407 104 m 6 X s 1410 89 m -8 Y s 1407 81 m 6 X s 1415 101 m -2 X s 1413 98 m 6 Y s 1415 101 m 3 X s 1418 98 m 6 Y s 1415 101 m 18 Y s 1412 119 m 6 X s 1415 101 m -12 Y s 1412 89 m 6 X s 888 142 893 124 898 113 904 130 909 101 914 130 920 124 925
 107 930 130 936 118 941 118 946 130 952 118 957 95 962 107 968 142 973 130 978 130 984 113 989 113 994 113 1000 142 1005 113 1010 154 1016 130 1021 113 1026 130 1032 113 1037 113 1042 101 1048 136 1053 154 1058 113 1064 130 1069 136 1074 118 1080
 130 1085 142 1090 113 1096 142 1101 113 1106 113 1112 130 1117 160 1122 148 1128 142 1133 166 1138 142 1144 172 1149 178 1154 148 1160 184 1165 154 1170 184 1176 225 1181 255 1186 326 1192 231 1197 243 1202 278 1208 331 1213 302 1218 367 1224 361
 1229 408 1234 426 1240 473 1245 468 1250 468 1256 456 1261 391 1266 550 1272 491 1277 420 1282 479 1288 473 1293 373 1298 408 1304 408 1309 326 1314 296 1319 314 1325 231 1330 189 1335 266 1341 166 1346 195 1351 184 1357 154 1362 160 1367 136 1373
 124 1378 118 1383 113 1389 118 1394 101 1399 101 1405 95 1410 89 1415 101 100 { m20} R 0 0 1 c 9 lw black 0 0 1 c 885 121 m cl s 885 121 m 11 X 5 1 d 21 X 6 1 d 21 X 5 1 d 27 X 5 1 d 27 X 5 1 d 32 X 6 1 d 26 X 6 1 d 5 X 5 1 d 6 X 5 1 d 5 1 d 6 2 d 5
 2 d 5 3 d 6 3 d 5 4 d 5 5 d 6 7 d 5 8 d 5 9 d 6 11 d 5 13 d 5 14 d 6 16 d 5 18 d 5 20 d 6 21 d 5 22 d 5 23 d 6 23 d 5 23 d 5 21 d 6 20 d 5 18 d 5 14 d 3 7 d 3 5 d 2 4 d 3 4 d 3 2 d 2 2 d 6 X 2 -2 d 3 -3 d 3 -3 d 2 -5 d 3 -6 d 3 -6 d 5 -15 d 5 -19 d
 6 -20 d 5 -22 d 5 -23 d 5 -24 d 6 -24 d 5 -23 d 5 -22 d 6 -21 d 5 -19 d 5 -17 d 6 -16 d 5 -14 d 5 -12 d 6 -11 d 5 -9 d 5 -8 d 6 -7 d 5 -7 d 5 -5 d 6 -5 d 5 -5 d 5 -5 d 6 -6 d 2 -3 d 2 -3 d -2 Y 1 -4 d s black 3 lw 885 77 m 533 X s 885 93 m -16 Y s
 904 85 m -8 Y s 922 85 m -8 Y s 940 85 m -8 Y s 959 85 m -8 Y s 977 93 m -16 Y s 995 85 m -8 Y s 1014 85 m -8 Y s 1032 85 m -8 Y s 1051 85 m -8 Y s 1069 93 m -16 Y s 1087 85 m -8 Y s 1106 85 m -8 Y s 1124 85 m -8 Y s 1142 85 m -8 Y s 1161 93 m -16 Y
 s 1179 85 m -8 Y s 1198 85 m -8 Y s 1216 85 m -8 Y s 1234 85 m -8 Y s 1253 93 m -16 Y s 1271 85 m -8 Y s 1289 85 m -8 Y s 1308 85 m -8 Y s 1326 85 m -8 Y s 1345 93 m -16 Y s 1345 93 m -16 Y s 1363 85 m -8 Y s 1381 85 m -8 Y s 1400 85 m -8 Y s 885 77
 m 559 Y s 902 77 m -17 X s 894 89 m -9 X s 894 101 m -9 X s 894 113 m -9 X s 894 124 m -9 X s 902 136 m -17 X s 894 148 m -9 X s 894 160 m -9 X s 894 172 m -9 X s 894 184 m -9 X s 902 195 m -17 X s 894 207 m -9 X s 894 219 m -9 X s 894 231 m -9 X s
 894 243 m -9 X s 902 255 m -17 X s 894 266 m -9 X s 894 278 m -9 X s 894 290 m -9 X s 894 302 m -9 X s 902 314 m -17 X s 894 326 m -9 X s 894 337 m -9 X s 894 349 m -9 X s 894 361 m -9 X s 902 373 m -17 X s 894 385 m -9 X s 894 397 m -9 X s 894 408
 m -9 X s 894 420 m -9 X s 902 432 m -17 X s 894 444 m -9 X s 894 456 m -9 X s 894 468 m -9 X s 894 479 m -9 X s 902 491 m -17 X s 894 503 m -9 X s 894 515 m -9 X s 894 527 m -9 X s 894 538 m -9 X s 902 550 m -17 X s 894 562 m -9 X s 894 574 m -9 X s
 894 586 m -9 X s 894 598 m -9 X s 902 609 m -17 X s 902 609 m -17 X s 894 621 m -9 X s 894 633 m -9 X s 1 1 1 c black
 gsave  710 699 779 7 C 1041.51 672.14 t 0 r /Helvetica findfont 34.8619 sf 0 0 m (Background) show NC gr  1 1 1 c 711 699 1534 7 bf black 1 1 1 c 533 559 1641 77 bf black 533 559 1641 77 bl 1641 77 m 533 X s 1641 93 m -16 Y s 1659 85 m -8 Y s 1678
 85 m -8 Y s 1696 85 m -8 Y s 1715 85 m -8 Y s 1733 93 m -16 Y s 1751 85 m -8 Y s 1770 85 m -8 Y s 1788 85 m -8 Y s 1806 85 m -8 Y s 1825 93 m -16 Y s 1843 85 m -8 Y s 1862 85 m -8 Y s 1880 85 m -8 Y s 1898 85 m -8 Y s 1917 93 m -16 Y s 1935 85 m -8
 Y s 1953 85 m -8 Y s 1972 85 m -8 Y s 1990 85 m -8 Y s 2009 93 m -16 Y s 2027 85 m -8 Y s 2045 85 m -8 Y s 2064 85 m -8 Y s 2082 85 m -8 Y s 2100 93 m -16 Y s 2100 93 m -16 Y s 2119 85 m -8 Y s 2137 85 m -8 Y s 2156 85 m -8 Y s
 gsave  711 699 1534 7 C 1618.28 54.4979 t 0 r /Helvetica findfont 22.736 sf 0 0 m (5.26) show NC gr 
 gsave  711 699 1534 7 C 1703.06 54.4979 t 0 r /Helvetica findfont 22.736 sf 0 0 m (5.265) show NC gr 
 gsave  711 699 1534 7 C 1801.46 54.4979 t 0 r /Helvetica findfont 22.736 sf 0 0 m (5.27) show NC gr 
 gsave  711 699 1534 7 C 1887.75 54.4979 t 0 r /Helvetica findfont 22.736 sf 0 0 m (5.275) show NC gr 
 gsave  711 699 1534 7 C 1984.63 54.4979 t 0 r /Helvetica findfont 22.736 sf 0 0 m (5.28) show NC gr 
 gsave  711 699 1534 7 C 2070.92 54.4979 t 0 r /Helvetica findfont 22.736 sf 0 0 m (5.285) show NC gr 
 gsave  711 699 1534 7 C 2117.85 31.7904 t 0 r /Helvetica findfont 22.736 sf 0 0 m (m_bc) show NC gr  1641 77 m 559 Y s 1658 77 m -17 X s 1650 90 m -9 X s 1650 104 m -9 X s 1650 117 m -9 X s 1650 130 m -9 X s 1658 144 m -17 X s 1650 157 m -9 X s 1650
 170 m -9 X s 1650 184 m -9 X s 1650 197 m -9 X s 1658 211 m -17 X s 1650 224 m -9 X s 1650 237 m -9 X s 1650 251 m -9 X s 1650 264 m -9 X s 1658 277 m -17 X s 1650 291 m -9 X s 1650 304 m -9 X s 1650 317 m -9 X s 1650 331 m -9 X s 1658 344 m -17 X s
 1650 357 m -9 X s 1650 371 m -9 X s 1650 384 m -9 X s 1650 397 m -9 X s 1658 411 m -17 X s 1650 424 m -9 X s 1650 437 m -9 X s 1650 451 m -9 X s 1650 464 m -9 X s 1658 477 m -17 X s 1650 491 m -9 X s 1650 504 m -9 X s 1650 518 m -9 X s 1650 531 m -9
 X s 1658 544 m -17 X s 1650 558 m -9 X s 1650 571 m -9 X s 1650 584 m -9 X s 1650 598 m -9 X s 1658 611 m -17 X s 1658 611 m -17 X s 1650 624 m -9 X s
 gsave  711 699 1534 7 C 1624.34 68.1223 t 0 r /Helvetica findfont 22.736 sf 0 0 m (0) show NC gr 
 gsave  711 699 1534 7 C 1610.71 134.731 t 0 r /Helvetica findfont 22.736 sf 0 0 m (50) show NC gr 
 gsave  711 699 1534 7 C 1598.6 202.853 t 0 r /Helvetica findfont 22.736 sf 0 0 m (100) show NC gr 
 gsave  711 699 1534 7 C 1598.6 269.462 t 0 r /Helvetica findfont 22.736 sf 0 0 m (150) show NC gr 
 gsave  711 699 1534 7 C 1598.6 336.07 t 0 r /Helvetica findfont 22.736 sf 0 0 m (200) show NC gr 
 gsave  711 699 1534 7 C 1598.6 402.679 t 0 r /Helvetica findfont 22.736 sf 0 0 m (250) show NC gr 
 gsave  711 699 1534 7 C 1598.6 469.287 t 0 r /Helvetica findfont 22.736 sf 0 0 m (300) show NC gr 
 gsave  711 699 1534 7 C 1598.6 535.896 t 0 r /Helvetica findfont 22.736 sf 0 0 m (350) show NC gr 
 gsave  711 699 1534 7 C 1598.6 602.504 t 0 r /Helvetica findfont 22.736 sf 0 0 m (400) show NC gr 
 gsave  711 699 1534 7 C 1583.47 440.524 t 90 r /Helvetica findfont 22.736 sf 0 0 m (Events / \( 0.00029 \)) show NC gr  1 1 1 c black
 gsave  711 699 1534 7 C 1728.79 670.626 t 0 r /Helvetica findfont 34.8619 sf 0 0 m (Signal + Background) show NC gr  1644 158 m -3 X s 1641 155 m 6 Y s 1644 158 m 2 X s 1646 155 m 6 Y s 1644 158 m 12 Y s 1641 170 m 6 X s 1644 158 m -10 Y s 1641 148
 m 6 X s 1649 172 m -3 X s 1646 169 m 6 Y s 1649 172 m 3 X s 1652 169 m 6 Y s 1649 172 m 12 Y s 1646 184 m 6 X s 1649 172 m -11 Y s 1646 161 m 6 X s 1654 150 m -2 X s 1652 147 m 6 Y s 1654 150 m 3 X s 1657 147 m 6 Y s 1654 150 m 12 Y s 1651 162 m 6 X
 s 1654 150 m -9 Y s 1651 141 m 6 X s 1660 165 m -3 X s 1657 162 m 6 Y s 1660 165 m 2 X s 1662 162 m 6 Y s 1660 165 m 12 Y s 1657 177 m 6 X s 1660 165 m -11 Y s 1657 154 m 6 X s 1665 158 m -3 X s 1662 155 m 6 Y s 1665 158 m 3 X s 1668 155 m 6 Y s
 1665 158 m 12 Y s 1662 170 m 6 X s 1665 158 m -10 Y s 1662 148 m 6 X s 1670 174 m -2 X s 1668 171 m 6 Y s 1670 174 m 3 X s 1673 171 m 6 Y s 1670 174 m 13 Y s 1667 187 m 6 X s 1670 174 m -11 Y s 1667 163 m 6 X s 1676 162 m -3 X s 1673 159 m 6 Y s
 1676 162 m 2 X s 1678 159 m 6 Y s 1676 162 m 13 Y s 1673 175 m 6 X s 1676 162 m -10 Y s 1673 152 m 6 X s 1681 160 m -3 X s 1678 157 m 6 Y s 1681 160 m 3 X s 1684 157 m 6 Y s 1681 160 m 12 Y s 1678 172 m 6 X s 1681 160 m -11 Y s 1678 149 m 6 X s 1686
 162 m -2 X s 1684 159 m 6 Y s 1686 162 m 3 X s 1689 159 m 6 Y s 1686 162 m 13 Y s 1683 175 m 6 X s 1686 162 m -10 Y s 1683 152 m 6 X s 1692 160 m -3 X s 1689 157 m 6 Y s 1692 160 m 2 X s 1694 157 m 6 Y s 1692 160 m 12 Y s 1689 172 m 6 X s 1692 160 m
 -11 Y s 1689 149 m 6 X s 1697 166 m -3 X s 1694 163 m 6 Y s 1697 166 m 3 X s 1700 163 m 6 Y s 1697 166 m 13 Y s 1694 179 m 6 X s 1697 166 m -10 Y s 1694 156 m 6 X s 1702 153 m -2 X s 1700 150 m 6 Y s 1702 153 m 3 X s 1705 150 m 6 Y s 1702 153 m 12 Y
 s 1699 165 m 6 X s 1702 153 m -10 Y s 1699 143 m 6 X s 1708 154 m -3 X s 1705 151 m 6 Y s 1708 154 m 2 X s 1710 151 m 6 Y s 1708 154 m 12 Y s 1705 166 m 6 X s 1708 154 m -10 Y s 1705 144 m 6 X s 1713 161 m -3 X s 1710 158 m 6 Y s 1713 161 m 3 X s
 1716 158 m 6 Y s 1713 161 m 12 Y s 1710 173 m 6 X s 1713 161 m -10 Y s 1710 151 m 6 X s 1718 152 m -2 X s 1716 149 m 6 Y s 1718 152 m 3 X s 1721 149 m 6 Y s 1718 152 m 11 Y s 1715 163 m 6 X s 1718 152 m -10 Y s 1715 142 m 6 X s 1724 177 m -3 X s
 1721 174 m 6 Y s 1724 177 m 2 X s 1726 174 m 6 Y s 1724 177 m 13 Y s 1721 190 m 6 X s 1724 177 m -11 Y s 1721 166 m 6 X s 1729 148 m -3 X s 1726 145 m 6 Y s 1729 148 m 3 X s 1732 145 m 6 Y s 1729 148 m 11 Y s 1726 159 m 6 X s 1729 148 m -10 Y s 1726
 138 m 6 X s 1734 181 m -2 X s 1732 178 m 6 Y s 1734 181 m 3 X s 1737 178 m 6 Y s 1734 181 m 13 Y s 1731 194 m 6 X s 1734 181 m -12 Y s 1731 169 m 6 X s 1740 160 m -3 X s 1737 157 m 6 Y s 1740 160 m 2 X s 1742 157 m 6 Y s 1740 160 m 12 Y s 1737 172 m
 6 X s 1740 160 m -11 Y s 1737 149 m 6 X s 1745 152 m -3 X s 1742 149 m 6 Y s 1745 152 m 3 X s 1748 149 m 6 Y s 1745 152 m 11 Y s 1742 163 m 6 X s 1745 152 m -10 Y s 1742 142 m 6 X s 1750 160 m -2 X s 1748 157 m 6 Y s 1750 160 m 3 X s 1753 157 m 6 Y
 s 1750 160 m 12 Y s 1747 172 m 6 X s 1750 160 m -11 Y s 1747 149 m 6 X s 1756 173 m -3 X s 1753 170 m 6 Y s 1756 173 m 2 X s 1758 170 m 6 Y s 1756 173 m 13 Y s 1753 186 m 6 X s 1756 173 m -11 Y s 1753 162 m 6 X s 1761 165 m -3 X s 1758 162 m 6 Y s
 1761 165 m 3 X s 1764 162 m 6 Y s 1761 165 m 12 Y s 1758 177 m 6 X s 1761 165 m -11 Y s 1758 154 m 6 X s 1766 154 m -2 X s 1764 151 m 6 Y s 1766 154 m 3 X s 1769 151 m 6 Y s 1766 154 m 12 Y s 1763 166 m 6 X s 1766 154 m -10 Y s 1763 144 m 6 X s 1772
 134 m -3 X s 1769 131 m 6 Y s 1772 134 m 2 X s 1774 131 m 6 Y s 1772 134 m 11 Y s 1769 145 m 6 X s 1772 134 m -8 Y s 1769 126 m 6 X s 1777 170 m -3 X s 1774 167 m 6 Y s 1777 170 m 3 X s 1780 167 m 6 Y s 1777 170 m 13 Y s 1774 183 m 6 X s 1777 170 m
 -11 Y s 1774 159 m 6 X s 1782 181 m -2 X s 1780 178 m 6 Y s 1782 181 m 3 X s 1785 178 m 6 Y s 1782 181 m 13 Y s 1779 194 m 6 X s 1782 181 m -12 Y s 1779 169 m 6 X s 1788 162 m -3 X s 1785 159 m 6 Y s 1788 162 m 2 X s 1790 159 m 6 Y s 1788 162 m 13 Y
 s 1785 175 m 6 X s 1788 162 m -10 Y s 1785 152 m 6 X s 1793 148 m -3 X s 1790 145 m 6 Y s 1793 148 m 3 X s 1796 145 m 6 Y s 1793 148 m 11 Y s 1790 159 m 6 X s 1793 148 m -10 Y s 1790 138 m 6 X s 1798 153 m -2 X s 1796 150 m 6 Y s 1798 153 m 3 X s
 1801 150 m 6 Y s 1798 153 m 12 Y s 1795 165 m 6 X s 1798 153 m -10 Y s 1795 143 m 6 X s 1804 140 m -3 X s 1801 137 m 6 Y s 1804 140 m 2 X s 1806 137 m 6 Y s 1804 140 m 10 Y s 1801 150 m 6 X s 1804 140 m -9 Y s 1801 131 m 6 X s 1809 136 m -3 X s 1806
 133 m 6 Y s 1809 136 m 3 X s 1812 133 m 6 Y s 1809 136 m 10 Y s 1806 146 m 6 X s 1809 136 m -9 Y s 1806 127 m 6 X s 1814 145 m -2 X s 1812 142 m 6 Y s 1814 145 m 3 X s 1817 142 m 6 Y s 1814 145 m 11 Y s 1811 156 m 6 X s 1814 145 m -9 Y s 1811 136 m
 6 X s 1820 154 m -3 X s 1817 151 m 6 Y s 1820 154 m 2 X s 1822 151 m 6 Y s 1820 154 m 12 Y s 1817 166 m 6 X s 1820 154 m -10 Y s 1817 144 m 6 X s 1825 162 m -3 X s 1822 159 m 6 Y s 1825 162 m 3 X s 1828 159 m 6 Y s 1825 162 m 13 Y s 1822 175 m 6 X s
 1825 162 m -10 Y s 1822 152 m 6 X s 1830 160 m -2 X s 1828 157 m 6 Y s 1830 160 m 3 X s 1833 157 m 6 Y s 1830 160 m 12 Y s 1827 172 m 6 X s 1830 160 m -11 Y s 1827 149 m 6 X s 1836 142 m -3 X s 1833 139 m 6 Y s 1836 142 m 2 X s 1838 139 m 6 Y s 1836
 142 m 11 Y s 1833 153 m 6 X s 1836 142 m -9 Y s 1833 133 m 6 X s 1841 149 m -3 X s 1838 146 m 6 Y s 1841 149 m 3 X s 1844 146 m 6 Y s 1841 149 m 11 Y s 1838 160 m 6 X s 1841 149 m -10 Y s 1838 139 m 6 X s 1846 162 m -2 X s 1844 159 m 6 Y s 1846 162
 m 3 X s 1849 159 m 6 Y s 1846 162 m 13 Y s 1843 175 m 6 X s 1846 162 m -10 Y s 1843 152 m 6 X s 1852 146 m -3 X s 1849 143 m 6 Y s 1852 146 m 2 X s 1854 143 m 6 Y s 1852 146 m 11 Y s 1849 157 m 6 X s 1852 146 m -9 Y s 1849 137 m 6 X s 1857 158 m -3
 X s 1854 155 m 6 Y s 1857 158 m 3 X s 1860 155 m 6 Y s 1857 158 m 12 Y s 1854 170 m 6 X s 1857 158 m -10 Y s 1854 148 m 6 X s 1862 157 m -2 X s 1860 154 m 6 Y s 1862 157 m 3 X s 1865 154 m 6 Y s 1862 157 m 12 Y s 1859 169 m 6 X s 1862 157 m -10 Y s
 1859 147 m 6 X s 1868 142 m -3 X s 1865 139 m 6 Y s 1868 142 m 2 X s 1870 139 m 6 Y s 1868 142 m 11 Y s 1865 153 m 6 X s 1868 142 m -9 Y s 1865 133 m 6 X s 1873 144 m -3 X s 1870 141 m 6 Y s 1873 144 m 3 X s 1876 141 m 6 Y s 1873 144 m 11 Y s 1870
 155 m 6 X s 1873 144 m -10 Y s 1870 134 m 6 X s 1878 160 m -2 X s 1876 157 m 6 Y s 1878 160 m 3 X s 1881 157 m 6 Y s 1878 160 m 12 Y s 1875 172 m 6 X s 1878 160 m -11 Y s 1875 149 m 6 X s 1884 172 m -3 X s 1881 169 m 6 Y s 1884 172 m 2 X s 1886 169
 m 6 Y s 1884 172 m 12 Y s 1881 184 m 6 X s 1884 172 m -11 Y s 1881 161 m 6 X s 1889 164 m -3 X s 1886 161 m 6 Y s 1889 164 m 3 X s 1892 161 m 6 Y s 1889 164 m 12 Y s 1886 176 m 6 X s 1889 164 m -11 Y s 1886 153 m 6 X s 1894 156 m -2 X s 1892 153 m 6
 Y s 1894 156 m 3 X s 1897 153 m 6 Y s 1894 156 m 11 Y s 1891 167 m 6 X s 1894 156 m -10 Y s 1891 146 m 6 X s 1900 172 m -3 X s 1897 169 m 6 Y s 1900 172 m 2 X s 1902 169 m 6 Y s 1900 172 m 12 Y s 1897 184 m 6 X s 1900 172 m -11 Y s 1897 161 m 6 X s
 1905 197 m -3 X s 1902 194 m 6 Y s 1905 197 m 3 X s 1908 194 m 6 Y s 1905 197 m 14 Y s 1902 211 m 6 X s 1905 197 m -12 Y s 1902 185 m 6 X s 1910 193 m -2 X s 1908 190 m 6 Y s 1910 193 m 3 X s 1913 190 m 6 Y s 1910 193 m 14 Y s 1907 207 m 6 X s 1910
 193 m -12 Y s 1907 181 m 6 X s 1916 182 m -3 X s 1913 179 m 6 Y s 1916 182 m 2 X s 1918 179 m 6 Y s 1916 182 m 14 Y s 1912 196 m 7 X s 1916 182 m -11 Y s 1912 171 m 7 X s 1921 176 m -3 X s 1918 173 m 6 Y s 1921 176 m 3 X s 1924 173 m 6 Y s 1921 176
 m 13 Y s 1918 189 m 6 X s 1921 176 m -12 Y s 1918 164 m 6 X s 1926 221 m -2 X s 1924 218 m 6 Y s 1926 221 m 3 X s 1929 218 m 6 Y s 1926 221 m 15 Y s 1923 236 m 6 X s 1926 221 m -13 Y s 1923 208 m 6 X s 1932 219 m -3 X s 1929 215 m 7 Y s 1932 219 m 2
 X s 1934 215 m 7 Y s 1932 219 m 14 Y s 1928 233 m 7 X s 1932 219 m -14 Y s 1928 205 m 7 X s 1937 256 m -3 X s 1934 253 m 6 Y s 1937 256 m 3 X s 1940 253 m 6 Y s 1937 256 m 16 Y s 1934 272 m 6 X s 1937 256 m -15 Y s 1934 241 m 6 X s 1942 257 m -2 X s
 1940 254 m 6 Y s 1942 257 m 3 X s 1945 254 m 6 Y s 1942 257 m 16 Y s 1939 273 m 6 X s 1942 257 m -15 Y s 1939 242 m 6 X s 1947 289 m -2 X s 1945 286 m 6 Y s 1947 289 m 3 X s 1950 286 m 6 Y s 1947 289 m 18 Y s 1944 307 m 7 X s 1947 289 m -16 Y s 1944
 273 m 7 X s 1953 319 m -3 X s 1950 316 m 6 Y s 1953 319 m 2 X s 1955 316 m 6 Y s 1953 319 m 18 Y s 1950 337 m 6 X s 1953 319 m -18 Y s 1950 301 m 6 X s 1958 364 m -3 X s 1955 361 m 6 Y s 1958 364 m 3 X s 1961 361 m 6 Y s 1958 364 m 20 Y s 1955 384 m
 6 X s 1958 364 m -19 Y s 1955 345 m 6 X s 1963 379 m -2 X s 1961 376 m 6 Y s 1963 379 m 3 X s 1966 376 m 6 Y s 1963 379 m 20 Y s 1960 399 m 7 X s 1963 379 m -20 Y s 1960 359 m 7 X s 1969 423 m -3 X s 1966 420 m 6 Y s 1969 423 m 2 X s 1971 420 m 6 Y
 s 1969 423 m 22 Y s 1966 445 m 6 X s 1969 423 m -21 Y s 1966 402 m 6 X s 1974 468 m -3 X s 1971 465 m 6 Y s 1974 468 m 3 X s 1977 465 m 6 Y s 1974 468 m 24 Y s 1971 492 m 6 X s 1974 468 m -22 Y s 1971 446 m 6 X s 1979 471 m -2 X s 1977 468 m 6 Y s
 1979 471 m 3 X s 1982 468 m 6 Y s 1979 471 m 23 Y s 1976 494 m 6 X s 1979 471 m -22 Y s 1976 449 m 6 X s 1985 500 m -3 X s 1982 497 m 6 Y s 1985 500 m 2 X s 1987 497 m 6 Y s 1985 500 m 25 Y s 1982 525 m 6 X s 1985 500 m -23 Y s 1982 477 m 6 X s 1990
 527 m -3 X s 1987 524 m 6 Y s 1990 527 m 3 X s 1993 524 m 6 Y s 1990 527 m 25 Y s 1987 552 m 6 X s 1990 527 m -24 Y s 1987 503 m 6 X s 1995 511 m -2 X s 1993 508 m 6 Y s 1995 511 m 3 X s 1998 508 m 6 Y s 1995 511 m 25 Y s 1992 536 m 6 X s 1995 511 m
 -24 Y s 1992 487 m 6 X s 2001 560 m -3 X s 1998 557 m 6 Y s 2001 560 m 2 X s 2003 557 m 6 Y s 2001 560 m 26 Y s 1998 586 m 6 X s 2001 560 m -24 Y s 1998 536 m 6 X s 2006 563 m -3 X s 2003 560 m 6 Y s 2006 563 m 3 X s 2009 560 m 6 Y s 2006 563 m 26 Y
 s 2003 589 m 6 X s 2006 563 m -25 Y s 2003 538 m 6 X s 2011 570 m -2 X s 2009 567 m 6 Y s 2011 570 m 3 X s 2014 567 m 6 Y s 2011 570 m 26 Y s 2008 596 m 6 X s 2011 570 m -25 Y s 2008 545 m 6 X s 2017 555 m -3 X s 2014 552 m 6 Y s 2017 555 m 2 X s
 2019 552 m 6 Y s 2017 555 m 26 Y s 2014 581 m 6 X s 2017 555 m -25 Y s 2014 530 m 6 X s 2022 542 m -3 X s 2019 539 m 6 Y s 2022 542 m 3 X s 2025 539 m 6 Y s 2022 542 m 25 Y s 2019 567 m 6 X s 2022 542 m -25 Y s 2019 517 m 6 X s 2027 582 m -2 X s
 2025 579 m 6 Y s 2027 582 m 3 X s 2030 579 m 6 Y s 2027 582 m 26 Y s 2024 608 m 6 X s 2027 582 m -26 Y s 2024 556 m 6 X s 2033 554 m -3 X s 2030 551 m 6 Y s 2033 554 m 2 X s 2035 551 m 6 Y s 2033 554 m 25 Y s 2030 579 m 6 X s 2033 554 m -25 Y s 2030
 529 m 6 X s 2038 519 m -3 X s 2035 516 m 6 Y s 2038 519 m 3 X s 2041 516 m 6 Y s 2038 519 m 25 Y s 2035 544 m 6 X s 2038 519 m -24 Y s 2035 495 m 6 X s 2043 510 m -2 X s 2041 507 m 6 Y s 2043 510 m 3 X s 2046 507 m 6 Y s 2043 510 m 24 Y s 2040 534 m
 6 X s 2043 510 m -24 Y s 2040 486 m 6 X s 2049 483 m -3 X s 2046 480 m 6 Y s 2049 483 m 2 X s 2051 480 m 6 Y s 2049 483 m 24 Y s 2046 507 m 6 X s 2049 483 m -23 Y s 2046 460 m 6 X s 2054 456 m -3 X s 2051 453 m 6 Y s 2054 456 m 3 X s 2057 453 m 6 Y
 s 2054 456 m 23 Y s 2051 479 m 6 X s 2054 456 m -22 Y s 2051 434 m 6 X s 2059 457 m -2 X s 2057 454 m 6 Y s 2059 457 m 3 X s 2062 454 m 6 Y s 2059 457 m 24 Y s 2056 481 m 6 X s 2059 457 m -21 Y s 2056 436 m 6 X s 2065 385 m -3 X s 2062 382 m 6 Y s
 2065 385 m 2 X s 2067 382 m 6 Y s 2065 385 m 21 Y s 2062 406 m 6 X s 2065 385 m -19 Y s 2062 366 m 6 X s 2070 359 m -3 X s 2067 356 m 6 Y s 2070 359 m 3 X s 2073 356 m 6 Y s 2070 359 m 20 Y s 2067 379 m 6 X s 2070 359 m -19 Y s 2067 340 m 6 X s 2075
 369 m -2 X s 2073 366 m 6 Y s 2075 369 m 3 X s 2078 366 m 6 Y s 2075 369 m 21 Y s 2072 390 m 6 X s 2075 369 m -19 Y s 2072 350 m 6 X s 2081 323 m -3 X s 2078 320 m 6 Y s 2081 323 m 2 X s 2083 320 m 6 Y s 2081 323 m 18 Y s 2078 341 m 6 X s 2081 323 m
 -18 Y s 2078 305 m 6 X s 2086 283 m -3 X s 2083 280 m 6 Y s 2086 283 m 3 X s 2089 280 m 6 Y s 2086 283 m 17 Y s 2083 300 m 6 X s 2086 283 m -16 Y s 2083 267 m 6 X s 2091 311 m -2 X s 2089 308 m 6 Y s 2091 311 m 3 X s 2094 308 m 6 Y s 2091 311 m 18 Y
 s 2088 329 m 6 X s 2091 311 m -17 Y s 2088 294 m 6 X s 2097 263 m -3 X s 2094 260 m 6 Y s 2097 263 m 2 X s 2099 260 m 6 Y s 2097 263 m 16 Y s 2094 279 m 6 X s 2097 263 m -16 Y s 2094 247 m 6 X s 2102 237 m -3 X s 2099 234 m 6 Y s 2102 237 m 3 X s
 2105 234 m 6 Y s 2102 237 m 16 Y s 2099 253 m 6 X s 2102 237 m -14 Y s 2099 223 m 6 X s 2107 231 m -2 X s 2105 227 m 7 Y s 2107 231 m 3 X s 2110 227 m 7 Y s 2107 231 m 15 Y s 2104 246 m 6 X s 2107 231 m -14 Y s 2104 217 m 6 X s 2113 202 m -3 X s
 2110 199 m 7 Y s 2113 202 m 2 X s 2115 199 m 7 Y s 2113 202 m 15 Y s 2110 217 m 6 X s 2113 202 m -12 Y s 2110 190 m 6 X s 2118 173 m -3 X s 2115 170 m 6 Y s 2118 173 m 3 X s 2121 170 m 6 Y s 2118 173 m 13 Y s 2115 186 m 6 X s 2118 173 m -11 Y s 2115
 162 m 6 X s 2123 158 m -2 X s 2121 155 m 6 Y s 2123 158 m 3 X s 2126 155 m 6 Y s 2123 158 m 12 Y s 2120 170 m 6 X s 2123 158 m -10 Y s 2120 148 m 6 X s 2129 162 m -3 X s 2126 159 m 6 Y s 2129 162 m 2 X s 2131 159 m 6 Y s 2129 162 m 13 Y s 2126 175 m
 6 X s 2129 162 m -10 Y s 2126 152 m 6 X s 2134 137 m -3 X s 2131 134 m 6 Y s 2134 137 m 3 X s 2137 134 m 6 Y s 2134 137 m 10 Y s 2131 147 m 6 X s 2134 137 m -9 Y s 2131 128 m 6 X s 2139 149 m -2 X s 2137 146 m 6 Y s 2139 149 m 3 X s 2142 146 m 6 Y s
 2139 149 m 11 Y s 2136 160 m 6 X s 2139 149 m -10 Y s 2136 139 m 6 X s 2145 122 m -3 X s 2142 119 m 6 Y s 2145 122 m 2 X s 2147 119 m 6 Y s 2145 122 m 10 Y s 2142 132 m 6 X s 2145 122 m -7 Y s 2142 115 m 6 X s 2150 136 m -3 X s 2147 133 m 6 Y s 2150
 136 m 3 X s 2153 133 m 6 Y s 2150 136 m 10 Y s 2147 146 m 6 X s 2150 136 m -9 Y s 2147 127 m 6 X s 2155 118 m -2 X s 2153 115 m 6 Y s 2155 118 m 3 X s 2158 115 m 6 Y s 2155 118 m 9 Y s 2152 127 m 6 X s 2155 118 m -7 Y s 2152 111 m 6 X s 2161 121 m
 -3 X s 2158 118 m 6 Y s 2161 121 m 2 X s 2163 118 m 6 Y s 2161 121 m 9 Y s 2158 130 m 6 X s 2161 121 m -8 Y s 2158 113 m 6 X s 2166 100 m -3 X s 2163 97 m 6 Y s 2166 100 m 3 X s 2169 97 m 6 Y s 2166 100 m 7 Y s 2163 107 m 6 X s 2166 100 m -6 Y s
 2163 94 m 6 X s 2171 108 m -2 X s 2169 105 m 6 Y s 2171 108 m 3 X s 2174 105 m 6 Y s 2171 108 m 8 Y s 2168 116 m 6 X s 2171 108 m -7 Y s 2168 101 m 6 X s /w 13 def /w2 {w 2 div} def /w3 {w 3 div} def 1644 158 1649 172 1654 150 1660 165 1665 158 1670
 174 1676 162 1681 160 1686 162 1692 160 1697 166 1702 153 1708 154 1713 161 1718 152 1724 177 1729 148 1734 181 1740 160 1745 152 1750 160 1756 173 1761 165 1766 154 1772 134 1777 170 1782 181 1788 162 1793 148 1798 153 1804 140 1809 136 1814 145
 1820 154 1825 162 1830 160 1836 142 1841 149 1846 162 1852 146 1857 158 1862 157 1868 142 1873 144 1878 160 1884 172 1889 164 1894 156 1900 172 1905 197 1910 193 1916 182 1921 176 1926 221 1932 219 1937 256 1942 257 1947 289 1953 319 1958 364 1963
 379 1969 423 1974 468 1979 471 1985 500 1990 527 1995 511 2001 560 2006 563 2011 570 2017 555 2022 542 2027 582 2033 554 2038 519 2043 510 2049 483 2054 456 2059 457 2065 385 2070 359 2075 369 2081 323 2086 283 2091 311 2097 263 2102 237 2107 231
 2113 202 2118 173 2123 158 2129 162 2134 137 2139 149 2145 122 2150 136 2155 118 2161 121 2166 100 2171 108 100 { m20} R 0 0 1 c 9 lw black 0 0 1 c 1641 136 m cl s 1641 136 m 11 X 5 1 d 11 X 5 1 d 16 X 5 1 d 16 X 6 1 d 21 X 5 1 d 16 X 6 1 d 26 X 6 1
 d 21 X 5 1 d 16 X 6 1 d 5 X 5 1 d 6 1 d 5 1 d 5 2 d 6 2 d 5 2 d 5 4 d 6 4 d 5 6 d 5 7 d 6 9 d 5 10 d 5 12 d 6 15 d 5 17 d 5 20 d 6 21 d 5 25 d 5 26 d 5 28 d 6 30 d 5 30 d 5 31 d 6 30 d 5 28 d 5 27 d 6 24 d 5 20 d 3 8 d 2 7 d 3 6 d 3 5 d 2 3 d 3 2 d
 5 X 3 -3 d 3 -3 d 2 -5 d 3 -6 d 3 -8 d 2 -8 d 6 -21 d 5 -24 d 5 -28 d 6 -29 d 5 -31 d 5 -32 d 6 -32 d 5 -30 d 5 -30 d 6 -28 d 5 -25 d 5 -24 d 6 -21 d 5 -18 d 5 -17 d 6 -14 d 5 -13 d 5 -10 d 6 -10 d 5 -8 d 5 -7 d 6 -7 d 5 -6 d 5 -7 d 6 -8 d 2 -5 d 2
 -3 d -3 Y 1 -5 d s black 3 lw 1641 77 m 533 X s 1641 93 m -16 Y s 1659 85 m -8 Y s 1678 85 m -8 Y s 1696 85 m -8 Y s 1715 85 m -8 Y s 1733 93 m -16 Y s 1751 85 m -8 Y s 1770 85 m -8 Y s 1788 85 m -8 Y s 1806 85 m -8 Y s 1825 93 m -16 Y s 1843 85 m
 -8 Y s 1862 85 m -8 Y s 1880 85 m -8 Y s 1898 85 m -8 Y s 1917 93 m -16 Y s 1935 85 m -8 Y s 1953 85 m -8 Y s 1972 85 m -8 Y s 1990 85 m -8 Y s 2009 93 m -16 Y s 2027 85 m -8 Y s 2045 85 m -8 Y s 2064 85 m -8 Y s 2082 85 m -8 Y s 2100 93 m -16 Y s
 2100 93 m -16 Y s 2119 85 m -8 Y s 2137 85 m -8 Y s 2156 85 m -8 Y s 1641 77 m 559 Y s 1658 77 m -17 X s 1650 90 m -9 X s 1650 104 m -9 X s 1650 117 m -9 X s 1650 130 m -9 X s 1658 144 m -17 X s 1650 157 m -9 X s 1650 170 m -9 X s 1650 184 m -9 X s
 1650 197 m -9 X s 1658 211 m -17 X s 1650 224 m -9 X s 1650 237 m -9 X s 1650 251 m -9 X s 1650 264 m -9 X s 1658 277 m -17 X s 1650 291 m -9 X s 1650 304 m -9 X s 1650 317 m -9 X s 1650 331 m -9 X s 1658 344 m -17 X s 1650 357 m -9 X s 1650 371 m
 -9 X s 1650 384 m -9 X s 1650 397 m -9 X s 1658 411 m -17 X s 1650 424 m -9 X s 1650 437 m -9 X s 1650 451 m -9 X s 1650 464 m -9 X s 1658 477 m -17 X s 1650 491 m -9 X s 1650 504 m -9 X s 1650 518 m -9 X s 1650 531 m -9 X s 1658 544 m -17 X s 1650
 558 m -9 X s 1650 571 m -9 X s 1650 584 m -9 X s 1650 598 m -9 X s 1658 611 m -17 X s 1658 611 m -17 X s 1650 624 m -9 X s 1 1 1 c black
 gsave  711 699 1534 7 C 1728.79 670.626 t 0 r /Helvetica findfont 34.8619 sf 0 0 m (Signal + Background) show NC gr 
 gr  gr showpage
end
%%EOF
