%!PS-Adobe-2.0 EPSF-2.0
%%BoundingBox:  195 2 372 176
%%Title: ./plots/pBg_s0s1.eps: rf101_basics
%%Creator: ROOT Version 6.11/01
%%CreationDate: Sat Sep 23 20:37:54 2017
%%DocumentNeededResources: ProcSet (FontSetInit)
%%EndComments
%%BeginProlog
80 dict begin
/s {stroke} def /l {lineto} def /m {moveto} def /t {translate} def
/r {rotate} def /rl {roll}  def /R {repeat} def
/d {rlineto} def /rm {rmoveto} def /gr {grestore} def /f {eofill} def
/c {setrgbcolor} def /black {0 setgray} def /sd {setdash} def
/cl {closepath} def /sf {scalefont setfont} def /lw {setlinewidth} def
/box {m dup 0 exch d exch 0 d 0 exch neg d cl} def
/NC{systemdict begin initclip end}def/C{NC box clip newpath}def
/bl {box s} def /bf {gsave box gsave f grestore 1 lw [] 0 sd s grestore} def /Y { 0 exch d} def /X { 0 d} def 
/K {{pop pop 0 moveto} exch kshow} bind def
/ita {/ang 15 def gsave [1 0 ang dup sin exch cos div 1 0 0] concat} def 
/mp {newpath /y exch def /x exch def} def
/side {[w .77 mul w .23 mul] .385 w mul sd w 0 l currentpoint t -144 r} def
/mr {mp x y w2 0 360 arc} def /m24 {mr s} def /m20 {mr f} def
/mb {mp x y w2 add m w2 neg 0 d 0 w neg d w 0 d 0 w d cl} def
/mt {mp x y w2 add m w2 neg w neg d w 0 d cl} def
/w4 {w 4 div} def
/w6 {w 6 div} def
/w8 {w 8 div} def
/m21 {mb f} def /m25 {mb s} def /m22 {mt f} def /m26{mt s} def
/m23 {mp x y w2 sub m w2 w d w neg 0 d cl f} def
/m27 {mp x y w2 add m w3 neg w2 neg d w3 w2 neg d w3 w2 d cl s} def
/m28 {mp x w2 sub y w2 sub w3 add m w3 0 d  0 w3 neg d w3 0 d 0 w3 d w3 0 d  0 w3 d w3 neg 0 d 0 w3 d w3 neg 0 d 0 w3 neg d w3 neg 0 d cl s } def
/m29 {mp gsave x w2 sub y w2 add w3 sub m currentpoint t 4 {side} repeat cl fill gr} def
/m30 {mp gsave x w2 sub y w2 add w3 sub m currentpoint t 4 {side} repeat cl s gr} def
/m31 {mp x y w2 sub m 0 w d x w2 sub y m w 0 d x w2 sub y w2 add m w w neg d x w2 sub y w2 sub m w w d s} def
/m32 {mp x y w2 sub m w2 w d w neg 0 d cl s} def
/m33 {mp x y w2 add m w3 neg w2 neg d w3 w2 neg d w3 w2 d cl f} def
/m34 {mp x w2 sub y w2 sub w3 add m w3 0 d  0 w3 neg d w3 0 d 0 w3 d w3 0 d  0 w3 d w3 neg 0 d 0 w3 d w3 neg 0 d 0 w3 neg d w3 neg 0 d cl f } def
/m35 {mp x y w2 add m w2 neg w2 neg d w2 w2 neg d w2 w2 d w2 neg w2 d x y w2 sub m 0 w d x w2 sub y m w 0 d s} def
/m36 {mb x w2 sub y w2 add m w w neg d x w2 sub y w2 sub m w w d s} def
/m37 {mp x y m w4 neg w2 d w4 neg w2 neg d w2 0 d  w4 neg w2 neg d w2 0 d w4 neg w2 d w2 0 d w4 neg w2 d w4 neg w2 neg d cl s} def
/m38 {mp x w4 sub y w2 add m w4 neg w4 neg d 0 w2 neg d w4 w4 neg d w2 0 d w4 w4 d 0 w2 d w4 neg w4 d w2 neg 0 d x y w2 sub m 0 w d x w2 sub y m w 0 d cl s} def
/m39 {mp x y m w4 neg w2 d w4 neg w2 neg d w2 0 d  w4 neg w2 neg d w2 0 d w4 neg w2 d w2 0 d w4 neg w2 d w4 neg w2 neg d cl f} def
/m40 {mp x y m w4 w2 d w4 w4 neg d w2 neg w4 neg d w2 w4 neg d w4 neg w4 neg d w4 neg w2 d w4 neg w2 neg d w4 neg w4 d w2 w4 d w2 neg w4 d w4 w4 d w4 w2 neg d cl s} def
/m41 {mp x y m w4 w2 d w4 w4 neg d w2 neg w4 neg d w2 w4 neg d w4 neg w4 neg d w4 neg w2 d w4 neg w2 neg d w4 neg w4 d w2 w4 d w2 neg w4 d w4 w4 d w4 w2 neg d cl f} def
/m42 {mp x y w2 add m w8 neg w2 -3 4 div mul d w2 -3 4 div mul w8 neg d w2 3 4 div mul w8 neg d w8 w2 -3 4 div mul d w8 w2 3 4 div mul d w2 3 4 div mul w8 d w2 -3 4 div mul w8 d w8 neg w2 3 4 div mul d cl s} def
/m43 {mp x y w2 add m w8 neg w2 -3 4 div mul d w2 -3 4 div mul w8 neg d w2 3 4 div mul w8 neg d w8 w2 -3 4 div mul d w8 w2 3 4 div mul d w2 3 4 div mul w8 d w2 -3 4 div mul w8 d w8 neg w2 3 4 div mul d cl f} def
/m44 {mp x y m w6 neg w2 d w2 2 3 div mul 0 d w6 neg w2 neg d w2 w6 d 0 w2 -2 3 div mul d w2 neg w6 d w6 w2 neg d w2 -2 3 div mul 0 d w6 w2 d w2 neg w6 neg d 0 w2 2 3 div mul d w2 w6 neg d cl s} def
/m45 {mp x y m w6 neg w2 d w2 2 3 div mul 0 d w6 neg w2 neg d w2 w6 d 0 w2 -2 3 div mul d w2 neg w6 d w6 w2 neg d w2 -2 3 div mul 0 d w6 w2 d w2 neg w6 neg d 0 w2 2 3 div mul d w2 w6 neg d cl f} def
/m46 {mp x y w4 add m w4 neg w4 d w4 neg w4 neg d  w4 w4 neg d w4 neg w4 neg d w4 w4 neg d w4 w4 d w4 w4 neg d w4 w4 d w4 neg w4 d w4 w4 d w4 neg w4 d w4 neg w4 neg d cl s} def
/m47 {mp x y w4 add m w4 neg w4 d w4 neg w4 neg d w4 w4 neg d w4 neg w4 neg d  w4 w4 neg d w4 w4 d w4 w4 neg d w4 w4 d w4 neg w4 d w4 w4 d w4 neg w4 d w4 neg w4 neg d cl f} def
/m48 {mp x y w4 add m w4 neg w4 d w4 neg w4 neg d w4 w4 neg d  w4 neg w4 neg d w4 w4 neg d w4 w4 d w4 w4 neg d w4 w4 d w4 neg w4 d w4 w4 d w4 neg w4 d w4 neg w4 neg d  w4 w4 neg d w4 neg w4 neg d w4 neg w4 d w4 w4 d cl f} def
/m49 {mp x w2 sub w3 add y w2 sub w3 add m  0 w3 neg d w3 0 d 0 w3 d w3 0 d 0 w3 d w3 neg 0 d 0 w3 d w3 neg 0 d 0 w3 neg d w3 neg 0 d 0 w3 neg d w3 0 d 0 w3 d w3 0 d 0 w3 neg d w3 neg 0 d cl f } def
/m2 {mp x y w2 sub m 0 w d x w2 sub y m w 0 d s} def
/m5 {mp x w2 sub y w2 sub m w w d x w2 sub y w2 add m w w neg d s} def
%%IncludeResource: ProcSet (FontSetInit)
%%IncludeResource: font Times-Roman
%%IncludeResource: font Times-Italic
%%IncludeResource: font Times-Bold
%%IncludeResource: font Times-BoldItalic
%%IncludeResource: font Helvetica
%%IncludeResource: font Helvetica-Oblique
%%IncludeResource: font Helvetica-Bold
%%IncludeResource: font Helvetica-BoldOblique
%%IncludeResource: font Courier
%%IncludeResource: font Courier-Oblique
%%IncludeResource: font Courier-Bold
%%IncludeResource: font Courier-BoldOblique
%%IncludeResource: font Symbol
%%IncludeResource: font ZapfDingbats
/reEncode {exch findfont dup length dict begin {1 index /FID eq  {pop pop} {def} ifelse } forall /Encoding exch def currentdict end dup /FontName get exch definefont pop } def [/Times-Bold /Times-Italic /Times-BoldItalic /Helvetica /Helvetica-Oblique
 /Helvetica-Bold /Helvetica-BoldOblique /Courier /Courier-Oblique /Courier-Bold /Courier-BoldOblique /Times-Roman /AvantGarde-Book /AvantGarde-BookOblique /AvantGarde-Demi /AvantGarde-DemiOblique /Bookman-Demi /Bookman-DemiItalic /Bookman-Light
 /Bookman-LightItalic /Helvetica-Narrow /Helvetica-Narrow-Bold /Helvetica-Narrow-BoldOblique /Helvetica-Narrow-Oblique /NewCenturySchlbk-Roman /NewCenturySchlbk-Bold /NewCenturySchlbk-BoldItalic /NewCenturySchlbk-Italic /Palatino-Bold
 /Palatino-BoldItalic /Palatino-Italic /Palatino-Roman ] {ISOLatin1Encoding reEncode } forall
%%EndProlog
%%BeginSetup
%%EndSetup
newpath  gsave  .25 .25 scale  gsave  0 0 t black[  ] 0 sd 3 lw 1 1 1 c 710 699 779 7 bf black 1 1 1 c 533 559 885 77 bf black 533 559 885 77 bl 1 1 1 c 533 559 885 77 bf black 533 559 885 77 bl 885 77 m 533 X s 885 93 m -16 Y s 898 85 m -8 Y s 912
 85 m -8 Y s 925 85 m -8 Y s 938 85 m -8 Y s 952 93 m -16 Y s 965 85 m -8 Y s 978 85 m -8 Y s 992 85 m -8 Y s 1005 85 m -8 Y s 1018 93 m -16 Y s 1032 85 m -8 Y s 1045 85 m -8 Y s 1058 85 m -8 Y s 1072 85 m -8 Y s 1085 93 m -16 Y s 1098 85 m -8 Y s
 1112 85 m -8 Y s 1125 85 m -8 Y s 1138 85 m -8 Y s 1152 93 m -16 Y s 1165 85 m -8 Y s 1178 85 m -8 Y s 1192 85 m -8 Y s 1205 85 m -8 Y s 1218 93 m -16 Y s 1232 85 m -8 Y s 1245 85 m -8 Y s 1258 85 m -8 Y s 1272 85 m -8 Y s 1285 93 m -16 Y s 1298 85
 m -8 Y s 1311 85 m -8 Y s 1325 85 m -8 Y s 1338 85 m -8 Y s 1351 93 m -16 Y s 1365 85 m -8 Y s 1378 85 m -8 Y s 1391 85 m -8 Y s 1405 85 m -8 Y s 1418 93 m -16 Y s
 gsave  710 699 779 7 C 861.369 54.4979 t 0 r /Helvetica findfont 22.736 sf 0 0 m (5.25) show NC gr 
 gsave  710 699 779 7 C 921.922 54.4979 t 0 r /Helvetica findfont 22.736 sf 0 0 m (5.255) show NC gr 
 gsave  710 699 779 7 C 994.586 54.4979 t 0 r /Helvetica findfont 22.736 sf 0 0 m (5.26) show NC gr 
 gsave  710 699 779 7 C 1055.14 54.4979 t 0 r /Helvetica findfont 22.736 sf 0 0 m (5.265) show NC gr 
 gsave  710 699 779 7 C 1127.8 54.4979 t 0 r /Helvetica findfont 22.736 sf 0 0 m (5.27) show NC gr 
 gsave  710 699 779 7 C 1188.36 54.4979 t 0 r /Helvetica findfont 22.736 sf 0 0 m (5.275) show NC gr 
 gsave  710 699 779 7 C 1261.02 54.4979 t 0 r /Helvetica findfont 22.736 sf 0 0 m (5.28) show NC gr 
 gsave  710 699 779 7 C 1321.57 54.4979 t 0 r /Helvetica findfont 22.736 sf 0 0 m (5.285) show NC gr 
 gsave  710 699 779 7 C 1394.24 54.4979 t 0 r /Helvetica findfont 22.736 sf 0 0 m (5.29) show NC gr 
 gsave  710 699 779 7 C 1360.93 31.7904 t 0 r /Helvetica findfont 22.736 sf 0 0 m (m_bc) show NC gr  885 77 m 559 Y s 902 77 m -17 X s 894 90 m -9 X s 894 102 m -9 X s 894 115 m -9 X s 894 128 m -9 X s 902 141 m -17 X s 894 153 m -9 X s 894 166 m -9
 X s 894 179 m -9 X s 894 192 m -9 X s 902 204 m -17 X s 894 217 m -9 X s 894 230 m -9 X s 894 242 m -9 X s 894 255 m -9 X s 902 268 m -17 X s 894 281 m -9 X s 894 293 m -9 X s 894 306 m -9 X s 894 319 m -9 X s 902 332 m -17 X s 894 344 m -9 X s 894
 357 m -9 X s 894 370 m -9 X s 894 383 m -9 X s 902 395 m -17 X s 894 408 m -9 X s 894 421 m -9 X s 894 433 m -9 X s 894 446 m -9 X s 902 459 m -17 X s 894 472 m -9 X s 894 484 m -9 X s 894 497 m -9 X s 894 510 m -9 X s 902 523 m -17 X s 894 535 m -9
 X s 894 548 m -9 X s 894 561 m -9 X s 894 573 m -9 X s 902 586 m -17 X s 902 586 m -17 X s 894 599 m -9 X s 894 612 m -9 X s 894 624 m -9 X s
 gsave  710 699 779 7 C 868.938 68.1223 t 0 r /Helvetica findfont 22.736 sf 0 0 m (0) show NC gr 
 gsave  710 699 779 7 C 855.314 131.703 t 0 r /Helvetica findfont 22.736 sf 0 0 m (10) show NC gr 
 gsave  710 699 779 7 C 855.314 195.284 t 0 r /Helvetica findfont 22.736 sf 0 0 m (20) show NC gr 
 gsave  710 699 779 7 C 855.314 260.379 t 0 r /Helvetica findfont 22.736 sf 0 0 m (30) show NC gr 
 gsave  710 699 779 7 C 855.314 323.96 t 0 r /Helvetica findfont 22.736 sf 0 0 m (40) show NC gr 
 gsave  710 699 779 7 C 855.314 387.54 t 0 r /Helvetica findfont 22.736 sf 0 0 m (50) show NC gr 
 gsave  710 699 779 7 C 855.314 451.121 t 0 r /Helvetica findfont 22.736 sf 0 0 m (60) show NC gr 
 gsave  710 699 779 7 C 855.314 514.702 t 0 r /Helvetica findfont 22.736 sf 0 0 m (70) show NC gr 
 gsave  710 699 779 7 C 855.314 578.283 t 0 r /Helvetica findfont 22.736 sf 0 0 m (80) show NC gr 
 gsave  710 699 779 7 C 828.065 452.635 t 90 r /Helvetica findfont 22.736 sf 0 0 m (Events / \( 0.0004 \)) show NC gr  888 102 m -3 X s 885 99 m 6 Y s 888 102 m 2 X s 890 99 m 6 Y s 888 102 m 21 Y s 885 123 m 6 X s 888 102 m -12 Y s 885 90 m 6 X s
 893 115 m -3 X s 890 112 m 6 Y s 893 115 m 3 X s 896 112 m 6 Y s 893 115 m 23 Y s 890 138 m 6 X s 893 115 m -15 Y s 890 100 m 6 X s 898 134 m -2 X s 896 131 m 6 Y s 898 134 m 3 X s 901 131 m 6 Y s 898 134 m 26 Y s 895 160 m 7 X s 898 134 m -18 Y s
 895 116 m 7 X s 904 128 m -3 X s 901 125 m 6 Y s 904 128 m 2 X s 906 125 m 6 Y s 904 128 m 25 Y s 901 153 m 6 X s 904 128 m -18 Y s 901 110 m 6 X s 909 147 m -3 X s 906 144 m 6 Y s 909 147 m 3 X s 912 144 m 6 Y s 909 147 m 28 Y s 906 175 m 6 X s 909
 147 m -21 Y s 906 126 m 6 X s 914 109 m -2 X s 912 106 m 6 Y s 914 109 m 3 X s 917 106 m 6 Y s 914 109 m 21 Y s 911 130 m 7 X s 914 109 m -14 Y s 911 95 m 7 X s 920 109 m -3 X s 917 106 m 6 Y s 920 109 m 2 X s 922 106 m 6 Y s 920 109 m 21 Y s 917
 130 m 6 X s 920 109 m -14 Y s 917 95 m 6 X s 925 128 m -3 X s 922 125 m 6 Y s 925 128 m 3 X s 928 125 m 6 Y s 925 128 m 25 Y s 922 153 m 6 X s 925 128 m -18 Y s 922 110 m 6 X s 930 109 m -2 X s 928 106 m 6 Y s 930 109 m 3 X s 933 106 m 6 Y s 930 109
 m 21 Y s 927 130 m 6 X s 930 109 m -14 Y s 927 95 m 6 X s 936 153 m -3 X s 933 150 m 6 Y s 936 153 m 2 X s 938 150 m 6 Y s 936 153 m 29 Y s 933 182 m 6 X s 936 153 m -21 Y s 933 132 m 6 X s 941 109 m -3 X s 938 106 m 6 Y s 941 109 m 3 X s 944 106 m
 6 Y s 941 109 m 21 Y s 938 130 m 6 X s 941 109 m -14 Y s 938 95 m 6 X s 946 115 m -2 X s 944 112 m 6 Y s 946 115 m 3 X s 949 112 m 6 Y s 946 115 m 23 Y s 943 138 m 6 X s 946 115 m -15 Y s 943 100 m 6 X s 952 141 m -3 X s 949 138 m 6 Y s 952 141 m 2
 X s 954 138 m 6 Y s 952 141 m 27 Y s 949 168 m 6 X s 952 141 m -20 Y s 949 121 m 6 X s 957 122 m -3 X s 954 119 m 6 Y s 957 122 m 3 X s 960 119 m 6 Y s 957 122 m 24 Y s 954 146 m 6 X s 957 122 m -17 Y s 954 105 m 6 X s 962 115 m -2 X s 960 112 m 6 Y
 s 962 115 m 3 X s 965 112 m 6 Y s 962 115 m 23 Y s 959 138 m 6 X s 962 115 m -15 Y s 959 100 m 6 X s 968 122 m -3 X s 965 119 m 6 Y s 968 122 m 2 X s 970 119 m 6 Y s 968 122 m 24 Y s 965 146 m 6 X s 968 122 m -17 Y s 965 105 m 6 X s 973 102 m -3 X s
 970 99 m 6 Y s 973 102 m 3 X s 976 99 m 6 Y s 973 102 m 21 Y s 970 123 m 6 X s 973 102 m -12 Y s 970 90 m 6 X s 978 122 m -2 X s 976 119 m 6 Y s 978 122 m 3 X s 981 119 m 6 Y s 978 122 m 24 Y s 975 146 m 6 X s 978 122 m -17 Y s 975 105 m 6 X s 984
 134 m -3 X s 981 131 m 6 Y s 984 134 m 2 X s 986 131 m 6 Y s 984 134 m 26 Y s 981 160 m 6 X s 984 134 m -18 Y s 981 116 m 6 X s 989 153 m -3 X s 986 150 m 6 Y s 989 153 m 3 X s 992 150 m 6 Y s 989 153 m 29 Y s 986 182 m 6 X s 989 153 m -21 Y s 986
 132 m 6 X s 994 102 m -2 X s 992 99 m 6 Y s 994 102 m 3 X s 997 99 m 6 Y s 994 102 m 21 Y s 991 123 m 6 X s 994 102 m -12 Y s 991 90 m 6 X s 1000 147 m -3 X s 997 144 m 6 Y s 1000 147 m 2 X s 1002 144 m 6 Y s 1000 147 m 28 Y s 997 175 m 6 X s 1000
 147 m -21 Y s 997 126 m 6 X s 1005 147 m -3 X s 1002 144 m 6 Y s 1005 147 m 3 X s 1008 144 m 6 Y s 1005 147 m 28 Y s 1002 175 m 6 X s 1005 147 m -21 Y s 1002 126 m 6 X s 1010 109 m -2 X s 1008 106 m 6 Y s 1010 109 m 3 X s 1013 106 m 6 Y s 1010 109 m
 21 Y s 1007 130 m 6 X s 1010 109 m -14 Y s 1007 95 m 6 X s 1016 134 m -3 X s 1013 131 m 6 Y s 1016 134 m 2 X s 1018 131 m 6 Y s 1016 134 m 26 Y s 1013 160 m 6 X s 1016 134 m -18 Y s 1013 116 m 6 X s 1021 115 m -3 X s 1018 112 m 6 Y s 1021 115 m 3 X
 s 1024 112 m 6 Y s 1021 115 m 23 Y s 1018 138 m 6 X s 1021 115 m -15 Y s 1018 100 m 6 X s 1026 122 m -2 X s 1024 119 m 6 Y s 1026 122 m 3 X s 1029 119 m 6 Y s 1026 122 m 24 Y s 1023 146 m 6 X s 1026 122 m -17 Y s 1023 105 m 6 X s 1032 128 m -3 X s
 1029 125 m 6 Y s 1032 128 m 2 X s 1034 125 m 6 Y s 1032 128 m 25 Y s 1029 153 m 6 X s 1032 128 m -18 Y s 1029 110 m 6 X s 1037 102 m -3 X s 1034 99 m 6 Y s 1037 102 m 3 X s 1040 99 m 6 Y s 1037 102 m 21 Y s 1034 123 m 6 X s 1037 102 m -12 Y s 1034
 90 m 6 X s 1042 109 m -2 X s 1040 106 m 6 Y s 1042 109 m 3 X s 1045 106 m 6 Y s 1042 109 m 21 Y s 1039 130 m 6 X s 1042 109 m -14 Y s 1039 95 m 6 X s 1048 115 m -3 X s 1045 112 m 6 Y s 1048 115 m 2 X s 1050 112 m 6 Y s 1048 115 m 23 Y s 1045 138 m 6
 X s 1048 115 m -15 Y s 1045 100 m 6 X s 1053 134 m -3 X s 1050 131 m 6 Y s 1053 134 m 3 X s 1056 131 m 6 Y s 1053 134 m 26 Y s 1050 160 m 6 X s 1053 134 m -18 Y s 1050 116 m 6 X s 1058 102 m -2 X s 1056 99 m 6 Y s 1058 102 m 3 X s 1061 99 m 6 Y s
 1058 102 m 21 Y s 1055 123 m 6 X s 1058 102 m -12 Y s 1055 90 m 6 X s 1064 141 m -3 X s 1061 138 m 6 Y s 1064 141 m 2 X s 1066 138 m 6 Y s 1064 141 m 27 Y s 1061 168 m 6 X s 1064 141 m -20 Y s 1061 121 m 6 X s 1069 90 m -3 X s 1066 87 m 6 Y s 1069
 90 m 3 X s 1072 87 m 6 Y s 1069 90 m 17 Y s 1066 107 m 6 X s 1069 90 m -8 Y s 1066 82 m 6 X s 1074 115 m -2 X s 1072 112 m 6 Y s 1074 115 m 3 X s 1077 112 m 6 Y s 1074 115 m 23 Y s 1071 138 m 6 X s 1074 115 m -15 Y s 1071 100 m 6 X s 1080 147 m -3 X
 s 1077 144 m 6 Y s 1080 147 m 2 X s 1082 144 m 6 Y s 1080 147 m 28 Y s 1077 175 m 6 X s 1080 147 m -21 Y s 1077 126 m 6 X s 1085 160 m -3 X s 1082 157 m 6 Y s 1085 160 m 3 X s 1088 157 m 6 Y s 1085 160 m 30 Y s 1082 190 m 6 X s 1085 160 m -23 Y s
 1082 137 m 6 X s 1090 115 m -2 X s 1088 112 m 6 Y s 1090 115 m 3 X s 1093 112 m 6 Y s 1090 115 m 23 Y s 1087 138 m 6 X s 1090 115 m -15 Y s 1087 100 m 6 X s 1096 122 m -3 X s 1093 119 m 6 Y s 1096 122 m 2 X s 1098 119 m 6 Y s 1096 122 m 24 Y s 1093
 146 m 6 X s 1096 122 m -17 Y s 1093 105 m 6 X s 1101 128 m -3 X s 1098 125 m 6 Y s 1101 128 m 3 X s 1104 125 m 6 Y s 1101 128 m 25 Y s 1098 153 m 6 X s 1101 128 m -18 Y s 1098 110 m 6 X s 1106 128 m -2 X s 1104 125 m 6 Y s 1106 128 m 3 X s 1109 125
 m 6 Y s 1106 128 m 25 Y s 1103 153 m 6 X s 1106 128 m -18 Y s 1103 110 m 6 X s 1112 153 m -3 X s 1109 150 m 6 Y s 1112 153 m 2 X s 1114 150 m 6 Y s 1112 153 m 29 Y s 1109 182 m 6 X s 1112 153 m -21 Y s 1109 132 m 6 X s 1117 102 m -3 X s 1114 99 m 6
 Y s 1117 102 m 3 X s 1120 99 m 6 Y s 1117 102 m 21 Y s 1114 123 m 6 X s 1117 102 m -12 Y s 1114 90 m 6 X s 1122 122 m -2 X s 1120 119 m 6 Y s 1122 122 m 3 X s 1125 119 m 6 Y s 1122 122 m 24 Y s 1119 146 m 6 X s 1122 122 m -17 Y s 1119 105 m 6 X s
 1128 109 m -3 X s 1125 106 m 6 Y s 1128 109 m 2 X s 1130 106 m 6 Y s 1128 109 m 21 Y s 1125 130 m 6 X s 1128 109 m -14 Y s 1125 95 m 6 X s 1133 96 m -3 X s 1130 93 m 6 Y s 1133 96 m 3 X s 1136 93 m 6 Y s 1133 96 m 19 Y s 1130 115 m 6 X s 1133 96 m
 -10 Y s 1130 86 m 6 X s 1138 166 m -2 X s 1136 163 m 6 Y s 1138 166 m 3 X s 1141 163 m 6 Y s 1138 166 m 31 Y s 1135 197 m 6 X s 1138 166 m -23 Y s 1135 143 m 6 X s 1144 122 m -3 X s 1141 119 m 6 Y s 1144 122 m 2 X s 1146 119 m 6 Y s 1144 122 m 24 Y
 s 1141 146 m 6 X s 1144 122 m -17 Y s 1141 105 m 6 X s 1149 115 m -3 X s 1146 112 m 6 Y s 1149 115 m 3 X s 1152 112 m 6 Y s 1149 115 m 23 Y s 1146 138 m 6 X s 1149 115 m -15 Y s 1146 100 m 6 X s 1154 128 m -2 X s 1152 125 m 6 Y s 1154 128 m 3 X s
 1157 125 m 6 Y s 1154 128 m 25 Y s 1151 153 m 6 X s 1154 128 m -18 Y s 1151 110 m 6 X s 1160 128 m -3 X s 1157 125 m 6 Y s 1160 128 m 2 X s 1162 125 m 6 Y s 1160 128 m 25 Y s 1157 153 m 6 X s 1160 128 m -18 Y s 1157 110 m 6 X s 1165 115 m -3 X s
 1162 112 m 6 Y s 1165 115 m 3 X s 1168 112 m 6 Y s 1165 115 m 23 Y s 1162 138 m 6 X s 1165 115 m -15 Y s 1162 100 m 6 X s 1170 141 m -2 X s 1168 138 m 6 Y s 1170 141 m 3 X s 1173 138 m 6 Y s 1170 141 m 27 Y s 1167 168 m 6 X s 1170 141 m -20 Y s 1167
 121 m 6 X s 1176 102 m -3 X s 1173 99 m 6 Y s 1176 102 m 2 X s 1178 99 m 6 Y s 1176 102 m 21 Y s 1173 123 m 6 X s 1176 102 m -12 Y s 1173 90 m 6 X s 1181 128 m -3 X s 1178 125 m 6 Y s 1181 128 m 3 X s 1184 125 m 6 Y s 1181 128 m 25 Y s 1178 153 m 6
 X s 1181 128 m -18 Y s 1178 110 m 6 X s 1186 166 m -2 X s 1184 163 m 6 Y s 1186 166 m 3 X s 1189 163 m 6 Y s 1186 166 m 31 Y s 1183 197 m 6 X s 1186 166 m -23 Y s 1183 143 m 6 X s 1192 160 m -3 X s 1189 157 m 6 Y s 1192 160 m 2 X s 1194 157 m 6 Y s
 1192 160 m 30 Y s 1189 190 m 6 X s 1192 160 m -23 Y s 1189 137 m 6 X s 1197 134 m -3 X s 1194 131 m 6 Y s 1197 134 m 3 X s 1200 131 m 6 Y s 1197 134 m 26 Y s 1194 160 m 6 X s 1197 134 m -18 Y s 1194 116 m 6 X s 1202 153 m -2 X s 1200 150 m 6 Y s
 1202 153 m 3 X s 1205 150 m 6 Y s 1202 153 m 29 Y s 1199 182 m 6 X s 1202 153 m -21 Y s 1199 132 m 6 X s 1208 160 m -3 X s 1205 157 m 6 Y s 1208 160 m 2 X s 1210 157 m 6 Y s 1208 160 m 30 Y s 1205 190 m 6 X s 1208 160 m -23 Y s 1205 137 m 6 X s 1213
 147 m -3 X s 1210 144 m 6 Y s 1213 147 m 3 X s 1216 144 m 6 Y s 1213 147 m 28 Y s 1210 175 m 6 X s 1213 147 m -21 Y s 1210 126 m 6 X s 1218 192 m -2 X s 1216 189 m 6 Y s 1218 192 m 3 X s 1221 189 m 6 Y s 1218 192 m 33 Y s 1215 225 m 6 X s 1218 192 m
 -27 Y s 1215 165 m 6 X s 1224 172 m -3 X s 1221 169 m 7 Y s 1224 172 m 2 X s 1226 169 m 7 Y s 1224 172 m 32 Y s 1221 204 m 6 X s 1224 172 m -24 Y s 1221 148 m 6 X s 1229 236 m -3 X s 1226 233 m 6 Y s 1229 236 m 3 X s 1232 233 m 6 Y s 1229 236 m 39 Y
 s 1226 275 m 6 X s 1229 236 m -31 Y s 1226 205 m 6 X s 1234 287 m -2 X s 1232 284 m 6 Y s 1234 287 m 3 X s 1237 284 m 6 Y s 1234 287 m 43 Y s 1231 330 m 6 X s 1234 287 m -36 Y s 1231 251 m 6 X s 1240 242 m -3 X s 1237 239 m 7 Y s 1240 242 m 2 X s
 1242 239 m 7 Y s 1240 242 m 40 Y s 1237 282 m 6 X s 1240 242 m -32 Y s 1237 210 m 6 X s 1245 223 m -3 X s 1242 220 m 6 Y s 1245 223 m 3 X s 1248 220 m 6 Y s 1245 223 m 38 Y s 1242 261 m 6 X s 1245 223 m -30 Y s 1242 193 m 6 X s 1250 306 m -2 X s
 1248 303 m 6 Y s 1250 306 m 3 X s 1253 303 m 6 Y s 1250 306 m 45 Y s 1247 351 m 6 X s 1250 306 m -38 Y s 1247 268 m 6 X s 1256 332 m -3 X s 1253 329 m 6 Y s 1256 332 m 2 X s 1258 329 m 6 Y s 1256 332 m 47 Y s 1253 379 m 6 X s 1256 332 m -40 Y s 1253
 292 m 6 X s 1261 395 m -3 X s 1258 392 m 6 Y s 1261 395 m 3 X s 1264 392 m 6 Y s 1261 395 m 52 Y s 1258 447 m 6 X s 1261 395 m -45 Y s 1258 350 m 6 X s 1266 408 m -2 X s 1264 405 m 6 Y s 1266 408 m 3 X s 1269 405 m 6 Y s 1266 408 m 53 Y s 1263 461 m
 6 X s 1266 408 m -46 Y s 1263 362 m 6 X s 1272 440 m -3 X s 1269 437 m 6 Y s 1272 440 m 2 X s 1274 437 m 6 Y s 1272 440 m 55 Y s 1268 495 m 7 X s 1272 440 m -48 Y s 1268 392 m 7 X s 1277 395 m -3 X s 1274 392 m 6 Y s 1277 395 m 3 X s 1280 392 m 6 Y
 s 1277 395 m 52 Y s 1274 447 m 6 X s 1277 395 m -45 Y s 1274 350 m 6 X s 1282 491 m -2 X s 1280 488 m 6 Y s 1282 491 m 3 X s 1285 488 m 6 Y s 1282 491 m 58 Y s 1279 549 m 6 X s 1282 491 m -51 Y s 1279 440 m 6 X s 1288 472 m -3 X s 1285 469 m 6 Y s
 1288 472 m 2 X s 1290 469 m 6 Y s 1288 472 m 56 Y s 1284 528 m 7 X s 1288 472 m -50 Y s 1284 422 m 7 X s 1293 548 m -3 X s 1290 545 m 6 Y s 1293 548 m 3 X s 1296 545 m 6 Y s 1293 548 m 61 Y s 1290 609 m 6 X s 1293 548 m -55 Y s 1290 493 m 6 X s 1298
 529 m -2 X s 1296 526 m 6 Y s 1298 529 m 3 X s 1301 526 m 6 Y s 1298 529 m 60 Y s 1295 589 m 6 X s 1298 529 m -54 Y s 1295 475 m 6 X s 1304 395 m -3 X s 1301 392 m 6 Y s 1304 395 m 2 X s 1306 392 m 6 Y s 1304 395 m 52 Y s 1300 447 m 7 X s 1304 395 m
 -45 Y s 1300 350 m 7 X s 1309 472 m -3 X s 1306 469 m 6 Y s 1309 472 m 2 X s 1311 469 m 6 Y s 1309 472 m 56 Y s 1306 528 m 6 X s 1309 472 m -50 Y s 1306 422 m 6 X s 1314 408 m -3 X s 1311 405 m 6 Y s 1314 408 m 3 X s 1317 405 m 6 Y s 1314 408 m 53 Y
 s 1311 461 m 6 X s 1314 408 m -46 Y s 1311 362 m 6 X s 1319 351 m -2 X s 1317 348 m 6 Y s 1319 351 m 3 X s 1322 348 m 6 Y s 1319 351 m 48 Y s 1316 399 m 7 X s 1319 351 m -42 Y s 1316 309 m 7 X s 1325 363 m -3 X s 1322 360 m 6 Y s 1325 363 m 2 X s
 1327 360 m 6 Y s 1325 363 m 50 Y s 1322 413 m 6 X s 1325 363 m -42 Y s 1322 321 m 6 X s 1330 338 m -3 X s 1327 335 m 6 Y s 1330 338 m 3 X s 1333 335 m 6 Y s 1330 338 m 47 Y s 1327 385 m 6 X s 1330 338 m -41 Y s 1327 297 m 6 X s 1335 268 m -2 X s
 1333 265 m 6 Y s 1335 268 m 3 X s 1338 265 m 6 Y s 1335 268 m 42 Y s 1332 310 m 7 X s 1335 268 m -35 Y s 1332 233 m 7 X s 1341 236 m -3 X s 1338 233 m 6 Y s 1341 236 m 2 X s 1343 233 m 6 Y s 1341 236 m 39 Y s 1338 275 m 6 X s 1341 236 m -31 Y s 1338
 205 m 6 X s 1346 179 m -3 X s 1343 176 m 6 Y s 1346 179 m 3 X s 1349 176 m 6 Y s 1346 179 m 32 Y s 1343 211 m 6 X s 1346 179 m -25 Y s 1343 154 m 6 X s 1351 160 m -2 X s 1349 157 m 6 Y s 1351 160 m 3 X s 1354 157 m 6 Y s 1351 160 m 30 Y s 1348 190 m
 6 X s 1351 160 m -23 Y s 1348 137 m 6 X s 1357 134 m -3 X s 1354 131 m 6 Y s 1357 134 m 2 X s 1359 131 m 6 Y s 1357 134 m 26 Y s 1354 160 m 6 X s 1357 134 m -18 Y s 1354 116 m 6 X s 1362 172 m -3 X s 1359 169 m 7 Y s 1362 172 m 3 X s 1365 169 m 7 Y
 s 1362 172 m 32 Y s 1359 204 m 6 X s 1362 172 m -24 Y s 1359 148 m 6 X s 1367 134 m -2 X s 1365 131 m 6 Y s 1367 134 m 3 X s 1370 131 m 6 Y s 1367 134 m 26 Y s 1364 160 m 6 X s 1367 134 m -18 Y s 1364 116 m 6 X s 1373 102 m -3 X s 1370 99 m 6 Y s
 1373 102 m 2 X s 1375 99 m 6 Y s 1373 102 m 21 Y s 1370 123 m 6 X s 1373 102 m -12 Y s 1370 90 m 6 X s 1378 102 m -3 X s 1375 99 m 6 Y s 1378 102 m 3 X s 1381 99 m 6 Y s 1378 102 m 21 Y s 1375 123 m 6 X s 1378 102 m -12 Y s 1375 90 m 6 X s 1383 134
 m -2 X s 1381 131 m 6 Y s 1383 134 m 3 X s 1386 131 m 6 Y s 1383 134 m 26 Y s 1380 160 m 6 X s 1383 134 m -18 Y s 1380 116 m 6 X s 1389 102 m -3 X s 1386 99 m 6 Y s 1389 102 m 2 X s 1391 99 m 6 Y s 1389 102 m 21 Y s 1386 123 m 6 X s 1389 102 m -12 Y
 s 1386 90 m 6 X s 1394 96 m -3 X s 1391 93 m 6 Y s 1394 96 m 3 X s 1397 93 m 6 Y s 1394 96 m 19 Y s 1391 115 m 6 X s 1394 96 m -10 Y s 1391 86 m 6 X s 1399 90 m -2 X s 1397 87 m 6 Y s 1399 90 m 3 X s 1402 87 m 6 Y s 1399 90 m 17 Y s 1396 107 m 6 X s
 1399 90 m -8 Y s 1396 82 m 6 X s 1405 90 m -3 X s 1402 87 m 6 Y s 1405 90 m 2 X s 1407 87 m 6 Y s 1405 90 m 17 Y s 1402 107 m 6 X s 1405 90 m -8 Y s 1402 82 m 6 X s 1410 83 m -3 X s 1407 80 m 6 Y s 1410 83 m 3 X s 1413 80 m 6 Y s 1410 83 m 15 Y s
 1407 98 m 6 X s 1410 83 m -5 Y s 1407 78 m 6 X s 1415 102 m -2 X s 1413 99 m 6 Y s 1415 102 m 3 X s 1418 99 m 6 Y s 1415 102 m 21 Y s 1412 123 m 6 X s 1415 102 m -12 Y s 1412 90 m 6 X s /w 12 def /w2 {w 2 div} def /w3 {w 3 div} def 888 102 893 115
 898 134 904 128 909 147 914 109 920 109 925 128 930 109 936 153 941 109 946 115 952 141 957 122 962 115 968 122 973 102 978 122 984 134 989 153 994 102 1000 147 1005 147 1010 109 1016 134 1021 115 1026 122 1032 128 1037 102 1042 109 1048 115 1053
 134 1058 102 1064 141 1069 90 1074 115 1080 147 1085 160 1090 115 1096 122 1101 128 1106 128 1112 153 1117 102 1122 122 1128 109 1133 96 1138 166 1144 122 1149 115 1154 128 1160 128 1165 115 1170 141 1176 102 1181 128 1186 166 1192 160 1197 134 1202
 153 1208 160 1213 147 1218 192 1224 172 1229 236 1234 287 1240 242 1245 223 1250 306 1256 332 1261 395 1266 408 1272 440 1277 395 1282 491 1288 472 1293 548 1298 529 1304 395 1309 472 1314 408 1319 351 1325 363 1330 338 1335 268 1341 236 1346 179
 1351 160 1357 134 1362 172 1367 134 1373 102 1378 102 1383 134 1389 102 1394 96 1399 90 1405 90 1410 83 1415 102 100 { m20} R 0 0 1 c 9 lw black 0 0 1 c 885 121 m cl s 885 121 m 5 1 d 27 X 5 1 d 32 X 6 1 d 37 X 5 1 d 64 X 6 1 d 101 X 5 1 d 6 1 d 5 2
 d 5 2 d 6 4 d 5 5 d 5 8 d 6 10 d 5 13 d 3 7 d 2 9 d 3 10 d 3 10 d 2 12 d 3 12 d 3 14 d 2 14 d 6 30 d 5 33 d 5 34 d 6 33 d 2 16 d 3 15 d 3 14 d 2 12 d 3 11 d 3 10 d 2 8 d 3 5 d 3 4 d 2 1 d 3 X 3 -3 d 2 -5 d 3 -7 d 3 -9 d 2 -10 d 3 -13 d 2 -13 d 3 -15
 d 3 -16 d 5 -33 d 5 -35 d 6 -35 d 5 -32 d 5 -30 d 3 -14 d 3 -13 d 2 -11 d 3 -11 d 3 -10 d 2 -9 d 3 -8 d 3 -8 d 5 -12 d 5 -10 d 6 -8 d 5 -6 d 5 -5 d 6 -4 d 5 -4 d 5 -4 d 6 -5 d 2 -3 d 2 -2 d -2 Y 1 -4 d s black 3 lw 885 77 m 533 X s 885 93 m -16 Y s
 898 85 m -8 Y s 912 85 m -8 Y s 925 85 m -8 Y s 938 85 m -8 Y s 952 93 m -16 Y s 965 85 m -8 Y s 978 85 m -8 Y s 992 85 m -8 Y s 1005 85 m -8 Y s 1018 93 m -16 Y s 1032 85 m -8 Y s 1045 85 m -8 Y s 1058 85 m -8 Y s 1072 85 m -8 Y s 1085 93 m -16 Y s
 1098 85 m -8 Y s 1112 85 m -8 Y s 1125 85 m -8 Y s 1138 85 m -8 Y s 1152 93 m -16 Y s 1165 85 m -8 Y s 1178 85 m -8 Y s 1192 85 m -8 Y s 1205 85 m -8 Y s 1218 93 m -16 Y s 1232 85 m -8 Y s 1245 85 m -8 Y s 1258 85 m -8 Y s 1272 85 m -8 Y s 1285 93 m
 -16 Y s 1298 85 m -8 Y s 1311 85 m -8 Y s 1325 85 m -8 Y s 1338 85 m -8 Y s 1351 93 m -16 Y s 1365 85 m -8 Y s 1378 85 m -8 Y s 1391 85 m -8 Y s 1405 85 m -8 Y s 1418 93 m -16 Y s 885 77 m 559 Y s 902 77 m -17 X s 894 90 m -9 X s 894 102 m -9 X s
 894 115 m -9 X s 894 128 m -9 X s 902 141 m -17 X s 894 153 m -9 X s 894 166 m -9 X s 894 179 m -9 X s 894 192 m -9 X s 902 204 m -17 X s 894 217 m -9 X s 894 230 m -9 X s 894 242 m -9 X s 894 255 m -9 X s 902 268 m -17 X s 894 281 m -9 X s 894 293
 m -9 X s 894 306 m -9 X s 894 319 m -9 X s 902 332 m -17 X s 894 344 m -9 X s 894 357 m -9 X s 894 370 m -9 X s 894 383 m -9 X s 902 395 m -17 X s 894 408 m -9 X s 894 421 m -9 X s 894 433 m -9 X s 894 446 m -9 X s 902 459 m -17 X s 894 472 m -9 X s
 894 484 m -9 X s 894 497 m -9 X s 894 510 m -9 X s 902 523 m -17 X s 894 535 m -9 X s 894 548 m -9 X s 894 561 m -9 X s 894 573 m -9 X s 902 586 m -17 X s 902 586 m -17 X s 894 599 m -9 X s 894 612 m -9 X s 894 624 m -9 X s 1 1 1 c black
 gsave  710 699 779 7 C 1041.51 672.14 t 0 r /Helvetica findfont 34.8619 sf 0 0 m (Background) show NC gr 
 gr  gr showpage
end
%%EOF
