%!PS-Adobe-2.0 EPSF-2.0
%%BoundingBox:  195 2 372 176
%%Title: ./plots/pBg_s2s0.eps: rf101_basics
%%Creator: ROOT Version 6.11/01
%%CreationDate: Sat Sep 23 20:37:48 2017
%%DocumentNeededResources: ProcSet (FontSetInit)
%%EndComments
%%BeginProlog
80 dict begin
/s {stroke} def /l {lineto} def /m {moveto} def /t {translate} def
/r {rotate} def /rl {roll}  def /R {repeat} def
/d {rlineto} def /rm {rmoveto} def /gr {grestore} def /f {eofill} def
/c {setrgbcolor} def /black {0 setgray} def /sd {setdash} def
/cl {closepath} def /sf {scalefont setfont} def /lw {setlinewidth} def
/box {m dup 0 exch d exch 0 d 0 exch neg d cl} def
/NC{systemdict begin initclip end}def/C{NC box clip newpath}def
/bl {box s} def /bf {gsave box gsave f grestore 1 lw [] 0 sd s grestore} def /Y { 0 exch d} def /X { 0 d} def 
/K {{pop pop 0 moveto} exch kshow} bind def
/ita {/ang 15 def gsave [1 0 ang dup sin exch cos div 1 0 0] concat} def 
/mp {newpath /y exch def /x exch def} def
/side {[w .77 mul w .23 mul] .385 w mul sd w 0 l currentpoint t -144 r} def
/mr {mp x y w2 0 360 arc} def /m24 {mr s} def /m20 {mr f} def
/mb {mp x y w2 add m w2 neg 0 d 0 w neg d w 0 d 0 w d cl} def
/mt {mp x y w2 add m w2 neg w neg d w 0 d cl} def
/w4 {w 4 div} def
/w6 {w 6 div} def
/w8 {w 8 div} def
/m21 {mb f} def /m25 {mb s} def /m22 {mt f} def /m26{mt s} def
/m23 {mp x y w2 sub m w2 w d w neg 0 d cl f} def
/m27 {mp x y w2 add m w3 neg w2 neg d w3 w2 neg d w3 w2 d cl s} def
/m28 {mp x w2 sub y w2 sub w3 add m w3 0 d  0 w3 neg d w3 0 d 0 w3 d w3 0 d  0 w3 d w3 neg 0 d 0 w3 d w3 neg 0 d 0 w3 neg d w3 neg 0 d cl s } def
/m29 {mp gsave x w2 sub y w2 add w3 sub m currentpoint t 4 {side} repeat cl fill gr} def
/m30 {mp gsave x w2 sub y w2 add w3 sub m currentpoint t 4 {side} repeat cl s gr} def
/m31 {mp x y w2 sub m 0 w d x w2 sub y m w 0 d x w2 sub y w2 add m w w neg d x w2 sub y w2 sub m w w d s} def
/m32 {mp x y w2 sub m w2 w d w neg 0 d cl s} def
/m33 {mp x y w2 add m w3 neg w2 neg d w3 w2 neg d w3 w2 d cl f} def
/m34 {mp x w2 sub y w2 sub w3 add m w3 0 d  0 w3 neg d w3 0 d 0 w3 d w3 0 d  0 w3 d w3 neg 0 d 0 w3 d w3 neg 0 d 0 w3 neg d w3 neg 0 d cl f } def
/m35 {mp x y w2 add m w2 neg w2 neg d w2 w2 neg d w2 w2 d w2 neg w2 d x y w2 sub m 0 w d x w2 sub y m w 0 d s} def
/m36 {mb x w2 sub y w2 add m w w neg d x w2 sub y w2 sub m w w d s} def
/m37 {mp x y m w4 neg w2 d w4 neg w2 neg d w2 0 d  w4 neg w2 neg d w2 0 d w4 neg w2 d w2 0 d w4 neg w2 d w4 neg w2 neg d cl s} def
/m38 {mp x w4 sub y w2 add m w4 neg w4 neg d 0 w2 neg d w4 w4 neg d w2 0 d w4 w4 d 0 w2 d w4 neg w4 d w2 neg 0 d x y w2 sub m 0 w d x w2 sub y m w 0 d cl s} def
/m39 {mp x y m w4 neg w2 d w4 neg w2 neg d w2 0 d  w4 neg w2 neg d w2 0 d w4 neg w2 d w2 0 d w4 neg w2 d w4 neg w2 neg d cl f} def
/m40 {mp x y m w4 w2 d w4 w4 neg d w2 neg w4 neg d w2 w4 neg d w4 neg w4 neg d w4 neg w2 d w4 neg w2 neg d w4 neg w4 d w2 w4 d w2 neg w4 d w4 w4 d w4 w2 neg d cl s} def
/m41 {mp x y m w4 w2 d w4 w4 neg d w2 neg w4 neg d w2 w4 neg d w4 neg w4 neg d w4 neg w2 d w4 neg w2 neg d w4 neg w4 d w2 w4 d w2 neg w4 d w4 w4 d w4 w2 neg d cl f} def
/m42 {mp x y w2 add m w8 neg w2 -3 4 div mul d w2 -3 4 div mul w8 neg d w2 3 4 div mul w8 neg d w8 w2 -3 4 div mul d w8 w2 3 4 div mul d w2 3 4 div mul w8 d w2 -3 4 div mul w8 d w8 neg w2 3 4 div mul d cl s} def
/m43 {mp x y w2 add m w8 neg w2 -3 4 div mul d w2 -3 4 div mul w8 neg d w2 3 4 div mul w8 neg d w8 w2 -3 4 div mul d w8 w2 3 4 div mul d w2 3 4 div mul w8 d w2 -3 4 div mul w8 d w8 neg w2 3 4 div mul d cl f} def
/m44 {mp x y m w6 neg w2 d w2 2 3 div mul 0 d w6 neg w2 neg d w2 w6 d 0 w2 -2 3 div mul d w2 neg w6 d w6 w2 neg d w2 -2 3 div mul 0 d w6 w2 d w2 neg w6 neg d 0 w2 2 3 div mul d w2 w6 neg d cl s} def
/m45 {mp x y m w6 neg w2 d w2 2 3 div mul 0 d w6 neg w2 neg d w2 w6 d 0 w2 -2 3 div mul d w2 neg w6 d w6 w2 neg d w2 -2 3 div mul 0 d w6 w2 d w2 neg w6 neg d 0 w2 2 3 div mul d w2 w6 neg d cl f} def
/m46 {mp x y w4 add m w4 neg w4 d w4 neg w4 neg d  w4 w4 neg d w4 neg w4 neg d w4 w4 neg d w4 w4 d w4 w4 neg d w4 w4 d w4 neg w4 d w4 w4 d w4 neg w4 d w4 neg w4 neg d cl s} def
/m47 {mp x y w4 add m w4 neg w4 d w4 neg w4 neg d w4 w4 neg d w4 neg w4 neg d  w4 w4 neg d w4 w4 d w4 w4 neg d w4 w4 d w4 neg w4 d w4 w4 d w4 neg w4 d w4 neg w4 neg d cl f} def
/m48 {mp x y w4 add m w4 neg w4 d w4 neg w4 neg d w4 w4 neg d  w4 neg w4 neg d w4 w4 neg d w4 w4 d w4 w4 neg d w4 w4 d w4 neg w4 d w4 w4 d w4 neg w4 d w4 neg w4 neg d  w4 w4 neg d w4 neg w4 neg d w4 neg w4 d w4 w4 d cl f} def
/m49 {mp x w2 sub w3 add y w2 sub w3 add m  0 w3 neg d w3 0 d 0 w3 d w3 0 d 0 w3 d w3 neg 0 d 0 w3 d w3 neg 0 d 0 w3 neg d w3 neg 0 d 0 w3 neg d w3 0 d 0 w3 d w3 0 d 0 w3 neg d w3 neg 0 d cl f } def
/m2 {mp x y w2 sub m 0 w d x w2 sub y m w 0 d s} def
/m5 {mp x w2 sub y w2 sub m w w d x w2 sub y w2 add m w w neg d s} def
%%IncludeResource: ProcSet (FontSetInit)
%%IncludeResource: font Times-Roman
%%IncludeResource: font Times-Italic
%%IncludeResource: font Times-Bold
%%IncludeResource: font Times-BoldItalic
%%IncludeResource: font Helvetica
%%IncludeResource: font Helvetica-Oblique
%%IncludeResource: font Helvetica-Bold
%%IncludeResource: font Helvetica-BoldOblique
%%IncludeResource: font Courier
%%IncludeResource: font Courier-Oblique
%%IncludeResource: font Courier-Bold
%%IncludeResource: font Courier-BoldOblique
%%IncludeResource: font Symbol
%%IncludeResource: font ZapfDingbats
/reEncode {exch findfont dup length dict begin {1 index /FID eq  {pop pop} {def} ifelse } forall /Encoding exch def currentdict end dup /FontName get exch definefont pop } def [/Times-Bold /Times-Italic /Times-BoldItalic /Helvetica /Helvetica-Oblique
 /Helvetica-Bold /Helvetica-BoldOblique /Courier /Courier-Oblique /Courier-Bold /Courier-BoldOblique /Times-Roman /AvantGarde-Book /AvantGarde-BookOblique /AvantGarde-Demi /AvantGarde-DemiOblique /Bookman-Demi /Bookman-DemiItalic /Bookman-Light
 /Bookman-LightItalic /Helvetica-Narrow /Helvetica-Narrow-Bold /Helvetica-Narrow-BoldOblique /Helvetica-Narrow-Oblique /NewCenturySchlbk-Roman /NewCenturySchlbk-Bold /NewCenturySchlbk-BoldItalic /NewCenturySchlbk-Italic /Palatino-Bold
 /Palatino-BoldItalic /Palatino-Italic /Palatino-Roman ] {ISOLatin1Encoding reEncode } forall
%%EndProlog
%%BeginSetup
%%EndSetup
newpath  gsave  .25 .25 scale  gsave  0 0 t black[  ] 0 sd 3 lw 1 1 1 c 710 699 779 7 bf black 1 1 1 c 533 559 885 77 bf black 533 559 885 77 bl 1 1 1 c 533 559 885 77 bf black 533 559 885 77 bl 885 77 m 533 X s 885 93 m -16 Y s 898 85 m -8 Y s 912
 85 m -8 Y s 925 85 m -8 Y s 938 85 m -8 Y s 952 93 m -16 Y s 965 85 m -8 Y s 978 85 m -8 Y s 992 85 m -8 Y s 1005 85 m -8 Y s 1018 93 m -16 Y s 1032 85 m -8 Y s 1045 85 m -8 Y s 1058 85 m -8 Y s 1072 85 m -8 Y s 1085 93 m -16 Y s 1098 85 m -8 Y s
 1112 85 m -8 Y s 1125 85 m -8 Y s 1138 85 m -8 Y s 1152 93 m -16 Y s 1165 85 m -8 Y s 1178 85 m -8 Y s 1192 85 m -8 Y s 1205 85 m -8 Y s 1218 93 m -16 Y s 1232 85 m -8 Y s 1245 85 m -8 Y s 1258 85 m -8 Y s 1272 85 m -8 Y s 1285 93 m -16 Y s 1298 85
 m -8 Y s 1311 85 m -8 Y s 1325 85 m -8 Y s 1338 85 m -8 Y s 1351 93 m -16 Y s 1365 85 m -8 Y s 1378 85 m -8 Y s 1391 85 m -8 Y s 1405 85 m -8 Y s 1418 93 m -16 Y s
 gsave  710 699 779 7 C 861.369 54.4979 t 0 r /Helvetica findfont 22.736 sf 0 0 m (5.25) show NC gr 
 gsave  710 699 779 7 C 921.922 54.4979 t 0 r /Helvetica findfont 22.736 sf 0 0 m (5.255) show NC gr 
 gsave  710 699 779 7 C 994.586 54.4979 t 0 r /Helvetica findfont 22.736 sf 0 0 m (5.26) show NC gr 
 gsave  710 699 779 7 C 1055.14 54.4979 t 0 r /Helvetica findfont 22.736 sf 0 0 m (5.265) show NC gr 
 gsave  710 699 779 7 C 1127.8 54.4979 t 0 r /Helvetica findfont 22.736 sf 0 0 m (5.27) show NC gr 
 gsave  710 699 779 7 C 1188.36 54.4979 t 0 r /Helvetica findfont 22.736 sf 0 0 m (5.275) show NC gr 
 gsave  710 699 779 7 C 1261.02 54.4979 t 0 r /Helvetica findfont 22.736 sf 0 0 m (5.28) show NC gr 
 gsave  710 699 779 7 C 1321.57 54.4979 t 0 r /Helvetica findfont 22.736 sf 0 0 m (5.285) show NC gr 
 gsave  710 699 779 7 C 1394.24 54.4979 t 0 r /Helvetica findfont 22.736 sf 0 0 m (5.29) show NC gr 
 gsave  710 699 779 7 C 1360.93 31.7904 t 0 r /Helvetica findfont 22.736 sf 0 0 m (m_bc) show NC gr  885 77 m 559 Y s 902 77 m -17 X s 894 91 m -9 X s 894 106 m -9 X s 894 120 m -9 X s 894 134 m -9 X s 902 149 m -17 X s 894 163 m -9 X s 894 178 m -9
 X s 894 192 m -9 X s 894 206 m -9 X s 902 221 m -17 X s 894 235 m -9 X s 894 249 m -9 X s 894 264 m -9 X s 894 278 m -9 X s 902 293 m -17 X s 894 307 m -9 X s 894 321 m -9 X s 894 336 m -9 X s 894 350 m -9 X s 902 364 m -17 X s 894 379 m -9 X s 894
 393 m -9 X s 894 407 m -9 X s 894 422 m -9 X s 902 436 m -17 X s 894 451 m -9 X s 894 465 m -9 X s 894 479 m -9 X s 894 494 m -9 X s 902 508 m -17 X s 894 522 m -9 X s 894 537 m -9 X s 894 551 m -9 X s 894 566 m -9 X s 902 580 m -17 X s 902 580 m
 -17 X s 894 594 m -9 X s 894 609 m -9 X s 894 623 m -9 X s
 gsave  710 699 779 7 C 868.938 68.1223 t 0 r /Helvetica findfont 22.736 sf 0 0 m (0) show NC gr 
 gsave  710 699 779 7 C 855.314 140.786 t 0 r /Helvetica findfont 22.736 sf 0 0 m (10) show NC gr 
 gsave  710 699 779 7 C 855.314 211.936 t 0 r /Helvetica findfont 22.736 sf 0 0 m (20) show NC gr 
 gsave  710 699 779 7 C 855.314 284.6 t 0 r /Helvetica findfont 22.736 sf 0 0 m (30) show NC gr 
 gsave  710 699 779 7 C 855.314 355.75 t 0 r /Helvetica findfont 22.736 sf 0 0 m (40) show NC gr 
 gsave  710 699 779 7 C 855.314 428.414 t 0 r /Helvetica findfont 22.736 sf 0 0 m (50) show NC gr 
 gsave  710 699 779 7 C 855.314 499.564 t 0 r /Helvetica findfont 22.736 sf 0 0 m (60) show NC gr 
 gsave  710 699 779 7 C 855.314 572.228 t 0 r /Helvetica findfont 22.736 sf 0 0 m (70) show NC gr 
 gsave  710 699 779 7 C 828.065 452.635 t 90 r /Helvetica findfont 22.736 sf 0 0 m (Events / \( 0.0004 \)) show NC gr  888 127 m -3 X s 885 124 m 6 Y s 888 127 m 2 X s 890 124 m 6 Y s 888 127 m 27 Y s 885 154 m 6 X s 888 127 m -18 Y s 885 109 m 6 X s
 893 120 m -3 X s 890 117 m 6 Y s 893 120 m 3 X s 896 117 m 6 Y s 893 120 m 26 Y s 890 146 m 6 X s 893 120 m -17 Y s 890 103 m 6 X s 898 163 m -2 X s 896 160 m 6 Y s 898 163 m 3 X s 901 160 m 6 Y s 898 163 m 33 Y s 895 196 m 7 X s 898 163 m -24 Y s
 895 139 m 7 X s 904 113 m -3 X s 901 110 m 6 Y s 904 113 m 2 X s 906 110 m 6 Y s 904 113 m 24 Y s 901 137 m 6 X s 904 113 m -16 Y s 901 97 m 6 X s 909 142 m -3 X s 906 139 m 6 Y s 909 142 m 3 X s 912 139 m 6 Y s 909 142 m 29 Y s 906 171 m 6 X s 909
 142 m -21 Y s 906 121 m 6 X s 914 106 m -2 X s 912 103 m 6 Y s 914 106 m 3 X s 917 103 m 6 Y s 914 106 m 22 Y s 911 128 m 7 X s 914 106 m -14 Y s 911 92 m 7 X s 920 99 m -3 X s 917 96 m 6 Y s 920 99 m 2 X s 922 96 m 6 Y s 920 99 m 21 Y s 917 120 m 6
 X s 920 99 m -12 Y s 917 87 m 6 X s 925 120 m -3 X s 922 117 m 6 Y s 925 120 m 3 X s 928 117 m 6 Y s 925 120 m 26 Y s 922 146 m 6 X s 925 120 m -17 Y s 922 103 m 6 X s 930 120 m -2 X s 928 117 m 6 Y s 930 120 m 3 X s 933 117 m 6 Y s 930 120 m 26 Y s
 927 146 m 6 X s 930 120 m -17 Y s 927 103 m 6 X s 936 120 m -3 X s 933 117 m 6 Y s 936 120 m 2 X s 938 117 m 6 Y s 936 120 m 26 Y s 933 146 m 6 X s 936 120 m -17 Y s 933 103 m 6 X s 941 113 m -3 X s 938 110 m 6 Y s 941 113 m 3 X s 944 110 m 6 Y s
 941 113 m 24 Y s 938 137 m 6 X s 941 113 m -16 Y s 938 97 m 6 X s 946 156 m -2 X s 944 153 m 6 Y s 946 156 m 3 X s 949 153 m 6 Y s 946 156 m 32 Y s 943 188 m 6 X s 946 156 m -23 Y s 943 133 m 6 X s 952 134 m -3 X s 949 131 m 7 Y s 952 134 m 2 X s
 954 131 m 7 Y s 952 134 m 29 Y s 949 163 m 6 X s 952 134 m -19 Y s 949 115 m 6 X s 957 120 m -3 X s 954 117 m 6 Y s 957 120 m 3 X s 960 117 m 6 Y s 957 120 m 26 Y s 954 146 m 6 X s 957 120 m -17 Y s 954 103 m 6 X s 962 120 m -2 X s 960 117 m 6 Y s
 962 120 m 3 X s 965 117 m 6 Y s 962 120 m 26 Y s 959 146 m 6 X s 962 120 m -17 Y s 959 103 m 6 X s 968 120 m -3 X s 965 117 m 6 Y s 968 120 m 2 X s 970 117 m 6 Y s 968 120 m 26 Y s 965 146 m 6 X s 968 120 m -17 Y s 965 103 m 6 X s 973 120 m -3 X s
 970 117 m 6 Y s 973 120 m 3 X s 976 117 m 6 Y s 973 120 m 26 Y s 970 146 m 6 X s 973 120 m -17 Y s 970 103 m 6 X s 978 106 m -2 X s 976 103 m 6 Y s 978 106 m 3 X s 981 103 m 6 Y s 978 106 m 22 Y s 975 128 m 6 X s 978 106 m -14 Y s 975 92 m 6 X s 984
 106 m -3 X s 981 103 m 6 Y s 984 106 m 2 X s 986 103 m 6 Y s 984 106 m 22 Y s 981 128 m 6 X s 984 106 m -14 Y s 981 92 m 6 X s 989 170 m -3 X s 986 167 m 6 Y s 989 170 m 3 X s 992 167 m 6 Y s 989 170 m 34 Y s 986 204 m 6 X s 989 170 m -25 Y s 986
 145 m 6 X s 994 91 m -2 X s 992 88 m 6 Y s 994 91 m 3 X s 997 88 m 6 Y s 994 91 m 19 Y s 991 110 m 6 X s 994 91 m -9 Y s 991 82 m 6 X s 1000 142 m -3 X s 997 139 m 6 Y s 1000 142 m 2 X s 1002 139 m 6 Y s 1000 142 m 29 Y s 997 171 m 6 X s 1000 142 m
 -21 Y s 997 121 m 6 X s 1005 142 m -3 X s 1002 139 m 6 Y s 1005 142 m 3 X s 1008 139 m 6 Y s 1005 142 m 29 Y s 1002 171 m 6 X s 1005 142 m -21 Y s 1002 121 m 6 X s 1010 120 m -2 X s 1008 117 m 6 Y s 1010 120 m 3 X s 1013 117 m 6 Y s 1010 120 m 26 Y
 s 1007 146 m 6 X s 1010 120 m -17 Y s 1007 103 m 6 X s 1016 142 m -3 X s 1013 139 m 6 Y s 1016 142 m 2 X s 1018 139 m 6 Y s 1016 142 m 29 Y s 1013 171 m 6 X s 1016 142 m -21 Y s 1013 121 m 6 X s 1021 134 m -3 X s 1018 131 m 7 Y s 1021 134 m 3 X s
 1024 131 m 7 Y s 1021 134 m 29 Y s 1018 163 m 6 X s 1021 134 m -19 Y s 1018 115 m 6 X s 1026 120 m -2 X s 1024 117 m 6 Y s 1026 120 m 3 X s 1029 117 m 6 Y s 1026 120 m 26 Y s 1023 146 m 6 X s 1026 120 m -17 Y s 1023 103 m 6 X s 1032 113 m -3 X s
 1029 110 m 6 Y s 1032 113 m 2 X s 1034 110 m 6 Y s 1032 113 m 24 Y s 1029 137 m 6 X s 1032 113 m -16 Y s 1029 97 m 6 X s 1037 134 m -3 X s 1034 131 m 7 Y s 1037 134 m 3 X s 1040 131 m 7 Y s 1037 134 m 29 Y s 1034 163 m 6 X s 1037 134 m -19 Y s 1034
 115 m 6 X s 1042 127 m -2 X s 1040 124 m 6 Y s 1042 127 m 3 X s 1045 124 m 6 Y s 1042 127 m 27 Y s 1039 154 m 6 X s 1042 127 m -18 Y s 1039 109 m 6 X s 1048 99 m -3 X s 1045 96 m 6 Y s 1048 99 m 2 X s 1050 96 m 6 Y s 1048 99 m 21 Y s 1045 120 m 6 X
 s 1048 99 m -12 Y s 1045 87 m 6 X s 1053 127 m -3 X s 1050 124 m 6 Y s 1053 127 m 3 X s 1056 124 m 6 Y s 1053 127 m 27 Y s 1050 154 m 6 X s 1053 127 m -18 Y s 1050 109 m 6 X s 1058 134 m -2 X s 1056 131 m 7 Y s 1058 134 m 3 X s 1061 131 m 7 Y s 1058
 134 m 29 Y s 1055 163 m 6 X s 1058 134 m -19 Y s 1055 115 m 6 X s 1064 149 m -3 X s 1061 146 m 6 Y s 1064 149 m 2 X s 1066 146 m 6 Y s 1064 149 m 31 Y s 1061 180 m 6 X s 1064 149 m -22 Y s 1061 127 m 6 X s 1069 106 m -3 X s 1066 103 m 6 Y s 1069 106
 m 3 X s 1072 103 m 6 Y s 1069 106 m 22 Y s 1066 128 m 6 X s 1069 106 m -14 Y s 1066 92 m 6 X s 1074 106 m -2 X s 1072 103 m 6 Y s 1074 106 m 3 X s 1077 103 m 6 Y s 1074 106 m 22 Y s 1071 128 m 6 X s 1074 106 m -14 Y s 1071 92 m 6 X s 1080 134 m -3 X
 s 1077 131 m 7 Y s 1080 134 m 2 X s 1082 131 m 7 Y s 1080 134 m 29 Y s 1077 163 m 6 X s 1080 134 m -19 Y s 1077 115 m 6 X s 1085 127 m -3 X s 1082 124 m 6 Y s 1085 127 m 3 X s 1088 124 m 6 Y s 1085 127 m 27 Y s 1082 154 m 6 X s 1085 127 m -18 Y s
 1082 109 m 6 X s 1090 99 m -2 X s 1088 96 m 6 Y s 1090 99 m 3 X s 1093 96 m 6 Y s 1090 99 m 21 Y s 1087 120 m 6 X s 1090 99 m -12 Y s 1087 87 m 6 X s 1096 120 m -3 X s 1093 117 m 6 Y s 1096 120 m 2 X s 1098 117 m 6 Y s 1096 120 m 26 Y s 1093 146 m 6
 X s 1096 120 m -17 Y s 1093 103 m 6 X s 1101 127 m -3 X s 1098 124 m 6 Y s 1101 127 m 3 X s 1104 124 m 6 Y s 1101 127 m 27 Y s 1098 154 m 6 X s 1101 127 m -18 Y s 1098 109 m 6 X s 1106 113 m -2 X s 1104 110 m 6 Y s 1106 113 m 3 X s 1109 110 m 6 Y s
 1106 113 m 24 Y s 1103 137 m 6 X s 1106 113 m -16 Y s 1103 97 m 6 X s 1112 142 m -3 X s 1109 139 m 6 Y s 1112 142 m 2 X s 1114 139 m 6 Y s 1112 142 m 29 Y s 1109 171 m 6 X s 1112 142 m -21 Y s 1109 121 m 6 X s 1117 134 m -3 X s 1114 131 m 7 Y s 1117
 134 m 3 X s 1120 131 m 7 Y s 1117 134 m 29 Y s 1114 163 m 6 X s 1117 134 m -19 Y s 1114 115 m 6 X s 1122 120 m -2 X s 1120 117 m 6 Y s 1122 120 m 3 X s 1125 117 m 6 Y s 1122 120 m 26 Y s 1119 146 m 6 X s 1122 120 m -17 Y s 1119 103 m 6 X s 1128 127
 m -3 X s 1125 124 m 6 Y s 1128 127 m 2 X s 1130 124 m 6 Y s 1128 127 m 27 Y s 1125 154 m 6 X s 1128 127 m -18 Y s 1125 109 m 6 X s 1133 106 m -3 X s 1130 103 m 6 Y s 1133 106 m 3 X s 1136 103 m 6 Y s 1133 106 m 22 Y s 1130 128 m 6 X s 1133 106 m -14
 Y s 1130 92 m 6 X s 1138 178 m -2 X s 1136 175 m 6 Y s 1138 178 m 3 X s 1141 175 m 6 Y s 1138 178 m 34 Y s 1135 212 m 6 X s 1138 178 m -27 Y s 1135 151 m 6 X s 1144 113 m -3 X s 1141 110 m 6 Y s 1144 113 m 2 X s 1146 110 m 6 Y s 1144 113 m 24 Y s
 1141 137 m 6 X s 1144 113 m -16 Y s 1141 97 m 6 X s 1149 142 m -3 X s 1146 139 m 6 Y s 1149 142 m 3 X s 1152 139 m 6 Y s 1149 142 m 29 Y s 1146 171 m 6 X s 1149 142 m -21 Y s 1146 121 m 6 X s 1154 156 m -2 X s 1152 153 m 6 Y s 1154 156 m 3 X s 1157
 153 m 6 Y s 1154 156 m 32 Y s 1151 188 m 6 X s 1154 156 m -23 Y s 1151 133 m 6 X s 1160 134 m -3 X s 1157 131 m 7 Y s 1160 134 m 2 X s 1162 131 m 7 Y s 1160 134 m 29 Y s 1157 163 m 6 X s 1160 134 m -19 Y s 1157 115 m 6 X s 1165 120 m -3 X s 1162 117
 m 6 Y s 1165 120 m 3 X s 1168 117 m 6 Y s 1165 120 m 26 Y s 1162 146 m 6 X s 1165 120 m -17 Y s 1162 103 m 6 X s 1170 149 m -2 X s 1168 146 m 6 Y s 1170 149 m 3 X s 1173 146 m 6 Y s 1170 149 m 31 Y s 1167 180 m 6 X s 1170 149 m -22 Y s 1167 127 m 6
 X s 1176 113 m -3 X s 1173 110 m 6 Y s 1176 113 m 2 X s 1178 110 m 6 Y s 1176 113 m 24 Y s 1173 137 m 6 X s 1176 113 m -16 Y s 1173 97 m 6 X s 1181 134 m -3 X s 1178 131 m 7 Y s 1181 134 m 3 X s 1184 131 m 7 Y s 1181 134 m 29 Y s 1178 163 m 6 X s
 1181 134 m -19 Y s 1178 115 m 6 X s 1186 149 m -2 X s 1184 146 m 6 Y s 1186 149 m 3 X s 1189 146 m 6 Y s 1186 149 m 31 Y s 1183 180 m 6 X s 1186 149 m -22 Y s 1183 127 m 6 X s 1192 156 m -3 X s 1189 153 m 6 Y s 1192 156 m 2 X s 1194 153 m 6 Y s 1192
 156 m 32 Y s 1189 188 m 6 X s 1192 156 m -23 Y s 1189 133 m 6 X s 1197 178 m -3 X s 1194 175 m 6 Y s 1197 178 m 3 X s 1200 175 m 6 Y s 1197 178 m 34 Y s 1194 212 m 6 X s 1197 178 m -27 Y s 1194 151 m 6 X s 1202 149 m -2 X s 1200 146 m 6 Y s 1202 149
 m 3 X s 1205 146 m 6 Y s 1202 149 m 31 Y s 1199 180 m 6 X s 1202 149 m -22 Y s 1199 127 m 6 X s 1208 192 m -3 X s 1205 189 m 6 Y s 1208 192 m 2 X s 1210 189 m 6 Y s 1208 192 m 36 Y s 1205 228 m 6 X s 1208 192 m -28 Y s 1205 164 m 6 X s 1213 163 m -3
 X s 1210 160 m 6 Y s 1213 163 m 3 X s 1216 160 m 6 Y s 1213 163 m 33 Y s 1210 196 m 6 X s 1213 163 m -24 Y s 1210 139 m 6 X s 1218 178 m -2 X s 1216 175 m 6 Y s 1218 178 m 3 X s 1221 175 m 6 Y s 1218 178 m 34 Y s 1215 212 m 6 X s 1218 178 m -27 Y s
 1215 151 m 6 X s 1224 192 m -3 X s 1221 189 m 6 Y s 1224 192 m 2 X s 1226 189 m 6 Y s 1224 192 m 36 Y s 1221 228 m 6 X s 1224 192 m -28 Y s 1221 164 m 6 X s 1229 235 m -3 X s 1226 232 m 6 Y s 1229 235 m 3 X s 1232 232 m 6 Y s 1229 235 m 41 Y s 1226
 276 m 6 X s 1229 235 m -33 Y s 1226 202 m 6 X s 1234 314 m -2 X s 1232 311 m 6 Y s 1234 314 m 3 X s 1237 311 m 6 Y s 1234 314 m 49 Y s 1231 363 m 6 X s 1234 314 m -41 Y s 1231 273 m 6 X s 1240 278 m -3 X s 1237 275 m 6 Y s 1240 278 m 2 X s 1242 275
 m 6 Y s 1240 278 m 46 Y s 1237 324 m 6 X s 1240 278 m -38 Y s 1237 240 m 6 X s 1245 264 m -3 X s 1242 261 m 6 Y s 1245 264 m 3 X s 1248 261 m 6 Y s 1245 264 m 44 Y s 1242 308 m 6 X s 1245 264 m -37 Y s 1242 227 m 6 X s 1250 350 m -2 X s 1248 347 m 6
 Y s 1250 350 m 3 X s 1253 347 m 6 Y s 1250 350 m 52 Y s 1247 402 m 6 X s 1250 350 m -44 Y s 1247 306 m 6 X s 1256 364 m -3 X s 1253 361 m 6 Y s 1256 364 m 2 X s 1258 361 m 6 Y s 1256 364 m 53 Y s 1253 417 m 6 X s 1256 364 m -45 Y s 1253 319 m 6 X s
 1261 400 m -3 X s 1258 397 m 6 Y s 1261 400 m 3 X s 1264 397 m 6 Y s 1261 400 m 56 Y s 1258 456 m 6 X s 1261 400 m -48 Y s 1258 352 m 6 X s 1266 501 m -2 X s 1264 498 m 6 Y s 1266 501 m 3 X s 1269 498 m 6 Y s 1266 501 m 63 Y s 1263 564 m 6 X s 1266
 501 m -55 Y s 1263 446 m 6 X s 1272 479 m -3 X s 1269 476 m 6 Y s 1272 479 m 2 X s 1274 476 m 6 Y s 1272 479 m 62 Y s 1268 541 m 7 X s 1272 479 m -53 Y s 1268 426 m 7 X s 1277 479 m -3 X s 1274 476 m 6 Y s 1277 479 m 3 X s 1280 476 m 6 Y s 1277 479
 m 62 Y s 1274 541 m 6 X s 1277 479 m -53 Y s 1274 426 m 6 X s 1282 544 m -2 X s 1280 541 m 6 Y s 1282 544 m 3 X s 1285 541 m 6 Y s 1282 544 m 65 Y s 1279 609 m 6 X s 1282 544 m -58 Y s 1279 486 m 6 X s 1288 508 m -3 X s 1285 505 m 6 Y s 1288 508 m 2
 X s 1290 505 m 6 Y s 1288 508 m 63 Y s 1284 571 m 7 X s 1288 508 m -55 Y s 1284 453 m 7 X s 1293 537 m -3 X s 1290 534 m 6 Y s 1293 537 m 3 X s 1296 534 m 6 Y s 1293 537 m 65 Y s 1290 602 m 6 X s 1293 537 m -58 Y s 1290 479 m 6 X s 1298 487 m -2 X s
 1296 483 m 7 Y s 1298 487 m 3 X s 1301 483 m 7 Y s 1298 487 m 61 Y s 1295 548 m 6 X s 1298 487 m -55 Y s 1295 432 m 6 X s 1304 508 m -3 X s 1301 505 m 6 Y s 1304 508 m 2 X s 1306 505 m 6 Y s 1304 508 m 63 Y s 1300 571 m 7 X s 1304 508 m -55 Y s 1300
 453 m 7 X s 1309 544 m -3 X s 1306 541 m 6 Y s 1309 544 m 2 X s 1311 541 m 6 Y s 1309 544 m 65 Y s 1306 609 m 6 X s 1309 544 m -58 Y s 1306 486 m 6 X s 1314 451 m -3 X s 1311 448 m 6 Y s 1314 451 m 3 X s 1317 448 m 6 Y s 1314 451 m 59 Y s 1311 510 m
 6 X s 1314 451 m -52 Y s 1311 399 m 6 X s 1319 472 m -2 X s 1317 469 m 6 Y s 1319 472 m 3 X s 1322 469 m 6 Y s 1319 472 m 61 Y s 1316 533 m 7 X s 1319 472 m -53 Y s 1316 419 m 7 X s 1325 379 m -3 X s 1322 376 m 6 Y s 1325 379 m 2 X s 1327 376 m 6 Y
 s 1325 379 m 54 Y s 1322 433 m 6 X s 1325 379 m -47 Y s 1322 332 m 6 X s 1330 336 m -3 X s 1327 333 m 6 Y s 1330 336 m 3 X s 1333 333 m 6 Y s 1330 336 m 50 Y s 1327 386 m 6 X s 1330 336 m -43 Y s 1327 293 m 6 X s 1335 271 m -2 X s 1333 268 m 6 Y s
 1335 271 m 3 X s 1338 268 m 6 Y s 1335 271 m 45 Y s 1332 316 m 7 X s 1335 271 m -37 Y s 1332 234 m 7 X s 1341 221 m -3 X s 1338 218 m 6 Y s 1341 221 m 2 X s 1343 218 m 6 Y s 1341 221 m 40 Y s 1338 261 m 6 X s 1341 221 m -32 Y s 1338 189 m 6 X s 1346
 249 m -3 X s 1343 246 m 6 Y s 1346 249 m 3 X s 1349 246 m 6 Y s 1346 249 m 43 Y s 1343 292 m 6 X s 1346 249 m -35 Y s 1343 214 m 6 X s 1351 178 m -2 X s 1349 175 m 6 Y s 1351 178 m 3 X s 1354 175 m 6 Y s 1351 178 m 34 Y s 1348 212 m 6 X s 1351 178 m
 -27 Y s 1348 151 m 6 X s 1357 199 m -3 X s 1354 196 m 6 Y s 1357 199 m 2 X s 1359 196 m 6 Y s 1357 199 m 38 Y s 1354 237 m 6 X s 1357 199 m -29 Y s 1354 170 m 6 X s 1362 156 m -3 X s 1359 153 m 6 Y s 1362 156 m 3 X s 1365 153 m 6 Y s 1362 156 m 32 Y
 s 1359 188 m 6 X s 1362 156 m -23 Y s 1359 133 m 6 X s 1367 149 m -2 X s 1365 146 m 6 Y s 1367 149 m 3 X s 1370 146 m 6 Y s 1367 149 m 31 Y s 1364 180 m 6 X s 1367 149 m -22 Y s 1364 127 m 6 X s 1373 127 m -3 X s 1370 124 m 6 Y s 1373 127 m 2 X s
 1375 124 m 6 Y s 1373 127 m 27 Y s 1370 154 m 6 X s 1373 127 m -18 Y s 1370 109 m 6 X s 1378 127 m -3 X s 1375 124 m 6 Y s 1378 127 m 3 X s 1381 124 m 6 Y s 1378 127 m 27 Y s 1375 154 m 6 X s 1378 127 m -18 Y s 1375 109 m 6 X s 1383 127 m -2 X s
 1381 124 m 6 Y s 1383 127 m 3 X s 1386 124 m 6 Y s 1383 127 m 27 Y s 1380 154 m 6 X s 1383 127 m -18 Y s 1380 109 m 6 X s 1389 99 m -3 X s 1386 96 m 6 Y s 1389 99 m 2 X s 1391 96 m 6 Y s 1389 99 m 21 Y s 1386 120 m 6 X s 1389 99 m -12 Y s 1386 87 m
 6 X s 1394 84 m -3 X s 1391 81 m 6 Y s 1394 84 m 3 X s 1397 81 m 6 Y s 1394 84 m 17 Y s 1391 101 m 6 X s 1394 84 m -6 Y s 1391 78 m 6 X s 1399 106 m -2 X s 1397 103 m 6 Y s 1399 106 m 3 X s 1402 103 m 6 Y s 1399 106 m 22 Y s 1396 128 m 6 X s 1399
 106 m -14 Y s 1396 92 m 6 X s 1405 106 m -3 X s 1402 103 m 6 Y s 1405 106 m 2 X s 1407 103 m 6 Y s 1405 106 m 22 Y s 1402 128 m 6 X s 1405 106 m -14 Y s 1402 92 m 6 X s 1410 84 m -3 X s 1407 81 m 6 Y s 1410 84 m 3 X s 1413 81 m 6 Y s 1410 84 m 17 Y
 s 1407 101 m 6 X s 1410 84 m -6 Y s 1407 78 m 6 X s 1415 113 m -2 X s 1413 110 m 6 Y s 1415 113 m 3 X s 1418 110 m 6 Y s 1415 113 m 24 Y s 1412 137 m 6 X s 1415 113 m -16 Y s 1412 97 m 6 X s /w 12 def /w2 {w 2 div} def /w3 {w 3 div} def 888 127 893
 120 898 163 904 113 909 142 914 106 920 99 925 120 930 120 936 120 941 113 946 156 952 134 957 120 962 120 968 120 973 120 978 106 984 106 989 170 994 91 1000 142 1005 142 1010 120 1016 142 1021 134 1026 120 1032 113 1037 134 1042 127 1048 99 1053
 127 1058 134 1064 149 1069 106 1074 106 1080 134 1085 127 1090 99 1096 120 1101 127 1106 113 1112 142 1117 134 1122 120 1128 127 1133 106 1138 178 1144 113 1149 142 1154 156 1160 134 1165 120 1170 149 1176 113 1181 134 1186 149 1192 156 1197 178
 1202 149 1208 192 1213 163 1218 178 1224 192 1229 235 1234 314 1240 278 1245 264 1250 350 1256 364 1261 400 1266 501 1272 479 1277 479 1282 544 1288 508 1293 537 1298 487 1304 508 1309 544 1314 451 1319 472 1325 379 1330 336 1335 271 1341 221 1346
 249 1351 178 1357 199 1362 156 1367 149 1373 127 1378 127 1383 127 1389 99 1394 84 1399 106 1405 106 1410 84 1415 113 100 { m20} R 0 0 1 c 9 lw black 0 0 1 c 885 122 m cl s 885 122 m 16 X 5 1 d 22 X 5 1 d 16 X 5 1 d 22 X 5 1 d 21 X 6 1 d 21 X 5 1 d
 27 X 5 1 d 43 X 5 1 d 43 X 5 1 d 6 X 5 1 d 5 1 d 6 2 d 5 2 d 5 4 d 6 5 d 5 7 d 5 9 d 6 12 d 5 16 d 3 9 d 2 10 d 3 12 d 3 12 d 2 13 d 3 14 d 5 31 d 6 34 d 5 36 d 5 36 d 6 36 d 2 17 d 3 15 d 3 15 d 2 13 d 3 12 d 3 10 d 2 7 d 3 6 d 3 4 d 2 1 d 3 -1 d 3
 -3 d 2 -5 d 3 -7 d 3 -10 d 2 -11 d 3 -13 d 2 -15 d 3 -16 d 3 -16 d 5 -36 d 5 -38 d 6 -37 d 5 -36 d 5 -33 d 3 -15 d 3 -14 d 2 -14 d 3 -12 d 3 -11 d 2 -11 d 6 -18 d 5 -14 d 5 -12 d 6 -10 d 5 -7 d 5 -6 d 6 -6 d 5 -5 d 5 -4 d 6 -6 d 2 -4 d 2 -3 d -2 Y 1
 -4 d s black 3 lw 885 77 m 533 X s 885 93 m -16 Y s 898 85 m -8 Y s 912 85 m -8 Y s 925 85 m -8 Y s 938 85 m -8 Y s 952 93 m -16 Y s 965 85 m -8 Y s 978 85 m -8 Y s 992 85 m -8 Y s 1005 85 m -8 Y s 1018 93 m -16 Y s 1032 85 m -8 Y s 1045 85 m -8 Y s
 1058 85 m -8 Y s 1072 85 m -8 Y s 1085 93 m -16 Y s 1098 85 m -8 Y s 1112 85 m -8 Y s 1125 85 m -8 Y s 1138 85 m -8 Y s 1152 93 m -16 Y s 1165 85 m -8 Y s 1178 85 m -8 Y s 1192 85 m -8 Y s 1205 85 m -8 Y s 1218 93 m -16 Y s 1232 85 m -8 Y s 1245 85
 m -8 Y s 1258 85 m -8 Y s 1272 85 m -8 Y s 1285 93 m -16 Y s 1298 85 m -8 Y s 1311 85 m -8 Y s 1325 85 m -8 Y s 1338 85 m -8 Y s 1351 93 m -16 Y s 1365 85 m -8 Y s 1378 85 m -8 Y s 1391 85 m -8 Y s 1405 85 m -8 Y s 1418 93 m -16 Y s 885 77 m 559 Y s
 902 77 m -17 X s 894 91 m -9 X s 894 106 m -9 X s 894 120 m -9 X s 894 134 m -9 X s 902 149 m -17 X s 894 163 m -9 X s 894 178 m -9 X s 894 192 m -9 X s 894 206 m -9 X s 902 221 m -17 X s 894 235 m -9 X s 894 249 m -9 X s 894 264 m -9 X s 894 278 m
 -9 X s 902 293 m -17 X s 894 307 m -9 X s 894 321 m -9 X s 894 336 m -9 X s 894 350 m -9 X s 902 364 m -17 X s 894 379 m -9 X s 894 393 m -9 X s 894 407 m -9 X s 894 422 m -9 X s 902 436 m -17 X s 894 451 m -9 X s 894 465 m -9 X s 894 479 m -9 X s
 894 494 m -9 X s 902 508 m -17 X s 894 522 m -9 X s 894 537 m -9 X s 894 551 m -9 X s 894 566 m -9 X s 902 580 m -17 X s 902 580 m -17 X s 894 594 m -9 X s 894 609 m -9 X s 894 623 m -9 X s 1 1 1 c black
 gsave  710 699 779 7 C 1041.51 672.14 t 0 r /Helvetica findfont 34.8619 sf 0 0 m (Background) show NC gr 
 gr  gr showpage
end
%%EOF
