%!PS-Adobe-2.0 EPSF-2.0
%%BoundingBox:  195 2 372 176
%%Title: ./plots/pBg_s1s2.eps: rf101_basics
%%Creator: ROOT Version 6.11/01
%%CreationDate: Sat Sep 23 20:37:12 2017
%%DocumentNeededResources: ProcSet (FontSetInit)
%%EndComments
%%BeginProlog
80 dict begin
/s {stroke} def /l {lineto} def /m {moveto} def /t {translate} def
/r {rotate} def /rl {roll}  def /R {repeat} def
/d {rlineto} def /rm {rmoveto} def /gr {grestore} def /f {eofill} def
/c {setrgbcolor} def /black {0 setgray} def /sd {setdash} def
/cl {closepath} def /sf {scalefont setfont} def /lw {setlinewidth} def
/box {m dup 0 exch d exch 0 d 0 exch neg d cl} def
/NC{systemdict begin initclip end}def/C{NC box clip newpath}def
/bl {box s} def /bf {gsave box gsave f grestore 1 lw [] 0 sd s grestore} def /Y { 0 exch d} def /X { 0 d} def 
/K {{pop pop 0 moveto} exch kshow} bind def
/ita {/ang 15 def gsave [1 0 ang dup sin exch cos div 1 0 0] concat} def 
/mp {newpath /y exch def /x exch def} def
/side {[w .77 mul w .23 mul] .385 w mul sd w 0 l currentpoint t -144 r} def
/mr {mp x y w2 0 360 arc} def /m24 {mr s} def /m20 {mr f} def
/mb {mp x y w2 add m w2 neg 0 d 0 w neg d w 0 d 0 w d cl} def
/mt {mp x y w2 add m w2 neg w neg d w 0 d cl} def
/w4 {w 4 div} def
/w6 {w 6 div} def
/w8 {w 8 div} def
/m21 {mb f} def /m25 {mb s} def /m22 {mt f} def /m26{mt s} def
/m23 {mp x y w2 sub m w2 w d w neg 0 d cl f} def
/m27 {mp x y w2 add m w3 neg w2 neg d w3 w2 neg d w3 w2 d cl s} def
/m28 {mp x w2 sub y w2 sub w3 add m w3 0 d  0 w3 neg d w3 0 d 0 w3 d w3 0 d  0 w3 d w3 neg 0 d 0 w3 d w3 neg 0 d 0 w3 neg d w3 neg 0 d cl s } def
/m29 {mp gsave x w2 sub y w2 add w3 sub m currentpoint t 4 {side} repeat cl fill gr} def
/m30 {mp gsave x w2 sub y w2 add w3 sub m currentpoint t 4 {side} repeat cl s gr} def
/m31 {mp x y w2 sub m 0 w d x w2 sub y m w 0 d x w2 sub y w2 add m w w neg d x w2 sub y w2 sub m w w d s} def
/m32 {mp x y w2 sub m w2 w d w neg 0 d cl s} def
/m33 {mp x y w2 add m w3 neg w2 neg d w3 w2 neg d w3 w2 d cl f} def
/m34 {mp x w2 sub y w2 sub w3 add m w3 0 d  0 w3 neg d w3 0 d 0 w3 d w3 0 d  0 w3 d w3 neg 0 d 0 w3 d w3 neg 0 d 0 w3 neg d w3 neg 0 d cl f } def
/m35 {mp x y w2 add m w2 neg w2 neg d w2 w2 neg d w2 w2 d w2 neg w2 d x y w2 sub m 0 w d x w2 sub y m w 0 d s} def
/m36 {mb x w2 sub y w2 add m w w neg d x w2 sub y w2 sub m w w d s} def
/m37 {mp x y m w4 neg w2 d w4 neg w2 neg d w2 0 d  w4 neg w2 neg d w2 0 d w4 neg w2 d w2 0 d w4 neg w2 d w4 neg w2 neg d cl s} def
/m38 {mp x w4 sub y w2 add m w4 neg w4 neg d 0 w2 neg d w4 w4 neg d w2 0 d w4 w4 d 0 w2 d w4 neg w4 d w2 neg 0 d x y w2 sub m 0 w d x w2 sub y m w 0 d cl s} def
/m39 {mp x y m w4 neg w2 d w4 neg w2 neg d w2 0 d  w4 neg w2 neg d w2 0 d w4 neg w2 d w2 0 d w4 neg w2 d w4 neg w2 neg d cl f} def
/m40 {mp x y m w4 w2 d w4 w4 neg d w2 neg w4 neg d w2 w4 neg d w4 neg w4 neg d w4 neg w2 d w4 neg w2 neg d w4 neg w4 d w2 w4 d w2 neg w4 d w4 w4 d w4 w2 neg d cl s} def
/m41 {mp x y m w4 w2 d w4 w4 neg d w2 neg w4 neg d w2 w4 neg d w4 neg w4 neg d w4 neg w2 d w4 neg w2 neg d w4 neg w4 d w2 w4 d w2 neg w4 d w4 w4 d w4 w2 neg d cl f} def
/m42 {mp x y w2 add m w8 neg w2 -3 4 div mul d w2 -3 4 div mul w8 neg d w2 3 4 div mul w8 neg d w8 w2 -3 4 div mul d w8 w2 3 4 div mul d w2 3 4 div mul w8 d w2 -3 4 div mul w8 d w8 neg w2 3 4 div mul d cl s} def
/m43 {mp x y w2 add m w8 neg w2 -3 4 div mul d w2 -3 4 div mul w8 neg d w2 3 4 div mul w8 neg d w8 w2 -3 4 div mul d w8 w2 3 4 div mul d w2 3 4 div mul w8 d w2 -3 4 div mul w8 d w8 neg w2 3 4 div mul d cl f} def
/m44 {mp x y m w6 neg w2 d w2 2 3 div mul 0 d w6 neg w2 neg d w2 w6 d 0 w2 -2 3 div mul d w2 neg w6 d w6 w2 neg d w2 -2 3 div mul 0 d w6 w2 d w2 neg w6 neg d 0 w2 2 3 div mul d w2 w6 neg d cl s} def
/m45 {mp x y m w6 neg w2 d w2 2 3 div mul 0 d w6 neg w2 neg d w2 w6 d 0 w2 -2 3 div mul d w2 neg w6 d w6 w2 neg d w2 -2 3 div mul 0 d w6 w2 d w2 neg w6 neg d 0 w2 2 3 div mul d w2 w6 neg d cl f} def
/m46 {mp x y w4 add m w4 neg w4 d w4 neg w4 neg d  w4 w4 neg d w4 neg w4 neg d w4 w4 neg d w4 w4 d w4 w4 neg d w4 w4 d w4 neg w4 d w4 w4 d w4 neg w4 d w4 neg w4 neg d cl s} def
/m47 {mp x y w4 add m w4 neg w4 d w4 neg w4 neg d w4 w4 neg d w4 neg w4 neg d  w4 w4 neg d w4 w4 d w4 w4 neg d w4 w4 d w4 neg w4 d w4 w4 d w4 neg w4 d w4 neg w4 neg d cl f} def
/m48 {mp x y w4 add m w4 neg w4 d w4 neg w4 neg d w4 w4 neg d  w4 neg w4 neg d w4 w4 neg d w4 w4 d w4 w4 neg d w4 w4 d w4 neg w4 d w4 w4 d w4 neg w4 d w4 neg w4 neg d  w4 w4 neg d w4 neg w4 neg d w4 neg w4 d w4 w4 d cl f} def
/m49 {mp x w2 sub w3 add y w2 sub w3 add m  0 w3 neg d w3 0 d 0 w3 d w3 0 d 0 w3 d w3 neg 0 d 0 w3 d w3 neg 0 d 0 w3 neg d w3 neg 0 d 0 w3 neg d w3 0 d 0 w3 d w3 0 d 0 w3 neg d w3 neg 0 d cl f } def
/m2 {mp x y w2 sub m 0 w d x w2 sub y m w 0 d s} def
/m5 {mp x w2 sub y w2 sub m w w d x w2 sub y w2 add m w w neg d s} def
%%IncludeResource: ProcSet (FontSetInit)
%%IncludeResource: font Times-Roman
%%IncludeResource: font Times-Italic
%%IncludeResource: font Times-Bold
%%IncludeResource: font Times-BoldItalic
%%IncludeResource: font Helvetica
%%IncludeResource: font Helvetica-Oblique
%%IncludeResource: font Helvetica-Bold
%%IncludeResource: font Helvetica-BoldOblique
%%IncludeResource: font Courier
%%IncludeResource: font Courier-Oblique
%%IncludeResource: font Courier-Bold
%%IncludeResource: font Courier-BoldOblique
%%IncludeResource: font Symbol
%%IncludeResource: font ZapfDingbats
/reEncode {exch findfont dup length dict begin {1 index /FID eq  {pop pop} {def} ifelse } forall /Encoding exch def currentdict end dup /FontName get exch definefont pop } def [/Times-Bold /Times-Italic /Times-BoldItalic /Helvetica /Helvetica-Oblique
 /Helvetica-Bold /Helvetica-BoldOblique /Courier /Courier-Oblique /Courier-Bold /Courier-BoldOblique /Times-Roman /AvantGarde-Book /AvantGarde-BookOblique /AvantGarde-Demi /AvantGarde-DemiOblique /Bookman-Demi /Bookman-DemiItalic /Bookman-Light
 /Bookman-LightItalic /Helvetica-Narrow /Helvetica-Narrow-Bold /Helvetica-Narrow-BoldOblique /Helvetica-Narrow-Oblique /NewCenturySchlbk-Roman /NewCenturySchlbk-Bold /NewCenturySchlbk-BoldItalic /NewCenturySchlbk-Italic /Palatino-Bold
 /Palatino-BoldItalic /Palatino-Italic /Palatino-Roman ] {ISOLatin1Encoding reEncode } forall
%%EndProlog
%%BeginSetup
%%EndSetup
newpath  gsave  .25 .25 scale  gsave  0 0 t black[  ] 0 sd 3 lw 1 1 1 c 710 699 779 7 bf black 1 1 1 c 533 559 885 77 bf black 533 559 885 77 bl 1 1 1 c 533 559 885 77 bf black 533 559 885 77 bl 885 77 m 533 X s 885 93 m -16 Y s 898 85 m -8 Y s 912
 85 m -8 Y s 925 85 m -8 Y s 938 85 m -8 Y s 952 93 m -16 Y s 965 85 m -8 Y s 978 85 m -8 Y s 992 85 m -8 Y s 1005 85 m -8 Y s 1018 93 m -16 Y s 1032 85 m -8 Y s 1045 85 m -8 Y s 1058 85 m -8 Y s 1072 85 m -8 Y s 1085 93 m -16 Y s 1098 85 m -8 Y s
 1112 85 m -8 Y s 1125 85 m -8 Y s 1138 85 m -8 Y s 1152 93 m -16 Y s 1165 85 m -8 Y s 1178 85 m -8 Y s 1192 85 m -8 Y s 1205 85 m -8 Y s 1218 93 m -16 Y s 1232 85 m -8 Y s 1245 85 m -8 Y s 1258 85 m -8 Y s 1272 85 m -8 Y s 1285 93 m -16 Y s 1298 85
 m -8 Y s 1311 85 m -8 Y s 1325 85 m -8 Y s 1338 85 m -8 Y s 1351 93 m -16 Y s 1365 85 m -8 Y s 1378 85 m -8 Y s 1391 85 m -8 Y s 1405 85 m -8 Y s 1418 93 m -16 Y s
 gsave  710 699 779 7 C 861.369 54.4979 t 0 r /Helvetica findfont 22.736 sf 0 0 m (5.25) show NC gr 
 gsave  710 699 779 7 C 921.922 54.4979 t 0 r /Helvetica findfont 22.736 sf 0 0 m (5.255) show NC gr 
 gsave  710 699 779 7 C 994.586 54.4979 t 0 r /Helvetica findfont 22.736 sf 0 0 m (5.26) show NC gr 
 gsave  710 699 779 7 C 1055.14 54.4979 t 0 r /Helvetica findfont 22.736 sf 0 0 m (5.265) show NC gr 
 gsave  710 699 779 7 C 1127.8 54.4979 t 0 r /Helvetica findfont 22.736 sf 0 0 m (5.27) show NC gr 
 gsave  710 699 779 7 C 1188.36 54.4979 t 0 r /Helvetica findfont 22.736 sf 0 0 m (5.275) show NC gr 
 gsave  710 699 779 7 C 1261.02 54.4979 t 0 r /Helvetica findfont 22.736 sf 0 0 m (5.28) show NC gr 
 gsave  710 699 779 7 C 1321.57 54.4979 t 0 r /Helvetica findfont 22.736 sf 0 0 m (5.285) show NC gr 
 gsave  710 699 779 7 C 1394.24 54.4979 t 0 r /Helvetica findfont 22.736 sf 0 0 m (5.29) show NC gr 
 gsave  710 699 779 7 C 1360.93 31.7904 t 0 r /Helvetica findfont 22.736 sf 0 0 m (m_bc) show NC gr  885 77 m 559 Y s 902 77 m -17 X s 894 91 m -9 X s 894 106 m -9 X s 894 120 m -9 X s 894 134 m -9 X s 902 149 m -17 X s 894 163 m -9 X s 894 178 m -9
 X s 894 192 m -9 X s 894 206 m -9 X s 902 221 m -17 X s 894 235 m -9 X s 894 249 m -9 X s 894 264 m -9 X s 894 278 m -9 X s 902 293 m -17 X s 894 307 m -9 X s 894 321 m -9 X s 894 336 m -9 X s 894 350 m -9 X s 902 364 m -17 X s 894 379 m -9 X s 894
 393 m -9 X s 894 407 m -9 X s 894 422 m -9 X s 902 436 m -17 X s 894 451 m -9 X s 894 465 m -9 X s 894 479 m -9 X s 894 494 m -9 X s 902 508 m -17 X s 894 522 m -9 X s 894 537 m -9 X s 894 551 m -9 X s 894 566 m -9 X s 902 580 m -17 X s 902 580 m
 -17 X s 894 594 m -9 X s 894 609 m -9 X s 894 623 m -9 X s
 gsave  710 699 779 7 C 868.938 68.1223 t 0 r /Helvetica findfont 22.736 sf 0 0 m (0) show NC gr 
 gsave  710 699 779 7 C 855.314 140.786 t 0 r /Helvetica findfont 22.736 sf 0 0 m (10) show NC gr 
 gsave  710 699 779 7 C 855.314 211.936 t 0 r /Helvetica findfont 22.736 sf 0 0 m (20) show NC gr 
 gsave  710 699 779 7 C 855.314 284.6 t 0 r /Helvetica findfont 22.736 sf 0 0 m (30) show NC gr 
 gsave  710 699 779 7 C 855.314 355.75 t 0 r /Helvetica findfont 22.736 sf 0 0 m (40) show NC gr 
 gsave  710 699 779 7 C 855.314 428.414 t 0 r /Helvetica findfont 22.736 sf 0 0 m (50) show NC gr 
 gsave  710 699 779 7 C 855.314 499.564 t 0 r /Helvetica findfont 22.736 sf 0 0 m (60) show NC gr 
 gsave  710 699 779 7 C 855.314 572.228 t 0 r /Helvetica findfont 22.736 sf 0 0 m (70) show NC gr 
 gsave  710 699 779 7 C 828.065 452.635 t 90 r /Helvetica findfont 22.736 sf 0 0 m (Events / \( 0.0004 \)) show NC gr  888 142 m -3 X s 885 139 m 6 Y s 888 142 m 2 X s 890 139 m 6 Y s 888 142 m 29 Y s 885 171 m 6 X s 888 142 m -21 Y s 885 121 m 6 X s
 893 106 m -3 X s 890 103 m 6 Y s 893 106 m 3 X s 896 103 m 6 Y s 893 106 m 22 Y s 890 128 m 6 X s 893 106 m -14 Y s 890 92 m 6 X s 898 127 m -2 X s 896 124 m 6 Y s 898 127 m 3 X s 901 124 m 6 Y s 898 127 m 27 Y s 895 154 m 7 X s 898 127 m -18 Y s
 895 109 m 7 X s 904 156 m -3 X s 901 153 m 6 Y s 904 156 m 2 X s 906 153 m 6 Y s 904 156 m 32 Y s 901 188 m 6 X s 904 156 m -23 Y s 901 133 m 6 X s 909 134 m -3 X s 906 131 m 7 Y s 909 134 m 3 X s 912 131 m 7 Y s 909 134 m 29 Y s 906 163 m 6 X s 909
 134 m -19 Y s 906 115 m 6 X s 914 99 m -2 X s 912 96 m 6 Y s 914 99 m 3 X s 917 96 m 6 Y s 914 99 m 21 Y s 911 120 m 7 X s 914 99 m -12 Y s 911 87 m 7 X s 920 91 m -3 X s 917 88 m 6 Y s 920 91 m 2 X s 922 88 m 6 Y s 920 91 m 19 Y s 917 110 m 6 X s
 920 91 m -9 Y s 917 82 m 6 X s 925 134 m -3 X s 922 131 m 7 Y s 925 134 m 3 X s 928 131 m 7 Y s 925 134 m 29 Y s 922 163 m 6 X s 925 134 m -19 Y s 922 115 m 6 X s 930 99 m -2 X s 928 96 m 6 Y s 930 99 m 3 X s 933 96 m 6 Y s 930 99 m 21 Y s 927 120 m
 6 X s 930 99 m -12 Y s 927 87 m 6 X s 936 163 m -3 X s 933 160 m 6 Y s 936 163 m 2 X s 938 160 m 6 Y s 936 163 m 33 Y s 933 196 m 6 X s 936 163 m -24 Y s 933 139 m 6 X s 941 134 m -3 X s 938 131 m 7 Y s 941 134 m 3 X s 944 131 m 7 Y s 941 134 m 29 Y
 s 938 163 m 6 X s 941 134 m -19 Y s 938 115 m 6 X s 946 156 m -2 X s 944 153 m 6 Y s 946 156 m 3 X s 949 153 m 6 Y s 946 156 m 32 Y s 943 188 m 6 X s 946 156 m -23 Y s 943 133 m 6 X s 952 134 m -3 X s 949 131 m 7 Y s 952 134 m 2 X s 954 131 m 7 Y s
 952 134 m 29 Y s 949 163 m 6 X s 952 134 m -19 Y s 949 115 m 6 X s 957 127 m -3 X s 954 124 m 6 Y s 957 127 m 3 X s 960 124 m 6 Y s 957 127 m 27 Y s 954 154 m 6 X s 957 127 m -18 Y s 954 109 m 6 X s 962 134 m -2 X s 960 131 m 7 Y s 962 134 m 3 X s
 965 131 m 7 Y s 962 134 m 29 Y s 959 163 m 6 X s 962 134 m -19 Y s 959 115 m 6 X s 968 113 m -3 X s 965 110 m 6 Y s 968 113 m 2 X s 970 110 m 6 Y s 968 113 m 24 Y s 965 137 m 6 X s 968 113 m -16 Y s 965 97 m 6 X s 973 106 m -3 X s 970 103 m 6 Y s
 973 106 m 3 X s 976 103 m 6 Y s 973 106 m 22 Y s 970 128 m 6 X s 973 106 m -14 Y s 970 92 m 6 X s 978 127 m -2 X s 976 124 m 6 Y s 978 127 m 3 X s 981 124 m 6 Y s 978 127 m 27 Y s 975 154 m 6 X s 978 127 m -18 Y s 975 109 m 6 X s 984 142 m -3 X s
 981 139 m 6 Y s 984 142 m 2 X s 986 139 m 6 Y s 984 142 m 29 Y s 981 171 m 6 X s 984 142 m -21 Y s 981 121 m 6 X s 989 127 m -3 X s 986 124 m 6 Y s 989 127 m 3 X s 992 124 m 6 Y s 989 127 m 27 Y s 986 154 m 6 X s 989 127 m -18 Y s 986 109 m 6 X s
 994 91 m -2 X s 992 88 m 6 Y s 994 91 m 3 X s 997 88 m 6 Y s 994 91 m 19 Y s 991 110 m 6 X s 994 91 m -9 Y s 991 82 m 6 X s 1000 163 m -3 X s 997 160 m 6 Y s 1000 163 m 2 X s 1002 160 m 6 Y s 1000 163 m 33 Y s 997 196 m 6 X s 1000 163 m -24 Y s 997
 139 m 6 X s 1005 134 m -3 X s 1002 131 m 7 Y s 1005 134 m 3 X s 1008 131 m 7 Y s 1005 134 m 29 Y s 1002 163 m 6 X s 1005 134 m -19 Y s 1002 115 m 6 X s 1010 113 m -2 X s 1008 110 m 6 Y s 1010 113 m 3 X s 1013 110 m 6 Y s 1010 113 m 24 Y s 1007 137 m
 6 X s 1010 113 m -16 Y s 1007 97 m 6 X s 1016 134 m -3 X s 1013 131 m 7 Y s 1016 134 m 2 X s 1018 131 m 7 Y s 1016 134 m 29 Y s 1013 163 m 6 X s 1016 134 m -19 Y s 1013 115 m 6 X s 1021 163 m -3 X s 1018 160 m 6 Y s 1021 163 m 3 X s 1024 160 m 6 Y s
 1021 163 m 33 Y s 1018 196 m 6 X s 1021 163 m -24 Y s 1018 139 m 6 X s 1026 142 m -2 X s 1024 139 m 6 Y s 1026 142 m 3 X s 1029 139 m 6 Y s 1026 142 m 29 Y s 1023 171 m 6 X s 1026 142 m -21 Y s 1023 121 m 6 X s 1032 127 m -3 X s 1029 124 m 6 Y s
 1032 127 m 2 X s 1034 124 m 6 Y s 1032 127 m 27 Y s 1029 154 m 6 X s 1032 127 m -18 Y s 1029 109 m 6 X s 1037 120 m -3 X s 1034 117 m 6 Y s 1037 120 m 3 X s 1040 117 m 6 Y s 1037 120 m 26 Y s 1034 146 m 6 X s 1037 120 m -17 Y s 1034 103 m 6 X s 1042
 163 m -2 X s 1040 160 m 6 Y s 1042 163 m 3 X s 1045 160 m 6 Y s 1042 163 m 33 Y s 1039 196 m 6 X s 1042 163 m -24 Y s 1039 139 m 6 X s 1048 113 m -3 X s 1045 110 m 6 Y s 1048 113 m 2 X s 1050 110 m 6 Y s 1048 113 m 24 Y s 1045 137 m 6 X s 1048 113 m
 -16 Y s 1045 97 m 6 X s 1053 149 m -3 X s 1050 146 m 6 Y s 1053 149 m 3 X s 1056 146 m 6 Y s 1053 149 m 31 Y s 1050 180 m 6 X s 1053 149 m -22 Y s 1050 127 m 6 X s 1058 106 m -2 X s 1056 103 m 6 Y s 1058 106 m 3 X s 1061 103 m 6 Y s 1058 106 m 22 Y
 s 1055 128 m 6 X s 1058 106 m -14 Y s 1055 92 m 6 X s 1064 134 m -3 X s 1061 131 m 7 Y s 1064 134 m 2 X s 1066 131 m 7 Y s 1064 134 m 29 Y s 1061 163 m 6 X s 1064 134 m -19 Y s 1061 115 m 6 X s 1069 106 m -3 X s 1066 103 m 6 Y s 1069 106 m 3 X s
 1072 103 m 6 Y s 1069 106 m 22 Y s 1066 128 m 6 X s 1069 106 m -14 Y s 1066 92 m 6 X s 1074 120 m -2 X s 1072 117 m 6 Y s 1074 120 m 3 X s 1077 117 m 6 Y s 1074 120 m 26 Y s 1071 146 m 6 X s 1074 120 m -17 Y s 1071 103 m 6 X s 1080 127 m -3 X s 1077
 124 m 6 Y s 1080 127 m 2 X s 1082 124 m 6 Y s 1080 127 m 27 Y s 1077 154 m 6 X s 1080 127 m -18 Y s 1077 109 m 6 X s 1085 120 m -3 X s 1082 117 m 6 Y s 1085 120 m 3 X s 1088 117 m 6 Y s 1085 120 m 26 Y s 1082 146 m 6 X s 1085 120 m -17 Y s 1082 103
 m 6 X s 1090 113 m -2 X s 1088 110 m 6 Y s 1090 113 m 3 X s 1093 110 m 6 Y s 1090 113 m 24 Y s 1087 137 m 6 X s 1090 113 m -16 Y s 1087 97 m 6 X s 1096 127 m -3 X s 1093 124 m 6 Y s 1096 127 m 2 X s 1098 124 m 6 Y s 1096 127 m 27 Y s 1093 154 m 6 X
 s 1096 127 m -18 Y s 1093 109 m 6 X s 1101 142 m -3 X s 1098 139 m 6 Y s 1101 142 m 3 X s 1104 139 m 6 Y s 1101 142 m 29 Y s 1098 171 m 6 X s 1101 142 m -21 Y s 1098 121 m 6 X s 1106 127 m -2 X s 1104 124 m 6 Y s 1106 127 m 3 X s 1109 124 m 6 Y s
 1106 127 m 27 Y s 1103 154 m 6 X s 1106 127 m -18 Y s 1103 109 m 6 X s 1112 156 m -3 X s 1109 153 m 6 Y s 1112 156 m 2 X s 1114 153 m 6 Y s 1112 156 m 32 Y s 1109 188 m 6 X s 1112 156 m -23 Y s 1109 133 m 6 X s 1117 134 m -3 X s 1114 131 m 7 Y s
 1117 134 m 3 X s 1120 131 m 7 Y s 1117 134 m 29 Y s 1114 163 m 6 X s 1117 134 m -19 Y s 1114 115 m 6 X s 1122 142 m -2 X s 1120 139 m 6 Y s 1122 142 m 3 X s 1125 139 m 6 Y s 1122 142 m 29 Y s 1119 171 m 6 X s 1122 142 m -21 Y s 1119 121 m 6 X s 1128
 106 m -3 X s 1125 103 m 6 Y s 1128 106 m 2 X s 1130 103 m 6 Y s 1128 106 m 22 Y s 1125 128 m 6 X s 1128 106 m -14 Y s 1125 92 m 6 X s 1133 113 m -3 X s 1130 110 m 6 Y s 1133 113 m 3 X s 1136 110 m 6 Y s 1133 113 m 24 Y s 1130 137 m 6 X s 1133 113 m
 -16 Y s 1130 97 m 6 X s 1138 149 m -2 X s 1136 146 m 6 Y s 1138 149 m 3 X s 1141 146 m 6 Y s 1138 149 m 31 Y s 1135 180 m 6 X s 1138 149 m -22 Y s 1135 127 m 6 X s 1144 106 m -3 X s 1141 103 m 6 Y s 1144 106 m 2 X s 1146 103 m 6 Y s 1144 106 m 22 Y
 s 1141 128 m 6 X s 1144 106 m -14 Y s 1141 92 m 6 X s 1149 142 m -3 X s 1146 139 m 6 Y s 1149 142 m 3 X s 1152 139 m 6 Y s 1149 142 m 29 Y s 1146 171 m 6 X s 1149 142 m -21 Y s 1146 121 m 6 X s 1154 113 m -2 X s 1152 110 m 6 Y s 1154 113 m 3 X s
 1157 110 m 6 Y s 1154 113 m 24 Y s 1151 137 m 6 X s 1154 113 m -16 Y s 1151 97 m 6 X s 1160 134 m -3 X s 1157 131 m 7 Y s 1160 134 m 2 X s 1162 131 m 7 Y s 1160 134 m 29 Y s 1157 163 m 6 X s 1160 134 m -19 Y s 1157 115 m 6 X s 1165 163 m -3 X s 1162
 160 m 6 Y s 1165 163 m 3 X s 1168 160 m 6 Y s 1165 163 m 33 Y s 1162 196 m 6 X s 1165 163 m -24 Y s 1162 139 m 6 X s 1170 149 m -2 X s 1168 146 m 6 Y s 1170 149 m 3 X s 1173 146 m 6 Y s 1170 149 m 31 Y s 1167 180 m 6 X s 1170 149 m -22 Y s 1167 127
 m 6 X s 1176 113 m -3 X s 1173 110 m 6 Y s 1176 113 m 2 X s 1178 110 m 6 Y s 1176 113 m 24 Y s 1173 137 m 6 X s 1176 113 m -16 Y s 1173 97 m 6 X s 1181 149 m -3 X s 1178 146 m 6 Y s 1181 149 m 3 X s 1184 146 m 6 Y s 1181 149 m 31 Y s 1178 180 m 6 X
 s 1181 149 m -22 Y s 1178 127 m 6 X s 1186 149 m -2 X s 1184 146 m 6 Y s 1186 149 m 3 X s 1189 146 m 6 Y s 1186 149 m 31 Y s 1183 180 m 6 X s 1186 149 m -22 Y s 1183 127 m 6 X s 1192 163 m -3 X s 1189 160 m 6 Y s 1192 163 m 2 X s 1194 160 m 6 Y s
 1192 163 m 33 Y s 1189 196 m 6 X s 1192 163 m -24 Y s 1189 139 m 6 X s 1197 142 m -3 X s 1194 139 m 6 Y s 1197 142 m 3 X s 1200 139 m 6 Y s 1197 142 m 29 Y s 1194 171 m 6 X s 1197 142 m -21 Y s 1194 121 m 6 X s 1202 178 m -2 X s 1200 175 m 6 Y s
 1202 178 m 3 X s 1205 175 m 6 Y s 1202 178 m 34 Y s 1199 212 m 6 X s 1202 178 m -27 Y s 1199 151 m 6 X s 1208 199 m -3 X s 1205 196 m 6 Y s 1208 199 m 2 X s 1210 196 m 6 Y s 1208 199 m 38 Y s 1205 237 m 6 X s 1208 199 m -29 Y s 1205 170 m 6 X s 1213
 156 m -3 X s 1210 153 m 6 Y s 1213 156 m 3 X s 1216 153 m 6 Y s 1213 156 m 32 Y s 1210 188 m 6 X s 1213 156 m -23 Y s 1210 133 m 6 X s 1218 192 m -2 X s 1216 189 m 6 Y s 1218 192 m 3 X s 1221 189 m 6 Y s 1218 192 m 36 Y s 1215 228 m 6 X s 1218 192 m
 -28 Y s 1215 164 m 6 X s 1224 156 m -3 X s 1221 153 m 6 Y s 1224 156 m 2 X s 1226 153 m 6 Y s 1224 156 m 32 Y s 1221 188 m 6 X s 1224 156 m -23 Y s 1221 133 m 6 X s 1229 228 m -3 X s 1226 225 m 6 Y s 1229 228 m 3 X s 1232 225 m 6 Y s 1229 228 m 41 Y
 s 1226 269 m 6 X s 1229 228 m -33 Y s 1226 195 m 6 X s 1234 293 m -2 X s 1232 290 m 6 Y s 1234 293 m 3 X s 1237 290 m 6 Y s 1234 293 m 47 Y s 1231 340 m 6 X s 1234 293 m -40 Y s 1231 253 m 6 X s 1240 278 m -3 X s 1237 275 m 6 Y s 1240 278 m 2 X s
 1242 275 m 6 Y s 1240 278 m 46 Y s 1237 324 m 6 X s 1240 278 m -38 Y s 1237 240 m 6 X s 1245 300 m -3 X s 1242 297 m 6 Y s 1245 300 m 3 X s 1248 297 m 6 Y s 1245 300 m 47 Y s 1242 347 m 6 X s 1245 300 m -40 Y s 1242 260 m 6 X s 1250 336 m -2 X s
 1248 333 m 6 Y s 1250 336 m 3 X s 1253 333 m 6 Y s 1250 336 m 50 Y s 1247 386 m 6 X s 1250 336 m -43 Y s 1247 293 m 6 X s 1256 278 m -3 X s 1253 275 m 6 Y s 1256 278 m 2 X s 1258 275 m 6 Y s 1256 278 m 46 Y s 1253 324 m 6 X s 1256 278 m -38 Y s 1253
 240 m 6 X s 1261 314 m -3 X s 1258 311 m 6 Y s 1261 314 m 3 X s 1264 311 m 6 Y s 1261 314 m 49 Y s 1258 363 m 6 X s 1261 314 m -41 Y s 1258 273 m 6 X s 1266 472 m -2 X s 1264 469 m 6 Y s 1266 472 m 3 X s 1269 469 m 6 Y s 1266 472 m 61 Y s 1263 533 m
 6 X s 1266 472 m -53 Y s 1263 419 m 6 X s 1272 429 m -3 X s 1269 426 m 6 Y s 1272 429 m 2 X s 1274 426 m 6 Y s 1272 429 m 58 Y s 1268 487 m 7 X s 1272 429 m -50 Y s 1268 379 m 7 X s 1277 465 m -3 X s 1274 462 m 6 Y s 1277 465 m 3 X s 1280 462 m 6 Y
 s 1277 465 m 60 Y s 1274 525 m 6 X s 1277 465 m -53 Y s 1274 412 m 6 X s 1282 494 m -2 X s 1280 491 m 6 Y s 1282 494 m 3 X s 1285 491 m 6 Y s 1282 494 m 62 Y s 1279 556 m 6 X s 1282 494 m -55 Y s 1279 439 m 6 X s 1288 451 m -3 X s 1285 448 m 6 Y s
 1288 451 m 2 X s 1290 448 m 6 Y s 1288 451 m 59 Y s 1284 510 m 7 X s 1288 451 m -52 Y s 1284 399 m 7 X s 1293 494 m -3 X s 1290 491 m 6 Y s 1293 494 m 3 X s 1296 491 m 6 Y s 1293 494 m 62 Y s 1290 556 m 6 X s 1293 494 m -55 Y s 1290 439 m 6 X s 1298
 479 m -2 X s 1296 476 m 6 Y s 1298 479 m 3 X s 1301 476 m 6 Y s 1298 479 m 62 Y s 1295 541 m 6 X s 1298 479 m -53 Y s 1295 426 m 6 X s 1304 508 m -3 X s 1301 505 m 6 Y s 1304 508 m 2 X s 1306 505 m 6 Y s 1304 508 m 63 Y s 1300 571 m 7 X s 1304 508 m
 -55 Y s 1300 453 m 7 X s 1309 544 m -3 X s 1306 541 m 6 Y s 1309 544 m 2 X s 1311 541 m 6 Y s 1309 544 m 65 Y s 1306 609 m 6 X s 1309 544 m -58 Y s 1306 486 m 6 X s 1314 465 m -3 X s 1311 462 m 6 Y s 1314 465 m 3 X s 1317 462 m 6 Y s 1314 465 m 60 Y
 s 1311 525 m 6 X s 1314 465 m -53 Y s 1311 412 m 6 X s 1319 422 m -2 X s 1317 419 m 6 Y s 1319 422 m 3 X s 1322 419 m 6 Y s 1319 422 m 57 Y s 1316 479 m 7 X s 1319 422 m -50 Y s 1316 372 m 7 X s 1325 328 m -3 X s 1322 325 m 6 Y s 1325 328 m 2 X s
 1327 325 m 6 Y s 1325 328 m 51 Y s 1322 379 m 6 X s 1325 328 m -42 Y s 1322 286 m 6 X s 1330 372 m -3 X s 1327 369 m 6 Y s 1330 372 m 3 X s 1333 369 m 6 Y s 1330 372 m 53 Y s 1327 425 m 6 X s 1330 372 m -46 Y s 1327 326 m 6 X s 1335 228 m -2 X s
 1333 225 m 6 Y s 1335 228 m 3 X s 1338 225 m 6 Y s 1335 228 m 41 Y s 1332 269 m 7 X s 1335 228 m -33 Y s 1332 195 m 7 X s 1341 199 m -3 X s 1338 196 m 6 Y s 1341 199 m 2 X s 1343 196 m 6 Y s 1341 199 m 38 Y s 1338 237 m 6 X s 1341 199 m -29 Y s 1338
 170 m 6 X s 1346 278 m -3 X s 1343 275 m 6 Y s 1346 278 m 3 X s 1349 275 m 6 Y s 1346 278 m 46 Y s 1343 324 m 6 X s 1346 278 m -38 Y s 1343 240 m 6 X s 1351 214 m -2 X s 1349 210 m 7 Y s 1351 214 m 3 X s 1354 210 m 7 Y s 1351 214 m 39 Y s 1348 253 m
 6 X s 1351 214 m -32 Y s 1348 182 m 6 X s 1357 206 m -3 X s 1354 203 m 6 Y s 1357 206 m 2 X s 1359 203 m 6 Y s 1357 206 m 39 Y s 1354 245 m 6 X s 1357 206 m -30 Y s 1354 176 m 6 X s 1362 192 m -3 X s 1359 189 m 6 Y s 1362 192 m 3 X s 1365 189 m 6 Y
 s 1362 192 m 36 Y s 1359 228 m 6 X s 1362 192 m -28 Y s 1359 164 m 6 X s 1367 156 m -2 X s 1365 153 m 6 Y s 1367 156 m 3 X s 1370 153 m 6 Y s 1367 156 m 32 Y s 1364 188 m 6 X s 1367 156 m -23 Y s 1364 133 m 6 X s 1373 127 m -3 X s 1370 124 m 6 Y s
 1373 127 m 2 X s 1375 124 m 6 Y s 1373 127 m 27 Y s 1370 154 m 6 X s 1373 127 m -18 Y s 1370 109 m 6 X s 1378 127 m -3 X s 1375 124 m 6 Y s 1378 127 m 3 X s 1381 124 m 6 Y s 1378 127 m 27 Y s 1375 154 m 6 X s 1378 127 m -18 Y s 1375 109 m 6 X s 1383
 134 m -2 X s 1381 131 m 7 Y s 1383 134 m 3 X s 1386 131 m 7 Y s 1383 134 m 29 Y s 1380 163 m 6 X s 1383 134 m -19 Y s 1380 115 m 6 X s 1389 99 m -3 X s 1386 96 m 6 Y s 1389 99 m 2 X s 1391 96 m 6 Y s 1389 99 m 21 Y s 1386 120 m 6 X s 1389 99 m -12 Y
 s 1386 87 m 6 X s 1394 91 m -3 X s 1391 88 m 6 Y s 1394 91 m 3 X s 1397 88 m 6 Y s 1394 91 m 19 Y s 1391 110 m 6 X s 1394 91 m -9 Y s 1391 82 m 6 X s 1399 106 m -2 X s 1397 103 m 6 Y s 1399 106 m 3 X s 1402 103 m 6 Y s 1399 106 m 22 Y s 1396 128 m 6
 X s 1399 106 m -14 Y s 1396 92 m 6 X s 1405 91 m -3 X s 1402 88 m 6 Y s 1405 91 m 2 X s 1407 88 m 6 Y s 1405 91 m 19 Y s 1402 110 m 6 X s 1405 91 m -9 Y s 1402 82 m 6 X s 1410 77 m -3 X s 1407 77 m 3 Y s 1410 77 m 3 X s 1413 77 m 3 Y s 1410 77 m 8 Y
 s 1407 85 m 6 X s 1415 99 m -2 X s 1413 96 m 6 Y s 1415 99 m 3 X s 1418 96 m 6 Y s 1415 99 m 21 Y s 1412 120 m 6 X s 1415 99 m -12 Y s 1412 87 m 6 X s /w 12 def /w2 {w 2 div} def /w3 {w 3 div} def 888 142 893 106 898 127 904 156 909 134 914 99 920
 91 925 134 930 99 936 163 941 134 946 156 952 134 957 127 962 134 968 113 973 106 978 127 984 142 989 127 994 91 1000 163 1005 134 1010 113 1016 134 1021 163 1026 142 1032 127 1037 120 1042 163 1048 113 1053 149 1058 106 1064 134 1069 106 1074 120
 1080 127 1085 120 1090 113 1096 127 1101 142 1106 127 1112 156 1117 134 1122 142 1128 106 1133 113 1138 149 1144 106 1149 142 1154 113 1160 134 1165 163 1170 149 1176 113 1181 149 1186 149 1192 163 1197 142 1202 178 1208 199 1213 156 1218 192 1224
 156 1229 228 1234 293 1240 278 1245 300 1250 336 1256 278 1261 314 1266 472 1272 429 1277 465 1282 494 1288 451 1293 494 1298 479 1304 508 1309 544 1314 465 1319 422 1325 328 1330 372 1335 228 1341 199 1346 278 1351 214 1357 206 1362 192 1367 156
 1373 127 1378 127 1383 134 1389 99 1394 91 1399 106 1405 91 1410 77 1415 99 100 { m20} R 0 0 1 c 9 lw black 0 0 1 c 885 127 m cl s 885 127 m 11 X 5 1 d 32 X 5 1 d 38 X 5 1 d 69 X 6 1 d 69 X 5 -1 d 16 X 6 1 d 10 X 6 1 d 5 X 5 2 d 6 2 d 5 3 d 5 4 d 6
 6 d 5 7 d 5 10 d 6 13 d 5 15 d 5 19 d 6 22 d 5 25 d 5 28 d 6 29 d 5 31 d 5 31 d 6 30 d 2 14 d 3 13 d 3 12 d 2 11 d 3 9 d 3 8 d 2 6 d 3 5 d 3 3 d 2 1 d 3 -1 d 3 -3 d 2 -4 d 3 -6 d 3 -8 d 2 -9 d 3 -11 d 2 -12 d 3 -13 d 3 -15 d 5 -30 d 5 -32 d 6 -32 d
 5 -32 d 5 -29 d 6 -27 d 5 -24 d 5 -21 d 6 -18 d 5 -15 d 5 -12 d 6 -10 d 5 -9 d 5 -6 d 6 -6 d 5 -5 d 5 -5 d 6 -6 d 2 -3 d 2 -3 d -2 Y 1 -4 d s black 3 lw 885 77 m 533 X s 885 93 m -16 Y s 898 85 m -8 Y s 912 85 m -8 Y s 925 85 m -8 Y s 938 85 m -8 Y
 s 952 93 m -16 Y s 965 85 m -8 Y s 978 85 m -8 Y s 992 85 m -8 Y s 1005 85 m -8 Y s 1018 93 m -16 Y s 1032 85 m -8 Y s 1045 85 m -8 Y s 1058 85 m -8 Y s 1072 85 m -8 Y s 1085 93 m -16 Y s 1098 85 m -8 Y s 1112 85 m -8 Y s 1125 85 m -8 Y s 1138 85 m
 -8 Y s 1152 93 m -16 Y s 1165 85 m -8 Y s 1178 85 m -8 Y s 1192 85 m -8 Y s 1205 85 m -8 Y s 1218 93 m -16 Y s 1232 85 m -8 Y s 1245 85 m -8 Y s 1258 85 m -8 Y s 1272 85 m -8 Y s 1285 93 m -16 Y s 1298 85 m -8 Y s 1311 85 m -8 Y s 1325 85 m -8 Y s
 1338 85 m -8 Y s 1351 93 m -16 Y s 1365 85 m -8 Y s 1378 85 m -8 Y s 1391 85 m -8 Y s 1405 85 m -8 Y s 1418 93 m -16 Y s 885 77 m 559 Y s 902 77 m -17 X s 894 91 m -9 X s 894 106 m -9 X s 894 120 m -9 X s 894 134 m -9 X s 902 149 m -17 X s 894 163 m
 -9 X s 894 178 m -9 X s 894 192 m -9 X s 894 206 m -9 X s 902 221 m -17 X s 894 235 m -9 X s 894 249 m -9 X s 894 264 m -9 X s 894 278 m -9 X s 902 293 m -17 X s 894 307 m -9 X s 894 321 m -9 X s 894 336 m -9 X s 894 350 m -9 X s 902 364 m -17 X s
 894 379 m -9 X s 894 393 m -9 X s 894 407 m -9 X s 894 422 m -9 X s 902 436 m -17 X s 894 451 m -9 X s 894 465 m -9 X s 894 479 m -9 X s 894 494 m -9 X s 902 508 m -17 X s 894 522 m -9 X s 894 537 m -9 X s 894 551 m -9 X s 894 566 m -9 X s 902 580 m
 -17 X s 902 580 m -17 X s 894 594 m -9 X s 894 609 m -9 X s 894 623 m -9 X s 1 1 1 c black
 gsave  710 699 779 7 C 1041.51 672.14 t 0 r /Helvetica findfont 34.8619 sf 0 0 m (Background) show NC gr 
 gr  gr showpage
end
%%EOF
