%!PS-Adobe-2.0 EPSF-2.0
%%BoundingBox:  384 2 561 176
%%Title: ./plots/pfit_real.eps: rf101_basics
%%Creator: ROOT Version 6.11/01
%%CreationDate: Thu Oct  5 14:15:47 2017
%%DocumentNeededResources: ProcSet (FontSetInit)
%%EndComments
%%BeginProlog
80 dict begin
/s {stroke} def /l {lineto} def /m {moveto} def /t {translate} def
/r {rotate} def /rl {roll}  def /R {repeat} def
/d {rlineto} def /rm {rmoveto} def /gr {grestore} def /f {eofill} def
/c {setrgbcolor} def /black {0 setgray} def /sd {setdash} def
/cl {closepath} def /sf {scalefont setfont} def /lw {setlinewidth} def
/box {m dup 0 exch d exch 0 d 0 exch neg d cl} def
/NC{systemdict begin initclip end}def/C{NC box clip newpath}def
/bl {box s} def /bf {gsave box gsave f grestore 1 lw [] 0 sd s grestore} def /Y { 0 exch d} def /X { 0 d} def 
/K {{pop pop 0 moveto} exch kshow} bind def
/ita {/ang 15 def gsave [1 0 ang dup sin exch cos div 1 0 0] concat} def 
/mp {newpath /y exch def /x exch def} def
/side {[w .77 mul w .23 mul] .385 w mul sd w 0 l currentpoint t -144 r} def
/mr {mp x y w2 0 360 arc} def /m24 {mr s} def /m20 {mr f} def
/mb {mp x y w2 add m w2 neg 0 d 0 w neg d w 0 d 0 w d cl} def
/mt {mp x y w2 add m w2 neg w neg d w 0 d cl} def
/w4 {w 4 div} def
/w6 {w 6 div} def
/w8 {w 8 div} def
/m21 {mb f} def /m25 {mb s} def /m22 {mt f} def /m26{mt s} def
/m23 {mp x y w2 sub m w2 w d w neg 0 d cl f} def
/m27 {mp x y w2 add m w3 neg w2 neg d w3 w2 neg d w3 w2 d cl s} def
/m28 {mp x w2 sub y w2 sub w3 add m w3 0 d  0 w3 neg d w3 0 d 0 w3 d w3 0 d  0 w3 d w3 neg 0 d 0 w3 d w3 neg 0 d 0 w3 neg d w3 neg 0 d cl s } def
/m29 {mp gsave x w2 sub y w2 add w3 sub m currentpoint t 4 {side} repeat cl fill gr} def
/m30 {mp gsave x w2 sub y w2 add w3 sub m currentpoint t 4 {side} repeat cl s gr} def
/m31 {mp x y w2 sub m 0 w d x w2 sub y m w 0 d x w2 sub y w2 add m w w neg d x w2 sub y w2 sub m w w d s} def
/m32 {mp x y w2 sub m w2 w d w neg 0 d cl s} def
/m33 {mp x y w2 add m w3 neg w2 neg d w3 w2 neg d w3 w2 d cl f} def
/m34 {mp x w2 sub y w2 sub w3 add m w3 0 d  0 w3 neg d w3 0 d 0 w3 d w3 0 d  0 w3 d w3 neg 0 d 0 w3 d w3 neg 0 d 0 w3 neg d w3 neg 0 d cl f } def
/m35 {mp x y w2 add m w2 neg w2 neg d w2 w2 neg d w2 w2 d w2 neg w2 d x y w2 sub m 0 w d x w2 sub y m w 0 d s} def
/m36 {mb x w2 sub y w2 add m w w neg d x w2 sub y w2 sub m w w d s} def
/m37 {mp x y m w4 neg w2 d w4 neg w2 neg d w2 0 d  w4 neg w2 neg d w2 0 d w4 neg w2 d w2 0 d w4 neg w2 d w4 neg w2 neg d cl s} def
/m38 {mp x w4 sub y w2 add m w4 neg w4 neg d 0 w2 neg d w4 w4 neg d w2 0 d w4 w4 d 0 w2 d w4 neg w4 d w2 neg 0 d x y w2 sub m 0 w d x w2 sub y m w 0 d cl s} def
/m39 {mp x y m w4 neg w2 d w4 neg w2 neg d w2 0 d  w4 neg w2 neg d w2 0 d w4 neg w2 d w2 0 d w4 neg w2 d w4 neg w2 neg d cl f} def
/m40 {mp x y m w4 w2 d w4 w4 neg d w2 neg w4 neg d w2 w4 neg d w4 neg w4 neg d w4 neg w2 d w4 neg w2 neg d w4 neg w4 d w2 w4 d w2 neg w4 d w4 w4 d w4 w2 neg d cl s} def
/m41 {mp x y m w4 w2 d w4 w4 neg d w2 neg w4 neg d w2 w4 neg d w4 neg w4 neg d w4 neg w2 d w4 neg w2 neg d w4 neg w4 d w2 w4 d w2 neg w4 d w4 w4 d w4 w2 neg d cl f} def
/m42 {mp x y w2 add m w8 neg w2 -3 4 div mul d w2 -3 4 div mul w8 neg d w2 3 4 div mul w8 neg d w8 w2 -3 4 div mul d w8 w2 3 4 div mul d w2 3 4 div mul w8 d w2 -3 4 div mul w8 d w8 neg w2 3 4 div mul d cl s} def
/m43 {mp x y w2 add m w8 neg w2 -3 4 div mul d w2 -3 4 div mul w8 neg d w2 3 4 div mul w8 neg d w8 w2 -3 4 div mul d w8 w2 3 4 div mul d w2 3 4 div mul w8 d w2 -3 4 div mul w8 d w8 neg w2 3 4 div mul d cl f} def
/m44 {mp x y m w6 neg w2 d w2 2 3 div mul 0 d w6 neg w2 neg d w2 w6 d 0 w2 -2 3 div mul d w2 neg w6 d w6 w2 neg d w2 -2 3 div mul 0 d w6 w2 d w2 neg w6 neg d 0 w2 2 3 div mul d w2 w6 neg d cl s} def
/m45 {mp x y m w6 neg w2 d w2 2 3 div mul 0 d w6 neg w2 neg d w2 w6 d 0 w2 -2 3 div mul d w2 neg w6 d w6 w2 neg d w2 -2 3 div mul 0 d w6 w2 d w2 neg w6 neg d 0 w2 2 3 div mul d w2 w6 neg d cl f} def
/m46 {mp x y w4 add m w4 neg w4 d w4 neg w4 neg d  w4 w4 neg d w4 neg w4 neg d w4 w4 neg d w4 w4 d w4 w4 neg d w4 w4 d w4 neg w4 d w4 w4 d w4 neg w4 d w4 neg w4 neg d cl s} def
/m47 {mp x y w4 add m w4 neg w4 d w4 neg w4 neg d w4 w4 neg d w4 neg w4 neg d  w4 w4 neg d w4 w4 d w4 w4 neg d w4 w4 d w4 neg w4 d w4 w4 d w4 neg w4 d w4 neg w4 neg d cl f} def
/m48 {mp x y w4 add m w4 neg w4 d w4 neg w4 neg d w4 w4 neg d  w4 neg w4 neg d w4 w4 neg d w4 w4 d w4 w4 neg d w4 w4 d w4 neg w4 d w4 w4 d w4 neg w4 d w4 neg w4 neg d  w4 w4 neg d w4 neg w4 neg d w4 neg w4 d w4 w4 d cl f} def
/m49 {mp x w2 sub w3 add y w2 sub w3 add m  0 w3 neg d w3 0 d 0 w3 d w3 0 d 0 w3 d w3 neg 0 d 0 w3 d w3 neg 0 d 0 w3 neg d w3 neg 0 d 0 w3 neg d w3 0 d 0 w3 d w3 0 d 0 w3 neg d w3 neg 0 d cl f } def
/m2 {mp x y w2 sub m 0 w d x w2 sub y m w 0 d s} def
/m5 {mp x w2 sub y w2 sub m w w d x w2 sub y w2 add m w w neg d s} def
%%IncludeResource: ProcSet (FontSetInit)
%%IncludeResource: font Times-Roman
%%IncludeResource: font Times-Italic
%%IncludeResource: font Times-Bold
%%IncludeResource: font Times-BoldItalic
%%IncludeResource: font Helvetica
%%IncludeResource: font Helvetica-Oblique
%%IncludeResource: font Helvetica-Bold
%%IncludeResource: font Helvetica-BoldOblique
%%IncludeResource: font Courier
%%IncludeResource: font Courier-Oblique
%%IncludeResource: font Courier-Bold
%%IncludeResource: font Courier-BoldOblique
%%IncludeResource: font Symbol
%%IncludeResource: font ZapfDingbats
/reEncode {exch findfont dup length dict begin {1 index /FID eq  {pop pop} {def} ifelse } forall /Encoding exch def currentdict end dup /FontName get exch definefont pop } def [/Times-Bold /Times-Italic /Times-BoldItalic /Helvetica /Helvetica-Oblique
 /Helvetica-Bold /Helvetica-BoldOblique /Courier /Courier-Oblique /Courier-Bold /Courier-BoldOblique /Times-Roman /AvantGarde-Book /AvantGarde-BookOblique /AvantGarde-Demi /AvantGarde-DemiOblique /Bookman-Demi /Bookman-DemiItalic /Bookman-Light
 /Bookman-LightItalic /Helvetica-Narrow /Helvetica-Narrow-Bold /Helvetica-Narrow-BoldOblique /Helvetica-Narrow-Oblique /NewCenturySchlbk-Roman /NewCenturySchlbk-Bold /NewCenturySchlbk-BoldItalic /NewCenturySchlbk-Italic /Palatino-Bold
 /Palatino-BoldItalic /Palatino-Italic /Palatino-Roman ] {ISOLatin1Encoding reEncode } forall
%%EndProlog
%%BeginSetup
%%EndSetup
newpath  gsave  .25 .25 scale  gsave  0 0 t black[  ] 0 sd 3 lw 1 1 1 c 711 699 1534 7 bf black 1 1 1 c 533 559 1641 77 bf black 533 559 1641 77 bl 1 1 1 c 533 559 1641 77 bf black 533 559 1641 77 bl 1641 77 m 533 X s 1641 93 m -16 Y s 1659 85 m -8 Y
 s 1678 85 m -8 Y s 1696 85 m -8 Y s 1715 85 m -8 Y s 1733 93 m -16 Y s 1751 85 m -8 Y s 1770 85 m -8 Y s 1788 85 m -8 Y s 1806 85 m -8 Y s 1825 93 m -16 Y s 1843 85 m -8 Y s 1862 85 m -8 Y s 1880 85 m -8 Y s 1898 85 m -8 Y s 1917 93 m -16 Y s 1935
 85 m -8 Y s 1953 85 m -8 Y s 1972 85 m -8 Y s 1990 85 m -8 Y s 2009 93 m -16 Y s 2027 85 m -8 Y s 2045 85 m -8 Y s 2064 85 m -8 Y s 2082 85 m -8 Y s 2100 93 m -16 Y s 2100 93 m -16 Y s 2119 85 m -8 Y s 2137 85 m -8 Y s 2156 85 m -8 Y s
 gsave  711 699 1534 7 C 1618.28 54.4979 t 0 r /Helvetica findfont 22.736 sf 0 0 m (5.26) show NC gr 
 gsave  711 699 1534 7 C 1703.06 54.4979 t 0 r /Helvetica findfont 22.736 sf 0 0 m (5.265) show NC gr 
 gsave  711 699 1534 7 C 1801.46 54.4979 t 0 r /Helvetica findfont 22.736 sf 0 0 m (5.27) show NC gr 
 gsave  711 699 1534 7 C 1887.75 54.4979 t 0 r /Helvetica findfont 22.736 sf 0 0 m (5.275) show NC gr 
 gsave  711 699 1534 7 C 1984.63 54.4979 t 0 r /Helvetica findfont 22.736 sf 0 0 m (5.28) show NC gr 
 gsave  711 699 1534 7 C 2070.92 54.4979 t 0 r /Helvetica findfont 22.736 sf 0 0 m (5.285) show NC gr 
 gsave  711 699 1534 7 C 2117.85 31.7904 t 0 r /Helvetica findfont 22.736 sf 0 0 m (m_bc) show NC gr  1641 77 m 559 Y s 1658 77 m -17 X s 1650 90 m -9 X s 1650 104 m -9 X s 1650 117 m -9 X s 1650 130 m -9 X s 1658 144 m -17 X s 1650 157 m -9 X s 1650
 170 m -9 X s 1650 184 m -9 X s 1650 197 m -9 X s 1658 211 m -17 X s 1650 224 m -9 X s 1650 237 m -9 X s 1650 251 m -9 X s 1650 264 m -9 X s 1658 277 m -17 X s 1650 291 m -9 X s 1650 304 m -9 X s 1650 317 m -9 X s 1650 331 m -9 X s 1658 344 m -17 X s
 1650 357 m -9 X s 1650 371 m -9 X s 1650 384 m -9 X s 1650 397 m -9 X s 1658 411 m -17 X s 1650 424 m -9 X s 1650 437 m -9 X s 1650 451 m -9 X s 1650 464 m -9 X s 1658 477 m -17 X s 1650 491 m -9 X s 1650 504 m -9 X s 1650 518 m -9 X s 1650 531 m -9
 X s 1658 544 m -17 X s 1650 558 m -9 X s 1650 571 m -9 X s 1650 584 m -9 X s 1650 598 m -9 X s 1658 611 m -17 X s 1658 611 m -17 X s 1650 624 m -9 X s
 gsave  711 699 1534 7 C 1624.34 68.1223 t 0 r /Helvetica findfont 22.736 sf 0 0 m (0) show NC gr 
 gsave  711 699 1534 7 C 1610.71 134.731 t 0 r /Helvetica findfont 22.736 sf 0 0 m (50) show NC gr 
 gsave  711 699 1534 7 C 1598.6 202.853 t 0 r /Helvetica findfont 22.736 sf 0 0 m (100) show NC gr 
 gsave  711 699 1534 7 C 1598.6 269.462 t 0 r /Helvetica findfont 22.736 sf 0 0 m (150) show NC gr 
 gsave  711 699 1534 7 C 1598.6 336.07 t 0 r /Helvetica findfont 22.736 sf 0 0 m (200) show NC gr 
 gsave  711 699 1534 7 C 1598.6 402.679 t 0 r /Helvetica findfont 22.736 sf 0 0 m (250) show NC gr 
 gsave  711 699 1534 7 C 1598.6 469.287 t 0 r /Helvetica findfont 22.736 sf 0 0 m (300) show NC gr 
 gsave  711 699 1534 7 C 1598.6 535.896 t 0 r /Helvetica findfont 22.736 sf 0 0 m (350) show NC gr 
 gsave  711 699 1534 7 C 1598.6 602.504 t 0 r /Helvetica findfont 22.736 sf 0 0 m (400) show NC gr 
 gsave  711 699 1534 7 C 1583.47 440.524 t 90 r /Helvetica findfont 22.736 sf 0 0 m (Events / \( 0.00029 \)) show NC gr  1644 158 m -3 X s 1641 155 m 6 Y s 1644 158 m 2 X s 1646 155 m 6 Y s 1644 158 m 12 Y s 1641 170 m 6 X s 1644 158 m -10 Y s 1641
 148 m 6 X s 1649 172 m -3 X s 1646 169 m 6 Y s 1649 172 m 3 X s 1652 169 m 6 Y s 1649 172 m 12 Y s 1646 184 m 6 X s 1649 172 m -11 Y s 1646 161 m 6 X s 1654 150 m -2 X s 1652 147 m 6 Y s 1654 150 m 3 X s 1657 147 m 6 Y s 1654 150 m 12 Y s 1651 162 m
 6 X s 1654 150 m -9 Y s 1651 141 m 6 X s 1660 165 m -3 X s 1657 162 m 6 Y s 1660 165 m 2 X s 1662 162 m 6 Y s 1660 165 m 12 Y s 1657 177 m 6 X s 1660 165 m -11 Y s 1657 154 m 6 X s 1665 158 m -3 X s 1662 155 m 6 Y s 1665 158 m 3 X s 1668 155 m 6 Y s
 1665 158 m 12 Y s 1662 170 m 6 X s 1665 158 m -10 Y s 1662 148 m 6 X s 1670 174 m -2 X s 1668 171 m 6 Y s 1670 174 m 3 X s 1673 171 m 6 Y s 1670 174 m 13 Y s 1667 187 m 6 X s 1670 174 m -11 Y s 1667 163 m 6 X s 1676 162 m -3 X s 1673 159 m 6 Y s
 1676 162 m 2 X s 1678 159 m 6 Y s 1676 162 m 13 Y s 1673 175 m 6 X s 1676 162 m -10 Y s 1673 152 m 6 X s 1681 160 m -3 X s 1678 157 m 6 Y s 1681 160 m 3 X s 1684 157 m 6 Y s 1681 160 m 12 Y s 1678 172 m 6 X s 1681 160 m -11 Y s 1678 149 m 6 X s 1686
 162 m -2 X s 1684 159 m 6 Y s 1686 162 m 3 X s 1689 159 m 6 Y s 1686 162 m 13 Y s 1683 175 m 6 X s 1686 162 m -10 Y s 1683 152 m 6 X s 1692 160 m -3 X s 1689 157 m 6 Y s 1692 160 m 2 X s 1694 157 m 6 Y s 1692 160 m 12 Y s 1689 172 m 6 X s 1692 160 m
 -11 Y s 1689 149 m 6 X s 1697 166 m -3 X s 1694 163 m 6 Y s 1697 166 m 3 X s 1700 163 m 6 Y s 1697 166 m 13 Y s 1694 179 m 6 X s 1697 166 m -10 Y s 1694 156 m 6 X s 1702 153 m -2 X s 1700 150 m 6 Y s 1702 153 m 3 X s 1705 150 m 6 Y s 1702 153 m 12 Y
 s 1699 165 m 6 X s 1702 153 m -10 Y s 1699 143 m 6 X s 1708 154 m -3 X s 1705 151 m 6 Y s 1708 154 m 2 X s 1710 151 m 6 Y s 1708 154 m 12 Y s 1705 166 m 6 X s 1708 154 m -10 Y s 1705 144 m 6 X s 1713 161 m -3 X s 1710 158 m 6 Y s 1713 161 m 3 X s
 1716 158 m 6 Y s 1713 161 m 12 Y s 1710 173 m 6 X s 1713 161 m -10 Y s 1710 151 m 6 X s 1718 152 m -2 X s 1716 149 m 6 Y s 1718 152 m 3 X s 1721 149 m 6 Y s 1718 152 m 11 Y s 1715 163 m 6 X s 1718 152 m -10 Y s 1715 142 m 6 X s 1724 177 m -3 X s
 1721 174 m 6 Y s 1724 177 m 2 X s 1726 174 m 6 Y s 1724 177 m 13 Y s 1721 190 m 6 X s 1724 177 m -11 Y s 1721 166 m 6 X s 1729 148 m -3 X s 1726 145 m 6 Y s 1729 148 m 3 X s 1732 145 m 6 Y s 1729 148 m 11 Y s 1726 159 m 6 X s 1729 148 m -10 Y s 1726
 138 m 6 X s 1734 181 m -2 X s 1732 178 m 6 Y s 1734 181 m 3 X s 1737 178 m 6 Y s 1734 181 m 13 Y s 1731 194 m 6 X s 1734 181 m -12 Y s 1731 169 m 6 X s 1740 160 m -3 X s 1737 157 m 6 Y s 1740 160 m 2 X s 1742 157 m 6 Y s 1740 160 m 12 Y s 1737 172 m
 6 X s 1740 160 m -11 Y s 1737 149 m 6 X s 1745 152 m -3 X s 1742 149 m 6 Y s 1745 152 m 3 X s 1748 149 m 6 Y s 1745 152 m 11 Y s 1742 163 m 6 X s 1745 152 m -10 Y s 1742 142 m 6 X s 1750 160 m -2 X s 1748 157 m 6 Y s 1750 160 m 3 X s 1753 157 m 6 Y
 s 1750 160 m 12 Y s 1747 172 m 6 X s 1750 160 m -11 Y s 1747 149 m 6 X s 1756 173 m -3 X s 1753 170 m 6 Y s 1756 173 m 2 X s 1758 170 m 6 Y s 1756 173 m 13 Y s 1753 186 m 6 X s 1756 173 m -11 Y s 1753 162 m 6 X s 1761 165 m -3 X s 1758 162 m 6 Y s
 1761 165 m 3 X s 1764 162 m 6 Y s 1761 165 m 12 Y s 1758 177 m 6 X s 1761 165 m -11 Y s 1758 154 m 6 X s 1766 154 m -2 X s 1764 151 m 6 Y s 1766 154 m 3 X s 1769 151 m 6 Y s 1766 154 m 12 Y s 1763 166 m 6 X s 1766 154 m -10 Y s 1763 144 m 6 X s 1772
 134 m -3 X s 1769 131 m 6 Y s 1772 134 m 2 X s 1774 131 m 6 Y s 1772 134 m 11 Y s 1769 145 m 6 X s 1772 134 m -8 Y s 1769 126 m 6 X s 1777 170 m -3 X s 1774 167 m 6 Y s 1777 170 m 3 X s 1780 167 m 6 Y s 1777 170 m 13 Y s 1774 183 m 6 X s 1777 170 m
 -11 Y s 1774 159 m 6 X s 1782 181 m -2 X s 1780 178 m 6 Y s 1782 181 m 3 X s 1785 178 m 6 Y s 1782 181 m 13 Y s 1779 194 m 6 X s 1782 181 m -12 Y s 1779 169 m 6 X s 1788 162 m -3 X s 1785 159 m 6 Y s 1788 162 m 2 X s 1790 159 m 6 Y s 1788 162 m 13 Y
 s 1785 175 m 6 X s 1788 162 m -10 Y s 1785 152 m 6 X s 1793 148 m -3 X s 1790 145 m 6 Y s 1793 148 m 3 X s 1796 145 m 6 Y s 1793 148 m 11 Y s 1790 159 m 6 X s 1793 148 m -10 Y s 1790 138 m 6 X s 1798 153 m -2 X s 1796 150 m 6 Y s 1798 153 m 3 X s
 1801 150 m 6 Y s 1798 153 m 12 Y s 1795 165 m 6 X s 1798 153 m -10 Y s 1795 143 m 6 X s 1804 140 m -3 X s 1801 137 m 6 Y s 1804 140 m 2 X s 1806 137 m 6 Y s 1804 140 m 10 Y s 1801 150 m 6 X s 1804 140 m -9 Y s 1801 131 m 6 X s 1809 136 m -3 X s 1806
 133 m 6 Y s 1809 136 m 3 X s 1812 133 m 6 Y s 1809 136 m 10 Y s 1806 146 m 6 X s 1809 136 m -9 Y s 1806 127 m 6 X s 1814 145 m -2 X s 1812 142 m 6 Y s 1814 145 m 3 X s 1817 142 m 6 Y s 1814 145 m 11 Y s 1811 156 m 6 X s 1814 145 m -9 Y s 1811 136 m
 6 X s 1820 154 m -3 X s 1817 151 m 6 Y s 1820 154 m 2 X s 1822 151 m 6 Y s 1820 154 m 12 Y s 1817 166 m 6 X s 1820 154 m -10 Y s 1817 144 m 6 X s 1825 162 m -3 X s 1822 159 m 6 Y s 1825 162 m 3 X s 1828 159 m 6 Y s 1825 162 m 13 Y s 1822 175 m 6 X s
 1825 162 m -10 Y s 1822 152 m 6 X s 1830 160 m -2 X s 1828 157 m 6 Y s 1830 160 m 3 X s 1833 157 m 6 Y s 1830 160 m 12 Y s 1827 172 m 6 X s 1830 160 m -11 Y s 1827 149 m 6 X s 1836 142 m -3 X s 1833 139 m 6 Y s 1836 142 m 2 X s 1838 139 m 6 Y s 1836
 142 m 11 Y s 1833 153 m 6 X s 1836 142 m -9 Y s 1833 133 m 6 X s 1841 149 m -3 X s 1838 146 m 6 Y s 1841 149 m 3 X s 1844 146 m 6 Y s 1841 149 m 11 Y s 1838 160 m 6 X s 1841 149 m -10 Y s 1838 139 m 6 X s 1846 162 m -2 X s 1844 159 m 6 Y s 1846 162
 m 3 X s 1849 159 m 6 Y s 1846 162 m 13 Y s 1843 175 m 6 X s 1846 162 m -10 Y s 1843 152 m 6 X s 1852 146 m -3 X s 1849 143 m 6 Y s 1852 146 m 2 X s 1854 143 m 6 Y s 1852 146 m 11 Y s 1849 157 m 6 X s 1852 146 m -9 Y s 1849 137 m 6 X s 1857 158 m -3
 X s 1854 155 m 6 Y s 1857 158 m 3 X s 1860 155 m 6 Y s 1857 158 m 12 Y s 1854 170 m 6 X s 1857 158 m -10 Y s 1854 148 m 6 X s 1862 157 m -2 X s 1860 154 m 6 Y s 1862 157 m 3 X s 1865 154 m 6 Y s 1862 157 m 12 Y s 1859 169 m 6 X s 1862 157 m -10 Y s
 1859 147 m 6 X s 1868 142 m -3 X s 1865 139 m 6 Y s 1868 142 m 2 X s 1870 139 m 6 Y s 1868 142 m 11 Y s 1865 153 m 6 X s 1868 142 m -9 Y s 1865 133 m 6 X s 1873 144 m -3 X s 1870 141 m 6 Y s 1873 144 m 3 X s 1876 141 m 6 Y s 1873 144 m 11 Y s 1870
 155 m 6 X s 1873 144 m -10 Y s 1870 134 m 6 X s 1878 160 m -2 X s 1876 157 m 6 Y s 1878 160 m 3 X s 1881 157 m 6 Y s 1878 160 m 12 Y s 1875 172 m 6 X s 1878 160 m -11 Y s 1875 149 m 6 X s 1884 172 m -3 X s 1881 169 m 6 Y s 1884 172 m 2 X s 1886 169
 m 6 Y s 1884 172 m 12 Y s 1881 184 m 6 X s 1884 172 m -11 Y s 1881 161 m 6 X s 1889 164 m -3 X s 1886 161 m 6 Y s 1889 164 m 3 X s 1892 161 m 6 Y s 1889 164 m 12 Y s 1886 176 m 6 X s 1889 164 m -11 Y s 1886 153 m 6 X s 1894 156 m -2 X s 1892 153 m 6
 Y s 1894 156 m 3 X s 1897 153 m 6 Y s 1894 156 m 11 Y s 1891 167 m 6 X s 1894 156 m -10 Y s 1891 146 m 6 X s 1900 172 m -3 X s 1897 169 m 6 Y s 1900 172 m 2 X s 1902 169 m 6 Y s 1900 172 m 12 Y s 1897 184 m 6 X s 1900 172 m -11 Y s 1897 161 m 6 X s
 1905 197 m -3 X s 1902 194 m 6 Y s 1905 197 m 3 X s 1908 194 m 6 Y s 1905 197 m 14 Y s 1902 211 m 6 X s 1905 197 m -12 Y s 1902 185 m 6 X s 1910 193 m -2 X s 1908 190 m 6 Y s 1910 193 m 3 X s 1913 190 m 6 Y s 1910 193 m 14 Y s 1907 207 m 6 X s 1910
 193 m -12 Y s 1907 181 m 6 X s 1916 182 m -3 X s 1913 179 m 6 Y s 1916 182 m 2 X s 1918 179 m 6 Y s 1916 182 m 14 Y s 1912 196 m 7 X s 1916 182 m -11 Y s 1912 171 m 7 X s 1921 176 m -3 X s 1918 173 m 6 Y s 1921 176 m 3 X s 1924 173 m 6 Y s 1921 176
 m 13 Y s 1918 189 m 6 X s 1921 176 m -12 Y s 1918 164 m 6 X s 1926 221 m -2 X s 1924 218 m 6 Y s 1926 221 m 3 X s 1929 218 m 6 Y s 1926 221 m 15 Y s 1923 236 m 6 X s 1926 221 m -13 Y s 1923 208 m 6 X s 1932 219 m -3 X s 1929 215 m 7 Y s 1932 219 m 2
 X s 1934 215 m 7 Y s 1932 219 m 14 Y s 1928 233 m 7 X s 1932 219 m -14 Y s 1928 205 m 7 X s 1937 256 m -3 X s 1934 253 m 6 Y s 1937 256 m 3 X s 1940 253 m 6 Y s 1937 256 m 16 Y s 1934 272 m 6 X s 1937 256 m -15 Y s 1934 241 m 6 X s 1942 257 m -2 X s
 1940 254 m 6 Y s 1942 257 m 3 X s 1945 254 m 6 Y s 1942 257 m 16 Y s 1939 273 m 6 X s 1942 257 m -15 Y s 1939 242 m 6 X s 1947 289 m -2 X s 1945 286 m 6 Y s 1947 289 m 3 X s 1950 286 m 6 Y s 1947 289 m 18 Y s 1944 307 m 7 X s 1947 289 m -16 Y s 1944
 273 m 7 X s 1953 319 m -3 X s 1950 316 m 6 Y s 1953 319 m 2 X s 1955 316 m 6 Y s 1953 319 m 18 Y s 1950 337 m 6 X s 1953 319 m -18 Y s 1950 301 m 6 X s 1958 364 m -3 X s 1955 361 m 6 Y s 1958 364 m 3 X s 1961 361 m 6 Y s 1958 364 m 20 Y s 1955 384 m
 6 X s 1958 364 m -19 Y s 1955 345 m 6 X s 1963 379 m -2 X s 1961 376 m 6 Y s 1963 379 m 3 X s 1966 376 m 6 Y s 1963 379 m 20 Y s 1960 399 m 7 X s 1963 379 m -20 Y s 1960 359 m 7 X s 1969 423 m -3 X s 1966 420 m 6 Y s 1969 423 m 2 X s 1971 420 m 6 Y
 s 1969 423 m 22 Y s 1966 445 m 6 X s 1969 423 m -21 Y s 1966 402 m 6 X s 1974 468 m -3 X s 1971 465 m 6 Y s 1974 468 m 3 X s 1977 465 m 6 Y s 1974 468 m 24 Y s 1971 492 m 6 X s 1974 468 m -22 Y s 1971 446 m 6 X s 1979 471 m -2 X s 1977 468 m 6 Y s
 1979 471 m 3 X s 1982 468 m 6 Y s 1979 471 m 23 Y s 1976 494 m 6 X s 1979 471 m -22 Y s 1976 449 m 6 X s 1985 500 m -3 X s 1982 497 m 6 Y s 1985 500 m 2 X s 1987 497 m 6 Y s 1985 500 m 25 Y s 1982 525 m 6 X s 1985 500 m -23 Y s 1982 477 m 6 X s 1990
 527 m -3 X s 1987 524 m 6 Y s 1990 527 m 3 X s 1993 524 m 6 Y s 1990 527 m 25 Y s 1987 552 m 6 X s 1990 527 m -24 Y s 1987 503 m 6 X s 1995 511 m -2 X s 1993 508 m 6 Y s 1995 511 m 3 X s 1998 508 m 6 Y s 1995 511 m 25 Y s 1992 536 m 6 X s 1995 511 m
 -24 Y s 1992 487 m 6 X s 2001 560 m -3 X s 1998 557 m 6 Y s 2001 560 m 2 X s 2003 557 m 6 Y s 2001 560 m 26 Y s 1998 586 m 6 X s 2001 560 m -24 Y s 1998 536 m 6 X s 2006 563 m -3 X s 2003 560 m 6 Y s 2006 563 m 3 X s 2009 560 m 6 Y s 2006 563 m 26 Y
 s 2003 589 m 6 X s 2006 563 m -25 Y s 2003 538 m 6 X s 2011 570 m -2 X s 2009 567 m 6 Y s 2011 570 m 3 X s 2014 567 m 6 Y s 2011 570 m 26 Y s 2008 596 m 6 X s 2011 570 m -25 Y s 2008 545 m 6 X s 2017 555 m -3 X s 2014 552 m 6 Y s 2017 555 m 2 X s
 2019 552 m 6 Y s 2017 555 m 26 Y s 2014 581 m 6 X s 2017 555 m -25 Y s 2014 530 m 6 X s 2022 542 m -3 X s 2019 539 m 6 Y s 2022 542 m 3 X s 2025 539 m 6 Y s 2022 542 m 25 Y s 2019 567 m 6 X s 2022 542 m -25 Y s 2019 517 m 6 X s 2027 582 m -2 X s
 2025 579 m 6 Y s 2027 582 m 3 X s 2030 579 m 6 Y s 2027 582 m 26 Y s 2024 608 m 6 X s 2027 582 m -26 Y s 2024 556 m 6 X s 2033 554 m -3 X s 2030 551 m 6 Y s 2033 554 m 2 X s 2035 551 m 6 Y s 2033 554 m 25 Y s 2030 579 m 6 X s 2033 554 m -25 Y s 2030
 529 m 6 X s 2038 519 m -3 X s 2035 516 m 6 Y s 2038 519 m 3 X s 2041 516 m 6 Y s 2038 519 m 25 Y s 2035 544 m 6 X s 2038 519 m -24 Y s 2035 495 m 6 X s 2043 510 m -2 X s 2041 507 m 6 Y s 2043 510 m 3 X s 2046 507 m 6 Y s 2043 510 m 24 Y s 2040 534 m
 6 X s 2043 510 m -24 Y s 2040 486 m 6 X s 2049 483 m -3 X s 2046 480 m 6 Y s 2049 483 m 2 X s 2051 480 m 6 Y s 2049 483 m 24 Y s 2046 507 m 6 X s 2049 483 m -23 Y s 2046 460 m 6 X s 2054 456 m -3 X s 2051 453 m 6 Y s 2054 456 m 3 X s 2057 453 m 6 Y
 s 2054 456 m 23 Y s 2051 479 m 6 X s 2054 456 m -22 Y s 2051 434 m 6 X s 2059 457 m -2 X s 2057 454 m 6 Y s 2059 457 m 3 X s 2062 454 m 6 Y s 2059 457 m 24 Y s 2056 481 m 6 X s 2059 457 m -21 Y s 2056 436 m 6 X s 2065 385 m -3 X s 2062 382 m 6 Y s
 2065 385 m 2 X s 2067 382 m 6 Y s 2065 385 m 21 Y s 2062 406 m 6 X s 2065 385 m -19 Y s 2062 366 m 6 X s 2070 359 m -3 X s 2067 356 m 6 Y s 2070 359 m 3 X s 2073 356 m 6 Y s 2070 359 m 20 Y s 2067 379 m 6 X s 2070 359 m -19 Y s 2067 340 m 6 X s 2075
 369 m -2 X s 2073 366 m 6 Y s 2075 369 m 3 X s 2078 366 m 6 Y s 2075 369 m 21 Y s 2072 390 m 6 X s 2075 369 m -19 Y s 2072 350 m 6 X s 2081 323 m -3 X s 2078 320 m 6 Y s 2081 323 m 2 X s 2083 320 m 6 Y s 2081 323 m 18 Y s 2078 341 m 6 X s 2081 323 m
 -18 Y s 2078 305 m 6 X s 2086 283 m -3 X s 2083 280 m 6 Y s 2086 283 m 3 X s 2089 280 m 6 Y s 2086 283 m 17 Y s 2083 300 m 6 X s 2086 283 m -16 Y s 2083 267 m 6 X s 2091 311 m -2 X s 2089 308 m 6 Y s 2091 311 m 3 X s 2094 308 m 6 Y s 2091 311 m 18 Y
 s 2088 329 m 6 X s 2091 311 m -17 Y s 2088 294 m 6 X s 2097 263 m -3 X s 2094 260 m 6 Y s 2097 263 m 2 X s 2099 260 m 6 Y s 2097 263 m 16 Y s 2094 279 m 6 X s 2097 263 m -16 Y s 2094 247 m 6 X s 2102 237 m -3 X s 2099 234 m 6 Y s 2102 237 m 3 X s
 2105 234 m 6 Y s 2102 237 m 16 Y s 2099 253 m 6 X s 2102 237 m -14 Y s 2099 223 m 6 X s 2107 231 m -2 X s 2105 227 m 7 Y s 2107 231 m 3 X s 2110 227 m 7 Y s 2107 231 m 15 Y s 2104 246 m 6 X s 2107 231 m -14 Y s 2104 217 m 6 X s 2113 202 m -3 X s
 2110 199 m 7 Y s 2113 202 m 2 X s 2115 199 m 7 Y s 2113 202 m 15 Y s 2110 217 m 6 X s 2113 202 m -12 Y s 2110 190 m 6 X s 2118 173 m -3 X s 2115 170 m 6 Y s 2118 173 m 3 X s 2121 170 m 6 Y s 2118 173 m 13 Y s 2115 186 m 6 X s 2118 173 m -11 Y s 2115
 162 m 6 X s 2123 158 m -2 X s 2121 155 m 6 Y s 2123 158 m 3 X s 2126 155 m 6 Y s 2123 158 m 12 Y s 2120 170 m 6 X s 2123 158 m -10 Y s 2120 148 m 6 X s 2129 162 m -3 X s 2126 159 m 6 Y s 2129 162 m 2 X s 2131 159 m 6 Y s 2129 162 m 13 Y s 2126 175 m
 6 X s 2129 162 m -10 Y s 2126 152 m 6 X s 2134 137 m -3 X s 2131 134 m 6 Y s 2134 137 m 3 X s 2137 134 m 6 Y s 2134 137 m 10 Y s 2131 147 m 6 X s 2134 137 m -9 Y s 2131 128 m 6 X s 2139 149 m -2 X s 2137 146 m 6 Y s 2139 149 m 3 X s 2142 146 m 6 Y s
 2139 149 m 11 Y s 2136 160 m 6 X s 2139 149 m -10 Y s 2136 139 m 6 X s 2145 122 m -3 X s 2142 119 m 6 Y s 2145 122 m 2 X s 2147 119 m 6 Y s 2145 122 m 10 Y s 2142 132 m 6 X s 2145 122 m -7 Y s 2142 115 m 6 X s 2150 136 m -3 X s 2147 133 m 6 Y s 2150
 136 m 3 X s 2153 133 m 6 Y s 2150 136 m 10 Y s 2147 146 m 6 X s 2150 136 m -9 Y s 2147 127 m 6 X s 2155 118 m -2 X s 2153 115 m 6 Y s 2155 118 m 3 X s 2158 115 m 6 Y s 2155 118 m 9 Y s 2152 127 m 6 X s 2155 118 m -7 Y s 2152 111 m 6 X s 2161 121 m
 -3 X s 2158 118 m 6 Y s 2161 121 m 2 X s 2163 118 m 6 Y s 2161 121 m 9 Y s 2158 130 m 6 X s 2161 121 m -8 Y s 2158 113 m 6 X s 2166 100 m -3 X s 2163 97 m 6 Y s 2166 100 m 3 X s 2169 97 m 6 Y s 2166 100 m 7 Y s 2163 107 m 6 X s 2166 100 m -6 Y s
 2163 94 m 6 X s 2171 108 m -2 X s 2169 105 m 6 Y s 2171 108 m 3 X s 2174 105 m 6 Y s 2171 108 m 8 Y s 2168 116 m 6 X s 2171 108 m -7 Y s 2168 101 m 6 X s /w 13 def /w2 {w 2 div} def /w3 {w 3 div} def 1644 158 1649 172 1654 150 1660 165 1665 158 1670
 174 1676 162 1681 160 1686 162 1692 160 1697 166 1702 153 1708 154 1713 161 1718 152 1724 177 1729 148 1734 181 1740 160 1745 152 1750 160 1756 173 1761 165 1766 154 1772 134 1777 170 1782 181 1788 162 1793 148 1798 153 1804 140 1809 136 1814 145
 1820 154 1825 162 1830 160 1836 142 1841 149 1846 162 1852 146 1857 158 1862 157 1868 142 1873 144 1878 160 1884 172 1889 164 1894 156 1900 172 1905 197 1910 193 1916 182 1921 176 1926 221 1932 219 1937 256 1942 257 1947 289 1953 319 1958 364 1963
 379 1969 423 1974 468 1979 471 1985 500 1990 527 1995 511 2001 560 2006 563 2011 570 2017 555 2022 542 2027 582 2033 554 2038 519 2043 510 2049 483 2054 456 2059 457 2065 385 2070 359 2075 369 2081 323 2086 283 2091 311 2097 263 2102 237 2107 231
 2113 202 2118 173 2123 158 2129 162 2134 137 2139 149 2145 122 2150 136 2155 118 2161 121 2166 100 2171 108 100 { m20} R 0 0 1 c 9 lw black 0 0 1 c 1641 136 m cl s 1641 136 m 11 X 5 1 d 11 X 5 1 d 16 X 5 1 d 16 X 6 1 d 21 X 5 1 d 16 X 6 1 d 26 X 6 1
 d 21 X 5 1 d 16 X 6 1 d 5 X 5 1 d 6 1 d 5 1 d 5 2 d 6 2 d 5 2 d 5 4 d 6 4 d 5 6 d 5 7 d 6 9 d 5 10 d 5 12 d 6 15 d 5 17 d 5 20 d 6 21 d 5 25 d 5 26 d 5 28 d 6 30 d 5 30 d 5 31 d 6 30 d 5 28 d 5 27 d 6 24 d 5 20 d 3 8 d 2 7 d 3 6 d 3 5 d 2 3 d 3 2 d
 5 X 3 -3 d 3 -3 d 2 -5 d 3 -6 d 3 -8 d 2 -8 d 6 -21 d 5 -24 d 5 -28 d 6 -29 d 5 -31 d 5 -32 d 6 -32 d 5 -30 d 5 -30 d 6 -28 d 5 -25 d 5 -24 d 6 -21 d 5 -18 d 5 -17 d 6 -14 d 5 -13 d 5 -10 d 6 -10 d 5 -8 d 5 -7 d 6 -7 d 5 -6 d 5 -7 d 6 -8 d 2 -5 d 2
 -3 d -3 Y 1 -5 d s black 3 lw 1641 77 m 533 X s 1641 93 m -16 Y s 1659 85 m -8 Y s 1678 85 m -8 Y s 1696 85 m -8 Y s 1715 85 m -8 Y s 1733 93 m -16 Y s 1751 85 m -8 Y s 1770 85 m -8 Y s 1788 85 m -8 Y s 1806 85 m -8 Y s 1825 93 m -16 Y s 1843 85 m
 -8 Y s 1862 85 m -8 Y s 1880 85 m -8 Y s 1898 85 m -8 Y s 1917 93 m -16 Y s 1935 85 m -8 Y s 1953 85 m -8 Y s 1972 85 m -8 Y s 1990 85 m -8 Y s 2009 93 m -16 Y s 2027 85 m -8 Y s 2045 85 m -8 Y s 2064 85 m -8 Y s 2082 85 m -8 Y s 2100 93 m -16 Y s
 2100 93 m -16 Y s 2119 85 m -8 Y s 2137 85 m -8 Y s 2156 85 m -8 Y s 1641 77 m 559 Y s 1658 77 m -17 X s 1650 90 m -9 X s 1650 104 m -9 X s 1650 117 m -9 X s 1650 130 m -9 X s 1658 144 m -17 X s 1650 157 m -9 X s 1650 170 m -9 X s 1650 184 m -9 X s
 1650 197 m -9 X s 1658 211 m -17 X s 1650 224 m -9 X s 1650 237 m -9 X s 1650 251 m -9 X s 1650 264 m -9 X s 1658 277 m -17 X s 1650 291 m -9 X s 1650 304 m -9 X s 1650 317 m -9 X s 1650 331 m -9 X s 1658 344 m -17 X s 1650 357 m -9 X s 1650 371 m
 -9 X s 1650 384 m -9 X s 1650 397 m -9 X s 1658 411 m -17 X s 1650 424 m -9 X s 1650 437 m -9 X s 1650 451 m -9 X s 1650 464 m -9 X s 1658 477 m -17 X s 1650 491 m -9 X s 1650 504 m -9 X s 1650 518 m -9 X s 1650 531 m -9 X s 1658 544 m -17 X s 1650
 558 m -9 X s 1650 571 m -9 X s 1650 584 m -9 X s 1650 598 m -9 X s 1658 611 m -17 X s 1658 611 m -17 X s 1650 624 m -9 X s 1 1 1 c black
 gsave  711 699 1534 7 C 1728.79 670.626 t 0 r /Helvetica findfont 34.8619 sf 0 0 m (Signal + Background) show NC gr 
 gr  gr showpage
end
%%EOF
