%!PS-Adobe-2.0 EPSF-2.0
%%BoundingBox:  6 2 183 176
%%Title: ./plots/pSig_4real.eps: rf101_basics
%%Creator: ROOT Version 6.11/01
%%CreationDate: Thu Oct  5 14:15:47 2017
%%DocumentNeededResources: ProcSet (FontSetInit)
%%EndComments
%%BeginProlog
80 dict begin
/s {stroke} def /l {lineto} def /m {moveto} def /t {translate} def
/r {rotate} def /rl {roll}  def /R {repeat} def
/d {rlineto} def /rm {rmoveto} def /gr {grestore} def /f {eofill} def
/c {setrgbcolor} def /black {0 setgray} def /sd {setdash} def
/cl {closepath} def /sf {scalefont setfont} def /lw {setlinewidth} def
/box {m dup 0 exch d exch 0 d 0 exch neg d cl} def
/NC{systemdict begin initclip end}def/C{NC box clip newpath}def
/bl {box s} def /bf {gsave box gsave f grestore 1 lw [] 0 sd s grestore} def /Y { 0 exch d} def /X { 0 d} def 
/K {{pop pop 0 moveto} exch kshow} bind def
/ita {/ang 15 def gsave [1 0 ang dup sin exch cos div 1 0 0] concat} def 
/mp {newpath /y exch def /x exch def} def
/side {[w .77 mul w .23 mul] .385 w mul sd w 0 l currentpoint t -144 r} def
/mr {mp x y w2 0 360 arc} def /m24 {mr s} def /m20 {mr f} def
/mb {mp x y w2 add m w2 neg 0 d 0 w neg d w 0 d 0 w d cl} def
/mt {mp x y w2 add m w2 neg w neg d w 0 d cl} def
/w4 {w 4 div} def
/w6 {w 6 div} def
/w8 {w 8 div} def
/m21 {mb f} def /m25 {mb s} def /m22 {mt f} def /m26{mt s} def
/m23 {mp x y w2 sub m w2 w d w neg 0 d cl f} def
/m27 {mp x y w2 add m w3 neg w2 neg d w3 w2 neg d w3 w2 d cl s} def
/m28 {mp x w2 sub y w2 sub w3 add m w3 0 d  0 w3 neg d w3 0 d 0 w3 d w3 0 d  0 w3 d w3 neg 0 d 0 w3 d w3 neg 0 d 0 w3 neg d w3 neg 0 d cl s } def
/m29 {mp gsave x w2 sub y w2 add w3 sub m currentpoint t 4 {side} repeat cl fill gr} def
/m30 {mp gsave x w2 sub y w2 add w3 sub m currentpoint t 4 {side} repeat cl s gr} def
/m31 {mp x y w2 sub m 0 w d x w2 sub y m w 0 d x w2 sub y w2 add m w w neg d x w2 sub y w2 sub m w w d s} def
/m32 {mp x y w2 sub m w2 w d w neg 0 d cl s} def
/m33 {mp x y w2 add m w3 neg w2 neg d w3 w2 neg d w3 w2 d cl f} def
/m34 {mp x w2 sub y w2 sub w3 add m w3 0 d  0 w3 neg d w3 0 d 0 w3 d w3 0 d  0 w3 d w3 neg 0 d 0 w3 d w3 neg 0 d 0 w3 neg d w3 neg 0 d cl f } def
/m35 {mp x y w2 add m w2 neg w2 neg d w2 w2 neg d w2 w2 d w2 neg w2 d x y w2 sub m 0 w d x w2 sub y m w 0 d s} def
/m36 {mb x w2 sub y w2 add m w w neg d x w2 sub y w2 sub m w w d s} def
/m37 {mp x y m w4 neg w2 d w4 neg w2 neg d w2 0 d  w4 neg w2 neg d w2 0 d w4 neg w2 d w2 0 d w4 neg w2 d w4 neg w2 neg d cl s} def
/m38 {mp x w4 sub y w2 add m w4 neg w4 neg d 0 w2 neg d w4 w4 neg d w2 0 d w4 w4 d 0 w2 d w4 neg w4 d w2 neg 0 d x y w2 sub m 0 w d x w2 sub y m w 0 d cl s} def
/m39 {mp x y m w4 neg w2 d w4 neg w2 neg d w2 0 d  w4 neg w2 neg d w2 0 d w4 neg w2 d w2 0 d w4 neg w2 d w4 neg w2 neg d cl f} def
/m40 {mp x y m w4 w2 d w4 w4 neg d w2 neg w4 neg d w2 w4 neg d w4 neg w4 neg d w4 neg w2 d w4 neg w2 neg d w4 neg w4 d w2 w4 d w2 neg w4 d w4 w4 d w4 w2 neg d cl s} def
/m41 {mp x y m w4 w2 d w4 w4 neg d w2 neg w4 neg d w2 w4 neg d w4 neg w4 neg d w4 neg w2 d w4 neg w2 neg d w4 neg w4 d w2 w4 d w2 neg w4 d w4 w4 d w4 w2 neg d cl f} def
/m42 {mp x y w2 add m w8 neg w2 -3 4 div mul d w2 -3 4 div mul w8 neg d w2 3 4 div mul w8 neg d w8 w2 -3 4 div mul d w8 w2 3 4 div mul d w2 3 4 div mul w8 d w2 -3 4 div mul w8 d w8 neg w2 3 4 div mul d cl s} def
/m43 {mp x y w2 add m w8 neg w2 -3 4 div mul d w2 -3 4 div mul w8 neg d w2 3 4 div mul w8 neg d w8 w2 -3 4 div mul d w8 w2 3 4 div mul d w2 3 4 div mul w8 d w2 -3 4 div mul w8 d w8 neg w2 3 4 div mul d cl f} def
/m44 {mp x y m w6 neg w2 d w2 2 3 div mul 0 d w6 neg w2 neg d w2 w6 d 0 w2 -2 3 div mul d w2 neg w6 d w6 w2 neg d w2 -2 3 div mul 0 d w6 w2 d w2 neg w6 neg d 0 w2 2 3 div mul d w2 w6 neg d cl s} def
/m45 {mp x y m w6 neg w2 d w2 2 3 div mul 0 d w6 neg w2 neg d w2 w6 d 0 w2 -2 3 div mul d w2 neg w6 d w6 w2 neg d w2 -2 3 div mul 0 d w6 w2 d w2 neg w6 neg d 0 w2 2 3 div mul d w2 w6 neg d cl f} def
/m46 {mp x y w4 add m w4 neg w4 d w4 neg w4 neg d  w4 w4 neg d w4 neg w4 neg d w4 w4 neg d w4 w4 d w4 w4 neg d w4 w4 d w4 neg w4 d w4 w4 d w4 neg w4 d w4 neg w4 neg d cl s} def
/m47 {mp x y w4 add m w4 neg w4 d w4 neg w4 neg d w4 w4 neg d w4 neg w4 neg d  w4 w4 neg d w4 w4 d w4 w4 neg d w4 w4 d w4 neg w4 d w4 w4 d w4 neg w4 d w4 neg w4 neg d cl f} def
/m48 {mp x y w4 add m w4 neg w4 d w4 neg w4 neg d w4 w4 neg d  w4 neg w4 neg d w4 w4 neg d w4 w4 d w4 w4 neg d w4 w4 d w4 neg w4 d w4 w4 d w4 neg w4 d w4 neg w4 neg d  w4 w4 neg d w4 neg w4 neg d w4 neg w4 d w4 w4 d cl f} def
/m49 {mp x w2 sub w3 add y w2 sub w3 add m  0 w3 neg d w3 0 d 0 w3 d w3 0 d 0 w3 d w3 neg 0 d 0 w3 d w3 neg 0 d 0 w3 neg d w3 neg 0 d 0 w3 neg d w3 0 d 0 w3 d w3 0 d 0 w3 neg d w3 neg 0 d cl f } def
/m2 {mp x y w2 sub m 0 w d x w2 sub y m w 0 d s} def
/m5 {mp x w2 sub y w2 sub m w w d x w2 sub y w2 add m w w neg d s} def
%%IncludeResource: ProcSet (FontSetInit)
%%IncludeResource: font Times-Roman
%%IncludeResource: font Times-Italic
%%IncludeResource: font Times-Bold
%%IncludeResource: font Times-BoldItalic
%%IncludeResource: font Helvetica
%%IncludeResource: font Helvetica-Oblique
%%IncludeResource: font Helvetica-Bold
%%IncludeResource: font Helvetica-BoldOblique
%%IncludeResource: font Courier
%%IncludeResource: font Courier-Oblique
%%IncludeResource: font Courier-Bold
%%IncludeResource: font Courier-BoldOblique
%%IncludeResource: font Symbol
%%IncludeResource: font ZapfDingbats
/reEncode {exch findfont dup length dict begin {1 index /FID eq  {pop pop} {def} ifelse } forall /Encoding exch def currentdict end dup /FontName get exch definefont pop } def [/Times-Bold /Times-Italic /Times-BoldItalic /Helvetica /Helvetica-Oblique
 /Helvetica-Bold /Helvetica-BoldOblique /Courier /Courier-Oblique /Courier-Bold /Courier-BoldOblique /Times-Roman /AvantGarde-Book /AvantGarde-BookOblique /AvantGarde-Demi /AvantGarde-DemiOblique /Bookman-Demi /Bookman-DemiItalic /Bookman-Light
 /Bookman-LightItalic /Helvetica-Narrow /Helvetica-Narrow-Bold /Helvetica-Narrow-BoldOblique /Helvetica-Narrow-Oblique /NewCenturySchlbk-Roman /NewCenturySchlbk-Bold /NewCenturySchlbk-BoldItalic /NewCenturySchlbk-Italic /Palatino-Bold
 /Palatino-BoldItalic /Palatino-Italic /Palatino-Roman ] {ISOLatin1Encoding reEncode } forall
%%EndProlog
%%BeginSetup
%%EndSetup
newpath  gsave  .25 .25 scale  gsave  0 0 t black[  ] 0 sd 3 lw 1 1 1 c 710 699 23 7 bf black 1 1 1 c 533 559 129 77 bf black 533 559 129 77 bl 1 1 1 c 533 559 129 77 bf black 533 559 129 77 bl 129 77 m 533 X s 129 93 m -16 Y s 148 85 m -8 Y s 166 85
 m -8 Y s 184 85 m -8 Y s 203 85 m -8 Y s 221 93 m -16 Y s 240 85 m -8 Y s 258 85 m -8 Y s 276 85 m -8 Y s 295 85 m -8 Y s 313 93 m -16 Y s 331 85 m -8 Y s 350 85 m -8 Y s 368 85 m -8 Y s 387 85 m -8 Y s 405 93 m -16 Y s 423 85 m -8 Y s 442 85 m -8 Y
 s 460 85 m -8 Y s 478 85 m -8 Y s 497 93 m -16 Y s 515 85 m -8 Y s 534 85 m -8 Y s 552 85 m -8 Y s 570 85 m -8 Y s 589 93 m -16 Y s 589 93 m -16 Y s 607 85 m -8 Y s 625 85 m -8 Y s 644 85 m -8 Y s
 gsave  710 699 23 7 C 105.968 54.4979 t 0 r /Helvetica findfont 22.736 sf 0 0 m (5.26) show NC gr 
 gsave  710 699 23 7 C 192.256 54.4979 t 0 r /Helvetica findfont 22.736 sf 0 0 m (5.265) show NC gr 
 gsave  710 699 23 7 C 289.141 54.4979 t 0 r /Helvetica findfont 22.736 sf 0 0 m (5.27) show NC gr 
 gsave  710 699 23 7 C 375.43 54.4979 t 0 r /Helvetica findfont 22.736 sf 0 0 m (5.275) show NC gr 
 gsave  710 699 23 7 C 473.829 54.4979 t 0 r /Helvetica findfont 22.736 sf 0 0 m (5.28) show NC gr 
 gsave  710 699 23 7 C 558.603 54.4979 t 0 r /Helvetica findfont 22.736 sf 0 0 m (5.285) show NC gr 
 gsave  710 699 23 7 C 605.532 31.7904 t 0 r /Helvetica findfont 22.736 sf 0 0 m (m_bc) show NC gr  129 77 m 559 Y s 146 77 m -17 X s 138 104 m -9 X s 138 131 m -9 X s 138 158 m -9 X s 146 184 m -17 X s 138 211 m -9 X s 138 238 m -9 X s 138 265 m -9
 X s 146 292 m -17 X s 138 319 m -9 X s 138 345 m -9 X s 138 372 m -9 X s 146 399 m -17 X s 138 426 m -9 X s 138 453 m -9 X s 138 480 m -9 X s 146 507 m -17 X s 138 533 m -9 X s 138 560 m -9 X s 138 587 m -9 X s 146 614 m -17 X s 146 614 m -17 X s
 gsave  710 699 23 7 C 113.537 68.1223 t 0 r /Helvetica findfont 22.736 sf 0 0 m (0) show NC gr 
 gsave  710 699 23 7 C 87.8021 175.604 t 0 r /Helvetica findfont 22.736 sf 0 0 m (200) show NC gr 
 gsave  710 699 23 7 C 87.8021 283.086 t 0 r /Helvetica findfont 22.736 sf 0 0 m (400) show NC gr 
 gsave  710 699 23 7 C 87.8021 390.568 t 0 r /Helvetica findfont 22.736 sf 0 0 m (600) show NC gr 
 gsave  710 699 23 7 C 87.8021 498.05 t 0 r /Helvetica findfont 22.736 sf 0 0 m (800) show NC gr 
 gsave  710 699 23 7 C 75.6915 605.532 t 0 r /Helvetica findfont 22.736 sf 0 0 m (1000) show NC gr 
 gsave  710 699 23 7 C 71.15 440.524 t 90 r /Helvetica findfont 22.736 sf 0 0 m (Events / \( 0.00029 \)) show NC gr  132 77 m -3 X s 129 77 m 3 Y s 132 77 m 3 X s 135 77 m 3 Y s 132 77 m 1 Y s 129 78 m 6 X s 137 77 m -2 X s 135 77 m 3 Y s 137 77 m 3
 X s 140 77 m 3 Y s 137 77 m 1 Y s 134 78 m 6 X s 143 77 m -3 X s 140 77 m 3 Y s 143 77 m 2 X s 145 77 m 3 Y s 143 77 m 1 Y s 140 78 m 6 X s 148 77 m -3 X s 145 77 m 3 Y s 148 77 m 3 X s 151 77 m 3 Y s 148 77 m 1 Y s 145 78 m 6 X s 153 77 m -2 X s
 151 77 m 3 Y s 153 77 m 3 X s 156 77 m 3 Y s 153 77 m 1 Y s 150 78 m 6 X s 159 77 m -3 X s 156 77 m 3 Y s 159 77 m 2 X s 161 77 m 3 Y s 159 77 m 1 Y s 156 78 m 6 X s 164 77 m -3 X s 161 77 m 3 Y s 164 77 m 3 X s 167 77 m 3 Y s 164 77 m 1 Y s 161 78
 m 6 X s 169 77 m -2 X s 167 77 m 3 Y s 169 77 m 3 X s 172 77 m 3 Y s 169 77 m 1 Y s 166 78 m 6 X s 175 77 m -3 X s 172 77 m 3 Y s 175 77 m 2 X s 177 77 m 3 Y s 175 77 m 1 Y s 172 78 m 6 X s 180 77 m -3 X s 177 77 m 3 Y s 180 77 m 3 X s 183 77 m 3 Y
 s 180 77 m 1 Y s 177 78 m 6 X s 185 77 m -2 X s 183 77 m 3 Y s 185 77 m 3 X s 188 77 m 3 Y s 185 77 m 1 Y s 182 78 m 6 X s 191 77 m -3 X s 188 77 m 3 Y s 191 77 m 2 X s 193 77 m 3 Y s 191 77 m 1 Y s 188 78 m 6 X s 196 77 m -3 X s 193 77 m 3 Y s 196
 77 m 3 X s 199 77 m 3 Y s 196 77 m 1 Y s 193 78 m 6 X s 201 77 m -2 X s 199 77 m 3 Y s 201 77 m 3 X s 204 77 m 3 Y s 201 77 m 1 Y s 198 78 m 6 X s 207 77 m -3 X s 204 77 m 3 Y s 207 77 m 2 X s 209 77 m 3 Y s 207 77 m 1 Y s 204 78 m 6 X s 212 77 m -3
 X s 209 77 m 3 Y s 212 77 m 3 X s 215 77 m 3 Y s 212 77 m 1 Y s 209 78 m 6 X s 217 77 m -2 X s 215 77 m 3 Y s 217 77 m 3 X s 220 77 m 3 Y s 217 77 m 1 Y s 214 78 m 6 X s 223 77 m -3 X s 220 77 m 3 Y s 223 77 m 2 X s 225 77 m 3 Y s 223 77 m 1 Y s 219
 78 m 7 X s 228 77 m -3 X s 225 77 m 3 Y s 228 77 m 3 X s 231 77 m 3 Y s 228 77 m 1 Y s 225 78 m 6 X s 233 77 m -2 X s 231 77 m 3 Y s 233 77 m 3 X s 236 77 m 3 Y s 233 77 m 1 Y s 230 78 m 6 X s 239 77 m -3 X s 236 77 m 3 Y s 239 77 m 2 X s 241 77 m 3
 Y s 239 77 m 1 Y s 235 78 m 7 X s 244 77 m -3 X s 241 77 m 3 Y s 244 77 m 3 X s 247 77 m 3 Y s 244 77 m 1 Y s 241 78 m 6 X s 249 77 m -2 X s 247 77 m 3 Y s 249 77 m 3 X s 252 77 m 3 Y s 249 77 m 1 Y s 246 78 m 6 X s 254 77 m -2 X s 252 77 m 3 Y s
 254 77 m 3 X s 257 77 m 3 Y s 254 77 m 1 Y s 251 78 m 7 X s 260 77 m -3 X s 257 77 m 3 Y s 260 77 m 2 X s 262 77 m 3 Y s 260 77 m 1 Y s 257 78 m 6 X s 265 77 m -3 X s 262 77 m 3 Y s 265 77 m 3 X s 268 77 m 3 Y s 265 77 m 1 Y s 262 78 m 6 X s 270 77
 m -2 X s 268 77 m 3 Y s 270 77 m 3 X s 273 77 m 3 Y s 270 77 m 1 Y s 267 78 m 7 X s 276 77 m -3 X s 273 77 m 3 Y s 276 77 m 2 X s 278 77 m 3 Y s 276 77 m 1 Y s 273 78 m 6 X s 281 77 m -3 X s 278 77 m 3 Y s 281 77 m 3 X s 284 77 m 3 Y s 281 77 m 1 Y
 s 278 78 m 6 X s 286 77 m -2 X s 284 77 m 3 Y s 286 77 m 3 X s 289 77 m 3 Y s 286 77 m 1 Y s 283 78 m 6 X s 292 77 m -3 X s 289 77 m 3 Y s 292 77 m 2 X s 294 77 m 3 Y s 292 77 m 1 Y s 289 78 m 6 X s 297 77 m -3 X s 294 77 m 3 Y s 297 77 m 3 X s 300
 77 m 3 Y s 297 77 m 1 Y s 294 78 m 6 X s 302 77 m -2 X s 300 77 m 3 Y s 302 77 m 3 X s 305 77 m 3 Y s 302 77 m 1 Y s 299 78 m 6 X s 308 77 m -3 X s 305 77 m 3 Y s 308 77 m 2 X s 310 77 m 3 Y s 308 77 m 1 Y s 305 78 m 6 X s 313 77 m -3 X s 310 77 m 3
 Y s 313 77 m 3 X s 316 77 m 3 Y s 313 77 m 1 Y s 310 78 m 6 X s 318 77 m -2 X s 316 77 m 3 Y s 318 77 m 3 X s 321 77 m 3 Y s 318 77 m 1 Y s 315 78 m 6 X s 324 78 m -3 X s 321 77 m 4 Y s 324 78 m 2 X s 326 77 m 4 Y s 324 78 m 1 Y s 321 79 m 6 X s 324
 78 m -1 Y s 321 77 m 6 X s 329 77 m -3 X s 326 77 m 3 Y s 329 77 m 3 X s 332 77 m 3 Y s 329 77 m 1 Y s 326 78 m 6 X s 334 79 m -2 X s 332 77 m 5 Y s 334 79 m 3 X s 337 77 m 5 Y s 334 79 m 1 Y s 331 80 m 6 X s 334 79 m -1 Y s 331 78 m 6 X s 340 79 m
 -3 X s 337 77 m 5 Y s 340 79 m 2 X s 342 77 m 5 Y s 340 79 m 1 Y s 337 80 m 6 X s 340 79 m -1 Y s 337 78 m 6 X s 345 81 m -3 X s 342 78 m 6 Y s 345 81 m 3 X s 348 78 m 6 Y s 345 81 m 2 Y s 342 83 m 6 X s 345 81 m -2 Y s 342 79 m 6 X s 350 82 m -2 X
 s 348 79 m 6 Y s 350 82 m 3 X s 353 79 m 6 Y s 350 82 m 2 Y s 347 84 m 6 X s 350 82 m -2 Y s 347 80 m 6 X s 356 80 m -3 X s 353 77 m 6 Y s 356 80 m 2 X s 358 77 m 6 Y s 356 80 m 2 Y s 353 82 m 6 X s 356 80 m -1 Y s 353 79 m 6 X s 361 85 m -3 X s 358
 81 m 7 Y s 361 85 m 3 X s 364 81 m 7 Y s 361 85 m 2 Y s 358 87 m 6 X s 361 85 m -2 Y s 358 83 m 6 X s 366 87 m -2 X s 364 84 m 6 Y s 366 87 m 3 X s 369 84 m 6 Y s 366 87 m 3 Y s 363 90 m 6 X s 366 87 m -2 Y s 363 85 m 6 X s 372 92 m -3 X s 369 88 m
 7 Y s 372 92 m 2 X s 374 88 m 7 Y s 372 92 m 3 Y s 369 95 m 6 X s 372 92 m -3 Y s 369 89 m 6 X s 377 98 m -3 X s 374 95 m 6 Y s 377 98 m 3 X s 380 95 m 6 Y s 377 98 m 4 Y s 374 102 m 6 X s 377 98 m -3 Y s 374 95 m 6 X s 382 96 m -2 X s 380 93 m 6 Y
 s 382 96 m 3 X s 385 93 m 6 Y s 382 96 m 4 Y s 379 100 m 6 X s 382 96 m -3 Y s 379 93 m 6 X s 388 101 m -3 X s 385 98 m 6 Y s 388 101 m 2 X s 390 98 m 6 Y s 388 101 m 4 Y s 385 105 m 6 X s 388 101 m -4 Y s 385 97 m 6 X s 393 111 m -3 X s 390 108 m 6
 Y s 393 111 m 3 X s 396 108 m 6 Y s 393 111 m 5 Y s 390 116 m 6 X s 393 111 m -4 Y s 390 107 m 6 X s 398 119 m -2 X s 396 116 m 6 Y s 398 119 m 3 X s 401 116 m 6 Y s 398 119 m 5 Y s 395 124 m 6 X s 398 119 m -5 Y s 395 114 m 6 X s 404 130 m -3 X s
 401 127 m 6 Y s 404 130 m 2 X s 406 127 m 6 Y s 404 130 m 5 Y s 401 135 m 6 X s 404 130 m -6 Y s 401 124 m 6 X s 409 134 m -3 X s 406 131 m 6 Y s 409 134 m 3 X s 412 131 m 6 Y s 409 134 m 6 Y s 406 140 m 6 X s 409 134 m -5 Y s 406 129 m 6 X s 414
 159 m -2 X s 412 156 m 6 Y s 414 159 m 3 X s 417 156 m 6 Y s 414 159 m 7 Y s 411 166 m 6 X s 414 159 m -6 Y s 411 153 m 6 X s 420 180 m -3 X s 417 177 m 6 Y s 420 180 m 2 X s 422 177 m 6 Y s 420 180 m 8 Y s 417 188 m 6 X s 420 180 m -7 Y s 417 173 m
 6 X s 425 196 m -3 X s 422 193 m 6 Y s 425 196 m 3 X s 428 193 m 6 Y s 425 196 m 8 Y s 422 204 m 6 X s 425 196 m -8 Y s 422 188 m 6 X s 430 214 m -2 X s 428 211 m 6 Y s 430 214 m 3 X s 433 211 m 6 Y s 430 214 m 9 Y s 427 223 m 6 X s 430 214 m -8 Y s
 427 206 m 6 X s 436 242 m -3 X s 433 239 m 6 Y s 436 242 m 2 X s 438 239 m 6 Y s 436 242 m 10 Y s 433 252 m 6 X s 436 242 m -9 Y s 433 233 m 6 X s 441 272 m -3 X s 438 269 m 6 Y s 441 272 m 3 X s 444 269 m 6 Y s 441 272 m 10 Y s 438 282 m 6 X s 441
 272 m -10 Y s 438 262 m 6 X s 446 290 m -2 X s 444 287 m 6 Y s 446 290 m 3 X s 449 287 m 6 Y s 446 290 m 11 Y s 443 301 m 6 X s 446 290 m -10 Y s 443 280 m 6 X s 452 343 m -3 X s 449 340 m 6 Y s 452 343 m 2 X s 454 340 m 6 Y s 452 343 m 12 Y s 449
 355 m 6 X s 452 343 m -12 Y s 449 331 m 6 X s 457 378 m -3 X s 454 375 m 6 Y s 457 378 m 3 X s 460 375 m 6 Y s 457 378 m 13 Y s 454 391 m 6 X s 457 378 m -12 Y s 454 366 m 6 X s 462 410 m -2 X s 460 407 m 6 Y s 462 410 m 3 X s 465 407 m 6 Y s 462
 410 m 14 Y s 459 424 m 6 X s 462 410 m -13 Y s 459 397 m 6 X s 468 470 m -3 X s 465 466 m 7 Y s 468 470 m 2 X s 470 466 m 7 Y s 468 470 m 14 Y s 465 484 m 6 X s 468 470 m -15 Y s 465 455 m 6 X s 473 476 m -3 X s 470 473 m 7 Y s 473 476 m 3 X s 476
 473 m 7 Y s 473 476 m 15 Y s 470 491 m 6 X s 473 476 m -14 Y s 470 462 m 6 X s 478 551 m -2 X s 476 548 m 6 Y s 478 551 m 3 X s 481 548 m 6 Y s 478 551 m 16 Y s 475 567 m 6 X s 478 551 m -16 Y s 475 535 m 6 X s 484 557 m -3 X s 481 553 m 7 Y s 484
 557 m 2 X s 486 553 m 7 Y s 484 557 m 16 Y s 481 573 m 6 X s 484 557 m -16 Y s 481 541 m 6 X s 489 538 m -3 X s 486 535 m 6 Y s 489 538 m 3 X s 492 535 m 6 Y s 489 538 m 16 Y s 486 554 m 6 X s 489 538 m -16 Y s 486 522 m 6 X s 494 592 m -2 X s 492
 589 m 6 Y s 494 592 m 3 X s 497 589 m 6 Y s 494 592 m 17 Y s 491 609 m 6 X s 494 592 m -16 Y s 491 576 m 6 X s 500 586 m -3 X s 497 583 m 6 Y s 500 586 m 2 X s 502 583 m 6 Y s 500 586 m 17 Y s 497 603 m 6 X s 500 586 m -16 Y s 497 570 m 6 X s 505
 569 m -3 X s 502 566 m 6 Y s 505 569 m 3 X s 508 566 m 6 Y s 505 569 m 17 Y s 502 586 m 6 X s 505 569 m -16 Y s 502 553 m 6 X s 510 592 m -2 X s 508 589 m 7 Y s 510 592 m 3 X s 513 589 m 7 Y s 510 592 m 17 Y s 507 609 m 6 X s 510 592 m -16 Y s 507
 576 m 6 X s 516 562 m -3 X s 513 559 m 6 Y s 516 562 m 2 X s 518 559 m 6 Y s 516 562 m 16 Y s 513 578 m 6 X s 516 562 m -16 Y s 513 546 m 6 X s 521 545 m -3 X s 518 542 m 6 Y s 521 545 m 3 X s 524 542 m 6 Y s 521 545 m 16 Y s 518 561 m 6 X s 521 545
 m -16 Y s 518 529 m 6 X s 526 550 m -2 X s 524 546 m 7 Y s 526 550 m 3 X s 529 546 m 7 Y s 526 550 m 16 Y s 523 566 m 6 X s 526 550 m -16 Y s 523 534 m 6 X s 532 512 m -3 X s 529 509 m 6 Y s 532 512 m 2 X s 534 509 m 6 Y s 532 512 m 15 Y s 529 527 m
 6 X s 532 512 m -15 Y s 529 497 m 6 X s 537 478 m -3 X s 534 475 m 6 Y s 537 478 m 3 X s 540 475 m 6 Y s 537 478 m 15 Y s 534 493 m 6 X s 537 478 m -15 Y s 534 463 m 6 X s 542 454 m -2 X s 540 451 m 6 Y s 542 454 m 3 X s 545 451 m 6 Y s 542 454 m 14
 Y s 539 468 m 6 X s 542 454 m -14 Y s 539 440 m 6 X s 548 428 m -3 X s 545 425 m 6 Y s 548 428 m 2 X s 550 425 m 6 Y s 548 428 m 14 Y s 545 442 m 6 X s 548 428 m -14 Y s 545 414 m 6 X s 553 380 m -3 X s 550 377 m 6 Y s 553 380 m 3 X s 556 377 m 6 Y
 s 553 380 m 13 Y s 550 393 m 6 X s 553 380 m -12 Y s 550 368 m 6 X s 558 365 m -2 X s 556 362 m 6 Y s 558 365 m 3 X s 561 362 m 6 Y s 558 365 m 13 Y s 555 378 m 6 X s 558 365 m -12 Y s 555 353 m 6 X s 564 313 m -3 X s 561 310 m 6 Y s 564 313 m 2 X s
 566 310 m 6 Y s 564 313 m 11 Y s 561 324 m 6 X s 564 313 m -11 Y s 561 302 m 6 X s 569 271 m -3 X s 566 268 m 6 Y s 569 271 m 3 X s 572 268 m 6 Y s 569 271 m 11 Y s 566 282 m 6 X s 569 271 m -10 Y s 566 261 m 6 X s 574 247 m -2 X s 572 244 m 6 Y s
 574 247 m 3 X s 577 244 m 6 Y s 574 247 m 10 Y s 571 257 m 6 X s 574 247 m -10 Y s 571 237 m 6 X s 580 243 m -3 X s 577 240 m 6 Y s 580 243 m 2 X s 582 240 m 6 Y s 580 243 m 10 Y s 577 253 m 6 X s 580 243 m -9 Y s 577 234 m 6 X s 585 204 m -3 X s
 582 201 m 6 Y s 585 204 m 3 X s 588 201 m 6 Y s 585 204 m 9 Y s 582 213 m 6 X s 585 204 m -8 Y s 582 196 m 6 X s 590 181 m -2 X s 588 178 m 6 Y s 590 181 m 3 X s 593 178 m 6 Y s 590 181 m 8 Y s 587 189 m 6 X s 590 181 m -7 Y s 587 174 m 6 X s 596
 155 m -3 X s 593 152 m 6 Y s 596 155 m 2 X s 598 152 m 6 Y s 596 155 m 7 Y s 593 162 m 6 X s 596 155 m -6 Y s 593 149 m 6 X s 601 145 m -3 X s 598 142 m 6 Y s 601 145 m 3 X s 604 142 m 6 Y s 601 145 m 6 Y s 598 151 m 6 X s 601 145 m -6 Y s 598 139 m
 6 X s 606 116 m -2 X s 604 113 m 6 Y s 606 116 m 3 X s 609 113 m 6 Y s 606 116 m 5 Y s 603 121 m 6 X s 606 116 m -4 Y s 603 112 m 6 X s 612 118 m -3 X s 609 115 m 6 Y s 612 118 m 2 X s 614 115 m 6 Y s 612 118 m 5 Y s 609 123 m 6 X s 612 118 m -5 Y s
 609 113 m 6 X s 617 112 m -3 X s 614 109 m 6 Y s 617 112 m 3 X s 620 109 m 6 Y s 617 112 m 5 Y s 614 117 m 6 X s 617 112 m -4 Y s 614 108 m 6 X s 622 100 m -2 X s 620 97 m 6 Y s 622 100 m 3 X s 625 97 m 6 Y s 622 100 m 4 Y s 619 104 m 6 X s 622 100
 m -3 Y s 619 97 m 6 X s 628 96 m -3 X s 625 93 m 6 Y s 628 96 m 2 X s 630 93 m 6 Y s 628 96 m 4 Y s 625 100 m 6 X s 628 96 m -3 Y s 625 93 m 6 X s 633 90 m -3 X s 630 87 m 6 Y s 633 90 m 3 X s 636 87 m 6 Y s 633 90 m 3 Y s 630 93 m 6 X s 633 90 m -3
 Y s 630 87 m 6 X s 638 87 m -2 X s 636 84 m 6 Y s 638 87 m 3 X s 641 84 m 6 Y s 638 87 m 3 Y s 635 90 m 6 X s 638 87 m -2 Y s 635 85 m 6 X s 644 85 m -3 X s 641 82 m 6 Y s 644 85 m 2 X s 646 82 m 6 Y s 644 85 m 3 Y s 640 88 m 7 X s 644 85 m -2 Y s
 640 83 m 7 X s 649 81 m -3 X s 646 78 m 6 Y s 649 81 m 3 X s 652 78 m 6 Y s 649 81 m 2 Y s 646 83 m 6 X s 649 81 m -1 Y s 646 80 m 6 X s 654 84 m -2 X s 652 81 m 6 Y s 654 84 m 3 X s 657 81 m 6 Y s 654 84 m 3 Y s 651 87 m 6 X s 654 84 m -2 Y s 651
 82 m 6 X s 660 79 m -3 X s 657 77 m 5 Y s 660 79 m 2 X s 662 77 m 5 Y s 660 79 m 2 Y s 656 81 m 6 X s 660 79 m -1 Y s 656 78 m 6 X s /w 12 def /w2 {w 2 div} def /w3 {w 3 div} def 132 77 137 77 143 77 148 77 153 77 159 77 164 77 169 77 175 77 180 77
 185 77 191 77 196 77 201 77 207 77 212 77 217 77 223 77 228 77 233 77 239 77 244 77 249 77 254 77 260 77 265 77 270 77 276 77 281 77 286 77 292 77 297 77 302 77 308 77 313 77 318 77 324 78 329 77 334 79 340 79 345 81 350 82 356 80 361 85 366 87 372
 92 377 98 382 96 388 101 393 111 398 119 404 130 409 134 414 159 420 180 425 196 430 214 436 242 441 272 446 290 452 343 457 378 462 410 468 470 473 476 478 551 484 557 489 538 494 592 500 586 505 569 510 592 516 562 521 545 526 550 532 512 537 478
 542 454 548 428 553 380 558 365 564 313 569 271 574 247 580 243 585 204 590 181 596 155 601 145 606 116 612 118 617 112 622 100 628 96 633 90 638 87 644 85 649 81 654 84 660 79 100 { m20} R 0 0 1 c 9 lw black 0 0 1 c 129 77 m cl s 129 77 m 187 X 5 1
 d 11 X 5 1 d 5 X 6 1 d 5 1 d 5 1 d 6 2 d 5 3 d 5 3 d 6 4 d 5 5 d 5 6 d 6 8 d 5 10 d 5 12 d 6 14 d 5 17 d 5 20 d 6 23 d 5 25 d 5 29 d 6 30 d 5 33 d 5 35 d 6 35 d 5 36 d 5 34 d 6 32 d 5 29 d 3 13 d 2 11 d 3 11 d 3 9 d 2 7 d 3 6 d 3 4 d 2 3 d 3 1 d 3
 -1 d 2 -2 d 3 -4 d 3 -6 d 2 -7 d 3 -9 d 3 -10 d 2 -12 d 3 -12 d 5 -29 d 6 -32 d 5 -34 d 5 -35 d 6 -35 d 5 -35 d 5 -33 d 6 -31 d 5 -29 d 5 -26 d 6 -23 d 5 -19 d 5 -18 d 6 -14 d 5 -12 d 5 -10 d 6 -8 d 5 -7 d 5 -5 d 6 -4 d 5 -3 d 5 -3 d 6 -2 d 5 -1 d 5
 -1 d s black 3 lw 129 77 m 533 X s 129 93 m -16 Y s 148 85 m -8 Y s 166 85 m -8 Y s 184 85 m -8 Y s 203 85 m -8 Y s 221 93 m -16 Y s 240 85 m -8 Y s 258 85 m -8 Y s 276 85 m -8 Y s 295 85 m -8 Y s 313 93 m -16 Y s 331 85 m -8 Y s 350 85 m -8 Y s 368
 85 m -8 Y s 387 85 m -8 Y s 405 93 m -16 Y s 423 85 m -8 Y s 442 85 m -8 Y s 460 85 m -8 Y s 478 85 m -8 Y s 497 93 m -16 Y s 515 85 m -8 Y s 534 85 m -8 Y s 552 85 m -8 Y s 570 85 m -8 Y s 589 93 m -16 Y s 589 93 m -16 Y s 607 85 m -8 Y s 625 85 m
 -8 Y s 644 85 m -8 Y s 129 77 m 559 Y s 146 77 m -17 X s 138 104 m -9 X s 138 131 m -9 X s 138 158 m -9 X s 146 184 m -17 X s 138 211 m -9 X s 138 238 m -9 X s 138 265 m -9 X s 146 292 m -17 X s 138 319 m -9 X s 138 345 m -9 X s 138 372 m -9 X s 146
 399 m -17 X s 138 426 m -9 X s 138 453 m -9 X s 138 480 m -9 X s 146 507 m -17 X s 138 533 m -9 X s 138 560 m -9 X s 138 587 m -9 X s 146 614 m -17 X s 146 614 m -17 X s 1 1 1 c black
 gsave  710 699 23 7 C 328.501 670.626 t 0 r /Helvetica findfont 34.8619 sf 0 0 m (Signal) show NC gr 
 gr  gr showpage
end
%%EOF
