%!PS-Adobe-2.0 EPSF-2.0
%%BoundingBox:  6 2 183 176
%%Title: ./plots/pSig_s1s2.eps: rf101_basics
%%Creator: ROOT Version 6.11/01
%%CreationDate: Sat Sep 23 20:37:12 2017
%%DocumentNeededResources: ProcSet (FontSetInit)
%%EndComments
%%BeginProlog
80 dict begin
/s {stroke} def /l {lineto} def /m {moveto} def /t {translate} def
/r {rotate} def /rl {roll}  def /R {repeat} def
/d {rlineto} def /rm {rmoveto} def /gr {grestore} def /f {eofill} def
/c {setrgbcolor} def /black {0 setgray} def /sd {setdash} def
/cl {closepath} def /sf {scalefont setfont} def /lw {setlinewidth} def
/box {m dup 0 exch d exch 0 d 0 exch neg d cl} def
/NC{systemdict begin initclip end}def/C{NC box clip newpath}def
/bl {box s} def /bf {gsave box gsave f grestore 1 lw [] 0 sd s grestore} def /Y { 0 exch d} def /X { 0 d} def 
/K {{pop pop 0 moveto} exch kshow} bind def
/ita {/ang 15 def gsave [1 0 ang dup sin exch cos div 1 0 0] concat} def 
/mp {newpath /y exch def /x exch def} def
/side {[w .77 mul w .23 mul] .385 w mul sd w 0 l currentpoint t -144 r} def
/mr {mp x y w2 0 360 arc} def /m24 {mr s} def /m20 {mr f} def
/mb {mp x y w2 add m w2 neg 0 d 0 w neg d w 0 d 0 w d cl} def
/mt {mp x y w2 add m w2 neg w neg d w 0 d cl} def
/w4 {w 4 div} def
/w6 {w 6 div} def
/w8 {w 8 div} def
/m21 {mb f} def /m25 {mb s} def /m22 {mt f} def /m26{mt s} def
/m23 {mp x y w2 sub m w2 w d w neg 0 d cl f} def
/m27 {mp x y w2 add m w3 neg w2 neg d w3 w2 neg d w3 w2 d cl s} def
/m28 {mp x w2 sub y w2 sub w3 add m w3 0 d  0 w3 neg d w3 0 d 0 w3 d w3 0 d  0 w3 d w3 neg 0 d 0 w3 d w3 neg 0 d 0 w3 neg d w3 neg 0 d cl s } def
/m29 {mp gsave x w2 sub y w2 add w3 sub m currentpoint t 4 {side} repeat cl fill gr} def
/m30 {mp gsave x w2 sub y w2 add w3 sub m currentpoint t 4 {side} repeat cl s gr} def
/m31 {mp x y w2 sub m 0 w d x w2 sub y m w 0 d x w2 sub y w2 add m w w neg d x w2 sub y w2 sub m w w d s} def
/m32 {mp x y w2 sub m w2 w d w neg 0 d cl s} def
/m33 {mp x y w2 add m w3 neg w2 neg d w3 w2 neg d w3 w2 d cl f} def
/m34 {mp x w2 sub y w2 sub w3 add m w3 0 d  0 w3 neg d w3 0 d 0 w3 d w3 0 d  0 w3 d w3 neg 0 d 0 w3 d w3 neg 0 d 0 w3 neg d w3 neg 0 d cl f } def
/m35 {mp x y w2 add m w2 neg w2 neg d w2 w2 neg d w2 w2 d w2 neg w2 d x y w2 sub m 0 w d x w2 sub y m w 0 d s} def
/m36 {mb x w2 sub y w2 add m w w neg d x w2 sub y w2 sub m w w d s} def
/m37 {mp x y m w4 neg w2 d w4 neg w2 neg d w2 0 d  w4 neg w2 neg d w2 0 d w4 neg w2 d w2 0 d w4 neg w2 d w4 neg w2 neg d cl s} def
/m38 {mp x w4 sub y w2 add m w4 neg w4 neg d 0 w2 neg d w4 w4 neg d w2 0 d w4 w4 d 0 w2 d w4 neg w4 d w2 neg 0 d x y w2 sub m 0 w d x w2 sub y m w 0 d cl s} def
/m39 {mp x y m w4 neg w2 d w4 neg w2 neg d w2 0 d  w4 neg w2 neg d w2 0 d w4 neg w2 d w2 0 d w4 neg w2 d w4 neg w2 neg d cl f} def
/m40 {mp x y m w4 w2 d w4 w4 neg d w2 neg w4 neg d w2 w4 neg d w4 neg w4 neg d w4 neg w2 d w4 neg w2 neg d w4 neg w4 d w2 w4 d w2 neg w4 d w4 w4 d w4 w2 neg d cl s} def
/m41 {mp x y m w4 w2 d w4 w4 neg d w2 neg w4 neg d w2 w4 neg d w4 neg w4 neg d w4 neg w2 d w4 neg w2 neg d w4 neg w4 d w2 w4 d w2 neg w4 d w4 w4 d w4 w2 neg d cl f} def
/m42 {mp x y w2 add m w8 neg w2 -3 4 div mul d w2 -3 4 div mul w8 neg d w2 3 4 div mul w8 neg d w8 w2 -3 4 div mul d w8 w2 3 4 div mul d w2 3 4 div mul w8 d w2 -3 4 div mul w8 d w8 neg w2 3 4 div mul d cl s} def
/m43 {mp x y w2 add m w8 neg w2 -3 4 div mul d w2 -3 4 div mul w8 neg d w2 3 4 div mul w8 neg d w8 w2 -3 4 div mul d w8 w2 3 4 div mul d w2 3 4 div mul w8 d w2 -3 4 div mul w8 d w8 neg w2 3 4 div mul d cl f} def
/m44 {mp x y m w6 neg w2 d w2 2 3 div mul 0 d w6 neg w2 neg d w2 w6 d 0 w2 -2 3 div mul d w2 neg w6 d w6 w2 neg d w2 -2 3 div mul 0 d w6 w2 d w2 neg w6 neg d 0 w2 2 3 div mul d w2 w6 neg d cl s} def
/m45 {mp x y m w6 neg w2 d w2 2 3 div mul 0 d w6 neg w2 neg d w2 w6 d 0 w2 -2 3 div mul d w2 neg w6 d w6 w2 neg d w2 -2 3 div mul 0 d w6 w2 d w2 neg w6 neg d 0 w2 2 3 div mul d w2 w6 neg d cl f} def
/m46 {mp x y w4 add m w4 neg w4 d w4 neg w4 neg d  w4 w4 neg d w4 neg w4 neg d w4 w4 neg d w4 w4 d w4 w4 neg d w4 w4 d w4 neg w4 d w4 w4 d w4 neg w4 d w4 neg w4 neg d cl s} def
/m47 {mp x y w4 add m w4 neg w4 d w4 neg w4 neg d w4 w4 neg d w4 neg w4 neg d  w4 w4 neg d w4 w4 d w4 w4 neg d w4 w4 d w4 neg w4 d w4 w4 d w4 neg w4 d w4 neg w4 neg d cl f} def
/m48 {mp x y w4 add m w4 neg w4 d w4 neg w4 neg d w4 w4 neg d  w4 neg w4 neg d w4 w4 neg d w4 w4 d w4 w4 neg d w4 w4 d w4 neg w4 d w4 w4 d w4 neg w4 d w4 neg w4 neg d  w4 w4 neg d w4 neg w4 neg d w4 neg w4 d w4 w4 d cl f} def
/m49 {mp x w2 sub w3 add y w2 sub w3 add m  0 w3 neg d w3 0 d 0 w3 d w3 0 d 0 w3 d w3 neg 0 d 0 w3 d w3 neg 0 d 0 w3 neg d w3 neg 0 d 0 w3 neg d w3 0 d 0 w3 d w3 0 d 0 w3 neg d w3 neg 0 d cl f } def
/m2 {mp x y w2 sub m 0 w d x w2 sub y m w 0 d s} def
/m5 {mp x w2 sub y w2 sub m w w d x w2 sub y w2 add m w w neg d s} def
%%IncludeResource: ProcSet (FontSetInit)
%%IncludeResource: font Times-Roman
%%IncludeResource: font Times-Italic
%%IncludeResource: font Times-Bold
%%IncludeResource: font Times-BoldItalic
%%IncludeResource: font Helvetica
%%IncludeResource: font Helvetica-Oblique
%%IncludeResource: font Helvetica-Bold
%%IncludeResource: font Helvetica-BoldOblique
%%IncludeResource: font Courier
%%IncludeResource: font Courier-Oblique
%%IncludeResource: font Courier-Bold
%%IncludeResource: font Courier-BoldOblique
%%IncludeResource: font Symbol
%%IncludeResource: font ZapfDingbats
/reEncode {exch findfont dup length dict begin {1 index /FID eq  {pop pop} {def} ifelse } forall /Encoding exch def currentdict end dup /FontName get exch definefont pop } def [/Times-Bold /Times-Italic /Times-BoldItalic /Helvetica /Helvetica-Oblique
 /Helvetica-Bold /Helvetica-BoldOblique /Courier /Courier-Oblique /Courier-Bold /Courier-BoldOblique /Times-Roman /AvantGarde-Book /AvantGarde-BookOblique /AvantGarde-Demi /AvantGarde-DemiOblique /Bookman-Demi /Bookman-DemiItalic /Bookman-Light
 /Bookman-LightItalic /Helvetica-Narrow /Helvetica-Narrow-Bold /Helvetica-Narrow-BoldOblique /Helvetica-Narrow-Oblique /NewCenturySchlbk-Roman /NewCenturySchlbk-Bold /NewCenturySchlbk-BoldItalic /NewCenturySchlbk-Italic /Palatino-Bold
 /Palatino-BoldItalic /Palatino-Italic /Palatino-Roman ] {ISOLatin1Encoding reEncode } forall
%%EndProlog
%%BeginSetup
%%EndSetup
newpath  gsave  .25 .25 scale  gsave  0 0 t black[  ] 0 sd 3 lw 1 1 1 c 710 699 23 7 bf black 1 1 1 c 533 559 129 77 bf black 533 559 129 77 bl 129 77 m 533 X s 129 93 m -16 Y s 143 85 m -8 Y s 156 85 m -8 Y s 169 85 m -8 Y s 183 85 m -8 Y s 196 93 m
 -16 Y s 209 85 m -8 Y s 223 85 m -8 Y s 236 85 m -8 Y s 249 85 m -8 Y s 262 93 m -16 Y s 276 85 m -8 Y s 289 85 m -8 Y s 302 85 m -8 Y s 316 85 m -8 Y s 329 93 m -16 Y s 342 85 m -8 Y s 356 85 m -8 Y s 369 85 m -8 Y s 382 85 m -8 Y s 396 93 m -16 Y
 s 409 85 m -8 Y s 422 85 m -8 Y s 436 85 m -8 Y s 449 85 m -8 Y s 462 93 m -16 Y s 476 85 m -8 Y s 489 85 m -8 Y s 502 85 m -8 Y s 516 85 m -8 Y s 529 93 m -16 Y s 542 85 m -8 Y s 556 85 m -8 Y s 569 85 m -8 Y s 582 85 m -8 Y s 596 93 m -16 Y s 609
 85 m -8 Y s 622 85 m -8 Y s 636 85 m -8 Y s 649 85 m -8 Y s 662 93 m -16 Y s
 gsave  710 699 23 7 C 105.968 54.4979 t 0 r /Helvetica findfont 22.736 sf 0 0 m (5.25) show NC gr 
 gsave  710 699 23 7 C 166.521 54.4979 t 0 r /Helvetica findfont 22.736 sf 0 0 m (5.255) show NC gr 
 gsave  710 699 23 7 C 239.185 54.4979 t 0 r /Helvetica findfont 22.736 sf 0 0 m (5.26) show NC gr 
 gsave  710 699 23 7 C 299.738 54.4979 t 0 r /Helvetica findfont 22.736 sf 0 0 m (5.265) show NC gr 
 gsave  710 699 23 7 C 372.402 54.4979 t 0 r /Helvetica findfont 22.736 sf 0 0 m (5.27) show NC gr 
 gsave  710 699 23 7 C 432.955 54.4979 t 0 r /Helvetica findfont 22.736 sf 0 0 m (5.275) show NC gr 
 gsave  710 699 23 7 C 505.619 54.4979 t 0 r /Helvetica findfont 22.736 sf 0 0 m (5.28) show NC gr 
 gsave  710 699 23 7 C 566.172 54.4979 t 0 r /Helvetica findfont 22.736 sf 0 0 m (5.285) show NC gr 
 gsave  710 699 23 7 C 638.836 54.4979 t 0 r /Helvetica findfont 22.736 sf 0 0 m (5.29) show NC gr 
 gsave  710 699 23 7 C 605.532 31.7904 t 0 r /Helvetica findfont 22.736 sf 0 0 m (m_bc) show NC gr  129 77 m 559 Y s 146 77 m -17 X s 138 89 m -9 X s 138 100 m -9 X s 138 112 m -9 X s 138 123 m -9 X s 146 135 m -17 X s 138 146 m -9 X s 138 158 m -9 X
 s 138 170 m -9 X s 138 181 m -9 X s 146 193 m -17 X s 138 204 m -9 X s 138 216 m -9 X s 138 228 m -9 X s 138 239 m -9 X s 146 251 m -17 X s 138 262 m -9 X s 138 274 m -9 X s 138 285 m -9 X s 138 297 m -9 X s 146 309 m -17 X s 138 320 m -9 X s 138
 332 m -9 X s 138 343 m -9 X s 138 355 m -9 X s 146 367 m -17 X s 138 378 m -9 X s 138 390 m -9 X s 138 401 m -9 X s 138 413 m -9 X s 146 424 m -17 X s 138 436 m -9 X s 138 448 m -9 X s 138 459 m -9 X s 138 471 m -9 X s 146 482 m -17 X s 138 494 m -9
 X s 138 506 m -9 X s 138 517 m -9 X s 138 529 m -9 X s 146 540 m -17 X s 138 552 m -9 X s 138 563 m -9 X s 138 575 m -9 X s 138 587 m -9 X s 146 598 m -17 X s 146 598 m -17 X s 138 610 m -9 X s 138 621 m -9 X s 138 633 m -9 X s
 gsave  710 699 23 7 C 113.537 68.1223 t 0 r /Helvetica findfont 22.736 sf 0 0 m (0) show NC gr 
 gsave  710 699 23 7 C 87.8021 127.162 t 0 r /Helvetica findfont 22.736 sf 0 0 m (100) show NC gr 
 gsave  710 699 23 7 C 87.8021 184.687 t 0 r /Helvetica findfont 22.736 sf 0 0 m (200) show NC gr 
 gsave  710 699 23 7 C 87.8021 242.213 t 0 r /Helvetica findfont 22.736 sf 0 0 m (300) show NC gr 
 gsave  710 699 23 7 C 87.8021 299.738 t 0 r /Helvetica findfont 22.736 sf 0 0 m (400) show NC gr 
 gsave  710 699 23 7 C 87.8021 358.778 t 0 r /Helvetica findfont 22.736 sf 0 0 m (500) show NC gr 
 gsave  710 699 23 7 C 87.8021 416.303 t 0 r /Helvetica findfont 22.736 sf 0 0 m (600) show NC gr 
 gsave  710 699 23 7 C 87.8021 473.829 t 0 r /Helvetica findfont 22.736 sf 0 0 m (700) show NC gr 
 gsave  710 699 23 7 C 87.8021 531.354 t 0 r /Helvetica findfont 22.736 sf 0 0 m (800) show NC gr 
 gsave  710 699 23 7 C 87.8021 590.393 t 0 r /Helvetica findfont 22.736 sf 0 0 m (900) show NC gr 
 gsave  710 699 23 7 C 71.15 452.635 t 90 r /Helvetica findfont 22.736 sf 0 0 m (Events / \( 0.0004 \)) show NC gr  1 1 1 c black
 gsave  710 699 23 7 C 328.501 670.626 t 0 r /Helvetica findfont 34.8619 sf 0 0 m (Signal) show NC gr  132 77 m -3 X s 129 77 m 3 Y s 132 77 m 3 X s 135 77 m 3 Y s 132 77 m 1 Y s 129 78 m 6 X s 137 77 m -2 X s 135 77 m 3 Y s 137 77 m 3 X s 140 77 m 3
 Y s 137 77 m 1 Y s 134 78 m 6 X s 143 77 m -3 X s 140 77 m 3 Y s 143 77 m 2 X s 145 77 m 3 Y s 143 77 m 1 Y s 140 78 m 6 X s 148 77 m -3 X s 145 77 m 3 Y s 148 77 m 3 X s 151 77 m 3 Y s 148 77 m 1 Y s 145 78 m 6 X s 153 77 m -2 X s 151 77 m 3 Y s
 153 77 m 3 X s 156 77 m 3 Y s 153 77 m 1 Y s 150 78 m 6 X s 159 77 m -3 X s 156 77 m 3 Y s 159 77 m 2 X s 161 77 m 3 Y s 159 77 m 1 Y s 156 78 m 6 X s 164 77 m -3 X s 161 77 m 3 Y s 164 77 m 3 X s 167 77 m 3 Y s 164 77 m 1 Y s 161 78 m 6 X s 169 77
 m -2 X s 167 77 m 3 Y s 169 77 m 3 X s 172 77 m 3 Y s 169 77 m 1 Y s 166 78 m 6 X s 175 77 m -3 X s 172 77 m 3 Y s 175 77 m 2 X s 177 77 m 3 Y s 175 77 m 1 Y s 172 78 m 6 X s 180 77 m -3 X s 177 77 m 3 Y s 180 77 m 3 X s 183 77 m 3 Y s 180 77 m 1 Y
 s 177 78 m 6 X s 185 77 m -2 X s 183 77 m 3 Y s 185 77 m 3 X s 188 77 m 3 Y s 185 77 m 1 Y s 182 78 m 6 X s 191 77 m -3 X s 188 77 m 3 Y s 191 77 m 2 X s 193 77 m 3 Y s 191 77 m 1 Y s 188 78 m 6 X s 196 77 m -3 X s 193 77 m 3 Y s 196 77 m 3 X s 199
 77 m 3 Y s 196 77 m 1 Y s 193 78 m 6 X s 201 77 m -2 X s 199 77 m 3 Y s 201 77 m 3 X s 204 77 m 3 Y s 201 77 m 1 Y s 198 78 m 6 X s 207 77 m -3 X s 204 77 m 3 Y s 207 77 m 2 X s 209 77 m 3 Y s 207 77 m 1 Y s 204 78 m 6 X s 212 77 m -3 X s 209 77 m 3
 Y s 212 77 m 3 X s 215 77 m 3 Y s 212 77 m 1 Y s 209 78 m 6 X s 217 77 m -2 X s 215 77 m 3 Y s 217 77 m 3 X s 220 77 m 3 Y s 217 77 m 1 Y s 214 78 m 6 X s 223 77 m -3 X s 220 77 m 3 Y s 223 77 m 2 X s 225 77 m 3 Y s 223 77 m 1 Y s 219 78 m 7 X s 228
 77 m -3 X s 225 77 m 3 Y s 228 77 m 3 X s 231 77 m 3 Y s 228 77 m 1 Y s 225 78 m 6 X s 233 77 m -2 X s 231 77 m 3 Y s 233 77 m 3 X s 236 77 m 3 Y s 233 77 m 1 Y s 230 78 m 6 X s 239 77 m -3 X s 236 77 m 3 Y s 239 77 m 2 X s 241 77 m 3 Y s 239 77 m 1
 Y s 235 78 m 7 X s 244 77 m -3 X s 241 77 m 3 Y s 244 77 m 3 X s 247 77 m 3 Y s 244 77 m 1 Y s 241 78 m 6 X s 249 77 m -2 X s 247 77 m 3 Y s 249 77 m 3 X s 252 77 m 3 Y s 249 77 m 1 Y s 246 78 m 6 X s 254 77 m -2 X s 252 77 m 3 Y s 254 77 m 3 X s
 257 77 m 3 Y s 254 77 m 1 Y s 251 78 m 7 X s 260 77 m -3 X s 257 77 m 3 Y s 260 77 m 2 X s 262 77 m 3 Y s 260 77 m 1 Y s 257 78 m 6 X s 265 77 m -3 X s 262 77 m 3 Y s 265 77 m 3 X s 268 77 m 3 Y s 265 77 m 1 Y s 262 78 m 6 X s 270 77 m -2 X s 268 77
 m 3 Y s 270 77 m 3 X s 273 77 m 3 Y s 270 77 m 1 Y s 267 78 m 7 X s 276 77 m -3 X s 273 77 m 3 Y s 276 77 m 2 X s 278 77 m 3 Y s 276 77 m 1 Y s 273 78 m 6 X s 281 77 m -3 X s 278 77 m 3 Y s 281 77 m 3 X s 284 77 m 3 Y s 281 77 m 1 Y s 278 78 m 6 X s
 286 77 m -2 X s 284 77 m 3 Y s 286 77 m 3 X s 289 77 m 3 Y s 286 77 m 1 Y s 283 78 m 6 X s 292 77 m -3 X s 289 77 m 3 Y s 292 77 m 2 X s 294 77 m 3 Y s 292 77 m 1 Y s 289 78 m 6 X s 297 77 m -3 X s 294 77 m 3 Y s 297 77 m 3 X s 300 77 m 3 Y s 297 77
 m 1 Y s 294 78 m 6 X s 302 77 m -2 X s 300 77 m 3 Y s 302 77 m 3 X s 305 77 m 3 Y s 302 77 m 1 Y s 299 78 m 6 X s 308 77 m -3 X s 305 77 m 3 Y s 308 77 m 2 X s 310 77 m 3 Y s 308 77 m 1 Y s 305 78 m 6 X s 313 77 m -3 X s 310 77 m 3 Y s 313 77 m 3 X
 s 316 77 m 3 Y s 313 77 m 1 Y s 310 78 m 6 X s 318 77 m -2 X s 316 77 m 3 Y s 318 77 m 3 X s 321 77 m 3 Y s 318 77 m 1 Y s 315 78 m 6 X s 324 77 m -3 X s 321 77 m 3 Y s 324 77 m 2 X s 326 77 m 3 Y s 324 77 m 1 Y s 321 78 m 6 X s 329 77 m -3 X s 326
 77 m 3 Y s 329 77 m 3 X s 332 77 m 3 Y s 329 77 m 1 Y s 326 78 m 6 X s 334 77 m -2 X s 332 77 m 3 Y s 334 77 m 3 X s 337 77 m 3 Y s 334 77 m 1 Y s 331 78 m 6 X s 340 77 m -3 X s 337 77 m 3 Y s 340 77 m 2 X s 342 77 m 3 Y s 340 77 m 1 Y s 337 78 m 6
 X s 345 77 m -3 X s 342 77 m 3 Y s 345 77 m 3 X s 348 77 m 3 Y s 345 77 m 1 Y s 342 78 m 6 X s 350 77 m -2 X s 348 77 m 3 Y s 350 77 m 3 X s 353 77 m 3 Y s 350 77 m 1 Y s 347 78 m 6 X s 356 77 m -3 X s 353 77 m 3 Y s 356 77 m 2 X s 358 77 m 3 Y s
 356 77 m 1 Y s 353 78 m 6 X s 361 77 m -3 X s 358 77 m 3 Y s 361 77 m 3 X s 364 77 m 3 Y s 361 77 m 1 Y s 358 78 m 6 X s 366 77 m -2 X s 364 77 m 3 Y s 366 77 m 3 X s 369 77 m 3 Y s 366 77 m 1 Y s 363 78 m 6 X s 372 77 m -3 X s 369 77 m 3 Y s 372 77
 m 2 X s 374 77 m 3 Y s 372 77 m 1 Y s 369 78 m 6 X s 377 77 m -3 X s 374 77 m 3 Y s 377 77 m 3 X s 380 77 m 3 Y s 377 77 m 1 Y s 374 78 m 6 X s 382 77 m -2 X s 380 77 m 3 Y s 382 77 m 3 X s 385 77 m 3 Y s 382 77 m 1 Y s 379 78 m 6 X s 388 77 m -3 X
 s 385 77 m 3 Y s 388 77 m 2 X s 390 77 m 3 Y s 388 77 m 1 Y s 385 78 m 6 X s 393 77 m -3 X s 390 77 m 3 Y s 393 77 m 3 X s 396 77 m 3 Y s 393 77 m 1 Y s 390 78 m 6 X s 398 77 m -2 X s 396 77 m 3 Y s 398 77 m 3 X s 401 77 m 3 Y s 398 77 m 1 Y s 395
 78 m 6 X s 404 77 m -3 X s 401 77 m 3 Y s 404 77 m 2 X s 406 77 m 3 Y s 404 77 m 1 Y s 401 78 m 6 X s 409 79 m -3 X s 406 77 m 5 Y s 409 79 m 3 X s 412 77 m 5 Y s 409 79 m 1 Y s 406 80 m 6 X s 409 79 m -1 Y s 406 78 m 6 X s 414 78 m -2 X s 412 77 m
 4 Y s 414 78 m 3 X s 417 77 m 4 Y s 414 78 m 1 Y s 411 79 m 6 X s 414 78 m -1 Y s 411 77 m 6 X s 420 82 m -3 X s 417 79 m 6 Y s 420 82 m 2 X s 422 79 m 6 Y s 420 82 m 2 Y s 417 84 m 6 X s 420 82 m -2 Y s 417 80 m 6 X s 425 82 m -3 X s 422 79 m 6 Y s
 425 82 m 3 X s 428 79 m 6 Y s 425 82 m 3 Y s 422 85 m 6 X s 425 82 m -1 Y s 422 81 m 6 X s 430 84 m -2 X s 428 81 m 6 Y s 430 84 m 3 X s 433 81 m 6 Y s 430 84 m 3 Y s 427 87 m 6 X s 430 84 m -2 Y s 427 82 m 6 X s 436 87 m -3 X s 433 84 m 6 Y s 436
 87 m 2 X s 438 84 m 6 Y s 436 87 m 4 Y s 433 91 m 6 X s 436 87 m -2 Y s 433 85 m 6 X s 441 99 m -3 X s 438 96 m 6 Y s 441 99 m 3 X s 444 96 m 6 Y s 441 99 m 4 Y s 438 103 m 6 X s 441 99 m -4 Y s 438 95 m 6 X s 446 96 m -2 X s 444 93 m 6 Y s 446 96 m
 3 X s 449 93 m 6 Y s 446 96 m 3 Y s 443 99 m 6 X s 446 96 m -4 Y s 443 92 m 6 X s 452 104 m -3 X s 449 101 m 6 Y s 452 104 m 2 X s 454 101 m 6 Y s 452 104 m 4 Y s 449 108 m 6 X s 452 104 m -4 Y s 449 100 m 6 X s 457 120 m -3 X s 454 117 m 6 Y s 457
 120 m 3 X s 460 117 m 6 Y s 457 120 m 5 Y s 454 125 m 6 X s 457 120 m -5 Y s 454 115 m 6 X s 462 127 m -2 X s 460 124 m 6 Y s 462 127 m 3 X s 465 124 m 6 Y s 462 127 m 6 Y s 459 133 m 6 X s 462 127 m -5 Y s 459 122 m 6 X s 468 146 m -3 X s 465 143 m
 6 Y s 468 146 m 2 X s 470 143 m 6 Y s 468 146 m 7 Y s 465 153 m 6 X s 468 146 m -6 Y s 465 140 m 6 X s 473 181 m -3 X s 470 178 m 6 Y s 473 181 m 3 X s 476 178 m 6 Y s 473 181 m 8 Y s 470 189 m 6 X s 473 181 m -8 Y s 470 173 m 6 X s 478 199 m -2 X s
 476 196 m 6 Y s 478 199 m 3 X s 481 196 m 6 Y s 478 199 m 8 Y s 475 207 m 6 X s 478 199 m -8 Y s 475 191 m 6 X s 484 236 m -3 X s 481 233 m 6 Y s 484 236 m 2 X s 486 233 m 6 Y s 484 236 m 10 Y s 481 246 m 6 X s 484 236 m -10 Y s 481 226 m 6 X s 489
 270 m -3 X s 486 267 m 6 Y s 489 270 m 3 X s 492 267 m 6 Y s 489 270 m 11 Y s 486 281 m 6 X s 489 270 m -10 Y s 486 260 m 6 X s 494 312 m -2 X s 492 309 m 6 Y s 494 312 m 3 X s 497 309 m 6 Y s 494 312 m 11 Y s 491 323 m 6 X s 494 312 m -12 Y s 491
 300 m 6 X s 500 374 m -3 X s 497 370 m 7 Y s 500 374 m 2 X s 502 370 m 7 Y s 500 374 m 13 Y s 497 387 m 6 X s 500 374 m -13 Y s 497 361 m 6 X s 505 442 m -3 X s 502 439 m 6 Y s 505 442 m 3 X s 508 439 m 6 Y s 505 442 m 15 Y s 502 457 m 6 X s 505 442
 m -14 Y s 502 428 m 6 X s 510 481 m -2 X s 508 478 m 6 Y s 510 481 m 3 X s 513 478 m 6 Y s 510 481 m 15 Y s 507 496 m 6 X s 510 481 m -15 Y s 507 466 m 6 X s 516 536 m -3 X s 513 533 m 6 Y s 516 536 m 2 X s 518 533 m 6 Y s 516 536 m 17 Y s 513 553 m
 6 X s 516 536 m -16 Y s 513 520 m 6 X s 521 547 m -3 X s 518 544 m 6 Y s 521 547 m 3 X s 524 544 m 6 Y s 521 547 m 16 Y s 518 563 m 6 X s 521 547 m -17 Y s 518 530 m 6 X s 526 567 m -2 X s 524 564 m 6 Y s 526 567 m 3 X s 529 564 m 6 Y s 526 567 m 17
 Y s 523 584 m 6 X s 526 567 m -17 Y s 523 550 m 6 X s 532 592 m -3 X s 529 589 m 6 Y s 532 592 m 2 X s 534 589 m 6 Y s 532 592 m 17 Y s 529 609 m 6 X s 532 592 m -17 Y s 529 575 m 6 X s 537 571 m -3 X s 534 568 m 6 Y s 537 571 m 3 X s 540 568 m 6 Y
 s 537 571 m 17 Y s 534 588 m 6 X s 537 571 m -17 Y s 534 554 m 6 X s 542 550 m -2 X s 540 547 m 6 Y s 542 550 m 3 X s 545 547 m 6 Y s 542 550 m 16 Y s 539 566 m 6 X s 542 550 m -17 Y s 539 533 m 6 X s 548 530 m -3 X s 545 527 m 6 Y s 548 530 m 2 X s
 550 527 m 6 Y s 548 530 m 17 Y s 545 547 m 6 X s 548 530 m -15 Y s 545 515 m 6 X s 553 526 m -3 X s 550 523 m 6 Y s 553 526 m 3 X s 556 523 m 6 Y s 553 526 m 17 Y s 550 543 m 6 X s 553 526 m -15 Y s 550 511 m 6 X s 558 476 m -2 X s 556 473 m 6 Y s
 558 476 m 3 X s 561 473 m 6 Y s 558 476 m 16 Y s 555 492 m 6 X s 558 476 m -15 Y s 555 461 m 6 X s 564 427 m -3 X s 561 424 m 6 Y s 564 427 m 2 X s 566 424 m 6 Y s 564 427 m 14 Y s 561 441 m 6 X s 564 427 m -14 Y s 561 413 m 6 X s 569 400 m -3 X s
 566 397 m 6 Y s 569 400 m 3 X s 572 397 m 6 Y s 569 400 m 14 Y s 566 414 m 6 X s 569 400 m -13 Y s 566 387 m 6 X s 574 345 m -2 X s 572 342 m 6 Y s 574 345 m 3 X s 577 342 m 6 Y s 574 345 m 13 Y s 571 358 m 6 X s 574 345 m -12 Y s 571 333 m 6 X s
 580 299 m -3 X s 577 296 m 6 Y s 580 299 m 2 X s 582 296 m 6 Y s 580 299 m 11 Y s 577 310 m 6 X s 580 299 m -11 Y s 577 288 m 6 X s 585 243 m -3 X s 582 240 m 6 Y s 585 243 m 3 X s 588 240 m 6 Y s 585 243 m 10 Y s 582 253 m 6 X s 585 243 m -10 Y s
 582 233 m 6 X s 590 237 m -2 X s 588 234 m 6 Y s 590 237 m 3 X s 593 234 m 6 Y s 590 237 m 10 Y s 587 247 m 6 X s 590 237 m -9 Y s 587 228 m 6 X s 596 186 m -3 X s 593 183 m 6 Y s 596 186 m 2 X s 598 183 m 6 Y s 596 186 m 8 Y s 593 194 m 6 X s 596
 186 m -8 Y s 593 178 m 6 X s 601 154 m -3 X s 598 151 m 6 Y s 601 154 m 3 X s 604 151 m 6 Y s 601 154 m 7 Y s 598 161 m 6 X s 601 154 m -6 Y s 598 148 m 6 X s 606 128 m -2 X s 604 125 m 6 Y s 606 128 m 3 X s 609 125 m 6 Y s 606 128 m 6 Y s 603 134 m
 6 X s 606 128 m -5 Y s 603 123 m 6 X s 612 115 m -3 X s 609 112 m 6 Y s 612 115 m 2 X s 614 112 m 6 Y s 612 115 m 6 Y s 609 121 m 6 X s 612 115 m -4 Y s 609 111 m 6 X s 617 107 m -3 X s 614 104 m 6 Y s 617 107 m 3 X s 620 104 m 6 Y s 617 107 m 4 Y s
 614 111 m 6 X s 617 107 m -5 Y s 614 102 m 6 X s 622 100 m -2 X s 620 97 m 6 Y s 622 100 m 3 X s 625 97 m 6 Y s 622 100 m 4 Y s 619 104 m 6 X s 622 100 m -3 Y s 619 97 m 6 X s 628 90 m -3 X s 625 87 m 6 Y s 628 90 m 2 X s 630 87 m 6 Y s 628 90 m 3 Y
 s 625 93 m 6 X s 628 90 m -3 Y s 625 87 m 6 X s 633 86 m -3 X s 630 83 m 6 Y s 633 86 m 3 X s 636 83 m 6 Y s 633 86 m 3 Y s 630 89 m 6 X s 633 86 m -3 Y s 630 83 m 6 X s 638 83 m -2 X s 636 80 m 6 Y s 638 83 m 3 X s 641 80 m 6 Y s 638 83 m 3 Y s 635
 86 m 6 X s 638 83 m -2 Y s 635 81 m 6 X s 644 85 m -3 X s 641 82 m 6 Y s 644 85 m 2 X s 646 82 m 6 Y s 644 85 m 3 Y s 640 88 m 7 X s 644 85 m -2 Y s 640 83 m 7 X s 649 78 m -3 X s 646 77 m 4 Y s 649 78 m 3 X s 652 77 m 4 Y s 649 78 m 2 Y s 646 80 m
 6 X s 649 78 m -1 Y s 646 77 m 6 X s 654 77 m -2 X s 652 77 m 3 Y s 654 77 m 3 X s 657 77 m 3 Y s 654 77 m 1 Y s 651 78 m 6 X s 660 77 m -3 X s 657 77 m 3 Y s 660 77 m 2 X s 662 77 m 3 Y s 660 77 m 1 Y s 656 78 m 6 X s /w 12 def /w2 {w 2 div} def
 /w3 {w 3 div} def 132 77 137 77 143 77 148 77 153 77 159 77 164 77 169 77 175 77 180 77 185 77 191 77 196 77 201 77 207 77 212 77 217 77 223 77 228 77 233 77 239 77 244 77 249 77 254 77 260 77 265 77 270 77 276 77 281 77 286 77 292 77 297 77 302 77
 308 77 313 77 318 77 324 77 329 77 334 77 340 77 345 77 350 77 356 77 361 77 366 77 372 77 377 77 382 77 388 77 393 77 398 77 404 77 409 79 414 78 420 82 425 82 430 84 436 87 441 99 446 96 452 104 457 120 462 127 468 146 473 181 478 199 484 236 489
 270 494 312 500 374 505 442 510 481 516 536 521 547 526 567 532 592 537 571 542 550 548 530 553 526 558 476 564 427 569 400 574 345 580 299 585 243 590 237 596 186 601 154 606 128 612 115 617 107 622 100 628 90 633 86 638 83 644 85 649 78 654 77 660
 77 100 { m20} R 0 0 1 c 9 lw black 0 0 1 c 129 77 m cl s 129 77 m 272 X 5 1 d 6 X 5 1 d 5 1 d 6 2 d 5 2 d 5 4 d 6 5 d 5 8 d 5 10 d 6 13 d 2 8 d 3 9 d 3 10 d 2 12 d 3 13 d 3 14 d 2 16 d 3 17 d 3 18 d 2 20 d 3 20 d 3 22 d 5 47 d 5 48 d 6 47 d 2 23 d 3
 22 d 3 21 d 2 18 d 3 17 d 3 14 d 2 11 d 3 9 d 3 5 d 2 2 d 3 X 3 -4 d 2 -8 d 3 -10 d 3 -13 d 2 -15 d 3 -18 d 3 -19 d 2 -22 d 3 -22 d 5 -47 d 6 -49 d 5 -46 d 5 -44 d 3 -20 d 3 -19 d 2 -18 d 3 -16 d 3 -15 d 2 -13 d 3 -12 d 3 -11 d 2 -10 d 3 -9 d 5 -14
 d 6 -10 d 5 -8 d 5 -6 d 6 -4 d 5 -3 d 5 -2 d 6 -1 d 5 -1 d 5 X s black 3 lw 129 77 m 533 X s 129 93 m -16 Y s 143 85 m -8 Y s 156 85 m -8 Y s 169 85 m -8 Y s 183 85 m -8 Y s 196 93 m -16 Y s 209 85 m -8 Y s 223 85 m -8 Y s 236 85 m -8 Y s 249 85 m
 -8 Y s 262 93 m -16 Y s 276 85 m -8 Y s 289 85 m -8 Y s 302 85 m -8 Y s 316 85 m -8 Y s 329 93 m -16 Y s 342 85 m -8 Y s 356 85 m -8 Y s 369 85 m -8 Y s 382 85 m -8 Y s 396 93 m -16 Y s 409 85 m -8 Y s 422 85 m -8 Y s 436 85 m -8 Y s 449 85 m -8 Y s
 462 93 m -16 Y s 476 85 m -8 Y s 489 85 m -8 Y s 502 85 m -8 Y s 516 85 m -8 Y s 529 93 m -16 Y s 542 85 m -8 Y s 556 85 m -8 Y s 569 85 m -8 Y s 582 85 m -8 Y s 596 93 m -16 Y s 609 85 m -8 Y s 622 85 m -8 Y s 636 85 m -8 Y s 649 85 m -8 Y s 662 93
 m -16 Y s 129 77 m 559 Y s 146 77 m -17 X s 138 89 m -9 X s 138 100 m -9 X s 138 112 m -9 X s 138 123 m -9 X s 146 135 m -17 X s 138 146 m -9 X s 138 158 m -9 X s 138 170 m -9 X s 138 181 m -9 X s 146 193 m -17 X s 138 204 m -9 X s 138 216 m -9 X s
 138 228 m -9 X s 138 239 m -9 X s 146 251 m -17 X s 138 262 m -9 X s 138 274 m -9 X s 138 285 m -9 X s 138 297 m -9 X s 146 309 m -17 X s 138 320 m -9 X s 138 332 m -9 X s 138 343 m -9 X s 138 355 m -9 X s 146 367 m -17 X s 138 378 m -9 X s 138 390
 m -9 X s 138 401 m -9 X s 138 413 m -9 X s 146 424 m -17 X s 138 436 m -9 X s 138 448 m -9 X s 138 459 m -9 X s 138 471 m -9 X s 146 482 m -17 X s 138 494 m -9 X s 138 506 m -9 X s 138 517 m -9 X s 138 529 m -9 X s 146 540 m -17 X s 138 552 m -9 X s
 138 563 m -9 X s 138 575 m -9 X s 138 587 m -9 X s 146 598 m -17 X s 146 598 m -17 X s 138 610 m -9 X s 138 621 m -9 X s 138 633 m -9 X s 1 1 1 c black
 gsave  710 699 23 7 C 328.501 670.626 t 0 r /Helvetica findfont 34.8619 sf 0 0 m (Signal) show NC gr 
 gr  gr showpage
end
%%EOF
