%!PS-Adobe-2.0 EPSF-2.0
%%Title: bhabha.eps
%%Creator: fig2dev Version 3.2 Patchlevel 1
%%CreationDate: Thu Sep  7 11:46:12 2000
%%For: bgcheon@hep8.skku.ac.kr ()
%%Orientation: Portrait
%%BoundingBox: 0 0 547 274
%%Pages: 0
%%BeginSetup
%%EndSetup
%%Magnification: 1.0000
%%EndComments
/$F2psDict 200 dict def
$F2psDict begin
$F2psDict /mtrx matrix put
/col-1 {0 setgray} bind def
/col0 {0.000 0.000 0.000 srgb} bind def
/col1 {0.000 0.000 1.000 srgb} bind def
/col2 {0.000 1.000 0.000 srgb} bind def
/col3 {0.000 1.000 1.000 srgb} bind def
/col4 {1.000 0.000 0.000 srgb} bind def
/col5 {1.000 0.000 1.000 srgb} bind def
/col6 {1.000 1.000 0.000 srgb} bind def
/col7 {1.000 1.000 1.000 srgb} bind def
/col8 {0.000 0.000 0.560 srgb} bind def
/col9 {0.000 0.000 0.690 srgb} bind def
/col10 {0.000 0.000 0.820 srgb} bind def
/col11 {0.530 0.810 1.000 srgb} bind def
/col12 {0.000 0.560 0.000 srgb} bind def
/col13 {0.000 0.690 0.000 srgb} bind def
/col14 {0.000 0.820 0.000 srgb} bind def
/col15 {0.000 0.560 0.560 srgb} bind def
/col16 {0.000 0.690 0.690 srgb} bind def
/col17 {0.000 0.820 0.820 srgb} bind def
/col18 {0.560 0.000 0.000 srgb} bind def
/col19 {0.690 0.000 0.000 srgb} bind def
/col20 {0.820 0.000 0.000 srgb} bind def
/col21 {0.560 0.000 0.560 srgb} bind def
/col22 {0.690 0.000 0.690 srgb} bind def
/col23 {0.820 0.000 0.820 srgb} bind def
/col24 {0.500 0.190 0.000 srgb} bind def
/col25 {0.630 0.250 0.000 srgb} bind def
/col26 {0.750 0.380 0.000 srgb} bind def
/col27 {1.000 0.500 0.500 srgb} bind def
/col28 {1.000 0.630 0.630 srgb} bind def
/col29 {1.000 0.750 0.750 srgb} bind def
/col30 {1.000 0.880 0.880 srgb} bind def
/col31 {1.000 0.840 0.000 srgb} bind def

end
save
-103.0 411.0 translate
1 -1 scale

/cp {closepath} bind def
/ef {eofill} bind def
/gr {grestore} bind def
/gs {gsave} bind def
/sa {save} bind def
/rs {restore} bind def
/l {lineto} bind def
/m {moveto} bind def
/rm {rmoveto} bind def
/n {newpath} bind def
/s {stroke} bind def
/sh {show} bind def
/slc {setlinecap} bind def
/slj {setlinejoin} bind def
/slw {setlinewidth} bind def
/srgb {setrgbcolor} bind def
/rot {rotate} bind def
/sc {scale} bind def
/sd {setdash} bind def
/ff {findfont} bind def
/sf {setfont} bind def
/scf {scalefont} bind def
/sw {stringwidth} bind def
/tr {translate} bind def
/tnt {dup dup currentrgbcolor
  4 -2 roll dup 1 exch sub 3 -1 roll mul add
  4 -2 roll dup 1 exch sub 3 -1 roll mul add
  4 -2 roll dup 1 exch sub 3 -1 roll mul add srgb}
  bind def
/shd {dup dup currentrgbcolor 4 -2 roll mul 4 -2 roll mul
  4 -2 roll mul srgb} bind def
/$F2psBegin {$F2psDict begin /$F2psEnteredState save def} def
/$F2psEnd {$F2psEnteredState restore end} def
%%EndProlog

$F2psBegin
10 setmiterlimit
n -1000 7849 m -1000 -1000 l 11821 -1000 l 11821 7849 l cp clip
 0.06000 0.06000 sc
% Polyline
7.500 slw
n 9900 3900 m 9300 3900 l 2850 3900 l gs col0 s gr 
% Polyline
n 10500 2700 m 9900 3900 l gs col0 s gr 
% Polyline
n 10500 2700 m 2250 2700 l 2850 3900 l gs col0 s gr 
% Polyline
n 2850 4200 m 2250 3000 l 2250 5100 l gs col0 s gr 
% Polyline
n 2850 4200 m 2850 5700 l 2250 5100 l gs col0 s gr 
% Polyline
n 2850 4950 m 2250 4200 l gs col0 s gr 
% Polyline
n 9900 4200 m 9900 6000 l 10500 5400 l gs col0 s gr 
% Polyline
n 10500 5400 m 10500 3000 l 9900 4200 l gs col0 s gr 
% Polyline
n 9900 5400 m 10500 4650 l gs col0 s gr 
% Polyline
n 10500 3900 m 9900 4800 l gs col0 s gr 
% Polyline
n 3300 3900 m 2925 2700 l gs col0 s gr 
% Polyline
n 9300 3900 m 9750 2700 l gs col0 s gr 
% Polyline
n 8700 3900 m 9075 2700 l gs col0 s gr 
% Polyline
n 8100 3900 m 8400 2700 l gs col0 s gr 
% Polyline
n 7500 3900 m 7725 2700 l gs col0 s gr 
% Polyline
n 6900 3900 m 7050 2700 l gs col0 s gr 
% Polyline
n 6300 3900 m 6375 2700 l gs col0 s gr 
% Polyline
n 5700 3900 m 5700 2700 l gs col0 s gr 
% Polyline
n 5100 3900 m 5100 2700 l gs col0 s gr 
% Polyline
n 4500 3900 m 4350 2700 l gs col0 s gr 
% Polyline
n 3900 3900 m 3675 2700 l gs col0 s gr 
% Polyline
15.000 slw
n 2250 2700 m 2850 3900 l 9900 3900 l 10500 2700 l 2250 2700 l  cp gs col0 s gr 
% Polyline
n 10500 3000 m 9900 4200 l 9900 6000 l 10500 5400 l 10500 3000 l  cp gs col0 s gr 
% Polyline
n 2850 4200 m 2250 3000 l 2250 5100 l 2850 5700 l 2850 4200 l  cp gs col0 s gr 
% Polyline
n 2250 4200 m 2850 4950 l gs col0 s gr 
% Polyline
n 2925 2700 m 3300 3900 l gs col0 s gr 
% Polyline
n 3675 2700 m 3900 3900 l gs col0 s gr 
% Polyline
n 4350 2700 m 4500 3900 l gs col0 s gr 
% Polyline
n 5100 2700 m 5100 3900 l gs col0 s gr 
% Polyline
n 5700 2700 m 5700 3900 l gs col0 s gr 
% Polyline
n 6375 2700 m 6300 3900 l gs col0 s gr 
% Polyline
n 7050 2700 m 6900 3900 l gs col0 s gr 
% Polyline
n 7725 2700 m 7500 3900 l gs col0 s gr 
% Polyline
n 8400 2700 m 8100 3900 l gs col0 s gr 
% Polyline
n 9075 2700 m 8700 3900 l gs col0 s gr 
% Polyline
n 9750 2700 m 9300 3900 l gs col0 s gr 
% Polyline
n 10500 3900 m 9900 4800 l gs col0 s gr 
% Polyline
n 10500 4650 m 9900 5400 l gs col0 s gr 
/Times-Bold ff 300.00 scf sf
10125 4725 m
gs 1 -1 sc (F2) col0 sh gr
/Times-Bold ff 300.00 scf sf
10125 5400 m
gs 1 -1 sc (F1) col0 sh gr
/Times-Bold ff 300.00 scf sf
10125 3975 m
gs 1 -1 sc (F3) col0 sh gr
/Times-Bold ff 300.00 scf sf
2325 4200 m
gs 1 -1 sc (B1) col0 sh gr
/Times-Bold ff 300.00 scf sf
2325 5100 m
gs 1 -1 sc (B2) col0 sh gr
/Times-Bold ff 300.00 scf sf
9525 3750 m
gs 1 -1 sc (C1) col0 sh gr
/Times-Bold ff 300.00 scf sf
8925 3750 m
gs 1 -1 sc (C2) col0 sh gr
/Times-Bold ff 300.00 scf sf
8325 3750 m
gs 1 -1 sc (C3) col0 sh gr
/Times-Bold ff 300.00 scf sf
7650 3750 m
gs 1 -1 sc (C4) col0 sh gr
/Times-Bold ff 300.00 scf sf
7050 3750 m
gs 1 -1 sc (C5) col0 sh gr
/Times-Bold ff 300.00 scf sf
6450 3750 m
gs 1 -1 sc (C6) col0 sh gr
/Times-Bold ff 300.00 scf sf
5850 3750 m
gs 1 -1 sc (C7) col0 sh gr
/Times-Bold ff 300.00 scf sf
5175 3750 m
gs 1 -1 sc (C8) col0 sh gr
/Times-Bold ff 300.00 scf sf
4575 3750 m
gs 1 -1 sc (C9) col0 sh gr
/Times-Bold ff 300.00 scf sf
3900 3750 m
gs 1 -1 sc (C10) col0 sh gr
/Times-Bold ff 300.00 scf sf
3300 3750 m
gs 1 -1 sc (C11) col0 sh gr
/Times-Bold ff 300.00 scf sf
2700 3750 m
gs 1 -1 sc (C12) col0 sh gr
/Times-Bold ff 375.00 scf sf
1725 6075 m
gs 1 -1 sc (Backward) col0 sh gr
/Times-Bold ff 375.00 scf sf
1950 6450 m
gs 1 -1 sc (Endcap) col0 sh gr
/Times-Bold ff 375.00 scf sf
9375 6375 m
gs 1 -1 sc (Forward) col0 sh gr
/Times-Bold ff 375.00 scf sf
9450 6750 m
gs 1 -1 sc (Endcap) col0 sh gr
/Times-Bold ff 375.00 scf sf
5925 2550 m
gs 1 -1 sc (Barrel) col0 sh gr
$F2psEnd
rs
