%!PS-Adobe-2.0 EPSF-2.0
%%Title: icn-logic.eps
%%Creator: fig2dev Version 3.2 Patchlevel 1
%%CreationDate: Thu Sep  7 13:30:42 2000
%%For: bgcheon@hep8.skku.ac.kr ()
%%Orientation: Portrait
%%BoundingBox: 0 0 544 300
%%Pages: 0
%%BeginSetup
%%EndSetup
%%Magnification: 1.0000
%%EndComments
/$F2psDict 200 dict def
$F2psDict begin
$F2psDict /mtrx matrix put
/col-1 {0 setgray} bind def
/col0 {0.000 0.000 0.000 srgb} bind def
/col1 {0.000 0.000 1.000 srgb} bind def
/col2 {0.000 1.000 0.000 srgb} bind def
/col3 {0.000 1.000 1.000 srgb} bind def
/col4 {1.000 0.000 0.000 srgb} bind def
/col5 {1.000 0.000 1.000 srgb} bind def
/col6 {1.000 1.000 0.000 srgb} bind def
/col7 {1.000 1.000 1.000 srgb} bind def
/col8 {0.000 0.000 0.560 srgb} bind def
/col9 {0.000 0.000 0.690 srgb} bind def
/col10 {0.000 0.000 0.820 srgb} bind def
/col11 {0.530 0.810 1.000 srgb} bind def
/col12 {0.000 0.560 0.000 srgb} bind def
/col13 {0.000 0.690 0.000 srgb} bind def
/col14 {0.000 0.820 0.000 srgb} bind def
/col15 {0.000 0.560 0.560 srgb} bind def
/col16 {0.000 0.690 0.690 srgb} bind def
/col17 {0.000 0.820 0.820 srgb} bind def
/col18 {0.560 0.000 0.000 srgb} bind def
/col19 {0.690 0.000 0.000 srgb} bind def
/col20 {0.820 0.000 0.000 srgb} bind def
/col21 {0.560 0.000 0.560 srgb} bind def
/col22 {0.690 0.000 0.690 srgb} bind def
/col23 {0.820 0.000 0.820 srgb} bind def
/col24 {0.500 0.190 0.000 srgb} bind def
/col25 {0.630 0.250 0.000 srgb} bind def
/col26 {0.750 0.380 0.000 srgb} bind def
/col27 {1.000 0.500 0.500 srgb} bind def
/col28 {1.000 0.630 0.630 srgb} bind def
/col29 {1.000 0.750 0.750 srgb} bind def
/col30 {1.000 0.880 0.880 srgb} bind def
/col31 {1.000 0.840 0.000 srgb} bind def

end
save
-106.0 401.0 translate
1 -1 scale

/cp {closepath} bind def
/ef {eofill} bind def
/gr {grestore} bind def
/gs {gsave} bind def
/sa {save} bind def
/rs {restore} bind def
/l {lineto} bind def
/m {moveto} bind def
/rm {rmoveto} bind def
/n {newpath} bind def
/s {stroke} bind def
/sh {show} bind def
/slc {setlinecap} bind def
/slj {setlinejoin} bind def
/slw {setlinewidth} bind def
/srgb {setrgbcolor} bind def
/rot {rotate} bind def
/sc {scale} bind def
/sd {setdash} bind def
/ff {findfont} bind def
/sf {setfont} bind def
/scf {scalefont} bind def
/sw {stringwidth} bind def
/tr {translate} bind def
/tnt {dup dup currentrgbcolor
  4 -2 roll dup 1 exch sub 3 -1 roll mul add
  4 -2 roll dup 1 exch sub 3 -1 roll mul add
  4 -2 roll dup 1 exch sub 3 -1 roll mul add srgb}
  bind def
/shd {dup dup currentrgbcolor 4 -2 roll mul 4 -2 roll mul
  4 -2 roll mul srgb} bind def
 /DrawEllipse {
	/endangle exch def
	/startangle exch def
	/yrad exch def
	/xrad exch def
	/y exch def
	/x exch def
	/savematrix mtrx currentmatrix def
	x y tr xrad yrad sc 0 0 1 startangle endangle arc
	closepath
	savematrix setmatrix
	} def

/$F2psBegin {$F2psDict begin /$F2psEnteredState save def} def
/$F2psEnd {$F2psEnteredState restore end} def
%%EndProlog

$F2psBegin
10 setmiterlimit
n -1000 7675 m -1000 -1000 l 11822 -1000 l 11822 7675 l cp clip
 0.06000 0.06000 sc
% Arc
15.000 slw
gs n 8400.0 5200.0 2500.0 -163.7 -16.3 arc
gs col0 s gr
 gr

% Arc
gs n 7950.0 6300.0 750.0 -143.1 -36.9 arc
gs col0 s gr
 gr

% Arc
gs n 7950.0 5550.0 600.0 180.0 0.0 arc
gs col0 s gr
 gr

% Arc
gs n 9600.0 5550.0 600.0 180.0 0.0 arc
gs col0 s gr
 gr

% Ellipse
n 7935 4815 106 106 0 360 DrawEllipse gs col0 s gr

% Ellipse
n 9600 4815 106 106 0 360 DrawEllipse gs col0 s gr

% Polyline
n 1800 3000 m 1800 5700 l 4500 5700 l 4500 3000 l 1800 3000 l  cp gs col0 s gr 
% Polyline
n 1800 3900 m 4500 3900 l gs col0 s gr 
% Polyline
n 1800 4800 m 4500 4800 l gs col0 s gr 
% Polyline
n 2700 3000 m 2700 5700 l gs col0 s gr 
% Polyline
n 3600 3000 m 3600 5700 l gs col0 s gr 
% Polyline
n 6000 4500 m 10800 4500 l gs col0 s gr 
% Polyline
n 9000 5550 m 9000 5850 l 10200 5850 l 10200 5550 l gs col0 s gr 
% Polyline
n 7350 5550 m 7350 5850 l gs col0 s gr 
% Polyline
n 8550 5475 m 8550 5850 l gs col0 s gr 
% Polyline
n 7650 5625 m 7650 6300 l gs col0 s gr 
% Polyline
n 8250 5625 m 8250 6300 l gs col0 s gr 
% Polyline
n 9300 5850 m 9300 6300 l gs col0 s gr 
% Polyline
n 9900 5850 m 9900 6300 l gs col0 s gr 
% Polyline
n 6750 4500 m 6750 6300 l gs col0 s gr 
% Polyline
n 7950 4710 m 7950 4470 l gs col0 s gr 
% Polyline
n 9600 4500 m 9600 4725 l gs col0 s gr 
% Polyline
n 8400 2700 m 8400 2100 l gs col0 s gr 
/Times-Bold ff 375.00 scf sf
8325 1950 m
gs 1 -1 sc (0 : final signal) col0 sh gr
/Times-Bold ff 375.00 scf sf
3075 4500 m
gs 1 -1 sc (0) col0 sh gr
/Times-Bold ff 375.00 scf sf
3075 3600 m
gs 1 -1 sc (1) col0 sh gr
/Times-Bold ff 375.00 scf sf
3975 4500 m
gs 1 -1 sc (2) col0 sh gr
/Times-Bold ff 375.00 scf sf
3075 5400 m
gs 1 -1 sc (3) col0 sh gr
/Times-Bold ff 375.00 scf sf
3975 5400 m
gs 1 -1 sc (4) col0 sh gr
/Times-Bold ff 375.00 scf sf
6675 6675 m
gs 1 -1 sc (0) col0 sh gr
/Times-Bold ff 375.00 scf sf
7575 6675 m
gs 1 -1 sc (1) col0 sh gr
/Times-Bold ff 375.00 scf sf
8175 6675 m
gs 1 -1 sc (2) col0 sh gr
/Times-Bold ff 375.00 scf sf
9225 6675 m
gs 1 -1 sc (3) col0 sh gr
/Times-Bold ff 375.00 scf sf
9825 6675 m
gs 1 -1 sc (4) col0 sh gr
$F2psEnd
rs
