%!PS-Adobe-2.0 EPSF-2.0
%%Title: flowchart.eps
%%Creator: fig2dev Version 3.2 Patchlevel 0-beta3
%%CreationDate: Mon Mar 30 11:38:53 1998
%%For: thchu@hep62x (,,,,)
%%Orientation: Portrait
%%BoundingBox: 0 0 737 768
%%Pages: 0
%%BeginSetup
%%EndSetup
%%Magnification: 1.0000
%%EndComments
/$F2psDict 200 dict def
$F2psDict begin
$F2psDict /mtrx matrix put
/col-1 {0 setgray} bind def
/col0 {0.000 0.000 0.000 srgb} bind def
/col1 {0.000 0.000 1.000 srgb} bind def
/col2 {0.000 1.000 0.000 srgb} bind def
/col3 {0.000 1.000 1.000 srgb} bind def
/col4 {1.000 0.000 0.000 srgb} bind def
/col5 {1.000 0.000 1.000 srgb} bind def
/col6 {1.000 1.000 0.000 srgb} bind def
/col7 {1.000 1.000 1.000 srgb} bind def
/col8 {0.000 0.000 0.560 srgb} bind def
/col9 {0.000 0.000 0.690 srgb} bind def
/col10 {0.000 0.000 0.820 srgb} bind def
/col11 {0.530 0.810 1.000 srgb} bind def
/col12 {0.000 0.560 0.000 srgb} bind def
/col13 {0.000 0.690 0.000 srgb} bind def
/col14 {0.000 0.820 0.000 srgb} bind def
/col15 {0.000 0.560 0.560 srgb} bind def
/col16 {0.000 0.690 0.690 srgb} bind def
/col17 {0.000 0.820 0.820 srgb} bind def
/col18 {0.560 0.000 0.000 srgb} bind def
/col19 {0.690 0.000 0.000 srgb} bind def
/col20 {0.820 0.000 0.000 srgb} bind def
/col21 {0.560 0.000 0.560 srgb} bind def
/col22 {0.690 0.000 0.690 srgb} bind def
/col23 {0.820 0.000 0.820 srgb} bind def
/col24 {0.500 0.190 0.000 srgb} bind def
/col25 {0.630 0.250 0.000 srgb} bind def
/col26 {0.750 0.380 0.000 srgb} bind def
/col27 {1.000 0.500 0.500 srgb} bind def
/col28 {1.000 0.630 0.630 srgb} bind def
/col29 {1.000 0.750 0.750 srgb} bind def
/col30 {1.000 0.880 0.880 srgb} bind def
/col31 {1.000 0.840 0.000 srgb} bind def

end
save
-21.0 792.0 translate
1 -1 scale

/cp {closepath} bind def
/ef {eofill} bind def
/gr {grestore} bind def
/gs {gsave} bind def
/sa {save} bind def
/rs {restore} bind def
/l {lineto} bind def
/m {moveto} bind def
/rm {rmoveto} bind def
/n {newpath} bind def
/s {stroke} bind def
/sh {show} bind def
/slc {setlinecap} bind def
/slj {setlinejoin} bind def
/slw {setlinewidth} bind def
/srgb {setrgbcolor} bind def
/rot {rotate} bind def
/sc {scale} bind def
/sd {setdash} bind def
/ff {findfont} bind def
/sf {setfont} bind def
/scf {scalefont} bind def
/sw {stringwidth} bind def
/tr {translate} bind def
/tnt {dup dup currentrgbcolor
  4 -2 roll dup 1 exch sub 3 -1 roll mul add
  4 -2 roll dup 1 exch sub 3 -1 roll mul add
  4 -2 roll dup 1 exch sub 3 -1 roll mul add srgb}
  bind def
/shd {dup dup currentrgbcolor 4 -2 roll mul 4 -2 roll mul
  4 -2 roll mul srgb} bind def
/reencdict 12 dict def /ReEncode { reencdict begin
/newcodesandnames exch def /newfontname exch def /basefontname exch def
/basefontdict basefontname findfont def /newfont basefontdict maxlength dict def
basefontdict { exch dup /FID ne { dup /Encoding eq
{ exch dup length array copy newfont 3 1 roll put }
{ exch newfont 3 1 roll put } ifelse } { pop pop } ifelse } forall
newfont /FontName newfontname put newcodesandnames aload pop
128 1 255 { newfont /Encoding get exch /.notdef put } for
newcodesandnames length 2 idiv { newfont /Encoding get 3 1 roll put } repeat
newfontname newfont definefont pop end } def
/isovec [
8#200 /grave 8#201 /acute 8#202 /circumflex 8#203 /tilde
8#204 /macron 8#205 /breve 8#206 /dotaccent 8#207 /dieresis
8#210 /ring 8#211 /cedilla 8#212 /hungarumlaut 8#213 /ogonek 8#214 /caron
8#220 /dotlessi 8#230 /oe 8#231 /OE
8#240 /space 8#241 /exclamdown 8#242 /cent 8#243 /sterling
8#244 /currency 8#245 /yen 8#246 /brokenbar 8#247 /section 8#250 /dieresis
8#251 /copyright 8#252 /ordfeminine 8#253 /guillemotleft 8#254 /logicalnot
8#255 /endash 8#256 /registered 8#257 /macron 8#260 /degree 8#261 /plusminus
8#262 /twosuperior 8#263 /threesuperior 8#264 /acute 8#265 /mu 8#266 /paragraph
8#267 /periodcentered 8#270 /cedilla 8#271 /onesuperior 8#272 /ordmasculine
8#273 /guillemotright 8#274 /onequarter 8#275 /onehalf
8#276 /threequarters 8#277 /questiondown 8#300 /Agrave 8#301 /Aacute
8#302 /Acircumflex 8#303 /Atilde 8#304 /Adieresis 8#305 /Aring
8#306 /AE 8#307 /Ccedilla 8#310 /Egrave 8#311 /Eacute
8#312 /Ecircumflex 8#313 /Edieresis 8#314 /Igrave 8#315 /Iacute
8#316 /Icircumflex 8#317 /Idieresis 8#320 /Eth 8#321 /Ntilde 8#322 /Ograve
8#323 /Oacute 8#324 /Ocircumflex 8#325 /Otilde 8#326 /Odieresis 8#327 /multiply
8#330 /Oslash 8#331 /Ugrave 8#332 /Uacute 8#333 /Ucircumflex
8#334 /Udieresis 8#335 /Yacute 8#336 /Thorn 8#337 /germandbls 8#340 /agrave
8#341 /aacute 8#342 /acircumflex 8#343 /atilde 8#344 /adieresis 8#345 /aring
8#346 /ae 8#347 /ccedilla 8#350 /egrave 8#351 /eacute
8#352 /ecircumflex 8#353 /edieresis 8#354 /igrave 8#355 /iacute
8#356 /icircumflex 8#357 /idieresis 8#360 /eth 8#361 /ntilde 8#362 /ograve
8#363 /oacute 8#364 /ocircumflex 8#365 /otilde 8#366 /odieresis 8#367 /divide
8#370 /oslash 8#371 /ugrave 8#372 /uacute 8#373 /ucircumflex
8#374 /udieresis 8#375 /yacute 8#376 /thorn 8#377 /ydieresis] def
/Times-Bold /Times-Bold-iso isovec ReEncode
/Times-BoldItalic /Times-BoldItalic-iso isovec ReEncode
/$F2psBegin {$F2psDict begin /$F2psEnteredState save def} def
/$F2psEnd {$F2psEnteredState restore end} def
%%EndProlog

$F2psBegin
10 setmiterlimit
n -1000 14200 m -1000 -1000 l 13622 -1000 l 13622 14200 l cp clip
 0.06000 0.06000 sc
% Polyline
15.000 slw
n 2400 2700 m 3900 2700 l 3900 4200 l 2400 4200 l cp gs col-1 s gr 
% Polyline
n 2400 4800 m 3900 4800 l 3900 6300 l 2400 6300 l cp gs col-1 s gr 
% Polyline
n 2400 6900 m 3900 6900 l 3900 8400 l 2400 8400 l cp gs col-1 s gr 
% Polyline
n 2400 9000 m 3900 9000 l 3900 10500 l 2400 10500 l cp gs col-1 s gr 
% Polyline
n 5400 6900 m 6900 6900 l 6900 8400 l 5400 8400 l cp gs col-1 s gr 
% Polyline
n 5400 9000 m 6900 9000 l 6900 10500 l 5400 10500 l cp gs col-1 s gr 
% Polyline
n 7800 6900 m 9300 6900 l 9300 8400 l 7800 8400 l cp gs col-1 s gr 
% Polyline
n 7800 9000 m 9300 9000 l 9300 10500 l 7800 10500 l cp gs col-1 s gr 
% Polyline
gs  clippath
3210 4506 m 3150 4746 l 3090 4506 l 3090 4830 l 3210 4830 l cp
clip
n 3150 4200 m 3150 4800 l gs col-1 s gr gr

% arrowhead
n 3210 4506 m 3150 4746 l 3090 4506 l 3150 4506 l 3210 4506 l  cp gs 0.00 setgray ef gr  col-1 s
% Polyline
gs  clippath
7506 9690 m 7746 9750 l 7506 9810 l 7830 9810 l 7830 9690 l cp
clip
n 6900 9750 m 7800 9750 l gs col-1 s gr gr

% arrowhead
n 7506 9690 m 7746 9750 l 7506 9810 l 7506 9750 l 7506 9690 l  cp gs 0.00 setgray ef gr  col-1 s
% Polyline
gs  clippath
7506 7590 m 7746 7650 l 7506 7710 l 7830 7710 l 7830 7590 l cp
clip
n 6900 7650 m 7800 7650 l gs col-1 s gr gr

% arrowhead
n 7506 7590 m 7746 7650 l 7506 7710 l 7506 7650 l 7506 7590 l  cp gs 0.00 setgray ef gr  col-1 s
% Polyline
gs  clippath
8490 8694 m 8550 8454 l 8610 8694 l 8610 8370 l 8490 8370 l cp
clip
n 8550 9000 m 8550 8400 l gs col-1 s gr gr

% arrowhead
n 8490 8694 m 8550 8454 l 8610 8694 l 8550 8694 l 8490 8694 l  cp gs 0.00 setgray ef gr  col-1 s
% Polyline
n 7800 3600 m 9300 3600 l 9300 5100 l 7800 5100 l cp gs col-1 s gr 
% Polyline
n 5475 6825 m 6975 6825 l 6975 8325 l gs col-1 s gr 
% Polyline
n 5550 6750 m 7050 6750 l 7050 8250 l gs col-1 s gr 
% Polyline
n 2475 4725 m 3975 4725 l 3975 6225 l gs col-1 s gr 
% Polyline
n 2550 4650 m 4050 4650 l 4050 6150 l gs col-1 s gr 
% Polyline
n 2475 2625 m 3975 2625 l 3975 4125 l gs col-1 s gr 
% Polyline
n 2550 2550 m 4050 2550 l 4050 4050 l gs col-1 s gr 
% Polyline
n 5475 8925 m 6975 8925 l 6975 10425 l gs col-1 s gr 
% Polyline
n 5550 8850 m 7050 8850 l 7050 10350 l gs col-1 s gr 
% Polyline
n 7875 3525 m 9375 3525 l 9375 5025 l gs col-1 s gr 
% Polyline
n 7950 3450 m 9450 3450 l 9450 4950 l gs col-1 s gr 
% Polyline
n 2400 600 m 3900 600 l 3900 2100 l 2400 2100 l cp gs col-1 s gr 
% Polyline
n 2250 450 m 4125 450 l 4125 10650 l 2250 10650 l cp gs col13 s gr 
% Polyline
n 2325 10725 m 4050 10725 l 4050 11100 l 2325 11100 l cp gs col0 s gr 
% Polyline
gs  clippath
2031 3540 m 2271 3600 l 2031 3660 l 2355 3660 l 2355 3540 l cp
clip
n 1500 3600 m 2325 3600 l gs col-1 s gr gr

% arrowhead
n 2031 3540 m 2271 3600 l 2031 3660 l 2031 3600 l 2031 3540 l  cp gs 0.00 setgray ef gr  col-1 s
% Polyline
gs  clippath
1794 3360 m 1554 3300 l 1794 3240 l 1470 3240 l 1470 3360 l cp
clip
n 2400 3150 m 2550 3150 l 2550 3300 l 1500 3300 l gs col0 s gr gr

% arrowhead
n 1794 3360 m 1554 3300 l 1794 3240 l 1794 3300 l 1794 3360 l  cp gs 0.00 setgray ef gr  col0 s
% Polyline
n 2400 1650 m 1800 1650 l gs col0 s gr 
% Polyline
n 2400 1875 m 1800 1875 l gs col0 s gr 
% Polyline
n 2400 1425 m 1800 1425 l 1800 3150 l 2400 3150 l gs col0 s gr 
% Polyline
gs  clippath
11406 12840 m 11646 12900 l 11406 12960 l 11730 12960 l 11730 12840 l cp
5094 12960 m 4854 12900 l 5094 12840 l 4770 12840 l 4770 12960 l cp
clip
n 4800 12900 m 11700 12900 l gs col0 s gr gr

% arrowhead
n 5094 12960 m 4854 12900 l 5094 12840 l 5094 12900 l 5094 12960 l  cp gs 0.00 setgray ef gr  col0 s
% arrowhead
n 11406 12840 m 11646 12900 l 11406 12960 l 11406 12900 l 11406 12840 l  cp gs 0.00 setgray ef gr  col0 s
% Polyline
gs  clippath
1356 12840 m 1596 12900 l 1356 12960 l 1680 12960 l 1680 12840 l cp
744 12960 m 504 12900 l 744 12840 l 420 12840 l 420 12960 l cp
clip
n 450 12900 m 1650 12900 l gs col0 s gr gr

% arrowhead
n 744 12960 m 504 12900 l 744 12840 l 744 12900 l 744 12960 l  cp gs 0.00 setgray ef gr  col0 s
% arrowhead
n 1356 12840 m 1596 12900 l 1356 12960 l 1356 12900 l 1356 12840 l  cp gs 0.00 setgray ef gr  col0 s
% Polyline
gs  clippath
4281 12840 m 4521 12900 l 4281 12960 l 4605 12960 l 4605 12840 l cp
2094 12960 m 1854 12900 l 2094 12840 l 1770 12840 l 1770 12960 l cp
clip
n 1800 12900 m 4575 12900 l gs col0 s gr gr

% arrowhead
n 2094 12960 m 1854 12900 l 2094 12840 l 2094 12900 l 2094 12960 l  cp gs 0.00 setgray ef gr  col0 s
% arrowhead
n 4281 12840 m 4521 12900 l 4281 12960 l 4281 12900 l 4281 12840 l  cp gs 0.00 setgray ef gr  col0 s
% Polyline
gs  clippath
5106 7590 m 5346 7650 l 5106 7710 l 5430 7710 l 5430 7590 l cp
clip
n 3900 7650 m 5400 7650 l gs col-1 s gr gr

% arrowhead
n 5106 7590 m 5346 7650 l 5106 7710 l 5106 7650 l 5106 7590 l  cp gs 0.00 setgray ef gr  col-1 s
% Polyline
gs  clippath
5106 9690 m 5346 9750 l 5106 9810 l 5430 9810 l 5430 9690 l cp
clip
n 3900 9750 m 5400 9750 l gs col-1 s gr gr

% arrowhead
n 5106 9690 m 5346 9750 l 5106 9810 l 5106 9750 l 5106 9690 l  cp gs 0.00 setgray ef gr  col-1 s
% Polyline
gs  clippath
2106 9690 m 2346 9750 l 2106 9810 l 2430 9810 l 2430 9690 l cp
clip
n 2400 5700 m 1875 5700 l 1875 9750 l 2400 9750 l gs col-1 s gr gr

% arrowhead
n 2106 9690 m 2346 9750 l 2106 9810 l 2106 9750 l 2106 9690 l  cp gs 0.00 setgray ef gr  col-1 s
% Polyline
gs  clippath
2106 7590 m 2346 7650 l 2106 7710 l 2430 7710 l 2430 7590 l cp
clip
n 2400 6000 m 2025 6000 l 2025 7650 l 2400 7650 l gs col-1 s gr gr

% arrowhead
n 2106 7590 m 2346 7650 l 2106 7710 l 2106 7650 l 2106 7590 l  cp gs 0.00 setgray ef gr  col-1 s
% Polyline
gs  clippath
7506 3840 m 7746 3900 l 7506 3960 l 7830 3960 l 7830 3840 l cp
clip
n 3900 3900 m 7800 3900 l gs col-1 s gr gr

% arrowhead
n 7506 3840 m 7746 3900 l 7506 3960 l 7506 3900 l 7506 3840 l  cp gs 0.00 setgray ef gr  col-1 s
% Polyline
gs  clippath
7506 4740 m 7746 4800 l 7506 4860 l 7830 4860 l 7830 4740 l cp
clip
n 3900 7200 m 4800 7200 l 4800 4800 l 7800 4800 l gs col0 s gr gr

% arrowhead
n 7506 4740 m 7746 4800 l 7506 4860 l 7506 4800 l 7506 4740 l  cp gs 0.00 setgray ef gr  col0 s
% Polyline
n 10200 9000 m 11700 9000 l 11700 10500 l 10200 10500 l cp gs col-1 s gr 
% Polyline
gs  clippath
9906 9690 m 10146 9750 l 9906 9810 l 10230 9810 l 10230 9690 l cp
clip
n 9300 9750 m 10200 9750 l gs col-1 s gr gr

% arrowhead
n 9906 9690 m 10146 9750 l 9906 9810 l 9906 9750 l 9906 9690 l  cp gs 0.00 setgray ef gr  col-1 s
% Polyline
n 10275 8925 m 11775 8925 l 11775 10425 l gs col-1 s gr 
% Polyline
n 10350 8850 m 11850 8850 l 11850 10350 l gs col-1 s gr 
% Polyline
gs  clippath
9594 4860 m 9354 4800 l 9594 4740 l 9270 4740 l 9270 4860 l cp
clip
n 10200 9300 m 9675 9300 l 9675 5925 l 9675 4800 l 9300 4800 l gs col0 s gr gr

% arrowhead
n 9594 4860 m 9354 4800 l 9594 4740 l 9594 4800 l 9594 4860 l  cp gs 0.00 setgray ef gr  col0 s
% Polyline
gs  clippath
9594 4635 m 9354 4575 l 9594 4515 l 9270 4515 l 9270 4635 l cp
clip
n 10500 4575 m 9300 4575 l gs col23 s gr gr

% arrowhead
n 9594 4635 m 9354 4575 l 9594 4515 l 9594 4575 l 9594 4635 l  cp gs col23 1.00 shd ef gr  col23 s
% Polyline
n 11100 6900 m 11100 7200 l gs col0 s gr 
% Polyline
gs  clippath
4194 1635 m 3954 1575 l 4194 1515 l 3870 1515 l 3870 1635 l cp
clip
n 11100 4200 m 11100 1575 l 3900 1575 l gs col23 s gr gr

% arrowhead
n 4194 1635 m 3954 1575 l 4194 1515 l 4194 1575 l 4194 1635 l  cp gs col23 1.00 shd ef gr  col23 s
% Polyline
n 11100 4500 m 11100 3975 l gs col23 s gr 
% Polyline
gs  clippath
4194 2010 m 3954 1950 l 4194 1890 l 3870 1890 l 3870 2010 l cp
clip
n 5400 1950 m 3900 1950 l gs col0 s gr gr

% arrowhead
n 4194 2010 m 3954 1950 l 4194 1890 l 4194 1950 l 4194 2010 l  cp gs 0.00 setgray ef gr  col0 s
% Polyline
n 5400 1800 m 6900 1800 l 6900 2550 l 5400 2550 l cp gs col0 s gr 
% Polyline
n 9900 7800 m 11100 7800 l 11100 8400 l 9900 8400 l cp gs col1 s gr 
% Polyline
n 9900 6900 m 11100 6900 l 11100 7500 l 9900 7500 l cp gs col1 s gr 
% Polyline
n 10500 7500 m 10500 7800 l gs col0 s gr 
% Polyline
n 9900 6000 m 11100 6000 l 11100 6600 l 9900 6600 l cp gs col1 s gr 
% Polyline
n 10500 6600 m 10500 6900 l gs col0 s gr 
% Polyline
gs  clippath
10665 5394 m 10725 5154 l 10785 5394 l 10785 5070 l 10665 5070 l cp
clip
n 10725 6000 m 10725 5100 l gs col0 s gr gr

% arrowhead
n 10665 5394 m 10725 5154 l 10785 5394 l 10725 5394 l 10665 5394 l  cp gs 0.00 setgray ef gr  col0 s
% Polyline
gs  clippath
9606 8040 m 9846 8100 l 9606 8160 l 9930 8160 l 9930 8040 l cp
clip
n 9300 8100 m 9900 8100 l gs col0 s gr gr

% arrowhead
n 9606 8040 m 9846 8100 l 9606 8160 l 9606 8100 l 9606 8040 l  cp gs 0.00 setgray ef gr  col0 s
% Polyline
n 10500 4500 m 11700 4500 l 11700 5100 l 10500 5100 l cp gs col0 s gr 
% Polyline
n 11175 6000 m 12375 6000 l 12375 6600 l 11175 6600 l cp gs col0 s gr 
% Polyline
gs  clippath
11340 5394 m 11400 5154 l 11460 5394 l 11460 5070 l 11340 5070 l cp
clip
n 11400 6000 m 11400 5100 l gs col0 s gr gr

% arrowhead
n 11340 5394 m 11400 5154 l 11460 5394 l 11400 5394 l 11340 5394 l  cp gs 0.00 setgray ef gr  col0 s
% Polyline
gs  clippath
11994 10335 m 11754 10275 l 11994 10215 l 11670 10215 l 11670 10335 l cp
clip
n 11700 4575 m 12600 4575 l 12600 10275 l 11700 10275 l gs col23 s gr gr

% arrowhead
n 11994 10335 m 11754 10275 l 11994 10215 l 11994 10275 l 11994 10335 l  cp gs col23 1.00 shd ef gr  col23 s
% Polyline
n 375 3150 m 1500 3150 l 1500 4050 l 375 4050 l cp gs col0 s gr 
/Times-Bold-iso ff 225.00 scf sf
2475 5775 m
gs 1 -1 sc (Gatesum) col0 sh gr
/Times-Bold-iso ff 225.00 scf sf
2475 6075 m
gs 1 -1 sc (Cluster) col0 sh gr
/Times-Bold-iso ff 225.00 scf sf
4875 3825 m
gs 1 -1 sc (Normal CsI Data \(8736\)) col0 sh gr
/Times-Bold-iso ff 225.00 scf sf
5025 4725 m
gs 1 -1 sc (Cluster timing \(592\)) col0 sh gr
/Times-Bold-iso ff 225.00 scf sf
4500 7575 m
gs 1 -1 sc (\(592\)) col0 sh gr
/Times-Bold-iso ff 225.00 scf sf
4500 9675 m
gs 1 -1 sc (\(144\)) col0 sh gr
/Times-Bold-iso ff 225.00 scf sf
7125 9675 m
gs 1 -1 sc (\(18\)) col0 sh gr
/Times-Bold-iso ff 225.00 scf sf
7125 7500 m
gs 1 -1 sc (\(ICN\)) col0 sh gr
/Times-Bold-iso ff 225.00 scf sf
7125 7275 m
gs 1 -1 sc (24bit) col0 sh gr
/Times-Bold-iso ff 300.00 scf sf
2400 11025 m
gs 1 -1 sc (TKO Crate) col0 sh gr
/Times-Bold-iso ff 225.00 scf sf
4125 11025 m
gs 1 -1 sc (\(8+36+8\)) col0 sh gr
/Times-Bold-iso ff 375.00 scf sf
2775 975 m
gs 1 -1 sc (CAL) col20 sh gr
/Times-Bold-iso ff 375.00 scf sf
2625 3075 m
gs 1 -1 sc (SHQT) col20 sh gr
/Times-Bold-iso ff 375.00 scf sf
2775 5175 m
gs 1 -1 sc (STM) col20 sh gr
/Times-Bold-iso ff 375.00 scf sf
2850 7275 m
gs 1 -1 sc (CB) col20 sh gr
/Times-Bold-iso ff 375.00 scf sf
2775 9375 m
gs 1 -1 sc (AAA) col20 sh gr
/Times-Bold-iso ff 375.00 scf sf
5700 7275 m
gs 1 -1 sc (CCM) col20 sh gr
/Times-Bold-iso ff 375.00 scf sf
5775 9375 m
gs 1 -1 sc (AAB) col20 sh gr
/Times-Bold-iso ff 375.00 scf sf
8100 9375 m
gs 1 -1 sc (EBM) col20 sh gr
/Times-Bold-iso ff 375.00 scf sf
8100 7275 m
gs 1 -1 sc (ETM) col20 sh gr
/Times-BoldItalic-iso ff 300.00 scf sf
525 12825 m
gs 1 -1 sc (Inside) col0 sh gr
/Times-BoldItalic-iso ff 300.00 scf sf
375 13200 m
gs 1 -1 sc (Detector) col0 sh gr
/Times-BoldItalic-iso ff 300.00 scf sf
2025 13200 m
gs 1 -1 sc (Around Detector) col0 sh gr
/Times-BoldItalic-iso ff 300.00 scf sf
7125 13200 m
gs 1 -1 sc (Electronics Hut) col0 sh gr
/Times-BoldItalic-iso ff 225.00 scf sf
7875 10200 m
gs 1 -1 sc (Bhabha\(11bit\)) col0 sh gr
/Times-BoldItalic-iso ff 225.00 scf sf
7875 9900 m
gs 1 -1 sc (Etot\(3bit\)) col0 sh gr
/Times-BoldItalic-iso ff 225.00 scf sf
2700 8160 m
gs 1 -1 sc (4-output) col0 sh gr
/Times-BoldItalic-iso ff 225.00 scf sf
2550 9900 m
gs 1 -1 sc (First-stage) col0 sh gr
/Times-BoldItalic-iso ff 225.00 scf sf
5475 9900 m
gs 1 -1 sc (Second-stage) col0 sh gr
/Times-BoldItalic-iso ff 225.00 scf sf
5475 10125 m
gs 1 -1 sc (Phi-ring sum) col0 sh gr
/Times-BoldItalic-iso ff 225.00 scf sf
5700 10350 m
gs 1 -1 sc (\(3+12+3\)) col0 sh gr
/Times-BoldItalic-iso ff 225.00 scf sf
2550 10125 m
gs 1 -1 sc (Analog sum) col0 sh gr
/Times-BoldItalic-iso ff 225.00 scf sf
5550 7650 m
gs 1 -1 sc (ICN Cluster) col0 sh gr
/Times-BoldItalic-iso ff 225.00 scf sf
5700 7875 m
gs 1 -1 sc (Counting) col0 sh gr
/Times-BoldItalic-iso ff 225.00 scf sf
5475 8175 m
gs 1 -1 sc (\(132TC/board\)) col0 sh gr
/Times-BoldItalic-iso ff 225.00 scf sf
7950 7800 m
gs 1 -1 sc (Final CsI) col0 sh gr
/Times-BoldItalic-iso ff 225.00 scf sf
7950 8100 m
gs 1 -1 sc (Trigger Info.) col0 sh gr
/Times-BoldItalic-iso ff 225.00 scf sf
2700 7950 m
gs 1 -1 sc (12-input) col0 sh gr
/Times-BoldItalic-iso ff 225.00 scf sf
2700 7650 m
gs 1 -1 sc (Bridge) col0 sh gr
/Times-BoldItalic-iso ff 225.00 scf sf
2550 3600 m
gs 1 -1 sc (\(16ch/board\)) col0 sh gr
/Times-BoldItalic-iso ff 225.00 scf sf
2550 5475 m
gs 1 -1 sc (\(32ch/board\)) col0 sh gr
/Times-Bold-iso ff 225.00 scf sf
7950 8850 m
gs 1 -1 sc (14bit) col0 sh gr
/Times-Bold-iso ff 375.00 scf sf
10650 9375 m
gs 1 -1 sc (QT) col20 sh gr
/Times-Bold-iso ff 225.00 scf sf
11850 10575 m
gs 1 -1 sc (GATE) col0 sh gr
/Times-Bold-iso ff 225.00 scf sf
9450 9675 m
gs 1 -1 sc (\(15\)) col0 sh gr
/Times-BoldItalic-iso ff 225.00 scf sf
10350 9900 m
gs 1 -1 sc (Pulse-height) col0 sh gr
/Times-BoldItalic-iso ff 225.00 scf sf
10575 10200 m
gs 1 -1 sc (measure) col0 sh gr
/Times-Bold-iso ff 225.00 scf sf
9600 7050 m
gs 1 -1 sc  90.0 rot (Bhabha\(11\)+Etot\(4\)) col0 sh gr
/Times-Bold-iso ff 225.00 scf sf
4275 1500 m
gs 1 -1 sc (GATE) col0 sh gr
/Times-Bold-iso ff 225.00 scf sf
2475 1725 m
gs 1 -1 sc (LED-pulse) col0 sh gr
/Times-Bold-iso ff 225.00 scf sf
2475 1950 m
gs 1 -1 sc (PD-bias) col0 sh gr
/Times-Bold-iso ff 225.00 scf sf
2475 1500 m
gs 1 -1 sc (TEST-pulse) col0 sh gr
/Times-Bold-iso ff 225.00 scf sf
5700 2100 m
gs 1 -1 sc (PD-bias) col20 sh gr
/Times-Bold-iso ff 225.00 scf sf
5475 2400 m
gs 1 -1 sc (Power Supply) col20 sh gr
/Times-Bold-iso ff 375.00 scf sf
7950 4350 m
gs 1 -1 sc (\(1877S\)) col20 sh gr
/Times-Bold-iso ff 375.00 scf sf
8175 3975 m
gs 1 -1 sc (TDC) col20 sh gr
/Times-BoldItalic-iso ff 225.00 scf sf
7875 4725 m
gs 1 -1 sc (Sparsification) col0 sh gr
/Times-BoldItalic-iso ff 600.00 scf sf
5775 825 m
gs 1 -1 sc (BELLE CsI Electronics) col0 sh gr
/Times-Bold-iso ff 375.00 scf sf
10125 8250 m
gs 1 -1 sc (GDL) col1 sh gr
/Times-Bold-iso ff 375.00 scf sf
10125 7350 m
gs 1 -1 sc (SEQ) col1 sh gr
/Times-Bold-iso ff 375.00 scf sf
10050 6450 m
gs 1 -1 sc (TDM) col1 sh gr
/Times-Bold-iso ff 225.00 scf sf
11325 6225 m
gs 1 -1 sc (OUTPUT) col20 sh gr
/Times-Bold-iso ff 225.00 scf sf
11250 6525 m
gs 1 -1 sc (REGISTER) col20 sh gr
/Times-Bold-iso ff 375.00 scf sf
10725 4950 m
gs 1 -1 sc (PDG) col20 sh gr
/Times-BoldItalic-iso ff 225.00 scf sf
9900 5625 m
gs 1 -1 sc (Normal) col10 sh gr
/Times-BoldItalic-iso ff 225.00 scf sf
10050 5850 m
gs 1 -1 sc (Run) col10 sh gr
/Times-BoldItalic-iso ff 225.00 scf sf
11700 5850 m
gs 1 -1 sc (Run) col10 sh gr
/Times-BoldItalic-iso ff 225.00 scf sf
11475 5625 m
gs 1 -1 sc (Calibration) col10 sh gr
/Times-Bold-iso ff 225.00 scf sf
6750 4200 m
gs 1 -1 sc (\(START\)) col23 sh gr
/Times-Bold-iso ff 225.00 scf sf
6825 5100 m
gs 1 -1 sc (\(STOP\)) col23 sh gr
/Times-Bold-iso ff 225.00 scf sf
9375 6075 m
gs 1 -1 sc  90.0 rot (\(START\)) col23 sh gr
/Times-Bold-iso ff 225.00 scf sf
1800 11400 m
gs 1 -1 sc (1 Calibration) col0 sh gr
/Times-Bold-iso ff 225.00 scf sf
1800 11700 m
gs 1 -1 sc (12 Shaper/QT) col0 sh gr
/Times-Bold-iso ff 225.00 scf sf
1800 12000 m
gs 1 -1 sc (6 Sum/Trigger) col0 sh gr
/Times-Bold-iso ff 225.00 scf sf
1800 12300 m
gs 1 -1 sc (1 Connector Board) col0 sh gr
/Times-Bold-iso ff 225.00 scf sf
1800 12600 m
gs 1 -1 sc (1 Analog Adder-A) col0 sh gr
/Times-Bold-iso ff 225.00 scf sf
4275 11400 m
gs 1 -1 sc (1 Calibration) col0 sh gr
/Times-Bold-iso ff 225.00 scf sf
4275 12300 m
gs 1 -1 sc (1 Connector Board) col0 sh gr
/Times-Bold-iso ff 225.00 scf sf
4275 12600 m
gs 1 -1 sc (1 Analog Adder-A) col0 sh gr
/Times-Bold-iso ff 225.00 scf sf
1650 12525 m
gs 1 -1 sc  90.0 rot (\(BARREL\)) col0 sh gr
/Times-Bold-iso ff 225.00 scf sf
4125 12525 m
gs 1 -1 sc  90.0 rot (\(ENDCAP\)) col0 sh gr
/Times-Bold-iso ff 225.00 scf sf
4275 11700 m
gs 1 -1 sc (10 Shaper/QT) col0 sh gr
/Times-Bold-iso ff 225.00 scf sf
4275 12000 m
gs 1 -1 sc (5 Sum/Trigger) col0 sh gr
/Times-Bold-iso ff 225.00 scf sf
675 3525 m
gs 1 -1 sc (PD+) col20 sh gr
/Times-Bold-iso ff 225.00 scf sf
450 3825 m
gs 1 -1 sc (PREAMP) col20 sh gr
$F2psEnd
rs
