%!PS-Adobe-2.0 EPSF-2.0
%%Title: toffet.eps
%%Creator: fig2dev Version 3.2 Patchlevel 1
%%CreationDate: Tue Aug 15 14:42:14 2000
%%For: casey@uhhepq.phys.hawaii.edu (Brendan Casey)
%%Orientation: Portrait
%%BoundingBox: 0 0 512 613
%%Pages: 0
%%BeginSetup
%%EndSetup
%%Magnification: 1.0000
%%EndComments
/$F2psDict 200 dict def
$F2psDict begin
$F2psDict /mtrx matrix put
/col-1 {0 setgray} bind def
/col0 {0.000 0.000 0.000 srgb} bind def
/col1 {0.000 0.000 1.000 srgb} bind def
/col2 {0.000 1.000 0.000 srgb} bind def
/col3 {0.000 1.000 1.000 srgb} bind def
/col4 {1.000 0.000 0.000 srgb} bind def
/col5 {1.000 0.000 1.000 srgb} bind def
/col6 {1.000 1.000 0.000 srgb} bind def
/col7 {1.000 1.000 1.000 srgb} bind def
/col8 {0.000 0.000 0.560 srgb} bind def
/col9 {0.000 0.000 0.690 srgb} bind def
/col10 {0.000 0.000 0.820 srgb} bind def
/col11 {0.530 0.810 1.000 srgb} bind def
/col12 {0.000 0.560 0.000 srgb} bind def
/col13 {0.000 0.690 0.000 srgb} bind def
/col14 {0.000 0.820 0.000 srgb} bind def
/col15 {0.000 0.560 0.560 srgb} bind def
/col16 {0.000 0.690 0.690 srgb} bind def
/col17 {0.000 0.820 0.820 srgb} bind def
/col18 {0.560 0.000 0.000 srgb} bind def
/col19 {0.690 0.000 0.000 srgb} bind def
/col20 {0.820 0.000 0.000 srgb} bind def
/col21 {0.560 0.000 0.560 srgb} bind def
/col22 {0.690 0.000 0.690 srgb} bind def
/col23 {0.820 0.000 0.820 srgb} bind def
/col24 {0.500 0.190 0.000 srgb} bind def
/col25 {0.630 0.250 0.000 srgb} bind def
/col26 {0.750 0.380 0.000 srgb} bind def
/col27 {1.000 0.500 0.500 srgb} bind def
/col28 {1.000 0.630 0.630 srgb} bind def
/col29 {1.000 0.750 0.750 srgb} bind def
/col30 {1.000 0.880 0.880 srgb} bind def
/col31 {1.000 0.840 0.000 srgb} bind def

end
save
-7.0 704.0 translate
1 -1 scale

/cp {closepath} bind def
/ef {eofill} bind def
/gr {grestore} bind def
/gs {gsave} bind def
/sa {save} bind def
/rs {restore} bind def
/l {lineto} bind def
/m {moveto} bind def
/rm {rmoveto} bind def
/n {newpath} bind def
/s {stroke} bind def
/sh {show} bind def
/slc {setlinecap} bind def
/slj {setlinejoin} bind def
/slw {setlinewidth} bind def
/srgb {setrgbcolor} bind def
/rot {rotate} bind def
/sc {scale} bind def
/sd {setdash} bind def
/ff {findfont} bind def
/sf {setfont} bind def
/scf {scalefont} bind def
/sw {stringwidth} bind def
/tr {translate} bind def
/tnt {dup dup currentrgbcolor
  4 -2 roll dup 1 exch sub 3 -1 roll mul add
  4 -2 roll dup 1 exch sub 3 -1 roll mul add
  4 -2 roll dup 1 exch sub 3 -1 roll mul add srgb}
  bind def
/shd {dup dup currentrgbcolor 4 -2 roll mul 4 -2 roll mul
  4 -2 roll mul srgb} bind def
/$F2psBegin {$F2psDict begin /$F2psEnteredState save def} def
/$F2psEnd {$F2psEnteredState restore end} def
%%EndProlog

$F2psBegin
10 setmiterlimit
n -1000 12728 m -1000 -1000 l 9647 -1000 l 9647 12728 l cp clip
 0.06000 0.06000 sc
% Polyline
7.500 slw
n 6480 8250 m 6375 8250 6375 8595 105 arcto 4 {pop} repeat
  6375 8700 6720 8700 105 arcto 4 {pop} repeat
  6825 8700 6825 8355 105 arcto 4 {pop} repeat
  6825 8250 6480 8250 105 arcto 4 {pop} repeat
 cp gs col0 s gr 
% Polyline
n 6930 8250 m 6825 8250 6825 8595 105 arcto 4 {pop} repeat
  6825 8700 7170 8700 105 arcto 4 {pop} repeat
  7275 8700 7275 8355 105 arcto 4 {pop} repeat
  7275 8250 6930 8250 105 arcto 4 {pop} repeat
 cp gs col0 s gr 
% Polyline
n 7380 8250 m 7275 8250 7275 8595 105 arcto 4 {pop} repeat
  7275 8700 7620 8700 105 arcto 4 {pop} repeat
  7725 8700 7725 8355 105 arcto 4 {pop} repeat
  7725 8250 7380 8250 105 arcto 4 {pop} repeat
 cp gs col0 s gr 
% Polyline
n 7830 8250 m 7725 8250 7725 8595 105 arcto 4 {pop} repeat
  7725 8700 8070 8700 105 arcto 4 {pop} repeat
  8175 8700 8175 8355 105 arcto 4 {pop} repeat
  8175 8250 7830 8250 105 arcto 4 {pop} repeat
 cp gs col0 s gr 
% Polyline
n 8280 8250 m 8175 8250 8175 8595 105 arcto 4 {pop} repeat
  8175 8700 8520 8700 105 arcto 4 {pop} repeat
  8625 8700 8625 8355 105 arcto 4 {pop} repeat
  8625 8250 8280 8250 105 arcto 4 {pop} repeat
 cp gs col0 s gr 
% Polyline
n 5925 8850 m 6825 8850 l 6825 9000 l 5925 9000 l cp gs col0 s gr 
% Polyline
n 6825 8850 m 7725 8850 l 7725 9000 l 6825 9000 l cp gs col0 s gr 
% Polyline
n 7725 8850 m 8625 8850 l 8625 9000 l 7725 9000 l cp gs col0 s gr 
% Polyline
n 6480 8250 m 6375 8250 6375 8595 105 arcto 4 {pop} repeat
  6375 8700 6720 8700 105 arcto 4 {pop} repeat
  6825 8700 6825 8355 105 arcto 4 {pop} repeat
  6825 8250 6480 8250 105 arcto 4 {pop} repeat
 cp gs 0.50 setgray ef gr gs col0 s gr 
% Polyline
n 6930 8250 m 6825 8250 6825 8595 105 arcto 4 {pop} repeat
  6825 8700 7170 8700 105 arcto 4 {pop} repeat
  7275 8700 7275 8355 105 arcto 4 {pop} repeat
  7275 8250 6930 8250 105 arcto 4 {pop} repeat
 cp gs 0.50 setgray ef gr gs col0 s gr 
% Polyline
n 7380 8250 m 7275 8250 7275 8595 105 arcto 4 {pop} repeat
  7275 8700 7620 8700 105 arcto 4 {pop} repeat
  7725 8700 7725 8355 105 arcto 4 {pop} repeat
  7725 8250 7380 8250 105 arcto 4 {pop} repeat
 cp gs 0.50 setgray ef gr gs col0 s gr 
% Polyline
n 7830 8250 m 7725 8250 7725 8595 105 arcto 4 {pop} repeat
  7725 8700 8070 8700 105 arcto 4 {pop} repeat
  8175 8700 8175 8355 105 arcto 4 {pop} repeat
  8175 8250 7830 8250 105 arcto 4 {pop} repeat
 cp gs 0.50 setgray ef gr gs col0 s gr 
% Polyline
n 6900 8850 m 6825 8850 6825 8925 75 arcto 4 {pop} repeat
  6825 9000 7650 9000 75 arcto 4 {pop} repeat
  7725 9000 7725 8925 75 arcto 4 {pop} repeat
  7725 8850 6900 8850 75 arcto 4 {pop} repeat
 cp gs 0.50 setgray ef gr gs col0 s gr 
% Polyline
n 6480 8250 m 6375 8250 6375 8595 105 arcto 4 {pop} repeat
  6375 8700 6720 8700 105 arcto 4 {pop} repeat
  6825 8700 6825 8355 105 arcto 4 {pop} repeat
  6825 8250 6480 8250 105 arcto 4 {pop} repeat
 cp gs 0.00 setgray ef gr gs col0 s gr 
% Polyline
n 6825 8850 m 7725 8850 l 7725 9000 l 6825 9000 l cp gs 0.00 setgray ef gr gs col0 s gr 
/Times-Roman ff 300.00 scf sf
5325 8550 m
gs 1 -1 sc (TOF) col0 sh gr
/Times-Roman ff 300.00 scf sf
5325 9000 m
gs 1 -1 sc (TSC) col0 sh gr
% Arc
gs n 2454.1 11257.5 317.9 -43.4 43.4 arc
gs col0 s gr
 gr

% Polyline
n 2685 11476 m 2860 11476 l gs col0 s gr 
% Polyline
n 2685 11039 m 2860 11039 l gs col0 s gr 
% Polyline
n 3297 11258 m 3295 11260 l 3290 11264 l 3282 11272 l 3270 11282 l 3255 11296 l
 3236 11312 l 3217 11329 l 3196 11346 l 3176 11363 l 3156 11379 l
 3138 11394 l 3122 11406 l 3106 11417 l 3092 11426 l 3078 11433 l
 3062 11440 l 3046 11446 l 3028 11451 l 3008 11456 l 2986 11460 l
 2963 11464 l 2940 11467 l 2917 11470 l 2898 11472 l 2881 11474 l
 2870 11475 l 2863 11476 l 2860 11476 l gs col0 s gr 
% Polyline
n 3297 11258 m 3295 11256 l 3290 11252 l 3282 11244 l 3270 11234 l 3255 11220 l
 3236 11204 l 3217 11187 l 3196 11170 l 3176 11153 l 3156 11137 l
 3138 11122 l 3122 11110 l 3106 11099 l 3092 11090 l 3078 11083 l
 3062 11076 l 3046 11070 l 3028 11064 l 3008 11060 l 2986 11056 l
 2963 11052 l 2940 11049 l 2917 11046 l 2898 11043 l 2881 11041 l
 2870 11040 l 2863 11039 l 2860 11039 l gs col0 s gr 
% Arc
gs n 3819.1 11257.5 317.9 -43.4 43.4 arc
gs col0 s gr
 gr

% Polyline
n 4050 11476 m 4225 11476 l gs col0 s gr 
% Polyline
n 4050 11039 m 4225 11039 l gs col0 s gr 
% Polyline
n 4662 11258 m 4660 11260 l 4655 11264 l 4647 11272 l 4635 11282 l 4620 11296 l
 4601 11312 l 4582 11329 l 4561 11346 l 4541 11363 l 4521 11379 l
 4503 11394 l 4487 11406 l 4471 11417 l 4457 11426 l 4443 11433 l
 4427 11440 l 4411 11446 l 4393 11451 l 4373 11456 l 4351 11460 l
 4328 11464 l 4305 11467 l 4282 11470 l 4263 11472 l 4246 11474 l
 4235 11475 l 4228 11476 l 4225 11476 l gs col0 s gr 
% Polyline
n 4662 11258 m 4660 11256 l 4655 11252 l 4647 11244 l 4635 11234 l 4620 11220 l
 4601 11204 l 4582 11187 l 4561 11170 l 4541 11153 l 4521 11137 l
 4503 11122 l 4487 11110 l 4471 11099 l 4457 11090 l 4443 11083 l
 4427 11076 l 4411 11070 l 4393 11064 l 4373 11060 l 4351 11056 l
 4328 11052 l 4305 11049 l 4282 11046 l 4263 11043 l 4246 11041 l
 4235 11040 l 4228 11039 l 4225 11039 l gs col0 s gr 
% Arc
gs n 5364.1 11257.5 317.9 -43.4 43.4 arc
gs col0 s gr
 gr

% Polyline
n 5595 11476 m 5770 11476 l gs col0 s gr 
% Polyline
n 5595 11039 m 5770 11039 l gs col0 s gr 
% Polyline
n 6207 11258 m 6205 11260 l 6200 11264 l 6192 11272 l 6180 11282 l 6165 11296 l
 6146 11312 l 6127 11329 l 6106 11346 l 6086 11363 l 6066 11379 l
 6048 11394 l 6032 11406 l 6016 11417 l 6002 11426 l 5988 11433 l
 5972 11440 l 5956 11446 l 5938 11451 l 5918 11456 l 5896 11460 l
 5873 11464 l 5850 11467 l 5827 11470 l 5808 11472 l 5791 11474 l
 5780 11475 l 5773 11476 l 5770 11476 l gs col0 s gr 
% Polyline
n 6207 11258 m 6205 11256 l 6200 11252 l 6192 11244 l 6180 11234 l 6165 11220 l
 6146 11204 l 6127 11187 l 6106 11170 l 6086 11153 l 6066 11137 l
 6048 11122 l 6032 11110 l 6016 11099 l 6002 11090 l 5988 11083 l
 5972 11076 l 5956 11070 l 5938 11064 l 5918 11060 l 5896 11056 l
 5873 11052 l 5850 11049 l 5827 11046 l 5808 11043 l 5791 11041 l
 5780 11040 l 5773 11039 l 5770 11039 l gs col0 s gr 
% Arc
gs n 7050.0 2925.0 300.0 -90.0 90.0 arc
gs col0 s gr
 gr

% Arc
15.000 slw
gs  clippath
6303 8098 m 6243 7971 l 6360 8049 l 6234 7903 l 6177 7952 l cp
clip
n 3546.7 10383.6 3618.8 -18.7 -42.3 arcn
gs col0 s gr
 gr

% arrowhead
n 6303 8098 m 6243 7971 l 6360 8049 l 6331 8074 l 6303 8098 l  cp gs 0.00 setgray ef gr  col0 s
% Arc
7.500 slw
gs n 4800.0 9750.0 300.0 -90.0 90.0 arc
gs col0 s gr
 gr

% Arc
gs n 2006.2 8850.0 543.7 -43.6 43.6 arc
gs col0 s gr
 gr

% Polyline
n 855 2550 m 750 2550 750 3195 105 arcto 4 {pop} repeat
  750 3300 1695 3300 105 arcto 4 {pop} repeat
  1800 3300 1800 2655 105 arcto 4 {pop} repeat
  1800 2550 855 2550 105 arcto 4 {pop} repeat
 cp gs 0.00 setgray ef gr gs col0 s gr 
% Polyline
n 3105 3150 m 3000 3150 3000 3945 105 arcto 4 {pop} repeat
  3000 4050 3795 4050 105 arcto 4 {pop} repeat
  3900 4050 3900 3255 105 arcto 4 {pop} repeat
  3900 3150 3105 3150 105 arcto 4 {pop} repeat
 cp gs col0 s gr 
% Polyline
n 3105 1800 m 3000 1800 3000 2595 105 arcto 4 {pop} repeat
  3000 2700 3795 2700 105 arcto 4 {pop} repeat
  3900 2700 3900 1905 105 arcto 4 {pop} repeat
  3900 1800 3105 1800 105 arcto 4 {pop} repeat
 cp gs col0 s gr 
% Polyline
n 4650 3450 m 5550 3450 l 5550 3750 l 4650 3750 l cp gs 0.00 setgray ef gr gs col0 s gr 
% Polyline
n 7050 2625 m 6750 2625 l 6750 3225 l 7050 3225 l gs col0 s gr 
% Polyline
15.000 slw
n 1800 2925 m 2400 2925 l 2400 2250 l gs col0 s gr 
% Polyline
n 2400 2250 m 3000 2250 l gs col0 s gr 
% Polyline
n 2400 2925 m 2400 3600 l gs col0 s gr 
% Polyline
n 2400 3600 m 3000 3600 l gs col0 s gr 
% Polyline
n 3900 3600 m 4650 3600 l gs col0 s gr 
% Polyline
n 5550 3600 m 6150 3600 l 6150 3075 l 6750 3075 l gs col0 s gr 
% Polyline
n 3900 2250 m 6150 2250 l gs col0 s gr 
% Polyline
n 6150 2250 m 6150 2775 l gs col0 s gr 
% Polyline
n 6150 2775 m 6750 2775 l gs col0 s gr 
% Polyline
gs  clippath
7787 2888 m 7921 2925 l 7787 2963 l 7980 2963 l 7980 2888 l cp
clip
n 7350 2925 m 7950 2925 l gs col0 s gr gr

% arrowhead
n 7787 2888 m 7921 2925 l 7787 2963 l 7787 2925 l 7787 2888 l  cp gs 0.00 setgray ef gr  col0 s
% Polyline
 [90] 0 sd
n 150 4800 m 8550 4800 l gs 0.00 setgray ef gr gs col0 s gr  [] 0 sd
% Polyline
7.500 slw
n 3555 5100 m 3450 5100 3450 6795 105 arcto 4 {pop} repeat
  3450 6900 3945 6900 105 arcto 4 {pop} repeat
  4050 6900 4050 5205 105 arcto 4 {pop} repeat
  4050 5100 3555 5100 105 arcto 4 {pop} repeat
 cp gs col0 s gr 
% Polyline
15.000 slw
n 1950 5400 m 3450 5400 l gs col0 s gr 
% Polyline
n 1950 6600 m 3450 6600 l gs col0 s gr 
% Polyline
7.500 slw
n 6030 8250 m 5925 8250 5925 8595 105 arcto 4 {pop} repeat
  5925 8700 6270 8700 105 arcto 4 {pop} repeat
  6375 8700 6375 8355 105 arcto 4 {pop} repeat
  6375 8250 6030 8250 105 arcto 4 {pop} repeat
 cp gs col0 s gr 
% Polyline
15.000 slw
gs  clippath
5312 5888 m 5446 5925 l 5312 5963 l 5505 5963 l 5505 5888 l cp
clip
n 4050 5925 m 5475 5925 l gs col0 s gr gr

% arrowhead
n 5312 5888 m 5446 5925 l 5312 5963 l 5312 5925 l 5312 5888 l  cp gs 0.00 setgray ef gr  col0 s
/Times-Roman ff 375.00 scf sf
7275 11625 m
gs 1 -1 sc (Timing) col0 sh gr
% Polyline
 [90] 0 sd
n 150 7800 m 8550 7800 l gs 0.00 setgray ef gr gs col0 s gr  [] 0 sd
% Polyline
n 3450 8850 m 3900 8850 l 3900 9600 l 4500 9600 l gs col0 s gr 
% Polyline
n 4500 9900 m 1500 9900 l gs col0 s gr 
% Polyline
7.500 slw
n 4800 9450 m 4500 9450 l 4500 10050 l 4800 10050 l gs col0 s gr 
% Polyline
15.000 slw
gs  clippath
5987 9713 m 6121 9750 l 5987 9788 l 6180 9788 l 6180 9713 l cp
clip
n 5100 9750 m 6150 9750 l gs col0 s gr gr

% arrowhead
n 5987 9713 m 6121 9750 l 5987 9788 l 5987 9750 l 5987 9713 l  cp gs 0.00 setgray ef gr  col0 s
% Polyline
 [90] 0 sd
n 225 10650 m 8625 10650 l gs 0.00 setgray ef gr gs col0 s gr  [] 0 sd
% Polyline
n 2400 8775 m 1500 8775 l gs col0 s gr 
% Polyline
n 2400 8925 m 1500 8925 l gs col0 s gr 
% Polyline
n 2400 8625 m 1500 8625 l gs col0 s gr 
% Polyline
n 2400 9075 m 1500 9075 l gs col0 s gr 
% Polyline
7.500 slw
n 2400 8475 m 2700 8475 l gs col0 s gr 
% Polyline
n 2400 9225 m 2700 9225 l gs col0 s gr 
% Polyline
15.000 slw
n 2505 8625 m 2415 8625 l 2430 8610 l gs col0 s gr 
% Polyline
n 2565 8925 m 2400 8910 l gs col0 s gr 
% Polyline
n 2505 9075 m 2355 9060 l gs col0 s gr 
% Polyline
n 2325 8775 m 2550 8775 l gs col0 s gr 
% Polyline
45.000 slw
n 1800 11250 m 2775 11250 l gs col0 s gr 
% Polyline
30.000 slw
n 3300 11250 m 4125 11250 l gs col0 s gr 
% Polyline
15.000 slw
n 4650 11250 m 5700 11250 l gs col0 s gr 
% Polyline
7.500 slw
gs  clippath
7037 11213 m 7171 11250 l 7037 11288 l 7215 11288 l 7215 11213 l cp
clip
n 6225 11250 m 7200 11250 l gs col0 s gr gr

% arrowhead
15.000 slw
n 7037 11213 m 7171 11250 l 7037 11288 l 7037 11250 l 7037 11213 l  cp gs 0.00 setgray ef gr  col0 s
% Polyline
7.500 slw
n 3450 8850 m 3448 8848 l 3444 8844 l 3436 8837 l 3424 8827 l 3408 8813 l
 3389 8795 l 3365 8775 l 3340 8752 l 3312 8729 l 3284 8705 l
 3256 8681 l 3229 8658 l 3203 8637 l 3178 8618 l 3155 8600 l
 3134 8585 l 3113 8572 l 3094 8560 l 3075 8550 l 3054 8540 l
 3032 8532 l 3009 8524 l 2985 8517 l 2958 8511 l 2930 8506 l
 2900 8500 l 2869 8496 l 2838 8491 l 2807 8487 l 2779 8484 l
 2755 8481 l 2734 8479 l 2719 8477 l 2709 8476 l 2703 8475 l
 2700 8475 l gs col0 s gr 
% Polyline
n 3450 8850 m 3448 8852 l 3444 8856 l 3436 8863 l 3424 8873 l 3408 8887 l
 3389 8905 l 3365 8925 l 3340 8948 l 3312 8971 l 3284 8995 l
 3256 9019 l 3229 9042 l 3203 9063 l 3178 9082 l 3155 9100 l
 3134 9115 l 3113 9128 l 3094 9140 l 3075 9150 l 3054 9160 l
 3032 9168 l 3009 9176 l 2985 9183 l 2958 9189 l 2930 9194 l
 2900 9200 l 2869 9204 l 2838 9209 l 2807 9213 l 2779 9216 l
 2755 9219 l 2734 9221 l 2719 9223 l 2709 9224 l 2703 9225 l
 2700 9225 l gs col0 s gr 
/Times-Roman ff 300.00 scf sf
4725 3300 m
gs 1 -1 sc (Delay) col0 sh gr
/Times-Roman ff 300.00 scf sf
975 2400 m
gs 1 -1 sc (PMT) col0 sh gr
/Times-Roman ff 300.00 scf sf
2925 1725 m
gs 1 -1 sc (H.L. Disc) col0 sh gr
/Times-Roman ff 300.00 scf sf
2925 4425 m
gs 1 -1 sc (L.L . Disc) col0 sh gr
/Times-Roman ff 300.00 scf sf
6750 2475 m
gs 1 -1 sc (Gate) col0 sh gr
/Times-Roman ff 375.00 scf sf
8100 3075 m
gs 1 -1 sc (T) col0 sh gr
/Times-Roman ff 375.00 scf sf
5625 6075 m
gs 1 -1 sc (T) col0 sh gr
/Times-Roman ff 300.00 scf sf
5850 6150 m
gs 1 -1 sc (mean time) col0 sh gr
/Times-Roman ff 300.00 scf sf
1725 5700 m
gs 1 -1 sc (forward) col0 sh gr
/Times-Roman ff 375.00 scf sf
1500 5550 m
gs 1 -1 sc (T) col0 sh gr
/Times-Roman ff 300.00 scf sf
1800 6900 m
gs 1 -1 sc (backward) col0 sh gr
/Times-Roman ff 375.00 scf sf
1575 6750 m
gs 1 -1 sc (T) col0 sh gr
/Times-Roman ff 300.00 scf sf
3225 7125 m
gs 1 -1 sc (mean timer) col0 sh gr
/Times-Roman ff 300.00 scf sf
6450 8100 m
gs 1 -1 sc (1) col0 sh gr
/Times-Roman ff 300.00 scf sf
6900 8100 m
gs 1 -1 sc (2) col0 sh gr
/Times-Roman ff 300.00 scf sf
7350 8100 m
gs 1 -1 sc (3) col0 sh gr
/Times-Roman ff 300.00 scf sf
7800 8100 m
gs 1 -1 sc (4) col0 sh gr
/Times-Roman ff 300.00 scf sf
6300 9825 m
gs 1 -1 sc (one sector hit) col0 sh gr
/Times-Roman ff 240.00 scf sf
1350 9075 m
gs 1 -1 sc (3) col0 sh gr
/Times-Roman ff 240.00 scf sf
1425 9300 m
gs 1 -1 sc (4) col0 sh gr
/Times-Roman ff 240.00 scf sf
1425 8550 m
gs 1 -1 sc (1) col0 sh gr
/Times-Roman ff 240.00 scf sf
1350 8850 m
gs 1 -1 sc (2) col0 sh gr
/Times-Roman ff 375.00 scf sf
900 8250 m
gs 1 -1 sc (T) col0 sh gr
/Times-Roman ff 300.00 scf sf
1125 8325 m
gs 1 -1 sc (mean time) col0 sh gr
/Times-Roman ff 375.00 scf sf
2400 8250 m
gs 1 -1 sc ([1:4]) col0 sh gr
/Times-Roman ff 375.00 scf sf
975 10050 m
gs 1 -1 sc (T) col0 sh gr
/Times-Roman ff 300.00 scf sf
1200 10200 m
gs 1 -1 sc (TSC) col0 sh gr
/Times-Roman ff 300.00 scf sf
1275 11100 m
gs 1 -1 sc (64 sectors) col0 sh gr
/Times-Roman ff 300.00 scf sf
3525 11175 m
gs 1 -1 sc (32) col0 sh gr
/Times-Roman ff 300.00 scf sf
4950 11175 m
gs 1 -1 sc (16) col0 sh gr
/Times-Roman ff 300.00 scf sf
6600 11175 m
gs 1 -1 sc (1) col0 sh gr
/Times-Roman ff 375.00 scf sf
7275 11175 m
gs 1 -1 sc (Trigger) col0 sh gr
$F2psEnd
rs
