%!PS-Adobe-2.0 EPSF-2.0
%%Title: tofmt.eps
%%Creator: fig2dev Version 3.2 Patchlevel 1
%%CreationDate: Tue Aug 15 15:13:53 2000
%%For: casey@uhhepq.phys.hawaii.edu (Brendan Casey)
%%Orientation: Portrait
%%BoundingBox: 0 0 527 346
%%Pages: 0
%%BeginSetup
%%EndSetup
%%Magnification: 1.0000
%%EndComments
/$F2psDict 200 dict def
$F2psDict begin
$F2psDict /mtrx matrix put
/col-1 {0 setgray} bind def
/col0 {0.000 0.000 0.000 srgb} bind def
/col1 {0.000 0.000 1.000 srgb} bind def
/col2 {0.000 1.000 0.000 srgb} bind def
/col3 {0.000 1.000 1.000 srgb} bind def
/col4 {1.000 0.000 0.000 srgb} bind def
/col5 {1.000 0.000 1.000 srgb} bind def
/col6 {1.000 1.000 0.000 srgb} bind def
/col7 {1.000 1.000 1.000 srgb} bind def
/col8 {0.000 0.000 0.560 srgb} bind def
/col9 {0.000 0.000 0.690 srgb} bind def
/col10 {0.000 0.000 0.820 srgb} bind def
/col11 {0.530 0.810 1.000 srgb} bind def
/col12 {0.000 0.560 0.000 srgb} bind def
/col13 {0.000 0.690 0.000 srgb} bind def
/col14 {0.000 0.820 0.000 srgb} bind def
/col15 {0.000 0.560 0.560 srgb} bind def
/col16 {0.000 0.690 0.690 srgb} bind def
/col17 {0.000 0.820 0.820 srgb} bind def
/col18 {0.560 0.000 0.000 srgb} bind def
/col19 {0.690 0.000 0.000 srgb} bind def
/col20 {0.820 0.000 0.000 srgb} bind def
/col21 {0.560 0.000 0.560 srgb} bind def
/col22 {0.690 0.000 0.690 srgb} bind def
/col23 {0.820 0.000 0.820 srgb} bind def
/col24 {0.500 0.190 0.000 srgb} bind def
/col25 {0.630 0.250 0.000 srgb} bind def
/col26 {0.750 0.380 0.000 srgb} bind def
/col27 {1.000 0.500 0.500 srgb} bind def
/col28 {1.000 0.630 0.630 srgb} bind def
/col29 {1.000 0.750 0.750 srgb} bind def
/col30 {1.000 0.880 0.880 srgb} bind def
/col31 {1.000 0.840 0.000 srgb} bind def

end
save
-61.0 689.0 translate
1 -1 scale

/cp {closepath} bind def
/ef {eofill} bind def
/gr {grestore} bind def
/gs {gsave} bind def
/sa {save} bind def
/rs {restore} bind def
/l {lineto} bind def
/m {moveto} bind def
/rm {rmoveto} bind def
/n {newpath} bind def
/s {stroke} bind def
/sh {show} bind def
/slc {setlinecap} bind def
/slj {setlinejoin} bind def
/slw {setlinewidth} bind def
/srgb {setrgbcolor} bind def
/rot {rotate} bind def
/sc {scale} bind def
/sd {setdash} bind def
/ff {findfont} bind def
/sf {setfont} bind def
/scf {scalefont} bind def
/sw {stringwidth} bind def
/tr {translate} bind def
/tnt {dup dup currentrgbcolor
  4 -2 roll dup 1 exch sub 3 -1 roll mul add
  4 -2 roll dup 1 exch sub 3 -1 roll mul add
  4 -2 roll dup 1 exch sub 3 -1 roll mul add srgb}
  bind def
/shd {dup dup currentrgbcolor 4 -2 roll mul 4 -2 roll mul
  4 -2 roll mul srgb} bind def
/$F2psBegin {$F2psDict begin /$F2psEnteredState save def} def
/$F2psEnd {$F2psEnteredState restore end} def
%%EndProlog

$F2psBegin
10 setmiterlimit
n -1000 12476 m -1000 -1000 l 10790 -1000 l 10790 12476 l cp clip
 0.06000 0.06000 sc
% Polyline
7.500 slw
n 3900 6705 m 4200 6705 l 4200 6780 l 3900 6780 l cp gs 0.00 setgray ef gr gs col0 s gr 
% Polyline
n 3900 6855 m 4200 6855 l 4200 6930 l 3900 6930 l cp gs 0.00 setgray ef gr gs col0 s gr 
% Polyline
n 3900 7005 m 4200 7005 l 4200 7080 l 3900 7080 l cp gs 0.00 setgray ef gr gs col0 s gr 
% Polyline
n 3900 7155 m 4200 7155 l 4200 7230 l 3900 7230 l cp gs 0.00 setgray ef gr gs col0 s gr 
% Polyline
n 3900 7305 m 4200 7305 l 4200 7380 l 3900 7380 l cp gs 0.00 setgray ef gr gs col0 s gr 
% Polyline
n 5415 6420 m 5715 6420 l 5715 6495 l 5415 6495 l cp gs 0.00 setgray ef gr gs col0 s gr 
% Polyline
n 5415 6570 m 5715 6570 l 5715 6645 l 5415 6645 l cp gs 0.00 setgray ef gr gs col0 s gr 
% Polyline
n 5415 6720 m 5715 6720 l 5715 6795 l 5415 6795 l cp gs 0.00 setgray ef gr gs col0 s gr 
% Polyline
n 5415 6870 m 5715 6870 l 5715 6945 l 5415 6945 l cp gs 0.00 setgray ef gr gs col0 s gr 
% Polyline
n 5415 7020 m 5715 7020 l 5715 7095 l 5415 7095 l cp gs 0.00 setgray ef gr gs col0 s gr 
% Polyline
n 5415 7170 m 5715 7170 l 5715 7245 l 5415 7245 l cp gs 0.00 setgray ef gr gs col0 s gr 
% Arc
gs n 2081.2 10725.0 243.7 -67.4 67.4 arc
gs col0 s gr
 gr

% Polyline
n 2775 10725 m 2625 10575 l 2400 10500 l 2250 10500 l gs col0 s gr 
% Polyline
n 2775 10725 m 2625 10875 l 2400 10950 l 2175 10950 l gs col0 s gr 
% Polyline
n 3480 8700 m 3375 8700 3375 9345 105 arcto 4 {pop} repeat
  3375 9450 6270 9450 105 arcto 4 {pop} repeat
  6375 9450 6375 8805 105 arcto 4 {pop} repeat
  6375 8700 3480 8700 105 arcto 4 {pop} repeat
 cp gs col0 s gr 
% Polyline
n 3525 8700 m 3525 9450 l gs col0 s gr 
% Polyline
n 3675 8700 m 3675 9450 l gs col0 s gr 
% Polyline
n 3825 8700 m 3825 9450 l gs col0 s gr 
% Polyline
n 3975 8700 m 3975 9450 l gs col0 s gr 
% Polyline
n 4125 8700 m 4125 9450 l gs col0 s gr 
% Polyline
n 4275 8700 m 4275 9450 l gs col0 s gr 
% Polyline
n 4425 8700 m 4425 9450 l gs col0 s gr 
% Polyline
n 4575 8700 m 4575 9450 l gs col0 s gr 
% Polyline
n 4725 8700 m 4725 9450 l gs col0 s gr 
% Polyline
n 4875 8700 m 4875 9450 l gs col0 s gr 
% Polyline
n 5025 8700 m 5025 9450 l gs col0 s gr 
% Polyline
n 5175 8700 m 5175 9450 l gs col0 s gr 
% Polyline
n 5325 8700 m 5325 9450 l gs col0 s gr 
% Polyline
n 5475 8700 m 5475 9450 l gs col0 s gr 
% Polyline
n 5625 8700 m 5625 9450 l gs col0 s gr 
% Polyline
n 5775 8700 m 5775 9450 l gs col0 s gr 
% Polyline
n 5925 8700 m 5925 9450 l gs col0 s gr 
% Polyline
n 6075 8700 m 6075 9450 l gs col0 s gr 
% Polyline
n 6225 8700 m 6225 9450 l gs col0 s gr 
% Polyline
n 3480 10350 m 3375 10350 3375 10995 105 arcto 4 {pop} repeat
  3375 11100 6270 11100 105 arcto 4 {pop} repeat
  6375 11100 6375 10455 105 arcto 4 {pop} repeat
  6375 10350 3480 10350 105 arcto 4 {pop} repeat
 cp gs col0 s gr 
% Polyline
n 3525 10350 m 3525 11100 l gs col0 s gr 
% Polyline
n 3675 10350 m 3675 11100 l gs col0 s gr 
% Polyline
n 3825 10350 m 3825 11100 l gs col0 s gr 
% Polyline
n 3975 10350 m 3975 11100 l gs col0 s gr 
% Polyline
n 4125 10350 m 4125 11100 l gs col0 s gr 
% Polyline
n 4275 10350 m 4275 11100 l gs col0 s gr 
% Polyline
n 4425 10350 m 4425 11100 l gs col0 s gr 
% Polyline
n 4575 10350 m 4575 11100 l gs col0 s gr 
% Polyline
n 4725 10350 m 4725 11100 l gs col0 s gr 
% Polyline
n 4875 10350 m 4875 11100 l gs col0 s gr 
% Polyline
n 5025 10350 m 5025 11100 l gs col0 s gr 
% Polyline
n 5175 10350 m 5175 11100 l gs col0 s gr 
% Polyline
n 5325 10350 m 5325 11100 l gs col0 s gr 
% Polyline
n 5475 10350 m 5475 11100 l gs col0 s gr 
% Polyline
n 5625 10350 m 5625 11100 l gs col0 s gr 
% Polyline
n 5775 10350 m 5775 11100 l gs col0 s gr 
% Polyline
n 5925 10350 m 5925 11100 l gs col0 s gr 
% Polyline
n 6075 10350 m 6075 11100 l gs col0 s gr 
% Polyline
n 6225 10350 m 6225 11100 l gs col0 s gr 
% Polyline
n 3900 6555 m 4200 6555 l 4200 6630 l 3900 6630 l cp gs 0.00 setgray ef gr gs col0 s gr 
% Polyline
n 4500 6150 m 5100 6150 l 5100 7650 l 4500 7650 l cp gs col0 s gr 
/Times-Roman ff 300.00 scf sf
2175 6675 m
gs 1 -1 sc (Signal) col0 sh gr
% Polyline
n 3600 6450 m 4500 6450 l gs col0 s gr 
% Polyline
n 3600 6600 m 3900 6600 l gs col0 s gr 
% Polyline
n 3600 6750 m 3900 6750 l gs col0 s gr 
% Polyline
n 3600 6900 m 3900 6900 l gs col0 s gr 
% Polyline
n 3600 7050 m 3900 7050 l gs col0 s gr 
% Polyline
n 3600 7200 m 3900 7200 l gs col0 s gr 
% Polyline
n 3600 7350 m 3900 7350 l gs col0 s gr 
% Polyline
n 4200 7350 m 4500 7350 l gs col0 s gr 
% Polyline
n 4200 7200 m 4500 7200 l gs col0 s gr 
% Polyline
n 4200 7050 m 4500 7050 l gs col0 s gr 
% Polyline
n 4200 6900 m 4500 6900 l gs col0 s gr 
% Polyline
n 4200 6750 m 4500 6750 l gs col0 s gr 
% Polyline
n 4200 6600 m 4500 6600 l gs col0 s gr 
% Polyline
n 5100 7200 m 5400 7200 l gs col0 s gr 
% Polyline
n 5100 7050 m 5400 7050 l gs col0 s gr 
% Polyline
n 5100 6900 m 5400 6900 l gs col0 s gr 
% Polyline
n 5100 6750 m 5400 6750 l gs col0 s gr 
% Polyline
n 5100 6600 m 5400 6600 l gs col0 s gr 
% Polyline
n 5100 6450 m 5400 6450 l gs col0 s gr 
% Polyline
n 5100 7350 m 6000 7350 l gs col0 s gr 
% Polyline
n 5700 7200 m 6000 7200 l gs col0 s gr 
% Polyline
n 5700 7050 m 6000 7050 l gs col0 s gr 
% Polyline
n 5700 6900 m 6000 6900 l gs col0 s gr 
% Polyline
n 5700 6750 m 6000 6750 l gs col0 s gr 
% Polyline
n 5700 6600 m 6000 6600 l gs col0 s gr 
% Polyline
n 5700 6450 m 6000 6450 l gs col0 s gr 
% Polyline
15.000 slw
n 3600 7350 m 3600 6300 l 2400 6300 l gs col0 s gr 
% Polyline
n 3375 9075 m 1050 9075 l gs col0 s gr 
% Polyline
n 1500 9075 m 1500 10725 l gs col0 s gr 
% Polyline
n 1500 10725 m 2325 10725 l gs col0 s gr 
% Polyline
n 2775 10725 m 3375 10725 l gs col0 s gr 
% Polyline
n 6375 9075 m 6900 9075 l 6900 8250 l gs col0 s gr 
% Polyline
n 6900 8250 m 7500 8250 l gs col0 s gr 
% Polyline
n 6375 10725 m 7200 10725 l gs col0 s gr 
% Polyline
n 7200 10725 m 7200 8550 l gs col0 s gr 
% Polyline
n 7200 8550 m 7500 8550 l gs col0 s gr 
% Polyline
n 7500 7950 m 6000 7950 l 6000 6450 l gs col0 s gr 
% Polyline
7.500 slw
n 7500 7650 m 8550 7650 l 8550 8850 l 7500 8850 l cp gs col0 s gr 
% Polyline
15.000 slw
gs  clippath
9137 8063 m 9271 8100 l 9137 8138 l 9330 8138 l 9330 8063 l cp
clip
n 8550 8100 m 9300 8100 l gs col0 s gr gr

% arrowhead
n 9137 8063 m 9271 8100 l 9137 8138 l 9137 8100 l 9137 8063 l  cp gs 0.00 setgray ef gr  col0 s
% Polyline
gs  clippath
9137 8363 m 9271 8400 l 9137 8438 l 9330 8438 l 9330 8363 l cp
clip
n 8550 8400 m 9300 8400 l gs col0 s gr gr

% arrowhead
n 9137 8363 m 9271 8400 l 9137 8438 l 9137 8400 l 9137 8363 l  cp gs 0.00 setgray ef gr  col0 s
/Times-Roman ff 375.00 scf sf
3975 6000 m
gs 1 -1 sc (FIFO Delay) col0 sh gr
/Times-Roman ff 300.00 scf sf
1050 8925 m
gs 1 -1 sc (64 bit hit pattern) col0 sh gr
/Times-Roman ff 300.00 scf sf
1800 10650 m
gs 1 -1 sc (64) col0 sh gr
/Times-Roman ff 300.00 scf sf
2850 10650 m
gs 1 -1 sc (32) col0 sh gr
/Times-Roman ff 300.00 scf sf
1275 11250 m
gs 1 -1 sc (32 bit hit pattern) col0 sh gr
/Times-Roman ff 375.00 scf sf
7050 7125 m
gs 1 -1 sc (Combination) col0 sh gr
/Times-Roman ff 375.00 scf sf
7575 7500 m
gs 1 -1 sc (Logic) col0 sh gr
/Times-Roman ff 300.00 scf sf
8775 7875 m
gs 1 -1 sc (To GDL) col0 sh gr
/Times-Roman ff 300.00 scf sf
8775 8775 m
gs 1 -1 sc (To SVD) col0 sh gr
/Times-Roman ff 300.00 scf sf
4125 9750 m
gs 1 -1 sc (multiplicity) col0 sh gr
/Times-Roman ff 300.00 scf sf
4350 11400 m
gs 1 -1 sc (topology) col0 sh gr
/Times-Roman ff 375.00 scf sf
3675 8475 m
gs 1 -1 sc (Xilinx Pipelines) col0 sh gr
/Times-Roman ff 300.00 scf sf
2175 6150 m
gs 1 -1 sc (Timing ) col0 sh gr
$F2psEnd
rs
