%!PS-Adobe-2.0 EPSF-1.2
%%Title: /.../b.kek.jp/fs/users/trg/ushiroda/public/belle_trigger.ps
%%Creator: IslandDraw for ushiroda
%%CreationDate: Mon Aug 28 14:41:26 2000
%%For:ushiroda ushiroda
%%Pages: 1
%%DocumentFonts: LocalFont
%%BoundingBox: 24 354 578 756
%%BeginPreview: 555 401 1 401
% 000000000000000000000ffffffffffffffffff80000000000000000000000000000000000000000000000000000000000000000000000000000000000000000000000000000
% 00000000000000000000080000000000000000080000000000000000000000000000000000000000000000000000000000000000000000000000000000000000000000000000
% 00000000000000000000080000000000000000080000000000000000000000000000000000000000000000000000000000000000000000000000000000000000000000000000
% 00000000000000000000080000000000000000080000000000000000000000000000000000000000000000000000000000000000000000000000000000000000000000000000
% 00000000000000000000080000000000000000080000000000000000000000000000000000000000000000000000000000000000000000000000000000000000000000000000
% 00000000000000000000080000000000000000080000000000000000000000000000000000000000000000000000000000000000000000000000000000000000000000000000
% 000000000000000000000807c03000c07c0180080000000000000000000000000000000000000000000000000000000000000000000000000000000000000000000000000000
% 00000000000000000000080c40900040360080080000000000000000000000000000000000000000000000000000000000000000000000000000000000000000000000000000
% 0000000000000000000008181dde73d836e79c080000000000000000000000000000000000000000000000000000000000000000000000000000000000000000000000000000
% 0000000000000000000008183c92dc743de8a40e0000000000000000000000000000000000000000000000000000000000000000000000000000000000000000000000000000
% 0000000000000000000008181c928c7c30e8b809f000000000000000000000000000000000000000000000000000000000000000000000000000000000000000000000000000
% 00000000000000000000081c24928e70312c8c080fc0000007fffffffffffffffffc00000000000007fffffffffffffffffc0000000000000000000000000000000000000000
% 000000000000000000000807bcd273dc31e7bc08003e000c04000000000000000004000000000000040000000000000000040000000000000000000000000000000000000000
% 00000000000000000000080000000000000000080001f01e04000000000000000004000000000000040000000000000000040000000000007fffffffffffff00000000000000
% 000000000000000000000800000000000000000800000fdf84000000000000000004000000000000040000000000000000040000000000007fffffffffffff00000000000000
% 00000000000000000000080000000000000000080000003fe4000000000000000004000000000000040000000000000000040000000000006000000000000300000000000000
% 007fffffffffffff8000080000000000000000080000001ffc000000000000000004000000000000040000000000000000040000000000006000000000000300000000000000
% 007fffffffffffff8000080000000000000000080000001ff400007c3c00c0000004000000000030040000000600000000040000000003006000000000000300000000000000
% 006000000000000180000ffffffffffffffffff800000018040000982c004000000400000000003e040004000200000010040000000003e06000000000000300000000000000
% 006000000000000180000000000000000000000000000000040000187df3d9e0000400000000003fc4078fe73a839dbfb8040000000003fc6000000000000300000000000000
% 00600000000000018000000000000000000000000000000004000030249474e00007fffffffffffffc0184ef4a84b6949007ffffffffffffe000000000000300000000000000
% 0060000000000001800000000000000000000000000000000400002024947c80000400000000003fe40304874384229490040000000003fe6000000000000300000000000000
% 006000000000000180000ffffffffffffffffff80000003e0400006624967080000400000000003f040204896286229490040000000003f06000000000000300000000000000
% 00600000000000018000080000000000000000080000003ffc0000fc3493dc8000040000000000380407868f3ac39cf498040000000003806000000000000300000000000000
% 00600000000000018000080000000000000000080000001ff4000000000000000004000000000000040000000000000000040000000000006000000000000300000000000000
% 00600000000000018000080000000000000000080000007fc4000000000000000004000000000000040000000000000000040000000000006000000000000300000000000000
% 006000000000000180000800000000000000000800000f9f84000000000000000004000000000000040000000000000000040000000000006000000000000300000000000000
% 00600000000000018000080000000000000000080001f01e04000000000000000004000000000000040000000000000000040000000000006000000000000300000000000000
% 006000000000000180000803c000003bbc000008003e001804000000000000000004000000000000040000000000000000040000000000006000000000000300000000000000
% 00600000000000018000080450000019ac00000807c0000007fffffffffffffffffc00000000000007fffffffffffffffffc0000000000006000000000000300000000000000
% 006000feff01fc01800008073b3d8e1bade67008f800000000000000000000000000000000000000000000000000000000000000000000006000000000000300000000000000
% 0060018671830c0180000803969f5b0ba4ed900f0000000000000000000000000000000000000000000000000000000000000000000000006000000000000300000000000000
% 0060038271c7040180000800d793d10ec48fe0080000000000000000000000000000000000000000000000000000000000000000000000006000000000000300000000000000
% 0060070270ee0401800008045613110cc48c30080000000000000000000000000000000000000000000000000000000000000000000000006000000000000300000000000000
% 0060070070ee0001800008079b91ce048487f0080000000000000000000000000000000000000000000000000000000000000000000000006000000000000300000000000000
% 0060070070ee00018000080000000000000000080000000000000000000000000000000000000000000000000000000000000000000000006000000000000300000000000000
% 0060070070ee00018000080000000000000000080000000000000000000000000000000000000000000000000000000000000000000000006000000000000300000000000000
% 0060070070ee00018000080000000000000000080000000000000000000000000000000000000000000000000000000000000000000000006000000000000300000000000000
% 0060030070c600018000080000000000000000080000000000000000000000000000000000000000000000000000000000000000000000006000000000000300000000000000
% 0060038671870c018000080000000000000000080000000000000000000000000000000000000000000000000000000000000000000000006000000000000300000000000000
% 006000f8ff01f00180000ffffffffffffffffff80000000000000000000000000000000000000000000000000000000000000000000000006000000000000300000000000000
% 00600000000000018000000000000000000000000000000000000000000000000000000000000000000000000000000000000000000000006000000000000300000000000000
% 00600000000000018000000000000000000000000000000000000000000000000000000000000000000000000000000000000000000000006000000000000300000000000000
% 00600000000000018000000000000000000000000000000000000000000000000000000000000000000000000000000000000000000000006000000000000300000000000000
% 00600000000000018000000000000000000000000000000000000000000000000000000000000000000000000000000000000000000000006000000000000300000000000000
% 00600000000000018000000000000000000000000000000000000000000000000000000000000000000000000000000000000000000000006000000000000300000000000000
% 00600000000000018000000000000000000000000000000000000000000000000000000000000000000000000000000000000000000000006000000000000300000000000000
% 006000000000000180000ffffffffffffffffff80000000007fffffffffffffffffc00000000000007fffffffffffffffffc0000000000006000000000000300000000000000
% 00600000000000018000080000000000000000080000000004000000000000000004000000000000040000000000000000040000000000006000000000000300000000000000
% 00600000000000018000080000000000000000080000000004000000000000000004000000000000040000000000000000040000000000006000000000000300000000000000
% 00600000000000018000080000000000000000080000000004000000000000000004000000000000040000000000000000040000000000006000000000000300000000000000
% 00600000000000018000080000000000000000080000000004000000000000000004000000000000040000000000000000040000000000006000000000000300000000000000
% 007fffffffffffff8000080000000000000000080000000004000000000000000004000000000000040000000000000000040000000000006000000000000300000000000000
% 007fffffffffffff80000800201818eef000000800000018047e000301e000000004000000000038040010000030000000040000000003806000000000000300000000000000
% 00000000000000000000080060180866b00000080000001f0459000102200000008400000000003f040010400010000001040000000003f06000000000000300000000000000
% 00000000000000000000080073f9c86eb7b1c0080000001fe418f739438c7fb37dc400000000003fe47838ef73941ddb7f840000000003fe6000000000000300000000000000
% 00000000000000000000080031cbc82e93ea400ffffffffffc187f4941da5256a487fffffffffffffc385447f49427692507ffffffffffffe000000000000300000000000000
% 000000000000000000000800f989c83b127b80080000001fe4184741c07e5257a48400000000003fc4235444741c222925040000000003fc6000000000000300000000000000
% 00000000000000000000080099ca48331260c0080000001f0418496142386256248400000000003e042074449614322925040000000003e06000000000000300000000000000
% 0000000000000000000008019febcc12123bc0080000001804184f3963ce7a5ba4c400000000003004203864f3961dcf25840000000003006000000000000300000000000000
% 00000000000000000000080000000000000000080000000004000000000008000004000000000000040010000000000000040000000000006000000000000300000000000000
% 000000000000000000000800000000000000000800000000040000000000f8000004000000000000040010000000000000040000000000006000000000000300000000000000
% 00000000000000000000080000000000000000080000000004000000000000000004000000000000040000000000000000040000000000006000000000000300000000000000
% 00000000000000000000080000000000000000080000000004000000000000000004000000000000040000000000000000040000000000006000000000000300000000000000
% 00000000000000000000080000000000000000080000000004000000000000000004000000000000040000000000000000040000000000006000000000000300000000000000
% 000000000000000000000ffffffffffffffffff80000000007fffffffffffffffffc00000000000007fffffffffffffffffc0000000000006000000000000300000000000000
% 00000000000000000000000000000000000000000000000000000000000000000000000000000000000000000000000000000000000000006000000000000300000000000000
% 00000000000000000000000000000000000000000000000000000000000000000000000000000000000000000000000000000000000000006000000000000300000000000000
% 00000000000000000000000000000000000000000000000000000000000000000000000000000000000000000000000000000000000000006000000000000300000000000000
% 00000000000000000000000000000000000000000000000000000000000000000000000000000000000000000000000000000000000000006000000000000300000000000000
% 00000000000000000000000000000000000000000000000000000000000000000000000000000000000000000000000000000000000000006000000000000300000000000000
% 00000000000000000000000000000000000000000000000000000000000000000000000000000000000000000000000000000000000000006000000000000300000000000000
% 00000000000000000000000000000000000000000000000000000000000000000000000000000000000000000000000000000000000000006000000000000300000000000000
% 00000000000000000000000000000000000000000000000000000000000000000000000000000000000000000000000000000000000000006000000000000300000000000000
% 00000000000000000000000000000000000000000000000000000000000000000000000000000000000000000000000000000000000000006000000000000300000000000000
% 00000000000000000000000000000000000000000000000000000000000000000000000000000000000000000000000000000000000000006000000000000300000000000000
% 00000000000000000000000000000000000000000000000000000000000000000000000000000000000000000000000000000000000000006000000000000300000000000000
% 00000000000000000000000000000000000000000000000000000000000000000000000000000000000000000000000000000000000000006000000000000300000000000000
% 00000000000000000000000000000000000000000000000000000000000000000000000000000000000000000000000000000000000000006000000000000300000000000000
% 00000000000000000000000000000000000000000000000000000000000000000000000000000000000000000000000000000000000000006000000000000300000000000000
% 00000000000000000000000000000000000000000000000000000000000000000000000000000000000000000000000000000000000000006000000000000300000000000000
% 00000000000000000000000000000000000000000000000000000000000000000000000000000000000000000000000000000000000000006000000000000300000000000000
% 00000000000000000000000000000000000000000000000007fffffffffffffffffc000000000000000000000000000000000000000000006000000000000300000000000000
% 00000000000000000000000000000000000000000000000004000000000000000004000000000000000000000000000000000000000000006000000000000300000000000000
% 00000000000000000000000000000000000000000000000004000000000000000004000000000000000000000000000000000000000000006000000000000300000000000000
% 00000000000000000000000000000000000000000000000004000000000000000004000000000000000000000000000000000000000000006000000000000300000000000000
% 00000000000000000000000000000000000000000000000004000000000000000004000000000000000000000000000000000000000000006000000000000300000000000000
% 00000000000000000000000000000000000000000000000004000000000000000004000000000000000000000000000000000000000000006000000000000300000000000000
% 000000000000000000000000000000000000000000000000040000018606c1800004000000000000000000000000000000000000000002006000000000000300000000000000
% 000000000000000000000000000000000000000000000000040000009602c1900004000000000000000000000000000000000000000003c06000000000000300000000000000
% 00000000000000000000000000000000000000000000000004007b6cbef2cfbfc004000000000000000000000000000000000000000003f86000000000000300000000000000
% 0000000000000000000000000000000000000000000000001c002524924a52938007ffffffffffffffffffffffffffffffffffffffffffff6000000000000300000000000000
% 00000000000000000000000000000000000000000000000ff4002524924a50938004000000000000000000000000000000000000000003fe6000000000000300000000000000
% 00000000000000000000000000000000000000000000003fe4002524924a58918004000000000000000000000000000000000000000003f06000000000000300000000000000
% 007fffffffffffff8000000000000000000000000000001fc40025bcda734e990004000000000000000000000000000000000000000003806000000000000300000000000000
% 007fffffffffffff8000000000000000000000000000001f84000000004000010004000000000000000000000000000000000000000000006000000000000300000000000000
% 00600000000000018000000000000000000000000000003f84000000004000060004000000000000000000000000000000000000000000006000000000000300000000000000
% 0060000000000001800000000000000000000000000000cf04000000000000000004000000000000000000000000000000000000000000006000000000000300000000000000
% 00600000000000018000000000000000000000000000030604000000000000000004000000000000000000000000000000000000000000006000000000000300000000000000
% 006000000000000180000000000000000000000000000c0004000000000000000004000000000000000000000000000000000000000000006000000000000300000000000000
% 00600000000000018000000000000000000000000000100007fffffffffffffffffc000000000000000000000000000000000000000000006000000000000300000000000000
% 00600000000000018000000000000000000000000000600000000000000000000000000000000000000000000000000000000000000000006000000000000300000000000000
% 00600000000000018000000000000000000000000001800000000000000000000000000000000000000000000000000000000000000000006000000000000300000000000000
% 006000000000000180000ffffffffffffffffff80006000007fffffffffffffffffc000000000000000000000000000000000000000000006000000000000300000000000000
% 00600000000000018000080000000000000000080018000004000000000000000004000000000000000000000000000000000000000000006000000000000300000000000000
% 00600000000000018000080000000000000000080060000004000000000000000004000000000000000000000000000000000000000000006000000000000300000000000000
% 00600000000000018000080000000000000000080180000004000000000000000004000000000000000000000000000000000000000000006000000000000300000000000000
% 00600000000000018000080000000000000000080600000004000000000000000004000000000000000000000000000000000000000000006000000000000300000000000000
% 006003ff0f87fc018000080000000000000000081800000004000000000000000004000000000000000000000000000000000000000000006000000000000300000000000000
% 00600339b9c38e018000080000000000000000086000001804000000000000000004000000000000000000000000000000000000000000006000000880000300000000000000
% 00600239f0e386018000080000007760000000098000001f04000000003000000004000000000000000000000000000000000000000003c06000001840000300000000000000
% 00600038f0f3900180000800000033640000000e0000001fe4000080001000000004000000000000000000000000000000000000000003f86000001040000300000000000000
% 00600038e0739001800008000000336e0000000ffffffffffc0001cef3939ff00007ffffffffffffffffffffffffffffffffffffffffffff60000011c0000300000000000000
% 00600038e073f0018000080000003f240000000e0000001fe400009b4ed6d4e00004000000000000000000000000000000000000000003ff6000001fc0000300000000000000
% 00600038e07390018000080000003324000000098000001f040000914c5454e00004000000000000000000000000000000000000000003f86000000f80000300000000000000
% 00600038e073900180000800000033240000000860000018040000914c5458600004000000000000000000000000000000000000000003c06000000000000300000000000000
% 0060003870e3800180000800000033260000000818000000040000ce739b9e400004000000000000000000000000000000000000000002006000000000000300000000000000
% 0060003838c380018000080000000000000000080400000004000000400002400004000000000000000000000000000000000000000000006000018040000300000000000000
% 0060007c1f87e001800008000000000000000008030000000400000040003f800004000000000000000000000000000000000000000000006000019fc0000300000000000000
% 006000000000000180000800000000000000000800c0000004000000000000000004000000000000000000000000000000000000000000006000019fc0000300000000000000
% 00600000000000018000080000000000000000080030000004000000000000000004000000000000000000000000000000000000000000006000000040000300000000000000
% 006000000000000180000ffffffffffffffffff8000c000007fffffffffffffffffc000000000000000000000000000000000000000000006000001038000300000000000000
% 00600000000000018000000000000000000000000003000000000000000000000000000000000000000000000000000000000000000000006000001e68000300000000000000
% 00600000000000018000000000000000000000000000c00000000000000000000000000000000000000000000000000000000000000000006000001e64000300000000000000
% 00600000000000018000000000000000000000000000200000000000000000000000000000000000000000000000000000000000000000006000001364000300000000000000
% 00600000000000018000000000000000000000000000180007fffffffffffffffffc000000000000000000000000000000000000000000006000001164000300000000000000
% 00600000000000018000000000000000000000000000060004000000000000000004000000000000000000000000000000000000000000006000001fec000300000000000000
% 00600000000000018000000000000000000000000000018604000000000000000004000000000000000000000000000000000000000000006000000ef8000300000000000000
% 00600000000000018000000000000000000000000000006f04000000000000000004000000000000000000000000000000000000000000006000000000000300000000000000
% 00600000000000018000000000000000000000000000001f84000000000000000004000000000000000000000000000000000000000000006000000000000300000000000000
% 007fffffffffffff8000000000000000000000000000001fc4000000000000000004000000000000000000000000000000000000000000006000000f80000300000000000000
% 007fffffffffffff8000000000000000000000000000001fe4000001803000000004000000000000000000000000000000000000000003806000001fc0000300000000000000
% 00000000000000000000000000000000000000000000003ff4000005803000000004000000000000000000000000000000000000000003f06000001040000300000000000000
% 000000000000000000000000000000000000000000000003fc00000fbdb7cf000004000000000000000000000000000000000000000003fe6000001040000300000000000000
% 0000000000000000000000000000000000000000000000000c00000492924a000007ffffffffffffffffffffffffffffffffffffffffffff6000001fc0000300000000000000
% 0000000000000000000000000000000000000000000000000400000492924a000004000000000000000000000000000000000000000003f86000000f80000300000000000000
% 0000000000000000000000000000000000000000000000000400000492924c000004000000000000000000000000000000000000000003c06000000000000300000000000000
% 0000000000000000000000000000000000000000000000000400000692d24f0000040000000000000000000000000000000000000000020060000001c0000300000000000000
% 000000000000000000000000000000000000000000000000040000000000010000040000000000000000000000000000000000000000000060000000c0000300000000000000
% 0000000000000000000000000000000000000000000000000400000000001f000004000000000000000000000000000000000000000000006000000040000300000000000000
% 00000000000000000000000000000000000000000000000004000000000000000004000000000000000000000000000000000000000000006000000040000300000000000000
% 00000000000000000000000000000000000000000000000004000000000000000004000000000000000000000000000000000000000000006000010040000300000000000000
% 00000000000000000000000000000000000000000000000004000000000000000004000000000000000000000000000000000000000000006000010040000300000000000000
% 00000000000000000000000000000000000000000000000007fffffffffffffffffc00000000000000000000000000000000000000000000600001ffc0000300000000000000
% 0000000000000000000000000000000000000000000000000000000000000000000000000000000000000000000000000000000000000000600001ffc0000300000000000000
% 0000000000000000000000000000000000000000000000000000000000000000000000000000000000000000000000000000000000000000600001ffc0000300000000000000
% 0000000000000000000000000000000000000000000000000000000000000000000000000000000007fffffffffffffffffc0000000000006000010040000300000000000000
% 00000000000000000000000000000000000000000000000000000000000000000000000000000000040000000000000000040000000000006000000000000300000000000000
% 00000000000000000000000000000000000000000000000000000000000000000000000000000000040000000000000000040000000000006000000000000300000000000000
% 00000000000000000000000000000000000000000000000000000000000000000000000000000000040000000000000000040000000000006000000000000300000000000000
% 00000000000000000000000000000000000000000000000000000000000000000000000000000000040000000000000000040000000000006000000000000300000000000000
% 00000000000000000000000000000000000000000000000000000000000000000000000000000000040000000000000000040000000000006000000000000300000000000000
% 000000000000000000000000000000000000000000000000000000000000000000000000000000000403f8000000000000040000000001806000001fc0000300000000000000
% 00000000000000000000000000000000000000000000000000000000000000000000000000000000040628004000000008040000000001f06000001fc0000300000000000000
% 00000000000000000000000000000000000000000000000000000000000000000000000000000000040c0b67ede1cedfdc040000000001fe6000001040000300000000000000
% 00000000000000000000000000000000000000000000000000000000000000000000000000000000fc0c09295ae25b4a4807ffffffffffffe000001000000300000000000000
% 0000000000000000000000000000000000000000000000000000000000000000000000000000003ff40c092e5e82114a48040000000001fc6000001040000300000000000000
% 0000000000000000000000000000000000000000000000000000000000000000000000000000003fe40e09235883114a48040000000001e06000001fc0000300000000000000
% 0000000000000000000000000000000000000000000000000000000000000000000000000000003fc403cdef6e81ce7a4c040000000001006000001fc0000300000000000000
% 0000000000000000000000000000000000000000000000000000000000000000000000000000001f840000000000000000040000000000006000000040000300000000000000
% 0000000000000000000000000000000000000000000000000000000000000000000000000000007f040000000000000000040000000000006000000000000300000000000000
% 0000000000000000000000000000000000000000000000000000000000000000000000000000018e040000000000000000040000000000006000000f80000300000000000000
% 0000000000000000000000000000000000000000000000000000000000000000000000000000060c040000000000000000040000000000006000001fc0000300000000000000
% 00000000000000000000000000000000000000000000000000000000000000000000000000001800040000000000000000040000000000006000001040000300000000000000
% 0000000000000000000000000000000000000000000000000000000000000000000000000000e00007fffffffffffffffffc0000000000006000001040000300000000000000
% 00000000000000000000000000000000000000000000000000000000000000000000000000030000000000000000000000000000000000006000001fc0000300000000000000
% 000000000000000000000000000000000000000000000000000000000000000000000000000c0000000000000000000000000000000000006000000f80000300000000000000
% 0000000000000000000000000000000000000000000000000000000000000000000000000030000007fffffffffffffffffc0000000000006000000000000300000000000000
% 00000000000000000000000000000000000000000000000000000000000000000000000000c00000040000000000000000040000000000006000000000000300000000000000
% 00000000000000000000000000000000000000000000000000000000000000000000000003000000040000000000000000040000000000006000018040000300000000000000
% 0000000000000000000000000000000000000000000000000000000000000000000000000c000000040000000000000000040000000000006000019fc0000300000000000000
% 00000000000000000000000000000000000000000000000000000000000000000000000030000000040000000000000000040000000000006000019fc0000300000000000000
% 000000000000000000000000000000000000000000000000000000000000000000000000c0000000040000000000000000040000000000006000000040000300000000000000
% 00000000000000000000000000000000000000000000000007fffffffffffffffffc0003000000000400003fc018000000040000000001006000001b80000300000000000000
% 007fffffffffffff8000000000000000000000000000000004000000000000000004000c000000300400002cc018000000040000000001e060000013c0000300000000000000
% 007fffffffffffff800000000000000000000000000000000400000000000000000400300000003f0400000cdedbe78000040000000001fc6000001740000300000000000000
% 0060000000000001800000000000000000000000000000000400000000000000000400c00000003ffc00000c494925000007ffffffffffffe000001640000300000000000000
% 006000000000000180000000000000000000000000000000040000000000000000040300000000fff400000c4949250000040000000001fe6000001ec0000300000000000000
% 006000000000000180000000000000000000000000000000040000000000000000040c000003ff3f8400000c4949260000040000000001f06000000cc0000300000000000000
% 0060000000000001800000000000000000000000000000000401f830000007c3600430000ffc003e0400000c4969278000040000000001806000000000000300000000000000
% 0060000000000001800000000000000000000000000000000401643000000c412004c07ff0000038040000000000008000040000000000006000018040000300000000000000
% 00600000000000018000000000000000000000000000003f040063f3decf18192007ff80000000000400000000000f8000040000000000006000019fc0000300000000000000
% 00600000000000018000000000000000000000000000003ffc0061d295a718352006000000000000040000000000000000040000000000006000019fc0000300000000000000
% 006000000000000180000ffffffffffffffffff80000001ff400611295e4183d2004000000000000040000000000000000040000000000006000000040000300000000000000
% 00600000000000018000080000000000000000080000003fc400611319841c312004000000000000040000000000000000040000000000006000000880000300000000000000
% 0060000000000001800008000000000000000008000003df04006113dee4079db00400000000000007fffffffffffffffffc0000000000006000001840000300000000000000
% 006000000000000180000800000000000000000800003c1e04000000420000000004000000000000000000000000000000000000000000006000001040000300000000000000
% 00600000000000018000080000000000000000080003c00804000007fe00000000040000000000000000000000000000000000000000000060000011c0000300000000000000
% 006007fe0fff8001800008000000000000000008001c000004000000000000000004000000000000000000000000000000000000000000006000001fc0000300000000000000
% 00600386186e000180000800000000000000000801e000000400000000000000000400000000000007fffffffffffffffffc0000000000006000000f80000300000000000000
% 00600382382e000180000800004010f0000000081e00000004000000000000000004000000000000040000000000000000040000000000006000000000000300000000000000
% 00600390702e00018000080000c0311000000009e000000007fffffffffffffffffc000000000000040000000000000000040000000000006000000c80000300000000000000
% 00600398700e00018000080000df31c6fd80000e0000000000000000000000000000000000000000040000000000000000040000000000006000001cc0000300000000000000
% 006003f8700e00018000080000ce30e25280000b8000000000000000000000000000000000000000040000000000000000040000000000006000001c40000300000000000000
% 00600398700e00018000080002ccb032528000087800000007fffffffffffffffffc0000000000000400000000000000000400000000000060000014c0000300000000000000
% 00600398700e00018000080003eef91252800008078000000400000000000000000400000000003805dd8181fb0000c018c40000000003c06000001fc0000300000000000000
% 00600382300e080180000800005f11e3d2c00008007000000400000000000000000400000000003f84cd80816500004008440000000003f86000000f80000300000000000000
% 00600386386e1801800008000000000000000008000f00000400000000000000000400000000003ffccd9ef061fe6779cbc40000000003ff6000000700000300000000000000
% 006007fe0f9ff8018000080000000000000000080000e00c040000000000000000040000000001ffe4fc9490612ed94b6c47ffffffffffff6000003e00000300000000000000
% 006000000000000180000800000000000000000800001e1e0400000000000000000400000001fe3f84cc94906128fe4a2c440000000003f86000007f00000300000000000000
% 0060000000000001800008000000000000000008000001ff8401f80000003c000004000003fe001e04cc98906128c34a2e440000000003c0600000ff80000300000000000000
% 006000000000000180000ffffffffffffffffff80000001fc400c8000000440000040007fc00001804cc9e9061287f49cfc4000000000200600001c0c0000300000000000000
% 00600000000000018000000000000000000000000000001ff400c3ecf7fc736f60040ff800000000040002000000000000040000000000006000010040000300000000000000
% 00600000000000018000000000000000000000000000003ffc00f13a75383924a007f0000000000004003e000000000000040000000000006000010040000300000000000000
% 00600000000000018000000000000000000000000000003c0400d13e45380d24a007c00000000000040000000000000000040000000000006000010040000300000000000000
% 0060000000000001800000000000000000000000000000000400c53846184524a005b8000000000004000000000000000004000000000000600001ffc0000300000000000000
% 0060000000000001800000000000000000000000000000000400f92e479079e4b00447800000000004000000000000000004000000000000600001ffc0000300000000000000
% 0060000000000001800000000000000000000000000000000400000000900000000430700000000007fffffffffffffffffc000000000000600001ffc0000300000000000000
% 006000000000000180000000000000000000000000000000040000000fe000000004080f00000000000000000000000000000000000000006000010040000300000000000000
% 006000000000000180000000000000000000000000000000040000000000000000040600e0000000000000000000000000000000000000006000000000000300000000000000
% 007fffffffffffff800000000000000000000000000000000400000000000000000401001e00000007fffffffffffffffffc0000000000006000000000000300000000000000
% 007fffffffffffff800000000000000000000000000000000400000000000000000400c001c00000040000000000000000040000000000006000000000000300000000000000
% 00000000000000000000000000000000000000000000000007fffffffffffffffffc0020003c0000040000000000000000040000000000006000000000000300000000000000
% 00000000000000000000000000000000000000000000000000000000000000000000001800038000040000000000000000040000000000006000000000000300000000000000
% 0000000000000000000000000000000000000000000000000000000000000000000000040000701c040000000000000000040000000000006000000040000300000000000000
% 00000000000000000000000000000000000000000000000000000000000000000000000300000f1e04000000000000000004000000000000600001ffc0000300000000000000
% 000000000000000000000000000000000000000000000000000000000000000000000000800000ff04780003f600018061840000000001c0600001ffc0000300000000000000
% 0000000000000000000000000000000000000000000000000000000000000000000000006000003fc4300002ca00008020840000000001f86000010040000300000000000000
% 0000000000000000000000000000000000000000000000000000000000000000000000001000003fe430eda0c3fccef727840000000001ff6000000000000300000000000000
% 0000000000000000000000000000000000000000000000000000000000000000000000000c00003ffc31b5a0c25db29da887ffffffffffffe000001fc0000300000000000000
% 00000000000000000000000000000000000000000000000000000000000000000000000002000000043117c0c251fc98a8840000000001fc6000001fc0000300000000000000
% 00000000000000000000000000000000000000000000000000000000000000000000000001800000043312c0c2518698ac840000000001e060000016c0000300000000000000
% 00000000000000000000000000000000000000000000000000000000000000000000000000400000043ee280c250fe9737840000000001006000001240000300000000000000
% 00000000000000000000000000000000000000000000000000000000000000000000000000300000040000000000000000040000000000006000001bc0000300000000000000
% 00000000000000000000000000000000000000000000000000000000000000000000000000080000040000000000000000040000000000006000001dc0000300000000000000
% 00000000000000000000000000000000000000000000000000000000000000000000000000060000040000000000000000040000000000006000000000000300000000000000
% 00000000000000000000000000000000000000000000000000000000000000000000000000010000040000000000000000040000000000006000000000000300000000000000
% 00000000000000000000000000000000000000000000000000000000000000000000000000008000040000000000000000040000000000006000000f80000300000000000000
% 0000000000000000000000000000000000000000000000000000000000000000000000000000600007fffffffffffffffffc0000000000006000001fc0000300000000000000
% 000000000000000000000000000000000000000000000000000000000000000000000000000010000000000000000000000000000000000060000018c0000300000000000000
% 00000000000000000000000000000000000000000000000000000000000000000000000000000c00000000000000000000000000000000006000001040000300000000000000
% 0000000000000000000000000000000000000000000000000000000000000000000000000000020007fffffffffffffffffc0000000000006000001040000300000000000000
% 0000000000000000000000000000000000000000000000000000000000000000000000000000018004000000000000000004000000000000600001ffc0000300000000000000
% 0000000000000000000000000000000000000000000000000000000000000000000000000000004604000000000000000004000000000000600001ffc0000300000000000000
% 00000000000000000000000000000000000000000000000000000000000000000000000000000037040000000000000000040000000000006000010000000300000000000000
% 0000000000000000000000000000000000000000000000000000000000000000000000000000000f840000000000000000040000000000006000000000000300000000000000
% 0000000000000000000000000000000000000000000000000000000000000000000000000000001fc40000000000000000040000000000006000000f80000300000000000000
% 0000000000000000000000000000000000000000000000000000000000000000000000000000003fc400007d8031800000040000000001806000001fc0000300000000000000
% 0000000000000000000000000000000000000000000000000000000000000000000000000000001fe40000368010800000040000000001f06000001040000300000000000000
% 00000000000000000000000000000000000000000000000000000000000000000000000000000003f4000036f39cf38000040000000001fe6000001040000300000000000000
% 000000000000000000000000000000000000000000000000000000000000000000000000000000003c00003c979697800007ffffffffffffe000001fc0000300000000000000
% 00000000000000000000000000000000000000000000000000000000000000000000000000000000040000369392938000040000000001fe6000000f80000300000000000000
% 00000000000000000000000000000000000000000000000000000000000000000000000000000000040000369492948000040000000001f06000000000000300000000000000
% 000000000000000000000000000000000000000000000000000000000000000000000000000000000400003c979c978000040000000001806000000040000300000000000000
% 0000000000000000000000000000000000000000000000000000000000000000000000000000000004000000000000000004000000000000600001ffc0000300000000000000
% 0000000000000000000000000000000000000000000000000000000000000000000000000000000004000000000000000004000000000000600001ffc0000300000000000000
% 00000000000000000000000000000000000000000000000000000000000000000000000000000000040000000000000000040000000000006000010040000300000000000000
% 00000000000000000000000000000000000000000000000000000000000000000000000000000000040000000000000000040000000000006000000000000300000000000000
% 00000000000000000000000000000000000000000000000000000000000000000000000000000000040000000000000000040000000000006000000400000300000000000000
% 007fffffffffffff800000000000000000000000000000000000000000000000000000000000000007fffffffffffffffffc000000000000600001e7c0000300000000000000
% 007fffffffffffff800000000000000000000000000000000000000000000000000000000000000000000000000000000000000000000000600001c7c0000300000000000000
% 006000000000000180000000000000000000000000000000000000000000000000000000000000000000000000000000000000000000000060000187c0000300000000000000
% 00600000000000018000000000000000000000000000000000000000000000000000000000000000000000000000000000000000000000006000010440000300000000000000
% 00600000000000018000000000000000000000000000000000000000000000000000000000000000000000000000000000000000000000006000010040000300000000000000
% 00600000000000018000000000000000000000000000000000000000000000000000000000000000000000000000000000000000000000006000010040000300000000000000
% 0060000000000001800000000000000000000000000000000000000000000000000000000000000000000000000000000000000000000000600001c040000300000000000000
% 0060000000000001800000000000000000000000000000000000000000000000000000000000000000000000000000000000000000000000600000ff80000300000000000000
% 0060000000000001800000000000000000000000000000000000000000000000000000000000000000000000000000000000000000000000600000ff80000300000000000000
% 00600000000000018000000000000000000000000000000000000000000000000000000000000000000000000000000000000000000000006000003e00000300000000000000
% 006000000000000180000ffffffffffffffffff80000000007fffffffffffffffffc000000000000000000000000000000000000000000006000000000000300000000000000
% 00600000000000018000080000000000000000080000000004000000000000000004000000000000000000000000000000000000000000006000000000000300000000000000
% 00600000000000018000080000000000000000080000000004000000000000000004000000000000000000000000000000000000000000006000000000000300000000000000
% 00600000000000018000080000000000000000080000000004000000000000000004000000000000000000000000000000000000000000006000000000000300000000000000
% 00603f7df87c1f018000080000000000000000080000000004000000000000000004000000000000000000000000000000000000000000006000000000000300000000000000
% 00600e30e01c1e018000080000000000000000080000000004000000000000000004000000000000000000000000000000000000000000006000000000000300000000000000
% 00600e60e01c1e01800008000000776000000008000000380400000000c600000004000000000000000000000000000000000000000003006000000000000300000000000000
% 00600ec0e0162e018000080000003364000000080000003f04000000004640000004000000000000000000000000000000000000000003e06000000000000300000000000000
% 00600e80e0162e01800008000000336e000000080000003fe4000000d87ee0000004000000000000000000000000000000000000000003fc6000000000000300000000000000
% 00600fc0e0174e018000080000003f240000000ffffffffffc000000d84a40000007ffffffffffffffffffffffffffffffffffffffffffff6000000000000300000000000000
% 00600fe0e0134e018000080000003324000000080000003fe4000000d84a40000004000000000000000000000000000000000000000003fc6000000000000300000000000000
% 00600ee0e0138e018000080000003324000000080000003f04000000d84a40000004000000000000000000000000000000000000000003e06000000000000300000000000000
% 00600e70e0938e018000080000003326000000080000003804000000f84a60000004000000000000000000000000000000000000000003006000000000000300000000000000
% 00600e38e1918e018000080000000000000000080000000004000000800000000004000000000000000000000000000000000000000000006000000000000300000000000000
% 00601e7dffb91e018000080000000000000000080000000004000000800000000004000000000000000000000000000000000000000000006000000000000300000000000000
% 00600000000000018000080000000000000000080000000004000000000000000004000000000000000000000000000000000000000000006000000000000300000000000000
% 00600000000000018000080000000000000000080000000004000000000000000004000000000000000000000000000000000000000000006000000000000300000000000000
% 00600000000000018000080000000000000000080000000004000000000000000004000000000000000000000000000000000000000000006000000000000300000000000000
% 006000000000000180000ffffffffffffffffff80000000007fffffffffffffffffc000000000000000000000000000000000000000000006000000000000300000000000000
% 00600000000000018000000000000000000000000000000000000000000000000000000000000000000000000000000000000000000000006000000000000300000000000000
% 00600000000000018000000000000000000000000000000000000000000000000000000000000000000000000000000000000000000000006000000000000300000000000000
% 00600000000000018000000000000000000000000000000000000000000000000000000000000000000000000000000000000000000000006000000000000300000000000000
% 00600000000000018000000000000000000000000000000000000000000000000000000000000000000000000000000000000000000000006000000000000300000000000000
% 00600000000000018000000000000000000000000000000000000000000000000000000000000000000000000000000000000000000000006000000000000300000000000000
% 00600000000000018000000000000000000000000000000000000000000000000000000000000000000000000000000000000000000000006000000000000300000000000000
% 00600000000000018000000000000000000000000000000000000000000000000000000000000000000000000000000000000000000000006000000000000300000000000000
% 007fffffffffffff8000000000000000000000000000000000000000000000000000000000000000000000000000000000000000000000006000000000000300000000000000
% 007fffffffffffff8000000000000000000000000000000000000000000000000000000000000000000000000000000000000000000000006000000000000300000000000000
% 00000000000000000000000000000000000000000000000000000000000000000000000000000000000000000000000000000000000000006000000000000300000000000000
% 00000000000000000000000000000000000000000000000000000000000000000000000000000000000000000000000000000000000000006000000000000300000000000000
% 00000000000000000000000000000000000000000000000000000000000000000000000000000000000000000000000000000000000000006000000000000300000000000000
% 00000000000000000000000000000000000000000000000000000000000000000000000000000000000000000000000000000000000000006000000000000300000000000000
% 00000000000000000000000000000000000000000000000000000000000000000000000000000000000000000000000000000000000000006000000000000300000000000000
% 00000000000000000000000000000000000000000000000000000000000000000000000000000000000000000000000000000000000000006000000000000300000000000000
% 00000000000000000000000000000000000000000000000000000000000000000000000000000000000000000000000000000000000000006000000000000300000000000000
% 00000000000000000000000000000000000000000000000000000000000000000000000000000000000000000000000000000000000000006000000000000300000000000000
% 00000000000000000000000000000000000000000000000000000000000000000000000000000000000000000000000000000000000000006000000000000300000000000000
% 00000000000000000000000000000000000000000000000000000000000000000000000000000000000000000000000000000000000000006000000000000300000000000000
% 00000000000000000000000000000000000000000000000000000000000000000000000000000000000000000000000000000000000000006000000000000300000000000000
% 00000000000000000000000000000000000000000000000000000000000000000000000000000000000000000000000000000000000000006000000000000300000000000000
% 00000000000000000000000000000000000000000000000000000000000000000000000000000000000000000000000000000000000000006000000000000300000000000000
% 0000000000000000000000000000000000000000000000000000000000000000000000000000000000000000000000000000000000000000600000000000030007e060000000
% 00000000000000000000000000000000000000000000000000000000000000000000000000000000000000000000000000000000000000006000000000000300059060000000
% 00000000000000000000000000000000000000000000000000000000000000000000000000000000000000000000000000000000000000006000000000000300018f6f7b3c00
% 0000000000000000000000000000000000000000000000000000000000000000000000000000000000000000000000000000000000000000600000000000030001872a569c00
% 0000000000000000000000000000000000000000000000000000000000000000000000000000000000000000000000000000000000000000600000000000030001842a579000
% 0000000000000000000000000000000000000000000000000000000000000000000000000000000007fffffffffffffffffc000000000000600000000000030001842c661000
% 007fffffffffffff800000000000000000000000000000000000000000000000000000000000000004000000000000000004000000000000600000000000030001842f7b9000
% 007fffffffffffff8000000000000000000000000000000000000000000000000000000000000000040000000000000000040000000000006000000000000300000001080000
% 0060000000000001800000000000000000000000000000000000000000000000000000000000000004000000000000000004000000000000600000000000030000001ff80000
% 00600000000000018000000000000000000000000000000000000000000000000000000000000000040000000000000000040000000000006000000000000300000000000000
% 00600000000000018000000000000000000000000000000000000000000000000000000000000000040000000000000000040000000000006000000000000300000000000000
% 006000000000000180000000000000000000000000000000000000000000000000000000000000000400007d8031800000040000000000006000000000000300000000000000
% 00600000000000018000000000000000000000000000000000000000000000000000000000000000040000368010800000040000000003c06000000000000300000000000000
% 0060000000000001800000000000000000000000000000000000000000000000000000000000003e04000036f39cf38000040000000003f86000000000000300000000000000
% 0060000000000001800000000000000000000000000000000000000000000000000000000000003ffc00003c9796978000040000000003ff600000000000030000007c000280
% 0060000000000001800000000000000000000000000000000000000000000000000000000000003fe4000036939293800007ffffffffffff60000000000003000000c4040700
% 006000000000000180000ffffffffffffffffff80000000007fffffffffffffffffc0000000001ffc40000369492948000040000000003f86000000000000300000180ee6580
% 00600000000000018000080000000000000000080000000004000000000000000004000000003e3f0400003c979c978000040000000003c06000000000000300000181e4d480
% 0060000000000001800008000000000000000008000000000400000000000000000400000007c01c04000000000000000004000000000200600000000000030000019ce4fc00
% 00600000000000018000080000000000000000080000000004000000000000000004000000f800100400000000000000000400000000000060000000000003000001cd24c900
% 006007feff83f801800008000000000000000008000000000400000000000000000400001f00000004000000000000000004000000000000600000000000030000007de67980
% 0060038671c6180180000800000000000000000800000000040000000000000000040007e0000000040000000000000000040000000000006000000000000300000000000000
% 0060038270ce080180000803f06000001f06c0080000001804000ff000060186000400f800000000040000000000000000040000000000006000000000000300000000000000
% 00600390721c080180000802c8600000310240080000001f04000b300002008200041f000000000007fffffffffffffffffc0000000000006000000000000300000000000000
% 00600398721c000180000800c7e7bdbc606240080000001fe400031ef63bdc9e0007e00000000000000000000000000000000000000000006000000000000300000000000000
% 006003f87e1c000180000800c3a52b5c60d2400ffffffffffc0003127d4a76a20007e00000000000000000000000000000000000000000006000000000000300000001e00000
% 00600398721c000180000800c2252bd060f240080000001fe40003124f7262a200041e000000000007fffffffffffffffffc0000000000006000000000000300000001fc0000
% 00600398721c000180000800c226331070c240080000001f040003124c1a62b2000401f0000000000400000000000000000400000000000060000000000003ffffffffff8000
% 00600382700c000180000800c227bdd01e7360080000001804000312477a5cde0004000f80000000040000000000000000040000000000006000000000000300000001ff8000
% 00600386700e1801800008000000840000000008000000000400000000000000000400007c000000040000000000000000040000000000006000000000000300000001fc0000
% 006007fefc03e00180000800000ffc00000000080000000004000000000000000004000003c00000040000000000000000040000000000006000000000000300000001e00000
% 006000000000000180000800000000000000000800000000040000000000000000040000003e0018040000000000000000040000000000006000000000000300000001000000
% 0060000000000001800008000000000000000008000000000400000000000000000400000001f01c040000000000000000040000000000006000000000000300000000000000
% 00600000000000018000080000000000000000080000000004000000000000000004000000000fbf0401f8000030000000040000000003c06000000000000300000000000000
% 006000000000000180000ffffffffffffffffff80000000007fffffffffffffffffc00000000007fc40164000010020000040000000003f86000000000000300000000000000
% 0060000000000001800000000000000000000000000000000000000000000000000000000000003ff400636b879e7777c007ffffffffffff6000000000000300000000000000
% 0060000000000001800000000000000000000000000000000000000000000000000000000000003ffc00616ec252dada40040000000003ff6000000000000300000000000000
% 0060000000000001800000000000000000000000000000000000000000000000000000000000003c040061f442528a8a40040000000003f86000000000000300000000000000
% 00600000000000018000000000000000000000000000000000000000000000000000000000000000040060b442528a8a40040000000003c06000000000000300000000000000
% 00600000000000018000000000000000000000000000000000000000000000000000000000000000040060a38392737240040000000002006000000000000300000000000000
% 00600000000000018000000000000000000000000000000000000000000000000000000000000000040000000200000000040000000000006000000000000300000000000000
% 00600000000000018000000000000000000000000000000000000000000000000000000000000000040000000200000000040000000000006000000000000300000000000000
% 007fffffffffffff8000000000000000000000000000000000000000000000000000000000000000040000000000000000040000000000006000000000000300000000000000
% 007fffffffffffff8000000000000000000000000000000000000000000000000000000000000000040000000000000000040000000000006000000000000300000000000000
% 0000000000000000000000000000000000000000000000000000000000000000000000000000000007fffffffffffffffffc0000000000006000000000000300000000000000
% 00000000000000000000000000000000000000000000000000000000000000000000000000000000000000000000000000000000000000006000000000000300000000000000
% 00000000000000000000000000000000000000000000000000000000000000000000000000000000000000000000000000000000000000006000000000000300000000000000
% 00000000000000000000000000000000000000000000000000000000000000000000000000000000000000000000000000000000000000006000000000000300000000000000
% 00000000000000000000000000000000000000000000000000000000000000000000000000000000000000000000000000000000000000006000000000000300000000000000
% 00000000000000000000000000000000000000000000000000000000000000000000000000000000000000000000000000000000000000006000000000000300000000000000
% 00000000000000000000000000000000000000000000000000000000000000000000000000000000000000000000000000000000000000006000000000000300000000000000
% 00000000000000000000000000000000000000000000000000000000000000000000000000000000000000000000000000000000000000006000000000000300000000000000
% 00000000000000000000000000000000000000000000000000000000000000000000000000000000000000000000000000000000000000006000000000000300000000000000
% 00000000000000000000000000000000000000000000000000000000000000000000000000000000000000000000000000000000000000006000000000000300000000000000
% 00000000000000000000000000000000000000000000000000000000000000000000000000000000000000000000000000000000000000007fffffffffffff00000000000000
% 00000000000000000000000000000000000000000000000000000000000000000000000000000000000000000000000000000000000000007fffffffffffff00000000000000
% 00000000000000000000000000000000000000000000000000000000000000000000000000000000000000000000000000000000000000000000000000000000000000000000
% 00000000000000000000000000000000000000000000000000000000000000000000000000000000000000000000000000000000000000000000000000000000000000000000
% 00000000000000000000000000000000000000000000000000000000000000000000000000000000000000000000000000000000000000000000000000000000000000000000
% 00000000000000000000000000000000000000000000000000000000000000000000000000000000000000000000000000000000000000000000000000000000000000000000
% 00000000000000000000000000000000000000000000000000000000000000000000000000000000000000000000000000000000000000000000000000000000000000000000
% 00000000000000000000000000000000000000000000000000000000000000000000000000000000000000000000000000000000000000000000000000000000000000000000
% 00000000000000000000000000000000000000000e070000000007a0000000001000000018000000000000000000000000000000000000000000000000000000000000000000
% 00000000000000000000000000000000000000000301800000000760000000003000000018000000000000000000000000000000000000000000000000000000000000000000
% 00000000000000000000000000000000000000000301824739c1cff73e1ddb9f7873ef39fbe7c000000000000000000000000000000000000000000000000000000000000000
% 00000000000000000000000000000000000000000301866c2f6366659e16d2cdb0d9f9e319bd8000000000000000000000000000000000000000000000000000000000000000
% 00000000000000000000000000000000000000000201066e7f01666f983ed7cdb0c199f399bd8000000000000000000000000000000000000000000000000000000000000000
% 0000000000000000000000000000000000000000040206676301666c1830660db0c199b9d9b78000000000000000000000000000000000000000000000000000000000000000
% 00000000000000000000000000000000000000000fa7c6696383666c1830660db0e199ca59b60000000000000000000000000000000000000000000000000000000000000000
% 00000000000000000000000000000000000000001f7f87ef3de3e777981e23cdb8798f7bd9bf8000000000000000000000000000000000000000000000000000000000000000
% 000000000000000000000000000000000000000000000600000000000000000000000000000c4000000000000000000000000000000000000000000000000000000000000000
% 00000000000000000000000000000000000000000000060000000000000000000000000000084000000000000000000000000000000000000000000000000000000000000000
% 00000000000000000000000000000000000000000000040000000000000000000000000000078000000000000000000000000000000000000000000000000000000000000000
% 00000000000000000000000000000000000000000000000000000000000000000000000000000000000000000000000000000000000000000000000000000000000000000000
% 00000000000000000000000000000000000000000000000000000000000000000000000000000000000000000000000000000000000000000000000000000000000000000000
% 00000000000000000000000000000000000000000000000000000000000000000000000000000000000000000000000000000000000000000000000000000000000000000180
% 00000000000000000000000000000000000000000000000000000000000000000000000000000000000000000000000000000000000000000000000000000000000000000180
% ffffffffffffffffffffffffffffffffffffffffffffffffffffffffffffffffffffffffffffffffffffffffffffffffffffffffffffffffffffffffffffffffffffffffff80
% 00000000000000000000000000000000000000000000000000000000000000000000000000000000000000000000000000000000000000000000000000000000000000000180
% 00000000000000000000000000000000000000000000000000000000000000000000000000000000000000000000000000000000000000000000000000000000000000000180
% 00000000000000000000000000000000000000000000000000000000000000000000000000000000000000000000000000000000000000000000000000000000000000000100
% 00000000000000000000000000000000000000000000000000000000000000000000000000000000000000000000000000000000000000000000000000000000000000000000
% 00000000000000000000000000000000000000000000000000000000000000000000000000000000000000000000000000000000000000000000000000000000000000000000
% 00000000000000000000000000000000000000000000000000000000000000000000000000000000000000000000000000000000000000000000000000000000000000000000
% 00000000000000000000000000000000000000000000000000000000000000000000000000000000000000000000000000000000000000000000000000000000000000000000
% 00000000000000000000000000000000000000000000000000000000000000000000000000000000000000000000000000000000000000000000000000000000000000000000
% 00000000000000000000000000000000000000000000000000000000000000000000000000000000000000000000000000000000000000000000000000000000000000000000
% 00000000000000000000000000000000000000000000000000000000000000000000000000000000000000000000000000000000000000000000000000000000000000000000
% 00000000000000000000000000000000000000000000000000000000000000000000000000000000000000000000000000000000000000000000000000000000000000000000
% 00000000000000000000000000000000000000000000000000000000000000000000000000000000000000000000000000000000000000000000000000000000000000000000
% 00000000000000000000000000000000000000000000000000000000000000000000000000000000000000000000000000000000000000000000000000000000000000000000
% 0000000000000000000000000000000000000000000000000000000000000000000000000000000000000000000000000000000000000000000000000000000000000fffff80
% 00000000000000000000000000000000000000000000000000000000000000000000000000000000000000000000000000000000000000000007c000003e0000c00000204080
% 00000000000000000000000000000000000000000000000000000000000000000000000000000000000000000000000000000000000000000003600000620000c00000204080
% 000000000000000000000000000000000000000000000000000000000000000000000000000000000000000000000000000000000000000000036c77b0c1ee77df7800204080
% 00000000000000000000000000000000000000000000000000000000000000000000000000000000000000000000000000000000000000000003daf250c0fb99495000204080
% 000000000000000000000000000000000000000000000000000000000000000000000000000000000000000000000000000000000000000000037e7250c091ee495000204080
% 00000000000000000000000000000000000000000000000000000000000000000000000000000000000000000000000000000000000000000003789250e09133496000204080
% 00000000000000000000000000000000000000000000000000000000000000000000000000000000000000000000000000000000000000000003cef2583c8eff497800204080
% 00000000000000000000000000000000000000000000000000000000000000000000000000000000000000000000000000000000000000000000000000000000000800000000
% 0000000000000000000000000000000000000000000000000000000000000000000000000000000000000000000000000000000000000000000000000000000000f800000000
%%EndImage
%%EndPreview
save
countdictstack
mark
newpath
/showpage {} def
%%EndProlog
%%Page 1 1
save

userdict /IslandDrawDict 300 dict dup begin put

/bdef	{bind def} bind def
/E	{exch} bdef
/FF	{findfont} bdef
/MF	{makefont} bdef
/RO	{rotate} bdef
/SC	{scale} bdef
/SF	{setfont} bdef
/SG	{setgray} bdef
/TR	{translate} bdef
/bp	{lj lw rgb} bdef
/bpbw	{lj lw setgray} bdef
/c	{curveto} bdef
/cr	{currentpoint} bdef
/cl	{closepath} bdef
/fi	{eofill} bdef
/g	{setgray} bdef
/gr	{grestore} bdef
/gs	{gsave} bdef
/l	{lineto} bdef
/lj	{setlinejoin} bdef
/lw	{setlinewidth} bdef
/m	{moveto} bdef
/n	{newpath} bdef
/nx	{/x E def} bdef
/r	{rmoveto} bdef
/rl	{rlineto} bdef
/rgb	{setrgbcolor} bdef
/s	{show} bdef
/sd	{setdash} bdef
/sp	{x 0 rmoveto} bdef
/ss	{currentpoint pop E m} bdef
/st	{stroke} bdef
%% pattern stuff
/BPSIDE	32 def	%% pixels per pattern side
/PATFREQ 3.0 def	%% pattern pixels per mm
/dp_mat [PATFREQ 0 0 PATFREQ 0 0] def
/dp_pw	BPSIDE def	%% pattern pixel width
/dp_ph	BPSIDE def	%% pattern pixel height
/dp_w	dp_pw PATFREQ div def	%% pattern mm width
/dp_h	dp_ph PATFREQ div def	%% pattern mm height
/savemat matrix def
/topmat matrix def
/patmat matrix def

%%	catch nocurrentpoint error for:		pathbbox
/ncpoint errordict /nocurrentpoint get def
errordict begin
/nocurrentpoint	{
	dup /pathbbox load eq
	{pop 0 0 1 1}
	{ncpoint}
	ifelse
} bdef
end
/ar	{ %% sa ea sx sy rot tx ty
	matrix currentmatrix 8 1 roll TR RO SC
	n 0 0 1 5 3 roll arc setmatrix
} bdef
/arn	{ %% sa ea sx sy rot tx ty
 TR RO SC
	matrix currentmatrix 8 1 roll
	n 0 0 1 5 3 roll arcn setmatrix
} bdef
/el	{ %% sx sy rot tx ty
	matrix currentmatrix 6 1 roll TR RO SC
	n 0 0 1 0 360 arc setmatrix cl
} bdef
/image_raster	{ %% sw sh sdd dw dh xs ys
	TR SC /sdd E def /sh E def /sw E def
	/imagebuf sw sdd mul 7 add 8 idiv string def
	sw sh sdd [sw 0 0 sh 0 0] { currentfile imagebuf readhexstring pop}
	image
} bdef
/imagemask_raster	{
	TR SC /sh E def /sw E def
	/imagebuf sw 7 add 8 idiv string def
	sw sh false [sw 0 0 sh 0 0]
	{currentfile imagebuf readhexstring pop}
	imagemask
} bdef
/dither_color_raster    { % bool sw sh sdd dw dh xs ys
	TR SC /sdd E def /sh E def /sw E def
	sdd 8 eq and
	{
	  /imagebuf 3 string def
	  /grayval 1 string def
	  sw sh sdd [sw 0 0 sh 0 0]
	  {
	    currentfile imagebuf readhexstring pop pop
	    imagebuf 0 get 0.299 mul
	    imagebuf 1 get 0.587 mul add
	    imagebuf 2 get 0.114 mul add cvi grayval exch 0 exch put grayval
	  }
	  image
	}
	{
	  /imagebuf sw 3 mul sdd mul 7 add 8 idiv string def
	  sh { currentfile imagebuf readhexstring pop pop } repeat
	} ifelse
} bdef
/image_color_raster	{ % bool sw sh sdd dw dh xs ys
	/colorimage where not
	{ dither_color_raster }
	{
	  pop
	  TR SC /sdd E def /sh E def /sw E def pop
	  /imagebuf sw 3 mul sdd mul 7 add 8 idiv string def
	  sw sh sdd [sw 0 0 sh 0 0] { currentfile imagebuf readhexstring pop}
	  false 3 colorimage
	} ifelse
} bdef
/patpath	{
	/inv E def
	topmat setmatrix
	pathbbox	%% get lo - hi indecies
	/hy E dp_h div floor cvi def
	/hx E dp_w div floor cvi def
	/ly E dp_h div floor cvi def
	/lx E dp_w div floor cvi def
	lx 1 hx	{
	    dp_w mul
	    ly 1 hy {
		dp_h mul
		E dup 3 1 roll E
		patmat currentmatrix pop
		TR
		dp_pw dp_ph inv
		dp_mat dp_proc imagemask
		patmat setmatrix
	    } for
	    pop
	} for
} bdef
% setpattern brush of patterns instead of gray
/setpattern	{
	/blue E def /green E def /red E def
	/freq E def /bwidth E def /bpside E def
	/bstring E def
	/onbits 0 def /offbits 0 def
	freq 0 {/y E def /x E def
		/xindex x 1 add 2 div bpside mul cvi def
		/yindex y 1 add 2 div bpside mul cvi def
		bstring yindex bwidth mul xindex 8 idiv add get not
		1 7 xindex 8 mod sub bitshift and 0 ne
		{/onbits onbits 1 add def 1}
		{/offbits offbits 1 add def 0}
		ifelse
	} setscreen {} settransfer
	systemdict /setcmykcolor known
	{ /fact 1 onbits offbits onbits add div sub def
	1 red sub fact mul 1 green sub fact mul 1 blue sub fact mul 0
		setcmykcolor
	}
	{ offbits offbits onbits add div setgray}
	ifelse
} bdef
/dmatrix matrix def
/dpi 72 0 dmatrix defaultmatrix dtransform
	dup mul E dup mul add sqrt
def

/B	{gs bp st gr} bdef %% brush: gr lw lj
/Bbw	{gs bpbw st gr} bdef %% brush: gr lw lj
/F	{gs rgb eofill gr} bdef %% fill: gr
/Fbw	{gs setgray eofill gr} bdef %% fill: gr
/PB	{gs lj lw setpattern st gr} bdef
/PF	{gs eoclip patpath gr} bdef
/BB	{gs rgb lj lw strokepath clip patpath gr} bdef
/xdef {exch def} bdef
/clip_region {
  /ht xdef
  /wd xdef
  /bm xdef
  /lm xdef
  newpath
      lm bm moveto
      0 ht rlineto
      wd 0 rlineto
      0 ht neg rlineto
  closepath clip
} bdef
%! Island text prolog Version 3.1
%%
/reencode_small_dict 12 dict def
/ReencodeSmall {
reencode_small_dict begin
/new_codes_and_names exch def
/new_font_name exch def
/base_font_name exch def
/base_font_dict base_font_name findfont def
/newfont base_font_dict maxlength dict def
base_font_dict {
exch dup /FID ne
{ dup /Encoding eq
{ exch dup length array copy newfont 3 1 roll put }
{ exch newfont 3 1 roll put }
ifelse
}
{ pop pop }
ifelse
} forall
newfont /FontName new_font_name put
base_font_dict /Encoding get StandardEncoding eq
new_codes_and_names extended_Standard ne or
{
new_codes_and_names aload pop
new_codes_and_names length 2 idiv
{ newfont /Encoding get 3 1 roll put }
repeat
}
if
new_font_name newfont definefont pop
end     %reencode_small_dict
} def
/extended_Zapf [
8#223 /a89
8#224 /a90
8#225 /a93
8#226 /a94
8#227 /a91
8#230 /a92
8#231 /a205
8#232 /a85
8#233 /a206
8#234 /a86
8#235 /a87
8#236 /a88
8#237 /a95
8#240 /a96
] def
/extended_Standard [
29 /thorn
30 /yacute
31 /divide
128 /Acircumflex
129 /Adieresis
130 /Agrave
131 /Aring
132 /Atilde
133 /Ccedilla
134 /Eacute
135 /Ecircumflex
136 /Edieresis
137 /Egrave
138 /Iacute
139 /Icircumflex
140 /Idieresis
141 /Igrave
142 /Ntilde
143 /Oacute
144 /Ocircumflex
145 /Odieresis
146 /Ograve
147 /Otilde
148 /Scaron
149 /Uacute
150 /Ucircumflex
151 /Udieresis
152 /Ugrave
153 /Ydieresis
154 /Zcaron
155 /aacute
156 /acircumflex
157 /adieresis
158 /agrave
159 /aring
160 /atilde
161 /exclamdown
162 /cent
163 /sterling
164 /fraction
165 /yen
166 /florin
167 /section
168 /currency
169 /quotesingle
170 /quotedblleft
171 /guillemotleft
172 /guilsinglleft
173 /guilsinglright
174 /fi
175 /fl
176 /plusminus
177 /endash
178 /dagger
179 /daggerdbl
180 /periodcentered
181 /twosuperior
182 /paragraph
183 /bullet
184 /quotesinglbase
185 /quotedblbase
186 /quotedblright
187 /guillemotright
188 /ellipsis
189 /perthousand
190 /threesuperior
191 /questiondown
192 /mu
193 /grave
194 /acute
195 /circumflex
196 /tilde
197 /macron
198 /breve
199 /dotaccent
200 /dieresis
201 /onesuperior
202 /ring
203 /cedilla
204 /onequarter
205 /hungarumlaut
206 /ogonek
207 /caron
208 /emdash
209 /ccedilla
210 /copyright
211 /eacute
212 /ecircumflex
213 /edieresis
214 /egrave
215 /iacute
216 /icircumflex
217 /idieresis
218 /igrave
219 /logicalnot
220 /minus
221 /ntilde
222 /oacute
223 /ocircumflex
224 /odieresis
225 /AE
226 /onehalf
227 /ordfeminine
228 /ograve
229 /otilde
230 /registered
231 /scaron
232 /Lslash
233 /Oslash
234 /OE
235 /ordmasculine
236 /trademark
237 /uacute
238 /ucircumflex
239 /udieresis
240 /ugrave
241 /ae
242 /ydieresis
243 /zcaron
244 /Aacute
245 /dotlessi
246 /threequarters
247 /Eth
248 /lslash
249 /oslash
250 /oe
251 /germandbls
252 /multiply
253 /Yacute
254 /Thorn
255 /eth
] def
/extended_Symbol [
] def
/extend_font {  % stack: fontname newfontname
exch dup (ZapfDingbats) eq
{ cvn exch cvn extended_Zapf ReencodeSmall }
{ dup (Symbol) eq
{ cvn exch cvn extended_Symbol ReencodeSmall }
{ cvn exch cvn extended_Standard ReencodeSmall }
ifelse
}
ifelse
} bind def
/extend_font_name { % stack: font_name_string
dup length 1 add string /extended_font_name exch def
extended_font_name 0 (_) putinterval
extended_font_name 1 3 -1 roll putinterval
extended_font_name
} bind def
/findjpnfont {
  userdict /JFontSubs known {JFontSubs}{false} ifelse {
   dup JFontSubsDict
   dup 4 -1 roll known {exch get}{pop}ifelse findfont
  }{
   findfont
  } ifelse
} bind def
/gf {
  /f E def f cvn currentdict E known
  { currentdict begin f cvn load exec SF end }
  {
    f dup dup length 1 sub 1 getinterval (I) eq
    {
     f dup length 1 sub 0 E getinterval /f E def
     /ita 0.21256 def
    }{
     /ita 0 def
    } ifelse
    f dup length 5 sub 1 getinterval (0) ne
    {
	 /xsz f f length 5 sub 5 getinterval cvi def
	 /ysz f f length 10 sub 5 getinterval cvi def
	 f dup length 2 sub 0 E getinterval /f E def
    }{
	 /xsz f f length 4 sub 4 getinterval cvi def
	 /ysz f f length 8 sub 4 getinterval cvi def
    } ifelse
    f 0 f

    length 8 sub getinterval
    false [(-H)(-V)(.Hankaku)]{
     dup length dup 8 add f length exch sub dup 0 gt
     {f exch 3 -1 roll getinterval eq {pop true exit} if}
     {pop pop pop} ifelse
    } forall
    {
            cvn findjpnfont
    }{
            (LocalFont) extend_font /LocalFont FF
    } ifelse
    /ita xsz ita mul def
    [ xsz 0 ita ysz neg 0 0 ] MF dup
    SF E cvn E def
  } ifelse
}bind def
/ul { % space drop thickness
gs currentpoint currentlinewidth 
currentpoint n m 6 -3 roll 
lw 0 exch r
0 rl st lw m
gr 
} bind def
/nxtab { currentpoint pop 1000.0 mul cvi tab mod
	tab exch sub 1000.0 div 0 rmoveto } bind def
/nx { /x exch def } bind def
0. nx
[ statusdict /product get (Grime) search not
true and
 userdict begin /JFontSubs exch def end cleartomark
userdict begin
/JFontSubsDict 19 dict dup begin
 /HiraginoMin-W3-H /Ryumin-Light-H def
 /HiraginoMin-W3-V /Ryumin-Light-V def
 /HiraginoMin-W3.Hankaku /Ryumin-Light.Hankaku def
 /HiraginoMin-W5-H /FutoMinA101-Bold-H def
 /HiraginoMin-W5-V /FutoMinA101-Bold-V def
 /HiraginoMin-W5.Hankaku /FutoMinA101-Bold.Hankaku def
 /HiraginoMin-W8-H /FutoMinA101-Bold-H def
 /HiraginoMin-W8-V /FutoMinA101-Bold-V def
 /HiraginoMin-W8.Hankaku /FutoMinA101-Bold.Hankaku def
 /KyogokuKaku-W3-H /GothicBBB-Medium-H def
 /KyogokuKaku-W3-V /GothicBBB-Medium-V def
 /KyogokuKaku-W3.Hankaku /GothicBBB-Medium.Hankaku def
 /KyogokuKaku-W5-H /FutoGoB101-Bold-H def
 /KyogokuKaku-W5-V /FutoGoB101-Bold-V def
 /KyogokuKaku-W5.Hankaku /FutoGoB101-Bold.Hankaku def
 /FunaokaMaru-W3-H /Jun101-Light-H def
 /FunaokaMaru-W3-V /Jun101-Light-V def
 /FunaokaMaru-W3.Hankaku /Jun101-Light.Hankaku def
end def end
gsave
18 18 559.276 805.89 clip_region
2.83465 -2.83465 scale 6.35 -290.65 translate
topmat currentmatrix pop
n 161.11 29.13 m
180 29.13 l
180 149.57 l
161.11 149.57 l
cl
gsave
0 0.706 0 Bbw
grestore
n savemat currentmatrix pop [0 -1 1 0 172.611 115.849] concat
25.4 1440 div 1.000000 mul dup scale 0 0 m
/tab 283.00 1000.0 mul cvi def

0 0 m 0 ss  (Times-Bold03200320) gf 
0.00 SG  (Global Decision Logic) s 
savemat setmatrix
n 6.112 30.43 m
25.162 30.43 l
25.162 43.13 l
6.112 43.13 l
cl
gsave
0 0.706 0 Bbw
grestore
n savemat currentmatrix pop [1 0 0 1 9.524 38.834] concat
25.4 1440 div 1.000000 mul dup scale 0 0 m
/tab 283.00 1000.0 mul cvi def

0 0 m 0 ss  (Times-Bold03200320) gf 
0.00 SG  (CDC) s 
savemat setmatrix
n 6.112 132.77 m
25.162 132.77 l
25.162 145.47 l
6.112 145.47 l
cl
gsave
0 0.706 0 Bbw
grestore
n savemat currentmatrix pop [1 0 0 1 9.993 141.171] concat
25.4 1440 div 1.000000 mul dup scale 0 0 m
/tab 283.00 1000.0 mul cvi def

0 0 m 0 ss  (Times-Bold03200320) gf 
0.00 SG  (EFC) s 
savemat setmatrix
n 6.112 57.791 m
25.162 57.791 l
25.162 70.491 l
6.112 70.491 l
cl
gsave
0 0.706 0 Bbw
grestore
n savemat currentmatrix pop [1 0 0 1 10.148 66.196] concat
25.4 1440 div 1.000000 mul dup scale 0 0 m
/tab 283.00 1000.0 mul cvi def

0 0 m 0 ss  (Times-Bold03200320) gf 
0.00 SG  (TOF) s 
savemat setmatrix
n 6.112 112.66 m
25.162 112.66 l
25.162 125.36 l
6.112 125.36 l
cl
gsave
0 0.706 0 Bbw
grestore
n savemat currentmatrix pop [1 0 0 1 8.895 121.063] concat
25.4 1440 div 1.000000 mul dup scale 0 0 m
/tab 283.00 1000.0 mul cvi def

0 0 m 0 ss  (Times-Bold03200320) gf 
0.00 SG  (KLM) s 
savemat setmatrix
n 6.112 86.03 m
25.162 86.03 l
25.162 98.73 l
6.112 98.73 l
cl
gsave
0 0.706 0 Bbw
grestore
n savemat currentmatrix pop [1 0 0 1 9.835 94.435] concat
25.4 1440 div 1.000000 mul dup scale 0 0 m
/tab 283.00 1000.0 mul cvi def

0 0 m 0 ss  (Times-Bold03200320) gf 
0.00 SG  (ECL) s 
savemat setmatrix
n 32.187 24.573 m
57.587 24.573 l
57.587 30.923 l
32.187 30.923 l
cl
gsave
0 0.352 0 Bbw
grestore
n savemat currentmatrix pop [1 0 0 1 34.45 29.032] concat
25.4 1440 div 1.000000 mul dup scale 0 0 m
/tab 283.00 1000.0 mul cvi def

0 0 m 0 ss  (Times-Bold02000200) gf 
0.00 SG  (Cathode Pads) s 
savemat setmatrix
n 32.187 32.273 m
57.587 32.273 l
57.587 38.623 l
32.187 38.623 l
cl
gsave
0 0.352 0 Bbw
grestore
n savemat currentmatrix pop [1 0 0 1 35.14 36.733] concat
25.4 1440 div 1.000000 mul dup scale 0 0 m
/tab 283.00 1000.0 mul cvi def

0 0 m 0 ss  (Times-Bold02000200) gf 
0.00 SG  (Stereo Wires) s 
savemat setmatrix
n 32.187 41.039 m
57.587 41.039 l
57.587 47.389 l
32.187 47.389 l
cl
gsave
0 0.352 0 Bbw
grestore
n savemat currentmatrix pop [1 0 0 1 35.921 45.498] concat
25.4 1440 div 1.000000 mul dup scale 0 0 m
/tab 283.00 1000.0 mul cvi def

0 0 m 0 ss  (Times-Bold02000200) gf 
0.00 SG  (Axial Wires) s 
savemat setmatrix
n 72.187 41.039 m
97.587 41.039 l
97.587 47.389 l
72.187 47.389 l
cl
gsave
0 0.352 0 Bbw
grestore
n savemat currentmatrix pop [1 0 0 1 73.374 45.498] concat
25.4 1440 div 1.000000 mul dup scale 0 0 m
/tab 283.00 1000.0 mul cvi def

0 0 m 0 ss  (Times-Bold02000200) gf 
0.00 SG  (Track Segment) s 
savemat setmatrix
n 117.19 28.423 m
142.59 28.423 l
142.59 34.773 l
117.19 34.773 l
cl
gsave
0 0.352 0 Bbw
grestore
n savemat currentmatrix pop [1 0 0 1 119.992 32.882] concat
25.4 1440 div 1.000000 mul dup scale 0 0 m
/tab 283.00 1000.0 mul cvi def

0 0 m 0 ss  (Times-Bold02000200) gf 
0.00 SG  (z track count) s 
savemat setmatrix
n 117.19 41.039 m
142.59 41.039 l
142.59 47.389 l
117.19 47.389 l
cl
gsave
0 0.352 0 Bbw
grestore
n savemat currentmatrix pop [1 0 0 1 118.485 45.42] concat
25.4 1440 div 1.000000 mul dup scale 0 0 m
/tab 283.00 1000.0 mul cvi def

0 0 m 0 ss  (Times-Bold02000200) gf 
0.00 SG  (r-) s (Symbol02000200) gf 
155 0 m 0 ss  (f) s (Times-Bold02000200) gf 
259 0 m 0 ss  ( track count) s 
savemat setmatrix
n 72.187 28.423 m
97.587 28.423 l
97.587 34.773 l
72.187 34.773 l
cl
gsave
0 0.352 0 Bbw
grestore
n savemat currentmatrix pop [1 0 0 1 78.664 32.882] concat
25.4 1440 div 1.000000 mul dup scale 0 0 m
/tab 283.00 1000.0 mul cvi def

0 0 m 0 ss  (Times-Bold02000200) gf 
0.00 SG  (Z finder) s 
savemat setmatrix
n 72.063 30.324 m
68.352 30.852 l
68.778 28.52 l
cl
0 Fbw
n 57.679 27.699 m
68.565 29.686 l
gsave
0 0.352 0 Bbw
grestore
n 71.984 32.598 m
68.732 34.463 l
68.264 32.139 l
cl
0 Fbw
n 57.601 35.498 m
68.498 33.301 l
gsave
0 0.352 0 Bbw
grestore
n 72.024 44.214 m
68.468 45.399 l
68.468 43.029 l
cl
0 Fbw
n 57.562 44.214 m
68.468 44.214 l
gsave
0 0.352 0 Bbw
grestore
n 116.98 31.598 m
113.42 32.783 l
113.42 30.413 l
cl
0 Fbw
n 97.577 31.598 m
113.42 31.598 l
gsave
0 0.352 0 Bbw
grestore
n 116.92 44.214 m
113.36 45.399 l
113.36 43.029 l
cl
0 Fbw
n 97.518 44.214 m
113.36 44.214 l
gsave
0 0.352 0 Bbw
grestore
n 160.73 31.598 m
157.18 32.783 l
157.18 30.413 l
cl
0 Fbw
n 142.6 31.598 m
157.18 31.598 l
gsave
0 0.352 0 Bbw
grestore
n 160.73 44.214 m
157.18 45.399 l
157.18 43.029 l
cl
0 Fbw
n 142.6 44.214 m
157.18 44.214 l
gsave
0 0.352 0 Bbw
grestore
n savemat currentmatrix pop [1 0 0 1 117.977 95.477] concat
25.4 1440 div 1.000000 mul dup scale 0 0 m
/tab 283.00 1000.0 mul cvi def

0 0 m 0 ss  (Times-Bold02000200) gf 
0.00 SG  (High Threshold) s 
savemat setmatrix
n 160.73 94.193 m
157.18 95.378 l
157.18 93.008 l
cl
0 Fbw
n 142.6 94.193 m
157.18 94.193 l
gsave
0 0.352 0 Bbw
grestore
n 117.19 98.465 m 142.59 98.465 l
142.59 104.82 l
117.19 104.82 l
117.19 98.465 l
cl gsave
0 0.352 0 Bbw
grestore
n 160.73 135.47 m
157.18 136.65 l
157.18 134.28 l
cl
0 Fbw
n 142.6 135.47 m
157.18 135.47 l
gsave
0 0.352 0 Bbw
grestore
n 116.94 135.24 m
113.67 137.08 l
113.22 134.75 l
cl
0 Fbw
n 97.695 138.96 m
113.45 135.91 l
gsave
0 0.352 0 Bbw
grestore
n 116.94 143 m
113.21 143.43 l
113.7 141.11 l
cl
0 Fbw
n 97.695 138.96 m
113.46 142.27 l
gsave
0 0.352 0 Bbw
grestore
n 32.187 135.94 m
57.587 135.94 l
57.587 142.29 l
32.187 142.29 l
cl
gsave
0 0.352 0 Bbw
grestore
n savemat currentmatrix pop [1 0 0 1 35.628 140.4] concat
25.4 1440 div 1.000000 mul dup scale 0 0 m
/tab 283.00 1000.0 mul cvi def

0 0 m 0 ss  (Times-Bold02000200) gf 
0.00 SG  (Trigger Cell) s 
savemat setmatrix
n 72.187 135.94 m
97.587 135.94 l
97.587 142.29 l
72.187 142.29 l
cl
gsave
0 0.352 0 Bbw
grestore
n savemat currentmatrix pop [1 0 0 1 77.144 140.322] concat
25.4 1440 div 1.000000 mul dup scale 0 0 m
/tab 283.00 1000.0 mul cvi def

0 0 m 0 ss  (Times-Bold02000200) gf 
0.00 SG  (Threshold) s 
savemat setmatrix
n 71.984 139.12 m
68.428 140.3 l
68.428 137.93 l
cl
0 Fbw
n 57.797 139.12 m
68.428 139.12 l
gsave
0 0.352 0 Bbw
grestore
n 117.19 132.04 m
142.59 132.04 l
142.59 138.39 l
117.19 138.39 l
cl
gsave
0 0.352 0 Bbw
grestore
n savemat currentmatrix pop [1 0 0 1 124.004 136.425] concat
25.4 1440 div 1.000000 mul dup scale 0 0 m
/tab 283.00 1000.0 mul cvi def

0 0 m 0 ss  (Times-Bold02000200) gf 
0.00 SG  (Bhabha) s 
savemat setmatrix
n 117.19 139.63 m
142.59 139.63 l
142.59 145.98 l
117.19 145.98 l
cl
gsave
0 0.352 0 Bbw
grestore
n savemat currentmatrix pop [1 0 0 1 120.821 144.092] concat
25.4 1440 div 1.000000 mul dup scale 0 0 m
/tab 283.00 1000.0 mul cvi def

0 0 m 0 ss  (Times-Bold02000200) gf 
0.00 SG  (Two photon) s 
savemat setmatrix
n 160.78 142.81 m
157.22 143.99 l
157.22 141.62 l
cl
0 Fbw
n 142.64 142.81 m
157.22 142.81 l
gsave
0 0.352 0 Bbw
grestore
n 32.187 60.966 m
57.587 60.966 l
57.587 67.316 l
32.187 67.316 l
cl
gsave
0 0.352 0 Bbw
grestore
n savemat currentmatrix pop [1 0 0 1 42.437 65.425] concat
25.4 1440 div 1.000000 mul dup scale 0 0 m
/tab 283.00 1000.0 mul cvi def

0 0 m 0 ss  (Times-Bold02000200) gf 
0.00 SG  (Hit) s 
savemat setmatrix
n 72.187 53.487 m
97.587 53.487 l
97.587 59.837 l
72.187 59.837 l
cl
gsave
0 0.352 0 Bbw
grestore
n savemat currentmatrix pop [1 0 0 1 76.165 57.946] concat
25.4 1440 div 1.000000 mul dup scale 0 0 m
/tab 283.00 1000.0 mul cvi def

0 0 m 0 ss  (Times-Bold02000200) gf 
0.00 SG  (multiplicity) s 
savemat setmatrix
n 72.187 60.966 m
97.587 60.966 l
97.587 67.316 l
72.187 67.316 l
cl
gsave
0 0.352 0 Bbw
grestore
n savemat currentmatrix pop [1 0 0 1 78.419 65.425] concat
25.4 1440 div 1.000000 mul dup scale 0 0 m
/tab 283.00 1000.0 mul cvi def

0 0 m 0 ss  (Times-Bold02000200) gf 
0.00 SG  (topology) s 
savemat setmatrix
n 72.187 68.445 m
97.587 68.445 l
97.587 74.795 l
72.187 74.795 l
cl
gsave
0 0.352 0 Bbw
grestore
n savemat currentmatrix pop [1 0 0 1 79.987 72.904] concat
25.4 1440 div 1.000000 mul dup scale 0 0 m
/tab 283.00 1000.0 mul cvi def

0 0 m 0 ss  (Times-Bold02000200) gf 
0.00 SG  (timing) s 
savemat setmatrix
n 71.945 56.558 m
69.335 59.248 l
68.243 57.144 l
cl
0 Fbw
n 57.601 64.004 m
68.789 58.196 l
gsave
0 0.352 0 Bbw
grestore
n 71.945 64.004 m
68.389 65.189 l
68.389 62.819 l
cl
0 Fbw
n 57.601 64.004 m
68.389 64.004 l
gsave
0 0.352 0 Bbw
grestore
n 71.984 71.725 m
68.29 71.087 l
69.412 68.999 l
cl
0 Fbw
n 57.601 64.004 m
68.851 70.043 l
gsave
0 0.352 0 Bbw
grestore
n 160.57 56.662 m
157.01 57.847 l
157.01 55.477 l
cl
0 Fbw
n 97.528 56.662 m
157.01 56.662 l
gsave
0 0.352 0 Bbw
grestore
n 160.74 64.141 m
157.19 65.326 l
157.19 62.956 l
cl
0 Fbw
n 97.706 64.141 m
157.19 64.141 l
gsave
0 0.352 0 Bbw
grestore
n 160.63 71.62 m
157.07 72.805 l
157.07 70.435 l
cl
0 Fbw
n 97.588 71.62 m
157.07 71.62 l
gsave
0 0.352 0 Bbw
grestore
n 32.187 115.83 m 57.587 115.83 l
57.587 122.18 l
32.187 122.18 l
32.187 115.83 l
cl gsave
0 0.352 0 Bbw
grestore
n savemat currentmatrix pop [1 0 0 1 42.437 120.321] concat
25.4 1440 div 1.000000 mul dup scale 0 0 m
/tab 283.00 1000.0 mul cvi def

0 0 m 0 ss  (Times-Bold02000200) gf 
0.00 SG  (Hit) s 
savemat setmatrix
n 72.187 115.83 m
97.587 115.83 l
97.587 122.18 l
72.187 122.18 l
cl
gsave
0 0.352 0 Bbw
grestore
n savemat currentmatrix pop [1 0 0 1 81.372 120.215] concat
25.4 1440 div 1.000000 mul dup scale 0 0 m
/tab 283.00 1000.0 mul cvi def

0 0 m 0 ss  (Symbol02000200) gf 
0.00 SG  () s (Symbol02000200) gf 
0 0 m 0 ss  (m) s (Times-Bold02000200) gf 
115 0 m 0 ss  ( hit) s 
savemat setmatrix
n 71.906 119.01 m
68.35 120.19 l
68.35 117.82 l
cl
0 Fbw
n 57.797 119.01 m
68.35 119.01 l
gsave
0 0.352 0 Bbw
grestore
n 160.51 119.01 m
156.95 120.19 l
156.95 117.82 l
cl
0 Fbw
n 97.469 119.01 m
156.95 119.01 l
gsave
0 0.352 0 Bbw
grestore
n 32.187 89.205 m
57.587 89.205 l
57.587 95.555 l
32.187 95.555 l
cl
gsave
0 0.352 0 Bbw
grestore
n savemat currentmatrix pop [1 0 0 1 38.369 93.664] concat
25.4 1440 div 1.000000 mul dup scale 0 0 m
/tab 283.00 1000.0 mul cvi def

0 0 m 0 ss  (Times-Bold02000200) gf 
0.00 SG  (4x4 Sum) s 
savemat setmatrix
n 71.984 88.539 m
68.843 90.584 l
68.244 88.29 l
cl
0 Fbw
n 57.718 92.262 m
68.543 89.437 l
gsave
0 0.352 0 Bbw
grestore
n 71.945 96.221 m
68.201 96.41 l
68.837 94.126 l
cl
0 Fbw
n 57.718 92.262 m
68.519 95.268 l
gsave
0 0.352 0 Bbw
grestore
n 72.187 85.455 m
97.587 85.455 l
97.587 91.805 l
72.187 91.805 l
cl
gsave
0 0.352 0 Bbw
grestore
n savemat currentmatrix pop [1 0 0 1 75.628 89.914] concat
25.4 1440 div 1.000000 mul dup scale 0 0 m
/tab 283.00 1000.0 mul cvi def

0 0 m 0 ss  (Times-Bold02000200) gf 
0.00 SG  (Trigger Cell) s 
savemat setmatrix
n 72.187 92.955 m
97.587 92.955 l
97.587 99.305 l
72.187 99.305 l
cl
gsave
0 0.352 0 Bbw
grestore
n savemat currentmatrix pop [1 0 0 1 75.528 97.414] concat
25.4 1440 div 1.000000 mul dup scale 0 0 m
/tab 283.00 1000.0 mul cvi def

0 0 m 0 ss  (Times-Bold02000200) gf 
0.00 SG  (Energy Sum) s 
savemat setmatrix
n 116.94 86.652 m
113.52 88.182 l
113.28 85.823 l
cl
0 Fbw
n 97.538 88.572 m
113.4 87.002 l
gsave
0 0.352 0 Bbw
grestore
n 116.94 79.049 m
114.27 81.68 l
113.22 79.552 l
cl
0 Fbw
n 97.538 88.572 m
113.75 80.616 l
gsave
0 0.352 0 Bbw
grestore
n 117.19 75.941 m
142.59 75.941 l
142.59 82.291 l
117.19 82.291 l
cl
gsave
0 0.352 0 Bbw
grestore
n savemat currentmatrix pop [1 0 0 1 119.648 80.4] concat
25.4 1440 div 1.000000 mul dup scale 0 0 m
/tab 283.00 1000.0 mul cvi def

0 0 m 0 ss  (Times-Bold02000200) gf 
0.00 SG  (Cluster count) s 
savemat setmatrix
n 160.82 79.116 m
157.26 80.301 l
157.26 77.931 l
cl
0 Fbw
n 142.69 79.116 m
157.26 79.116 l
gsave
0 0.352 0 Bbw
grestore
n 117.19 83.441 m
142.59 83.441 l
142.59 89.791 l
117.19 89.791 l
cl
gsave
0 0.352 0 Bbw
grestore
n savemat currentmatrix pop [1 0 0 1 124.398 87.9] concat
25.4 1440 div 1.000000 mul dup scale 0 0 m
/tab 283.00 1000.0 mul cvi def

0 0 m 0 ss  (Times-Bold02000200) gf 
0.00 SG  (Timing) s 
savemat setmatrix
n 160.82 86.616 m
157.26 87.801 l
157.26 85.431 l
cl
0 Fbw
n 142.69 86.616 m
157.26 86.616 l
gsave
0 0.352 0 Bbw
grestore
n 117.19 91.018 m 142.59 91.018 l
142.59 97.368 l
117.19 97.368 l
117.19 91.018 l
cl gsave
0 0.352 0 Bbw
grestore
n savemat currentmatrix pop [1 0 0 1 118.371 102.924] concat
25.4 1440 div 1.000000 mul dup scale 0 0 m
/tab 283.00 1000.0 mul cvi def

0 0 m 0 ss  (Times-Bold02000200) gf 
0.00 SG  (Low Threshold) s 
savemat setmatrix
n 160.86 101.64 m
157.31 102.83 l
157.31 100.45 l
cl
0 Fbw
n 142.73 101.64 m
157.31 101.64 l
gsave
0 0.352 0 Bbw
grestore
n 117.19 105.97 m
142.59 105.97 l
142.59 112.31 l
117.19 112.31 l
cl
gsave
0 0.352 0 Bbw
grestore
n savemat currentmatrix pop [1 0 0 1 124.004 110.424] concat
25.4 1440 div 1.000000 mul dup scale 0 0 m
/tab 283.00 1000.0 mul cvi def

0 0 m 0 ss  (Times-Bold02000200) gf 
0.00 SG  (Bhabha) s 
savemat setmatrix
n 160.86 109.14 m
157.31 110.33 l
157.31 107.95 l
cl
0 Fbw
n 142.73 109.14 m
157.31 109.14 l
gsave
0 0.352 0 Bbw
grestore
n 116.98 93.981 m
113.58 95.559 l
113.31 93.204 l
cl
0 Fbw
n 97.616 96.176 m
113.44 94.382 l
gsave
0 0.352 0 Bbw
grestore
n 116.9 101.78 m
113.15 101.93 l
113.82 99.649 l
cl
0 Fbw
n 97.616 96.176 m
113.48 100.79 l
gsave
0 0.352 0 Bbw
grestore
n 117.02 109.32 m
113.41 108.31 l
114.73 106.35 l
cl
0 Fbw
n 97.574 96.173 m
114.07 107.33 l
gsave
0 0.352 0 Bbw
grestore
n 195 140 m
191.44 141.19 l
191.44 138.81 l
cl
0 Fbw
n 180 140 m
191.44 140 l
gsave
0 0.352 0 Bbw
grestore
n 197.5 140 m
200 140 l
200 145 l
205 145 l
205 140 l
207.5 140 l
gsave
0 0.352 0 Bbw
grestore
n savemat currentmatrix pop [1 0 0 1 185 132.5] concat
25.4 1440 div 1.000000 mul dup scale 0 0 m
/tab 283.00 1000.0 mul cvi def

0 0 m 0 ss  (Times-Bold02000200) gf 
0.00 SG  (Trigger Signal) s 
0 0 m 279 ss  (Times-Bold02000200) gf 
0.00 SG  (    Gate/Stop) s 
savemat setmatrix
n 200 145 m 200 162.5 l
gsave
    [1 1 1 1] 0 setdash
0 0.176 0 Bbw
grestore
n 190 162.5 m 207.5 162.5 l
gsave
0 0.176 0 Bbw
grestore
n 200 162.5 m 200 165 l
gsave
0 0.176 0 Bbw
grestore
n 202.5 162.5 m 202.5 165 l
gsave
0 0.176 0 Bbw
grestore
n 195 162.5 m 195 165 l
gsave
0 0.176 0 Bbw
grestore
n 197.5 162.5 m 197.5 165 l
gsave
0 0.176 0 Bbw
grestore
n 192.5 162.5 m 192.5 165 l
gsave
0 0.176 0 Bbw
grestore
n 205 162.5 m 205 165 l
gsave
0 0.176 0 Bbw
grestore
n savemat currentmatrix pop [1 0 0 1 165 165] concat
25.4 1440 div 1.000000 mul dup scale 0 0 m
/tab 283.00 1000.0 mul cvi def

0 0 m 0 ss  (Times-Bold02000200) gf 
0.00 SG  (Beam Crossing) s 
savemat setmatrix
n 200 157.5 m
196.97 158.51 l
196.97 156.49 l
cl
0 Fbw
n 196.97 157.5 m
2.5 157.5 l
gsave
0 0.176 0 Bbw
grestore
n savemat currentmatrix pop [1 0 0 1 60 155] concat
25.4 1440 div 1.000000 mul dup scale 0 0 m
/tab 283.00 1000.0 mul cvi def

0 0 m 0 ss  (Times-Bold02400240) gf 
0.00 SG  (2.2 ) s (Symbol02400240) gf 
360 0 m 0 ss  (m) s (Times-Bold02400240) gf 
498 0 m 0 ss  (sec after event crossing) s 
savemat setmatrix
userdict /#copies 1 put
showpage
grestore

end
restore


%%Trailer
cleartomark
countdictstack exch sub { end } repeat
restore
%%EOF
