%!PS-Adobe-2.0 EPSF-1.2
%%BoundingBox: 39 384 455 789
%%Title: daq-overview
%%CreationDate: Tue Jun  8 18:01:45 1999
%%Creator: Tgif-3.0J0-p13 by William Chia-Wei Cheng (william@cs.UCLA.edu)

/tgifdict 7 dict def
tgifdict begin

/tgifellipsedict 6 dict def
tgifellipsedict /mtrx matrix put

/tgifellipse
 { tgifellipsedict begin
      /yrad exch def
      /xrad exch def
      /y exch def
      /x exch def
      /savematrix mtrx currentmatrix def
      x y translate
      xrad yrad scale
      0 0 1 0 360 arc
      savematrix setmatrix
   end
 } def

/tgifarrowtipdict 8 dict def
tgifarrowtipdict /mtrx matrix put

/tgifarrowtip
 { tgifarrowtipdict begin
      /dy exch def
      /dx exch def
      /h exch def
      /w exch def
      /y exch def
      /x exch def
      /savematrix mtrx currentmatrix def
      x y translate
      dy dx atan rotate
      0 0 moveto
      w neg h lineto
      w neg h neg lineto
      savematrix setmatrix
   end
 } def

/tgifrighttext { dup stringwidth pop neg 0 rmoveto } def

end

%%PageBoundingBox: 39 384 455 789
tgifdict begin
/tgifsavedpage save def

1 setmiterlimit
1 setlinewidth

0 setgray

72 0 mul 72 11.70 mul translate
72 128 div 75.000 mul 100 div dup neg scale

gsave

/tgiforigctm matrix currentmatrix def

% BOX
1.000 0.549 0.000 setrgbcolor
newpath
   368 128 moveto 1040 128 lineto 1040 880 lineto 368 880 lineto
closepath fill
gsave
   10 setmiterlimit
   gsave
      newpath
         368 128 moveto 1040 128 lineto 1040 880 lineto 368 880 lineto
      closepath
      stroke
   grestore
grestore

% BOX
0.498 1.000 0.000 setrgbcolor
newpath
   336 136 moveto 624 136 lineto 624 248 lineto 336 248 lineto
closepath fill
gsave
   10 setmiterlimit
   gsave
      newpath
         336 136 moveto 624 136 lineto 624 248 lineto 336 248 lineto
      closepath
      stroke
   grestore
grestore

% BOX
1.000 1.000 0.000 setrgbcolor
newpath
   376 256 moveto 624 256 lineto 624 864 lineto 376 864 lineto
closepath fill
gsave
   10 setmiterlimit
   gsave
      newpath
         376 256 moveto 624 256 lineto 624 864 lineto 376 864 lineto
      closepath
      stroke
   grestore
grestore

% BOX
0 setgray
newpath
   344 144 moveto 584 144 lineto 584 216 lineto 344 216 lineto
closepath 1 setgray fill
   0 setgray
gsave
   10 setmiterlimit
   gsave
      newpath
         344 144 moveto 584 144 lineto 584 216 lineto 344 216 lineto
      closepath
      stroke
   grestore
grestore

% BOX
0 setgray
newpath
   352 152 moveto 592 152 lineto 592 224 lineto 352 224 lineto
closepath 1 setgray fill
   0 setgray
gsave
   10 setmiterlimit
   gsave
      newpath
         352 152 moveto 592 152 lineto 592 224 lineto 352 224 lineto
      closepath
      stroke
   grestore
grestore

% POLY/OPEN-SPLINE
0 setgray
gsave
   newpath
      232 296 moveto
      0 24 atan dup cos 20.000 mul 256 exch sub
      exch sin 20.000 mul 296 exch sub lineto
   tgiforigctm setmatrix
   6 setlinewidth
   stroke
   1 setlinewidth
grestore
gsave
   tgiforigctm setmatrix
   newpath
      256 296 20.000 8.000 24 0 tgifarrowtip
   1 setgray closepath fill
   0 setgray
   newpath
      256 296 20.000 8.000 24 0 tgifarrowtip
   closepath fill
grestore

% POLY/OPEN-SPLINE
0 setgray
gsave
   newpath
      360 296 moveto
      0 24 atan dup cos 20.000 mul 384 exch sub
      exch sin 20.000 mul 296 exch sub lineto
   tgiforigctm setmatrix
   6 setlinewidth
   stroke
   1 setlinewidth
grestore
gsave
   tgiforigctm setmatrix
   newpath
      384 296 20.000 8.000 24 0 tgifarrowtip
   1 setgray closepath fill
   0 setgray
   newpath
      384 296 20.000 8.000 24 0 tgifarrowtip
   closepath fill
grestore

% POLY/OPEN-SPLINE
0 setgray
gsave
   newpath
      480 280 moveto
      0 24 atan dup cos 20.000 mul 504 exch sub
      exch sin 20.000 mul 280 exch sub lineto
   tgiforigctm setmatrix
   6 setlinewidth
   stroke
   1 setlinewidth
grestore
gsave
   tgiforigctm setmatrix
   newpath
      504 280 20.000 8.000 24 0 tgifarrowtip
   1 setgray closepath fill
   0 setgray
   newpath
      504 280 20.000 8.000 24 0 tgifarrowtip
   closepath fill
grestore

% BOX
0 setgray
gsave
   10 setmiterlimit
   gsave
      newpath
         112 264 moveto 232 264 lineto 232 328 lineto 112 328 lineto
      closepath
      stroke
   grestore
grestore

% TEXT
0 setgray
/Helvetica findfont [25 0 0 -25 0 0] makefont setfont
   gsave
      112 288 moveto (Front-end) show
      112 317 moveto (elec.) show
   grestore

% BOX
0 setgray
gsave
   10 setmiterlimit
   gsave
      newpath
         256 264 moveto 360 264 lineto 360 328 lineto 256 328 lineto
      closepath
      stroke
   grestore
grestore

% TEXT
0 setgray
/Helvetica findfont [25 0 0 -25 0 0] makefont setfont
   gsave
      256 288 moveto (Q-to-T) show
      256 317 moveto (converter) show
   grestore

% BOX
0 setgray
newpath
   504 264 moveto 608 264 lineto 608 328 lineto 504 328 lineto
closepath 1 setgray fill
   0 setgray
gsave
   10 setmiterlimit
   gsave
      newpath
         504 264 moveto 608 264 lineto 608 328 lineto 504 328 lineto
      closepath
      stroke
   grestore
grestore

% TEXT
0 setgray
/Helvetica findfont [25 0 0 -25 0 0] makefont setfont
   gsave
      512 296 moveto (Master) show
      512 321 moveto (VME) show
   grestore

% POLY/OPEN-SPLINE
0 setgray
gsave
   newpath
      480 368 moveto
      0 24 atan dup cos 20.000 mul 504 exch sub
      exch sin 20.000 mul 368 exch sub lineto
   tgiforigctm setmatrix
   6 setlinewidth
   stroke
   1 setlinewidth
grestore
gsave
   tgiforigctm setmatrix
   newpath
      504 368 20.000 8.000 24 0 tgifarrowtip
   1 setgray closepath fill
   0 setgray
   newpath
      504 368 20.000 8.000 24 0 tgifarrowtip
   closepath fill
grestore

% BOX
0 setgray
newpath
   504 352 moveto 608 352 lineto 608 416 lineto 504 416 lineto
closepath 1 setgray fill
   0 setgray
gsave
   10 setmiterlimit
   gsave
      newpath
         504 352 moveto 608 352 lineto 608 416 lineto 504 416 lineto
      closepath
      stroke
   grestore
grestore

% TEXT
0 setgray
/Helvetica findfont [25 0 0 -25 0 0] makefont setfont
   gsave
      512 384 moveto (Master) show
      512 409 moveto (VME) show
   grestore

% POLY/OPEN-SPLINE
0 setgray
gsave
   newpath
      480 720 moveto
      0 24 atan dup cos 20.000 mul 504 exch sub
      exch sin 20.000 mul 720 exch sub lineto
   tgiforigctm setmatrix
   6 setlinewidth
   stroke
   1 setlinewidth
grestore
gsave
   tgiforigctm setmatrix
   newpath
      504 720 20.000 8.000 24 0 tgifarrowtip
   1 setgray closepath fill
   0 setgray
   newpath
      504 720 20.000 8.000 24 0 tgifarrowtip
   closepath fill
grestore

% BOX
0 setgray
newpath
   504 704 moveto 608 704 lineto 608 768 lineto 504 768 lineto
closepath 1 setgray fill
   0 setgray
gsave
   10 setmiterlimit
   gsave
      newpath
         504 704 moveto 608 704 lineto 608 768 lineto 504 768 lineto
      closepath
      stroke
   grestore
grestore

% TEXT
0 setgray
/Helvetica findfont [25 0 0 -25 0 0] makefont setfont
   gsave
      512 736 moveto (Master) show
      512 761 moveto (VME) show
   grestore

% POLY/OPEN-SPLINE
0 setgray
gsave
   newpath
      232 384 moveto
      0 24 atan dup cos 20.000 mul 256 exch sub
      exch sin 20.000 mul 384 exch sub lineto
   tgiforigctm setmatrix
   6 setlinewidth
   stroke
   1 setlinewidth
grestore
gsave
   tgiforigctm setmatrix
   newpath
      256 384 20.000 8.000 24 0 tgifarrowtip
   1 setgray closepath fill
   0 setgray
   newpath
      256 384 20.000 8.000 24 0 tgifarrowtip
   closepath fill
grestore

% BOX
0 setgray
gsave
   10 setmiterlimit
   gsave
      newpath
         112 352 moveto 232 352 lineto 232 416 lineto 112 416 lineto
      closepath
      stroke
   grestore
grestore

% TEXT
0 setgray
/Helvetica findfont [25 0 0 -25 0 0] makefont setfont
   gsave
      112 376 moveto (Front-end) show
      112 405 moveto (elec.) show
   grestore

% BOX
0 setgray
gsave
   10 setmiterlimit
   gsave
      newpath
         256 352 moveto 360 352 lineto 360 416 lineto 256 416 lineto
      closepath
      stroke
   grestore
grestore

% TEXT
0 setgray
/Helvetica findfont [25 0 0 -25 0 0] makefont setfont
   gsave
      256 376 moveto (Q-to-T) show
      256 405 moveto (converter) show
   grestore

% POLY/OPEN-SPLINE
0 setgray
gsave
   newpath
      360 384 moveto
      0 24 atan dup cos 20.000 mul 384 exch sub
      exch sin 20.000 mul 384 exch sub lineto
   tgiforigctm setmatrix
   6 setlinewidth
   stroke
   1 setlinewidth
grestore
gsave
   tgiforigctm setmatrix
   newpath
      384 384 20.000 8.000 24 0 tgifarrowtip
   1 setgray closepath fill
   0 setgray
   newpath
      384 384 20.000 8.000 24 0 tgifarrowtip
   closepath fill
grestore

% POLY/OPEN-SPLINE
0 setgray
gsave
   newpath
      480 632 moveto
      0 24 atan dup cos 20.000 mul 504 exch sub
      exch sin 20.000 mul 632 exch sub lineto
   tgiforigctm setmatrix
   6 setlinewidth
   stroke
   1 setlinewidth
grestore
gsave
   tgiforigctm setmatrix
   newpath
      504 632 20.000 8.000 24 0 tgifarrowtip
   1 setgray closepath fill
   0 setgray
   newpath
      504 632 20.000 8.000 24 0 tgifarrowtip
   closepath fill
grestore

% BOX
0 setgray
newpath
   504 616 moveto 608 616 lineto 608 680 lineto 504 680 lineto
closepath 1 setgray fill
   0 setgray
gsave
   10 setmiterlimit
   gsave
      newpath
         504 616 moveto 608 616 lineto 608 680 lineto 504 680 lineto
      closepath
      stroke
   grestore
grestore

% TEXT
0 setgray
/Helvetica findfont [25 0 0 -25 0 0] makefont setfont
   gsave
      512 648 moveto (Master) show
      512 673 moveto (VME) show
   grestore

% POLY/OPEN-SPLINE
0 setgray
gsave
   newpath
      232 472 moveto
      0 24 atan dup cos 20.000 mul 256 exch sub
      exch sin 20.000 mul 472 exch sub lineto
   tgiforigctm setmatrix
   6 setlinewidth
   stroke
   1 setlinewidth
grestore
gsave
   tgiforigctm setmatrix
   newpath
      256 472 20.000 8.000 24 0 tgifarrowtip
   1 setgray closepath fill
   0 setgray
   newpath
      256 472 20.000 8.000 24 0 tgifarrowtip
   closepath fill
grestore

% POLY/OPEN-SPLINE
0 setgray
gsave
   newpath
      360 472 moveto
      0 24 atan dup cos 20.000 mul 384 exch sub
      exch sin 20.000 mul 472 exch sub lineto
   tgiforigctm setmatrix
   6 setlinewidth
   stroke
   1 setlinewidth
grestore
gsave
   tgiforigctm setmatrix
   newpath
      384 472 20.000 8.000 24 0 tgifarrowtip
   1 setgray closepath fill
   0 setgray
   newpath
      384 472 20.000 8.000 24 0 tgifarrowtip
   closepath fill
grestore

% POLY/OPEN-SPLINE
0 setgray
gsave
   newpath
      480 456 moveto
      0 24 atan dup cos 20.000 mul 504 exch sub
      exch sin 20.000 mul 456 exch sub lineto
   tgiforigctm setmatrix
   6 setlinewidth
   stroke
   1 setlinewidth
grestore
gsave
   tgiforigctm setmatrix
   newpath
      504 456 20.000 8.000 24 0 tgifarrowtip
   1 setgray closepath fill
   0 setgray
   newpath
      504 456 20.000 8.000 24 0 tgifarrowtip
   closepath fill
grestore

% BOX
0 setgray
gsave
   10 setmiterlimit
   gsave
      newpath
         112 440 moveto 232 440 lineto 232 504 lineto 112 504 lineto
      closepath
      stroke
   grestore
grestore

% TEXT
0 setgray
/Helvetica findfont [25 0 0 -25 0 0] makefont setfont
   gsave
      112 464 moveto (Front-end) show
      112 493 moveto (elec.) show
   grestore

% BOX
0 setgray
gsave
   10 setmiterlimit
   gsave
      newpath
         256 440 moveto 360 440 lineto 360 504 lineto 256 504 lineto
      closepath
      stroke
   grestore
grestore

% TEXT
0 setgray
/Helvetica findfont [25 0 0 -25 0 0] makefont setfont
   gsave
      256 464 moveto (Q-to-T) show
      256 493 moveto (converter) show
   grestore

% BOX
0 setgray
newpath
   504 440 moveto 608 440 lineto 608 504 lineto 504 504 lineto
closepath 1 setgray fill
   0 setgray
gsave
   10 setmiterlimit
   gsave
      newpath
         504 440 moveto 608 440 lineto 608 504 lineto 504 504 lineto
      closepath
      stroke
   grestore
grestore

% TEXT
0 setgray
/Helvetica findfont [25 0 0 -25 0 0] makefont setfont
   gsave
      512 472 moveto (Master) show
      512 497 moveto (VME) show
   grestore

% POLY/OPEN-SPLINE
0 setgray
gsave
   newpath
      480 544 moveto
      0 24 atan dup cos 20.000 mul 504 exch sub
      exch sin 20.000 mul 544 exch sub lineto
   tgiforigctm setmatrix
   6 setlinewidth
   stroke
   1 setlinewidth
grestore
gsave
   tgiforigctm setmatrix
   newpath
      504 544 20.000 8.000 24 0 tgifarrowtip
   1 setgray closepath fill
   0 setgray
   newpath
      504 544 20.000 8.000 24 0 tgifarrowtip
   closepath fill
grestore

% BOX
0 setgray
newpath
   504 528 moveto 608 528 lineto 608 592 lineto 504 592 lineto
closepath 1 setgray fill
   0 setgray
gsave
   10 setmiterlimit
   gsave
      newpath
         504 528 moveto 608 528 lineto 608 592 lineto 504 592 lineto
      closepath
      stroke
   grestore
grestore

% TEXT
0 setgray
/Helvetica findfont [25 0 0 -25 0 0] makefont setfont
   gsave
      512 560 moveto (Master) show
      512 585 moveto (VME) show
   grestore

% POLY/OPEN-SPLINE
0 setgray
gsave
   newpath
      232 560 moveto
      0 24 atan dup cos 20.000 mul 256 exch sub
      exch sin 20.000 mul 560 exch sub lineto
   tgiforigctm setmatrix
   6 setlinewidth
   stroke
   1 setlinewidth
grestore
gsave
   tgiforigctm setmatrix
   newpath
      256 560 20.000 8.000 24 0 tgifarrowtip
   1 setgray closepath fill
   0 setgray
   newpath
      256 560 20.000 8.000 24 0 tgifarrowtip
   closepath fill
grestore

% BOX
0 setgray
gsave
   10 setmiterlimit
   gsave
      newpath
         112 528 moveto 232 528 lineto 232 592 lineto 112 592 lineto
      closepath
      stroke
   grestore
grestore

% TEXT
0 setgray
/Helvetica findfont [25 0 0 -25 0 0] makefont setfont
   gsave
      112 552 moveto (Front-end) show
      112 581 moveto (elec.) show
   grestore

% BOX
0 setgray
gsave
   10 setmiterlimit
   gsave
      newpath
         256 528 moveto 360 528 lineto 360 592 lineto 256 592 lineto
      closepath
      stroke
   grestore
grestore

% TEXT
0 setgray
/Helvetica findfont [25 0 0 -25 0 0] makefont setfont
   gsave
      256 552 moveto (Q-to-T) show
      256 581 moveto (converter) show
   grestore

% POLY/OPEN-SPLINE
0 setgray
gsave
   newpath
      360 560 moveto
      0 24 atan dup cos 20.000 mul 384 exch sub
      exch sin 20.000 mul 560 exch sub lineto
   tgiforigctm setmatrix
   6 setlinewidth
   stroke
   1 setlinewidth
grestore
gsave
   tgiforigctm setmatrix
   newpath
      384 560 20.000 8.000 24 0 tgifarrowtip
   1 setgray closepath fill
   0 setgray
   newpath
      384 560 20.000 8.000 24 0 tgifarrowtip
   closepath fill
grestore

% POLY/OPEN-SPLINE
0 setgray
gsave
   newpath
      480 312 moveto
      0 24 atan dup cos 10.000 mul exch sin 10.000 mul rmoveto
      504 312 lineto
   tgiforigctm setmatrix
   2 setlinewidth
   stroke
   1 setlinewidth
grestore
gsave
   tgiforigctm setmatrix
   newpath
      480 312 10.000 4.000 -24 0 tgifarrowtip
   1 setgray closepath fill
   0 setgray
   newpath
      480 312 10.000 4.000 -24 0 tgifarrowtip
   closepath fill
grestore

% POLY/OPEN-SPLINE
0 setgray
gsave
   newpath
      480 400 moveto
      0 24 atan dup cos 10.000 mul exch sin 10.000 mul rmoveto
      504 400 lineto
   tgiforigctm setmatrix
   2 setlinewidth
   stroke
   1 setlinewidth
grestore
gsave
   tgiforigctm setmatrix
   newpath
      480 400 10.000 4.000 -24 0 tgifarrowtip
   1 setgray closepath fill
   0 setgray
   newpath
      480 400 10.000 4.000 -24 0 tgifarrowtip
   closepath fill
grestore

% POLY/OPEN-SPLINE
0 setgray
gsave
   newpath
      480 752 moveto
      0 24 atan dup cos 10.000 mul exch sin 10.000 mul rmoveto
      504 752 lineto
   tgiforigctm setmatrix
   2 setlinewidth
   stroke
   1 setlinewidth
grestore
gsave
   tgiforigctm setmatrix
   newpath
      480 752 10.000 4.000 -24 0 tgifarrowtip
   1 setgray closepath fill
   0 setgray
   newpath
      480 752 10.000 4.000 -24 0 tgifarrowtip
   closepath fill
grestore

% POLY/OPEN-SPLINE
0 setgray
gsave
   newpath
      480 664 moveto
      0 24 atan dup cos 10.000 mul exch sin 10.000 mul rmoveto
      504 664 lineto
   tgiforigctm setmatrix
   2 setlinewidth
   stroke
   1 setlinewidth
grestore
gsave
   tgiforigctm setmatrix
   newpath
      480 664 10.000 4.000 -24 0 tgifarrowtip
   1 setgray closepath fill
   0 setgray
   newpath
      480 664 10.000 4.000 -24 0 tgifarrowtip
   closepath fill
grestore

% POLY/OPEN-SPLINE
0 setgray
gsave
   newpath
      480 488 moveto
      0 24 atan dup cos 10.000 mul exch sin 10.000 mul rmoveto
      504 488 lineto
   tgiforigctm setmatrix
   2 setlinewidth
   stroke
   1 setlinewidth
grestore
gsave
   tgiforigctm setmatrix
   newpath
      480 488 10.000 4.000 -24 0 tgifarrowtip
   1 setgray closepath fill
   0 setgray
   newpath
      480 488 10.000 4.000 -24 0 tgifarrowtip
   closepath fill
grestore

% POLY/OPEN-SPLINE
0 setgray
gsave
   newpath
      480 576 moveto
      0 24 atan dup cos 10.000 mul exch sin 10.000 mul rmoveto
      504 576 lineto
   tgiforigctm setmatrix
   2 setlinewidth
   stroke
   1 setlinewidth
grestore
gsave
   tgiforigctm setmatrix
   newpath
      480 576 10.000 4.000 -24 0 tgifarrowtip
   1 setgray closepath fill
   0 setgray
   newpath
      480 576 10.000 4.000 -24 0 tgifarrowtip
   closepath fill
grestore

% BOX
0 setgray
newpath
   752 280 moveto 840 280 lineto 840 496 lineto 752 496 lineto
closepath 1 setgray fill
   0 setgray
gsave
   10 setmiterlimit
   gsave
      newpath
         752 280 moveto 840 280 lineto 840 496 lineto 752 496 lineto
      closepath
      stroke
   grestore
grestore

% TEXT
0 setgray
/Helvetica findfont [25 0 0 -25 0 0] makefont setfont
   gsave
      760 384 moveto (Event) show
      760 413 moveto (builder) show
   grestore

% POLY/OPEN-SPLINE
0 setgray
gsave
   newpath
      608 216 moveto
      64 144 atan dup cos 22.000 mul 752 exch sub
      exch sin 22.000 mul 280 exch sub lineto
   tgiforigctm setmatrix
   7 setlinewidth
   stroke
   1 setlinewidth
grestore
gsave
   tgiforigctm setmatrix
   newpath
      752 280 22.000 9.000 144 64 tgifarrowtip
   1 setgray closepath fill
   0 setgray
   newpath
      752 280 22.000 9.000 144 64 tgifarrowtip
   closepath fill
grestore

% POLY/OPEN-SPLINE
0 setgray
gsave
   newpath
      608 304 moveto
      8 144 atan dup cos 22.000 mul 752 exch sub
      exch sin 22.000 mul 312 exch sub lineto
   tgiforigctm setmatrix
   7 setlinewidth
   stroke
   1 setlinewidth
grestore
gsave
   tgiforigctm setmatrix
   newpath
      752 312 22.000 9.000 144 8 tgifarrowtip
   1 setgray closepath fill
   0 setgray
   newpath
      752 312 22.000 9.000 144 8 tgifarrowtip
   closepath fill
grestore

% POLY/OPEN-SPLINE
0 setgray
gsave
   newpath
      608 368 moveto
      -32 144 atan dup cos 22.000 mul 752 exch sub
      exch sin 22.000 mul 336 exch sub lineto
   tgiforigctm setmatrix
   7 setlinewidth
   stroke
   1 setlinewidth
grestore
gsave
   tgiforigctm setmatrix
   newpath
      752 336 22.000 9.000 144 -32 tgifarrowtip
   1 setgray closepath fill
   0 setgray
   newpath
      752 336 22.000 9.000 144 -32 tgifarrowtip
   closepath fill
grestore

% POLY/OPEN-SPLINE
0 setgray
gsave
   newpath
      608 456 moveto
      -96 144 atan dup cos 22.000 mul 752 exch sub
      exch sin 22.000 mul 360 exch sub lineto
   tgiforigctm setmatrix
   7 setlinewidth
   stroke
   1 setlinewidth
grestore
gsave
   tgiforigctm setmatrix
   newpath
      752 360 22.000 9.000 144 -96 tgifarrowtip
   1 setgray closepath fill
   0 setgray
   newpath
      752 360 22.000 9.000 144 -96 tgifarrowtip
   closepath fill
grestore

% POLY/OPEN-SPLINE
0 setgray
gsave
   newpath
      608 552 moveto
      -168 144 atan dup cos 22.000 mul 752 exch sub
      exch sin 22.000 mul 384 exch sub lineto
   tgiforigctm setmatrix
   7 setlinewidth
   stroke
   1 setlinewidth
grestore
gsave
   tgiforigctm setmatrix
   newpath
      752 384 22.000 9.000 144 -168 tgifarrowtip
   1 setgray closepath fill
   0 setgray
   newpath
      752 384 22.000 9.000 144 -168 tgifarrowtip
   closepath fill
grestore

% POLY/OPEN-SPLINE
0 setgray
gsave
   newpath
      608 632 moveto
      -216 144 atan dup cos 22.000 mul 752 exch sub
      exch sin 22.000 mul 416 exch sub lineto
   tgiforigctm setmatrix
   7 setlinewidth
   stroke
   1 setlinewidth
grestore
gsave
   tgiforigctm setmatrix
   newpath
      752 416 22.000 9.000 144 -216 tgifarrowtip
   1 setgray closepath fill
   0 setgray
   newpath
      752 416 22.000 9.000 144 -216 tgifarrowtip
   closepath fill
grestore

% POLY/OPEN-SPLINE
0 setgray
gsave
   newpath
      608 720 moveto
      -272 144 atan dup cos 22.000 mul 752 exch sub
      exch sin 22.000 mul 448 exch sub lineto
   tgiforigctm setmatrix
   7 setlinewidth
   stroke
   1 setlinewidth
grestore
gsave
   tgiforigctm setmatrix
   newpath
      752 448 22.000 9.000 144 -272 tgifarrowtip
   1 setgray closepath fill
   0 setgray
   newpath
      752 448 22.000 9.000 144 -272 tgifarrowtip
   closepath fill
grestore

% BOX
0 setgray
newpath
   912 280 moveto 1000 280 lineto 1000 496 lineto 912 496 lineto
closepath 1 setgray fill
   0 setgray
gsave
   10 setmiterlimit
   gsave
      newpath
         912 280 moveto 1000 280 lineto 1000 496 lineto 912 496 lineto
      closepath
      stroke
   grestore
grestore

% TEXT
0 setgray
/Helvetica findfont [25 0 0 -25 0 0] makefont setfont
   gsave
      920 376 moveto (Online) show
      920 405 moveto (comp.) show
      920 434 moveto (farm) show
   grestore

% BOX
0 setgray
newpath
   904 696 moveto 1008 696 lineto 1008 964 lineto 904 964 lineto
closepath 1 setgray fill
   0 setgray
gsave
   10 setmiterlimit
   gsave
      newpath
         904 696 moveto 1008 696 lineto 1008 964 lineto 904 964 lineto
      closepath
      3 setlinewidth
      stroke
   grestore
grestore

% TEXT
0 setgray
/Helvetica findfont [25 0 0 -25 0 0] makefont setfont
   gsave
      912 752 moveto (Data) show
      912 781 moveto (storage) show
      912 810 moveto (system) show
   grestore

% TEXT
0 setgray
/Helvetica findfont [25 0 0 -25 0 0] makefont setfont
   gsave
      856 976 moveto (Tape) show
      856 1005 moveto (library) show
   grestore

% POLY/OPEN-SPLINE
0 setgray
gsave
   newpath
      656 200 moveto
      656 824 lineto
   tgiforigctm setmatrix
   2 setlinewidth
   stroke
   1 setlinewidth
grestore

% POLY/OPEN-SPLINE
0 setgray
gsave
   newpath
      656 200 moveto
      0 -48 atan dup cos 10.000 mul 608 exch sub
      exch sin 10.000 mul 200 exch sub lineto
   tgiforigctm setmatrix
   2 setlinewidth
   stroke
   1 setlinewidth
grestore
gsave
   tgiforigctm setmatrix
   newpath
      608 200 10.000 4.000 -48 0 tgifarrowtip
   1 setgray closepath fill
   0 setgray
   newpath
      608 200 10.000 4.000 -48 0 tgifarrowtip
   closepath fill
grestore

% POLY/OPEN-SPLINE
0 setgray
gsave
   newpath
      656 280 moveto
      0 -48 atan dup cos 10.000 mul 608 exch sub
      exch sin 10.000 mul 280 exch sub lineto
   tgiforigctm setmatrix
   2 setlinewidth
   stroke
   1 setlinewidth
grestore
gsave
   tgiforigctm setmatrix
   newpath
      608 280 10.000 4.000 -48 0 tgifarrowtip
   1 setgray closepath fill
   0 setgray
   newpath
      608 280 10.000 4.000 -48 0 tgifarrowtip
   closepath fill
grestore

% POLY/OPEN-SPLINE
0 setgray
gsave
   newpath
      656 400 moveto
      0 -48 atan dup cos 10.000 mul 608 exch sub
      exch sin 10.000 mul 400 exch sub lineto
   tgiforigctm setmatrix
   2 setlinewidth
   stroke
   1 setlinewidth
grestore
gsave
   tgiforigctm setmatrix
   newpath
      608 400 10.000 4.000 -48 0 tgifarrowtip
   1 setgray closepath fill
   0 setgray
   newpath
      608 400 10.000 4.000 -48 0 tgifarrowtip
   closepath fill
grestore

% POLY/OPEN-SPLINE
0 setgray
gsave
   newpath
      656 480 moveto
      0 -48 atan dup cos 10.000 mul 608 exch sub
      exch sin 10.000 mul 480 exch sub lineto
   tgiforigctm setmatrix
   2 setlinewidth
   stroke
   1 setlinewidth
grestore
gsave
   tgiforigctm setmatrix
   newpath
      608 480 10.000 4.000 -48 0 tgifarrowtip
   1 setgray closepath fill
   0 setgray
   newpath
      608 480 10.000 4.000 -48 0 tgifarrowtip
   closepath fill
grestore

% POLY/OPEN-SPLINE
0 setgray
gsave
   newpath
      656 576 moveto
      0 -48 atan dup cos 10.000 mul 608 exch sub
      exch sin 10.000 mul 576 exch sub lineto
   tgiforigctm setmatrix
   2 setlinewidth
   stroke
   1 setlinewidth
grestore
gsave
   tgiforigctm setmatrix
   newpath
      608 576 10.000 4.000 -48 0 tgifarrowtip
   1 setgray closepath fill
   0 setgray
   newpath
      608 576 10.000 4.000 -48 0 tgifarrowtip
   closepath fill
grestore

% POLY/OPEN-SPLINE
0 setgray
gsave
   newpath
      656 664 moveto
      0 -48 atan dup cos 10.000 mul 608 exch sub
      exch sin 10.000 mul 664 exch sub lineto
   tgiforigctm setmatrix
   2 setlinewidth
   stroke
   1 setlinewidth
grestore
gsave
   tgiforigctm setmatrix
   newpath
      608 664 10.000 4.000 -48 0 tgifarrowtip
   1 setgray closepath fill
   0 setgray
   newpath
      608 664 10.000 4.000 -48 0 tgifarrowtip
   closepath fill
grestore

% POLY/OPEN-SPLINE
0 setgray
gsave
   newpath
      656 752 moveto
      0 -48 atan dup cos 10.000 mul 608 exch sub
      exch sin 10.000 mul 752 exch sub lineto
   tgiforigctm setmatrix
   2 setlinewidth
   stroke
   1 setlinewidth
grestore
gsave
   tgiforigctm setmatrix
   newpath
      608 752 10.000 4.000 -48 0 tgifarrowtip
   1 setgray closepath fill
   0 setgray
   newpath
      608 752 10.000 4.000 -48 0 tgifarrowtip
   closepath fill
grestore

% POLY/OPEN-SPLINE
0 setgray
gsave
   newpath
      656 720 moveto
      0 48 atan dup cos 10.000 mul 704 exch sub
      exch sin 10.000 mul 720 exch sub lineto
   tgiforigctm setmatrix
   2 setlinewidth
   stroke
   1 setlinewidth
grestore
gsave
   tgiforigctm setmatrix
   newpath
      704 720 10.000 4.000 48 0 tgifarrowtip
   1 setgray closepath fill
   0 setgray
   newpath
      704 720 10.000 4.000 48 0 tgifarrowtip
   closepath fill
grestore

% BOX
0 setgray
newpath
   704 680 moveto 832 680 lineto 832 776 lineto 704 776 lineto
closepath 1 setgray fill
   0 setgray
gsave
   10 setmiterlimit
   gsave
      newpath
         704 680 moveto 832 680 lineto 832 776 lineto 704 776 lineto
      closepath
      stroke
   grestore
grestore

% TEXT
0 setgray
/Helvetica findfont [25 0 0 -25 0 0] makefont setfont
   gsave
      712 720 moveto (Sequence) show
      712 749 moveto (control) show
   grestore

% BOX
0 setgray
gsave
   10 setmiterlimit
   gsave
      newpath
         504 952 moveto 616 952 lineto 616 1032 lineto 504 1032 lineto
      closepath
      stroke
   grestore
grestore

% TEXT
0 setgray
/Helvetica findfont [25 0 0 -25 0 0] makefont setfont
   gsave
      520 976 moveto (Global) show
      520 1000 moveto (trigger) show
      520 1024 moveto (logic) show
   grestore

% POLY/OPEN-SPLINE
0 setgray
gsave
   newpath
      768 992 moveto
      -216 0 atan dup cos 10.000 mul 768 exch sub
      exch sin 10.000 mul 776 exch sub lineto
   tgiforigctm setmatrix
   2 setlinewidth
   stroke
   1 setlinewidth
grestore
gsave
   tgiforigctm setmatrix
   newpath
      768 776 10.000 4.000 0 -216 tgifarrowtip
   1 setgray closepath fill
   0 setgray
   newpath
      768 776 10.000 4.000 0 -216 tgifarrowtip
   closepath fill
grestore

% POLY/OPEN-SPLINE
0 setgray
gsave
   newpath
      616 992 moveto
      768 992 lineto
   tgiforigctm setmatrix
   2 setlinewidth
   stroke
   1 setlinewidth
grestore

% POLY/OPEN-SPLINE
0 setgray
gsave
   newpath
      608 800 moveto
      -320 144 atan dup cos 22.000 mul 752 exch sub
      exch sin 22.000 mul 480 exch sub lineto
   tgiforigctm setmatrix
   7 setlinewidth
   stroke
   1 setlinewidth
grestore
gsave
   tgiforigctm setmatrix
   newpath
      752 480 22.000 9.000 144 -320 tgifarrowtip
   1 setgray closepath fill
   0 setgray
   newpath
      752 480 22.000 9.000 144 -320 tgifarrowtip
   closepath fill
grestore

% BOX
0 setgray
newpath
   384 264 moveto 480 264 lineto 480 328 lineto 384 328 lineto
closepath 1 setgray fill
   0 setgray
gsave
   10 setmiterlimit
   gsave
      newpath
         384 264 moveto 480 264 lineto 480 328 lineto 384 328 lineto
      closepath
      stroke
   grestore
grestore

% TEXT
0 setgray
newpath
   391 271 moveto 444 271 lineto 444 301 lineto 391 301 lineto
closepath 1 setgray fill
0 setgray
/Helvetica findfont [25 0 0 -25 0 0] makefont setfont
   gsave
      392 296 moveto (TDC) show
   grestore

% TEXT
0 setgray
newpath
   391 303 moveto 471 303 lineto 471 324 lineto 391 324 lineto
closepath 1 setgray fill
0 setgray
/Helvetica findfont [17 0 0 -17 0 0] makefont setfont
   gsave
      392 320 moveto (LRS1877S) show
   grestore

% BOX
0 setgray
newpath
   384 352 moveto 480 352 lineto 480 416 lineto 384 416 lineto
closepath 1 setgray fill
   0 setgray
gsave
   10 setmiterlimit
   gsave
      newpath
         384 352 moveto 480 352 lineto 480 416 lineto 384 416 lineto
      closepath
      stroke
   grestore
grestore

% TEXT
0 setgray
newpath
   391 359 moveto 444 359 lineto 444 389 lineto 391 389 lineto
closepath 1 setgray fill
0 setgray
/Helvetica findfont [25 0 0 -25 0 0] makefont setfont
   gsave
      392 384 moveto (TDC) show
   grestore

% TEXT
0 setgray
newpath
   391 391 moveto 471 391 lineto 471 412 lineto 391 412 lineto
closepath 1 setgray fill
0 setgray
/Helvetica findfont [17 0 0 -17 0 0] makefont setfont
   gsave
      392 408 moveto (LRS1877S) show
   grestore

% BOX
0 setgray
newpath
   384 440 moveto 480 440 lineto 480 504 lineto 384 504 lineto
closepath 1 setgray fill
   0 setgray
gsave
   10 setmiterlimit
   gsave
      newpath
         384 440 moveto 480 440 lineto 480 504 lineto 384 504 lineto
      closepath
      stroke
   grestore
grestore

% TEXT
0 setgray
newpath
   391 447 moveto 444 447 lineto 444 477 lineto 391 477 lineto
closepath 1 setgray fill
0 setgray
/Helvetica findfont [25 0 0 -25 0 0] makefont setfont
   gsave
      392 472 moveto (TDC) show
   grestore

% TEXT
0 setgray
newpath
   391 479 moveto 471 479 lineto 471 500 lineto 391 500 lineto
closepath 1 setgray fill
0 setgray
/Helvetica findfont [17 0 0 -17 0 0] makefont setfont
   gsave
      392 496 moveto (LRS1877S) show
   grestore

% BOX
0 setgray
newpath
   384 528 moveto 480 528 lineto 480 592 lineto 384 592 lineto
closepath 1 setgray fill
   0 setgray
gsave
   10 setmiterlimit
   gsave
      newpath
         384 528 moveto 480 528 lineto 480 592 lineto 384 592 lineto
      closepath
      stroke
   grestore
grestore

% TEXT
0 setgray
newpath
   391 535 moveto 444 535 lineto 444 565 lineto 391 565 lineto
closepath 1 setgray fill
0 setgray
/Helvetica findfont [25 0 0 -25 0 0] makefont setfont
   gsave
      392 560 moveto (TDC) show
   grestore

% TEXT
0 setgray
newpath
   391 567 moveto 471 567 lineto 471 588 lineto 391 588 lineto
closepath 1 setgray fill
0 setgray
/Helvetica findfont [17 0 0 -17 0 0] makefont setfont
   gsave
      392 584 moveto (LRS1877S) show
   grestore

% BOX
0 setgray
newpath
   384 616 moveto 480 616 lineto 480 680 lineto 384 680 lineto
closepath 1 setgray fill
   0 setgray
gsave
   10 setmiterlimit
   gsave
      newpath
         384 616 moveto 480 616 lineto 480 680 lineto 384 680 lineto
      closepath
      stroke
   grestore
grestore

% TEXT
0 setgray
newpath
   391 623 moveto 444 623 lineto 444 653 lineto 391 653 lineto
closepath 1 setgray fill
0 setgray
/Helvetica findfont [25 0 0 -25 0 0] makefont setfont
   gsave
      392 648 moveto (TDC) show
   grestore

% TEXT
0 setgray
newpath
   391 655 moveto 471 655 lineto 471 676 lineto 391 676 lineto
closepath 1 setgray fill
0 setgray
/Helvetica findfont [17 0 0 -17 0 0] makefont setfont
   gsave
      392 672 moveto (LRS1877S) show
   grestore

% BOX
0 setgray
newpath
   384 704 moveto 480 704 lineto 480 768 lineto 384 768 lineto
closepath 1 setgray fill
   0 setgray
gsave
   10 setmiterlimit
   gsave
      newpath
         384 704 moveto 480 704 lineto 480 768 lineto 384 768 lineto
      closepath
      stroke
   grestore
grestore

% TEXT
0 setgray
newpath
   391 711 moveto 444 711 lineto 444 741 lineto 391 741 lineto
closepath 1 setgray fill
0 setgray
/Helvetica findfont [25 0 0 -25 0 0] makefont setfont
   gsave
      392 736 moveto (TDC) show
   grestore

% TEXT
0 setgray
newpath
   391 743 moveto 471 743 lineto 471 764 lineto 391 764 lineto
closepath 1 setgray fill
0 setgray
/Helvetica findfont [17 0 0 -17 0 0] makefont setfont
   gsave
      392 760 moveto (LRS1877S) show
   grestore

% POLY/OPEN-SPLINE
0 setgray
gsave
   newpath
      844 304 moveto
      0 68 atan dup cos 20.000 mul 912 exch sub
      exch sin 20.000 mul 304 exch sub lineto
   tgiforigctm setmatrix
   6 setlinewidth
   stroke
   1 setlinewidth
grestore
gsave
   tgiforigctm setmatrix
   newpath
      912 304 20.000 8.000 68 0 tgifarrowtip
   1 setgray closepath fill
   0 setgray
   newpath
      912 304 20.000 8.000 68 0 tgifarrowtip
   closepath fill
grestore

% POLY/OPEN-SPLINE
0 setgray
gsave
   newpath
      844 336 moveto
      0 68 atan dup cos 20.000 mul 912 exch sub
      exch sin 20.000 mul 336 exch sub lineto
   tgiforigctm setmatrix
   6 setlinewidth
   stroke
   1 setlinewidth
grestore
gsave
   tgiforigctm setmatrix
   newpath
      912 336 20.000 8.000 68 0 tgifarrowtip
   1 setgray closepath fill
   0 setgray
   newpath
      912 336 20.000 8.000 68 0 tgifarrowtip
   closepath fill
grestore

% POLY/OPEN-SPLINE
0 setgray
gsave
   newpath
      844 368 moveto
      0 68 atan dup cos 20.000 mul 912 exch sub
      exch sin 20.000 mul 368 exch sub lineto
   tgiforigctm setmatrix
   6 setlinewidth
   stroke
   1 setlinewidth
grestore
gsave
   tgiforigctm setmatrix
   newpath
      912 368 20.000 8.000 68 0 tgifarrowtip
   1 setgray closepath fill
   0 setgray
   newpath
      912 368 20.000 8.000 68 0 tgifarrowtip
   closepath fill
grestore

% POLY/OPEN-SPLINE
0 setgray
gsave
   newpath
      844 400 moveto
      0 68 atan dup cos 20.000 mul 912 exch sub
      exch sin 20.000 mul 400 exch sub lineto
   tgiforigctm setmatrix
   6 setlinewidth
   stroke
   1 setlinewidth
grestore
gsave
   tgiforigctm setmatrix
   newpath
      912 400 20.000 8.000 68 0 tgifarrowtip
   1 setgray closepath fill
   0 setgray
   newpath
      912 400 20.000 8.000 68 0 tgifarrowtip
   closepath fill
grestore

% POLY/OPEN-SPLINE
0 setgray
gsave
   newpath
      844 432 moveto
      0 68 atan dup cos 20.000 mul 912 exch sub
      exch sin 20.000 mul 432 exch sub lineto
   tgiforigctm setmatrix
   6 setlinewidth
   stroke
   1 setlinewidth
grestore
gsave
   tgiforigctm setmatrix
   newpath
      912 432 20.000 8.000 68 0 tgifarrowtip
   1 setgray closepath fill
   0 setgray
   newpath
      912 432 20.000 8.000 68 0 tgifarrowtip
   closepath fill
grestore

% POLY/OPEN-SPLINE
0 setgray
gsave
   newpath
      844 464 moveto
      0 68 atan dup cos 20.000 mul 912 exch sub
      exch sin 20.000 mul 464 exch sub lineto
   tgiforigctm setmatrix
   6 setlinewidth
   stroke
   1 setlinewidth
grestore
gsave
   tgiforigctm setmatrix
   newpath
      912 464 20.000 8.000 68 0 tgifarrowtip
   1 setgray closepath fill
   0 setgray
   newpath
      912 464 20.000 8.000 68 0 tgifarrowtip
   closepath fill
grestore

% POLY/OPEN-SPLINE
0 setgray
gsave
   newpath
      1024 692 moveto
      272 0 atan dup cos 10.000 mul exch sin 10.000 mul rmoveto
      272 0 atan dup cos 10.000 mul 1024 exch sub
      exch sin 10.000 mul 964 exch sub lineto
   tgiforigctm setmatrix
   2 setlinewidth
   stroke
   1 setlinewidth
grestore
gsave
   tgiforigctm setmatrix
   newpath
      1024 692 10.000 4.000 0 -272 tgifarrowtip
   1 setgray closepath fill
   0 setgray
   newpath
      1024 692 10.000 4.000 0 -272 tgifarrowtip
   closepath fill
grestore
gsave
   tgiforigctm setmatrix
   newpath
      1024 964 10.000 4.000 0 272 tgifarrowtip
   1 setgray closepath fill
   0 setgray
   newpath
      1024 964 10.000 4.000 0 272 tgifarrowtip
   closepath fill
grestore

% TEXT
0 setgray
/Helvetica findfont [24 0 0 -24 0 0] makefont setfont
   gsave
      1032 904 moveto (2km) show
   grestore

% TEXT
1.000 0.000 1.000 setrgbcolor
/Helvetica-Bold findfont [25 0 0 -25 0 0] makefont setfont
   gsave
      96 176 moveto (SVD) show
   grestore

% TEXT
1.000 0.000 1.000 setrgbcolor
/Helvetica-Bold findfont [25 0 0 -25 0 0] makefont setfont
   gsave
      96 264 moveto (CDC) show
   grestore

% TEXT
1.000 0.000 1.000 setrgbcolor
/Helvetica-Bold findfont [25 0 0 -25 0 0] makefont setfont
   gsave
      96 352 moveto (ACC) show
   grestore

% TEXT
1.000 0.000 1.000 setrgbcolor
/Helvetica-Bold findfont [25 0 0 -25 0 0] makefont setfont
   gsave
      96 440 moveto (TOF) show
   grestore

% TEXT
1.000 0.000 1.000 setrgbcolor
/Helvetica-Bold findfont [25 0 0 -25 0 0] makefont setfont
   gsave
      96 616 moveto (KLM) show
   grestore

% TEXT
1.000 0.000 1.000 setrgbcolor
/Helvetica-Bold findfont [25 0 0 -25 0 0] makefont setfont
   gsave
      96 528 moveto (ECL) show
   grestore

% BOX
0 setgray
newpath
   360 160 moveto 600 160 lineto 600 232 lineto 360 232 lineto
closepath 1 setgray fill
   0 setgray
gsave
   10 setmiterlimit
   gsave
      newpath
         360 160 moveto 600 160 lineto 600 232 lineto 360 232 lineto
      closepath
      stroke
   grestore
grestore

% BOX
0 setgray
newpath
   368 168 moveto 608 168 lineto 608 240 lineto 368 240 lineto
closepath 1 setgray fill
   0 setgray
gsave
   10 setmiterlimit
   gsave
      newpath
         368 168 moveto 608 168 lineto 608 240 lineto 368 240 lineto
      closepath
      stroke
   grestore
grestore

% TEXT
0 setgray
newpath
   511 183 moveto 566 183 lineto 566 213 lineto 511 213 lineto
closepath 1 setgray fill
0 setgray
/Helvetica findfont [25 0 0 -25 0 0] makefont setfont
   gsave
      512 208 moveto (VME) show
   grestore

% BOX
0 setgray
newpath
   376 176 moveto 456 176 lineto 456 232 lineto 376 232 lineto
closepath 1 setgray fill
   0 setgray
gsave
   10 setmiterlimit
   gsave
      newpath
         376 176 moveto 456 176 lineto 456 232 lineto 376 232 lineto
      closepath
      stroke
   grestore
grestore

% TEXT
0 setgray
newpath
   383 175 moveto 443 175 lineto 443 234 lineto 383 234 lineto
closepath 1 setgray fill
0 setgray
/Helvetica findfont [25 0 0 -25 0 0] makefont setfont
   gsave
      384 200 moveto (Flash) show
      384 229 moveto ( ADC) show
   grestore

% POLY/OPEN-SPLINE
0 setgray
gsave
   newpath
      216 192 moveto
      0 144 atan dup cos 20.000 mul 360 exch sub
      exch sin 20.000 mul 192 exch sub lineto
   tgiforigctm setmatrix
   6 setlinewidth
   stroke
   1 setlinewidth
grestore
gsave
   tgiforigctm setmatrix
   newpath
      360 192 20.000 8.000 144 0 tgifarrowtip
   1 setgray closepath fill
   0 setgray
   newpath
      360 192 20.000 8.000 144 0 tgifarrowtip
   closepath fill
grestore

% POLY/OPEN-SPLINE
0 setgray
gsave
   newpath
      224 200 moveto
      0 144 atan dup cos 20.000 mul 368 exch sub
      exch sin 20.000 mul 200 exch sub lineto
   tgiforigctm setmatrix
   6 setlinewidth
   stroke
   1 setlinewidth
grestore
gsave
   tgiforigctm setmatrix
   newpath
      368 200 20.000 8.000 144 0 tgifarrowtip
   1 setgray closepath fill
   0 setgray
   newpath
      368 200 20.000 8.000 144 0 tgifarrowtip
   closepath fill
grestore

% POLY/OPEN-SPLINE
0 setgray
gsave
   newpath
      208 184 moveto
      352 184 lineto
   tgiforigctm setmatrix
   6 setlinewidth
   stroke
   1 setlinewidth
grestore

% POLY/OPEN-SPLINE
0 setgray
gsave
   newpath
      232 208 moveto
      0 144 atan dup cos 20.000 mul 376 exch sub
      exch sin 20.000 mul 208 exch sub lineto
   tgiforigctm setmatrix
   6 setlinewidth
   stroke
   1 setlinewidth
grestore
gsave
   tgiforigctm setmatrix
   newpath
      376 208 20.000 8.000 144 0 tgifarrowtip
   1 setgray closepath fill
   0 setgray
   newpath
      376 208 20.000 8.000 144 0 tgifarrowtip
   closepath fill
grestore

% BOX
0 setgray
newpath
   112 176 moveto 232 176 lineto 232 240 lineto 112 240 lineto
closepath 1 setgray fill
   0 setgray
gsave
   10 setmiterlimit
   gsave
      newpath
         112 176 moveto 232 176 lineto 232 240 lineto 112 240 lineto
      closepath
      stroke
   grestore
grestore

% TEXT
0 setgray
/Helvetica findfont [25 0 0 -25 0 0] makefont setfont
   gsave
      112 200 moveto (Front-end) show
      112 229 moveto (electronics) show
   grestore

% BOX
0 setgray
newpath
   168 936 moveto 264 936 lineto 264 1008 lineto 168 1008 lineto
closepath 1 setgray fill
   0 setgray
gsave
   10 setmiterlimit
   gsave
      newpath
         168 936 moveto 264 936 lineto 264 1008 lineto 168 1008 lineto
      closepath
      3 setlinewidth
      stroke
   grestore
grestore

% POLY/OPEN-SPLINE
0 setgray
gsave
   newpath
      280 976 moveto
      0 224 atan dup cos 20.000 mul 504 exch sub
      exch sin 20.000 mul 976 exch sub lineto
   tgiforigctm setmatrix
   6 setlinewidth
   stroke
   1 setlinewidth
grestore
gsave
   tgiforigctm setmatrix
   newpath
      504 976 20.000 8.000 224 0 tgifarrowtip
   1 setgray closepath fill
   0 setgray
   newpath
      504 976 20.000 8.000 224 0 tgifarrowtip
   closepath fill
grestore

% BOX
0 setgray
newpath
   184 960 moveto 280 960 lineto 280 1032 lineto 184 1032 lineto
closepath 1 setgray fill
   0 setgray
gsave
   10 setmiterlimit
   gsave
      newpath
         184 960 moveto 280 960 lineto 280 1032 lineto 184 1032 lineto
      closepath
      3 setlinewidth
      stroke
   grestore
grestore

% BOX
0 setgray
newpath
   200 984 moveto 296 984 lineto 296 1056 lineto 200 1056 lineto
closepath 1 setgray fill
   0 setgray
gsave
   10 setmiterlimit
   gsave
      newpath
         200 984 moveto 296 984 lineto 296 1056 lineto 200 1056 lineto
      closepath
      3 setlinewidth
      stroke
   grestore
grestore

% POLY/OPEN-SPLINE
0 setgray
gsave
   newpath
      296 992 moveto
      0 208 atan dup cos 20.000 mul 504 exch sub
      exch sin 20.000 mul 992 exch sub lineto
   tgiforigctm setmatrix
   6 setlinewidth
   stroke
   1 setlinewidth
grestore
gsave
   tgiforigctm setmatrix
   newpath
      504 992 20.000 8.000 208 0 tgifarrowtip
   1 setgray closepath fill
   0 setgray
   newpath
      504 992 20.000 8.000 208 0 tgifarrowtip
   closepath fill
grestore

% BOX
0 setgray
newpath
   216 1008 moveto 312 1008 lineto 312 1080 lineto 216 1080 lineto
closepath 1 setgray fill
   0 setgray
gsave
   10 setmiterlimit
   gsave
      newpath
         216 1008 moveto 312 1008 lineto 312 1080 lineto 216 1080 lineto
      closepath
      3 setlinewidth
      stroke
   grestore
grestore

% POLY/OPEN-SPLINE
0 setgray
gsave
   newpath
      328 1008 moveto
      0 176 atan dup cos 20.000 mul 504 exch sub
      exch sin 20.000 mul 1008 exch sub lineto
   tgiforigctm setmatrix
   6 setlinewidth
   stroke
   1 setlinewidth
grestore
gsave
   tgiforigctm setmatrix
   newpath
      504 1008 20.000 8.000 176 0 tgifarrowtip
   1 setgray closepath fill
   0 setgray
   newpath
      504 1008 20.000 8.000 176 0 tgifarrowtip
   closepath fill
grestore

% TEXT
0 setgray
newpath
   143 975 moveto 286 975 lineto 286 1034 lineto 143 1034 lineto
closepath 1 setgray fill
0 setgray
/Helvetica findfont [25 0 0 -25 0 0] makefont setfont
   gsave
      144 1000 moveto (Subsystem) show
      144 1029 moveto (trigger logics) show
   grestore

% POLY/OPEN-SPLINE
0 setgray
gsave
   newpath
      480 808 moveto
      0 24 atan dup cos 20.000 mul 504 exch sub
      exch sin 20.000 mul 808 exch sub lineto
   tgiforigctm setmatrix
   6 setlinewidth
   stroke
   1 setlinewidth
grestore
gsave
   tgiforigctm setmatrix
   newpath
      504 808 20.000 8.000 24 0 tgifarrowtip
   1 setgray closepath fill
   0 setgray
   newpath
      504 808 20.000 8.000 24 0 tgifarrowtip
   closepath fill
grestore

% BOX
0 setgray
newpath
   504 792 moveto 608 792 lineto 608 856 lineto 504 856 lineto
closepath 1 setgray fill
   0 setgray
gsave
   10 setmiterlimit
   gsave
      newpath
         504 792 moveto 608 792 lineto 608 856 lineto 504 856 lineto
      closepath
      stroke
   grestore
grestore

% TEXT
0 setgray
/Helvetica findfont [25 0 0 -25 0 0] makefont setfont
   gsave
      512 824 moveto (Master) show
      512 849 moveto (VME) show
   grestore

% POLY/OPEN-SPLINE
0 setgray
gsave
   newpath
      480 840 moveto
      0 24 atan dup cos 10.000 mul exch sin 10.000 mul rmoveto
      504 840 lineto
   tgiforigctm setmatrix
   2 setlinewidth
   stroke
   1 setlinewidth
grestore
gsave
   tgiforigctm setmatrix
   newpath
      480 840 10.000 4.000 -24 0 tgifarrowtip
   1 setgray closepath fill
   0 setgray
   newpath
      480 840 10.000 4.000 -24 0 tgifarrowtip
   closepath fill
grestore

% BOX
0 setgray
newpath
   384 792 moveto 480 792 lineto 480 856 lineto 384 856 lineto
closepath 1 setgray fill
   0 setgray
gsave
   10 setmiterlimit
   gsave
      newpath
         384 792 moveto 480 792 lineto 480 856 lineto 384 856 lineto
      closepath
      stroke
   grestore
grestore

% TEXT
0 setgray
newpath
   391 799 moveto 444 799 lineto 444 829 lineto 391 829 lineto
closepath 1 setgray fill
0 setgray
/Helvetica findfont [25 0 0 -25 0 0] makefont setfont
   gsave
      392 824 moveto (TDC) show
   grestore

% TEXT
0 setgray
newpath
   391 831 moveto 471 831 lineto 471 852 lineto 391 852 lineto
closepath 1 setgray fill
0 setgray
/Helvetica findfont [17 0 0 -17 0 0] makefont setfont
   gsave
      392 848 moveto (LRS1877S) show
   grestore

% POLY/OPEN-SPLINE
0 setgray
gsave
   newpath
      656 824 moveto
      0 -48 atan dup cos 10.000 mul 608 exch sub
      exch sin 10.000 mul 824 exch sub lineto
   tgiforigctm setmatrix
   2 setlinewidth
   stroke
   1 setlinewidth
grestore
gsave
   tgiforigctm setmatrix
   newpath
      608 824 10.000 4.000 -48 0 tgifarrowtip
   1 setgray closepath fill
   0 setgray
   newpath
      608 824 10.000 4.000 -48 0 tgifarrowtip
   closepath fill
grestore

% POLY/OPEN-SPLINE
0 setgray
gsave
   newpath
      608 224 moveto
      64 144 atan dup cos 22.000 mul 752 exch sub
      exch sin 22.000 mul 288 exch sub lineto
   tgiforigctm setmatrix
   7 setlinewidth
   stroke
   1 setlinewidth
grestore
gsave
   tgiforigctm setmatrix
   newpath
      752 288 22.000 9.000 144 64 tgifarrowtip
   1 setgray closepath fill
   0 setgray
   newpath
      752 288 22.000 9.000 144 64 tgifarrowtip
   closepath fill
grestore

% POLY/OPEN-SPLINE
0 setgray
gsave
   newpath
      608 232 moveto
      64 144 atan dup cos 22.000 mul 752 exch sub
      exch sin 22.000 mul 296 exch sub lineto
   tgiforigctm setmatrix
   7 setlinewidth
   stroke
   1 setlinewidth
grestore
gsave
   tgiforigctm setmatrix
   newpath
      752 296 22.000 9.000 144 64 tgifarrowtip
   1 setgray closepath fill
   0 setgray
   newpath
      752 296 22.000 9.000 144 64 tgifarrowtip
   closepath fill
grestore

% POLY/OPEN-SPLINE
0 setgray
gsave
   newpath
      608 240 moveto
      64 144 atan dup cos 22.000 mul 752 exch sub
      exch sin 22.000 mul 304 exch sub lineto
   tgiforigctm setmatrix
   7 setlinewidth
   stroke
   1 setlinewidth
grestore
gsave
   tgiforigctm setmatrix
   newpath
      752 304 22.000 9.000 144 64 tgifarrowtip
   1 setgray closepath fill
   0 setgray
   newpath
      752 304 22.000 9.000 144 64 tgifarrowtip
   closepath fill
grestore

% POLY/OPEN-SPLINE
0 setgray
gsave
   newpath
      504 960 moveto
      352 960 lineto
      352 832 lineto
      0 32 atan dup cos 20.000 mul 384 exch sub
      exch sin 20.000 mul 832 exch sub lineto
   tgiforigctm setmatrix
   6 setlinewidth
   stroke
   1 setlinewidth
grestore
gsave
   tgiforigctm setmatrix
   newpath
      384 832 20.000 8.000 32 0 tgifarrowtip
   1 setgray closepath fill
   0 setgray
   newpath
      384 832 20.000 8.000 32 0 tgifarrowtip
   closepath fill
grestore

% POLY/OPEN-SPLINE
0 setgray
gsave
   newpath
      336 976 moveto
      336 816 lineto
      0 48 atan dup cos 20.000 mul 384 exch sub
      exch sin 20.000 mul 816 exch sub lineto
   tgiforigctm setmatrix
   6 setlinewidth
   stroke
   1 setlinewidth
grestore
gsave
   tgiforigctm setmatrix
   newpath
      384 816 20.000 8.000 48 0 tgifarrowtip
   1 setgray closepath fill
   0 setgray
   newpath
      384 816 20.000 8.000 48 0 tgifarrowtip
   closepath fill
grestore

% TEXT
1.000 0.000 1.000 setrgbcolor
/Helvetica-Bold findfont [25 0 0 -25 0 0] makefont setfont
   gsave
      144 928 moveto (TRG) show
   grestore

% POLY/OPEN-SPLINE
0 setgray
gsave
   newpath
      952 816 moveto
      64 0 atan dup cos 20.000 mul 952 exch sub
      exch sin 20.000 mul 880 exch sub lineto
   tgiforigctm setmatrix
   6 setlinewidth
   stroke
   1 setlinewidth
grestore
gsave
   tgiforigctm setmatrix
   newpath
      952 880 20.000 8.000 0 64 tgifarrowtip
   1 setgray closepath fill
   0 setgray
   newpath
      952 880 20.000 8.000 0 64 tgifarrowtip
   closepath fill
grestore

% TEXT
1 setgray
/Helvetica-BoldOblique findfont [24 0 0 -24 0 0] makefont setfont
   gsave
      1032 168 moveto (Belle Data Acquisition System) tgifrighttext show
   grestore

% OVAL
0 setgray
gsave
   gsave
      newpath 952 908 32 28 tgifellipse
      3 setlinewidth
      stroke
   grestore
grestore

% POLY/OPEN-SPLINE
0 setgray
gsave
   newpath
      960 936 moveto
      984 936 lineto
   tgiforigctm setmatrix
   3 setlinewidth
   stroke
   1 setlinewidth
grestore

% POLY/OPEN-SPLINE
0 setgray
gsave
   newpath
      928 496 moveto
      200 0 atan dup cos 20.000 mul 928 exch sub
      exch sin 20.000 mul 696 exch sub lineto
   tgiforigctm setmatrix
   6 setlinewidth
   stroke
   1 setlinewidth
grestore
gsave
   tgiforigctm setmatrix
   newpath
      928 696 20.000 8.000 0 200 tgifarrowtip
   1 setgray closepath fill
   0 setgray
   newpath
      928 696 20.000 8.000 0 200 tgifarrowtip
   closepath fill
grestore

% POLY/OPEN-SPLINE
0 setgray
gsave
   newpath
      960 496 moveto
      200 0 atan dup cos 20.000 mul 960 exch sub
      exch sin 20.000 mul 696 exch sub lineto
   tgiforigctm setmatrix
   6 setlinewidth
   stroke
   1 setlinewidth
grestore
gsave
   tgiforigctm setmatrix
   newpath
      960 696 20.000 8.000 0 200 tgifarrowtip
   1 setgray closepath fill
   0 setgray
   newpath
      960 696 20.000 8.000 0 200 tgifarrowtip
   closepath fill
grestore

% POLY/OPEN-SPLINE
0 setgray
gsave
   newpath
      992 496 moveto
      200 0 atan dup cos 20.000 mul 992 exch sub
      exch sin 20.000 mul 696 exch sub lineto
   tgiforigctm setmatrix
   6 setlinewidth
   stroke
   1 setlinewidth
grestore
gsave
   tgiforigctm setmatrix
   newpath
      992 696 20.000 8.000 0 200 tgifarrowtip
   1 setgray closepath fill
   0 setgray
   newpath
      992 696 20.000 8.000 0 200 tgifarrowtip
   closepath fill
grestore

% POLY/OPEN-SPLINE
0 setgray
gsave
   newpath
      232 736 moveto
      0 24 atan dup cos 20.000 mul 256 exch sub
      exch sin 20.000 mul 736 exch sub lineto
   tgiforigctm setmatrix
   6 setlinewidth
   stroke
   1 setlinewidth
grestore
gsave
   tgiforigctm setmatrix
   newpath
      256 736 20.000 8.000 24 0 tgifarrowtip
   1 setgray closepath fill
   0 setgray
   newpath
      256 736 20.000 8.000 24 0 tgifarrowtip
   closepath fill
grestore

% BOX
0 setgray
gsave
   10 setmiterlimit
   gsave
      newpath
         112 704 moveto 232 704 lineto 232 768 lineto 112 768 lineto
      closepath
      stroke
   grestore
grestore

% TEXT
0 setgray
/Helvetica findfont [25 0 0 -25 0 0] makefont setfont
   gsave
      112 728 moveto (Front-end) show
      112 757 moveto (elec.) show
   grestore

% BOX
0 setgray
gsave
   10 setmiterlimit
   gsave
      newpath
         256 704 moveto 360 704 lineto 360 768 lineto 256 768 lineto
      closepath
      stroke
   grestore
grestore

% TEXT
0 setgray
/Helvetica findfont [25 0 0 -25 0 0] makefont setfont
   gsave
      256 728 moveto (Q-to-T) show
      256 757 moveto (converter) show
   grestore

% POLY/OPEN-SPLINE
0 setgray
gsave
   newpath
      360 736 moveto
      0 24 atan dup cos 20.000 mul 384 exch sub
      exch sin 20.000 mul 736 exch sub lineto
   tgiforigctm setmatrix
   6 setlinewidth
   stroke
   1 setlinewidth
grestore
gsave
   tgiforigctm setmatrix
   newpath
      384 736 20.000 8.000 24 0 tgifarrowtip
   1 setgray closepath fill
   0 setgray
   newpath
      384 736 20.000 8.000 24 0 tgifarrowtip
   closepath fill
grestore

% TEXT
1.000 0.000 1.000 setrgbcolor
/Helvetica-Bold findfont [25 0 0 -25 0 0] makefont setfont
   gsave
      96 704 moveto (EFC) show
   grestore

% POLY/OPEN-SPLINE
0 setgray
gsave
   newpath
      232 648 moveto
      0 152 atan dup cos 20.000 mul 384 exch sub
      exch sin 20.000 mul 648 exch sub lineto
   tgiforigctm setmatrix
   6 setlinewidth
   stroke
   1 setlinewidth
grestore
gsave
   tgiforigctm setmatrix
   newpath
      384 648 20.000 8.000 152 0 tgifarrowtip
   1 setgray closepath fill
   0 setgray
   newpath
      384 648 20.000 8.000 152 0 tgifarrowtip
   closepath fill
grestore

% BOX
0 setgray
gsave
   10 setmiterlimit
   gsave
      newpath
         112 616 moveto 232 616 lineto 232 680 lineto 112 680 lineto
      closepath
      stroke
   grestore
grestore

% TEXT
0 setgray
/Helvetica findfont [25 0 0 -25 0 0] makefont setfont
   gsave
      112 640 moveto (Hit) show
      112 669 moveto (multiplexer) show
   grestore

grestore
tgifsavedpage restore
end
%MatchingCreationDate: Tue Jun  8 18:01:45 1999
