%!PS-Adobe-2.0 EPSF-1.2
%%BoundingBox: 36 568 348 812
%%Title: evb
%%CreationDate: Mon Jun  7 17:30:11 1999
%%Creator: Tgif-3.0J0-p13 by William Chia-Wei Cheng (william@cs.UCLA.edu)

/tgifdict 5 dict def
tgifdict begin

/tgifarrowtipdict 8 dict def
tgifarrowtipdict /mtrx matrix put

/tgifarrowtip
 { tgifarrowtipdict begin
      /dy exch def
      /dx exch def
      /h exch def
      /w exch def
      /y exch def
      /x exch def
      /savematrix mtrx currentmatrix def
      x y translate
      dy dx atan rotate
      0 0 moveto
      w neg h lineto
      w neg h neg lineto
      savematrix setmatrix
   end
 } def

/tgifcentertext { dup stringwidth pop 2 div neg 0 rmoveto } def

end

%%PageBoundingBox: 36 568 348 812
tgifdict begin
/tgifsavedpage save def

1 setmiterlimit
1 setlinewidth

0 setgray

72 0 mul 72 11.70 mul translate
72 128 div 100.000 mul 100 div dup neg scale

gsave

/tgiforigctm matrix currentmatrix def

% BOX
0 setgray
newpath
   128 444 moveto 192 444 lineto 192 476 lineto 128 476 lineto
closepath 1 setgray fill
   0 setgray
gsave
   10 setmiterlimit
   gsave
      newpath
         128 444 moveto 192 444 lineto 192 476 lineto 128 476 lineto
      closepath
      3 setlinewidth
      stroke
   grestore
grestore

% TEXT
0 setgray
newpath
   142 450 moveto 177 450 lineto 177 471 lineto 142 471 lineto
closepath 1 setgray fill
0 setgray
/Helvetica-Bold findfont [17 0 0 -17 0 0] makefont setfont
   gsave
      160 467 moveto (TRG) tgifcentertext show
   grestore

% BOX
0 setgray
newpath
   128 396 moveto 192 396 lineto 192 428 lineto 128 428 lineto
closepath 1 setgray fill
   0 setgray
gsave
   10 setmiterlimit
   gsave
      newpath
         128 396 moveto 192 396 lineto 192 428 lineto 128 428 lineto
      closepath
      3 setlinewidth
      stroke
   grestore
grestore

% TEXT
0 setgray
newpath
   143 402 moveto 176 402 lineto 176 423 lineto 143 423 lineto
closepath 1 setgray fill
0 setgray
/Helvetica-Bold findfont [17 0 0 -17 0 0] makefont setfont
   gsave
      160 419 moveto (EFC) tgifcentertext show
   grestore

% BOX
0 setgray
newpath
   128 348 moveto 192 348 lineto 192 380 lineto 128 380 lineto
closepath 1 setgray fill
   0 setgray
gsave
   10 setmiterlimit
   gsave
      newpath
         128 348 moveto 192 348 lineto 192 380 lineto 128 380 lineto
      closepath
      3 setlinewidth
      stroke
   grestore
grestore

% TEXT
0 setgray
newpath
   142 354 moveto 178 354 lineto 178 375 lineto 142 375 lineto
closepath 1 setgray fill
0 setgray
/Helvetica-Bold findfont [17 0 0 -17 0 0] makefont setfont
   gsave
      160 371 moveto (KLM) tgifcentertext show
   grestore

% BOX
0 setgray
newpath
   128 300 moveto 192 300 lineto 192 332 lineto 128 332 lineto
closepath 1 setgray fill
   0 setgray
gsave
   10 setmiterlimit
   gsave
      newpath
         128 300 moveto 192 300 lineto 192 332 lineto 128 332 lineto
      closepath
      3 setlinewidth
      stroke
   grestore
grestore

% TEXT
0 setgray
newpath
   143 306 moveto 176 306 lineto 176 327 lineto 143 327 lineto
closepath 1 setgray fill
0 setgray
/Helvetica-Bold findfont [17 0 0 -17 0 0] makefont setfont
   gsave
      160 323 moveto (ECL) tgifcentertext show
   grestore

% BOX
0 setgray
newpath
   128 252 moveto 192 252 lineto 192 284 lineto 128 284 lineto
closepath 1 setgray fill
   0 setgray
gsave
   10 setmiterlimit
   gsave
      newpath
         128 252 moveto 192 252 lineto 192 284 lineto 128 284 lineto
      closepath
      3 setlinewidth
      stroke
   grestore
grestore

% TEXT
0 setgray
newpath
   143 258 moveto 177 258 lineto 177 279 lineto 143 279 lineto
closepath 1 setgray fill
0 setgray
/Helvetica-Bold findfont [17 0 0 -17 0 0] makefont setfont
   gsave
      160 275 moveto (TOF) tgifcentertext show
   grestore

% BOX
0 setgray
newpath
   128 204 moveto 192 204 lineto 192 236 lineto 128 236 lineto
closepath 1 setgray fill
   0 setgray
gsave
   10 setmiterlimit
   gsave
      newpath
         128 204 moveto 192 204 lineto 192 236 lineto 128 236 lineto
      closepath
      3 setlinewidth
      stroke
   grestore
grestore

% TEXT
0 setgray
newpath
   141 210 moveto 178 210 lineto 178 231 lineto 141 231 lineto
closepath 1 setgray fill
0 setgray
/Helvetica-Bold findfont [17 0 0 -17 0 0] makefont setfont
   gsave
      160 227 moveto (ACC) tgifcentertext show
   grestore

% BOX
0 setgray
newpath
   128 156 moveto 192 156 lineto 192 188 lineto 128 188 lineto
closepath 1 setgray fill
   0 setgray
gsave
   10 setmiterlimit
   gsave
      newpath
         128 156 moveto 192 156 lineto 192 188 lineto 128 188 lineto
      closepath
      3 setlinewidth
      stroke
   grestore
grestore

% TEXT
0 setgray
newpath
   141 162 moveto 178 162 lineto 178 183 lineto 141 183 lineto
closepath 1 setgray fill
0 setgray
/Helvetica-Bold findfont [17 0 0 -17 0 0] makefont setfont
   gsave
      160 179 moveto (CDC) tgifcentertext show
   grestore

% BOX
0 setgray
gsave
   10 setmiterlimit
   gsave
      newpath
         378 220 moveto 399 220 lineto 399 352 lineto 378 352 lineto
      closepath
      3 setlinewidth
      stroke
   grestore
grestore

% TEXT
0 setgray
gsave
   362 314 translate
   [0.000 1.000 -1.000 0.000 34 -79] concat
   362 neg 314 neg translate
grestore
/Helvetica-Bold findfont [17 0 0 -17 0 0] makefont setfont
   gsave
      362 314 translate
      [0.000 1.000 -1.000 0.000 34 -79] concat
      0 16 moveto (Barrel Shifter) show
   grestore

% POLY/OPEN-SPLINE
0 setgray
gsave
   newpath
      194 117 moveto
      135 180 atan dup cos 10.000 mul 374 exch sub
      exch sin 10.000 mul 252 exch sub lineto
   tgiforigctm setmatrix
   2 setlinewidth
   stroke
   1 setlinewidth
grestore
gsave
   tgiforigctm setmatrix
   newpath
      374 252 10.000 4.000 180 135 tgifarrowtip
   1 setgray closepath fill
   0 setgray
   newpath
      374 252 10.000 4.000 180 135 tgifarrowtip
   closepath fill
grestore

% POLY/OPEN-SPLINE
0 setgray
gsave
   newpath
      191 109 moveto
      135 179 atan dup cos 10.000 mul 370 exch sub
      exch sin 10.000 mul 244 exch sub lineto
   tgiforigctm setmatrix
   2 setlinewidth
   stroke
   1 setlinewidth
grestore
gsave
   tgiforigctm setmatrix
   newpath
      370 244 10.000 4.000 179 135 tgifarrowtip
   1 setgray closepath fill
   0 setgray
   newpath
      370 244 10.000 4.000 179 135 tgifarrowtip
   closepath fill
grestore

% POLY/OPEN-SPLINE
0 setgray
gsave
   newpath
      187 100 moveto
      136 180 atan dup cos 10.000 mul 367 exch sub
      exch sin 10.000 mul 236 exch sub lineto
   tgiforigctm setmatrix
   2 setlinewidth
   stroke
   1 setlinewidth
grestore
gsave
   tgiforigctm setmatrix
   newpath
      367 236 10.000 4.000 180 136 tgifarrowtip
   1 setgray closepath fill
   0 setgray
   newpath
      367 236 10.000 4.000 180 136 tgifarrowtip
   closepath fill
grestore

% POLY/OPEN-SPLINE
0 setgray
gsave
   newpath
      184 92 moveto
      135 179 atan dup cos 10.000 mul 363 exch sub
      exch sin 10.000 mul 227 exch sub lineto
   tgiforigctm setmatrix
   2 setlinewidth
   stroke
   1 setlinewidth
grestore
gsave
   tgiforigctm setmatrix
   newpath
      363 227 10.000 4.000 179 135 tgifarrowtip
   1 setgray closepath fill
   0 setgray
   newpath
      363 227 10.000 4.000 179 135 tgifarrowtip
   closepath fill
grestore

% POLY/OPEN-SPLINE
0 setgray
gsave
   newpath
      180 84 moveto
      135 180 atan dup cos 10.000 mul 360 exch sub
      exch sin 10.000 mul 219 exch sub lineto
   tgiforigctm setmatrix
   2 setlinewidth
   stroke
   1 setlinewidth
grestore
gsave
   tgiforigctm setmatrix
   newpath
      360 219 10.000 4.000 180 135 tgifarrowtip
   1 setgray closepath fill
   0 setgray
   newpath
      360 219 10.000 4.000 180 135 tgifarrowtip
   closepath fill
grestore

% POLY/OPEN-SPLINE
0 setgray
gsave
   newpath
      191 172 moveto
      96 183 atan dup cos 10.000 mul 374 exch sub
      exch sin 10.000 mul 268 exch sub lineto
   tgiforigctm setmatrix
   2 setlinewidth
   stroke
   1 setlinewidth
grestore
gsave
   tgiforigctm setmatrix
   newpath
      374 268 10.000 4.000 183 96 tgifarrowtip
   1 setgray closepath fill
   0 setgray
   newpath
      374 268 10.000 4.000 183 96 tgifarrowtip
   closepath fill
grestore

% POLY/OPEN-SPLINE
0 setgray
gsave
   newpath
      191 220 moveto
      60 183 atan dup cos 10.000 mul 374 exch sub
      exch sin 10.000 mul 280 exch sub lineto
   tgiforigctm setmatrix
   2 setlinewidth
   stroke
   1 setlinewidth
grestore
gsave
   tgiforigctm setmatrix
   newpath
      374 280 10.000 4.000 183 60 tgifarrowtip
   1 setgray closepath fill
   0 setgray
   newpath
      374 280 10.000 4.000 183 60 tgifarrowtip
   closepath fill
grestore

% POLY/OPEN-SPLINE
0 setgray
gsave
   newpath
      191 268 moveto
      24 183 atan dup cos 10.000 mul 374 exch sub
      exch sin 10.000 mul 292 exch sub lineto
   tgiforigctm setmatrix
   2 setlinewidth
   stroke
   1 setlinewidth
grestore
gsave
   tgiforigctm setmatrix
   newpath
      374 292 10.000 4.000 183 24 tgifarrowtip
   1 setgray closepath fill
   0 setgray
   newpath
      374 292 10.000 4.000 183 24 tgifarrowtip
   closepath fill
grestore

% POLY/OPEN-SPLINE
0 setgray
gsave
   newpath
      191 316 moveto
      -12 183 atan dup cos 10.000 mul 374 exch sub
      exch sin 10.000 mul 304 exch sub lineto
   tgiforigctm setmatrix
   2 setlinewidth
   stroke
   1 setlinewidth
grestore
gsave
   tgiforigctm setmatrix
   newpath
      374 304 10.000 4.000 183 -12 tgifarrowtip
   1 setgray closepath fill
   0 setgray
   newpath
      374 304 10.000 4.000 183 -12 tgifarrowtip
   closepath fill
grestore

% POLY/OPEN-SPLINE
0 setgray
gsave
   newpath
      191 364 moveto
      -48 183 atan dup cos 10.000 mul 374 exch sub
      exch sin 10.000 mul 316 exch sub lineto
   tgiforigctm setmatrix
   2 setlinewidth
   stroke
   1 setlinewidth
grestore
gsave
   tgiforigctm setmatrix
   newpath
      374 316 10.000 4.000 183 -48 tgifarrowtip
   1 setgray closepath fill
   0 setgray
   newpath
      374 316 10.000 4.000 183 -48 tgifarrowtip
   closepath fill
grestore

% POLY/OPEN-SPLINE
0 setgray
gsave
   newpath
      191 412 moveto
      -84 183 atan dup cos 10.000 mul 374 exch sub
      exch sin 10.000 mul 328 exch sub lineto
   tgiforigctm setmatrix
   2 setlinewidth
   stroke
   1 setlinewidth
grestore
gsave
   tgiforigctm setmatrix
   newpath
      374 328 10.000 4.000 183 -84 tgifarrowtip
   1 setgray closepath fill
   0 setgray
   newpath
      374 328 10.000 4.000 183 -84 tgifarrowtip
   closepath fill
grestore

% POLY/OPEN-SPLINE
0 setgray
gsave
   newpath
      191 460 moveto
      -120 183 atan dup cos 10.000 mul 374 exch sub
      exch sin 10.000 mul 340 exch sub lineto
   tgiforigctm setmatrix
   2 setlinewidth
   stroke
   1 setlinewidth
grestore
gsave
   tgiforigctm setmatrix
   newpath
      374 340 10.000 4.000 183 -120 tgifarrowtip
   1 setgray closepath fill
   0 setgray
   newpath
      374 340 10.000 4.000 183 -120 tgifarrowtip
   closepath fill
grestore

% BOX
0 setgray
gsave
   10 setmiterlimit
   gsave
      newpath
         328 180 moveto 616 180 lineto 616 436 lineto 328 436 lineto
      closepath
      stroke
   grestore
grestore

% TEXT
0 setgray
newpath
   371 167 moveto 483 167 lineto 483 191 lineto 371 191 lineto
closepath 1 setgray fill
0 setgray
/Helvetica-BoldOblique findfont [20 0 0 -20 0 0] makefont setfont
   gsave
      372 186 moveto (Control room) show
   grestore

% BOX
0 setgray
gsave
   10 setmiterlimit
   gsave
      newpath
         68 64 moveto 212 64 lineto 212 484 lineto 68 484 lineto
      closepath
      stroke
   grestore
grestore

% TEXT
0 setgray
newpath
   71 55 moveto 202 55 lineto 202 79 lineto 71 79 lineto
closepath 1 setgray fill
0 setgray
/Helvetica-BoldOblique findfont [20 0 0 -20 0 0] makefont setfont
   gsave
      72 74 moveto (electronics hut) show
   grestore

% TEXT
0 setgray
/Helvetica-Bold findfont [17 0 0 -17 0 0] makefont setfont
   gsave
      336 420 moveto (Switch controller) show
   grestore

% BOX
0 setgray
gsave
   10 setmiterlimit
   gsave
      newpath
         332 400 moveto 472 400 lineto 472 428 lineto 332 428 lineto
      closepath
      3 setlinewidth
      stroke
   grestore
grestore

% BOX
0 setgray
gsave
   10 setmiterlimit
   gsave
      newpath
         556 208 moveto 604 208 lineto 604 228 lineto 556 228 lineto
      closepath
      3 setlinewidth
      stroke
   grestore
grestore

% BOX
0 setgray
gsave
   10 setmiterlimit
   gsave
      newpath
         556 236 moveto 604 236 lineto 604 256 lineto 556 256 lineto
      closepath
      3 setlinewidth
      stroke
   grestore
grestore

% BOX
0 setgray
gsave
   10 setmiterlimit
   gsave
      newpath
         556 264 moveto 604 264 lineto 604 284 lineto 556 284 lineto
      closepath
      3 setlinewidth
      stroke
   grestore
grestore

% BOX
0 setgray
gsave
   10 setmiterlimit
   gsave
      newpath
         556 348 moveto 604 348 lineto 604 368 lineto 556 368 lineto
      closepath
      3 setlinewidth
      stroke
   grestore
grestore

% BOX
0 setgray
gsave
   10 setmiterlimit
   gsave
      newpath
         556 320 moveto 604 320 lineto 604 340 lineto 556 340 lineto
      closepath
      3 setlinewidth
      stroke
   grestore
grestore

% BOX
0 setgray
gsave
   10 setmiterlimit
   gsave
      newpath
         556 292 moveto 604 292 lineto 604 312 lineto 556 312 lineto
      closepath
      3 setlinewidth
      stroke
   grestore
grestore

% TEXT
0 setgray
gsave
   550 298 translate
   [0.000 1.000 -1.000 0.000 39 -95] concat
   550 neg 298 neg translate
newpath
   549 297 moveto 728 297 lineto 728 318 lineto 549 318 lineto
closepath 1 setgray fill
0 setgray
grestore
/Helvetica-Bold findfont [17 0 0 -17 0 0] makefont setfont
   gsave
      550 298 translate
      [0.000 1.000 -1.000 0.000 39 -95] concat
      0 16 moveto (Online Computer Farm) show
   grestore

% POLY/OPEN-SPLINE
0 setgray
gsave
   newpath
      399 246 moveto
      -30 157 atan dup cos 10.000 mul 556 exch sub
      exch sin 10.000 mul 216 exch sub lineto
   tgiforigctm setmatrix
   2 setlinewidth
   stroke
   1 setlinewidth
grestore
gsave
   tgiforigctm setmatrix
   newpath
      556 216 10.000 4.000 157 -30 tgifarrowtip
   1 setgray closepath fill
   0 setgray
   newpath
      556 216 10.000 4.000 157 -30 tgifarrowtip
   closepath fill
grestore

% POLY/OPEN-SPLINE
0 setgray
gsave
   newpath
      399 263 moveto
      -17 157 atan dup cos 10.000 mul 556 exch sub
      exch sin 10.000 mul 246 exch sub lineto
   tgiforigctm setmatrix
   2 setlinewidth
   stroke
   1 setlinewidth
grestore
gsave
   tgiforigctm setmatrix
   newpath
      556 246 10.000 4.000 157 -17 tgifarrowtip
   1 setgray closepath fill
   0 setgray
   newpath
      556 246 10.000 4.000 157 -17 tgifarrowtip
   closepath fill
grestore

% POLY/OPEN-SPLINE
0 setgray
gsave
   newpath
      399 280 moveto
      -9 157 atan dup cos 10.000 mul 556 exch sub
      exch sin 10.000 mul 271 exch sub lineto
   tgiforigctm setmatrix
   2 setlinewidth
   stroke
   1 setlinewidth
grestore
gsave
   tgiforigctm setmatrix
   newpath
      556 271 10.000 4.000 157 -9 tgifarrowtip
   1 setgray closepath fill
   0 setgray
   newpath
      556 271 10.000 4.000 157 -9 tgifarrowtip
   closepath fill
grestore

% POLY/OPEN-SPLINE
0 setgray
gsave
   newpath
      399 326 moveto
      30 157 atan dup cos 10.000 mul 556 exch sub
      exch sin 10.000 mul 356 exch sub lineto
   tgiforigctm setmatrix
   2 setlinewidth
   stroke
   1 setlinewidth
grestore
gsave
   tgiforigctm setmatrix
   newpath
      556 356 10.000 4.000 157 30 tgifarrowtip
   1 setgray closepath fill
   0 setgray
   newpath
      556 356 10.000 4.000 157 30 tgifarrowtip
   closepath fill
grestore

% POLY/OPEN-SPLINE
0 setgray
gsave
   newpath
      399 309 moveto
      17 157 atan dup cos 10.000 mul 556 exch sub
      exch sin 10.000 mul 326 exch sub lineto
   tgiforigctm setmatrix
   2 setlinewidth
   stroke
   1 setlinewidth
grestore
gsave
   tgiforigctm setmatrix
   newpath
      556 326 10.000 4.000 157 17 tgifarrowtip
   1 setgray closepath fill
   0 setgray
   newpath
      556 326 10.000 4.000 157 17 tgifarrowtip
   closepath fill
grestore

% POLY/OPEN-SPLINE
0 setgray
gsave
   newpath
      399 292 moveto
      9 157 atan dup cos 10.000 mul 556 exch sub
      exch sin 10.000 mul 301 exch sub lineto
   tgiforigctm setmatrix
   2 setlinewidth
   stroke
   1 setlinewidth
grestore
gsave
   tgiforigctm setmatrix
   newpath
      556 301 10.000 4.000 157 9 tgifarrowtip
   1 setgray closepath fill
   0 setgray
   newpath
      556 301 10.000 4.000 157 9 tgifarrowtip
   closepath fill
grestore

% POLY/OPEN-SPLINE
0 setgray
gsave
   newpath
      388 400 moveto
      388 352 lineto
   tgiforigctm setmatrix
   4 setlinewidth
   stroke
   1 setlinewidth
grestore

% BOX
0 setgray
newpath
   116 84 moveto 180 84 lineto 180 116 lineto 116 116 lineto
closepath 1 setgray fill
   0 setgray
gsave
   10 setmiterlimit
   gsave
      newpath
         116 84 moveto 180 84 lineto 180 116 lineto 116 116 lineto
      closepath
      3 setlinewidth
      stroke
   grestore
grestore

% BOX
0 setgray
newpath
   120 88 moveto 184 88 lineto 184 120 lineto 120 120 lineto
closepath 1 setgray fill
   0 setgray
gsave
   10 setmiterlimit
   gsave
      newpath
         120 88 moveto 184 88 lineto 184 120 lineto 120 120 lineto
      closepath
      3 setlinewidth
      stroke
   grestore
grestore

% BOX
0 setgray
newpath
   124 92 moveto 188 92 lineto 188 124 lineto 124 124 lineto
closepath 1 setgray fill
   0 setgray
gsave
   10 setmiterlimit
   gsave
      newpath
         124 92 moveto 188 92 lineto 188 124 lineto 124 124 lineto
      closepath
      3 setlinewidth
      stroke
   grestore
grestore

% BOX
0 setgray
newpath
   128 96 moveto 192 96 lineto 192 128 lineto 128 128 lineto
closepath 1 setgray fill
   0 setgray
gsave
   10 setmiterlimit
   gsave
      newpath
         128 96 moveto 192 96 lineto 192 128 lineto 128 128 lineto
      closepath
      3 setlinewidth
      stroke
   grestore
grestore

% TEXT
0 setgray
/Helvetica-Bold findfont [17 0 0 -17 0 0] makefont setfont
   gsave
      160 120 moveto (SVD) tgifcentertext show
   grestore

% POLY/OPEN-SPLINE
0 setgray
gsave
   [8 8] 0 setdash
   newpath
      196 120 moveto
      332 420 lineto
   tgiforigctm setmatrix
   1 setlinewidth
   stroke
   [] 0 setdash
grestore

% POLY/OPEN-SPLINE
0 setgray
gsave
   [8 8] 0 setdash
   newpath
      192 172 moveto
      332 420 lineto
   tgiforigctm setmatrix
   1 setlinewidth
   stroke
   [] 0 setdash
grestore

% POLY/OPEN-SPLINE
0 setgray
gsave
   [8 8] 0 setdash
   newpath
      192 220 moveto
      328 412 lineto
   tgiforigctm setmatrix
   1 setlinewidth
   stroke
   [] 0 setdash
grestore

% POLY/OPEN-SPLINE
0 setgray
gsave
   [8 8] 0 setdash
   newpath
      192 268 moveto
      332 420 lineto
   tgiforigctm setmatrix
   1 setlinewidth
   stroke
   [] 0 setdash
grestore

% POLY/OPEN-SPLINE
0 setgray
gsave
   [8 8] 0 setdash
   newpath
      192 316 moveto
      332 420 lineto
   tgiforigctm setmatrix
   1 setlinewidth
   stroke
   [] 0 setdash
grestore

% POLY/OPEN-SPLINE
0 setgray
gsave
   [8 8] 0 setdash
   newpath
      192 364 moveto
      332 420 lineto
   tgiforigctm setmatrix
   1 setlinewidth
   stroke
   [] 0 setdash
grestore

% POLY/OPEN-SPLINE
0 setgray
gsave
   [8 8] 0 setdash
   newpath
      192 412 moveto
      328 420 lineto
   tgiforigctm setmatrix
   1 setlinewidth
   stroke
   [] 0 setdash
grestore

% POLY/OPEN-SPLINE
0 setgray
gsave
   [8 8] 0 setdash
   newpath
      192 460 moveto
      332 420 lineto
   tgiforigctm setmatrix
   1 setlinewidth
   stroke
   [] 0 setdash
grestore

% POLY/OPEN-SPLINE
0 setgray
gsave
   [8 8] 0 setdash
   newpath
      472 412 moveto
      556 216 lineto
   tgiforigctm setmatrix
   1 setlinewidth
   stroke
   [] 0 setdash
grestore

% POLY/OPEN-SPLINE
0 setgray
gsave
   [8 8] 0 setdash
   newpath
      472 412 moveto
      556 248 lineto
   tgiforigctm setmatrix
   1 setlinewidth
   stroke
   [] 0 setdash
grestore

% POLY/OPEN-SPLINE
0 setgray
gsave
   [8 8] 0 setdash
   newpath
      472 412 moveto
      556 272 lineto
   tgiforigctm setmatrix
   1 setlinewidth
   stroke
   [] 0 setdash
grestore

% POLY/OPEN-SPLINE
0 setgray
gsave
   [8 8] 0 setdash
   newpath
      476 408 moveto
      556 304 lineto
   tgiforigctm setmatrix
   1 setlinewidth
   stroke
   [] 0 setdash
grestore

% POLY/OPEN-SPLINE
0 setgray
gsave
   [8 8] 0 setdash
   newpath
      472 412 moveto
      556 328 lineto
   tgiforigctm setmatrix
   1 setlinewidth
   stroke
   [] 0 setdash
grestore

% POLY/OPEN-SPLINE
0 setgray
gsave
   [8 8] 0 setdash
   newpath
      472 412 moveto
      556 356 lineto
   tgiforigctm setmatrix
   1 setlinewidth
   stroke
   [] 0 setdash
grestore

% TEXT
0 setgray
/Helvetica findfont [17 0 0 -17 0 0] makefont setfont
   gsave
      276 148 moveto (G-Link) show
   grestore

% TEXT
0 setgray
/Helvetica findfont [17 0 0 -17 0 0] makefont setfont
   gsave
      272 456 moveto (Transmission Control) show
   grestore

grestore
tgifsavedpage restore
end
%MatchingCreationDate: Mon Jun  7 17:30:11 1999
