%!PS-Adobe-2.0 EPSF-1.2
%%BoundingBox: 58 532 312 823
%%Title: farm-stor
%%CreationDate: Tue Jun  8 16:59:36 1999
%%Creator: Tgif-3.0J0-p13 by William Chia-Wei Cheng (william@cs.UCLA.edu)

/tgifdict 39 dict def
tgifdict begin

/tgifellipsedict 6 dict def
tgifellipsedict /mtrx matrix put

/tgifellipse
 { tgifellipsedict begin
      /yrad exch def
      /xrad exch def
      /y exch def
      /x exch def
      /savematrix mtrx currentmatrix def
      x y translate
      xrad yrad scale
      0 0 1 0 360 arc
      savematrix setmatrix
   end
 } def

/tgifarrowtipdict 8 dict def
tgifarrowtipdict /mtrx matrix put

/tgifarrowtip
 { tgifarrowtipdict begin
      /dy exch def
      /dx exch def
      /h exch def
      /w exch def
      /y exch def
      /x exch def
      /savematrix mtrx currentmatrix def
      x y translate
      dy dx atan rotate
      0 0 moveto
      w neg h lineto
      w neg h neg lineto
      savematrix setmatrix
   end
 } def

/tgifpatdict 10 dict def

/tgifpatbyte
 { currentdict /retstr get exch
   pat i cellsz mod get put
 } def

/tgifpatproc
 { 0 1 widthlim {tgifpatbyte} for retstr
   /i i 1 add def
 } def

/tgifpatfill
 { tgifpatdict begin
      /h exch def
      /w exch def
      /lty exch def
      /ltx exch def
      /cellsz exch def
      /pat exch def

      /widthlim w cellsz div cvi 1 sub def
      /retstr widthlim 1 add string def
      /i 0 def

      tgiforigctm setmatrix
      ltx lty translate
      w h true [1 0 0 1 0 0] {tgifpatproc} imagemask
      ltx neg lty neg translate
   end
 } def

/pat3 <8000000008000000> def
/pat4 <8800000022000000> def
/pat5 <8800220088002200> def
/pat6 <8822882288228822> def
/pat7 <aa55aa55aa55aa55> def
/pat8 <77dd77dd77dd77dd> def
/pat9 <77ffddff77ffddff> def
/pat10 <77ffffff77ffffff> def
/pat11 <7fffffff7fffffff> def
/pat12 <8040200002040800> def
/pat13 <40a00000040a0000> def
/pat14 <ff888888ff888888> def
/pat15 <ff808080ff080808> def
/pat16 <f87422478f172271> def
/pat17 <038448300c020101> def
/pat18 <081c22c180010204> def
/pat19 <8080413e080814e3> def
/pat20 <8040201008040201> def
/pat21 <8844221188442211> def
/pat22 <77bbddee77bbddee> def
/pat23 <c1e070381c0e0783> def
/pat24 <7fbfdfeff7fbfdfe> def
/pat25 <3e1f8fc7e3f1f87c> def
/pat26 <0102040810204080> def
/pat27 <1122448811224488> def
/pat28 <eeddbb77eeddbb77> def
/pat29 <83070e1c3870e0c1> def
/pat30 <fefdfbf7efdfbf7f> def
/pat31 <7cf8f1e3c78f1f3e> def

end

%%PageBoundingBox: 58 532 312 823
tgifdict begin
/tgifsavedpage save def

1 setmiterlimit
1 setlinewidth

0 setgray

72 0 mul 72 11.70 mul translate
72 128 div 100.000 mul 100 div dup neg scale

gsave

/tgiforigctm matrix currentmatrix def

% POLY/OPEN-SPLINE
1.000 1.000 0.502 setrgbcolor
newpath
   184 64 moveto
   236 64 lineto
   236 192 lineto
   184 192 lineto
closepath eofill

% POLY/OPEN-SPLINE
1.000 1.000 0.502 setrgbcolor
newpath
   184 208 moveto
   236 208 lineto
   236 336 lineto
   184 336 lineto
closepath eofill

% POLYGON/CLOSED-SPLINE
1.000 0.627 0.498 setrgbcolor
newpath
   110 364 moveto
   259 364 lineto
   259 100 lineto
   552 100 lineto
   552 548 lineto
   106 548 lineto
closepath
gsave
   eofill
grestore
gsave
   stroke
grestore

% POLY/OPEN-SPLINE
0 setgray
gsave
   newpath
      380 256 moveto
      432.00 309.33 467.83 329.33 487.50 316.00 curveto
      507.17 302.67 513.67 291.33 507.00 282.00 curveto
      500.33 272.67 488.00 276.67 470.00 294.00 curveto
      452.00 311.33 458.67 341.33
      64 47 atan dup cos 14.000 mul 490 exch sub
      exch sin 14.000 mul 384 exch sub curveto
   tgiforigctm setmatrix
   4 setlinewidth
   stroke
   1 setlinewidth
grestore
gsave
   tgiforigctm setmatrix
   newpath
      490 384 14.000 6.000 47 64 tgifarrowtip
   1 setgray closepath fill
   0 setgray
   newpath
      490 384 14.000 6.000 47 64 tgifarrowtip
   closepath fill
grestore

% POLY/OPEN-SPLINE
0 setgray
gsave
   newpath
      420 256 moveto
      466.67 309.33 499.67 329.33 519.00 316.00 curveto
      538.33 302.67 544.83 291.33 538.50 282.00 curveto
      532.17 272.67 519.83 276.67 501.50 294.00 curveto
      483.17 311.33 489.67 341.33
      64 47 atan dup cos 14.000 mul 521 exch sub
      exch sin 14.000 mul 384 exch sub curveto
   tgiforigctm setmatrix
   4 setlinewidth
   stroke
   1 setlinewidth
grestore
gsave
   tgiforigctm setmatrix
   newpath
      521 384 14.000 6.000 47 64 tgifarrowtip
   1 setgray closepath fill
   0 setgray
   newpath
      521 384 14.000 6.000 47 64 tgifarrowtip
   closepath fill
grestore

% BOX
1.000 0.627 0.498 setrgbcolor
newpath
   376 252 moveto 548 252 lineto 548 324 lineto 376 324 lineto
closepath fill

% BOX
0 setgray
newpath
   260 124 moveto 412 124 lineto 412 252 lineto 260 252 lineto
closepath 1 setgray fill
   0 setgray
gsave
   10 setmiterlimit
   gsave
      newpath
         260 124 moveto 412 124 lineto 412 252 lineto 260 252 lineto
      closepath
      3 setlinewidth
      stroke
   grestore
grestore

% BOX
0 setgray
newpath
   328 388 moveto 544 388 lineto 544 476 lineto 328 476 lineto
closepath 1 setgray fill
   0 setgray
gsave
   10 setmiterlimit
   gsave
      newpath
         328 388 moveto 544 388 lineto 544 476 lineto 328 476 lineto
      closepath
      4 setlinewidth
      stroke
   grestore
grestore

% BOX
0 setgray
newpath
   432 140 moveto 544 140 lineto 544 216 lineto 432 216 lineto
closepath 1 setgray fill
   0 setgray
gsave
   10 setmiterlimit
   gsave
      newpath
         432 140 moveto 544 140 lineto 544 216 lineto 432 216 lineto
      closepath
      4 setlinewidth
      stroke
   grestore
grestore

% POLY/OPEN-SPLINE
0 setgray
gsave
   newpath
      378 464 moveto
      378.00 488.00 313.33 498.67
      -4 -194 atan dup cos 14.000 mul 184 exch sub
      exch sin 14.000 mul 496 exch sub curveto
   tgiforigctm setmatrix
   4 setlinewidth
   stroke
   1 setlinewidth
grestore
gsave
   tgiforigctm setmatrix
   newpath
      184 496 14.000 6.000 -194 -4 tgifarrowtip
   1 setgray closepath fill
   0 setgray
   newpath
      184 496 14.000 6.000 -194 -4 tgifarrowtip
   closepath fill
grestore

% POLY/OPEN-SPLINE
0 setgray
gsave
   newpath
      350 452 moveto
      350.00 476.00 284.00 486.67
      -4 -198 atan dup cos 14.000 mul 152 exch sub
      exch sin 14.000 mul 484 exch sub curveto
   tgiforigctm setmatrix
   4 setlinewidth
   stroke
   1 setlinewidth
grestore
gsave
   tgiforigctm setmatrix
   newpath
      152 484 14.000 6.000 -198 -4 tgifarrowtip
   1 setgray closepath fill
   0 setgray
   newpath
      152 484 14.000 6.000 -198 -4 tgifarrowtip
   closepath fill
grestore

% BOX
0 setgray
gsave
   newpath
   332 124 moveto 356 124 lineto 356 252 lineto 332 252 lineto
   closepath 1 setgray fill
   0 setgray
   newpath
      332 124 moveto 356 124 lineto 356 252 lineto 332 252 lineto
   closepath eoclip newpath
   pat20 8 328 120 32 136 tgifpatfill
grestore
gsave
   10 setmiterlimit
   gsave
      newpath
         332 124 moveto 356 124 lineto 356 252 lineto 332 252 lineto
      closepath
      stroke
   grestore
grestore

% BOX
0 setgray
gsave
   newpath
   292 124 moveto 312 124 lineto 312 252 lineto 292 252 lineto
   closepath 1 setgray fill
   0 setgray
   newpath
      292 124 moveto 312 124 lineto 312 252 lineto 292 252 lineto
   closepath eoclip newpath
   pat4 8 288 120 32 136 tgifpatfill
grestore
gsave
   10 setmiterlimit
   gsave
      newpath
         292 124 moveto 312 124 lineto 312 252 lineto 292 252 lineto
      closepath
      stroke
   grestore
grestore

% BOX
0 setgray
gsave
   newpath
   268 124 moveto 288 124 lineto 288 252 lineto 268 252 lineto
   closepath 1 setgray fill
   0 setgray
   newpath
      268 124 moveto 288 124 lineto 288 252 lineto 268 252 lineto
   closepath eoclip newpath
   pat4 8 264 120 32 136 tgifpatfill
grestore
gsave
   10 setmiterlimit
   gsave
      newpath
         268 124 moveto 288 124 lineto 288 252 lineto 268 252 lineto
      closepath
      stroke
   grestore
grestore

% BOX
0 setgray
gsave
   newpath
   207 64 moveto 229 64 lineto 229 192 lineto 207 192 lineto
   closepath 1 setgray fill
   0 setgray
   newpath
      207 64 moveto 229 64 lineto 229 192 lineto 207 192 lineto
   closepath eoclip newpath
   pat20 8 200 56 32 144 tgifpatfill
grestore
gsave
   10 setmiterlimit
   gsave
      newpath
         207 64 moveto 229 64 lineto 229 192 lineto 207 192 lineto
      closepath
      stroke
   grestore
grestore

% TEXT
0 setgray
gsave
   207 118 translate
   [0.000 1.000 -1.000 0.000 20 -50] concat
   207 neg 118 neg translate
newpath
   206 117 moveto 329 117 lineto 329 135 lineto 206 135 lineto
closepath 1 setgray fill
0 setgray
grestore
/Helvetica-Bold findfont [14 0 0 -14 0 0] makefont setfont
   gsave
      207 118 translate
      [0.000 1.000 -1.000 0.000 20 -50] concat
      0 14 moveto (dual port memory) show
   grestore

% BOX
0 setgray
gsave
   newpath
   207 208 moveto 229 208 lineto 229 336 lineto 207 336 lineto
   closepath 1 setgray fill
   0 setgray
   newpath
      207 208 moveto 229 208 lineto 229 336 lineto 207 336 lineto
   closepath eoclip newpath
   pat20 8 200 200 32 144 tgifpatfill
grestore
gsave
   10 setmiterlimit
   gsave
      newpath
         207 208 moveto 229 208 lineto 229 336 lineto 207 336 lineto
      closepath
      stroke
   grestore
grestore

% POLY/OPEN-SPLINE
0 setgray
gsave
   newpath
      229 168 moveto
      0 58 atan dup cos 12.000 mul 287 exch sub
      exch sin 12.000 mul 168 exch sub lineto
   tgiforigctm setmatrix
   3 setlinewidth
   stroke
   1 setlinewidth
grestore
gsave
   tgiforigctm setmatrix
   newpath
      287 168 12.000 5.000 58 0 tgifarrowtip
   1 setgray closepath fill
   0 setgray
   newpath
      287 168 12.000 5.000 58 0 tgifarrowtip
   closepath fill
grestore

% POLY/OPEN-SPLINE
0 setgray
gsave
   newpath
      213 236 moveto
      0 90 atan dup cos 12.000 mul 303 exch sub
      exch sin 12.000 mul 236 exch sub lineto
   tgiforigctm setmatrix
   3 setlinewidth
   stroke
   1 setlinewidth
grestore
gsave
   tgiforigctm setmatrix
   newpath
      303 236 12.000 5.000 90 0 tgifarrowtip
   1 setgray closepath fill
   0 setgray
   newpath
      303 236 12.000 5.000 90 0 tgifarrowtip
   closepath fill
grestore

% BOX
0 setgray
gsave
   10 setmiterlimit
   gsave
      newpath
         384 124 moveto 404 124 lineto 404 252 lineto 384 252 lineto
      closepath
      stroke
   grestore
grestore

% BOX
0 setgray
gsave
   10 setmiterlimit
   gsave
      newpath
         432 140 moveto 544 140 lineto 544 216 lineto 432 216 lineto
      closepath
      4 setlinewidth
      stroke
   grestore
grestore

% TEXT
0 setgray
/Helvetica-BoldOblique findfont [17 0 0 -17 0 0] makefont setfont
   gsave
      436 184 moveto (Ultra SPARC) show
   grestore

% BOX
0 setgray
gsave
   10 setmiterlimit
   gsave
      newpath
         260 124 moveto 412 124 lineto 412 252 lineto 260 252 lineto
      closepath
      3 setlinewidth
      stroke
   grestore
grestore

% TEXT
0 setgray
newpath
   299 111 moveto 335 111 lineto 335 132 lineto 299 132 lineto
closepath 1 setgray fill
0 setgray
/Helvetica findfont [17 0 0 -17 0 0] makefont setfont
   gsave
      300 128 moveto (VME) show
   grestore

% TEXT
0 setgray
/Helvetica-BoldOblique findfont [17 0 0 -17 0 0] makefont setfont
   gsave
      128 452 moveto (TAPE library) show
   grestore

% TEXT
0 setgray
newpath
   371 83 moveto 531 83 lineto 531 104 lineto 371 104 lineto
closepath 1 setgray fill
0 setgray
/Helvetica-BoldOblique findfont [16 0 0 -16 0 0] makefont setfont
   gsave
      372 100 moveto (data storage system) show
   grestore

% OVAL
0 setgray
newpath 156 492 32 32 tgifellipse
closepath 1 setgray fill
   0 setgray
gsave
   gsave
      newpath 156 492 32 32 tgifellipse
      4 setlinewidth
      stroke
   grestore
grestore

% POLY/OPEN-SPLINE
0 setgray
gsave
   newpath
      156 524 moveto
      204 524 lineto
   tgiforigctm setmatrix
   4 setlinewidth
   stroke
   1 setlinewidth
grestore

% OVAL
0 setgray
newpath 168 500 32 32 tgifellipse
closepath 1 setgray fill
   0 setgray
gsave
   gsave
      newpath 168 500 32 32 tgifellipse
      4 setlinewidth
      stroke
   grestore
grestore

% POLY/OPEN-SPLINE
0 setgray
gsave
   newpath
      168 532 moveto
      216 532 lineto
   tgiforigctm setmatrix
   4 setlinewidth
   stroke
   1 setlinewidth
grestore

% OVAL
0 setgray
newpath 180 508 32 32 tgifellipse
closepath 1 setgray fill
   0 setgray
gsave
   gsave
      newpath 180 508 32 32 tgifellipse
      4 setlinewidth
      stroke
   grestore
grestore

% POLY/OPEN-SPLINE
0 setgray
gsave
   newpath
      180 540 moveto
      228 540 lineto
   tgiforigctm setmatrix
   4 setlinewidth
   stroke
   1 setlinewidth
grestore

% TEXT
0 setgray
gsave
   387 171 translate
   [0.000 1.000 -1.000 0.000 14 -34] concat
   387 neg 171 neg translate
grestore
/Helvetica-Bold findfont [17 0 0 -17 0 0] makefont setfont
   gsave
      387 171 translate
      [0.000 1.000 -1.000 0.000 14 -34] concat
      0 16 moveto (controller) show
   grestore

% POLY/OPEN-SPLINE
0 setgray
gsave
   newpath
      388 124 moveto
      388 112 lineto
      454 112 lineto
      454 140 lineto
   tgiforigctm setmatrix
   3 setlinewidth
   stroke
   1 setlinewidth
grestore

% TEXT
0 setgray
gsave
   334 182 translate
   [0.000 1.000 -1.000 0.000 20 -50] concat
   334 neg 182 neg translate
newpath
   333 181 moveto 390 181 lineto 390 202 lineto 333 202 lineto
closepath 1 setgray fill
0 setgray
grestore
/Helvetica-Bold findfont [17 0 0 -17 0 0] makefont setfont
   gsave
      334 182 translate
      [0.000 1.000 -1.000 0.000 20 -50] concat
      0 16 moveto (V-HOT) show
   grestore

% POLY/OPEN-SPLINE
0 setgray
gsave
   newpath
      496 140 moveto
      496 112 lineto
   tgiforigctm setmatrix
   3 setlinewidth
   stroke
   1 setlinewidth
grestore

% POLY/OPEN-SPLINE
0 setgray
gsave
   newpath
      532 140 moveto
      532 112 lineto
   tgiforigctm setmatrix
   3 setlinewidth
   stroke
   1 setlinewidth
grestore

% BOX
0 setgray
gsave
   newpath
   452 388 moveto 472 388 lineto 472 476 lineto 452 476 lineto
   closepath 1 setgray fill
   0 setgray
   newpath
      452 388 moveto 472 388 lineto 472 476 lineto 452 476 lineto
   closepath eoclip newpath
   pat20 8 448 384 32 96 tgifpatfill
grestore
gsave
   10 setmiterlimit
   gsave
      newpath
         452 388 moveto 472 388 lineto 472 476 lineto 452 476 lineto
      closepath
      stroke
   grestore
grestore

% BOX
0 setgray
gsave
   newpath
   484 388 moveto 504 388 lineto 504 476 lineto 484 476 lineto
   closepath 1 setgray fill
   0 setgray
   newpath
      484 388 moveto 504 388 lineto 504 476 lineto 484 476 lineto
   closepath eoclip newpath
   pat20 8 480 384 32 96 tgifpatfill
grestore
gsave
   10 setmiterlimit
   gsave
      newpath
         484 388 moveto 504 388 lineto 504 476 lineto 484 476 lineto
      closepath
      stroke
   grestore
grestore

% BOX
0 setgray
gsave
   newpath
   516 388 moveto 536 388 lineto 536 476 lineto 516 476 lineto
   closepath 1 setgray fill
   0 setgray
   newpath
      516 388 moveto 536 388 lineto 536 476 lineto 516 476 lineto
   closepath eoclip newpath
   pat20 8 512 384 32 96 tgifpatfill
grestore
gsave
   10 setmiterlimit
   gsave
      newpath
         516 388 moveto 536 388 lineto 536 476 lineto 516 476 lineto
      closepath
      stroke
   grestore
grestore

% TEXT
0 setgray
gsave
   524 418 translate
   [0.000 1.000 -1.000 0.000 12 -26] concat
   524 neg 418 neg translate
newpath
   523 417 moveto 580 417 lineto 580 438 lineto 523 438 lineto
closepath 1 setgray fill
0 setgray
grestore
/Helvetica-Bold findfont [17 0 0 -17 0 0] makefont setfont
   gsave
      524 418 translate
      [0.000 1.000 -1.000 0.000 12 -26] concat
      0 16 moveto (S-HOT) show
   grestore

% BOX
0 setgray
gsave
   newpath
   340 388 moveto 360 388 lineto 360 476 lineto 340 476 lineto
   closepath 1 setgray fill
   0 setgray
   newpath
      340 388 moveto 360 388 lineto 360 476 lineto 340 476 lineto
   closepath eoclip newpath
   pat26 8 336 384 32 96 tgifpatfill
grestore
gsave
   10 setmiterlimit
   gsave
      newpath
         340 388 moveto 360 388 lineto 360 476 lineto 340 476 lineto
      closepath
      stroke
   grestore
grestore

% BOX
0 setgray
gsave
   newpath
   372 388 moveto 392 388 lineto 392 476 lineto 372 476 lineto
   closepath 1 setgray fill
   0 setgray
   newpath
      372 388 moveto 392 388 lineto 392 476 lineto 372 476 lineto
   closepath eoclip newpath
   pat26 8 368 384 32 96 tgifpatfill
grestore
gsave
   10 setmiterlimit
   gsave
      newpath
         372 388 moveto 392 388 lineto 392 476 lineto 372 476 lineto
      closepath
      stroke
   grestore
grestore

% BOX
0 setgray
gsave
   newpath
   404 388 moveto 424 388 lineto 424 476 lineto 404 476 lineto
   closepath 1 setgray fill
   0 setgray
   newpath
      404 388 moveto 424 388 lineto 424 476 lineto 404 476 lineto
   closepath eoclip newpath
   pat26 8 400 384 32 96 tgifpatfill
grestore
gsave
   10 setmiterlimit
   gsave
      newpath
         404 388 moveto 424 388 lineto 424 476 lineto 404 476 lineto
      closepath
      stroke
   grestore
grestore

% TEXT
0 setgray
gsave
   412 418 translate
   [0.000 1.000 -1.000 0.000 12 -26] concat
   412 neg 418 neg translate
newpath
   411 417 moveto 450 417 lineto 450 438 lineto 411 438 lineto
closepath 1 setgray fill
0 setgray
grestore
/Helvetica-Bold findfont [17 0 0 -17 0 0] makefont setfont
   gsave
      412 418 translate
      [0.000 1.000 -1.000 0.000 12 -26] concat
      0 16 moveto (SCSI) show
   grestore

% BOX
0 setgray
gsave
   10 setmiterlimit
   gsave
      newpath
         328 388 moveto 544 388 lineto 544 476 lineto 328 476 lineto
      closepath
      4 setlinewidth
      stroke
   grestore
grestore

% POLY/OPEN-SPLINE
0 setgray
gsave
   newpath
      344 252 moveto
      400.00 308.00 438.00 329.33 458.00 316.00 curveto
      478.00 302.67 484.67 291.33 478.00 282.00 curveto
      471.33 272.67 458.67 276.67 440.00 294.00 curveto
      421.33 311.33 428.00 341.33
      64 48 atan dup cos 14.000 mul 460 exch sub
      exch sin 14.000 mul 384 exch sub curveto
   tgiforigctm setmatrix
   4 setlinewidth
   stroke
   1 setlinewidth
grestore
gsave
   tgiforigctm setmatrix
   newpath
      460 384 14.000 6.000 48 64 tgifarrowtip
   1 setgray closepath fill
   0 setgray
   newpath
      460 384 14.000 6.000 48 64 tgifarrowtip
   closepath fill
grestore

% TEXT
0 setgray
/Helvetica-Oblique findfont [17 0 0 -17 0 0] makefont setfont
   gsave
      288 324 moveto (2km optical fiber) show
   grestore

% POLY/OPEN-SPLINE
0 setgray
gsave
   newpath
      407 476 moveto
      407.00 500.00 343.33 510.67
      -4 -191 atan dup cos 14.000 mul 216 exch sub
      exch sin 14.000 mul 508 exch sub curveto
   tgiforigctm setmatrix
   4 setlinewidth
   stroke
   1 setlinewidth
grestore
gsave
   tgiforigctm setmatrix
   newpath
      216 508 14.000 6.000 -191 -4 tgifarrowtip
   1 setgray closepath fill
   0 setgray
   newpath
      216 508 14.000 6.000 -191 -4 tgifarrowtip
   closepath fill
grestore

% TEXT
0 setgray
/Helvetica-BoldOblique findfont [17 0 0 -17 0 0] makefont setfont
   gsave
      436 492 moveto (Ultra SPARC) show
   grestore

% TEXT
0 setgray
newpath
   111 35 moveto 278 35 lineto 278 56 lineto 111 56 lineto
closepath 1 setgray fill
0 setgray
/Helvetica-BoldOblique findfont [16 0 0 -16 0 0] makefont setfont
   gsave
      112 52 moveto (online computer farm) show
   grestore

% POLY/OPEN-SPLINE
0 setgray
gsave
   newpath
      184 64 moveto
      236 64 lineto
      236 192 lineto
      184 192 lineto
   tgiforigctm setmatrix
   4 setlinewidth
   stroke
   1 setlinewidth
grestore

% POLY/OPEN-SPLINE
0 setgray
gsave
   newpath
      184 208 moveto
      236 208 lineto
      236 336 lineto
      184 336 lineto
   tgiforigctm setmatrix
   4 setlinewidth
   stroke
   1 setlinewidth
grestore

grestore
tgifsavedpage restore
end
%MatchingCreationDate: Tue Jun  8 16:59:36 1999
