%!PS-Adobe-2.0 EPSF-1.2
%%BoundingBox: 23 595 318 802
%%Title: fig:q-to-t
%%CreationDate: Tue Jun  8 11:44:57 1999
%%Creator: Tgif-3.0J0-p13 by William Chia-Wei Cheng (william@cs.UCLA.edu)

/tgifdict 6 dict def
tgifdict begin

/tgifarrowtipdict 8 dict def
tgifarrowtipdict /mtrx matrix put

/tgifarrowtip
 { tgifarrowtipdict begin
      /dy exch def
      /dx exch def
      /h exch def
      /w exch def
      /y exch def
      /x exch def
      /savematrix mtrx currentmatrix def
      x y translate
      dy dx atan rotate
      0 0 moveto
      w neg h lineto
      w neg h neg lineto
      savematrix setmatrix
   end
 } def

/tgifcentertext { dup stringwidth pop 2 div neg 0 rmoveto } def

/tgifrighttext { dup stringwidth pop neg 0 rmoveto } def

end

%%PageBoundingBox: 23 595 318 802
tgifdict begin
/tgifsavedpage save def

1 setmiterlimit
1 setlinewidth

0 setgray

72 0 mul 72 11.70 mul translate
72 128 div 100.000 mul 100 div dup neg scale

gsave

/tgiforigctm matrix currentmatrix def

% POLY/OPEN-SPLINE
0 setgray
gsave
   newpath
      128 304 moveto
      512 304 lineto
   tgiforigctm setmatrix
   1 setlinewidth
   stroke
grestore

% POLY/OPEN-SPLINE
0 setgray
gsave
   newpath
      128 216 moveto
      512 216 lineto
   tgiforigctm setmatrix
   1 setlinewidth
   stroke
grestore

% POLY/OPEN-SPLINE
0 setgray
gsave
   newpath
      128 128 moveto
      512 128 lineto
   tgiforigctm setmatrix
   1 setlinewidth
   stroke
grestore

% POLY/OPEN-SPLINE
0 setgray
gsave
   newpath
      280 128 moveto
      0 232 atan dup cos 8.000 mul 512 exch sub
      exch sin 8.000 mul 128 exch sub lineto
   tgiforigctm setmatrix
   1 setlinewidth
   stroke
grestore
gsave
   tgiforigctm setmatrix
   newpath
      512 128 8.000 3.000 232 0 tgifarrowtip
   1 setgray closepath fill
   0 setgray
   newpath
      512 128 8.000 3.000 232 0 tgifarrowtip
   closepath fill
grestore

% TEXT
0 setgray
/Helvetica findfont [20 0 0 -20 0 0] makefont setfont
   gsave
      80 130 moveto (preamp.) tgifcentertext show
      80 152 moveto (signal) tgifcentertext show
   grestore

% POLY/OPEN-SPLINE
0 setgray
gsave
   newpath
      144 128 moveto
      156.00 133.33 163.83 141.17 167.50 151.50 curveto
      171.17 161.83 173.50 171.50 174.50 180.50 curveto
      175.50 189.50 178.67 193.33 184.00 192.00 curveto
      189.33 190.67 194.17 184.83 198.50 174.50 curveto
      202.83 164.17 211.17 153.83 223.50 143.50 curveto
      235.83 133.17 257.33 128.00
      288 128 curveto
   tgiforigctm setmatrix
   1 setlinewidth
   stroke
grestore

% TEXT
0 setgray
/Helvetica findfont [20 0 0 -20 0 0] makefont setfont
   gsave
      88 226 moveto (Q-to-T) tgifcentertext show
      88 248 moveto (capacitor) tgifcentertext show
   grestore

% POLY/OPEN-SPLINE
0 setgray
gsave
   newpath
      208 272 moveto
      -56 112 atan dup cos 8.000 mul 320 exch sub
      exch sin 8.000 mul 216 exch sub lineto
   tgiforigctm setmatrix
   1 setlinewidth
   stroke
grestore
gsave
   tgiforigctm setmatrix
   newpath
      320 216 8.000 3.000 112 -56 tgifarrowtip
   1 setgray closepath fill
   0 setgray
   newpath
      320 216 8.000 3.000 112 -56 tgifarrowtip
   closepath fill
grestore

% POLY/OPEN-SPLINE
0 setgray
gsave
   newpath
      184 192 moveto
      80 24 atan dup cos 8.000 mul 208 exch sub
      exch sin 8.000 mul 272 exch sub lineto
   tgiforigctm setmatrix
   1 setlinewidth
   stroke
grestore
gsave
   tgiforigctm setmatrix
   newpath
      208 272 8.000 3.000 24 80 tgifarrowtip
   1 setgray closepath fill
   0 setgray
   newpath
      208 272 8.000 3.000 24 80 tgifarrowtip
   closepath fill
grestore

% POLY/OPEN-SPLINE
0 setgray
gsave
   newpath
      184 128 moveto
      88 24 atan dup cos 8.000 mul 208 exch sub
      exch sin 8.000 mul 216 exch sub lineto
   tgiforigctm setmatrix
   1 setlinewidth
   stroke
grestore
gsave
   tgiforigctm setmatrix
   newpath
      208 216 8.000 3.000 24 88 tgifarrowtip
   1 setgray closepath fill
   0 setgray
   newpath
      208 216 8.000 3.000 24 88 tgifarrowtip
   closepath fill
grestore

% POLY/OPEN-SPLINE
0 setgray
gsave
   newpath
      128 304 moveto
      224 304 lineto
      224 320 lineto
      360 320 lineto
      360 304 lineto
      0 152 atan dup cos 8.000 mul 512 exch sub
      exch sin 8.000 mul 304 exch sub lineto
   tgiforigctm setmatrix
   1 setlinewidth
   stroke
grestore
gsave
   tgiforigctm setmatrix
   newpath
      512 304 8.000 3.000 152 0 tgifarrowtip
   1 setgray closepath fill
   0 setgray
   newpath
      512 304 8.000 3.000 152 0 tgifarrowtip
   closepath fill
grestore

% POLY/OPEN-SPLINE
0 setgray
gsave
   newpath
      208 272 moveto
      32 16 atan dup cos 8.000 mul 224 exch sub
      exch sin 8.000 mul 304 exch sub lineto
   tgiforigctm setmatrix
   1 setlinewidth
   stroke
grestore
gsave
   tgiforigctm setmatrix
   newpath
      224 304 8.000 3.000 16 32 tgifarrowtip
   1 setgray closepath fill
   0 setgray
   newpath
      224 304 8.000 3.000 16 32 tgifarrowtip
   closepath fill
grestore

% POLY/OPEN-SPLINE
0 setgray
gsave
   newpath
      320 216 moveto
      88 40 atan dup cos 8.000 mul 360 exch sub
      exch sin 8.000 mul 304 exch sub lineto
   tgiforigctm setmatrix
   1 setlinewidth
   stroke
grestore
gsave
   tgiforigctm setmatrix
   newpath
      360 304 8.000 3.000 40 88 tgifarrowtip
   1 setgray closepath fill
   0 setgray
   newpath
      360 304 8.000 3.000 40 88 tgifarrowtip
   closepath fill
grestore

% TEXT
0 setgray
/Helvetica findfont [20 0 0 -20 0 0] makefont setfont
   gsave
      88 298 moveto (Q-to-T) tgifcentertext show
      88 320 moveto (output) tgifcentertext show
   grestore

% POLY/OPEN-SPLINE
0 setgray
gsave
   newpath
      128 216 moveto
      208 216 lineto
      208 272 lineto
      320 216 lineto
      0 192 atan dup cos 8.000 mul 512 exch sub
      exch sin 8.000 mul 216 exch sub lineto
   tgiforigctm setmatrix
   1 setlinewidth
   stroke
grestore
gsave
   tgiforigctm setmatrix
   newpath
      512 216 8.000 3.000 192 0 tgifarrowtip
   1 setgray closepath fill
   0 setgray
   newpath
      512 216 8.000 3.000 192 0 tgifarrowtip
   closepath fill
grestore

% POLY/OPEN-SPLINE
0 setgray
gsave
   newpath
      112 128 moveto
      144 128 lineto
   tgiforigctm setmatrix
   1 setlinewidth
   stroke
grestore

% POLY/OPEN-SPLINE
0 setgray
gsave
   newpath
      128 392 moveto
      512 392 lineto
   tgiforigctm setmatrix
   1 setlinewidth
   stroke
grestore

% POLY/OPEN-SPLINE
0 setgray
gsave
   newpath
      128 392 moveto
      0 384 atan dup cos 8.000 mul 512 exch sub
      exch sin 8.000 mul 392 exch sub lineto
   tgiforigctm setmatrix
   1 setlinewidth
   stroke
grestore
gsave
   tgiforigctm setmatrix
   newpath
      512 392 8.000 3.000 384 0 tgifarrowtip
   1 setgray closepath fill
   0 setgray
   newpath
      512 392 8.000 3.000 384 0 tgifarrowtip
   closepath fill
grestore

% POLY/OPEN-SPLINE
0 setgray
gsave
   newpath
      232 400 moveto
      0 256 atan dup cos 8.000 mul exch sin 8.000 mul rmoveto
      0 256 atan dup cos 8.000 mul 488 exch sub
      exch sin 8.000 mul 400 exch sub lineto
   tgiforigctm setmatrix
   1 setlinewidth
   stroke
grestore
gsave
   tgiforigctm setmatrix
   newpath
      232 400 8.000 3.000 -256 0 tgifarrowtip
   1 setgray closepath fill
   0 setgray
   newpath
      232 400 8.000 3.000 -256 0 tgifarrowtip
   closepath fill
grestore
gsave
   tgiforigctm setmatrix
   newpath
      488 400 8.000 3.000 256 0 tgifarrowtip
   1 setgray closepath fill
   0 setgray
   newpath
      488 400 8.000 3.000 256 0 tgifarrowtip
   closepath fill
grestore

% POLY/OPEN-SPLINE
0 setgray
gsave
   newpath
      368 408 moveto
      0 120 atan dup cos 8.000 mul exch sin 8.000 mul rmoveto
      0 120 atan dup cos 8.000 mul 488 exch sub
      exch sin 8.000 mul 408 exch sub lineto
   tgiforigctm setmatrix
   1 setlinewidth
   stroke
grestore
gsave
   tgiforigctm setmatrix
   newpath
      368 408 8.000 3.000 -120 0 tgifarrowtip
   1 setgray closepath fill
   0 setgray
   newpath
      368 408 8.000 3.000 -120 0 tgifarrowtip
   closepath fill
grestore
gsave
   tgiforigctm setmatrix
   newpath
      488 408 8.000 3.000 120 0 tgifarrowtip
   1 setgray closepath fill
   0 setgray
   newpath
      488 408 8.000 3.000 120 0 tgifarrowtip
   closepath fill
grestore

% POLY/OPEN-SPLINE
0 setgray
gsave
   newpath
      224 320 moveto
      56 8 atan dup cos 8.000 mul 232 exch sub
      exch sin 8.000 mul 376 exch sub lineto
   tgiforigctm setmatrix
   1 setlinewidth
   stroke
grestore
gsave
   tgiforigctm setmatrix
   newpath
      232 376 8.000 3.000 8 56 tgifarrowtip
   1 setgray closepath fill
   0 setgray
   newpath
      232 376 8.000 3.000 8 56 tgifarrowtip
   closepath fill
grestore

% POLY/OPEN-SPLINE
0 setgray
gsave
   newpath
      360 320 moveto
      56 8 atan dup cos 8.000 mul 368 exch sub
      exch sin 8.000 mul 376 exch sub lineto
   tgiforigctm setmatrix
   1 setlinewidth
   stroke
grestore
gsave
   tgiforigctm setmatrix
   newpath
      368 376 8.000 3.000 8 56 tgifarrowtip
   1 setgray closepath fill
   0 setgray
   newpath
      368 376 8.000 3.000 8 56 tgifarrowtip
   closepath fill
grestore

% TEXT
0 setgray
/Helvetica findfont [20 0 0 -20 0 0] makefont setfont
   gsave
      96 386 moveto (multihit) tgifcentertext show
      96 408 moveto (TDC) tgifcentertext show
   grestore

% POLY/OPEN-SPLINE
0 setgray
gsave
   newpath
      232 376 moveto
      24 0 atan dup cos 10.000 mul 232 exch sub
      exch sin 10.000 mul 400 exch sub lineto
   tgiforigctm setmatrix
   2 setlinewidth
   stroke
   1 setlinewidth
grestore
gsave
   tgiforigctm setmatrix
   newpath
      232 400 10.000 4.000 0 24 tgifarrowtip
   1 setgray closepath fill
   0 setgray
   newpath
      232 400 10.000 4.000 0 24 tgifarrowtip
   closepath fill
grestore

% POLY/OPEN-SPLINE
0 setgray
gsave
   newpath
      368 400 moveto
      -24 0 atan dup cos 10.000 mul 368 exch sub
      exch sin 10.000 mul 376 exch sub lineto
   tgiforigctm setmatrix
   2 setlinewidth
   stroke
   1 setlinewidth
grestore
gsave
   tgiforigctm setmatrix
   newpath
      368 376 10.000 4.000 0 -24 tgifarrowtip
   1 setgray closepath fill
   0 setgray
   newpath
      368 376 10.000 4.000 0 -24 tgifarrowtip
   closepath fill
grestore

% POLY/OPEN-SPLINE
0 setgray
gsave
   newpath
      488 368 moveto
      24 0 atan dup cos 10.000 mul 488 exch sub
      exch sin 10.000 mul 392 exch sub lineto
   tgiforigctm setmatrix
   2 setlinewidth
   stroke
   1 setlinewidth
grestore
gsave
   tgiforigctm setmatrix
   newpath
      488 392 10.000 4.000 0 24 tgifarrowtip
   1 setgray closepath fill
   0 setgray
   newpath
      488 392 10.000 4.000 0 24 tgifarrowtip
   closepath fill
grestore

% POLY/OPEN-SPLINE
0 setgray
gsave
   newpath
      136 104 moveto
      24 0 atan dup cos 10.000 mul 136 exch sub
      exch sin 10.000 mul 128 exch sub lineto
   tgiforigctm setmatrix
   2 setlinewidth
   stroke
   1 setlinewidth
grestore
gsave
   tgiforigctm setmatrix
   newpath
      136 128 10.000 4.000 0 24 tgifarrowtip
   1 setgray closepath fill
   0 setgray
   newpath
      136 128 10.000 4.000 0 24 tgifarrowtip
   closepath fill
grestore

% POLY/OPEN-SPLINE
0 setgray
gsave
   [20 4 4 4] 0 setdash
   newpath
      184 128 moveto
      184 192 lineto
   tgiforigctm setmatrix
   1 setlinewidth
   stroke
   [] 0 setdash
grestore

% TEXT
0 setgray
/Helvetica findfont [17 0 0 -17 0 0] makefont setfont
   gsave
      144 104 moveto (Event) tgifcentertext show
   grestore

% TEXT
0 setgray
/Helvetica findfont [17 0 0 -17 0 0] makefont setfont
   gsave
      224 192 moveto (Hold) tgifcentertext show
   grestore

% TEXT
0 setgray
gsave
   268 247 translate
   [0.891 -0.454 0.454 0.891 0 0] concat
   268 neg 247 neg translate
grestore
/Helvetica findfont [17 0 0 -17 0 0] makefont setfont
   gsave
      268 247 translate
      [0.891 -0.454 0.454 0.891 0 0] concat
      0 16 moveto (Discharge) tgifcentertext show
   grestore

% TEXT
0 setgray
/Helvetica findfont [17 0 0 -17 0 0] makefont setfont
   gsave
      240 368 moveto (Down) show
      240 388 moveto (edge) show
   grestore

% TEXT
0 setgray
/Helvetica findfont [17 0 0 -17 0 0] makefont setfont
   gsave
      376 368 moveto (Up) show
      376 388 moveto (edge) show
   grestore

% TEXT
0 setgray
/Helvetica findfont [17 0 0 -17 0 0] makefont setfont
   gsave
      496 368 moveto (Common) show
      496 388 moveto (stop) show
   grestore

% POLY/OPEN-SPLINE
0 setgray
gsave
   newpath
      168 96 moveto
      216.00 80.00 260.00 72.00 300.00 72.00 curveto
      340.00 72.00 373.33 86.67 400.00 116.00 curveto
      426.67 145.33 440.00 162.67 440.00 168.00 curveto
      440.00 173.33 437.33 176.00 432.00 176.00 curveto
      426.67 176.00 425.33 173.33 428.00 168.00 curveto
      430.67 162.67 434.67 161.33 440.00 164.00 curveto
      445.33 166.67 452.00 184.00 460.00 216.00 curveto
      468.00 248.00 477.33 296.00
      96 16 atan dup cos 8.000 mul 488 exch sub
      exch sin 8.000 mul 360 exch sub curveto
   tgiforigctm setmatrix
   1 setlinewidth
   stroke
grestore
gsave
   tgiforigctm setmatrix
   newpath
      488 360 8.000 3.000 16 96 tgifarrowtip
   1 setgray closepath fill
   0 setgray
   newpath
      488 360 8.000 3.000 16 96 tgifarrowtip
   closepath fill
grestore

% TEXT
0 setgray
/Helvetica findfont [17 0 0 -17 0 0] makefont setfont
   gsave
      400 96 moveto (Trigger \(2.5us\)) show
      400 116 moveto ( \(+ delay\)) show
   grestore

% TEXT
0 setgray
/Helvetica findfont [17 0 0 -17 0 0] makefont setfont
   gsave
      512 432 moveto (Two timings are digitize and read out.) tgifrighttext show
   grestore

grestore
tgifsavedpage restore
end
%MatchingCreationDate: Tue Jun  8 11:44:57 1999
