%!PS-Adobe-2.0 EPSF-1.2
%%BoundingBox: 16 593 354 773
%%Title: svd
%%CreationDate: Fri Jun 11 23:01:41 1999
%%Creator: Tgif-3.0J0-p13 by William Chia-Wei Cheng (william@cs.UCLA.edu)

/tgifdict 37 dict def
tgifdict begin

/tgifarrowtipdict 8 dict def
tgifarrowtipdict /mtrx matrix put

/tgifarrowtip
 { tgifarrowtipdict begin
      /dy exch def
      /dx exch def
      /h exch def
      /w exch def
      /y exch def
      /x exch def
      /savematrix mtrx currentmatrix def
      x y translate
      dy dx atan rotate
      0 0 moveto
      w neg h lineto
      w neg h neg lineto
      savematrix setmatrix
   end
 } def

/tgifpatdict 10 dict def

/tgifpatbyte
 { currentdict /retstr get exch
   pat i cellsz mod get put
 } def

/tgifpatproc
 { 0 1 widthlim {tgifpatbyte} for retstr
   /i i 1 add def
 } def

/tgifpatfill
 { tgifpatdict begin
      /h exch def
      /w exch def
      /lty exch def
      /ltx exch def
      /cellsz exch def
      /pat exch def

      /widthlim w cellsz div cvi 1 sub def
      /retstr widthlim 1 add string def
      /i 0 def

      tgiforigctm setmatrix
      ltx lty translate
      w h true [1 0 0 1 0 0] {tgifpatproc} imagemask
      ltx neg lty neg translate
   end
 } def

/pat3 <8000000008000000> def
/pat4 <8800000022000000> def
/pat5 <8800220088002200> def
/pat6 <8822882288228822> def
/pat7 <aa55aa55aa55aa55> def
/pat8 <77dd77dd77dd77dd> def
/pat9 <77ffddff77ffddff> def
/pat10 <77ffffff77ffffff> def
/pat11 <7fffffff7fffffff> def
/pat12 <8040200002040800> def
/pat13 <40a00000040a0000> def
/pat14 <ff888888ff888888> def
/pat15 <ff808080ff080808> def
/pat16 <f87422478f172271> def
/pat17 <038448300c020101> def
/pat18 <081c22c180010204> def
/pat19 <8080413e080814e3> def
/pat20 <8040201008040201> def
/pat21 <8844221188442211> def
/pat22 <77bbddee77bbddee> def
/pat23 <c1e070381c0e0783> def
/pat24 <7fbfdfeff7fbfdfe> def
/pat25 <3e1f8fc7e3f1f87c> def
/pat26 <0102040810204080> def
/pat27 <1122448811224488> def
/pat28 <eeddbb77eeddbb77> def
/pat29 <83070e1c3870e0c1> def
/pat30 <fefdfbf7efdfbf7f> def
/pat31 <7cf8f1e3c78f1f3e> def

end

%%PageBoundingBox: 16 593 354 773
tgifdict begin
/tgifsavedpage save def

1 setmiterlimit
1 setlinewidth

0 setgray

72 0 mul 72 11.70 mul translate
72 128 div 100.000 mul 100 div dup neg scale

gsave

/tgiforigctm matrix currentmatrix def

% BOX
0 setgray
gsave
   newpath
   212 256 moveto 352 256 lineto 352 352 lineto 212 352 lineto
   closepath 1 setgray fill
   0 setgray
   newpath
      212 256 moveto 352 256 lineto 352 352 lineto 212 352 lineto
   closepath eoclip newpath
   pat4 8 208 248 152 112 tgifpatfill
grestore
gsave
   10 setmiterlimit
   gsave
      newpath
         212 256 moveto 352 256 lineto 352 352 lineto 212 352 lineto
      closepath
      stroke
   grestore
grestore

% BOX
0 setgray
newpath
   336 256 moveto 352 256 lineto 352 352 lineto 336 352 lineto
closepath 1 setgray fill
   0 setgray
gsave
   10 setmiterlimit
   gsave
      newpath
         336 256 moveto 352 256 lineto 352 352 lineto 336 352 lineto
      closepath
      stroke
   grestore
grestore

% POLY/OPEN-SPLINE
0 setgray
gsave
   newpath
      344 264 moveto
      344 220 lineto
      0 124 atan dup cos 14.000 mul 468 exch sub
      exch sin 14.000 mul 220 exch sub lineto
   tgiforigctm setmatrix
   4 setlinewidth
   stroke
   1 setlinewidth
grestore
gsave
   tgiforigctm setmatrix
   newpath
      468 220 14.000 6.000 124 0 tgifarrowtip
   1 setgray closepath fill
   0 setgray
   newpath
      468 220 14.000 6.000 124 0 tgifarrowtip
   closepath fill
grestore

% BOX
0 setgray
newpath
   255 256 moveto 264 256 lineto 264 352 lineto 255 352 lineto
closepath 1 setgray fill
   0 setgray
gsave
   10 setmiterlimit
   gsave
      newpath
         255 256 moveto 264 256 lineto 264 352 lineto 255 352 lineto
      closepath
      stroke
   grestore
grestore

% BOX
0 setgray
newpath
   242 256 moveto 251 256 lineto 251 352 lineto 242 352 lineto
closepath 1 setgray fill
   0 setgray
gsave
   10 setmiterlimit
   gsave
      newpath
         242 256 moveto 251 256 lineto 251 352 lineto 242 352 lineto
      closepath
      stroke
   grestore
grestore

% BOX
0 setgray
newpath
   229 256 moveto 238 256 lineto 238 352 lineto 229 352 lineto
closepath 1 setgray fill
   0 setgray
gsave
   10 setmiterlimit
   gsave
      newpath
         229 256 moveto 238 256 lineto 238 352 lineto 229 352 lineto
      closepath
      stroke
   grestore
grestore

% BOX
0 setgray
newpath
   216 256 moveto 225 256 lineto 225 352 lineto 216 352 lineto
closepath 1 setgray fill
   0 setgray
gsave
   10 setmiterlimit
   gsave
      newpath
         216 256 moveto 225 256 lineto 225 352 lineto 216 352 lineto
      closepath
      stroke
   grestore
grestore

% BOX
0 setgray
newpath
   307 256 moveto 316 256 lineto 316 352 lineto 307 352 lineto
closepath 1 setgray fill
   0 setgray
gsave
   10 setmiterlimit
   gsave
      newpath
         307 256 moveto 316 256 lineto 316 352 lineto 307 352 lineto
      closepath
      stroke
   grestore
grestore

% BOX
0 setgray
newpath
   294 256 moveto 303 256 lineto 303 352 lineto 294 352 lineto
closepath 1 setgray fill
   0 setgray
gsave
   10 setmiterlimit
   gsave
      newpath
         294 256 moveto 303 256 lineto 303 352 lineto 294 352 lineto
      closepath
      stroke
   grestore
grestore

% BOX
0 setgray
newpath
   281 256 moveto 290 256 lineto 290 352 lineto 281 352 lineto
closepath 1 setgray fill
   0 setgray
gsave
   10 setmiterlimit
   gsave
      newpath
         281 256 moveto 290 256 lineto 290 352 lineto 281 352 lineto
      closepath
      stroke
   grestore
grestore

% BOX
0 setgray
newpath
   268 256 moveto 277 256 lineto 277 352 lineto 268 352 lineto
closepath 1 setgray fill
   0 setgray
gsave
   10 setmiterlimit
   gsave
      newpath
         268 256 moveto 277 256 lineto 277 352 lineto 268 352 lineto
      closepath
      stroke
   grestore
grestore

% BOX
0 setgray
gsave
   10 setmiterlimit
   gsave
      newpath
         212 256 moveto 352 256 lineto 352 352 lineto 212 352 lineto
      closepath
      3 setlinewidth
      stroke
   grestore
grestore

% BOX
0 setgray
gsave
   newpath
   220 264 moveto 360 264 lineto 360 360 lineto 220 360 lineto
   closepath 1 setgray fill
   0 setgray
   newpath
      220 264 moveto 360 264 lineto 360 360 lineto 220 360 lineto
   closepath eoclip newpath
   pat4 8 216 256 152 112 tgifpatfill
grestore
gsave
   10 setmiterlimit
   gsave
      newpath
         220 264 moveto 360 264 lineto 360 360 lineto 220 360 lineto
      closepath
      stroke
   grestore
grestore

% BOX
0 setgray
newpath
   344 264 moveto 360 264 lineto 360 360 lineto 344 360 lineto
closepath 1 setgray fill
   0 setgray
gsave
   10 setmiterlimit
   gsave
      newpath
         344 264 moveto 360 264 lineto 360 360 lineto 344 360 lineto
      closepath
      stroke
   grestore
grestore

% POLY/OPEN-SPLINE
0 setgray
gsave
   newpath
      352 272 moveto
      352 228 lineto
      0 124 atan dup cos 14.000 mul 476 exch sub
      exch sin 14.000 mul 228 exch sub lineto
   tgiforigctm setmatrix
   4 setlinewidth
   stroke
   1 setlinewidth
grestore
gsave
   tgiforigctm setmatrix
   newpath
      476 228 14.000 6.000 124 0 tgifarrowtip
   1 setgray closepath fill
   0 setgray
   newpath
      476 228 14.000 6.000 124 0 tgifarrowtip
   closepath fill
grestore

% BOX
0 setgray
newpath
   263 264 moveto 272 264 lineto 272 360 lineto 263 360 lineto
closepath 1 setgray fill
   0 setgray
gsave
   10 setmiterlimit
   gsave
      newpath
         263 264 moveto 272 264 lineto 272 360 lineto 263 360 lineto
      closepath
      stroke
   grestore
grestore

% BOX
0 setgray
newpath
   250 264 moveto 259 264 lineto 259 360 lineto 250 360 lineto
closepath 1 setgray fill
   0 setgray
gsave
   10 setmiterlimit
   gsave
      newpath
         250 264 moveto 259 264 lineto 259 360 lineto 250 360 lineto
      closepath
      stroke
   grestore
grestore

% BOX
0 setgray
newpath
   237 264 moveto 246 264 lineto 246 360 lineto 237 360 lineto
closepath 1 setgray fill
   0 setgray
gsave
   10 setmiterlimit
   gsave
      newpath
         237 264 moveto 246 264 lineto 246 360 lineto 237 360 lineto
      closepath
      stroke
   grestore
grestore

% BOX
0 setgray
newpath
   224 264 moveto 233 264 lineto 233 360 lineto 224 360 lineto
closepath 1 setgray fill
   0 setgray
gsave
   10 setmiterlimit
   gsave
      newpath
         224 264 moveto 233 264 lineto 233 360 lineto 224 360 lineto
      closepath
      stroke
   grestore
grestore

% BOX
0 setgray
newpath
   315 264 moveto 324 264 lineto 324 360 lineto 315 360 lineto
closepath 1 setgray fill
   0 setgray
gsave
   10 setmiterlimit
   gsave
      newpath
         315 264 moveto 324 264 lineto 324 360 lineto 315 360 lineto
      closepath
      stroke
   grestore
grestore

% BOX
0 setgray
newpath
   302 264 moveto 311 264 lineto 311 360 lineto 302 360 lineto
closepath 1 setgray fill
   0 setgray
gsave
   10 setmiterlimit
   gsave
      newpath
         302 264 moveto 311 264 lineto 311 360 lineto 302 360 lineto
      closepath
      stroke
   grestore
grestore

% BOX
0 setgray
newpath
   289 264 moveto 298 264 lineto 298 360 lineto 289 360 lineto
closepath 1 setgray fill
   0 setgray
gsave
   10 setmiterlimit
   gsave
      newpath
         289 264 moveto 298 264 lineto 298 360 lineto 289 360 lineto
      closepath
      stroke
   grestore
grestore

% BOX
0 setgray
newpath
   276 264 moveto 285 264 lineto 285 360 lineto 276 360 lineto
closepath 1 setgray fill
   0 setgray
gsave
   10 setmiterlimit
   gsave
      newpath
         276 264 moveto 285 264 lineto 285 360 lineto 276 360 lineto
      closepath
      stroke
   grestore
grestore

% BOX
0 setgray
gsave
   10 setmiterlimit
   gsave
      newpath
         220 264 moveto 360 264 lineto 360 360 lineto 220 360 lineto
      closepath
      3 setlinewidth
      stroke
   grestore
grestore

% BOX
0 setgray
gsave
   newpath
   228 272 moveto 368 272 lineto 368 368 lineto 228 368 lineto
   closepath 1 setgray fill
   0 setgray
   newpath
      228 272 moveto 368 272 lineto 368 368 lineto 228 368 lineto
   closepath eoclip newpath
   pat4 8 224 264 152 112 tgifpatfill
grestore
gsave
   10 setmiterlimit
   gsave
      newpath
         228 272 moveto 368 272 lineto 368 368 lineto 228 368 lineto
      closepath
      stroke
   grestore
grestore

% BOX
0 setgray
newpath
   352 272 moveto 368 272 lineto 368 368 lineto 352 368 lineto
closepath 1 setgray fill
   0 setgray
gsave
   10 setmiterlimit
   gsave
      newpath
         352 272 moveto 368 272 lineto 368 368 lineto 352 368 lineto
      closepath
      stroke
   grestore
grestore

% POLY/OPEN-SPLINE
0 setgray
gsave
   newpath
      360 280 moveto
      360 236 lineto
      0 124 atan dup cos 14.000 mul 484 exch sub
      exch sin 14.000 mul 236 exch sub lineto
   tgiforigctm setmatrix
   4 setlinewidth
   stroke
   1 setlinewidth
grestore
gsave
   tgiforigctm setmatrix
   newpath
      484 236 14.000 6.000 124 0 tgifarrowtip
   1 setgray closepath fill
   0 setgray
   newpath
      484 236 14.000 6.000 124 0 tgifarrowtip
   closepath fill
grestore

% BOX
0 setgray
newpath
   271 272 moveto 280 272 lineto 280 368 lineto 271 368 lineto
closepath 1 setgray fill
   0 setgray
gsave
   10 setmiterlimit
   gsave
      newpath
         271 272 moveto 280 272 lineto 280 368 lineto 271 368 lineto
      closepath
      stroke
   grestore
grestore

% BOX
0 setgray
newpath
   258 272 moveto 267 272 lineto 267 368 lineto 258 368 lineto
closepath 1 setgray fill
   0 setgray
gsave
   10 setmiterlimit
   gsave
      newpath
         258 272 moveto 267 272 lineto 267 368 lineto 258 368 lineto
      closepath
      stroke
   grestore
grestore

% BOX
0 setgray
newpath
   245 272 moveto 254 272 lineto 254 368 lineto 245 368 lineto
closepath 1 setgray fill
   0 setgray
gsave
   10 setmiterlimit
   gsave
      newpath
         245 272 moveto 254 272 lineto 254 368 lineto 245 368 lineto
      closepath
      stroke
   grestore
grestore

% BOX
0 setgray
newpath
   232 272 moveto 241 272 lineto 241 368 lineto 232 368 lineto
closepath 1 setgray fill
   0 setgray
gsave
   10 setmiterlimit
   gsave
      newpath
         232 272 moveto 241 272 lineto 241 368 lineto 232 368 lineto
      closepath
      stroke
   grestore
grestore

% BOX
0 setgray
newpath
   323 272 moveto 332 272 lineto 332 368 lineto 323 368 lineto
closepath 1 setgray fill
   0 setgray
gsave
   10 setmiterlimit
   gsave
      newpath
         323 272 moveto 332 272 lineto 332 368 lineto 323 368 lineto
      closepath
      stroke
   grestore
grestore

% BOX
0 setgray
newpath
   310 272 moveto 319 272 lineto 319 368 lineto 310 368 lineto
closepath 1 setgray fill
   0 setgray
gsave
   10 setmiterlimit
   gsave
      newpath
         310 272 moveto 319 272 lineto 319 368 lineto 310 368 lineto
      closepath
      stroke
   grestore
grestore

% BOX
0 setgray
newpath
   297 272 moveto 306 272 lineto 306 368 lineto 297 368 lineto
closepath 1 setgray fill
   0 setgray
gsave
   10 setmiterlimit
   gsave
      newpath
         297 272 moveto 306 272 lineto 306 368 lineto 297 368 lineto
      closepath
      stroke
   grestore
grestore

% BOX
0 setgray
newpath
   284 272 moveto 293 272 lineto 293 368 lineto 284 368 lineto
closepath 1 setgray fill
   0 setgray
gsave
   10 setmiterlimit
   gsave
      newpath
         284 272 moveto 293 272 lineto 293 368 lineto 284 368 lineto
      closepath
      stroke
   grestore
grestore

% BOX
0 setgray
gsave
   10 setmiterlimit
   gsave
      newpath
         228 272 moveto 368 272 lineto 368 368 lineto 228 368 lineto
      closepath
      3 setlinewidth
      stroke
   grestore
grestore

% TEXT
0 setgray
/Helvetica findfont [17 0 0 -17 0 0] makefont setfont
   gsave
      372 208 moveto (G-Link) show
   grestore

% TEXT
0 setgray
/Helvetica-BoldOblique findfont [20 0 0 -20 0 0] makefont setfont
   gsave
      504 239 moveto (event builder) show
   grestore

% POLY/OPEN-SPLINE
0 setgray
gsave
   newpath
      244 228 moveto
      28 -16 atan dup cos 12.000 mul 228 exch sub
      exch sin 12.000 mul 256 exch sub lineto
   tgiforigctm setmatrix
   3 setlinewidth
   stroke
   1 setlinewidth
grestore
gsave
   tgiforigctm setmatrix
   newpath
      228 256 12.000 5.000 -16 28 tgifarrowtip
   1 setgray closepath fill
   0 setgray
   newpath
      228 256 12.000 5.000 -16 28 tgifarrowtip
   closepath fill
grestore

% POLY/OPEN-SPLINE
0 setgray
gsave
   newpath
      268 228 moveto
      36 -8 atan dup cos 12.000 mul 260 exch sub
      exch sin 12.000 mul 264 exch sub lineto
   tgiforigctm setmatrix
   3 setlinewidth
   stroke
   1 setlinewidth
grestore
gsave
   tgiforigctm setmatrix
   newpath
      260 264 12.000 5.000 -8 36 tgifarrowtip
   1 setgray closepath fill
   0 setgray
   newpath
      260 264 12.000 5.000 -8 36 tgifarrowtip
   closepath fill
grestore

% POLY/OPEN-SPLINE
0 setgray
gsave
   newpath
      292 228 moveto
      40 8 atan dup cos 12.000 mul 300 exch sub
      exch sin 12.000 mul 268 exch sub lineto
   tgiforigctm setmatrix
   3 setlinewidth
   stroke
   1 setlinewidth
grestore
gsave
   tgiforigctm setmatrix
   newpath
      300 268 12.000 5.000 8 40 tgifarrowtip
   1 setgray closepath fill
   0 setgray
   newpath
      300 268 12.000 5.000 8 40 tgifarrowtip
   closepath fill
grestore

% POLY/OPEN-SPLINE
0 setgray
gsave
   newpath
      316 224 moveto
      56 16 atan dup cos 12.000 mul 332 exch sub
      exch sin 12.000 mul 280 exch sub lineto
   tgiforigctm setmatrix
   3 setlinewidth
   stroke
   1 setlinewidth
grestore
gsave
   tgiforigctm setmatrix
   newpath
      332 280 12.000 5.000 16 56 tgifarrowtip
   1 setgray closepath fill
   0 setgray
   newpath
      332 280 12.000 5.000 16 56 tgifarrowtip
   closepath fill
grestore

% BOX
0 setgray
gsave
   newpath
   188 132 moveto 328 132 lineto 328 228 lineto 188 228 lineto
   closepath 1 setgray fill
   0 setgray
   newpath
      188 132 moveto 328 132 lineto 328 228 lineto 188 228 lineto
   closepath eoclip newpath
   pat4 8 184 128 152 104 tgifpatfill
grestore
gsave
   10 setmiterlimit
   gsave
      newpath
         188 132 moveto 328 132 lineto 328 228 lineto 188 228 lineto
      closepath
      stroke
   grestore
grestore

% BOX
0 setgray
newpath
   188 132 moveto 204 132 lineto 204 228 lineto 188 228 lineto
closepath 1 setgray fill
   0 setgray
gsave
   10 setmiterlimit
   gsave
      newpath
         188 132 moveto 204 132 lineto 204 228 lineto 188 228 lineto
      closepath
      stroke
   grestore
grestore

% BOX
0 setgray
newpath
   236 132 moveto 252 132 lineto 252 228 lineto 236 228 lineto
closepath 1 setgray fill
   0 setgray
gsave
   10 setmiterlimit
   gsave
      newpath
         236 132 moveto 252 132 lineto 252 228 lineto 236 228 lineto
      closepath
      stroke
   grestore
grestore

% BOX
0 setgray
newpath
   260 132 moveto 276 132 lineto 276 228 lineto 260 228 lineto
closepath 1 setgray fill
   0 setgray
gsave
   10 setmiterlimit
   gsave
      newpath
         260 132 moveto 276 132 lineto 276 228 lineto 260 228 lineto
      closepath
      stroke
   grestore
grestore

% BOX
0 setgray
newpath
   284 132 moveto 300 132 lineto 300 228 lineto 284 228 lineto
closepath 1 setgray fill
   0 setgray
gsave
   10 setmiterlimit
   gsave
      newpath
         284 132 moveto 300 132 lineto 300 228 lineto 284 228 lineto
      closepath
      stroke
   grestore
grestore

% BOX
0 setgray
newpath
   308 132 moveto 324 132 lineto 324 228 lineto 308 228 lineto
closepath 1 setgray fill
   0 setgray
gsave
   10 setmiterlimit
   gsave
      newpath
         308 132 moveto 324 132 lineto 324 228 lineto 308 228 lineto
      closepath
      stroke
   grestore
grestore

% BOX
0 setgray
gsave
   10 setmiterlimit
   gsave
      newpath
         188 132 moveto 328 132 lineto 328 228 lineto 188 228 lineto
      closepath
      3 setlinewidth
      stroke
   grestore
grestore

% TEXT
0 setgray
gsave
   201 151 translate
   [0.000 1.000 -1.000 0.000 5 -14] concat
   201 neg 151 neg translate
grestore
/Helvetica findfont [17 0 0 -17 0 0] makefont setfont
   gsave
      201 151 translate
      [0.000 1.000 -1.000 0.000 5 -14] concat
      0 16 moveto (TDM) show
   grestore

% BOX
0 setgray
gsave
   newpath
   236 280 moveto 376 280 lineto 376 376 lineto 236 376 lineto
   closepath 1 setgray fill
   0 setgray
   newpath
      236 280 moveto 376 280 lineto 376 376 lineto 236 376 lineto
   closepath eoclip newpath
   pat4 8 232 272 152 112 tgifpatfill
grestore
gsave
   10 setmiterlimit
   gsave
      newpath
         236 280 moveto 376 280 lineto 376 376 lineto 236 376 lineto
      closepath
      stroke
   grestore
grestore

% BOX
0 setgray
newpath
   360 280 moveto 376 280 lineto 376 376 lineto 360 376 lineto
closepath 1 setgray fill
   0 setgray
gsave
   10 setmiterlimit
   gsave
      newpath
         360 280 moveto 376 280 lineto 376 376 lineto 360 376 lineto
      closepath
      stroke
   grestore
grestore

% POLY/OPEN-SPLINE
0 setgray
gsave
   newpath
      368 288 moveto
      368 244 lineto
      0 124 atan dup cos 14.000 mul 492 exch sub
      exch sin 14.000 mul 244 exch sub lineto
   tgiforigctm setmatrix
   4 setlinewidth
   stroke
   1 setlinewidth
grestore
gsave
   tgiforigctm setmatrix
   newpath
      492 244 14.000 6.000 124 0 tgifarrowtip
   1 setgray closepath fill
   0 setgray
   newpath
      492 244 14.000 6.000 124 0 tgifarrowtip
   closepath fill
grestore

% BOX
0 setgray
newpath
   279 280 moveto 288 280 lineto 288 376 lineto 279 376 lineto
closepath 1 setgray fill
   0 setgray
gsave
   10 setmiterlimit
   gsave
      newpath
         279 280 moveto 288 280 lineto 288 376 lineto 279 376 lineto
      closepath
      stroke
   grestore
grestore

% BOX
0 setgray
newpath
   266 280 moveto 275 280 lineto 275 376 lineto 266 376 lineto
closepath 1 setgray fill
   0 setgray
gsave
   10 setmiterlimit
   gsave
      newpath
         266 280 moveto 275 280 lineto 275 376 lineto 266 376 lineto
      closepath
      stroke
   grestore
grestore

% BOX
0 setgray
newpath
   253 280 moveto 262 280 lineto 262 376 lineto 253 376 lineto
closepath 1 setgray fill
   0 setgray
gsave
   10 setmiterlimit
   gsave
      newpath
         253 280 moveto 262 280 lineto 262 376 lineto 253 376 lineto
      closepath
      stroke
   grestore
grestore

% BOX
0 setgray
newpath
   240 280 moveto 249 280 lineto 249 376 lineto 240 376 lineto
closepath 1 setgray fill
   0 setgray
gsave
   10 setmiterlimit
   gsave
      newpath
         240 280 moveto 249 280 lineto 249 376 lineto 240 376 lineto
      closepath
      stroke
   grestore
grestore

% BOX
0 setgray
newpath
   331 280 moveto 340 280 lineto 340 376 lineto 331 376 lineto
closepath 1 setgray fill
   0 setgray
gsave
   10 setmiterlimit
   gsave
      newpath
         331 280 moveto 340 280 lineto 340 376 lineto 331 376 lineto
      closepath
      stroke
   grestore
grestore

% BOX
0 setgray
newpath
   318 280 moveto 327 280 lineto 327 376 lineto 318 376 lineto
closepath 1 setgray fill
   0 setgray
gsave
   10 setmiterlimit
   gsave
      newpath
         318 280 moveto 327 280 lineto 327 376 lineto 318 376 lineto
      closepath
      stroke
   grestore
grestore

% BOX
0 setgray
newpath
   305 280 moveto 314 280 lineto 314 376 lineto 305 376 lineto
closepath 1 setgray fill
   0 setgray
gsave
   10 setmiterlimit
   gsave
      newpath
         305 280 moveto 314 280 lineto 314 376 lineto 305 376 lineto
      closepath
      stroke
   grestore
grestore

% BOX
0 setgray
newpath
   292 280 moveto 301 280 lineto 301 376 lineto 292 376 lineto
closepath 1 setgray fill
   0 setgray
gsave
   10 setmiterlimit
   gsave
      newpath
         292 280 moveto 301 280 lineto 301 376 lineto 292 376 lineto
      closepath
      stroke
   grestore
grestore

% BOX
0 setgray
gsave
   10 setmiterlimit
   gsave
      newpath
         236 280 moveto 376 280 lineto 376 376 lineto 236 376 lineto
      closepath
      3 setlinewidth
      stroke
   grestore
grestore

% TEXT
0 setgray
newpath
   239 271 moveto 364 271 lineto 364 297 lineto 239 297 lineto
closepath 1 setgray fill
0 setgray
/Helvetica-BoldOblique findfont [20 0 0 -20 0 0] makefont setfont
   gsave
      240 291 moveto (readout VME) show
   grestore

% TEXT
0 setgray
newpath
   247 311 moveto 332 311 lineto 332 332 lineto 247 332 lineto
closepath 1 setgray fill
0 setgray
/Helvetica findfont [17 0 0 -17 0 0] makefont setfont
   gsave
      248 328 moveto (Flash ADC) show
   grestore

% TEXT
0 setgray
gsave
   371 302 translate
   [0.000 1.000 -1.000 0.000 3 -8] concat
   371 neg 302 neg translate
grestore
/Helvetica findfont [17 0 0 -17 0 0] makefont setfont
   gsave
      371 302 translate
      [0.000 1.000 -1.000 0.000 3 -8] concat
      0 16 moveto (Tx) show
   grestore

% POLY/OPEN-SPLINE
0 setgray
gsave
   newpath
      168 391 moveto
      246 391 lineto
      -15 0 atan dup cos 8.000 mul 246 exch sub
      exch sin 8.000 mul 376 exch sub lineto
   tgiforigctm setmatrix
   1 setlinewidth
   stroke
grestore
gsave
   tgiforigctm setmatrix
   newpath
      246 376 8.000 3.000 0 -15 tgifarrowtip
   1 setgray closepath fill
   0 setgray
   newpath
      246 376 8.000 3.000 0 -15 tgifarrowtip
   closepath fill
grestore

% POLY/OPEN-SPLINE
0 setgray
gsave
   newpath
      169 394 moveto
      258 394 lineto
      -17 0 atan dup cos 8.000 mul 258 exch sub
      exch sin 8.000 mul 377 exch sub lineto
   tgiforigctm setmatrix
   1 setlinewidth
   stroke
grestore
gsave
   tgiforigctm setmatrix
   newpath
      258 377 8.000 3.000 0 -17 tgifarrowtip
   1 setgray closepath fill
   0 setgray
   newpath
      258 377 8.000 3.000 0 -17 tgifarrowtip
   closepath fill
grestore

% POLY/OPEN-SPLINE
0 setgray
gsave
   newpath
      170 397 moveto
      271 397 lineto
      -20 0 atan dup cos 8.000 mul 271 exch sub
      exch sin 8.000 mul 377 exch sub lineto
   tgiforigctm setmatrix
   1 setlinewidth
   stroke
grestore
gsave
   tgiforigctm setmatrix
   newpath
      271 377 8.000 3.000 0 -20 tgifarrowtip
   1 setgray closepath fill
   0 setgray
   newpath
      271 377 8.000 3.000 0 -20 tgifarrowtip
   closepath fill
grestore

% POLY/OPEN-SPLINE
0 setgray
gsave
   newpath
      171 400 moveto
      284 400 lineto
      -23 0 atan dup cos 8.000 mul 284 exch sub
      exch sin 8.000 mul 377 exch sub lineto
   tgiforigctm setmatrix
   1 setlinewidth
   stroke
grestore
gsave
   tgiforigctm setmatrix
   newpath
      284 377 8.000 3.000 0 -23 tgifarrowtip
   1 setgray closepath fill
   0 setgray
   newpath
      284 377 8.000 3.000 0 -23 tgifarrowtip
   closepath fill
grestore

% POLY/OPEN-SPLINE
0 setgray
gsave
   newpath
      172 403 moveto
      297 403 lineto
      -26 0 atan dup cos 8.000 mul 297 exch sub
      exch sin 8.000 mul 377 exch sub lineto
   tgiforigctm setmatrix
   1 setlinewidth
   stroke
grestore
gsave
   tgiforigctm setmatrix
   newpath
      297 377 8.000 3.000 0 -26 tgifarrowtip
   1 setgray closepath fill
   0 setgray
   newpath
      297 377 8.000 3.000 0 -26 tgifarrowtip
   closepath fill
grestore

% POLY/OPEN-SPLINE
0 setgray
gsave
   newpath
      173 406 moveto
      310 406 lineto
      -29 0 atan dup cos 8.000 mul 310 exch sub
      exch sin 8.000 mul 377 exch sub lineto
   tgiforigctm setmatrix
   1 setlinewidth
   stroke
grestore
gsave
   tgiforigctm setmatrix
   newpath
      310 377 8.000 3.000 0 -29 tgifarrowtip
   1 setgray closepath fill
   0 setgray
   newpath
      310 377 8.000 3.000 0 -29 tgifarrowtip
   closepath fill
grestore

% POLY/OPEN-SPLINE
0 setgray
gsave
   newpath
      174 409 moveto
      323 409 lineto
      -32 0 atan dup cos 8.000 mul 323 exch sub
      exch sin 8.000 mul 377 exch sub lineto
   tgiforigctm setmatrix
   1 setlinewidth
   stroke
grestore
gsave
   tgiforigctm setmatrix
   newpath
      323 377 8.000 3.000 0 -32 tgifarrowtip
   1 setgray closepath fill
   0 setgray
   newpath
      323 377 8.000 3.000 0 -32 tgifarrowtip
   closepath fill
grestore

% POLY/OPEN-SPLINE
0 setgray
gsave
   newpath
      174 412 moveto
      336 412 lineto
      -35 0 atan dup cos 8.000 mul 336 exch sub
      exch sin 8.000 mul 377 exch sub lineto
   tgiforigctm setmatrix
   1 setlinewidth
   stroke
grestore
gsave
   tgiforigctm setmatrix
   newpath
      336 377 8.000 3.000 0 -35 tgifarrowtip
   1 setgray closepath fill
   0 setgray
   newpath
      336 377 8.000 3.000 0 -35 tgifarrowtip
   closepath fill
grestore

% TEXT
0 setgray
/Helvetica-BoldOblique findfont [20 0 0 -20 0 0] makefont setfont
   gsave
      55 408 moveto (frontend) show
      55 433 moveto (electronics) show
   grestore

% TEXT
0 setgray
newpath
   215 123 moveto 334 123 lineto 334 149 lineto 215 149 lineto
closepath 1 setgray fill
0 setgray
/Helvetica-BoldOblique findfont [20 0 0 -20 0 0] makefont setfont
   gsave
      216 143 moveto (Master VME) show
   grestore

% POLY/OPEN-SPLINE
0 setgray
gsave
   newpath
      108 180 moveto
      0 88 atan dup cos 8.000 mul 196 exch sub
      exch sin 8.000 mul 180 exch sub lineto
   tgiforigctm setmatrix
   1 setlinewidth
   stroke
grestore
gsave
   tgiforigctm setmatrix
   newpath
      196 180 8.000 3.000 88 0 tgifarrowtip
   1 setgray closepath fill
   0 setgray
   newpath
      196 180 8.000 3.000 88 0 tgifarrowtip
   closepath fill
grestore

% TEXT
0 setgray
/Helvetica findfont [17 0 0 -17 0 0] makefont setfont
   gsave
      116 200 moveto (trigger) show
   grestore

% TEXT
0 setgray
/Helvetica-BoldOblique findfont [20 0 0 -20 0 0] makefont setfont
   gsave
      32 159 moveto (Sequence) show
      32 184 moveto (control) show
   grestore

grestore
tgifsavedpage restore
end
%MatchingCreationDate: Fri Jun 11 23:01:41 1999
