%!PS-Adobe-2.0 EPSF-1.2
%%BoundingBox: 5 581 318 836
%%Title: fig:tdc-readout
%%CreationDate: Tue Jun  8 16:27:10 1999
%%Creator: Tgif-3.0J0-p13 by William Chia-Wei Cheng (william@cs.UCLA.edu)

/tgifdict 38 dict def
tgifdict begin

/tgifarrowtipdict 8 dict def
tgifarrowtipdict /mtrx matrix put

/tgifarrowtip
 { tgifarrowtipdict begin
      /dy exch def
      /dx exch def
      /h exch def
      /w exch def
      /y exch def
      /x exch def
      /savematrix mtrx currentmatrix def
      x y translate
      dy dx atan rotate
      0 0 moveto
      w neg h lineto
      w neg h neg lineto
      savematrix setmatrix
   end
 } def

/tgifpatdict 10 dict def

/tgifpatbyte
 { currentdict /retstr get exch
   pat i cellsz mod get put
 } def

/tgifpatproc
 { 0 1 widthlim {tgifpatbyte} for retstr
   /i i 1 add def
 } def

/tgifpatfill
 { tgifpatdict begin
      /h exch def
      /w exch def
      /lty exch def
      /ltx exch def
      /cellsz exch def
      /pat exch def

      /widthlim w cellsz div cvi 1 sub def
      /retstr widthlim 1 add string def
      /i 0 def

      tgiforigctm setmatrix
      ltx lty translate
      w h true [1 0 0 1 0 0] {tgifpatproc} imagemask
      ltx neg lty neg translate
   end
 } def

/pat3 <8000000008000000> def
/pat4 <8800000022000000> def
/pat5 <8800220088002200> def
/pat6 <8822882288228822> def
/pat7 <aa55aa55aa55aa55> def
/pat8 <77dd77dd77dd77dd> def
/pat9 <77ffddff77ffddff> def
/pat10 <77ffffff77ffffff> def
/pat11 <7fffffff7fffffff> def
/pat12 <8040200002040800> def
/pat13 <40a00000040a0000> def
/pat14 <ff888888ff888888> def
/pat15 <ff808080ff080808> def
/pat16 <f87422478f172271> def
/pat17 <038448300c020101> def
/pat18 <081c22c180010204> def
/pat19 <8080413e080814e3> def
/pat20 <8040201008040201> def
/pat21 <8844221188442211> def
/pat22 <77bbddee77bbddee> def
/pat23 <c1e070381c0e0783> def
/pat24 <7fbfdfeff7fbfdfe> def
/pat25 <3e1f8fc7e3f1f87c> def
/pat26 <0102040810204080> def
/pat27 <1122448811224488> def
/pat28 <eeddbb77eeddbb77> def
/pat29 <83070e1c3870e0c1> def
/pat30 <fefdfbf7efdfbf7f> def
/pat31 <7cf8f1e3c78f1f3e> def

/tgifrighttext { dup stringwidth pop neg 0 rmoveto } def

end

%%PageBoundingBox: 5 581 318 836
tgifdict begin
/tgifsavedpage save def

1 setmiterlimit
1 setlinewidth

0 setgray

72 0 mul 72 11.70 mul translate
72 128 div 100.000 mul 100 div dup neg scale

gsave

/tgiforigctm matrix currentmatrix def

% TEXT
0 setgray
/Helvetica-Bold findfont [24 0 0 -24 0 0] makefont setfont
   gsave
      404 220 moveto (Event Builder) show
   grestore

% POLY/OPEN-SPLINE
0 setgray
gsave
   [4 4] 0 setdash
   newpath
      512 188 moveto
      416 188 lineto
      416 376 lineto
      524 376 lineto
   tgiforigctm setmatrix
   1 setlinewidth
   stroke
   [] 0 setdash
grestore

% BOX
0 setgray
gsave
   10 setmiterlimit
   gsave
      newpath
         12 80 moveto 376 80 lineto 376 428 lineto 12 428 lineto
      closepath
      [4 4] 0 setdash
      stroke
   grestore
grestore

% BOX
0 setgray
gsave
   newpath
   32 156 moveto 232 156 lineto 232 368 lineto 32 368 lineto
   closepath 1 setgray fill
   0 setgray
   newpath
      32 156 moveto 232 156 lineto 232 368 lineto 32 368 lineto
   closepath eoclip newpath
   pat4 8 24 152 216 224 tgifpatfill
grestore
gsave
   10 setmiterlimit
   gsave
      newpath
         32 156 moveto 232 156 lineto 232 368 lineto 32 368 lineto
      closepath
      3 setlinewidth
      stroke
   grestore
grestore

% BOX
0 setgray
newpath
   276 240 moveto 464 240 lineto 464 368 lineto 276 368 lineto
closepath 1 setgray fill
   0 setgray
gsave
   10 setmiterlimit
   gsave
      newpath
         276 240 moveto 464 240 lineto 464 368 lineto 276 368 lineto
      closepath
      3 setlinewidth
      stroke
   grestore
grestore

% BOX
0 setgray
gsave
   10 setmiterlimit
   gsave
      newpath
         436 240 moveto 456 240 lineto 456 368 lineto 436 368 lineto
      closepath
      stroke
   grestore
grestore

% TEXT
0 setgray
gsave
   451 259 translate
   [0.000 1.000 -1.000 0.000 3 -6] concat
   451 neg 259 neg translate
grestore
/Helvetica findfont [17 0 0 -17 0 0] makefont setfont
   gsave
      451 259 translate
      [0.000 1.000 -1.000 0.000 3 -6] concat
      0 16 moveto (Tx) show
   grestore

% BOX
0 setgray
gsave
   10 setmiterlimit
   gsave
      newpath
         284 240 moveto 304 240 lineto 304 368 lineto 284 368 lineto
      closepath
      stroke
   grestore
grestore

% TEXT
0 setgray
gsave
   288 288 translate
   [0.000 1.000 -1.000 0.000 15 -37] concat
   288 neg 288 neg translate
grestore
/Helvetica findfont [17 0 0 -17 0 0] makefont setfont
   gsave
      288 288 translate
      [0.000 1.000 -1.000 0.000 15 -37] concat
      0 16 moveto (Controller) show
   grestore

% BOX
0 setgray
gsave
   10 setmiterlimit
   gsave
      newpath
         312 240 moveto 332 240 lineto 332 368 lineto 312 368 lineto
      closepath
      stroke
   grestore
grestore

% TEXT
0 setgray
gsave
   316 280 translate
   [0.000 1.000 -1.000 0.000 15 -37] concat
   316 neg 280 neg translate
grestore
/Helvetica findfont [17 0 0 -17 0 0] makefont setfont
   gsave
      316 280 translate
      [0.000 1.000 -1.000 0.000 15 -37] concat
      0 16 moveto (dual port memory) show
   grestore

% BOX
0 setgray
gsave
   10 setmiterlimit
   gsave
      newpath
         344 240 moveto 364 240 lineto 364 368 lineto 344 368 lineto
      closepath
      stroke
   grestore
grestore

% TEXT
0 setgray
gsave
   348 288 translate
   [0.000 1.000 -1.000 0.000 15 -37] concat
   348 neg 288 neg translate
grestore
/Helvetica findfont [17 0 0 -17 0 0] makefont setfont
   gsave
      348 288 translate
      [0.000 1.000 -1.000 0.000 15 -37] concat
      0 16 moveto (TDM) show
   grestore

% TEXT
0 setgray
/Helvetica findfont [17 0 0 -17 0 0] makefont setfont
   gsave
      531 36 moveto (trigger timing from) tgifrighttext show
      531 56 moveto (sequence control) tgifrighttext show
   grestore

% BOX
0 setgray
newpath
   108 156 moveto 132 156 lineto 132 368 lineto 108 368 lineto
closepath 1 setgray fill
   0 setgray
gsave
   10 setmiterlimit
   gsave
      newpath
         108 156 moveto 132 156 lineto 132 368 lineto 108 368 lineto
      closepath
      stroke
   grestore
grestore

% BOX
0 setgray
newpath
   76 156 moveto 100 156 lineto 100 368 lineto 76 368 lineto
closepath 1 setgray fill
   0 setgray
gsave
   10 setmiterlimit
   gsave
      newpath
         76 156 moveto 100 156 lineto 100 368 lineto 76 368 lineto
      closepath
      stroke
   grestore
grestore

% BOX
0 setgray
newpath
   44 156 moveto 68 156 lineto 68 368 lineto 44 368 lineto
closepath 1 setgray fill
   0 setgray
gsave
   10 setmiterlimit
   gsave
      newpath
         44 156 moveto 68 156 lineto 68 368 lineto 44 368 lineto
      closepath
      stroke
   grestore
grestore

% BOX
0 setgray
newpath
   196 156 moveto 216 156 lineto 216 368 lineto 196 368 lineto
closepath 1 setgray fill
   0 setgray
gsave
   10 setmiterlimit
   gsave
      newpath
         196 156 moveto 216 156 lineto 216 368 lineto 196 368 lineto
      closepath
      stroke
   grestore
grestore

% TEXT
0 setgray
gsave
   205 183 translate
   [0.000 1.000 -1.000 0.000 3 -9] concat
   205 neg 183 neg translate
newpath
   204 182 moveto 230 182 lineto 230 203 lineto 204 203 lineto
closepath 1 setgray fill
0 setgray
grestore
/Helvetica findfont [17 0 0 -17 0 0] makefont setfont
   gsave
      205 183 translate
      [0.000 1.000 -1.000 0.000 3 -9] concat
      0 16 moveto (FPI) show
   grestore

% POLY/OPEN-SPLINE
0 setgray
gsave
   newpath
      208 370 moveto
      208 380 lineto
      321 380 lineto
      321 370 lineto
   tgiforigctm setmatrix
   5 setlinewidth
   stroke
   1 setlinewidth
grestore

% TEXT
0 setgray
newpath
   62 199 moveto 103 199 lineto 103 222 lineto 62 222 lineto
closepath 1 setgray fill
0 setgray
/Helvetica findfont [20 0 0 -20 0 0] makefont setfont
   gsave
      63 218 moveto (TDC) show
   grestore

% POLY/OPEN-SPLINE
0 setgray
gsave
   newpath
      228 394 moveto
      0 72 atan dup cos 12.000 mul 300 exch sub
      exch sin 12.000 mul 394 exch sub lineto
   tgiforigctm setmatrix
   3 setlinewidth
   stroke
   1 setlinewidth
grestore
gsave
   tgiforigctm setmatrix
   newpath
      300 394 12.000 5.000 72 0 tgifarrowtip
   1 setgray closepath fill
   0 setgray
   newpath
      300 394 12.000 5.000 72 0 tgifarrowtip
   closepath fill
grestore

% TEXT
0 setgray
/Helvetica findfont [17 0 0 -17 0 0] makefont setfont
   gsave
      381 356 moveto (DMA) show
   grestore

% POLY/OPEN-SPLINE
0 setgray
gsave
   newpath
      448 276 moveto
      0 104 atan dup cos 20.000 mul 552 exch sub
      exch sin 20.000 mul 276 exch sub lineto
   tgiforigctm setmatrix
   6 setlinewidth
   stroke
   1 setlinewidth
grestore
gsave
   tgiforigctm setmatrix
   newpath
      552 276 20.000 8.000 104 0 tgifarrowtip
   1 setgray closepath fill
   0 setgray
   newpath
      552 276 20.000 8.000 104 0 tgifarrowtip
   closepath fill
grestore

% TEXT
0 setgray
/Helvetica findfont [17 0 0 -17 0 0] makefont setfont
   gsave
      480 304 moveto (G-Link) show
   grestore

% TEXT
0 setgray
newpath
   359 227 moveto 395 227 lineto 395 248 lineto 359 248 lineto
closepath 1 setgray fill
0 setgray
/Helvetica findfont [17 0 0 -17 0 0] makefont setfont
   gsave
      360 244 moveto (VME) show
   grestore

% POLY/OPEN-SPLINE
0 setgray
gsave
   newpath
      56 439 moveto
      -75 -4 atan dup cos 12.000 mul 52 exch sub
      exch sin 12.000 mul 364 exch sub lineto
   tgiforigctm setmatrix
   3 setlinewidth
   stroke
   1 setlinewidth
grestore
gsave
   tgiforigctm setmatrix
   newpath
      52 364 12.000 5.000 -4 -75 tgifarrowtip
   1 setgray closepath fill
   0 setgray
   newpath
      52 364 12.000 5.000 -4 -75 tgifarrowtip
   closepath fill
grestore

% POLY/OPEN-SPLINE
0 setgray
gsave
   newpath
      88 439 moveto
      -75 -4 atan dup cos 12.000 mul 84 exch sub
      exch sin 12.000 mul 364 exch sub lineto
   tgiforigctm setmatrix
   3 setlinewidth
   stroke
   1 setlinewidth
grestore
gsave
   tgiforigctm setmatrix
   newpath
      84 364 12.000 5.000 -4 -75 tgifarrowtip
   1 setgray closepath fill
   0 setgray
   newpath
      84 364 12.000 5.000 -4 -75 tgifarrowtip
   closepath fill
grestore

% POLY/OPEN-SPLINE
0 setgray
gsave
   newpath
      120 439 moveto
      -75 -4 atan dup cos 12.000 mul 116 exch sub
      exch sin 12.000 mul 364 exch sub lineto
   tgiforigctm setmatrix
   3 setlinewidth
   stroke
   1 setlinewidth
grestore
gsave
   tgiforigctm setmatrix
   newpath
      116 364 12.000 5.000 -4 -75 tgifarrowtip
   1 setgray closepath fill
   0 setgray
   newpath
      116 364 12.000 5.000 -4 -75 tgifarrowtip
   closepath fill
grestore

% TEXT
0 setgray
/Helvetica-BoldOblique findfont [17 0 0 -17 0 0] makefont setfont
   gsave
      64 456 moveto (Q-to-T) show
   grestore

% TEXT
0 setgray
newpath
   99 55 moveto 351 55 lineto 351 85 lineto 99 85 lineto
closepath 1 setgray fill
0 setgray
/Helvetica-Bold findfont [24 0 0 -24 0 0] makefont setfont
   gsave
      100 80 moveto (TDC Readout System) show
   grestore

% POLY/OPEN-SPLINE
0 setgray
gsave
   newpath
      440 64 moveto
      397.33 106.67 368.00 164.00
      108 -24 atan dup cos 8.000 mul 352 exch sub
      exch sin 8.000 mul 236 exch sub curveto
   tgiforigctm setmatrix
   1 setlinewidth
   stroke
grestore
gsave
   tgiforigctm setmatrix
   newpath
      352 236 8.000 3.000 -24 108 tgifarrowtip
   1 setgray closepath fill
   0 setgray
   newpath
      352 236 8.000 3.000 -24 108 tgifarrowtip
   closepath fill
grestore

% BOX
0 setgray
gsave
   10 setmiterlimit
   gsave
      newpath
         32 156 moveto 232 156 lineto 232 368 lineto 32 368 lineto
      closepath
      3 setlinewidth
      stroke
   grestore
grestore

% TEXT
0 setgray
newpath
   51 143 moveto 128 143 lineto 128 164 lineto 51 164 lineto
closepath 1 setgray fill
0 setgray
/Helvetica findfont [17 0 0 -17 0 0] makefont setfont
   gsave
      52 160 moveto (FASTBUS) show
   grestore

% POLY/OPEN-SPLINE
0 setgray
gsave
   newpath
      60 296 moveto
      0 136 atan dup cos 12.000 mul 196 exch sub
      exch sin 12.000 mul 296 exch sub lineto
   tgiforigctm setmatrix
   3 setlinewidth
   stroke
   1 setlinewidth
grestore
gsave
   tgiforigctm setmatrix
   newpath
      196 296 12.000 5.000 136 0 tgifarrowtip
   1 setgray closepath fill
   0 setgray
   newpath
      196 296 12.000 5.000 136 0 tgifarrowtip
   closepath fill
grestore

% POLY/OPEN-SPLINE
0 setgray
gsave
   newpath
      352 236 moveto
      277.33 86.67 193.33 54.67
      128 -140 atan dup cos 8.000 mul 100 exch sub
      exch sin 8.000 mul 140 exch sub curveto
   tgiforigctm setmatrix
   1 setlinewidth
   stroke
grestore
gsave
   tgiforigctm setmatrix
   newpath
      100 140 8.000 3.000 -140 128 tgifarrowtip
   1 setgray closepath fill
   0 setgray
   newpath
      100 140 8.000 3.000 -140 128 tgifarrowtip
   closepath fill
grestore

% POLY/OPEN-SPLINE
0 setgray
gsave
   newpath
      296 338 moveto
      0 140 atan dup cos 12.000 mul 436 exch sub
      exch sin 12.000 mul 338 exch sub lineto
   tgiforigctm setmatrix
   3 setlinewidth
   stroke
   1 setlinewidth
grestore
gsave
   tgiforigctm setmatrix
   newpath
      436 338 12.000 5.000 140 0 tgifarrowtip
   1 setgray closepath fill
   0 setgray
   newpath
      436 338 12.000 5.000 140 0 tgifarrowtip
   closepath fill
grestore

% POLY/OPEN-SPLINE
0 setgray
gsave
   newpath
      316 326 moveto
      0 -20 atan dup cos 12.000 mul 296 exch sub
      exch sin 12.000 mul 326 exch sub lineto
   tgiforigctm setmatrix
   3 setlinewidth
   stroke
   1 setlinewidth
grestore
gsave
   tgiforigctm setmatrix
   newpath
      296 326 12.000 5.000 -20 0 tgifarrowtip
   1 setgray closepath fill
   0 setgray
   newpath
      296 326 12.000 5.000 -20 0 tgifarrowtip
   closepath fill
grestore

% POLY/OPEN-SPLINE
0 setgray
gsave
   newpath
      88 308 moveto
      0 108 atan dup cos 12.000 mul 196 exch sub
      exch sin 12.000 mul 308 exch sub lineto
   tgiforigctm setmatrix
   3 setlinewidth
   stroke
   1 setlinewidth
grestore
gsave
   tgiforigctm setmatrix
   newpath
      196 308 12.000 5.000 108 0 tgifarrowtip
   1 setgray closepath fill
   0 setgray
   newpath
      196 308 12.000 5.000 108 0 tgifarrowtip
   closepath fill
grestore

% POLY/OPEN-SPLINE
0 setgray
gsave
   newpath
      120 320 moveto
      0 76 atan dup cos 12.000 mul 196 exch sub
      exch sin 12.000 mul 320 exch sub lineto
   tgiforigctm setmatrix
   3 setlinewidth
   stroke
   1 setlinewidth
grestore
gsave
   tgiforigctm setmatrix
   newpath
      196 320 12.000 5.000 76 0 tgifarrowtip
   1 setgray closepath fill
   0 setgray
   newpath
      196 320 12.000 5.000 76 0 tgifarrowtip
   closepath fill
grestore

grestore
tgifsavedpage restore
end
%MatchingCreationDate: Tue Jun  8 16:27:10 1999
