%!PS-Adobe-2.0 EPSF-2.0
%%BoundingBox: 0 0 567 567
%%Title: pi_ks.eps
%%Creator: HIGZ Version 1.23/07
%%CreationDate: :0/04/26   08.31
%%EndComments
%%BeginProlog
80 dict begin
/s {stroke} def /l {lineto} def /m {moveto} def /t {translate} def
/sw {stringwidth} def /r {rotate} def /rl {roll}  def /R {repeat} def
/d {rlineto} def /rm {rmoveto} def /gr {grestore} def /f {eofill} def
/c {setrgbcolor} def /lw {setlinewidth} def /sd {setdash} def
/cl {closepath} def /sf {scalefont setfont} def /black {0 setgray} def
/box {m dup 0 exch d exch 0 d 0 exch neg d cl} def
/NC{systemdict begin initclip end}def/C{NC box clip newpath}def
/bl {box s} def /bf {box f} def /Y { 0 exch d} def /X { 0 d} def 
/mp {newpath /y exch def /x exch def} def
/side {[w .77 mul w .23 mul] .385 w mul sd w 0 l currentpoint t -144 r} def
/mr {mp x y w2 0 360 arc} def /m24 {mr s} def /m20 {mr f} def
/mb {mp x y w2 add m w2 neg 0 d 0 w neg d w 0 d 0 w d cl} def
/mt {mp x y w2 add m w2 neg w neg d w 0 d cl} def
/m21 {mb f} def /m25 {mb s} def /m22 {mt f} def /m26 {mt s} def
/m23 {mp x y w2 sub m w2 w d w neg 0 d cl f} def
/m27 {mp x y w2 add m w3 neg w2 neg d w3 w2 neg d w3  w2 d cl s} def
/m28 {mp x w2 sub y w2 sub w3 add m w3 0 d 0 w3 neg d w3 0 d 0 w3 d w3 0 d
 0 w3 d w3 neg 0 d 0 w3 d w3 neg 0 d
 0 w3 neg d w3 neg 0 d cl s } def
/m29 {mp gsave x w2 sub y w2 add w3 sub m currentpoint t
 4 {side} repeat cl fill gr} def
/m30 {mp gsave x w2 sub y w2 add w3 sub m currentpoint t
 5 {side} repeat s gr} def
/m31 {mp x y w2 sub m 0 w d x w2 sub y m w 0 d
 x w2 sub y w2 add m w w neg d x w2 sub y w2
 sub m w w d s} def
/m2 {mp x y w2 sub m 0 w d x w2 sub y m w 0 d s} def
/m5 {mp x w2 sub y w2 sub m w w d x w2 sub y w2 add m w w neg d s} def
/DP {/PT exch def gsave 47.2 47.2 scale PT 1  eq { 16 16 1 [ 16 0 0 16 neg 0 16
] { < AA AA 55 55 AA AA 55 55 AA AA 55 55 AA AA 55 55 AA AA 55 55 AA AA 55 55
AA AA 55 55 AA AA 55 55 > } image } if PT 2 eq { 16 16 1 [ 16 0 0 16 neg 0 16
] { < BB BB EE EE BB BB EE EE BB BB EE EE BB BB EE EE BB BB EE EE BB BB EE EE
BB BB EE EE BB BB EE EE > } image } if PT 3 eq { 16 16 1 [ 16 0 0 16 neg 0 16
] { < FF FF BB BB FF FF EE EE FF FF BB BB FF FF EE EE FF FF BB BB FF FF EE EE
FF FF BB BB FF FF EE EE > } image } if PT 4 eq { 16 16 1 [ 16 0 0 16 neg 0 16
] { < DF DF BF BF 7F 7F FE FE FD FD FB FB F7 F7 EF EF DF DF BF BF 7F 7F FE FE
FD FD FB FB F7 F7 EF EF > } image } if PT 5 eq { 16 16 1 [ 16 0 0 16 neg 0 16
] { < 7F 7F BF B F DF DF EF EF F7 F7 FB FB FD FD FE FE 7F 7F BF BF DF DF EF
EF F7 F7 FB FB FD FD FE FE > } image } if PT 6 eq { 16 16 1 [ 16 0 0 16 neg 0
16 ] { < BB BB BB BB BB BB BB BB BB BB BB BB BB BB BB BB BB BB BB BB BB BB BB
BB BB BB BB BB BB BB BB BB > } image } if PT 7 eq { 16 16 1 [ 16 0 0 16 neg 0
16 ] { < FF FF FF FF FF FF 00 00 FF FF FF FF FF FF 00 00 FF FF FF FF FF FF 00
00 FF FF FF FF FF FF 00 00 > } image } if PT 8 eq { 16 16 1 [ 16 0 0 16 neg 0
16 ] { < EE EE 47 47 83 83 C5 C5 EE EE 5C 5C 38 38 74 74 EE EE 47 47 83 83 C5
C5 EE EE 5C 5C 38 38 74 74 > } image } if PT 9 eq { 16 16 1 [ 16 0 0 16 neg 0
16 ] { < EF EF EF EF D7 D7 38 38 FE FE FE FE 7D 7D 83 83 EF EF EF EF D7 D7 38
38  FE FE FE FE 7D 7D 83 83 > } image } if PT 10 eq { 16 16 1 [ 16 0 0 16 neg
0 16 ] { <  EF EF EF EF EF EF 00 00 FE FE FE FE FE FE 00 00 EF EF EF EF EF EF
00 00 FE FE FE FE FE FE 00 00 > } image } if PT 11 eq { 16 16 1 [ 16 0 0 16
neg 0 16 ] { < F7 F7 B6 B6 D5 D5 E3 E3 D5 D5 B6 B6 F7 F7 FF FF 7F 7F 6B 6B 5D
5D 3E 3E 5D 5D 6B 6B 7F 7F FF FF > } image } if PT 12 eq { 16 16 1 [ 16 0 0
16 neg 0 16 ] { < E3 E3 DD DD BE BE BE BE BE BE DD DD E3 E3 FF FF 3E 3E DD DD
EB EB EB EB EB EB DD DD 3E 3E FF FF > } image } if PT 13 eq { 16 16 1 [ 16 0
0 16 neg 0 16 ] { <  FE FE 7D 7D BB BB D7 D7 EF EF D7 D7 BB BB 7D 7D FE FE 7D
7D BB BB D7 D7 EF EF D7 D7 BB BB 7D 7D > } image } if PT 14 eq { 16 16 1 [ 16
0 0 16 neg 0 16 ] { < 00 00 EE EF EE EF EE EF 0E E0 EE EE EE EE EE EE 00 EE
FE EE FE EE FE EE 00 00 FE EF FE EF FE EF > } image } if PT 15 eq { 16 16 1 [
16 0 0 16 neg 0 16 ] { < DD DD AA AA DD DD FF FF 77 77 AA AA 77 77 FF FF DD
DD AA AA DD DD FF FF 77 77 AA AA 77 77 FF FF > } image } if PT 16 eq { 16 16
1 [ 16 0 0 16 neg 0 16 ] { <  F1 F1 EE EE 1F 1F FF FF F1 F1 EE EE 1F 1F FF FF
F1 F1 EE EE 1F 1F FF FF F1 F1 EE EE 1F 1F FF FF > } image } if PT 17 eq { 16
16 1 [ 16 0 0 16 neg 0 16 ] { <  EE EE DD DD BB BB FF FF EE EE DD DD BB BB FF
 FF EE EE DD DD BB BB FF FF EE EE DD DD BB BB FF FF > } image } if PT 18 eq {
16 16 1 [ 16 0 0 16 neg 0 16 ] { <  BB BB DD DD EE EE FF FF BB BB DD DD EE EE
FF FF BB BB DD DD EE EE FF FF BB BB DD DD EE EE FF FF > } image } if PT 19 eq
{ 16 16 1 [ 16 0 0 16 neg 0 16 ] { < 1F FC 67 F3 7B EF BD DE BD DE DE BD E6
B3 F8 0F E6 B3 DE BD BD DE BD DE 7B EF 67 F3 1F FC 7F FF > } image } if PT
20 eq { 16 16 1 [ 16 0 0 16 neg 0 16 ] { < DD DD EE EE EE EE EE EE DD DD BB
BB BB BB BB BB DD DD EE EE EE EE EE EE DD DD BB BB BB BB BB BB > } image }
if PT 21 eq { 16 16 1 [ 16 0 0 16 neg 0 16 ] { < 0E 0E EF EF EF EF EF EF E0
E0 FE FE FE FE FE FE 0E 0E EF EF EF EF EF EF E0 E0 FE FE FE FE FE FE > }
image }  if PT 22 eq { 16 16 1 [ 16 0 0 16 neg 0 16 ] { < 70 70 F7 F7 F7 F7 F7
F7 07 07 7F 7F 7F 7F 7F 7F 70 70 F7 F7 F7 F7 F7 F7 07 07 7F 7F 7F 7F 7F 7F >
} image } if PT 23 eq  { 16 16 1 [ 16 0 0 16 neg 0 16 ] { < AA AA 55 55 A9 A9
D1 D1 E1 E1 D1 D1 A9 A9 55 55 AA AA 55 55 A9 A9 D1 D1 E1 E1 D1 D1 A9 A9 55 55
> } image } if PT 24 eq { 16 16 1 [ 16 0 0 16 neg 0 16 ] { < FF FE FF FC EA
A8 D5 54 EA A8 D5 54 E8 28 D4 54 E8 E8 D4 D4 E8 EA 54 D5 A8 EA 54 D5 00 C0 00
80 > } image } if PT 25 eq {  16 16 1 [ 16 0 0 16 neg 0 16 ] { < FF FE FF FC
FF F8 FF F0 F0 00 F0 00 F0 20 F0 60 F0 E0 F1 E0 F3 E0 F0 00 E0 00 C0 00 80 00
00 00 > } image } if gr } def /FA { /PT exch def gsave clip 0 0 translate 1 1
54 { 1 sub 47.2 mul /Xcurr exch def 1 1 74 { 1 sub 47.2 mul /Ycurr exch def
gsave Xcurr Ycurr translate PT DP gr } for } for gr } def
/reencdict 24 dict def /ReEncode {reencdict begin /nco&na exch def
/nfnam exch def /basefontname exch def /basefontdict basefontname findfont def
/newfont basefontdict maxlength dict def basefontdict {exch dup /FID ne
{dup /Encoding eq {exch dup length array copy newfont 3 1 roll put} {exch
newfont 3 1 roll put} ifelse} {pop pop} ifelse } forall newfont
/FontName nfnam put nco&na aload pop nco&na length 2 idiv {newfont
/Encoding get 3 1 roll put} repeat nfnam newfont definefont pop end } def
/accvec [ 176 /agrave 181 /Agrave 190 /acircumflex 192 /Acircumflex
201 /adieresis 204 /Adieresis 209 /ccedilla 210 /Ccedilla 211 /eacute
212 /Eacute 213 /egrave 214 /Egrave 215 /ecircumflex 216 /Ecircumflex
217 /edieresis 218 /Edieresis 219 /icircumflex 220 /Icircumflex
221 /idieresis 222 /Idieresis 223 /ntilde 224 /Ntilde 226 /ocircumflex
228 /Ocircumflex 229 /odieresis 230 /Odieresis 231 /ucircumflex 236 /Ucircumflex
237 /udieresis 238 /Udieresis 239 /aring 242 /Aring 243 /ydieresis
244 /Ydieresis 246 /aacute 247 /Aacute 252 /ugrave 253 /Ugrave] def
/Times-Roman /Times-Roman accvec ReEncode
/Times-Italic /Times-Italic accvec ReEncode
/Times-Bold /Times-Bold accvec ReEncode
/Times-BoldItalic /Times-BoldItalic accvec ReEncode
/Helvetica /Helvetica accvec ReEncode
/Helvetica-Oblique /Helvetica-Oblique accvec ReEncode
/Helvetica-Bold /Helvetica-Bold accvec ReEncode
/Helvetica-BoldOblique /Helvetica-BoldOblique  accvec ReEncode
/Courier /Courier accvec ReEncode
/Courier-Oblique /Courier-Oblique accvec ReEncode
/Courier-Bold /Courier-Bold accvec ReEncode
/Courier-BoldOblique /Courier-BoldOblique accvec ReEncode
/oshow {gsave [] 0 sd true charpath stroke gr} def
/stwn { /fs exch def /fn exch def /text exch def fn findfont fs sf
 text sw pop xs add /xs exch def} def
/stwb { /fs exch def /fn exch def /nbas exch def /textf exch def
textf length /tlen exch def nbas tlen gt {/nbas tlen def} if
fn findfont fs sf textf dup length nbas sub nbas getinterval sw
pop neg xs add /xs exch def} def
/accspe [ 65 /plusminus 66 /bar 67 /existential 68 /universal
69 /exclam 70 /numbersign 71 /greater 72 /question 73 /integral
74 /colon 75 /semicolon 76 /less 77 /bracketleft 78 /bracketright
79 /greaterequal 80 /braceleft 81 /braceright 82 /radical
83 /spade 84 /heart 85 /diamond 86 /club 87 /lessequal
88 /multiply 89 /percent 90 /infinity 48 /circlemultiply 49 /circleplus
50 /emptyset 51 /lozenge 52 /bullet 53 /arrowright 54 /arrowup
55 /arrowleft 56 /arrowdown 57 /arrowboth 48 /degree 44 /comma 43 /plus
 45 /angle 42 /angleleft 47 /divide 61 /notequal 40 /equivalence 41 /second
 97 /approxequal 98 /congruent 99 /perpendicular 100 /partialdiff 101 /florin
 102 /intersection 103 /union 104 /propersuperset 105 /reflexsuperset
 106 /notsubset 107 /propersubset 108 /reflexsubset 109 /element 110 /notelement
 111 /gradient 112 /logicaland 113 /logicalor 114 /arrowdblboth
 115 /arrowdblleft 116 /arrowdblup 117 /arrowdblright 118 /arrowdbldown
 119 /ampersand 120 /omega1 121 /similar 122 /aleph ] def
/Symbol /Special accspe ReEncode
%%EndProlog
 gsave  .25 .25 scale  gsave 0 0 t black [] 0 sd 1 lw 1701 1645 340 340 bl 1701
 1645 340 340 C 340 340 m 7 X 7 Y 7 X -7 Y 333 X 7 Y 7 X -7 Y 27 X 7 Y 7 X -7 Y
 14 X 7 Y 6 X -7 Y 21 X 7 Y 20 X 12 Y 7 X -6 Y 14 X -6 Y 6 X -7 Y 7 X 26 Y 14 X
 -7 Y 7 X 32 Y 7 X -25 Y 13 X -13 Y 7 X 32 Y 7 X 13 Y 7 X -13 Y 13 X 19 Y 7 X 6
 Y 7 X 26 Y 7 X -13 Y 6 X -6 Y 7 X 76 Y 7 X -12 Y 7 X 51 Y 7 X -20 Y 6 X 26 Y 7
 X 102 Y 7 X -102 Y 7 X 57 Y 7 X 83 Y 13 X -12 Y 7 X 51 Y 7 X 44 Y 7 X 102 Y 6 X
 s 1027 863 m -102 Y 7 X 211 Y 7 X 19 Y 7 X 70 Y 7 X 77 Y 13 X -45 Y 7 X 223 Y 7
 X -38 Y 7 X -19 Y 6 X 32 Y 7 X 134 Y 7 X 38 Y 7 X -128 Y 7 X 287 Y 6 X -19 Y 7
 X -25 Y 7 X 89 Y 7 X -121 Y 7 X 255 Y 6 X -242 Y 7 X 210 Y 7 X 51 Y 7 X -70 Y 7
 X -19 Y 7 X 25 Y 6 X -172 Y 7 X 236 Y 7 X -210 Y 7 X 95 Y 7 X -83 Y 6 X 192 Y 7
 X -70 Y 7 X 38 Y 7 X -121 Y 7 X 57 Y 6 X -140 Y 7 X 38 Y 7 X -57 Y 7 X -77 Y 7
 X -6 Y 6 X -147 Y 7 X 19 Y 7 X 19 Y 7 X -6 Y 7 X -166 Y 6 X 128 Y 7 X -185 Y 7
 X -7 Y 7 X -51 Y 7 X -89 Y 6 X 13 Y 7 X -45 Y 7 X 128 Y 7 X -217 Y 7 X -13 Y 6
 X -64 Y 7 X -25 Y 7 X 83 Y 7 X -77 Y 7 X -19 Y 6 X 13 Y 7 X -45 Y 7 X -64 Y 7 X
 -19 Y 7 X -115 Y 6 X 70 Y 14 X -38 Y 7 X -51 Y 7 X 45 Y 6 X -13 Y 7 X -13 Y 7 X
 -19 Y 7 X -45 Y 7 X 13 Y 7 X 7 Y 6 X -13 Y 7 X -45 Y 7 X -25 Y 7 X 19 Y 7 X 44
 Y 6 X -25 Y 7 X -19 Y 7 X 13 Y 7 X 25 Y 7 X -45 Y 6 X -19 Y 14 X 7 Y 7 X -58 Y
 7 X 70 Y 6 X -38 Y 14 X -6 Y 7 X 12 Y 13 X -31 Y 7 X 19 Y 7 X 6 Y 7 X 19 Y 7 X
 s 1715 391 m -13 Y 6 X -25 Y 7 X 19 Y 7 X -13 Y 7 X 7 Y 7 X -7 Y 6 X 7 Y 7 X -7
 Y 7 X -6 Y 7 X 13 Y 7 X -19 Y 6 X 19 Y 7 X -13 Y 7 X -13 Y 14 X 13 Y 20 X -6 Y
 7 X 6 Y 7 X -6 Y 6 X 6 Y 7 X -6 Y 7 X 6 Y 14 X -6 Y 7 X 6 Y 6 X -6 Y 14 X 6 Y
 14 X -13 Y 6 X 13 Y 7 X -6 Y 7 X -7 Y 20 X 19 Y 7 X -19 Y 7 X 7 Y 14 X -7 Y 47
 X s 340 340 m 318 X 9 1 d 43 X 8 1 d 17 X 9 1 d 9 1 d 8 X 9 1 d 8 2 d 9 1 d 9 2
 d 8 2 d 9 3 d 8 3 d 9 3 d 8 4 d 9 5 d 9 6 d 8 6 d 9 8 d 8 9 d 9 9 d 9 12 d 8 13
 d 9 14 d 8 16 d 9 18 d 9 20 d 8 23 d 9 24 d 8 27 d 9 29 d 9 32 d 8 34 d 9 36 d
 8 39 d 9 42 d 8 43 d 9 46 d 9 48 d 8 49 d 9 51 d 8 53 d 9 53 d 9 53 d 8 53 d 9
 53 d 8 53 d 9 50 d 9 49 d 8 47 d 9 44 d 8 41 d 9 37 d 9 33 d 8 28 d 9 24 d 8 18
 d 9 14 d 8 7 d 9 3 d 9 -3 d 8 -9 d 9 -14 d 8 -20 d 9 -24 d 9 -29 d 8 -34 d 9
 -38 d 8 -41 d 9 -44 d 9 -47 d 8 -50 d 9 -51 d 8 -52 d 9 -53 d 9 -53 d 8 -54 d 9
 -53 d 8 -52 d 9 -50 d 8 -50 d 9 -47 d 9 -46 d 8 -43 d 9 -41 d 8 -39 d 9 -36 d 9
 -34 d 8 -31 d 9 -29 d 8 -26 d 9 -24 d 9 -22 d 8 -20 d 9 -18 d 8 -15 d 9 -15 d 9
 -12 d 8 -11 d 9 -10 d 8 -8 d 9 -8 d 8 -6 d 9 -6 d 9 -4 d 8 -4 d 9 -4 d 8 -3 d 9
 -2 d 9 -2 d 8 -2 d 9 -2 d 8 -1 d 9 -1 d 9 X 8 -1 d 9 -1 d 17 X 9 -1 d 42 X 9 -1
 d 249 X s NC 340 340 m 1645 Y s 374 340 m -34 X s 357 404 m -17 X s 357 468 m
 -17 X s 357 532 m -17 X s 357 595 m -17 X s 374 659 m -34 X s 357 723 m -17 X s
 357 787 m -17 X s 357 851 m -17 X s 357 914 m -17 X s 374 978 m -34 X s 357
 1042 m -17 X s 357 1106 m -17 X s 357 1169 m -17 X s 357 1233 m -17 X s 374
 1297 m -34 X s 357 1361 m -17 X s 357 1425 m -17 X s 357 1488 m -17 X s 357
 1552 m -17 X s 374 1616 m -34 X s 357 1680 m -17 X s 357 1744 m -17 X s 357
 1807 m -17 X s 357 1871 m -17 X s 374 1935 m -34 X s 374 1935 m -34 X s
 /xs 0 def 
(0)
 /Helvetica-Bold     43 stwn 
 gsave  295 324
 t   0 r  xs neg 0 t 0 0 m
 /Helvetica-Bold findfont   43 sf 0    0 m 
(0)
 show 
 gr 
 /xs 0 def 
(50)
 /Helvetica-Bold     43 stwn 
 gsave  295 643
 t   0 r  xs neg 0 t 0 0 m
 /Helvetica-Bold findfont   43 sf 0    0 m 
(50)
 show 
 gr 
 /xs 0 def 
(100)
 /Helvetica-Bold     43 stwn 
 gsave  295 962
 t   0 r  xs neg 0 t 0 0 m
 /Helvetica-Bold findfont   43 sf 0    0 m 
(100)
 show 
 gr 
 /xs 0 def 
(150)
 /Helvetica-Bold     43 stwn 
 gsave  295 1281
 t   0 r  xs neg 0 t 0 0 m
 /Helvetica-Bold findfont   43 sf 0    0 m 
(150)
 show 
 gr 
 /xs 0 def 
(200)
 /Helvetica-Bold     43 stwn 
 gsave  295 1600
 t   0 r  xs neg 0 t 0 0 m
 /Helvetica-Bold findfont   43 sf 0    0 m 
(200)
 show 
 gr 
 /xs 0 def 
(250)
 /Helvetica-Bold     43 stwn 
 gsave  295 1919
 t   0 r  xs neg 0 t 0 0 m
 /Helvetica-Bold findfont   43 sf 0    0 m 
(250)
 show 
 gr  340 340 m 1701 X s 340 374 m -34 Y s 383 357 m -17 Y s 425 357 m -17 Y s
 468 357 m -17 Y s 510 374 m -34 Y s 553 357 m -17 Y s 595 357 m -17 Y s 638 357
 m -17 Y s 680 374 m -34 Y s 723 357 m -17 Y s 765 357 m -17 Y s 808 357 m -17 Y
 s 851 374 m -34 Y s 893 357 m -17 Y s 936 357 m -17 Y s 978 357 m -17 Y s 1021
 374 m -34 Y s 1063 357 m -17 Y s 1106 357 m -17 Y s 1148 357 m -17 Y s 1191 374
 m -34 Y s 1233 357 m -17 Y s 1276 357 m -17 Y s 1318 357 m -17 Y s 1361 374 m
 -34 Y s 1403 357 m -17 Y s 1446 357 m -17 Y s 1488 357 m -17 Y s 1531 374 m -34
 Y s 1573 357 m -17 Y s 1616 357 m -17 Y s 1658 357 m -17 Y s 1701 374 m -34 Y s
 1744 357 m -17 Y s 1786 357 m -17 Y s 1829 357 m -17 Y s 1871 374 m -34 Y s
 1914 357 m -17 Y s 1956 357 m -17 Y s 1999 357 m -17 Y s 2041 374 m -34 Y s
 /xs 0 def 
(0.5)
 /Helvetica-Bold     43 stwn 
 gsave  340 286
 t   0 r  xs 2 div neg 0 t 0 0 m
 /Helvetica-Bold findfont   43 sf 0    0 m 
(0.5)
 show 
 gr 
 /xs 0 def 
(0.6)
 /Helvetica-Bold     43 stwn 
 gsave  510 286
 t   0 r  xs 2 div neg 0 t 0 0 m
 /Helvetica-Bold findfont   43 sf 0    0 m 
(0.6)
 show 
 gr 
 /xs 0 def 
(0.7)
 /Helvetica-Bold     43 stwn 
 gsave  680 286
 t   0 r  xs 2 div neg 0 t 0 0 m
 /Helvetica-Bold findfont   43 sf 0    0 m 
(0.7)
 show 
 gr 
 /xs 0 def 
(0.8)
 /Helvetica-Bold     43 stwn 
 gsave  851 286
 t   0 r  xs 2 div neg 0 t 0 0 m
 /Helvetica-Bold findfont   43 sf 0    0 m 
(0.8)
 show 
 gr 
 /xs 0 def 
(0.9)
 /Helvetica-Bold     43 stwn 
 gsave  1021 286
 t   0 r  xs 2 div neg 0 t 0 0 m
 /Helvetica-Bold findfont   43 sf 0    0 m 
(0.9)
 show 
 gr 
 /xs 0 def 
(1)
 /Helvetica-Bold     43 stwn 
 gsave  1191 286
 t   0 r  xs 2 div neg 0 t 0 0 m
 /Helvetica-Bold findfont   43 sf 0    0 m 
(1)
 show 
 gr 
 /xs 0 def 
(1.1)
 /Helvetica-Bold     43 stwn 
 gsave  1361 286
 t   0 r  xs 2 div neg 0 t 0 0 m
 /Helvetica-Bold findfont   43 sf 0    0 m 
(1.1)
 show 
 gr 
 /xs 0 def 
(1.2)
 /Helvetica-Bold     43 stwn 
 gsave  1531 286
 t   0 r  xs 2 div neg 0 t 0 0 m
 /Helvetica-Bold findfont   43 sf 0    0 m 
(1.2)
 show 
 gr 
 /xs 0 def 
(1.3)
 /Helvetica-Bold     43 stwn 
 gsave  1701 286
 t   0 r  xs 2 div neg 0 t 0 0 m
 /Helvetica-Bold findfont   43 sf 0    0 m 
(1.3)
 show 
 gr 
 /xs 0 def 
(1.4)
 /Helvetica-Bold     43 stwn 
 gsave  1871 286
 t   0 r  xs 2 div neg 0 t 0 0 m
 /Helvetica-Bold findfont   43 sf 0    0 m 
(1.4)
 show 
 gr 
 /xs 0 def 
(1.5)
 /Helvetica-Bold     43 stwn 
 gsave  2041 286
 t   0 r  xs 2 div neg 0 t 0 0 m
 /Helvetica-Bold findfont   43 sf 0    0 m 
(1.5)
 show 
 gr  1701 1645 340 340 C 2268 2268 0 0 C
 /xs 0 def 
(:0/04/26   08.31)
 /Helvetica-Bold     43 stwn 
 gsave  2211 2180
 t   0 r  xs neg 0 t 0 0 m
 /Helvetica-Bold findfont   43 sf 0    0 m 
(:0/04/26   08.31)
 show 
 gr  1701 1645 340 340 C 2268 2268 0 0 C 1701 1645 340 340 C 2268 2268 0 0 C
 gsave  374 1616
 t   0 r 0 0 m
 /Helvetica-Bold findfont   78 sf 0    0 m 
(K)
 show 
 currentpoint pop 0 t 
 /Helvetica-Bold findfont   55 sf 0  -26 m 
(s)
 show 
 currentpoint pop 0 t 
 /Helvetica-Bold findfont   78 sf 0    0 m 
(\040)
 show 
 currentpoint pop 0 t 
 /Symbol findfont   78 sf 0    0 m 
(\256)
 show 
 currentpoint pop 0 t 
 /Helvetica-Bold findfont   78 sf 0    0 m 
(\040)
 show 
 currentpoint pop 0 t 
 /Symbol findfont   78 sf 0    0 m 
(p)
 show 
 currentpoint pop 0 t 
 /Helvetica-Bold findfont   78 sf 0    0 m 
(\040)
 show 
 currentpoint pop 0 t 
 /Symbol findfont   78 sf 0    0 m 
(p)
 show 
 gr  1701 1645 340 340 C 2268 2268 0 0 C 1701 1645 340 340 C 2268 2268 0 0 C
 gsave  374 1488
 t   0 r 0 0 m
 /Helvetica-Bold findfont   78 sf 0    0 m 
(dE/dx of\040)
 show 
 currentpoint pop 0 t 
 /Symbol findfont   78 sf 0    0 m 
(p)
 show 
 gr  1701 1645 340 340 C 2268 2268 0 0 C 1701 1645 340 340 C 2268 2268 0 0 C
 gsave  374 1361
 t   0 r 0 0 m
 /Helvetica-Bold findfont   78 sf 0    0 m 
(7.84 % resolution)
 show 
 gr  1701 1645 340 340 C 2268 2268 0 0 C
 /xs 0 def 
(\( dE/dx \) / \(dE/dx)
 /Helvetica-Bold     78 stwn 
(expect)
 /Helvetica-Bold     55 stwn 
(\))
 /Helvetica-Bold     78 stwn 
 gsave  2041 204
 t   0 r  xs neg 0 t 0 0 m
 /Helvetica-Bold findfont   78 sf 0    0 m 
(\( dE/dx \) / \(dE/dx)
 show 
 currentpoint pop 0 t 
 /Helvetica-Bold findfont   55 sf 0  -26 m 
(expect)
 show 
 currentpoint pop 0 t 
 /Helvetica-Bold findfont   78 sf 0    0 m 
(\))
 show 
 gr 
 /xs 0 def 
(p)
 /Symbol     78 stwn 
( tracks)
 /Helvetica-Bold     78 stwn 
 gsave  147 1985
 t  90 r  xs neg 0 t 0 0 m
 /Symbol findfont   78 sf 0    0 m 
(p)
 show 
 currentpoint pop 0 t 
 /Helvetica-Bold findfont   78 sf 0    0 m 
( tracks)
 show 
 gr  1701 1645 340 340 C
 gr  gr 
showpage
end
%%EOF
