%!PS-Adobe-2.0 EPSF-2.0
%%Title: /.../b.kek.jp/fs/users/str/haba/tex/magfield/concept2.epsi
%%Creator: IslandDraw for haba
%%CreationDate: Fri Jul 14 19:38:20 2000
%%Pages: 1
%%BoundingBox: 59 129 402 343 
%%DocumentNeededResources: (atend)
%%DocumentSuppliedResources: (atend)
%%EndComments
%%BeginPreview: 338 209 1 418
% 000000000000000018000000000000000000000000000000000000000000000000000000000000
% 00000000
% 00000000000000007c000000000000000000000000000000000000000000000000000000000000
% 00000000
% 0000000000000000ef000000000000000000000000000000000000000000000000000000000000
% 00000000
% 0000000000000001c38000000000000000000000000000000000000000001e0000000008000000
% 28000000
% 000000000000000101800000000000000000000000000000000000000000220000000080000000
% 28000000
% 000000000000000311800000000000000000000000000000000000000000210000000088000000
% 28000000
% 0000000000000003388078000000000000000000000000000000000000003022f1e3cfcbc341de
% 29e39c00
% 000000000000000338c3f8000000000000000000000000000000000000001e22c996688a26c133
% 2b322200
% 00000000000000067cc7ffffffffffffff0000000000000000000000000003228914288a244121
% 2bf23800
% 00000000000000067cc3f8000000000001ffffffffffffffffffffffffff21228914288a244121
% 2a020600
% 00000000000000067cc0780000000000000000000000000000000000000023228914688a244123
% 2b322200
% 00000000000000067cc018000000000000000000000000000000000000001e3ef1e3c8ca23c11e
% 29e23c00
% 000000000000000338c00000000000000000000000000000000000000000000081000000044000
% 00000000
% 000000000000000338c00000000000000000000000000000000000000000000081000000038000
% 00000000
% 000000000000000311800000000000000000000000000000000000000000000000000000000000
% 00000000
% 000000000000000301800000000000000000000000000000000000000000000000000000000000
% 00000000
% 000000000000000183800000000000000000000000000000000000000000000000000000000000
% 00000000
% 0000000000000001e7000000000000000000000000000000000000000000000000000000000000
% 00000000
% 0000007000000000fe000000000000000000000000000000000000000000002000000000000000
% 00000000
% 000001f8000001fffff80000000000000000000000000000000000000000002000000000000000
% 00000000
% 0000039e00000fffffff0000003000000000000000000000000000000000003000000000000000
% 00000000
% 0000070600007fff9fffc000007c00000000000000000000000000000000003000000000000000
% 00000000
% 000006030001ff44445ff80001fe00000000000000000000000000000000001000000000000000
% 00000000
% 00000663000ffa222223ff00038700000000000000000000000000000000001800000000000000
% 00000000
% 00000c73001ff11111117f80030300000000000000000000000000000000001800000000000000
% 00000000
% 00000cf3007f888888888fe0033180000000000000000000000000000000001800000000000000
% 00000000
% 00000cf981fc4444445c47f0023180000000000000000000000000000000000800000000000000
% 00000000
% 00000df983f22222223fe2fc067980000000000000000000000000000000000c00000000000000
% 00000000
% 00000cf98ff11111111fff7e067880000000000000000000000000000000000c00000000000000
% 00000000
% 00000cf19f88888888bfffff86fcc0000000000000000000000000000000000c00000000000000
% 00000025
% 00000c733f444444445fffffc4fcc0000000000000000000000000000000000400000000000000
% 00000025
% 000004637e22222222227ffffe78c0000000000000000000000000000000000600000000000000
% 00000025
% 00000623f888888888888bfffff980000000000000000000000000000000000600000000000000
% 00000025
% 00000603f88888888888889fffff80000000000000000000000000000000000600000000000000
% 00000025
% 0000070fe444444444444444fffffc0000000000000000000000000000000002c0000000000000
% 00000025
% 000003dfe2222222222222223fffffe00000000000000000000000000000000fc0000000000000
% 00000025
% 000000ff91111111111111111f9fffff8000000000000000000000000000000fc0000000000000
% 00000025
% 0000007f88888888888888888fcffffffc00000000000000000000000000000fc0000000000000
% 00000025
% 0000003e444444444444444447fc07ffffe00000000000000000000000000007d8000000000000
% 00000025
% 0000003e222222222222222223f8003fffff0000000000000000000000000007fe000000000000
% 00000001
% 00000079111111111111111111e00001fffff800000000000000000000000003f7000000000000
% 00000025
% 000000f8888888888888888889e000000fffffe0000000000000000000000001c3800000000000
% 00000025
% 000000f4444444444444444444f00000003fffff000000000000000000000001c1800000000000
% 00000025
% 000001e22222222222222222227800000001fffff80000000000000000000001d8c00000000000
% 00000025
% 000003d11111111111111111117c000000000fffffc00000000000000000000318c00000000000
% 00000025
% 000007c8888888888888888888bc00000000007ffffe000000000000000000033cc00000000000
% 00000025
% 000007c44444444444444444445e000000000003fffff00000000000000000033cc00000000000
% 00000025
% 00000f222222222222222222222e0000000000000fffffc000000000000000027e600000000000
% 00000025
% 00000f111111111111111111111f000000000000007ffffe00000000000000027e600000000000
% 00000025
% 00001e888888888888888888888f0000000000000003fffff0000000000000033c400000000000
% 00000025
% 00001e444444444444444444444780000000000000001fffff800000000000033cc00000000000
% 00000025
% 00001e2222222222222222222223800000000000000000fffffc00000000000318c00000000000
% 00000025
% 00003d1111111111111111111113c0000000000000000003fffff0000000000118c00000000000
% 00000025
% 000038888888888888888888888bc00000000000000000001fffff800000000181800000000000
% 00000025
% 00007c4444444444fc4444444445e000000000000000000000fffffc00000001c3800000000000
% 0000003f
% 0000722222222227ff2222222223e00000000000000000000007ffffe0000000e7800000000000
% 00000025
% 0000f1111111113ffff111111111e000000000000000000000003fffff000001fe000000000000
% 00000025
% 0000e888888888ffdff888888888f0000000000000000000000001fffffc01ffffc00000000000
% 00000025
% 0000e444444445fc01fc444444447000000000000000000000000007fffffffffffc0000000000
% 00000025
% 0001e222222223e0003e2222222270000000000000000000000000003fffffff7fff8000000000
% 00000025
% 0001d111111117c0001f11111111780000000000000000000000000001ffff00007fe000000000
% 0000003f
% 0001c88888888f80000f88888888b800000000000000000000000000001ff0000007fc00000000
% 00000025
% 0001c44444445f000007c44444447800000000000000000000000000007fc0000001ff00000000
% 00000025
% 0003e22222223e000003e2222222380000000000000000000000300000fe000000003f80000000
% 00000025
% 000388888888bc000001e8888888bc0000000000000000000000f80003f8000000000fe0000e00
% 00000025
% 000388888888b8000000e88888889c0000000000000000000001de0007e00000000003f0001f00
% 00000025
% 0003c444444478000000f44444445c000000000000000000000387001f800000000000fc007bc0
% 0000003f
% 0007a222222270000000722222223c000000000000000000000203003f0000000000007e00e0c0
% 00000025
% 000711111111f0000000791111111e000000000000000000000623007c0000000000001f00c060
% 00000025
% 000788888888e0000000388888888e00000000000000000000067100f80000000000000f80cc60
% 00000025
% 000744444445e00000003c4444444e00000000000000000000067181f000000000000007c0ce60
% 00000025
% 000722222223c00000001e2222222e000000000000000000000cf983e000000000000003e19e30
% 00000025
% 078711111111c00000001d1111111e000000000000000000000cf9878000000000000001f19f30
% 0000003f
% 1fc788888889c00000001c8888888e000000000000000000000cf98f0000000000000000f99f30
% 00000025
% 3cf744444447c00000001c4444444e00006e000000000000000cf99e00000000000000007d9f30
% 00000025
% 303f22222223800000001e2222222e000030000000000000000471bc00000000000000003f9f30
% 00000025
% 233f11111113800000000f1111111e000020000000000000000671f800000000000000000f8e20
% 00000025
% 631e8888888b800000000e8888888e000040000000000000000623f000000000000000000fce60
% 00000025
% 679e44444447800000000e4444444f0000800000e0f63d0bc70603f0000000000000000007c460
% 00000025
% 679e22222223800000000e222222273c03e0000080896696640307e0000000000000000003c060
% 00000025
% 4f8f11111113800000000f111111177f000000008e894297e403cfc0000000000000000001e0c0
% 00000025
% cf8e8888888f800000000e8888888fe388000000808942f40400ffc0000000000000000001fbc0
% 00000025
% 4f8e44444447800000000e4444444781980000008089466664007780000000000000000000ff00
% 00000025
% 679e22222223800000000e2222222788dc00000080893c63c4000f000000000000000000007e00
% 00000025
% 671f11111113800000000f1111111f98dc0000000000000000001f000000000000000000007800
% 00000025
% 631e8888888b800000000e8888888f1cfc0000000000000000001e000000000000000000003c00
% 00000025
% 203e44444447800000000e4444444f3c7e0000060000000000001c000000000000000000001c00
% 00000025
% 303e22222223800000000e2222222f3e7800000c0000000000003c000000000000000000001e00
% 00000025
% 38ff11111113c00000001f1111111e7e7800019800000000000038000000000000000000000e00
% 00000025
% 1fe788888889c00000001c8888888f3e780001f000000000000078000000000000000000000f00
% 00000025
% 078744444445c00000001c4444444f3c580003e000000000000070000000000000000000000f00
% 00000025
% 020722222223c00000001e2222222f1cdbfc03f0000000000000f0000000000000000000000780
% 00000025
% 000711111111e00000003d1111111f18dbff87f0000000000000e0000000000040000000000780
% 00000025
% 000788888888e0000000388888888f80db7fe7c0000000000001e00000000003fc0000000003c0
% 00000025
% 000744444444f00000007c4444445f819b0fff00000000000001e0000000003fffc000000003c0
% 00000025
% 0007a222222270000000722222223fe39b063c00000000000001c000000000ffffe000000001c0
% 00000025
% 000788888888f8000000f88888889c7f1b063000000000000003c000000001fe07f800000001e0
% 00000025
% 000388888888b8000000e88888889c3c1b0630000000000000038000000003e0007c00000000e0
% 00000025
% 0003c44444447c000001e44444447c081b0630000000000000038000000007c0003e00000000e0
% 00000025
% 0003e22222223e000003e222222238001b063000000000000003800000000f80001f00000000e0
% 00000025
% 0003d11111111f000007d111111138001b063000000000000007800000001f00000f80000000f0
% 00000025
% 0001c88888888f80000f88888888b8001b063000000000000007000000003e0000078000000070
% 00000025
% 0001c444444447c0001f4444444478001b063000000000000007000000003c000003c000000070
% 00000025
% 0001e222222223e0003e2222222270001b06300000000000000f0000000078000001c000000070
% 00000025
% 0000f111111111f800fd1111111170001b06300000000000000f0000000070000001e000000078
% 00000025
% 0000e888888888ff8ff888888888f0001b06300000000000000e00000000f0000000e000000038
% 00000025
% 0000f4444444447ffff444444444f0001b06300000000000000e00000000e0000000f000000038
% 00000025
% 0000f2222222222fffa222222222e0001b06300000000000000e00000001e00000007000000038
% 00000025
% 0000791111111111f91111111111e0001b06300000000000001e00000001c00000007800000038
% 00000025
% 0000788888888888888888888889c0001b06300000000000001c00000003c0000000380000003c
% 00000025
% 00003c4444444445fffe44444447c0001b06300000000000001c00000003800000003c0000001c
% 18000000
% 00003e22222222237ffff222222380001b06300000000000001c00000003800000003c0000001c
% 3c00003f
% 00001d111111111103feff91111780001b06300000000000001c00000003800000001c0000001c
% ff000025
% 00001e8888888889001ff7fc888f00001b06300000000000001c00000003800000001c0000001d
% c3800025
% 00000e44444444450000ffbfe44f00001b06300000000000001c00000003800000001c0000001d
% 81800025
% 00000f2222222223000007fdffaf00001b06300000000000001c00000007800000001c0000001d
% 98c00025
% 00000791111111110000003feffe00001b06300000000000001c00000007000000001c0000001f
% 18c00025
% 0000078888888889f0000001ff3fe0001b06300000000000001c00000007000000001e0000001f
% 3cc0003f
% 000003c444444444ff8000000ff9ff001b06300000000000001c00000007000000000e0000001f
% 3cc00025
% 000003e22222222227fc0000007fcff81b063ffc00000000001c00000007000000000e0000001e
% 7e600025
% 000001f111111111113fe0000003fe7fdb06303fe0000000001c00000007000000000e0000001e
% 7e600025
% 000000f8888888888889ff0000001ff3ff063ffffc000000001c00000007000000000e0000001f
% 3c400025
% 0000007c4444444444444ff8000000ff9f063ffffe000000001c00000007000000001e0000001f
% 3cc00025
% 0000007a222222222222227fc0000007ff06300006000000001c00000007000000001c0000001f
% 18c00025
% 0000003d1111111111111113fe0000003f06300006000000001c00000007800000001c0000001f
% 18c00025
% 0000001e88888888888888889ff000003f06300006000000001c00000003800000001c0000001d
% 80800025
% 0000001f44444444444444444fff80003f0631ff86000000001c00000003800000001c0000001d
% 81800025
% 0000000fa2222222222222223e07fc001b0631fffe000000001c00000003800000001c0000001d
% e7800025
% 00000007c888888888888888ff803fe01b06313fffe00000001c00000003800000003c0000001c
% 7e000025
% 0000001fe888888888888888ffc001ff1b063101ffff0000001c00000003800000003c0000001c
% 3c000025
% 0000007ff444444444444445f8e0180ffb0631001ffff800001c00000003c00000003800000038
% 00000025
% 000000e3fa22222222222223f030f8007f06310000ff7fc0001e00000001c00000007800000038
% 00000025
% 000000c0ff11111111111117e233f000030631000007fbfe000e00000001e00000007000000038
% 00000025
% 00000088ff8888888888889fe737f0000306318000007fdff00e00000000e0000000f000000038
% 00000025
% 0000018c6fc444444444447f671be000030631fc000003fcff8e00000000f0000000e000000038
% 00000025
% 0000019c67e223f2222222fecf9bc0000306303fc000003fe7ff0000000070000001e000000078
% 00000025
% 0000019e61f913ff911111f8cf9ec00003063003fe000001ffff0000000078000001c000000070
% 00000025
% 0000033e60fe8bfffc888fe0cf98000003063ffffff000000f3f000000003c000003c000000070
% 00000025
% 0000033e203fc7ffffc47fc0cfb800000306300000ff80000e1f000000003e0000078000000070
% 00000025
% 0000033e601ff23ffffeff00c7f80000030630000007fc000c07800000001f00000f80000000f0
% 00000025
% 0000019e6007ff11fffffc0067d800000306300000003fc00cc7800000000f80001f00000000e0
% 00000025
% 0000019c6000fff88fffff8063b0fc0003063000000003fe18e78000000007c0003e00000000e0
% 00000025
% 0000018c60001ffffffffff86630fc00030630000000001ff9e78000000003e0007c00000001e0
% 00000025
% 00000180c00007fffffffffffc307fe00306300000000000f9f3c000000001fe07f800000001e0
% 0000003f
% 000000c0c000001fff001ffffee019fe03e630000000000013f3c000000000ffffe000000001c0
% 00000025
% 000000e3c0000000fc0000fffff0000ff0fe3000000000001bf3e0000000003fffc000000003c0
% 00000025
% 0000007f00000001ce00000fffff8000ff9ff0000000000019e3e00000000007fc000000000380
% 00000025
% 0000001e0000000387000001fffff80007f800000000000019e6f0000000000040000000000780
% 00000025
% 00000008000000030300000303ffffc0003fc000000000f818c6f0000000000000000000000700
% 00000025
% 000000000000000631000006001ffffe0003fe00000001300cc678000000000000000000000f00
% 00000025
% 00000000000000067180000c0001fffff0001fe0000000400c04780003f8000001000000000f00
% 0000003f
% 00000000000000067980001800000fffff0000ff000001800e1c3800020c010010000000001e00
% 00000025
% 0000000000000006f98000700000007ffff8000ff800062007b83c000204010011000000001e00
% 00000025
% 000000000000000cf8c000c000000003ffffc0007fc00fc001f01c0002047b8e392e1d00001c00
% 00000025
% 000000000000000cf8c00180000000003ffffe0003fc000000c01e00020c491111313300003c00
% 00000025
% 0000000000000006798003000000000001ffffe0003fe00000000f0003f8850111212100007800
% 00000025
% 00000000000000067980060000000000000fffff0001ff0000000f00020c850f1121210000ff00
% 0000003f
% 000000000000000631801c000000000000007ffff8000ff040000780020485111121210000ffc0
% 00000025
% 00000000000000063100300000000000000007ffffc000fff00003c00204c9131121330001f8e0
% 00000025
% 000000000000000303006000000000000000003ffffc0007f80003e00204799f99211f0003e070
% 00000025
% 00000000000000038700c0000000000000000001ffffe000fc0001e0000000000000010003e230
% 00000025
% 0000000000000001ce01800000000000000000000fffff00e00000f0000000000000330007e730
% 00000025
% 0000000000000000fc070000000000000000000000fffff8000000f80000000000001e000f4710
% 00000025
% 0000000000000000300c000000000000000000000007ffff8000007c0000f0e1d0e000001fcf98
% 00000025
% 000000000000000000180000000000000000000000003ffffc00003e00009913311000003ecf98
% 00000025
% 0000000000000000003000000000000000000000000001ffffe0001f00010012131800007ccf98
% 00000025
% 00000000000000000060000000000000000000000000000fffff000f800100f213f80000f8cf98
% 00000025
% 000000000000000001c00000000000000000000000000000fffff03fc001091212000001f0cf18
% 00000025
% 00000000000000000300000000000000000000000000000007ffffffe001993333180003e04710
% 00000025
% 000000000000000006000000000000000000000000000000003fffe7f000f1f9f1f00007c06630
% 00000025
% 00000000000000000c0000000000000000000000000000000001ff81f80000001000000f806030
% 00000025
% 00000000000000001800000000000000000000000000000000001f19fe0000033000003f007070
% 00000025
% 00000000000000007000000000050000000000000000000000000318ff000001e000007e0038e0
% 00000025
% 0000000000000000c00000000001000000000000000000000000033cffc00000000001f8001fc0
% 00000025
% 0000000000000001800000000005000000000000000000000000033cffe00000000003f0000f08
% 00000025
% 0000000000000003000001f03bc5000000000000000000000000027e41f8000000000fc000020c
% 00000025
% 0000000000000007ffffe0202625000000000000000000000000067e60ff000000007f8000001c
% 00000025
% 000000000000000000000063a0e5000000000000000000000000027c403fc0000001fe0000003c
% 00000025
% 0000000000000000000000c02725000000000000000000000000033cc00ff800000ff80000003c
% 00000025
% 00000000000000000000018024650000000000000000000000000338c003ffc001ffe00000003c
% 00000025
% 0000000000000000000001f027b50000000000000000000000000318c0007fffffff0000000018
% 00000025
% 0000000000000000000000000000000000000000000000000000010180000fffffff8000000030
% 00000000
% 000000000000000000000000000000000000000000000000000001818000007fff3de000000030
% 00000025
% 000000000000000000000000000000000000000000000000000001e78000000000387000000060
% 00000025
% 000000000000000000000000000000000000000000000000000000fe0000000000603000000060
% 00000025
% 0000000000000000000000000000000000000000000000000000003c00000000006230000000c0
% 00000025
% 0000000000000000000000000000000000000000000000000000001000000000006730000000c0
% 00000000
% 000000000000000000000000000000000000000000000000000000000000000000471800000180
% 00000000
% 000000000000000000000000000000000000000000000000000000000000000000cf9800000380
% 00000000
% 000000000000000000000000000000000000000000000000000000000000000000cf9800000700
% 00000000
% 000000000000000000000000000000000000000000000000000000000000000000cf9800000e00
% 00000000
% 000000000000000000000000000000000000000000000000000000000000000000cf9800001c00
% 00000000
% 000000000000000000000000000000000000000000000000000000000000000000471800003800
% 00000000
% 000000000000000000000000000000000000000000000000000000000000000000671000007000
% 00000000
% 00000000000000000000000000000000000000000000000000000000000000000062300000e000
% 00000000
% 00000000000000000000000000000000000000000000000000000000000000000060300001d000
% 00000000
% 000000000000000000000000000000000000000000000000000000000000000000307000079000
% 00000000
% 0000000000000000000000000000000000000000000000000000000000000000003de0001e3800
% 00000000
% 0000000000000000000000000000000000000000000000000000000000000000000fc000785400
% 00000000
% 000000000000000000000000000000000000000000000000000000000000000000070001e09200
% 00000000
% 00000000000000000000000000000000000000000000000000000000000000000000000f809200
% 00000000
% 00000000000000000000000000000000000000000000000000000000000000000000e1fe009200
% 00000000
% 00000000000000000000000000000000000000000000000000000000000000000007ffe0009200
% 00000000
% 00000000000000000000000000000000000000000000000000000000000000000007fc00007c00
% 00000000
% 00000000000000000000000000000000000000000000000000000000000000000000e000001000
% 00000000
% 000000000000000000000000000000000000000000000000000000000000000000000000001000
% 00000000
% 000000000000000000000000000000000000000000000000000000000000000000000000001000
% 00000000
% 000000000000000000000000000000000000000000000000000000000000000000000000000000
% 00000000
% 000000000000000000000000000000000000000000000000000000000000000000000000000000
% 00000000
%%EndPreview
save

userdict /IslandDrawDict 300 dict dup begin put

/bdef	{bind def} bind def
/E	{exch} bdef
/FF	{findfont} bdef
/MF	{makefont} bdef
/RO	{rotate} bdef
/SC	{scale} bdef
/SF	{setfont} bdef
/SG	{setgray} bdef
/TR	{translate} bdef
/bp	{lj lw rgb} bdef
/bpbw	{lj lw setgray} bdef
/c	{curveto} bdef
/cr	{currentpoint} bdef
/cl	{closepath} bdef
/fi	{eofill} bdef
/g	{setgray} bdef
/gr	{grestore} bdef
/gs	{gsave} bdef
/l	{lineto} bdef
/lj	{setlinejoin} bdef
/lw	{setlinewidth} bdef
/m	{moveto} bdef
/n	{newpath} bdef
/nx	{/x E def} bdef
/r	{rmoveto} bdef
/rl	{rlineto} bdef
/rgb	{setrgbcolor} bdef
/s	{show} bdef
/sd	{setdash} bdef
/sp	{x 0 rmoveto} bdef
/ss	{currentpoint pop E m} bdef
/st	{stroke} bdef
%% pattern stuff
/BPSIDE	32 def	%% pixels per pattern side
/PATFREQ 3.0 def	%% pattern pixels per mm
/dp_mat [PATFREQ 0 0 PATFREQ 0 0] def
/dp_pw	BPSIDE def	%% pattern pixel width
/dp_ph	BPSIDE def	%% pattern pixel height
/dp_w	dp_pw PATFREQ div def	%% pattern mm width
/dp_h	dp_ph PATFREQ div def	%% pattern mm height
/savemat matrix def
/topmat matrix def
/patmat matrix def

%%	catch nocurrentpoint error for:		pathbbox
/ncpoint errordict /nocurrentpoint get def
errordict begin
/nocurrentpoint	{
	dup /pathbbox load eq
	{pop 0 0 1 1}
	{ncpoint}
	ifelse
} bdef
end
/ar	{ %% sa ea sx sy rot tx ty
	matrix currentmatrix 8 1 roll TR RO SC
	n 0 0 1 5 3 roll arc setmatrix
} bdef
/arn	{ %% sa ea sx sy rot tx ty
 TR RO SC
	matrix currentmatrix 8 1 roll
	n 0 0 1 5 3 roll arcn setmatrix
} bdef
/el	{ %% sx sy rot tx ty
	matrix currentmatrix 6 1 roll TR RO SC
	n 0 0 1 0 360 arc setmatrix cl
} bdef
/image_raster	{ %% sw sh sdd dw dh xs ys
	TR SC /sdd E def /sh E def /sw E def
	/imagebuf sw sdd mul 7 add 8 idiv string def
	sw sh sdd [sw 0 0 sh 0 0] { currentfile imagebuf readhexstring pop}
	image
} bdef
/imagemask_raster	{
	TR SC /sh E def /sw E def
	/imagebuf sw 7 add 8 idiv string def
	sw sh false [sw 0 0 sh 0 0]
	{currentfile imagebuf readhexstring pop}
	imagemask
} bdef
/dither_color_raster    { % bool sw sh sdd dw dh xs ys
	TR SC /sdd E def /sh E def /sw E def
	sdd 8 eq and
	{
	  /imagebuf 3 string def
	  /grayval 1 string def
	  sw sh sdd [sw 0 0 sh 0 0]
	  {
	    currentfile imagebuf readhexstring pop pop
	    imagebuf 0 get 0.299 mul
	    imagebuf 1 get 0.587 mul add
	    imagebuf 2 get 0.114 mul add cvi grayval exch 0 exch put grayval
	  }
	  image
	}
	{
	  /imagebuf sw 3 mul sdd mul 7 add 8 idiv string def
	  sh { currentfile imagebuf readhexstring pop pop } repeat
	} ifelse
} bdef
/image_color_raster	{ % bool sw sh sdd dw dh xs ys
	/colorimage where not
	{ dither_color_raster }
	{
	  pop
	  TR SC /sdd E def /sh E def /sw E def pop
	  /imagebuf sw 3 mul sdd mul 7 add 8 idiv string def
	  sw sh sdd [sw 0 0 sh 0 0] { currentfile imagebuf readhexstring pop}
	  false 3 colorimage
	} ifelse
} bdef
/patpath	{
	/inv E def
	topmat setmatrix
	pathbbox	%% get lo - hi indecies
	/hy E dp_h div floor cvi def
	/hx E dp_w div floor cvi def
	/ly E dp_h div floor cvi def
	/lx E dp_w div floor cvi def
	lx 1 hx	{
	    dp_w mul
	    ly 1 hy {
		dp_h mul
		E dup 3 1 roll E
		patmat currentmatrix pop
		TR
		dp_pw dp_ph inv
		dp_mat dp_proc imagemask
		patmat setmatrix
	    } for
	    pop
	} for
} bdef
% setpattern brush of patterns instead of gray
/setpattern	{
	/blue E def /green E def /red E def
	/freq E def /bwidth E def /bpside E def
	/bstring E def
	/onbits 0 def /offbits 0 def
	freq 0 {/y E def /x E def
		/xindex x 1 add 2 div bpside mul cvi def
		/yindex y 1 add 2 div bpside mul cvi def
		bstring yindex bwidth mul xindex 8 idiv add get not
		1 7 xindex 8 mod sub bitshift and 0 ne
		{/onbits onbits 1 add def 1}
		{/offbits offbits 1 add def 0}
		ifelse
	} setscreen {} settransfer
	systemdict /setcmykcolor known
	{ /fact 1 onbits offbits onbits add div sub def
	1 red sub fact mul 1 green sub fact mul 1 blue sub fact mul 0
		setcmykcolor
	}
	{ offbits offbits onbits add div setgray}
	ifelse
} bdef
/dmatrix matrix def
/dpi 72 0 dmatrix defaultmatrix dtransform
	dup mul E dup mul add sqrt
def

/B	{gs bp st gr} bdef %% brush: gr lw lj
/Bbw	{gs bpbw st gr} bdef %% brush: gr lw lj
/F	{gs rgb eofill gr} bdef %% fill: gr
/Fbw	{gs setgray eofill gr} bdef %% fill: gr
/PB	{gs lj lw setpattern st gr} bdef
/PF	{gs eoclip patpath gr} bdef
/BB	{gs rgb lj lw strokepath clip patpath gr} bdef
/xdef {exch def} bdef
/clip_region {
  /ht xdef
  /wd xdef
  /bm xdef
  /lm xdef
  newpath
      lm bm moveto
      0 ht rlineto
      wd 0 rlineto
      0 ht neg rlineto
  closepath clip
} bdef
%! Island text prolog Version 3.1
%%
/reencode_small_dict 12 dict def
/ReencodeSmall {
reencode_small_dict begin
/new_codes_and_names exch def
/new_font_name exch def
/base_font_name exch def
/base_font_dict base_font_name findfont def
/newfont base_font_dict maxlength dict def
base_font_dict {
exch dup /FID ne
{ dup /Encoding eq
{ exch dup length array copy newfont 3 1 roll put }
{ exch newfont 3 1 roll put }
ifelse
}
{ pop pop }
ifelse
} forall
newfont /FontName new_font_name put
base_font_dict /Encoding get StandardEncoding eq
new_codes_and_names extended_Standard ne or
{
new_codes_and_names aload pop
new_codes_and_names length 2 idiv
{ newfont /Encoding get 3 1 roll put }
repeat
}
if
new_font_name newfont definefont pop
end     %reencode_small_dict
} def
/extended_Zapf [
8#223 /a89
8#224 /a90
8#225 /a93
8#226 /a94
8#227 /a91
8#230 /a92
8#231 /a205
8#232 /a85
8#233 /a206
8#234 /a86
8#235 /a87
8#236 /a88
8#237 /a95
8#240 /a96
] def
/extended_Standard [
29 /thorn
30 /yacute
31 /divide
128 /Acircumflex
129 /Adieresis
130 /Agrave
131 /Aring
132 /Atilde
133 /Ccedilla
134 /Eacute
135 /Ecircumflex
136 /Edieresis
137 /Egrave
138 /Iacute
139 /Icircumflex
140 /Idieresis
141 /Igrave
142 /Ntilde
143 /Oacute
144 /Ocircumflex
145 /Odieresis
146 /Ograve
147 /Otilde
148 /Scaron
149 /Uacute
150 /Ucircumflex
151 /Udieresis
152 /Ugrave
153 /Ydieresis
154 /Zcaron
155 /aacute
156 /acircumflex
157 /adieresis
158 /agrave
159 /aring
160 /atilde
161 /exclamdown
162 /cent
163 /sterling
164 /fraction
165 /yen
166 /florin
167 /section
168 /currency
169 /quotesingle
170 /quotedblleft
171 /guillemotleft
172 /guilsinglleft
173 /guilsinglright
174 /fi
175 /fl
176 /plusminus
177 /endash
178 /dagger
179 /daggerdbl
180 /periodcentered
181 /twosuperior
182 /paragraph
183 /bullet
184 /quotesinglbase
185 /quotedblbase
186 /quotedblright
187 /guillemotright
188 /ellipsis
189 /perthousand
190 /threesuperior
191 /questiondown
192 /mu
193 /grave
194 /acute
195 /circumflex
196 /tilde
197 /macron
198 /breve
199 /dotaccent
200 /dieresis
201 /onesuperior
202 /ring
203 /cedilla
204 /onequarter
205 /hungarumlaut
206 /ogonek
207 /caron
208 /emdash
209 /ccedilla
210 /copyright
211 /eacute
212 /ecircumflex
213 /edieresis
214 /egrave
215 /iacute
216 /icircumflex
217 /idieresis
218 /igrave
219 /logicalnot
220 /minus
221 /ntilde
222 /oacute
223 /ocircumflex
224 /odieresis
225 /AE
226 /onehalf
227 /ordfeminine
228 /ograve
229 /otilde
230 /registered
231 /scaron
232 /Lslash
233 /Oslash
234 /OE
235 /ordmasculine
236 /trademark
237 /uacute
238 /ucircumflex
239 /udieresis
240 /ugrave
241 /ae
242 /ydieresis
243 /zcaron
244 /Aacute
245 /dotlessi
246 /threequarters
247 /Eth
248 /lslash
249 /oslash
250 /oe
251 /germandbls
252 /multiply
253 /Yacute
254 /Thorn
255 /eth
] def
/extended_Symbol [
] def
/extend_font {  % stack: fontname newfontname
exch dup (ZapfDingbats) eq
{ cvn exch cvn extended_Zapf ReencodeSmall }
{ dup (Symbol) eq
{ cvn exch cvn extended_Symbol ReencodeSmall }
{ cvn exch cvn extended_Standard ReencodeSmall }
ifelse
}
ifelse
} bind def
/extend_font_name { % stack: font_name_string
dup length 1 add string /extended_font_name exch def
extended_font_name 0 (_) putinterval
extended_font_name 1 3 -1 roll putinterval
extended_font_name
} bind def
/findjpnfont {
  userdict /JFontSubs known {JFontSubs}{false} ifelse {
   dup JFontSubsDict
   dup 4 -1 roll known {exch get}{pop}ifelse findfont
  }{
   findfont
  } ifelse
} bind def
/gf {
  /f E def f cvn currentdict E known
  { currentdict begin f cvn load exec SF end }
  {
    f dup dup length 1 sub 1 getinterval (I) eq
    {
     f dup length 1 sub 0 E getinterval /f E def
     /ita 0.21256 def
    }{
     /ita 0 def
    } ifelse
    f dup length 5 sub 1 getinterval (0) ne
    {
	 /xsz f f length 5 sub 5 getinterval cvi def
	 /ysz f f length 10 sub 5 getinterval cvi def
	 f dup length 2 sub 0 E getinterval /f E def
    }{
	 /xsz f f length 4 sub 4 getinterval cvi def
	 /ysz f f length 8 sub 4 getinterval cvi def
    } ifelse
    f 0 f

    length 8 sub getinterval
    false [(-H)(-V)(.Hankaku)]{
     dup length dup 8 add f length exch sub dup 0 gt
     {f exch 3 -1 roll getinterval eq {pop true exit} if}
     {pop pop pop} ifelse
    } forall
    {
            cvn findjpnfont
    }{
            (LocalFont) extend_font /LocalFont FF
    } ifelse
    /ita xsz ita mul def
    [ xsz 0 ita ysz neg 0 0 ] MF dup
    SF E cvn E def
  } ifelse
}bind def
/ul { % space drop thickness
gs currentpoint currentlinewidth 
currentpoint n m 6 -3 roll 
lw 0 exch r
0 rl st lw m
gr 
} bind def
/nxtab { currentpoint pop 1000.0 mul cvi tab mod
	tab exch sub 1000.0 div 0 rmoveto } bind def
/nx { /x exch def } bind def
0. nx
%%EndFixedProlog
[ statusdict /product get (Grime) search not
true and
 userdict begin /JFontSubs exch def end cleartomark
userdict begin
/JFontSubsDict 19 dict dup begin
 /HiraginoMin-W3-H /Ryumin-Light-H def
 /HiraginoMin-W3-V /Ryumin-Light-V def
 /HiraginoMin-W3.Hankaku /Ryumin-Light.Hankaku def
 /HiraginoMin-W5-H /FutoMinA101-Bold-H def
 /HiraginoMin-W5-V /FutoMinA101-Bold-V def
 /HiraginoMin-W5.Hankaku /FutoMinA101-Bold.Hankaku def
 /HiraginoMin-W8-H /FutoMinA101-Bold-H def
 /HiraginoMin-W8-V /FutoMinA101-Bold-V def
 /HiraginoMin-W8.Hankaku /FutoMinA101-Bold.Hankaku def
 /KyogokuKaku-W3-H /GothicBBB-Medium-H def
 /KyogokuKaku-W3-V /GothicBBB-Medium-V def
 /KyogokuKaku-W3.Hankaku /GothicBBB-Medium.Hankaku def
 /KyogokuKaku-W5-H /FutoGoB101-Bold-H def
 /KyogokuKaku-W5-V /FutoGoB101-Bold-V def
 /KyogokuKaku-W5.Hankaku /FutoGoB101-Bold.Hankaku def
 /FunaokaMaru-W3-H /Jun101-Light-H def
 /FunaokaMaru-W3-V /Jun101-Light-V def
 /FunaokaMaru-W3.Hankaku /Jun101-Light.Hankaku def
end def end
gsave
2.83465 -2.83465 scale 0 -279.4 translate
topmat currentmatrix pop
n 63.546 187.79 m 63.546 199.85 55.274 209.63 45.071 209.63 c
34.867 209.63 26.596 199.85 26.596 187.79 c
26.596 175.73 34.867 165.96 45.071 165.96 c
55.274 165.96 63.546 175.73 63.546 187.79 c
0 0 0 F
1 1 1 setrgbcolor
/pat0 {<88888888444444442222222211111111888888884444444422222222111111
118888888844444444222222221111111188888888444444442222222211111111888888
884444444422222222111111118888888844444444222222221111111188888888444444
44222222221111111188888888444444442222222211111111>} def
/dp_proc pat0 def
false PF
gsave
0 0 0 0.7056 0 B
grestore
n 41.153 207.09 m 102.4 219.95 l
gsave
0 0 0 1.058 0 B
grestore
n 48.381 168.97 m 107.16 180.3 l
gsave
0 0 0 1.058 0 B
grestore
n 69.425 201.23 m 69.425 206.27 l
gsave
0 0 0 0.21 0 B
grestore
n 75.303 206.27 m 95.458 210.47 l
gsave
0 0 0 0.21 0 B
grestore
n 75.303 203.75 m 94.618 207.95 l
gsave
0 0 0 0.21 0 B
grestore
n 77.822 203.75 m 94.618 207.11 l
gsave
0 0 0 0.21 0 B
grestore
n 75.303 203.75 m 75.303 206.27 l
gsave
0 0 0 0.21 0 B
grestore
n 76.052 201.1 m 80.251 201.94 l
gsave
0 0 0 0.21 0 B
grestore
n 75.303 203.75 m 77.822 203.75 l
gsave
0 0 0 0.21 0 B
grestore
n 63.183 209.47 m 89.713 215.13 l
gsave
0 0 0 0.21 0 B
grestore
n 61.472 209.05 m 63.244 208.77 l
62.989 210 l
61.472 209.05 l
cl 0 0 0 F
n 92.939 214.67 m 91.166 214.94 l
91.422 213.71 l
92.939 214.67 l
cl 1 1 1 F
n 91.441 215.54 m 89.668 215.82 l
89.924 214.59 l
91.441 215.54 l
cl 0 0 0 F
n savemat currentmatrix pop [0.92 0 -0.391 0.92 85.2299 213.447] concat
25.4 1440 div 1.000000 mul dup scale 0 0 m
/tab 283.00 1000.0 mul cvi def

0 0 m 0 ss  (Courier-Oblique02800280) gf 
0.00 0.00 0.00 rgb  (z) s 
savemat setmatrix
n 69.402 191.33 m 69.402 209.8 l
gsave
0 0 0 0.21 0 B
grestore
n 71.921 192.16 m 71.921 210.64 l
gsave
0 0 0 0.21 0 B
grestore
n 69.402 209.8 m 71.921 210.64 l
gsave
0 0 0 0.21 0 B
grestore
n 69.402 191.33 m 71.921 192.16 l
gsave
0 0 0 0.21 0 B
grestore
n 69.402 191.33 m 71.081 191.33 l
gsave
0 0 0 0.21 0 B
grestore
n 71.921 192.16 m 73.601 192.16 l
gsave
0 0 0 0.21 0 B
grestore
n 71.081 191.33 m 73.601 192.16 l
gsave
0 0 0 0.21 0 B
grestore
n 73.601 192.16 m 73.601 210.64 l
gsave
0 0 0 0.21 0 B
grestore
n 71.921 210.64 m 73.601 210.64 l
gsave
0 0 0 0.21 0 B
grestore
n 68.409 189.44 m 68.409 202.88 l
gsave
0 0 0 0.21 0 B
grestore
n 67.704 187.76 m 68.334 189.44 l
67.074 189.44 l
67.704 187.76 l
cl 1 1 1 F
n 68.497 187.85 m 69.127 189.53 l
67.867 189.53 l
68.497 187.85 l
cl 0 0 0 F
n 67.704 204.56 m 67.074 202.88 l
68.334 202.88 l
67.704 204.56 l
cl 1 1 1 F
n 68.409 204.56 m 67.779 202.88 l
69.039 202.88 l
68.409 204.56 l
cl 0 0 0 F
n savemat currentmatrix pop [0.92 0 -0.391 0.92 68.8999 187.462] concat
25.4 1440 div 1.000000 mul dup scale 0 0 m
/tab 283.00 1000.0 mul cvi def

0 0 m 0 ss  (Courier-Oblique02800280) gf 
0.00 0.00 0.00 rgb  (r) s 
savemat setmatrix
n 27.435 179.7 m 27.435 181.85 26.304 183.59 24.91 183.59 c
23.514 183.59 22.383 181.85 22.383 179.7 c
22.383 177.56 23.514 175.8 24.91 175.8 c
26.304 175.8 27.435 177.56 27.435 179.7 c
n 118.44 230.64 m 124.29 230.31 129.19 226.88 130.51 222.18 c
gsave
0 0 0 0.21 0 B
grestore
n 113.93 230.2 m 115.61 229.57 l
115.61 230.83 l
113.93 230.2 l
cl 1 1 1 F
n 116.93 230.55 m 118.61 229.92 l
118.61 231.18 l
116.93 230.55 l
cl 0 0 0 F
n 132.41 218.65 m 132.72 220.42 l
131.48 220.19 l
132.41 218.65 l
cl 1 1 1 F
n 130.73 220.59 m 131.04 222.36 l
129.8 222.13 l
130.73 220.59 l
cl 0 0 0 F
n savemat currentmatrix pop [1 -0 -0 1 126.53 231.041] concat
25.4 1440 div 1.000000 mul dup scale 0 0 m
/tab 283.00 1000.0 mul cvi def

0 0 m 0 ss  (Symbol02800280) gf 
0.00 0.00 0.00 rgb  () s (Symbol02800280) gf 
0 0 m 0 ss  (f) s 
savemat setmatrix
n 76.098 201.17 m 73.631 201.17 l
gsave
0 0 0 0.176 0 B
grestore
n 73.631 202.05 m 80.24 202.05 l
gsave
0 0 0 0.176 0 B
grestore
n 73.719 207.38 m 80.593 207.38 l
gsave
0 0 0 0.176 0 B
grestore
n 80.284 202.14 m 80.284 204.12 l
gsave
0 0 0 0.176 0 B
grestore
n savemat currentmatrix pop [1 0 0 1 102.579 215.63] concat
25.4 1440 div 1.000000 mul dup scale 0 0 m
/tab 283.00 1000.0 mul cvi def

0 0 m 0 ss  (Helvetica02800280) gf 
0.00 0.00 0.00 rgb  (Rotating) s 
savemat setmatrix
n savemat currentmatrix pop [1 0 0 1 106.103 219.002] concat
25.4 1440 div 1.000000 mul dup scale 0 0 m
/tab 283.00 1000.0 mul cvi def

0 0 m 0 ss  (Helvetica02800280) gf 
0.00 0.00 0.00 rgb  (cage) s 
savemat setmatrix
n 112.45 174.39 m 110.7 171.72 l
112.65 171.2 l
112.45 174.39 l
cl 0 0 0 F
n 111.67 171.46 m 110.12 165.57 l
gsave
0 0 0 0.176 0 B
grestore
n savemat currentmatrix pop [1 -0 -0 1 106.809 163.461] concat
25.4 1440 div 1.000000 mul dup scale 0 0 m
/tab 283.00 1000.0 mul cvi def

0 0 m 0 ss  (Helvetica02400240) gf 
0.00 0.00 0.00 rgb  (Supporting rollers) s 
savemat setmatrix
n 130.73 201.23 m 130.73 213.29 122.46 223.06 112.25 223.06 c
102.05 223.06 93.778 213.29 93.778 201.23 c
93.778 189.17 102.05 179.39 112.25 179.39 c
122.46 179.39 130.73 189.17 130.73 201.23 c
gsave
0 0 0 0.706 0 B
grestore
n savemat currentmatrix pop [1 0 0 1 77.9878 188.845] concat
25.4 1440 div 1.000000 mul dup scale 0 0 m
/tab 283.00 1000.0 mul cvi def

0 0 m 0 ss  (Helvetica02400240) gf 
0.00 0.00 0.00 rgb  (r-mover) s 
savemat setmatrix
n 74.287 192.63 m
75.465 190.28 l
76.644 191.46 l
cl
0 0 0 F
n 77.635 189.29 m
76.054 190.87 l
gsave
0 0 0 0 0 B
grestore
n 63.007 204.97 m
61.625 207.21 l
60.555 205.94 l
cl
0 0 0 F
n 61.09 206.58 m
43.532 221.27 l
gsave
0 0 0 0 0 B
grestore
n 43.532 221.27 m 51.023 221.27 l
gsave
0 0 0 0 0 B
grestore
n savemat currentmatrix pop [1 0 0 1 52.6968 222.948] concat
25.4 1440 div 1.000000 mul dup scale 0 0 m
/tab 283.00 1000.0 mul cvi def

0 0 m 0 ss  (Helvetica02400240) gf 
0.00 0.00 0.00 rgb  (z-rail) s 
savemat setmatrix
n 26.341 187.71 m 26.341 189.47 25.434 190.93 24.315 190.93 c
23.195 190.93 22.288 189.47 22.288 187.71 c
22.288 185.93 23.195 184.49 24.315 184.49 c
25.434 184.49 26.341 185.93 26.341 187.71 c
gsave
0 0 0 0.2117 0 B
grestore
n 24.711 187.64 m 24.711 188.09 24.523 188.46 24.292 188.46 c
24.06 188.46 23.872 188.09 23.872 187.64 c
23.872 187.19 24.06 186.82 24.292 186.82 c
24.523 186.82 24.711 187.19 24.711 187.64 c
gsave
0 0 0 0.7056 0 B
grestore
n 33.145 168.82 m 33.145 170.58 32.237 172.04 31.118 172.04 c
29.998 172.04 29.091 170.58 29.091 168.82 c
29.091 167.04 29.998 165.6 31.118 165.6 c
32.237 165.6 33.145 167.04 33.145 168.82 c
gsave
0 0 0 0.212 0 B
grestore
n 31.514 168.75 m 31.514 169.2 31.327 169.57 31.095 169.57 c
30.863 169.57 30.675 169.2 30.675 168.75 c
30.675 168.3 30.863 167.93 31.095 167.93 c
31.327 167.93 31.514 168.3 31.514 168.75 c
gsave
0 0 0 0.706 0 B
grestore
n 47.761 162.59 m 47.761 164.36 46.854 165.81 45.734 165.81 c
44.615 165.81 43.707 164.36 43.707 162.59 c
43.707 160.81 44.615 159.37 45.734 159.37 c
46.854 159.37 47.761 160.81 47.761 162.59 c
gsave
0 0 0 0.2117 0 B
grestore
n 46.131 162.53 m 46.131 162.98 45.943 163.35 45.711 163.35 c
45.48 163.35 45.292 162.98 45.292 162.53 c
45.292 162.07 45.48 161.71 45.711 161.71 c
45.943 161.71 46.131 162.07 46.131 162.53 c
gsave
0 0 0 0.7056 0 B
grestore
n 34.065 207.8 m 34.065 209.57 33.158 211.03 32.038 211.03 c
30.919 211.03 30.012 209.57 30.012 207.8 c
30.012 206.02 30.919 204.58 32.038 204.58 c
33.158 204.58 34.065 206.02 34.065 207.8 c
gsave
0 0 0 0.2117 0 B
grestore
n 32.435 207.74 m 32.435 208.19 32.247 208.56 32.016 208.56 c
31.784 208.56 31.596 208.19 31.596 207.74 c
31.596 207.28 31.784 206.92 32.016 206.92 c
32.247 206.92 32.435 207.28 32.435 207.74 c
gsave
0 0 0 0.7056 0 B
grestore
n 67.689 190.21 m 67.689 191.98 66.782 193.43 65.662 193.43 c
64.542 193.43 63.635 191.98 63.635 190.21 c
63.635 188.43 64.542 186.99 65.662 186.99 c
66.782 186.99 67.689 188.43 67.689 190.21 c
gsave
0 0 0 0.2117 0 B
grestore
n 66.059 190.15 m 66.059 190.6 65.871 190.97 65.639 190.97 c
65.407 190.97 65.22 190.6 65.22 190.15 c
65.22 189.69 65.407 189.33 65.639 189.33 c
65.871 189.33 66.059 189.69 66.059 190.15 c
gsave
0 0 0 0.7056 0 B
grestore
n 47.491 213.24 m 47.491 215 46.584 216.46 45.464 216.46 c
44.345 216.46 43.438 215 43.438 213.24 c
43.438 211.45 44.345 210.02 45.464 210.02 c
46.584 210.02 47.491 211.45 47.491 213.24 c
gsave
0 0 0 0.2117 0 B
grestore
n 45.861 213.17 m 45.861 213.62 45.673 213.99 45.441 213.99 c
45.21 213.99 45.022 213.62 45.022 213.17 c
45.022 212.72 45.21 212.35 45.441 212.35 c
45.673 212.35 45.861 212.72 45.861 213.17 c
gsave
0 0 0 0.7056 0 B
grestore
n 60.061 207.45 m 60.061 209.22 59.153 210.67 58.034 210.67 c
56.914 210.67 56.007 209.22 56.007 207.45 c
56.007 205.67 56.914 204.23 58.034 204.23 c
59.153 204.23 60.061 205.67 60.061 207.45 c
gsave
0 0 0 0.2117 0 B
grestore
n 58.43 207.39 m 58.43 207.84 58.243 208.21 58.011 208.21 c
57.779 208.21 57.591 207.84 57.591 207.39 c
57.591 206.93 57.779 206.57 58.011 206.57 c
58.243 206.57 58.43 206.93 58.43 207.39 c
gsave
0 0 0 0.7056 0 B
grestore
n 61.678 169.66 m 61.678 171.42 60.771 172.88 59.652 172.88 c
58.532 172.88 57.625 171.42 57.625 169.66 c
57.625 167.88 58.532 166.44 59.652 166.44 c
60.771 166.44 61.678 167.88 61.678 169.66 c
gsave
0 0 0 0.2117 0 B
grestore
n 60.048 169.59 m 60.048 170.04 59.86 170.41 59.629 170.41 c
59.397 170.41 59.209 170.04 59.209 169.59 c
59.209 169.14 59.397 168.77 59.629 168.77 c
59.86 168.77 60.048 169.14 60.048 169.59 c
gsave
0 0 0 0.7056 0 B
grestore
n 119.27 226 m 119.27 227.76 118.36 229.22 117.24 229.22 c
116.12 229.22 115.22 227.76 115.22 226 c
115.22 224.21 116.12 222.77 117.24 222.77 c
118.36 222.77 119.27 224.21 119.27 226 c
gsave
0 0 0 0.2117 0 B
grestore
n 117.64 225.93 m 117.64 226.38 117.45 226.75 117.22 226.75 c
116.99 226.75 116.8 226.38 116.8 225.93 c
116.8 225.47 116.99 225.11 117.22 225.11 c
117.45 225.11 117.64 225.47 117.64 225.93 c
gsave
0 0 0 0.7056 0 B
grestore
n 130.5 217.31 m 130.5 219.08 129.6 220.53 128.48 220.53 c
127.36 220.53 126.45 219.08 126.45 217.31 c
126.45 215.53 127.36 214.09 128.48 214.09 c
129.6 214.09 130.5 215.53 130.5 217.31 c
gsave
0 0 0 0.2117 0 B
grestore
n 128.87 217.25 m 128.87 217.7 128.69 218.07 128.45 218.07 c
128.22 218.07 128.03 217.7 128.03 217.25 c
128.03 216.79 128.22 216.43 128.45 216.43 c
128.69 216.43 128.87 216.79 128.87 217.25 c
gsave
0 0 0 0.7056 0 B
grestore
n 135.3 201.41 m 135.3 203.17 134.4 204.63 133.28 204.63 c
132.16 204.63 131.25 203.17 131.25 201.41 c
131.25 199.62 132.16 198.19 133.28 198.19 c
134.4 198.19 135.3 199.62 135.3 201.41 c
gsave
0 0 0 0.2117 0 B
grestore
n 133.67 201.34 m 133.67 201.79 133.49 202.16 133.25 202.16 c
133.02 202.16 132.84 201.79 132.84 201.34 c
132.84 200.88 133.02 200.52 133.25 200.52 c
133.49 200.52 133.67 200.88 133.67 201.34 c
gsave
0 0 0 0.7056 0 B
grestore
n 115.56 175.94 m 115.56 177.7 114.65 179.16 113.53 179.16 c
112.42 179.16 111.51 177.7 111.51 175.94 c
111.51 174.15 112.42 172.71 113.53 172.71 c
114.65 172.71 115.56 174.15 115.56 175.94 c
gsave
0 0 0 0.2117 0 B
grestore
n 113.93 175.87 m 113.93 176.32 113.74 176.69 113.51 176.69 c
113.28 176.69 113.09 176.32 113.09 175.87 c
113.09 175.41 113.28 175.05 113.51 175.05 c
113.74 175.05 113.93 175.41 113.93 175.87 c
gsave
0 0 0 0.7056 0 B
grestore
n 130.14 185.05 m 130.14 186.82 129.24 188.27 128.12 188.27 c
127 188.27 126.09 186.82 126.09 185.05 c
126.09 183.27 127 181.83 128.12 181.83 c
129.24 181.83 130.14 183.27 130.14 185.05 c
gsave
0 0 0 0.2117 0 B
grestore
n 128.51 184.99 m 128.51 185.44 128.33 185.81 128.09 185.81 c
127.86 185.81 127.67 185.44 127.67 184.99 c
127.67 184.53 127.86 184.17 128.09 184.17 c
128.33 184.17 128.51 184.53 128.51 184.99 c
gsave
0 0 0 0.7056 0 B
grestore
n 101.42 221.19 m 101.42 222.96 100.52 224.41 99.397 224.41 c
98.277 224.41 97.37 222.96 97.37 221.19 c
97.37 219.41 98.277 217.97 99.397 217.97 c
100.52 217.97 101.42 219.41 101.42 221.19 c
1 1 1 F
gsave
0 0 0 0.2117 0 B
grestore
n 99.793 221.12 m 99.793 221.57 99.605 221.94 99.374 221.94 c
99.142 221.94 98.954 221.57 98.954 221.12 c
98.954 220.67 99.142 220.3 99.374 220.3 c
99.605 220.3 99.793 220.67 99.793 221.12 c
1 1 1 F
gsave
0 0 0 0.7056 0 B
grestore
n 98.156 184.79 m 98.156 186.55 97.248 188.01 96.129 188.01 c
95.009 188.01 94.102 186.55 94.102 184.79 c
94.102 183.01 95.009 181.57 96.129 181.57 c
97.248 181.57 98.156 183.01 98.156 184.79 c
gsave
0 0 0 0.2117 0 B
grestore
n 96.525 184.72 m 96.525 185.17 96.338 185.54 96.106 185.54 c
95.874 185.54 95.686 185.17 95.686 184.72 c
95.686 184.27 95.874 183.9 96.106 183.9 c
96.338 183.9 96.525 184.27 96.525 184.72 c
gsave
0 0 0 0.7056 0 B
grestore
n 94.803 210.08 m 94.803 211.84 93.896 213.3 92.777 213.3 c
91.657 213.3 90.75 211.84 90.75 210.08 c
90.75 208.29 91.657 206.86 92.777 206.86 c
93.896 206.86 94.803 208.29 94.803 210.08 c
1 1 1 F
gsave
0 0 0 0.2117 0 B
grestore
n 93.173 210.01 m 93.173 210.46 92.985 210.83 92.754 210.83 c
92.522 210.83 92.334 210.46 92.334 210.01 c
92.334 209.56 92.522 209.19 92.754 209.19 c
92.985 209.19 93.173 209.56 93.173 210.01 c
1 1 1 F
gsave
0 0 0 0.7056 0 B
grestore
n 52.168 187.75 m 52.168 192.81 49.091 196.92 45.295 196.92 c
41.498 196.92 38.421 192.81 38.421 187.75 c
38.421 182.69 41.498 178.59 45.295 178.59 c
49.091 178.59 52.168 182.69 52.168 187.75 c
1 1 1 F
gsave
0 0 0 0.7056 0 B
grestore
n 119.62 201.28 m 119.62 206.34 116.55 210.44 112.75 210.44 c
108.95 210.44 105.88 206.34 105.88 201.28 c
105.88 196.21 108.95 192.11 112.75 192.11 c
116.55 192.11 119.62 196.21 119.62 201.28 c
1 1 1 F
gsave
0 0 0 0.7056 0 B
grestore
n 60.319 201.27 m
44.369 198.05 l
44.413 200.3 l
59.13 203.16 l
cl
1 1 1 F
n 60.804 200.52 m
47.586 197.97 l
45.559 197.97 l
60.584 201.01 l
cl
1 1 1 F
n 44.231 200.39 m 69.425 205.43 l
gsave
0 0 0 0.21 0 B
grestore
n 44.231 197.87 m 44.231 200.39 l
gsave
0 0 0 0.21 0 B
grestore
n 47.59 197.87 m 69.425 202.07 l
gsave
0 0 0 0.21 0 B
grestore
n 44.231 197.87 m 69.425 202.91 l
gsave
0 0 0 0.21 0 B
grestore
n 44.542 197.89 m 47.718 197.89 l
gsave
0 0 0 0.21 0 B
grestore
n 106.1 162.37 m 48.996 162.02 l
n 48.996 162.02 m
51.501 161.2 l
51.491 162.87 l
cl
0 0 0 F
n 106.1 162.37 m
51.496 162.04 l
gsave
0 0 0 0 0 B
grestore
userdict /#copies 1 put
grestore

%%Trailer
%%DocumentNeededResources: font Courier-Oblique Helvetica Symbol
%%DocumentSuppliedResources: 
end
restore

%%EOF

