[0] Config.pm:340> INFO - This is Biber 2.4
[0] Config.pm:343> INFO - Logfile is 'datAnaBelle.blg'
[40] biber:287> INFO - === Don Sep 21, 2017, 08:57:57
[126] Utils.pm:163> ERROR - Cannot find control file 'datAnaBelle.bcf'! - did you pass the "backend=biber" option to BibLaTeX?
[127] Biber.pm:113> INFO - ERRORS: 1
