\relax 
\providecommand\hyper@newdestlabel[2]{}
\providecommand\HyperFirstAtBeginDocument{\AtBeginDocument}
\HyperFirstAtBeginDocument{\ifx\hyper@anchor\@undefined
\global\let\oldcontentsline\contentsline
\gdef\contentsline#1#2#3#4{\oldcontentsline{#1}{#2}{#3}}
\global\let\oldnewlabel\newlabel
\gdef\newlabel#1#2{\newlabelxx{#1}#2}
\gdef\newlabelxx#1#2#3#4#5#6{\oldnewlabel{#1}{{#2}{#3}}}
\AtEndDocument{\ifx\hyper@anchor\@undefined
\let\contentsline\oldcontentsline
\let\newlabel\oldnewlabel
\fi}
\fi}
\global\let\hyper@last\relax 
\gdef\HyperFirstAtBeginDocument#1{#1}
\providecommand\HyField@AuxAddToFields[1]{}
\providecommand\HyField@AuxAddToCoFields[2]{}
\@writefile{toc}{\contentsline {section}{\[B^+ \rightarrow \mathaccentV {bar}016{D}^0 \pi ^+ \rightarrow \left [ K^+ \pi ^- \right ]_{_{\mathaccentV {bar}016D^0}} \pi ^+\]}{1}{section*.1}}
\newlabel{b-rightarrow-bard0-pi-rightarrow-left-k-pi--right__bar-d0-pi}{{}{1}{\texorpdfstring {\[B^+ \rightarrow \bar {D}^0 \pi ^+ \rightarrow \left [ K^+ \pi ^- \right ]_{_{\bar D^0}} \pi ^+\]}{B\^{}+ \textbackslash {}rightarrow \textbackslash {}bar\{D\}\^{}0 \textbackslash {}pi\^{}+ \textbackslash {}rightarrow \textbackslash {}left{[} K\^{}+ \textbackslash {}pi\^{}- \textbackslash {}right{]}\_\{\_\{\textbackslash {}bar D\^{}0\}\} \textbackslash {}pi\^{}+}}{section*.1}{}}
\@writefile{toc}{\contentsline {subsection}{Access}{1}{section*.2}}
\newlabel{access}{{}{1}{Access}{section*.2}{}}
\@writefile{toc}{\contentsline {subsection}{Teilchen}{1}{section*.3}}
\newlabel{teilchen}{{}{1}{Teilchen}{section*.3}{}}
\@writefile{toc}{\contentsline {subsection}{Todo}{1}{section*.4}}
\newlabel{todo}{{}{1}{Todo}{section*.4}{}}
\@writefile{toc}{\contentsline {subsection}{Mo, 2017-07-24}{1}{section*.5}}
\newlabel{mo-2017-07-24}{{}{1}{Mo, 2017-07-24}{section*.5}{}}
