\BOOKMARK [1][-]{section*.1}{\376\377\000B\000\136\000+\000\040\000\134\000r\000i\000g\000h\000t\000a\000r\000r\000o\000w\000\040\000\134\000b\000a\000r\000\173\000D\000\175\000\136\0000\000\040\000\134\000p\000i\000\136\000+\000\040\000\134\000r\000i\000g\000h\000t\000a\000r\000r\000o\000w\000\040\000\134\000l\000e\000f\000t\000[\000\040\000K\000\136\000+\000\040\000\134\000p\000i\000\136\000-\000\040\000\134\000r\000i\000g\000h\000t\000]\000\137\000\173\000\137\000\173\000\134\000b\000a\000r\000\040\000D\000\136\0000\000\175\000\175\000\040\000\134\000p\000i\000\136\000+}{}% 1
\BOOKMARK [2][-]{section*.2}{\376\377\000A\000c\000c\000e\000s\000s}{section*.1}% 2
\BOOKMARK [2][-]{section*.3}{\376\377\000T\000e\000i\000l\000c\000h\000e\000n}{section*.1}% 3
\BOOKMARK [2][-]{section*.4}{\376\377\000T\000o\000d\000o}{section*.1}% 4
\BOOKMARK [2][-]{section*.5}{\376\377\000M\000o\000,\000\040\0002\0000\0001\0007\000-\0000\0007\000-\0002\0004}{section*.1}% 5
