%!PS-Adobe-2.0 EPSF-2.0
%%BoundingBox: 0 0 567 425
%%Title: annealing_nim.eps
%%Creator: HIGZ Version 1.22/09
%%CreationDate: 96/12/01   15.32
%%EndComments
80 dict begin
/s {stroke} def /l {lineto} def /m {moveto} def /t {translate} def
/sw {stringwidth} def /r {rotate} def /rl {roll}  def /R {repeat} def
/d {rlineto} def /rm {rmoveto} def /gr {grestore} def /f {eofill} def
/c {setrgbcolor} def /lw {setlinewidth} def /sd {setdash} def
/cl {closepath} def /sf {scalefont setfont} def /black {0 setgray} def
/box {m dup 0 exch d exch 0 d 0 exch neg d cl} def
/NC{systemdict begin initclip end}def/C{NC box clip newpath}def
/bl {box s} def /bf {box f} def /Y { 0 exch d} def /X { 0 d} def 
/mp {newpath /y exch def /x exch def} def
/side {[w .77 mul w .23 mul] .385 w mul sd w 0 l currentpoint t -144 r} def
/mr {mp x y w2 0 360 arc} def /m24 {mr s} def /m20 {mr f} def
/mb {mp x y w2 add m w2 neg 0 d 0 w neg d w 0 d 0 w d cl} def
/mt {mp x y w2 add m w2 neg w neg d w 0 d cl} def
/m21 {mb f} def /m25 {mb s} def /m22 {mt f} def /m26 {mt s} def
/m23 {mp x y w2 sub m w2 w d w neg 0 d cl f} def
/m27 {mp x y w2 add m w3 neg w2 neg d w3 w2 neg d w3  w2 d cl s} def
/m28 {mp x w2 sub y w2 sub w3 add m w3 0 d 0 w3 neg d w3 0 d 0 w3 d w3 0 d
 0 w3 d w3 neg 0 d 0 w3 d w3 neg 0 d
 0 w3 neg d w3 neg 0 d cl s } def
/m29 {mp gsave x w2 sub y w2 add w3 sub m currentpoint t
 4 {side} repeat cl fill gr} def
/m30 {mp gsave x w2 sub y w2 add w3 sub m currentpoint t
 5 {side} repeat s gr} def
/m31 {mp x y w2 sub m 0 w d x w2 sub y m w 0 d
 x w2 sub y w2 add m w w neg d x w2 sub y w2
 sub m w w d s} def
/m2 {mp x y w2 sub m 0 w d x w2 sub y m w 0 d s} def
/m5 {mp x w2 sub y w2 sub m w w d x w2 sub y w2 add m w w neg d s} def
/DP {/PT exch def gsave 47.2 47.2 scale PT 1 eq { 16 16 1 [ 16 0 0 16 neg 0 16
] { < AA AA 55 55 AA AA 55 55 AA AA 55 55 AA AA 55 55 AA AA 55 55 AA AA 55 55
AA AA 55 55 AA AA 55 55 > } image } if PT 2 eq { 16 16 1 [ 16 0 0 16 neg 0 16
] { < BB BB EE EE BB BB EE EE BB BB EE EE BB BB EE EE BB BB EE EE BB BB EE EE
BB BB EE EE BB BB EE EE > } image } if PT 3 eq { 16 16 1 [ 16 0 0 16 neg 0 16
] { < FF FF BB BB FF FF EE EE FF FF BB BB FF FF EE EE FF FF BB BB FF FF EE EE
FF FF BB BB FF FF EE EE > } image } if PT 4 eq { 16 16 1 [ 16 0 0 16 neg 0 16
] { < DF DF BF BF 7F 7F FE FE FD FD FB FB F7 F7 EF EF DF DF BF BF 7F 7F FE FE
FD FD FB FB F7 F7 EF EF > } image } if PT 5 eq { 16 16 1 [ 16 0 0 16 neg 0 16
] { < 7F 7F BF B F DF DF EF EF F7 F7 FB FB FD FD FE FE 7F 7F BF BF DF DF EF
EF F7 F7 FB FB FD FD FE FE > } image } if PT 6 eq { 16 16 1 [ 16 0 0 16 neg 0
16 ] { < BB BB BB BB BB BB BB BB BB BB BB BB BB BB BB BB BB BB BB BB BB BB BB
BB BB BB BB BB BB BB BB BB > } image } if PT 7 eq { 16 16 1 [ 16 0 0 16 neg 0
16 ] { < FF FF FF FF FF FF 00 00 FF FF FF FF FF FF 00 00 FF FF FF FF FF FF 00
00 FF FF FF FF FF FF 00 00 > } image } if PT 8 eq { 16 16 1 [ 16 0 0 16 neg 0
16 ] { < EE EE 47 47 83 83 C5 C5 EE EE 5C 5C 38 38 74 74 EE EE 47 47 83 83 C5
C5 EE EE 5C 5C 38 38 74 74 > } image } if PT 9 eq { 16 16 1 [ 16 0 0 16 neg 0
16 ] { < EF EF EF EF D7 D7 38 38 FE FE FE FE 7D 7D 83 83 EF EF EF EF D7 D7 38
38 FE FE FE FE 7D 7D 83 83 > } image } if PT 10 eq { 16 16 1 [ 16 0 0 16 neg
0 16 ] { < EF EF EF EF EF EF 00 00 FE FE FE FE FE FE 00 00 EF EF EF EF EF EF
00 00 FE FE FE FE FE FE 00 00 > } image } if PT 11 eq { 16 16 1 [ 16 0 0 16
neg 0 16 ] { < F7 F7 B6 B6 D5 D5 E3 E3 D5 D5 B6 B6 F7 F7 FF FF 7F 7F 6B 6B 5D
5D 3E 3E 5D 5D 6B 6B 7F 7F FF FF > } image } if PT 12 eq { 16 16 1 [ 16 0 0
16 neg 0 16 ] { < E3 E3 DD DD BE BE BE BE BE BE DD DD E3 E3 FF FF 3E 3E DD DD
EB EB EB EB EB EB DD DD 3E 3E FF FF > } image } if PT 13 eq { 16 16 1 [ 16 0
0 16 neg 0 16 ] { < FE FE 7D 7D BB BB D7 D7 EF EF D7 D7 BB BB 7D 7D FE FE 7D
7D BB BB D7 D7 EF EF D7 D7 BB BB 7D 7D > } image } if PT 14 eq { 16 16 1 [ 16
0 0 16 neg 0 16 ] { < 00 00 EE EF EE EF EE EF 0E E0 EE EE EE EE EE EE 00 EE
FE EE FE EE FE EE 00 00 FE EF FE EF FE EF > } image } if PT 15 eq { 16 16 1 [
16 0 0 16 neg 0 16 ] { < DD DD AA AA DD DD FF FF 77 77 AA AA 77 77 FF FF DD
DD AA AA DD DD FF FF 77 77 AA AA 77 77 FF FF > } image } if PT 16 eq { 16 16
1 [ 16 0 0 16 neg 0 16 ] { < F1 F1 EE EE 1F 1F FF FF F1 F1 EE EE 1F 1F FF FF
F1 F1 EE EE 1F 1F FF FF F1 F1 EE EE 1F 1F FF FF > } image } if PT 17 eq { 16
16 1 [ 16 0 0 16 neg 0 16 ] { < EE EE DD DD BB BB FF FF EE EE DD DD BB BB FF
FF EE EE DD DD BB BB FF FF EE EE DD DD BB BB FF FF > } image } if PT 18 eq {
16 16 1 [ 16 0 0 16 neg 0 16 ] { < BB BB DD DD EE EE FF FF BB BB DD DD EE EE
FF FF BB BB DD DD EE EE FF FF BB BB DD DD EE EE FF FF > } image } if PT 19 eq
{ 16 16 1 [ 16 0 0 16 neg 0 16 ] { < 1F FC 67 F3 7B EF BD DE BD DE DE BD E6
B3 F8 0F E6 B3 DE BD BD DE BD DE 7B EF 67 F3 1F FC 7F FF > } image } if PT
20 eq { 16 16 1 [ 16 0 0 16 neg 0 16 ] { < DD DD EE EE EE EE EE EE DD DD BB
BB BB BB BB BB DD DD EE EE EE EE EE EE DD DD BB BB BB BB BB BB > } image }
if PT 21 eq { 16 16 1 [ 16 0 0 16 neg 0 16 ] { < 0E 0E EF EF EF EF EF EF E0
E0 FE FE FE FE FE FE 0E 0E EF EF EF EF EF EF E0 E0 FE FE FE FE FE FE > }
image } if PT 22 eq { 16 16 1 [ 16 0 0 16 neg 0 16 ] { < 70 70 F7 F7 F7 F7 F7
F7 07 07 7F 7F 7F 7F 7F 7F 70 70 F7 F7 F7 F7 F7 F7 07 07 7F 7F 7F 7F 7F 7F >
} image } if PT 23 eq { 16 16 1 [ 16 0 0 16 neg 0 16 ] { < AA AA 55 55 A9 A9
D1 D1 E1 E1 D1 D1 A9 A9 55 55 AA AA 55 55 A9 A9 D1 D1 E1 E1 D1 D1 A9 A9 55 55
> } image } if PT 24 eq { 16 16 1 [ 16 0 0 16 neg 0 16 ] { < FF FE FF FC EA
A8 D5 54 EA A8 D5 54 E8 28 D4 54 E8 E8 D4 D4 E8 EA 54 D5 A8 EA 54 D5 00 C0 00
80 > } image } if PT 25 eq { 16 16 1 [ 16 0 0 16 neg 0 16 ] { < FF FE FF FC
FF F8 FF F0 F0 00 F0 00 F0 20 F0 60 F0 E0 F1 E0 F3 E0 F0 00 E0 00 C0 00 80 00
00 00 > } image } if gr } def /FA { /PT exch def gsave clip 0 0 translate 1 1
54 { 1 sub 47.2 mul /Xcurr exch def 1 1 74 { 1 sub 47.2 mul /Ycurr exch def
gsave Xcurr Ycurr translate PT DP gr } for } for gr } def
/reencdict 24 dict def /ReEncode {reencdict begin /nco&na exch def
/nfnam exch def /basefontname exch def /basefontdict basefontname findfont def
/newfont basefontdict maxlength dict def basefontdict {exch dup /FID ne
{dup /Encoding eq {exch dup length array copy newfont 3 1 roll put} {exch
newfont 3 1 roll put} ifelse} {pop pop} ifelse } forall newfont
/FontName nfnam put nco&na aload pop nco&na length 2 idiv {newfont
/Encoding get 3 1 roll put} repeat nfnam newfont definefont pop end } def
/accvec [ 176 /agrave 181 /Agrave 190 /acircumflex 192 /Acircumflex
201 /adieresis 204 /Adieresis 209 /ccedilla 210 /Ccedilla 211 /eacute
212 /Eacute 213 /egrave 214 /Egrave 215 /ecircumflex 216 /Ecircumflex
217 /edieresis 218 /Edieresis 219 /icircumflex 220 /Icircumflex
221 /idieresis 222 /Idieresis 223 /ntilde 224 /Ntilde 226 /ocircumflex
228 /Ocircumflex 229 /odieresis 230 /Odieresis 231 /ucircumflex 236 /Ucircumflex
237 /udieresis 238 /Udieresis 239 /aring 242 /Aring 243 /ydieresis
244 /Ydieresis 246 /aacute 247 /Aacute 252 /ugrave 253 /Ugrave] def
/Times-Roman /Times-Roman accvec ReEncode
/Times-Italic /Times-Italic accvec ReEncode
/Times-Bold /Times-Bold accvec ReEncode
/Times-BoldItalic /Times-BoldItalic accvec ReEncode
/Helvetica /Helvetica accvec ReEncode
/Helvetica-Oblique /Helvetica-Oblique accvec ReEncode
/Helvetica-Bold /Helvetica-Bold accvec ReEncode
/Helvetica-BoldOblique /Helvetica-BoldOblique  accvec ReEncode
/Courier /Courier accvec ReEncode
/Courier-Oblique /Courier-Oblique accvec ReEncode
/Courier-Bold /Courier-Bold accvec ReEncode
/Courier-BoldOblique /Courier-BoldOblique accvec ReEncode
/oshow {gsave [] 0 sd true charpath stroke gr} def
/stwn { /fs exch def /fn exch def /text exch def fn findfont fs sf
 text sw pop xs add /xs exch def} def
/stwb { /fs exch def /fn exch def /nbas exch def /textf exch def
textf length /tlen exch def nbas tlen gt {/nbas tlen def} if
fn findfont fs sf textf dup length nbas sub nbas getinterval sw
pop neg xs add /xs exch def} def
/accspe [ 65 /plusminus 66 /bar 67 /existential 68 /universal
69 /exclam 70 /numbersign 71 /greater 72 /question 73 /integral
74 /colon 75 /semicolon 76 /less 77 /bracketleft 78 /bracketright
79 /greaterequal 80 /braceleft 81 /braceright 82 /radical
83 /spade 84 /heart 85 /diamond 86 /club 87 /lessequal
88 /multiply 89 /percent 90 /infinity 48 /circlemultiply 49 /circleplus
50 /emptyset 51 /lozenge 52 /bullet 53 /arrowright 54 /arrowup
55 /arrowleft 56 /arrowdown 57 /arrowboth 48 /degree 44 /comma 43 /plus
 45 /angle 42 /angleleft 47 /divide 61 /notequal 40 /equivalence 41 /second
 97 /approxequal 98 /congruent 99 /perpendicular 100 /partialdiff 101 /florin
 102 /intersection 103 /union 104 /propersuperset 105 /reflexsuperset
 106 /notsubset 107 /propersubset 108 /reflexsubset 109 /element 110 /notelement
 111 /gradient 112 /logicaland 113 /logicalor 114 /arrowdblboth
 115 /arrowdblleft 116 /arrowdblup 117 /arrowdblright 118 /arrowdbldown
 119 /ampersand 120 /omega1 121 /similar 122 /aleph ] def
/Symbol /Special accspe ReEncode
gsave .25 .25 scale 
%%EndProlog
 gsave 0 0 t black [] 0 sd 1 lw 1757 1191 284 227 bl 1757 1191 284 227 C 2268
 1701 0 0 C
 /xs 0 def 
( Time Dependence of Relative Light Output \(%\))
 /Helvetica     62 stwn 
 gsave  1134 1486
 t   0 r  xs 2 div neg 0 t 0 0 m
 /Helvetica findfont   62 sf 0    0 m 
( Time Dependence of Relative Light Output \(%\))
 show 
 gr
 1757 1191 284 227 C NC 284 227 m 1191 Y s 318 227 m -34 X s [4 8] 0 sd 2041 227
 m -1757 X s [] 0 sd 301 270 m -17 X s 301 313 m -17 X s 301 357 m -17 X s 301
 400 m -17 X s 318 443 m -34 X s [4 8] 0 sd 2041 443 m -1757 X s [] 0 sd 301 487
 m -17 X s 301 530 m -17 X s 301 573 m -17 X s 301 616 m -17 X s 318 660 m -34 X
 s [4 8] 0 sd 2041 660 m -1757 X s [] 0 sd 301 703 m -17 X s 301 746 m -17 X s
 301 790 m -17 X s 301 833 m -17 X s 318 876 m -34 X s [4 8] 0 sd 2041 876 m
 -1757 X s [] 0 sd 301 920 m -17 X s 301 963 m -17 X s 301 1006 m -17 X s 301
 1049 m -17 X s 318 1093 m -34 X s [4 8] 0 sd 2041 1093 m -1757 X s [] 0 sd 301
 1136 m -17 X s 301 1179 m -17 X s 301 1223 m -17 X s 301 1266 m -17 X s 318
 1309 m -34 X s [4 8] 0 sd 2041 1309 m -1757 X s [] 0 sd 318 1309 m -34 X s
 [4 8] 0 sd 2041 1309 m -1757 X s [] 0 sd 301 1353 m -17 X s 301 1396 m -17 X s
 /xs 0 def 
(50)
 /Helvetica     70 stwn 
 gsave  238 201
 t   0 r  xs neg 0 t 0 0 m
 /Helvetica findfont   70 sf 0    0 m 
(50)
 show 
 gr
 /xs 0 def 
(60)
 /Helvetica     70 stwn 
 gsave  238 418
 t   0 r  xs neg 0 t 0 0 m
 /Helvetica findfont   70 sf 0    0 m 
(60)
 show 
 gr
 /xs 0 def 
(70)
 /Helvetica     70 stwn 
 gsave  238 634
 t   0 r  xs neg 0 t 0 0 m
 /Helvetica findfont   70 sf 0    0 m 
(70)
 show 
 gr
 /xs 0 def 
(80)
 /Helvetica     70 stwn 
 gsave  238 851
 t   0 r  xs neg 0 t 0 0 m
 /Helvetica findfont   70 sf 0    0 m 
(80)
 show 
 gr
 /xs 0 def 
(90)
 /Helvetica     70 stwn 
 gsave  238 1067
 t   0 r  xs neg 0 t 0 0 m
 /Helvetica findfont   70 sf 0    0 m 
(90)
 show 
 gr
 /xs 0 def 
(100)
 /Helvetica     70 stwn 
 gsave  238 1284
 t   0 r  xs neg 0 t 0 0 m
 /Helvetica findfont   70 sf 0    0 m 
(100)
 show 
 gr
 284 227 m 1757 X s 284 261 m -34 Y s [4 8] 0 sd 284 1418 m -1191 Y s [] 0 sd
 340 244 m -17 Y s 397 244 m -17 Y s 454 244 m -17 Y s 510 244 m -17 Y s 567 261
 m -34 Y s [4 8] 0 sd 567 1418 m -1191 Y s [] 0 sd 624 244 m -17 Y s 680 244 m
 -17 Y s 737 244 m -17 Y s 794 244 m -17 Y s 851 261 m -34 Y s [4 8] 0 sd 851
 1418 m -1191 Y s [] 0 sd 907 244 m -17 Y s 964 244 m -17 Y s 1021 244 m -17 Y s
 1077 244 m -17 Y s 1134 261 m -34 Y s [4 8] 0 sd 1134 1418 m -1191 Y s [] 0 sd
 1191 244 m -17 Y s 1247 244 m -17 Y s 1304 244 m -17 Y s 1361 244 m -17 Y s
 1418 261 m -34 Y s [4 8] 0 sd 1418 1418 m -1191 Y s [] 0 sd 1474 244 m -17 Y s
 1531 244 m -17 Y s 1588 244 m -17 Y s 1644 244 m -17 Y s 1701 261 m -34 Y s
 [4 8] 0 sd 1701 1418 m -1191 Y s [] 0 sd 1758 244 m -17 Y s 1814 244 m -17 Y s
 1871 244 m -17 Y s 1928 244 m -17 Y s 1985 261 m -34 Y s [4 8] 0 sd 1985 1418 m
 -1191 Y s [] 0 sd 1985 261 m -34 Y s [4 8] 0 sd 1985 1418 m -1191 Y s [] 0 sd
 2041 244 m -17 Y s
 /xs 0 def 
(0)
 /Helvetica     70 stwn 
 gsave  284 153
 t   0 r  xs 2 div neg 0 t 0 0 m
 /Helvetica findfont   70 sf 0    0 m 
(0)
 show 
 gr
 /xs 0 def 
(5)
 /Helvetica     70 stwn 
 gsave  567 153
 t   0 r  xs 2 div neg 0 t 0 0 m
 /Helvetica findfont   70 sf 0    0 m 
(5)
 show 
 gr
 /xs 0 def 
(10)
 /Helvetica     70 stwn 
 gsave  851 153
 t   0 r  xs 2 div neg 0 t 0 0 m
 /Helvetica findfont   70 sf 0    0 m 
(10)
 show 
 gr
 /xs 0 def 
(15)
 /Helvetica     70 stwn 
 gsave  1134 153
 t   0 r  xs 2 div neg 0 t 0 0 m
 /Helvetica findfont   70 sf 0    0 m 
(15)
 show 
 gr
 /xs 0 def 
(20)
 /Helvetica     70 stwn 
 gsave  1418 153
 t   0 r  xs 2 div neg 0 t 0 0 m
 /Helvetica findfont   70 sf 0    0 m 
(20)
 show 
 gr
 /xs 0 def 
(25)
 /Helvetica     70 stwn 
 gsave  1701 153
 t   0 r  xs 2 div neg 0 t 0 0 m
 /Helvetica findfont   70 sf 0    0 m 
(25)
 show 
 gr
 /xs 0 def 
(30)
 /Helvetica     70 stwn 
 gsave  1985 153
 t   0 r  xs 2 div neg 0 t 0 0 m
 /Helvetica findfont   70 sf 0    0 m 
(30)
 show 
 gr
 1757 1191 284 227 C 384 1309 m 45 13 d 10 -25 d 7 -13 d 38 13 d s /w 31
 def /w2 {w 2 div} def /w3 {w 3 div} def 384 1309 429 1322 439 1297 446 1284 484
 1297 5 { m20} R 556 1267 m 39 8 d 10 9 d 14 X 38 -4 d 16 X 39 8 d 63 -8 d 62 X
 s 556 1267 595 1275 605 1284 619 1284 657 1280 673 1280 712 1288 775 1280 837
 1280 9 { m20} R 900 1233 m 41 -9 d 12 39 d 49 8 d 174 X 104 -17 d 65 -8 d 41 8
 d s 900 1233 941 1224 953 1263 1002 1271 1176 1271 1280 1254 1345 1246 1386
 1254 8 { m20} R 1412 1122 m 44 17 d 57 30 d 164 26 d 61 X 57 12 d 58 -8 d 67 8
 d 61 5 d 43 8 d s 1412 1122 1456 1139 1513 1169 1677 1195 1738 1195 1795 1207
 1853 1199 1920 1207 1981 1212 2024 1220 10 { m20} R 387 1309 m 44 18 d 9 -22 d
 8 X 38 9 d s 387 1309 431 1327 440 1305 448 1305 486 1314 5 { m25} R 596 1207 m
 10 4 d 14 5 d 38 26 d 16 -9 d 39 18 d 62 5 d 61 13 d s 596 1207 606 1211 620
 1216 658 1242 674 1233 713 1251 775 1256 836 1269 8 { m25} R 942 1064 m 12 22 d
 49 40 d 174 54 d 104 -9 d 65 -9 d 41 X s 942 1064 954 1086 1003 1126 1177 1180
 1281 1171 1346 1162 1387 1162 7 { m25} R 1456 729 m 58 67 d 164 85 d 61 18 d 57
 13 d 58 9 d 66 4 d 61 9 d 43 -4 d s 1456 729 1514 796 1678 881 1739 899 1796
 912 1854 921 1920 925 1981 934 2024 930 9 { m25} R 390 1309 m 47 14 d 8 -14 d 4
 -7 d 42 X s 390 1309 437 1323 445 1309 449 1302 491 1302 5 { m30} R 597 967 m
 10 15 d 16 21 d 35 36 d 17 X 99 42 d 60 7 d s 597 967 607 982 623 1003 658 1039
 675 1039 774 1081 834 1088 7 { m30} R 944 761 m 11 7 d 49 64 d 173 36 d 105 28
 d 105 X s 944 761 955 768 1004 832 1177 868 1282 896 1347 896 1387 896 7 { m30
} R 1458 476 m 57 43 d 163 99 d 62 22 d 56 21 d 58 22 d 67 21 d 61 14 d 43 7 d s
 1458 476 1515 519 1678 618 1740 640 1796 661 1854 683 1921 704 1982 718 2025
 725 9 { m30} R 2268 1701 0 0 C
 /xs 0 def 
(Time  \040)
 /Helvetica     78 stwn 
(M)
 /Special     78 stwn 
(days)
 /Helvetica     78 stwn 
(N)
 /Special     78 stwn 
 gsave  2041 82
 t   0 r  xs neg 0 t 0 0 m
 /Helvetica findfont   78 sf 0    0 m 
(Time  \040)
 show 
 currentpoint pop 0 t 
 /Special findfont   78 sf 0    0 m 
(M)
 show 
 currentpoint pop 0 t 
 /Helvetica findfont   78 sf 0    0 m 
(days)
 show 
 currentpoint pop 0 t 
 /Special findfont   78 sf 0    0 m 
(N)
 show 
 gr
 /xs 0 def 
(Relative Light Output\(%\))
 /Helvetica     78 stwn 
 gsave  57 1418
 t  90 r  xs neg 0 t 0 0 m
 /Helvetica findfont   78 sf 0    0 m 
(Relative Light Output\(%\))
 show 
 gr
 1757 1191 284 227 C 2268 1701 0 0 C 1757 1191 284 227 C 2268 1701 0 0 C
 gsave  765 508
 t   0 r 0 0 m
 /Helvetica findfont   59 sf 0    0 m 
(Crismatec)
 show 
 gr
 1757 1191 284 227 C 2268 1701 0 0 C 1757 1191 284 227 C 2268 1701 0 0 C
 gsave  765 439
 t   0 r 0 0 m
 /Helvetica findfont   70 sf 0    0 m 
(NOV)
 show 
 gr
 1757 1191 284 227 C 2268 1701 0 0 C 1757 1191 284 227 C 2268 1701 0 0 C
 gsave  765 374
 t   0 r 0 0 m
 /Helvetica findfont   70 sf 0    0 m 
(SIC)
 show 
 gr
 1757 1191 284 227 C 510 530 m 170 X s 510 530 680 530 2 { m20} R 510 465 m 170
 X s 510 465 680 465 2 { m25} R 510 400 m 170 X s 510 400 680 400 2 { m30} R 618
 -192 431 562 bl 537 -856 m 1191 Y s 537 595 m 823 Y s 885 -856 m 1191 Y s 885
 595 m 823 Y s 1396 -856 m 2274 Y s 2268 1701 0 0 C 1757 1191 284 227 C 2268
 1701 0 0 C
 gsave  340 876
 t   0 r 0 0 m
 /Helvetica findfont   70 sf 0    0 m 
(0rad)
 show 
 gr
 1757 1191 284 227 C 2268 1701 0 0 C 1757 1191 284 227 C 2268 1701 0 0 C
 gsave  567 768
 t   0 r 0 0 m
 /Helvetica findfont   70 sf 0    0 m 
(10rad)
 show 
 gr
 1757 1191 284 227 C 2268 1701 0 0 C 1757 1191 284 227 C 2268 1701 0 0 C
 gsave  964 660
 t   0 r 0 0 m
 /Helvetica findfont   70 sf 0    0 m 
(100rad)
 show 
 gr
 1757 1191 284 227 C 2268 1701 0 0 C 1757 1191 284 227 C 2268 1701 0 0 C
 gsave  1531 335
 t   0 r 0 0 m
 /Helvetica findfont   70 sf 0    0 m 
(1krad)
 show 
 gr
 1757 1191 284 227 C
gr gr showpage
end
%%EOF
