%!PS-Adobe-2.0 EPSF-2.0
%%BoundingBox: 0 0 567 283
%%Title: degrvstheta.eps
%%Creator: HIGZ Version 1.23/07
%%CreationDate: :0/08/21   08.52
%%EndComments
%%BeginProlog
80 dict begin
/s {stroke} def /l {lineto} def /m {moveto} def /t {translate} def
/sw {stringwidth} def /r {rotate} def /rl {roll}  def /R {repeat} def
/d {rlineto} def /rm {rmoveto} def /gr {grestore} def /f {eofill} def
/c {setrgbcolor} def /lw {setlinewidth} def /sd {setdash} def
/cl {closepath} def /sf {scalefont setfont} def /black {0 setgray} def
/box {m dup 0 exch d exch 0 d 0 exch neg d cl} def
/NC{systemdict begin initclip end}def/C{NC box clip newpath}def
/bl {box s} def /bf {box f} def /Y { 0 exch d} def /X { 0 d} def 
/mp {newpath /y exch def /x exch def} def
/side {[w .77 mul w .23 mul] .385 w mul sd w 0 l currentpoint t -144 r} def
/mr {mp x y w2 0 360 arc} def /m24 {mr s} def /m20 {mr f} def
/mb {mp x y w2 add m w2 neg 0 d 0 w neg d w 0 d 0 w d cl} def
/mt {mp x y w2 add m w2 neg w neg d w 0 d cl} def
/m21 {mb f} def /m25 {mb s} def /m22 {mt f} def /m26 {mt s} def
/m23 {mp x y w2 sub m w2 w d w neg 0 d cl f} def
/m27 {mp x y w2 add m w3 neg w2 neg d w3 w2 neg d w3  w2 d cl s} def
/m28 {mp x w2 sub y w2 sub w3 add m w3 0 d 0 w3 neg d w3 0 d 0 w3 d w3 0 d
 0 w3 d w3 neg 0 d 0 w3 d w3 neg 0 d
 0 w3 neg d w3 neg 0 d cl s } def
/m29 {mp gsave x w2 sub y w2 add w3 sub m currentpoint t
 4 {side} repeat cl fill gr} def
/m30 {mp gsave x w2 sub y w2 add w3 sub m currentpoint t
 5 {side} repeat s gr} def
/m31 {mp x y w2 sub m 0 w d x w2 sub y m w 0 d
 x w2 sub y w2 add m w w neg d x w2 sub y w2
 sub m w w d s} def
/m2 {mp x y w2 sub m 0 w d x w2 sub y m w 0 d s} def
/m5 {mp x w2 sub y w2 sub m w w d x w2 sub y w2 add m w w neg d s} def
/DP {/PT exch def gsave 47.2 47.2 scale PT 1  eq { 16 16 1 [ 16 0 0 16 neg 0 16
] { < AA AA 55 55 AA AA 55 55 AA AA 55 55 AA AA 55 55 AA AA 55 55 AA AA 55 55
AA AA 55 55 AA AA 55 55 > } image } if PT 2 eq { 16 16 1 [ 16 0 0 16 neg 0 16
] { < BB BB EE EE BB BB EE EE BB BB EE EE BB BB EE EE BB BB EE EE BB BB EE EE
BB BB EE EE BB BB EE EE > } image } if PT 3 eq { 16 16 1 [ 16 0 0 16 neg 0 16
] { < FF FF BB BB FF FF EE EE FF FF BB BB FF FF EE EE FF FF BB BB FF FF EE EE
FF FF BB BB FF FF EE EE > } image } if PT 4 eq { 16 16 1 [ 16 0 0 16 neg 0 16
] { < DF DF BF BF 7F 7F FE FE FD FD FB FB F7 F7 EF EF DF DF BF BF 7F 7F FE FE
FD FD FB FB F7 F7 EF EF > } image } if PT 5 eq { 16 16 1 [ 16 0 0 16 neg 0 16
] { < 7F 7F BF B F DF DF EF EF F7 F7 FB FB FD FD FE FE 7F 7F BF BF DF DF EF
EF F7 F7 FB FB FD FD FE FE > } image } if PT 6 eq { 16 16 1 [ 16 0 0 16 neg 0
16 ] { < BB BB BB BB BB BB BB BB BB BB BB BB BB BB BB BB BB BB BB BB BB BB BB
BB BB BB BB BB BB BB BB BB > } image } if PT 7 eq { 16 16 1 [ 16 0 0 16 neg 0
16 ] { < FF FF FF FF FF FF 00 00 FF FF FF FF FF FF 00 00 FF FF FF FF FF FF 00
00 FF FF FF FF FF FF 00 00 > } image } if PT 8 eq { 16 16 1 [ 16 0 0 16 neg 0
16 ] { < EE EE 47 47 83 83 C5 C5 EE EE 5C 5C 38 38 74 74 EE EE 47 47 83 83 C5
C5 EE EE 5C 5C 38 38 74 74 > } image } if PT 9 eq { 16 16 1 [ 16 0 0 16 neg 0
16 ] { < EF EF EF EF D7 D7 38 38 FE FE FE FE 7D 7D 83 83 EF EF EF EF D7 D7 38
38  FE FE FE FE 7D 7D 83 83 > } image } if PT 10 eq { 16 16 1 [ 16 0 0 16 neg
0 16 ] { <  EF EF EF EF EF EF 00 00 FE FE FE FE FE FE 00 00 EF EF EF EF EF EF
00 00 FE FE FE FE FE FE 00 00 > } image } if PT 11 eq { 16 16 1 [ 16 0 0 16
neg 0 16 ] { < F7 F7 B6 B6 D5 D5 E3 E3 D5 D5 B6 B6 F7 F7 FF FF 7F 7F 6B 6B 5D
5D 3E 3E 5D 5D 6B 6B 7F 7F FF FF > } image } if PT 12 eq { 16 16 1 [ 16 0 0
16 neg 0 16 ] { < E3 E3 DD DD BE BE BE BE BE BE DD DD E3 E3 FF FF 3E 3E DD DD
EB EB EB EB EB EB DD DD 3E 3E FF FF > } image } if PT 13 eq { 16 16 1 [ 16 0
0 16 neg 0 16 ] { <  FE FE 7D 7D BB BB D7 D7 EF EF D7 D7 BB BB 7D 7D FE FE 7D
7D BB BB D7 D7 EF EF D7 D7 BB BB 7D 7D > } image } if PT 14 eq { 16 16 1 [ 16
0 0 16 neg 0 16 ] { < 00 00 EE EF EE EF EE EF 0E E0 EE EE EE EE EE EE 00 EE
FE EE FE EE FE EE 00 00 FE EF FE EF FE EF > } image } if PT 15 eq { 16 16 1 [
16 0 0 16 neg 0 16 ] { < DD DD AA AA DD DD FF FF 77 77 AA AA 77 77 FF FF DD
DD AA AA DD DD FF FF 77 77 AA AA 77 77 FF FF > } image } if PT 16 eq { 16 16
1 [ 16 0 0 16 neg 0 16 ] { <  F1 F1 EE EE 1F 1F FF FF F1 F1 EE EE 1F 1F FF FF
F1 F1 EE EE 1F 1F FF FF F1 F1 EE EE 1F 1F FF FF > } image } if PT 17 eq { 16
16 1 [ 16 0 0 16 neg 0 16 ] { <  EE EE DD DD BB BB FF FF EE EE DD DD BB BB FF
 FF EE EE DD DD BB BB FF FF EE EE DD DD BB BB FF FF > } image } if PT 18 eq {
16 16 1 [ 16 0 0 16 neg 0 16 ] { <  BB BB DD DD EE EE FF FF BB BB DD DD EE EE
FF FF BB BB DD DD EE EE FF FF BB BB DD DD EE EE FF FF > } image } if PT 19 eq
{ 16 16 1 [ 16 0 0 16 neg 0 16 ] { < 1F FC 67 F3 7B EF BD DE BD DE DE BD E6
B3 F8 0F E6 B3 DE BD BD DE BD DE 7B EF 67 F3 1F FC 7F FF > } image } if PT
20 eq { 16 16 1 [ 16 0 0 16 neg 0 16 ] { < DD DD EE EE EE EE EE EE DD DD BB
BB BB BB BB BB DD DD EE EE EE EE EE EE DD DD BB BB BB BB BB BB > } image }
if PT 21 eq { 16 16 1 [ 16 0 0 16 neg 0 16 ] { < 0E 0E EF EF EF EF EF EF E0
E0 FE FE FE FE FE FE 0E 0E EF EF EF EF EF EF E0 E0 FE FE FE FE FE FE > }
image }  if PT 22 eq { 16 16 1 [ 16 0 0 16 neg 0 16 ] { < 70 70 F7 F7 F7 F7 F7
F7 07 07 7F 7F 7F 7F 7F 7F 70 70 F7 F7 F7 F7 F7 F7 07 07 7F 7F 7F 7F 7F 7F >
} image } if PT 23 eq  { 16 16 1 [ 16 0 0 16 neg 0 16 ] { < AA AA 55 55 A9 A9
D1 D1 E1 E1 D1 D1 A9 A9 55 55 AA AA 55 55 A9 A9 D1 D1 E1 E1 D1 D1 A9 A9 55 55
> } image } if PT 24 eq { 16 16 1 [ 16 0 0 16 neg 0 16 ] { < FF FE FF FC EA
A8 D5 54 EA A8 D5 54 E8 28 D4 54 E8 E8 D4 D4 E8 EA 54 D5 A8 EA 54 D5 00 C0 00
80 > } image } if PT 25 eq {  16 16 1 [ 16 0 0 16 neg 0 16 ] { < FF FE FF FC
FF F8 FF F0 F0 00 F0 00 F0 20 F0 60 F0 E0 F1 E0 F3 E0 F0 00 E0 00 C0 00 80 00
00 00 > } image } if gr } def /FA { /PT exch def gsave clip 0 0 translate 1 1
54 { 1 sub 47.2 mul /Xcurr exch def 1 1 74 { 1 sub 47.2 mul /Ycurr exch def
gsave Xcurr Ycurr translate PT DP gr } for } for gr newpath } def
/reencdict 24 dict def /ReEncode {reencdict begin /nco&na exch def
/nfnam exch def /basefontname exch def /basefontdict basefontname findfont def
/newfont basefontdict maxlength dict def basefontdict {exch dup /FID ne
{dup /Encoding eq {exch dup length array copy newfont 3 1 roll put} {exch
newfont 3 1 roll put} ifelse} {pop pop} ifelse } forall newfont
/FontName nfnam put nco&na aload pop nco&na length 2 idiv {newfont
/Encoding get 3 1 roll put} repeat nfnam newfont definefont pop end } def
/accvec [ 176 /agrave 181 /Agrave 190 /acircumflex 192 /Acircumflex
201 /adieresis 204 /Adieresis 209 /ccedilla 210 /Ccedilla 211 /eacute
212 /Eacute 213 /egrave 214 /Egrave 215 /ecircumflex 216 /Ecircumflex
217 /edieresis 218 /Edieresis 219 /icircumflex 220 /Icircumflex
221 /idieresis 222 /Idieresis 223 /ntilde 224 /Ntilde 226 /ocircumflex
228 /Ocircumflex 229 /odieresis 230 /Odieresis 231 /ucircumflex 236 /Ucircumflex
237 /udieresis 238 /Udieresis 239 /aring 242 /Aring 243 /ydieresis
244 /Ydieresis 246 /aacute 247 /Aacute 252 /ugrave 253 /Ugrave] def
/Times-Roman /Times-Roman accvec ReEncode
/Times-Italic /Times-Italic accvec ReEncode
/Times-Bold /Times-Bold accvec ReEncode
/Times-BoldItalic /Times-BoldItalic accvec ReEncode
/Helvetica /Helvetica accvec ReEncode
/Helvetica-Oblique /Helvetica-Oblique accvec ReEncode
/Helvetica-Bold /Helvetica-Bold accvec ReEncode
/Helvetica-BoldOblique /Helvetica-BoldOblique  accvec ReEncode
/Courier /Courier accvec ReEncode
/Courier-Oblique /Courier-Oblique accvec ReEncode
/Courier-Bold /Courier-Bold accvec ReEncode
/Courier-BoldOblique /Courier-BoldOblique accvec ReEncode
/oshow {gsave [] 0 sd true charpath stroke gr} def
/stwn { /fs exch def /fn exch def /text exch def fn findfont fs sf
 text sw pop xs add /xs exch def} def
/stwb { /fs exch def /fn exch def /nbas exch def /textf exch def
textf length /tlen exch def nbas tlen gt {/nbas tlen def} if
fn findfont fs sf textf dup length nbas sub nbas getinterval sw
pop neg xs add /xs exch def} def
/accspe [ 65 /plusminus 66 /bar 67 /existential 68 /universal
69 /exclam 70 /numbersign 71 /greater 72 /question 73 /integral
74 /colon 75 /semicolon 76 /less 77 /bracketleft 78 /bracketright
79 /greaterequal 80 /braceleft 81 /braceright 82 /radical
83 /spade 84 /heart 85 /diamond 86 /club 87 /lessequal
88 /multiply 89 /percent 90 /infinity 48 /circlemultiply 49 /circleplus
50 /emptyset 51 /lozenge 52 /bullet 53 /arrowright 54 /arrowup
55 /arrowleft 56 /arrowdown 57 /arrowboth 48 /degree 44 /comma 43 /plus
 45 /angle 42 /angleleft 47 /divide 61 /notequal 40 /equivalence 41 /second
 97 /approxequal 98 /congruent 99 /perpendicular 100 /partialdiff 101 /florin
 102 /intersection 103 /union 104 /propersuperset 105 /reflexsuperset
 106 /notsubset 107 /propersubset 108 /reflexsubset 109 /element 110 /notelement
 111 /gradient 112 /logicaland 113 /logicalor 114 /arrowdblboth
 115 /arrowdblleft 116 /arrowdblup 117 /arrowdblright 118 /arrowdbldown
 119 /ampersand 120 /omega1 121 /similar 122 /aleph ] def
/Symbol /Special accspe ReEncode
%%EndProlog
 gsave  .25 .25 scale  gsave 0 0 t black [] 0 sd 1 lw 3 lw 0 0 1 c 1814 680 227
 227 bl 1814 680 227 227 C NC 1 lw 227 227 m 680 Y s 261 227 m -34 X s
 [4 8] 0 sd 2041 227 m -1814 X s [] 0 sd 244 249 m -17 X s 244 272 m -17 X s 244
 295 m -17 X s 244 318 m -17 X s 261 340 m -34 X s [4 8] 0 sd 2041 340 m -1814 X
 s [] 0 sd 244 363 m -17 X s 244 386 m -17 X s 244 408 m -17 X s 244 431 m -17 X
 s 261 454 m -34 X s [4 8] 0 sd 2041 454 m -1814 X s [] 0 sd 244 476 m -17 X s
 244 499 m -17 X s 244 522 m -17 X s 244 544 m -17 X s 261 567 m -34 X s
 [4 8] 0 sd 2041 567 m -1814 X s [] 0 sd 244 590 m -17 X s 244 612 m -17 X s 244
 635 m -17 X s 244 658 m -17 X s 261 680 m -34 X s [4 8] 0 sd 2041 680 m -1814 X
 s [] 0 sd 244 703 m -17 X s 244 726 m -17 X s 244 748 m -17 X s 244 771 m -17 X
 s 261 794 m -34 X s [4 8] 0 sd 2041 794 m -1814 X s [] 0 sd 244 816 m -17 X s
 244 839 m -17 X s 244 862 m -17 X s 244 885 m -17 X s 261 907 m -34 X s
 [4 8] 0 sd 2041 907 m -1814 X s
 /xs 0 def 
(0)
 /Times-Italic     52 stwn 
 gsave  193 210
 t   0 r  xs neg 0 t 0 0 m
 /Times-Italic findfont   52 sf 0    0 m 
(0)
 show 
 gr 
 /xs 0 def 
(0.5)
 /Times-Italic     52 stwn 
 gsave  193 323
 t   0 r  xs neg 0 t 0 0 m
 /Times-Italic findfont   52 sf 0    0 m 
(0.5)
 show 
 gr 
 /xs 0 def 
(1)
 /Times-Italic     52 stwn 
 gsave  193 437
 t   0 r  xs neg 0 t 0 0 m
 /Times-Italic findfont   52 sf 0    0 m 
(1)
 show 
 gr 
 /xs 0 def 
(1.5)
 /Times-Italic     52 stwn 
 gsave  193 550
 t   0 r  xs neg 0 t 0 0 m
 /Times-Italic findfont   52 sf 0    0 m 
(1.5)
 show 
 gr 
 /xs 0 def 
(2)
 /Times-Italic     52 stwn 
 gsave  193 663
 t   0 r  xs neg 0 t 0 0 m
 /Times-Italic findfont   52 sf 0    0 m 
(2)
 show 
 gr 
 /xs 0 def 
(2.5)
 /Times-Italic     52 stwn 
 gsave  193 777
 t   0 r  xs neg 0 t 0 0 m
 /Times-Italic findfont   52 sf 0    0 m 
(2.5)
 show 
 gr 
 /xs 0 def 
(3)
 /Times-Italic     52 stwn 
 gsave  193 890
 t   0 r  xs neg 0 t 0 0 m
 /Times-Italic findfont   52 sf 0    0 m 
(3)
 show 
 gr  [] 0 sd 227 227 m 1814 X s 227 261 m -34 Y s [4 8] 0 sd 227 907 m -680 Y s
 [] 0 sd 279 244 m -17 Y s 330 244 m -17 Y s 382 244 m -17 Y s 434 244 m -17 Y s
 486 261 m -34 Y s [4 8] 0 sd 486 907 m -680 Y s [] 0 sd 538 244 m -17 Y s 590
 244 m -17 Y s 642 244 m -17 Y s 693 244 m -17 Y s 745 261 m -34 Y s [4 8] 0 sd
 745 907 m -680 Y s [] 0 sd 797 244 m -17 Y s 849 244 m -17 Y s 901 244 m -17 Y
 s 953 244 m -17 Y s 1004 261 m -34 Y s [4 8] 0 sd 1004 907 m -680 Y s [] 0 sd
 1056 244 m -17 Y s 1108 244 m -17 Y s 1160 244 m -17 Y s 1212 244 m -17 Y s
 1264 261 m -34 Y s [4 8] 0 sd 1264 907 m -680 Y s [] 0 sd 1315 244 m -17 Y s
 1367 244 m -17 Y s 1419 244 m -17 Y s 1471 244 m -17 Y s 1523 261 m -34 Y s
 [4 8] 0 sd 1523 907 m -680 Y s [] 0 sd 1575 244 m -17 Y s 1626 244 m -17 Y s
 1678 244 m -17 Y s 1730 244 m -17 Y s 1782 261 m -34 Y s [4 8] 0 sd 1782 907 m
 -680 Y s [] 0 sd 1834 244 m -17 Y s 1886 244 m -17 Y s 1938 244 m -17 Y s 1989
 244 m -17 Y s 2041 261 m -34 Y s [4 8] 0 sd 2041 907 m -680 Y s
 /xs 0 def 
(0)
 /Times-Italic     52 stwn 
 gsave  227 170
 t   0 r  xs 2 div neg 0 t 0 0 m
 /Times-Italic findfont   52 sf 0    0 m 
(0)
 show 
 gr 
 /xs 0 def 
(10)
 /Times-Italic     52 stwn 
 gsave  486 170
 t   0 r  xs 2 div neg 0 t 0 0 m
 /Times-Italic findfont   52 sf 0    0 m 
(10)
 show 
 gr 
 /xs 0 def 
(20)
 /Times-Italic     52 stwn 
 gsave  745 170
 t   0 r  xs 2 div neg 0 t 0 0 m
 /Times-Italic findfont   52 sf 0    0 m 
(20)
 show 
 gr 
 /xs 0 def 
(30)
 /Times-Italic     52 stwn 
 gsave  1004 170
 t   0 r  xs 2 div neg 0 t 0 0 m
 /Times-Italic findfont   52 sf 0    0 m 
(30)
 show 
 gr 
 /xs 0 def 
(40)
 /Times-Italic     52 stwn 
 gsave  1264 170
 t   0 r  xs 2 div neg 0 t 0 0 m
 /Times-Italic findfont   52 sf 0    0 m 
(40)
 show 
 gr 
 /xs 0 def 
(50)
 /Times-Italic     52 stwn 
 gsave  1523 170
 t   0 r  xs 2 div neg 0 t 0 0 m
 /Times-Italic findfont   52 sf 0    0 m 
(50)
 show 
 gr 
 /xs 0 def 
(60)
 /Times-Italic     52 stwn 
 gsave  1782 170
 t   0 r  xs 2 div neg 0 t 0 0 m
 /Times-Italic findfont   52 sf 0    0 m 
(60)
 show 
 gr 
 /xs 0 def 
(70)
 /Times-Italic     52 stwn 
 gsave  2041 170
 t   0 r  xs 2 div neg 0 t 0 0 m
 /Times-Italic findfont   52 sf 0    0 m 
(70)
 show 
 gr  1814 680 227 227 C [] 0 sd 3 lw 1 0 0 c 253 596 m 33 Y s 253 646 m 32 Y s
 244 596 m 17 X s 244 678 m 17 X s black /w 17
 def /w2 {w 2 div} def /w3 {w 3 div} def 253 637 m20 1 0 0 c 279 727 m 29 Y s
 279 773 m 28 Y s 270 727 m 17 X s 270 801 m 17 X s black 279 764 m20 1 0 0 c
 305 584 m 29 Y s 305 630 m 29 Y s 296 584 m 17 X s 296 659 m 17 X s black 305
 621 m20 1 0 0 c 330 531 m 27 Y s 330 575 m 27 Y s 322 531 m 17 X s 322 602 m 17
 X s black 330 567 m20 1 0 0 c 356 681 m 28 Y s 356 726 m 28 Y s 348 681 m 17 X
 s 348 754 m 17 X s black 356 718 m20 1 0 0 c 382 578 m 24 Y s 382 619 m 24 Y s
 374 578 m 17 X s 374 643 m 17 X s black 382 610 m20 1 0 0 c 408 518 m 25 Y s
 408 560 m 25 Y s 400 518 m 17 X s 400 585 m 17 X s black 408 551 m20 1 0 0 c
 434 502 m 22 Y s 434 541 m 22 Y s 426 502 m 17 X s 426 563 m 17 X s black 434
 533 m20 1 0 0 c 460 446 m 23 Y s 460 486 m 22 Y s 452 446 m 17 X s 452 508 m 17
 X s black 460 477 m20 1 0 0 c 486 430 m 20 Y s 486 467 m 20 Y s 477 430 m 18 X
 s 477 487 m 18 X s black 486 459 m20 1 0 0 c 512 367 m 23 Y s 512 407 m 22 Y s
 503 367 m 17 X s 503 429 m 17 X s black 512 398 m20 1 0 0 c 538 388 m 20 Y s
 538 425 m 20 Y s 529 388 m 17 X s 529 445 m 17 X s black 538 417 m20 1 0 0 c
 564 428 m 23 Y s 564 468 m 23 Y s 555 428 m 17 X s 555 491 m 17 X s black 564
 460 m20 1 0 0 c 590 291 m 22 Y s 590 330 m 22 Y s 581 291 m 17 X s 581 352 m 17
 X s black 590 322 m20 1 0 0 c 616 354 m 22 Y s 616 393 m 22 Y s 607 354 m 17 X
 s 607 415 m 17 X s black 616 385 m20 1 0 0 c 642 335 m 21 Y s 642 373 m 22 Y s
 633 335 m 17 X s 633 395 m 17 X s black 642 365 m20 1 0 0 c 667 402 m 22 Y s
 667 441 m 22 Y s 659 402 m 17 X s 659 463 m 17 X s black 667 433 m20 1 0 0 c
 693 438 m 21 Y s 693 476 m 21 Y s 685 438 m 17 X s 685 497 m 17 X s black 693
 467 m20 1 0 0 c 719 485 m 21 Y s 719 523 m 22 Y s 711 485 m 17 X s 711 545 m 17
 X s black 719 515 m20 1 0 0 c 745 480 m 20 Y s 745 517 m 21 Y s 737 480 m 17 X
 s 737 538 m 17 X s black 745 509 m20 1 0 0 c 771 512 m 20 Y s 771 549 m 21 Y s
 763 512 m 17 X s 763 570 m 17 X s black 771 541 m20 1 0 0 c 797 447 m 20 Y s
 797 484 m 20 Y s 789 447 m 17 X s 789 504 m 17 X s black 797 476 m20 1 0 0 c
 823 421 m 20 Y s 823 458 m 21 Y s 814 421 m 17 X s 814 479 m 17 X s black 823
 450 m20 1 0 0 c 849 366 m 21 Y s 849 404 m 21 Y s 840 366 m 17 X s 840 425 m 17
 X s black 849 396 m20 1 0 0 c 875 499 m 21 Y s 875 537 m 20 Y s 866 499 m 17 X
 s 866 557 m 17 X s black 875 528 m20 1 0 0 c 901 339 m 29 Y s 901 385 m 29 Y s
 892 339 m 17 X s 892 414 m 17 X s black 901 376 m20 1 0 0 c 927 411 m 20 Y s
 927 448 m 20 Y s 918 411 m 17 X s 918 468 m 17 X s black 927 439 m20 1 0 0 c
 953 454 m 20 Y s 953 491 m 20 Y s 944 454 m 17 X s 944 511 m 17 X s black 953
 483 m20 1 0 0 c 978 376 m 20 Y s 978 413 m 20 Y s 970 376 m 17 X s 970 433 m 17
 X s black 978 404 m20 1 0 0 c 1004 417 m 20 Y s 1004 454 m 20 Y s 996 417 m 17
 X s 996 474 m 17 X s black 1004 446 m20 1 0 0 c 1030 302 m 20 Y s 1030 339 m 20
 Y s 1022 302 m 17 X s 1022 359 m 17 X s black 1030 331 m20 1 0 0 c 1056 345 m
 21 Y s 1056 383 m 21 Y s 1048 345 m 17 X s 1048 404 m 17 X s black 1056 374 m20
 1 0 0 c 1082 445 m 20 Y s 1082 482 m 20 Y s 1074 445 m 17 X s 1074 502 m 17 X s
 black 1082 474 m20 1 0 0 c 1108 456 m 19 Y s 1108 492 m 20 Y s 1100 456 m 17 X
 s 1100 512 m 17 X s black 1108 484 m20 1 0 0 c 1134 433 m 19 Y s 1134 469 m 19
 Y s 1125 433 m 18 X s 1125 488 m 18 X s black 1134 461 m20 1 0 0 c 1160 500 m
 20 Y s 1160 537 m 19 Y s 1151 500 m 17 X s 1151 556 m 17 X s black 1160 528 m20
 1 0 0 c 1186 568 m 20 Y s 1186 605 m 20 Y s 1177 568 m 17 X s 1177 625 m 17 X s
 black 1186 596 m20 1 0 0 c 1212 446 m 20 Y s 1212 483 m 20 Y s 1203 446 m 17 X
 s 1203 503 m 17 X s black 1212 474 m20 1 0 0 c 1238 437 m 20 Y s 1238 474 m 20
 Y s 1229 437 m 17 X s 1229 494 m 17 X s black 1238 466 m20 1 0 0 c 1264 361 m
 20 Y s 1264 398 m 19 Y s 1255 361 m 17 X s 1255 417 m 17 X s black 1264 389 m20
 1 0 0 c 1290 331 m 20 Y s 1290 368 m 19 Y s 1281 331 m 17 X s 1281 387 m 17 X s
 black 1290 359 m20 1 0 0 c 1315 394 m 23 Y s 1315 434 m 22 Y s 1307 394 m 17 X
 s 1307 456 m 17 X s black 1315 425 m20 1 0 0 c 1341 325 m 23 Y s 1341 365 m 23
 Y s 1333 325 m 17 X s 1333 388 m 17 X s black 1341 357 m20 1 0 0 c 1367 448 m
 20 Y s 1367 485 m 20 Y s 1359 448 m 17 X s 1359 505 m 17 X s black 1367 476 m20
 1 0 0 c 1393 429 m 20 Y s 1393 466 m 20 Y s 1385 429 m 17 X s 1385 486 m 17 X s
 black 1393 457 m20 1 0 0 c 1419 300 m 21 Y s 1419 338 m 21 Y s 1411 300 m 17 X
 s 1411 359 m 17 X s black 1419 329 m20 1 0 0 c 1445 332 m 21 Y s 1445 370 m 21
 Y s 1437 332 m 17 X s 1437 391 m 17 X s black 1445 362 m20 1 0 0 c 1471 644 m
 20 Y s 1471 681 m 20 Y s 1462 644 m 17 X s 1462 701 m 17 X s black 1471 672 m20
 1 0 0 c 1497 450 m 20 Y s 1497 487 m 21 Y s 1488 450 m 17 X s 1488 508 m 17 X s
 black 1497 479 m20 1 0 0 c 1523 381 m 20 Y s 1523 418 m 20 Y s 1514 381 m 17 X
 s 1514 438 m 17 X s black 1523 410 m20 1 0 0 c 1549 332 m 21 Y s 1549 370 m 21
 Y s 1540 332 m 17 X s 1540 391 m 17 X s black 1549 361 m20 1 0 0 c 1575 311 m
 21 Y s 1575 349 m 21 Y s 1566 311 m 17 X s 1566 370 m 17 X s black 1575 341 m20
 1 0 0 c 1601 362 m 21 Y s 1601 400 m 20 Y s 1592 362 m 17 X s 1592 420 m 17 X s
 black 1601 391 m20 1 0 0 c 1626 406 m 20 Y s 1626 443 m 21 Y s 1618 406 m 17 X
 s 1618 464 m 17 X s black 1626 435 m20 1 0 0 c 1652 303 m 21 Y s 1652 341 m 22
 Y s 1644 303 m 17 X s 1644 363 m 17 X s black 1652 333 m20 1 0 0 c 1678 312 m
 20 Y s 1678 349 m 21 Y s 1670 312 m 17 X s 1670 370 m 17 X s black 1678 341 m20
 1 0 0 c 1704 379 m 21 Y s 1704 417 m 21 Y s 1696 379 m 17 X s 1696 438 m 17 X s
 black 1704 409 m20 1 0 0 c 1730 343 m 21 Y s 1730 381 m 20 Y s 1722 343 m 17 X
 s 1722 401 m 17 X s black 1730 372 m20 1 0 0 c 1756 408 m 22 Y s 1756 447 m 22
 Y s 1748 408 m 17 X s 1748 469 m 17 X s black 1756 439 m20 1 0 0 c 1782 449 m
 11 Y s 1782 477 m 11 Y s 1773 449 m 18 X s 1773 488 m 18 X s black 1782 468 m20
 1 0 0 c 1808 292 m 23 Y s 1808 332 m 24 Y s 1799 292 m 17 X s 1799 356 m 17 X s
 black 1808 324 m20 1 0 0 c 1834 449 m 25 Y s 1834 491 m 26 Y s 1825 449 m 17 X
 s 1825 517 m 17 X s black 1834 483 m20 1 0 0 c 1860 504 m 24 Y s 1860 545 m 24
 Y s 1851 504 m 17 X s 1851 569 m 17 X s black 1860 536 m20 1 0 0 c 1886 439 m
 26 Y s 1886 482 m 25 Y s 1877 439 m 17 X s 1877 507 m 17 X s black 1886 473 m20
 1 0 0 c 1912 555 m 28 Y s 1912 600 m 27 Y s 1903 555 m 17 X s 1903 627 m 17 X s
 black 1912 591 m20 1 0 0 c 1938 525 m 28 Y s 1938 570 m 29 Y s 1929 525 m 17 X
 s 1929 599 m 17 X s black 1938 562 m20 1 0 0 c 1963 594 m 33 Y s 1963 644 m 33
 Y s 1955 594 m 17 X s 1955 677 m 17 X s black 1963 636 m20 1 0 0 c 1989 585 m
 33 Y s 1989 635 m 32 Y s 1981 585 m 17 X s 1981 667 m 17 X s black 1989 626 m20
 1 0 0 c 2015 719 m 34 Y s 2015 770 m 34 Y s 2007 719 m 17 X s 2007 804 m 17 X s
 black 2015 761 m20 2268 1134 0 0 C 1 lw 1996 119 m -3 -2 d -3 -3 d -2 -3 d -1
 -5 d -8 Y 1 -5 d 2 -3 d 3 -4 d 3 -1 d 7 X 3 1 d 3 4 d 2 3 d 2 5 d 8 Y -2 5 d -2
 3 d -3 3 d -3 2 d -7 X cl s 1997 119 m -3 -1 d -3 -3 d -2 -4 d -2 -5 d -8 Y 2
 -5 d 2 -3 d 3 -3 d 3 -2 d 6 X 4 2 d 3 3 d 2 3 d 1 5 d 8 Y -1 5 d -2 4 d -3 3 d
 -4 1 d -6 X cl s 1996 118 m -3 -1 d -4 -3 d -1 -4 d -2 -5 d -8 Y 2 -5 d 1 -3 d
 4 -3 d 3 -2 d 6 X 4 2 d 3 3 d 2 3 d 1 5 d 8 Y -1 5 d -2 4 d -3 3 d -4 1 d -6 X
 cl s 1997 120 m -3 -2 d -3 -3 d -2 -3 d -1 -5 d -8 Y 1 -5 d 2 -3 d 3 -4 d 3 -1
 d 7 X 3 1 d 3 4 d 2 3 d 2 5 d 8 Y -2 5 d -2 3 d -3 3 d -3 2 d -7 X cl s 1996
 118 m -4 -2 d -3 -3 d -1 -3 d -2 -5 d -8 Y 2 -5 d 1 -3 d 3 -3 d 4 -2 d 6 X 3 2
 d 4 3 d 1 3 d 2 5 d 8 Y -2 5 d -1 3 d -4 3 d -3 2 d -6 X cl s 1998 120 m -4 -2
 d -3 -3 d -1 -3 d -2 -5 d -8 Y 2 -5 d 1 -3 d 3 -3 d 4 -2 d 6 X 3 2 d 4 3 d 1 3
 d 2 5 d 8 Y -2 5 d -1 3 d -4 3 d -3 2 d -6 X cl s 1995 118 m -3 -2 d -3 -3 d -2
 -3 d -1 -5 d -8 Y 1 -5 d 2 -3 d 3 -4 d 3 -1 d 7 X 3 1 d 3 4 d 2 3 d 1 5 d 8 Y
 -1 5 d -2 3 d -3 3 d -3 2 d -7 X cl s 1998 120 m -3 -1 d -3 -3 d -2 -4 d -2 -5
 d -8 Y 2 -4 d 2 -4 d 3 -3 d 3 -2 d 6 X 4 2 d 3 3 d 2 4 d 1 4 d 8 Y -1 5 d -2 4
 d -3 3 d -4 1 d -6 X cl s 1995 103 m 9 X s 1995 103 m 10 X s 1994 102 m 10 X s
 1996 104 m 9 X s 1994 102 m 10 X s 1996 104 m 10 X s 1994 102 m 9 X s 1996 104
 m 10 X s 2021 93 m -17 Y s 2021 94 m -17 Y s 2020 93 m -17 Y s 2022 94 m -17 Y
 s 2020 93 m -17 Y s 2022 95 m -17 Y s 2020 92 m -17 Y s 2022 95 m -17 Y s 2027
 93 m -17 Y s 2028 94 m -17 Y s 2027 93 m -17 Y s 2028 94 m -17 Y s 2026 93 m
 -17 Y s 2028 95 m -17 Y s 2026 92 m -17 Y s 2029 95 m -17 Y s 2027 93 m 6 X 2
 -1 d 2 -1 d 1 -2 d -9 Y -1 -1 d -2 -2 d -2 -1 d -6 X s 2028 94 m 5 X 3 -1 d 1
 -2 d 1 -1 d 1 -3 d -4 Y -1 -2 d -1 -2 d -1 -1 d -3 -1 d -5 X s 2027 93 m 5 X 3
 -1 d 1 -2 d 1 -1 d 1 -3 d -4 Y -1 -2 d -1 -2 d -1 -1 d -3 -1 d -5 X s 2028 94 m
 6 X 2 -1 d 2 -1 d 1 -2 d -9 Y -1 -1 d -2 -2 d -2 -1 d -6 X s 2026 93 m 6 X 3 -1
 d 1 -2 d 1 -2 d 1 -2 d -4 Y -1 -2 d -1 -2 d -1 -2 d -9 X s 2028 95 m 6 X 3 -1 d
 1 -2 d 1 -1 d 1 -3 d -4 Y -1 -2 d -1 -2 d -1 -2 d -9 X s 2026 92 m 6 X 2 -1 d 2
 -1 d 1 -2 d -9 Y -1 -1 d -2 -2 d -2 -1 d -6 X s 2029 95 m 5 X 3 -1 d 2 -2 d -1
 Y 1 -3 d -4 Y -1 -2 d -2 Y -2 -1 d -3 -1 d -5 X s 56 802 m 34 -13 d s 57 802 m
 34 -12 d s 56 801 m 34 -12 d s 57 803 m 34 -13 d s 56 801 m 34 -13 d s 58 803 m
 34 -13 d s 55 801 m 34 -13 d s 58 804 m 34 -13 d s 56 802 m 34 13 d s 57 802 m
 34 13 d s 56 801 m 34 13 d s 57 803 m 34 13 d s 56 801 m 34 13 d s 58 803 m 34
 13 d s 55 801 m 34 13 d s 58 804 m 34 12 d s 90 789 m 26 Y s 91 790 m 25 Y s 90
 789 m 25 Y s 91 790 m 26 Y s 90 788 m 26 Y s 92 790 m 26 Y s 89 788 m 26 Y s 92
 791 m 25 Y s 89 826 m 1 -2 d -1 -1 d -2 1 d 2 2 d 3 X 3 -2 d 2 -1 d s 89 827 m
 2 -2 d -2 -1 d -1 1 d 1 2 d 4 X 3 -2 d 2 -1 d s 88 826 m 2 -2 d -2 -1 d -1 1 d
 1 2 d 4 X 3 -2 d 2 -1 d s 90 827 m 1 -1 d -1 -2 d -2 2 d 2 1 d 3 X 3 -1 d 2 -2
 d s 88 825 m 2 -1 d -2 -2 d -2 2 d 2 1 d 3 X 4 -1 d 1 -2 d s 90 827 m 2 -1 d -2
 -2 d -1 2 d 1 1 d 3 X 4 -1 d 1 -2 d s 88 825 m 1 -2 d -1 -1 d -2 1 d 2 2 d 3 X
 3 -2 d 2 -1 d s 90 828 m 2 -2 d -2 -1 d -1 1 d 1 2 d 4 X 3 -2 d 2 -1 d s 56 902
 m 34 -32 d s 57 902 m 34 -31 d s 56 901 m 34 -31 d s 57 903 m 34 -32 d s 56 901
 m 34 -31 d s 58 903 m 34 -31 d s 55 901 m 34 -32 d s 58 903 m 34 -31 d s 56 878
 m 3 3 d 5 X 3 -3 d -5 Y -3 -3 d -5 X -3 3 d 5 Y 3 11 d 7 Y -3 6 d s 57 879 m 3
 2 d 5 X 3 -2 d -5 Y -3 -3 d -5 X -3 3 d 5 Y 3 10 d 8 Y -3 5 d s 56 878 m 3 2 d
 5 X 2 -2 d -6 Y -2 -2 d -5 X -3 2 d 6 Y 3 10 d 8 Y -3 5 d s 57 879 m 3 3 d 5 X
 3 -3 d -5 Y -3 -3 d -5 X -3 3 d 5 Y 3 11 d 7 Y -3 6 d s 56 877 m 2 3 d 6 X 2 -3
 d -5 Y -2 -2 d -6 X -2 2 d 5 Y 2 11 d 8 Y -2 5 d s 58 879 m 2 3 d 6 X 2 -3 d -5
 Y -2 -2 d -6 X -2 2 d 5 Y 2 11 d 8 Y -2 5 d s 55 877 m 3 3 d 5 X 3 -3 d -5 Y -3
 -3 d -5 X -3 3 d 5 Y 3 11 d 7 Y -3 6 d s 58 880 m 3 2 d 5 X 3 -2 d -5 Y -3 -3 d
 -5 X -3 3 d 5 Y 3 10 d 8 Y -3 5 d s 80 894 m 3 -3 d 5 X 2 3 d 5 Y -2 3 d -5 X
 -3 -3 d -5 Y cl s 81 894 m 2 -2 d 5 X 3 2 d 6 Y -3 2 d -5 X -2 -2 d -6 Y cl s
 80 893 m 2 -2 d 5 X 3 2 d 6 Y -3 2 d -5 X -2 -2 d -6 Y cl s 81 895 m 3 -3 d 5 X
 2 3 d 5 Y -2 3 d -5 X -3 -3 d -5 Y cl s 79 893 m 3 -3 d 5 X 3 3 d 5 Y -3 3 d -5
 X -3 -3 d -5 Y cl s 81 895 m 3 -2 d 5 X 3 2 d 5 Y -3 3 d -5 X -3 -3 d -5 Y cl s
 79 893 m 3 -3 d 5 X 2 3 d 5 Y -2 3 d -5 X -3 -3 d -5 Y cl s 82 895 m 2 -2 d 5 X
 3 2 d 6 Y -3 2 d -5 X -2 -2 d -6 Y cl s 1814 680 227 227 C 3 lw 577 227 m 680 Y
 s 1769 227 m 680 Y s 2268 1134 0 0 C 1814 680 227 227 C 2268 1134 0 0 C 1 lw
 337 850 m -34 Y s 337 851 m -34 Y s 336 850 m -34 Y s 338 851 m -34 Y s 336 849
 m -34 Y s 338 852 m -34 Y s 336 849 m -34 Y s 338 852 m -34 Y s 337 850 m 21 X
 s 337 851 m 21 X s 336 850 m 21 X s 338 851 m 21 X s 336 849 m 21 X s 338 852 m
 21 X s 336 849 m 21 X s 338 852 m 21 X s 337 834 m 13 X s 337 835 m 13 X s 336
 834 m 13 X s 338 835 m 13 X s 336 833 m 13 X s 338 835 m 13 X s 336 833 m 13 X
 s 338 836 m 13 X s 363 850 m 8 -34 d s 363 851 m 8 -34 d s 362 850 m 8 -34 d s
 364 851 m 8 -34 d s 362 849 m 8 -34 d s 364 852 m 8 -34 d s 362 849 m 8 -34 d s
 364 852 m 8 -34 d s 379 850 m -8 -34 d s 379 851 m -8 -34 d s 378 850 m -8 -34
 d s 380 851 m -8 -34 d s 378 849 m -8 -34 d s 380 852 m -8 -34 d s 378 849 m -8
 -34 d s 380 852 m -8 -34 d s 379 850 m 8 -34 d s 379 851 m 9 -34 d s 378 850 m
 8 -34 d s 380 851 m 8 -34 d s 378 849 m 8 -34 d s 380 852 m 8 -34 d s 378 849 m
 8 -34 d s 380 852 m 9 -34 d s 395 850 m -8 -34 d s 396 851 m -8 -34 d s 395 850
 m -9 -34 d s 396 851 m -8 -34 d s 394 849 m -8 -34 d s 396 852 m -8 -34 d s 394
 849 m -8 -34 d s 397 852 m -8 -34 d s 405 850 m -34 Y s 405 851 m -34 Y s 404
 850 m -34 Y s 406 851 m -34 Y s 404 849 m -34 Y s 406 852 m -34 Y s 404 849 m
 -34 Y s 406 852 m -34 Y s 405 850 m 11 X 5 -1 d 3 -4 d 2 -3 d 1 -5 d -8 Y -1 -5
 d -2 -3 d -3 -3 d -5 -2 d -11 X s 405 851 m 12 X 5 -2 d 3 -3 d 1 -3 d 2 -5 d -8
 Y -2 -5 d -1 -3 d -3 -4 d -5 -1 d -12 X s 404 850 m 12 X 5 -2 d 3 -3 d 1 -3 d 2
 -5 d -8 Y -2 -5 d -1 -3 d -3 -4 d -5 -1 d -12 X s 406 851 m 11 X 5 -1 d 3 -4 d
 2 -3 d 1 -5 d -8 Y -1 -5 d -2 -3 d -3 -3 d -5 -2 d -11 X s 404 849 m 11 X 5 -1
 d 3 -3 d 2 -4 d 2 -4 d -9 Y -2 -4 d -2 -4 d -3 -3 d -5 -2 d -11 X s 406 852 m
 11 X 5 -2 d 3 -3 d 2 -4 d 2 -4 d -9 Y -2 -4 d -2 -4 d -3 -3 d -5 -1 d -11 X s
 404 849 m 11 X 5 -1 d 3 -4 d 2 -3 d 1 -5 d -8 Y -1 -5 d -2 -3 d -3 -3 d -5 -2 d
 -11 X s 406 852 m 12 X 5 -2 d 3 -3 d 1 -3 d 2 -5 d -8 Y -2 -5 d -1 -3 d -3 -4 d
 -5 -1 d -12 X s 1814 680 227 227 C 2268 1134 0 0 C 1814 680 227 227 C 2268 1134
 0 0 C 1062 850 m -34 Y s 1063 851 m -34 Y s 1062 850 m -34 Y s 1063 851 m -34 Y
 s 1062 849 m -34 Y s 1064 852 m -34 Y s 1061 849 m -34 Y s 1064 852 m -34 Y s
 1062 850 m 15 X 5 -1 d 1 -2 d 2 -3 d -4 Y -2 -3 d -1 -1 d -5 -2 d s 1063 851 m
 15 X 5 -2 d 1 -1 d 2 -4 d -3 Y -2 -3 d -1 -2 d -5 -1 d s 1062 850 m 15 X 4 -2 d
 2 -1 d 2 -4 d -3 Y -2 -3 d -2 -2 d -4 -1 d s 1063 851 m 15 X 5 -1 d 1 -2 d 2 -3
 d -4 Y -2 -3 d -1 -1 d -5 -2 d s 1062 849 m 14 X 5 -1 d 2 -2 d 1 -3 d -3 Y -1
 -3 d -2 -2 d -5 -2 d s 1064 852 m 14 X 5 -2 d 2 -2 d 1 -3 d -3 Y -1 -3 d -2 -2
 d -5 -2 d s 1061 849 m 15 X 5 -1 d 1 -2 d 2 -3 d -4 Y -2 -3 d -1 -1 d -5 -2 d s
 1064 852 m 15 X 5 -2 d 1 -1 d 2 -4 d -3 Y -2 -3 d -1 -2 d -5 -1 d s 1062 834 m
 15 X 5 -2 d 1 -1 d 2 -4 d -4 Y -2 -4 d -1 -1 d -5 -2 d -15 X s 1063 835 m 15 X
 5 -2 d 1 -2 d 2 -3 d -5 Y -2 -3 d -1 -2 d -5 -1 d -15 X s 1062 834 m 15 X 4 -2
 d 2 -2 d 2 -3 d -5 Y -2 -3 d -2 -2 d -4 -1 d -15 X s 1063 835 m 15 X 5 -2 d 1
 -1 d 2 -3 d -5 Y -2 -4 d -1 -1 d -5 -2 d -15 X s 1062 833 m 14 X 5 -1 d 2 -2 d
 1 -3 d -5 Y -1 -3 d -2 -2 d -5 -2 d -14 X s 1064 835 m 14 X 5 -1 d 2 -2 d 1 -3
 d -5 Y -1 -3 d -2 -2 d -5 -1 d -14 X s 1061 833 m 15 X 5 -2 d 1 -1 d 2 -4 d -4
 Y -2 -4 d -1 -1 d -5 -2 d -15 X s 1064 836 m 15 X 5 -2 d 1 -2 d 2 -3 d -5 Y -2
 -3 d -1 -2 d -5 -1 d -15 X s 1114 839 m -23 Y s 1115 840 m -23 Y s 1114 838 m
 -22 Y s 1115 840 m -23 Y s 1114 838 m -23 Y s 1116 840 m -22 Y s 1113 838 m -23
 Y s 1116 841 m -23 Y s 1114 834 m -3 3 d -3 2 d -5 X -3 -2 d -4 -3 d -1 -5 d -3
 Y 1 -5 d 4 -3 d 3 -2 d 5 X 3 2 d 3 3 d s 1115 835 m -3 3 d -4 2 d -4 X -4 -2 d
 -3 -3 d -2 -5 d -3 Y 2 -5 d 3 -4 d 4 -1 d 4 X 4 1 d 3 4 d s 1114 834 m -3 3 d
 -4 1 d -4 X -4 -1 d -3 -3 d -2 -5 d -3 Y 2 -5 d 3 -4 d 4 -1 d 4 X 4 1 d 3 4 d s
 1115 835 m -3 3 d -3 2 d -5 X -3 -2 d -4 -3 d -1 -5 d -3 Y 1 -5 d 4 -3 d 3 -2 d
 5 X 3 2 d 3 3 d s 1114 833 m -4 4 d -3 1 d -5 X -3 -1 d -3 -4 d -2 -5 d -3 Y 2
 -5 d 3 -3 d 3 -2 d 5 X 3 2 d 4 3 d s 1116 835 m -4 4 d -3 1 d -5 X -3 -1 d -3
 -4 d -2 -5 d -3 Y 2 -5 d 3 -3 d 3 -1 d 5 X 3 1 d 4 3 d s 1113 833 m -3 3 d -3 2
 d -5 X -3 -2 d -4 -3 d -1 -5 d -3 Y 1 -5 d 4 -3 d 3 -2 d 5 X 3 2 d 3 3 d s 1116
 836 m -3 3 d -4 2 d -4 X -4 -2 d -3 -3 d -2 -5 d -3 Y 2 -5 d 3 -4 d 4 -1 d 4 X
 4 1 d 3 4 d s 1127 839 m -23 Y s 1128 840 m -23 Y s 1127 838 m -22 Y s 1128 840
 m -23 Y s 1126 838 m -23 Y s 1129 840 m -22 Y s 1126 838 m -23 Y s 1129 841 m
 -23 Y s 1127 829 m 2 5 d 3 3 d 3 2 d 5 X s 1128 830 m 1 5 d 4 3 d 3 2 d 5 X s
 1127 829 m 1 5 d 4 3 d 3 1 d 5 X s 1128 830 m 2 5 d 3 3 d 3 2 d 5 X s 1126 828
 m 2 5 d 3 4 d 4 1 d 4 X s 1129 830 m 1 5 d 3 4 d 4 1 d 5 X s 1126 828 m 2 5 d 3
 3 d 3 2 d 5 X s 1129 831 m 2 5 d 3 3 d 3 2 d 5 X s 1148 839 m -23 Y s 1149 840
 m -23 Y s 1148 838 m -22 Y s 1149 840 m -23 Y s 1148 838 m -23 Y s 1150 840 m
 -22 Y s 1147 838 m -23 Y s 1150 841 m -23 Y s 1148 829 m 2 5 d 3 3 d 3 2 d 5 X
 s 1149 830 m 2 5 d 3 3 d 3 2 d 5 X s 1148 829 m 2 5 d 3 3 d 3 1 d 5 X s 1149
 830 m 2 5 d 3 3 d 3 2 d 5 X s 1148 828 m 1 5 d 3 4 d 4 1 d 5 X s 1150 830 m 1 5
 d 3 4 d 4 1 d 5 X s 1147 828 m 2 5 d 3 3 d 3 2 d 5 X s 1150 831 m 2 5 d 3 3 d 3
 2 d 5 X s 1168 829 m 19 X 3 Y -2 4 d -1 1 d -3 2 d -5 X -3 -2 d -4 -3 d -1 -5 d
 -3 Y 1 -5 d 4 -3 d 3 -2 d 5 X 3 2 d 3 3 d s 1168 830 m 20 X 3 Y -2 3 d -1 2 d
 -4 2 d -5 X -3 -2 d -3 -3 d -2 -5 d -3 Y 2 -5 d 3 -4 d 3 -1 d 5 X 4 1 d 3 4 d s
 1167 829 m 20 X 3 Y -2 3 d -1 2 d -4 1 d -5 X -3 -1 d -3 -3 d -2 -5 d -3 Y 2 -5
 d 3 -4 d 3 -1 d 5 X 4 1 d 3 4 d s 1169 830 m 19 X 3 Y -1 4 d -2 1 d -3 2 d -5 X
 -3 -2 d -4 -3 d -1 -5 d -3 Y 1 -5 d 4 -3 d 3 -2 d 5 X 3 2 d 3 3 d s 1167 828 m
 19 X 4 Y -1 3 d -2 2 d -3 1 d -5 X -3 -1 d -3 -4 d -2 -5 d -3 Y 2 -5 d 3 -3 d 3
 -2 d 5 X 3 2 d 3 3 d s 1169 830 m 19 X 4 Y -1 3 d -2 2 d -3 1 d -5 X -3 -1 d -3
 -4 d -2 -5 d -3 Y 2 -5 d 3 -3 d 3 -1 d 5 X 3 1 d 3 3 d s 1167 828 m 19 X 3 Y -2
 4 d -1 1 d -3 2 d -5 X -3 -2 d -4 -3 d -1 -5 d -3 Y 1 -5 d 4 -3 d 3 -2 d 5 X 3
 2 d 3 3 d s 1169 831 m 20 X 3 Y -2 3 d -1 2 d -4 2 d -5 X -3 -2 d -3 -3 d -2 -5
 d -3 Y 2 -5 d 3 -4 d 3 -1 d 5 X 4 1 d 3 4 d s 1198 850 m -34 Y s 1199 851 m -34
 Y s 1198 850 m -34 Y s 1199 851 m -34 Y s 1198 849 m -34 Y s 1200 852 m -34 Y s
 1197 849 m -34 Y s 1200 852 m -34 Y s 1814 680 227 227 C 2268 1134 0 0 C 1814
 680 227 227 C 2268 1134 0 0 C 1840 850 m -34 Y s 1841 851 m -34 Y s 1840 850 m
 -34 Y s 1841 851 m -34 Y s 1839 849 m -34 Y s 1841 852 m -34 Y s 1839 849 m -34
 Y s 1842 852 m -34 Y s 1840 850 m 15 X 4 -1 d 2 -2 d 2 -3 d -4 Y -2 -3 d -2 -1
 d -4 -2 d s 1841 851 m 14 X 5 -2 d 2 -1 d 1 -4 d -3 Y -1 -3 d -2 -2 d -5 -1 d s
 1840 850 m 14 X 5 -2 d 2 -1 d 1 -4 d -3 Y -1 -3 d -2 -2 d -5 -1 d s 1841 851 m
 15 X 4 -1 d 2 -2 d 2 -3 d -4 Y -2 -3 d -2 -1 d -4 -2 d s 1839 849 m 15 X 5 -1 d
 1 -2 d 2 -3 d -3 Y -2 -3 d -1 -2 d -5 -2 d s 1841 852 m 15 X 5 -2 d 1 -2 d 2 -3
 d -3 Y -2 -3 d -1 -2 d -5 -2 d s 1839 849 m 15 X 4 -1 d 2 -2 d 2 -3 d -4 Y -2
 -3 d -2 -1 d -4 -2 d s 1842 852 m 14 X 5 -2 d 2 -1 d 1 -4 d -3 Y -1 -3 d -2 -2
 d -5 -1 d s 1840 834 m 15 X 4 -2 d 2 -1 d 2 -4 d -4 Y -2 -4 d -2 -1 d -4 -2 d
 -15 X s 1841 835 m 14 X 5 -2 d 2 -2 d 1 -3 d -5 Y -1 -3 d -2 -2 d -5 -1 d -14 X
 s 1840 834 m 14 X 5 -2 d 2 -2 d 1 -3 d -5 Y -1 -3 d -2 -2 d -5 -1 d -14 X s
 1841 835 m 15 X 4 -2 d 2 -1 d 2 -3 d -5 Y -2 -4 d -2 -1 d -4 -2 d -15 X s 1839
 833 m 15 X 5 -1 d 1 -2 d 2 -3 d -5 Y -2 -3 d -1 -2 d -5 -2 d -15 X s 1841 835 m
 15 X 5 -1 d 1 -2 d 2 -3 d -5 Y -2 -3 d -1 -2 d -5 -1 d -15 X s 1839 833 m 15 X
 4 -2 d 2 -1 d 2 -4 d -4 Y -2 -4 d -2 -1 d -4 -2 d -15 X s 1842 836 m 14 X 5 -2
 d 2 -2 d 1 -3 d -5 Y -1 -3 d -2 -2 d -5 -1 d -14 X s 1871 850 m 8 -34 d s 1871
 851 m 9 -34 d s 1870 850 m 9 -34 d s 1872 851 m 8 -34 d s 1870 849 m 8 -34 d s
 1872 852 m 8 -34 d s 1870 849 m 8 -34 d s 1872 852 m 9 -34 d s 1887 850 m -8
 -34 d s 1888 851 m -8 -34 d s 1887 850 m -8 -34 d s 1888 851 m -8 -34 d s 1886
 849 m -8 -34 d s 1888 852 m -8 -34 d s 1886 849 m -8 -34 d s 1889 852 m -8 -34
 d s 1887 850 m 8 -34 d s 1888 851 m 8 -34 d s 1887 850 m 8 -34 d s 1888 851 m 8
 -34 d s 1886 849 m 8 -34 d s 1888 852 m 8 -34 d s 1886 849 m 8 -34 d s 1889 852
 m 8 -34 d s 1903 850 m -8 -34 d s 1904 851 m -8 -34 d s 1903 850 m -8 -34 d s
 1904 851 m -8 -34 d s 1902 849 m -8 -34 d s 1905 852 m -9 -34 d s 1902 849 m -8
 -34 d s 1905 852 m -8 -34 d s 1913 850 m -34 Y s 1914 851 m -34 Y s 1913 850 m
 -34 Y s 1914 851 m -34 Y s 1912 849 m -34 Y s 1914 852 m -34 Y s 1912 849 m -34
 Y s 1915 852 m -34 Y s 1913 850 m 11 X 5 -1 d 3 -4 d 2 -3 d 2 -5 d -8 Y -2 -5 d
 -2 -3 d -3 -3 d -5 -2 d -11 X s 1914 851 m 11 X 5 -2 d 3 -3 d 2 -3 d 1 -5 d -8
 Y -1 -5 d -2 -3 d -3 -4 d -5 -1 d -11 X s 1913 850 m 11 X 5 -2 d 3 -3 d 2 -3 d
 1 -5 d -8 Y -1 -5 d -2 -3 d -3 -4 d -5 -1 d -11 X s 1914 851 m 11 X 5 -1 d 3 -4
 d 2 -3 d 2 -5 d -8 Y -2 -5 d -2 -3 d -3 -3 d -5 -2 d -11 X s 1912 849 m 12 X 4
 -1 d 4 -3 d 1 -4 d 2 -4 d -9 Y -2 -4 d -1 -4 d -4 -3 d -4 -2 d -12 X s 1914 852
 m 12 X 4 -2 d 4 -3 d 1 -4 d 2 -4 d -9 Y -2 -4 d -1 -4 d -4 -3 d -4 -1 d -12 X s
 1912 849 m 11 X 5 -1 d 3 -4 d 2 -3 d 2 -5 d -8 Y -2 -5 d -2 -3 d -3 -3 d -5 -2
 d -11 X s 1915 852 m 11 X 5 -2 d 3 -3 d 2 -3 d 1 -5 d -8 Y -1 -5 d -2 -3 d -3
 -4 d -5 -1 d -11 X s 1814 680 227 227 C
 gr  gr 
showpage
end
%%EOF
