%!PS-Adobe-2.0 EPSF-2.0
%%BoundingBox: 0 0 567 425
%%Title: dosevstime_e.eps
%%Creator: HIGZ Version 1.23/07
%%CreationDate: :0/08/29   19.04
%%EndComments
%%BeginProlog
80 dict begin
/s {stroke} def /l {lineto} def /m {moveto} def /t {translate} def
/sw {stringwidth} def /r {rotate} def /rl {roll}  def /R {repeat} def
/d {rlineto} def /rm {rmoveto} def /gr {grestore} def /f {eofill} def
/c {setrgbcolor} def /lw {setlinewidth} def /sd {setdash} def
/cl {closepath} def /sf {scalefont setfont} def /black {0 setgray} def
/box {m dup 0 exch d exch 0 d 0 exch neg d cl} def
/NC{systemdict begin initclip end}def/C{NC box clip newpath}def
/bl {box s} def /bf {box f} def /Y { 0 exch d} def /X { 0 d} def 
/mp {newpath /y exch def /x exch def} def
/side {[w .77 mul w .23 mul] .385 w mul sd w 0 l currentpoint t -144 r} def
/mr {mp x y w2 0 360 arc} def /m24 {mr s} def /m20 {mr f} def
/mb {mp x y w2 add m w2 neg 0 d 0 w neg d w 0 d 0 w d cl} def
/mt {mp x y w2 add m w2 neg w neg d w 0 d cl} def
/m21 {mb f} def /m25 {mb s} def /m22 {mt f} def /m26 {mt s} def
/m23 {mp x y w2 sub m w2 w d w neg 0 d cl f} def
/m27 {mp x y w2 add m w3 neg w2 neg d w3 w2 neg d w3  w2 d cl s} def
/m28 {mp x w2 sub y w2 sub w3 add m w3 0 d 0 w3 neg d w3 0 d 0 w3 d w3 0 d
 0 w3 d w3 neg 0 d 0 w3 d w3 neg 0 d
 0 w3 neg d w3 neg 0 d cl s } def
/m29 {mp gsave x w2 sub y w2 add w3 sub m currentpoint t
 4 {side} repeat cl fill gr} def
/m30 {mp gsave x w2 sub y w2 add w3 sub m currentpoint t
 5 {side} repeat s gr} def
/m31 {mp x y w2 sub m 0 w d x w2 sub y m w 0 d
 x w2 sub y w2 add m w w neg d x w2 sub y w2
 sub m w w d s} def
/m2 {mp x y w2 sub m 0 w d x w2 sub y m w 0 d s} def
/m5 {mp x w2 sub y w2 sub m w w d x w2 sub y w2 add m w w neg d s} def
/DP {/PT exch def gsave 47.2 47.2 scale PT 1  eq { 16 16 1 [ 16 0 0 16 neg 0 16
] { < AA AA 55 55 AA AA 55 55 AA AA 55 55 AA AA 55 55 AA AA 55 55 AA AA 55 55
AA AA 55 55 AA AA 55 55 > } image } if PT 2 eq { 16 16 1 [ 16 0 0 16 neg 0 16
] { < BB BB EE EE BB BB EE EE BB BB EE EE BB BB EE EE BB BB EE EE BB BB EE EE
BB BB EE EE BB BB EE EE > } image } if PT 3 eq { 16 16 1 [ 16 0 0 16 neg 0 16
] { < FF FF BB BB FF FF EE EE FF FF BB BB FF FF EE EE FF FF BB BB FF FF EE EE
FF FF BB BB FF FF EE EE > } image } if PT 4 eq { 16 16 1 [ 16 0 0 16 neg 0 16
] { < DF DF BF BF 7F 7F FE FE FD FD FB FB F7 F7 EF EF DF DF BF BF 7F 7F FE FE
FD FD FB FB F7 F7 EF EF > } image } if PT 5 eq { 16 16 1 [ 16 0 0 16 neg 0 16
] { < 7F 7F BF B F DF DF EF EF F7 F7 FB FB FD FD FE FE 7F 7F BF BF DF DF EF
EF F7 F7 FB FB FD FD FE FE > } image } if PT 6 eq { 16 16 1 [ 16 0 0 16 neg 0
16 ] { < BB BB BB BB BB BB BB BB BB BB BB BB BB BB BB BB BB BB BB BB BB BB BB
BB BB BB BB BB BB BB BB BB > } image } if PT 7 eq { 16 16 1 [ 16 0 0 16 neg 0
16 ] { < FF FF FF FF FF FF 00 00 FF FF FF FF FF FF 00 00 FF FF FF FF FF FF 00
00 FF FF FF FF FF FF 00 00 > } image } if PT 8 eq { 16 16 1 [ 16 0 0 16 neg 0
16 ] { < EE EE 47 47 83 83 C5 C5 EE EE 5C 5C 38 38 74 74 EE EE 47 47 83 83 C5
C5 EE EE 5C 5C 38 38 74 74 > } image } if PT 9 eq { 16 16 1 [ 16 0 0 16 neg 0
16 ] { < EF EF EF EF D7 D7 38 38 FE FE FE FE 7D 7D 83 83 EF EF EF EF D7 D7 38
38  FE FE FE FE 7D 7D 83 83 > } image } if PT 10 eq { 16 16 1 [ 16 0 0 16 neg
0 16 ] { <  EF EF EF EF EF EF 00 00 FE FE FE FE FE FE 00 00 EF EF EF EF EF EF
00 00 FE FE FE FE FE FE 00 00 > } image } if PT 11 eq { 16 16 1 [ 16 0 0 16
neg 0 16 ] { < F7 F7 B6 B6 D5 D5 E3 E3 D5 D5 B6 B6 F7 F7 FF FF 7F 7F 6B 6B 5D
5D 3E 3E 5D 5D 6B 6B 7F 7F FF FF > } image } if PT 12 eq { 16 16 1 [ 16 0 0
16 neg 0 16 ] { < E3 E3 DD DD BE BE BE BE BE BE DD DD E3 E3 FF FF 3E 3E DD DD
EB EB EB EB EB EB DD DD 3E 3E FF FF > } image } if PT 13 eq { 16 16 1 [ 16 0
0 16 neg 0 16 ] { <  FE FE 7D 7D BB BB D7 D7 EF EF D7 D7 BB BB 7D 7D FE FE 7D
7D BB BB D7 D7 EF EF D7 D7 BB BB 7D 7D > } image } if PT 14 eq { 16 16 1 [ 16
0 0 16 neg 0 16 ] { < 00 00 EE EF EE EF EE EF 0E E0 EE EE EE EE EE EE 00 EE
FE EE FE EE FE EE 00 00 FE EF FE EF FE EF > } image } if PT 15 eq { 16 16 1 [
16 0 0 16 neg 0 16 ] { < DD DD AA AA DD DD FF FF 77 77 AA AA 77 77 FF FF DD
DD AA AA DD DD FF FF 77 77 AA AA 77 77 FF FF > } image } if PT 16 eq { 16 16
1 [ 16 0 0 16 neg 0 16 ] { <  F1 F1 EE EE 1F 1F FF FF F1 F1 EE EE 1F 1F FF FF
F1 F1 EE EE 1F 1F FF FF F1 F1 EE EE 1F 1F FF FF > } image } if PT 17 eq { 16
16 1 [ 16 0 0 16 neg 0 16 ] { <  EE EE DD DD BB BB FF FF EE EE DD DD BB BB FF
 FF EE EE DD DD BB BB FF FF EE EE DD DD BB BB FF FF > } image } if PT 18 eq {
16 16 1 [ 16 0 0 16 neg 0 16 ] { <  BB BB DD DD EE EE FF FF BB BB DD DD EE EE
FF FF BB BB DD DD EE EE FF FF BB BB DD DD EE EE FF FF > } image } if PT 19 eq
{ 16 16 1 [ 16 0 0 16 neg 0 16 ] { < 1F FC 67 F3 7B EF BD DE BD DE DE BD E6
B3 F8 0F E6 B3 DE BD BD DE BD DE 7B EF 67 F3 1F FC 7F FF > } image } if PT
20 eq { 16 16 1 [ 16 0 0 16 neg 0 16 ] { < DD DD EE EE EE EE EE EE DD DD BB
BB BB BB BB BB DD DD EE EE EE EE EE EE DD DD BB BB BB BB BB BB > } image }
if PT 21 eq { 16 16 1 [ 16 0 0 16 neg 0 16 ] { < 0E 0E EF EF EF EF EF EF E0
E0 FE FE FE FE FE FE 0E 0E EF EF EF EF EF EF E0 E0 FE FE FE FE FE FE > }
image }  if PT 22 eq { 16 16 1 [ 16 0 0 16 neg 0 16 ] { < 70 70 F7 F7 F7 F7 F7
F7 07 07 7F 7F 7F 7F 7F 7F 70 70 F7 F7 F7 F7 F7 F7 07 07 7F 7F 7F 7F 7F 7F >
} image } if PT 23 eq  { 16 16 1 [ 16 0 0 16 neg 0 16 ] { < AA AA 55 55 A9 A9
D1 D1 E1 E1 D1 D1 A9 A9 55 55 AA AA 55 55 A9 A9 D1 D1 E1 E1 D1 D1 A9 A9 55 55
> } image } if PT 24 eq { 16 16 1 [ 16 0 0 16 neg 0 16 ] { < FF FE FF FC EA
A8 D5 54 EA A8 D5 54 E8 28 D4 54 E8 E8 D4 D4 E8 EA 54 D5 A8 EA 54 D5 00 C0 00
80 > } image } if PT 25 eq {  16 16 1 [ 16 0 0 16 neg 0 16 ] { < FF FE FF FC
FF F8 FF F0 F0 00 F0 00 F0 20 F0 60 F0 E0 F1 E0 F3 E0 F0 00 E0 00 C0 00 80 00
00 00 > } image } if gr } def /FA { /PT exch def gsave clip 0 0 translate 1 1
54 { 1 sub 47.2 mul /Xcurr exch def 1 1 74 { 1 sub 47.2 mul /Ycurr exch def
gsave Xcurr Ycurr translate PT DP gr } for } for gr newpath } def
/reencdict 24 dict def /ReEncode {reencdict begin /nco&na exch def
/nfnam exch def /basefontname exch def /basefontdict basefontname findfont def
/newfont basefontdict maxlength dict def basefontdict {exch dup /FID ne
{dup /Encoding eq {exch dup length array copy newfont 3 1 roll put} {exch
newfont 3 1 roll put} ifelse} {pop pop} ifelse } forall newfont
/FontName nfnam put nco&na aload pop nco&na length 2 idiv {newfont
/Encoding get 3 1 roll put} repeat nfnam newfont definefont pop end } def
/accvec [ 176 /agrave 181 /Agrave 190 /acircumflex 192 /Acircumflex
201 /adieresis 204 /Adieresis 209 /ccedilla 210 /Ccedilla 211 /eacute
212 /Eacute 213 /egrave 214 /Egrave 215 /ecircumflex 216 /Ecircumflex
217 /edieresis 218 /Edieresis 219 /icircumflex 220 /Icircumflex
221 /idieresis 222 /Idieresis 223 /ntilde 224 /Ntilde 226 /ocircumflex
228 /Ocircumflex 229 /odieresis 230 /Odieresis 231 /ucircumflex 236 /Ucircumflex
237 /udieresis 238 /Udieresis 239 /aring 242 /Aring 243 /ydieresis
244 /Ydieresis 246 /aacute 247 /Aacute 252 /ugrave 253 /Ugrave] def
/Times-Roman /Times-Roman accvec ReEncode
/Times-Italic /Times-Italic accvec ReEncode
/Times-Bold /Times-Bold accvec ReEncode
/Times-BoldItalic /Times-BoldItalic accvec ReEncode
/Helvetica /Helvetica accvec ReEncode
/Helvetica-Oblique /Helvetica-Oblique accvec ReEncode
/Helvetica-Bold /Helvetica-Bold accvec ReEncode
/Helvetica-BoldOblique /Helvetica-BoldOblique  accvec ReEncode
/Courier /Courier accvec ReEncode
/Courier-Oblique /Courier-Oblique accvec ReEncode
/Courier-Bold /Courier-Bold accvec ReEncode
/Courier-BoldOblique /Courier-BoldOblique accvec ReEncode
/oshow {gsave [] 0 sd true charpath stroke gr} def
/stwn { /fs exch def /fn exch def /text exch def fn findfont fs sf
 text sw pop xs add /xs exch def} def
/stwb { /fs exch def /fn exch def /nbas exch def /textf exch def
textf length /tlen exch def nbas tlen gt {/nbas tlen def} if
fn findfont fs sf textf dup length nbas sub nbas getinterval sw
pop neg xs add /xs exch def} def
/accspe [ 65 /plusminus 66 /bar 67 /existential 68 /universal
69 /exclam 70 /numbersign 71 /greater 72 /question 73 /integral
74 /colon 75 /semicolon 76 /less 77 /bracketleft 78 /bracketright
79 /greaterequal 80 /braceleft 81 /braceright 82 /radical
83 /spade 84 /heart 85 /diamond 86 /club 87 /lessequal
88 /multiply 89 /percent 90 /infinity 48 /circlemultiply 49 /circleplus
50 /emptyset 51 /lozenge 52 /bullet 53 /arrowright 54 /arrowup
55 /arrowleft 56 /arrowdown 57 /arrowboth 48 /degree 44 /comma 43 /plus
 45 /angle 42 /angleleft 47 /divide 61 /notequal 40 /equivalence 41 /second
 97 /approxequal 98 /congruent 99 /perpendicular 100 /partialdiff 101 /florin
 102 /intersection 103 /union 104 /propersuperset 105 /reflexsuperset
 106 /notsubset 107 /propersubset 108 /reflexsubset 109 /element 110 /notelement
 111 /gradient 112 /logicaland 113 /logicalor 114 /arrowdblboth
 115 /arrowdblleft 116 /arrowdblup 117 /arrowdblright 118 /arrowdbldown
 119 /ampersand 120 /omega1 121 /similar 122 /aleph ] def
/Symbol /Special accspe ReEncode
%%EndProlog
 gsave  .25 .25 scale  gsave 0 0 t black [] 0 sd 1 lw 3 lw 0 0 1 c 1757 1247 284
 227 bl 1757 1247 284 227 C NC 1 lw 284 227 m 1247 Y s 318 227 m -34 X s
 [4 8] 0 sd 2041 227 m -1757 X s [] 0 sd 301 268 m -17 X s 301 310 m -17 X s 301
 352 m -17 X s 318 393 m -34 X s [4 8] 0 sd 2041 393 m -1757 X s [] 0 sd 301 435
 m -17 X s 301 476 m -17 X s 301 518 m -17 X s 318 559 m -34 X s [4 8] 0 sd 2041
 559 m -1757 X s [] 0 sd 301 601 m -17 X s 301 643 m -17 X s 301 684 m -17 X s
 318 726 m -34 X s [4 8] 0 sd 2041 726 m -1757 X s [] 0 sd 301 767 m -17 X s 301
 809 m -17 X s 301 851 m -17 X s 318 892 m -34 X s [4 8] 0 sd 2041 892 m -1757 X
 s [] 0 sd 301 934 m -17 X s 301 975 m -17 X s 301 1017 m -17 X s 318 1058 m -34
 X s [4 8] 0 sd 2041 1058 m -1757 X s [] 0 sd 301 1100 m -17 X s 301 1142 m -17
 X s 301 1183 m -17 X s 318 1225 m -34 X s [4 8] 0 sd 2041 1225 m -1757 X s
 [] 0 sd 301 1266 m -17 X s 301 1308 m -17 X s 301 1349 m -17 X s 318 1391 m -34
 X s [4 8] 0 sd 2041 1391 m -1757 X s [] 0 sd 318 1391 m -34 X s [4 8] 0 sd 2041
 1391 m -1757 X s [] 0 sd 301 1433 m -17 X s
 /xs 0 def 
(0)
 /Times-Italic     69 stwn 
 gsave  238 204
 t   0 r  xs neg 0 t 0 0 m
 /Times-Italic findfont   69 sf 0    0 m 
(0)
 show 
 gr 
 /xs 0 def 
(2)
 /Times-Italic     69 stwn 
 gsave  238 370
 t   0 r  xs neg 0 t 0 0 m
 /Times-Italic findfont   69 sf 0    0 m 
(2)
 show 
 gr 
 /xs 0 def 
(4)
 /Times-Italic     69 stwn 
 gsave  238 537
 t   0 r  xs neg 0 t 0 0 m
 /Times-Italic findfont   69 sf 0    0 m 
(4)
 show 
 gr 
 /xs 0 def 
(6)
 /Times-Italic     69 stwn 
 gsave  238 703
 t   0 r  xs neg 0 t 0 0 m
 /Times-Italic findfont   69 sf 0    0 m 
(6)
 show 
 gr 
 /xs 0 def 
(8)
 /Times-Italic     69 stwn 
 gsave  238 869
 t   0 r  xs neg 0 t 0 0 m
 /Times-Italic findfont   69 sf 0    0 m 
(8)
 show 
 gr 
 /xs 0 def 
(10)
 /Times-Italic     69 stwn 
 gsave  238 1036
 t   0 r  xs neg 0 t 0 0 m
 /Times-Italic findfont   69 sf 0    0 m 
(10)
 show 
 gr 
 /xs 0 def 
(12)
 /Times-Italic     69 stwn 
 gsave  238 1202
 t   0 r  xs neg 0 t 0 0 m
 /Times-Italic findfont   69 sf 0    0 m 
(12)
 show 
 gr 
 /xs 0 def 
(14)
 /Times-Italic     69 stwn 
 gsave  238 1368
 t   0 r  xs neg 0 t 0 0 m
 /Times-Italic findfont   69 sf 0    0 m 
(14)
 show 
 gr  284 227 m 1757 X s 284 261 m -34 Y s [4 8] 0 sd 284 1474 m -1247 Y s
 [] 0 sd 323 244 m -17 Y s 362 244 m -17 Y s 401 244 m -17 Y s 440 244 m -17 Y s
 479 261 m -34 Y s [4 8] 0 sd 479 1474 m -1247 Y s [] 0 sd 518 244 m -17 Y s 557
 244 m -17 Y s 596 244 m -17 Y s 635 244 m -17 Y s 674 261 m -34 Y s [4 8] 0 sd
 674 1474 m -1247 Y s [] 0 sd 713 244 m -17 Y s 752 244 m -17 Y s 791 244 m -17
 Y s 830 244 m -17 Y s 869 261 m -34 Y s [4 8] 0 sd 869 1474 m -1247 Y s [] 0 sd
 908 244 m -17 Y s 948 244 m -17 Y s 987 244 m -17 Y s 1026 244 m -17 Y s 1065
 261 m -34 Y s [4 8] 0 sd 1065 1474 m -1247 Y s [] 0 sd 1104 244 m -17 Y s 1143
 244 m -17 Y s 1182 244 m -17 Y s 1221 244 m -17 Y s 1260 261 m -34 Y s
 [4 8] 0 sd 1260 1474 m -1247 Y s [] 0 sd 1299 244 m -17 Y s 1338 244 m -17 Y s
 1377 244 m -17 Y s 1416 244 m -17 Y s 1455 261 m -34 Y s [4 8] 0 sd 1455 1474 m
 -1247 Y s [] 0 sd 1494 244 m -17 Y s 1533 244 m -17 Y s 1572 244 m -17 Y s 1612
 244 m -17 Y s 1651 261 m -34 Y s [4 8] 0 sd 1651 1474 m -1247 Y s [] 0 sd 1690
 244 m -17 Y s 1729 244 m -17 Y s 1768 244 m -17 Y s 1807 244 m -17 Y s 1846 261
 m -34 Y s [4 8] 0 sd 1846 1474 m -1247 Y s [] 0 sd 1885 244 m -17 Y s 1924 244
 m -17 Y s 1963 244 m -17 Y s 2002 244 m -17 Y s 2041 261 m -34 Y s [4 8] 0 sd
 2041 1474 m -1247 Y s
 /xs 0 def 
(0)
 /Times-Italic     69 stwn 
 gsave  284 142
 t   0 r  xs 2 div neg 0 t 0 0 m
 /Times-Italic findfont   69 sf 0    0 m 
(0)
 show 
 gr 
 /xs 0 def 
(25)
 /Times-Italic     69 stwn 
 gsave  479 142
 t   0 r  xs 2 div neg 0 t 0 0 m
 /Times-Italic findfont   69 sf 0    0 m 
(25)
 show 
 gr 
 /xs 0 def 
(50)
 /Times-Italic     69 stwn 
 gsave  674 142
 t   0 r  xs 2 div neg 0 t 0 0 m
 /Times-Italic findfont   69 sf 0    0 m 
(50)
 show 
 gr 
 /xs 0 def 
(75)
 /Times-Italic     69 stwn 
 gsave  869 142
 t   0 r  xs 2 div neg 0 t 0 0 m
 /Times-Italic findfont   69 sf 0    0 m 
(75)
 show 
 gr 
 /xs 0 def 
(100)
 /Times-Italic     69 stwn 
 gsave  1065 142
 t   0 r  xs 2 div neg 0 t 0 0 m
 /Times-Italic findfont   69 sf 0    0 m 
(100)
 show 
 gr 
 /xs 0 def 
(125)
 /Times-Italic     69 stwn 
 gsave  1260 142
 t   0 r  xs 2 div neg 0 t 0 0 m
 /Times-Italic findfont   69 sf 0    0 m 
(125)
 show 
 gr 
 /xs 0 def 
(150)
 /Times-Italic     69 stwn 
 gsave  1455 142
 t   0 r  xs 2 div neg 0 t 0 0 m
 /Times-Italic findfont   69 sf 0    0 m 
(150)
 show 
 gr 
 /xs 0 def 
(175)
 /Times-Italic     69 stwn 
 gsave  1651 142
 t   0 r  xs 2 div neg 0 t 0 0 m
 /Times-Italic findfont   69 sf 0    0 m 
(175)
 show 
 gr 
 /xs 0 def 
(200)
 /Times-Italic     69 stwn 
 gsave  1846 142
 t   0 r  xs 2 div neg 0 t 0 0 m
 /Times-Italic findfont   69 sf 0    0 m 
(200)
 show 
 gr 
 /xs 0 def 
(225)
 /Times-Italic     69 stwn 
 gsave  2041 142
 t   0 r  xs 2 div neg 0 t 0 0 m
 /Times-Italic findfont   69 sf 0    0 m 
(225)
 show 
 gr  1757 1247 284 227 C [] 0 sd 3 lw 1 0 0 c 354 227 m s 354 227 m 4 Y s 362
 227 m s 362 227 m 6 Y s 356 233 m 11 X s 369 227 m s 369 227 m 7 Y s 364 234 m
 11 X s 377 227 m s 377 227 m 8 Y s 372 235 m 11 X s 385 226 m 11 Y s 379 237 m
 12 X s 393 227 m 1 Y s 393 228 m 10 Y s 387 238 m 12 X s 401 227 m 2 Y s 401
 229 m 11 Y s 395 240 m 11 X s 408 227 m 1 Y s 408 240 m 6 Y s 403 227 m 11 X s
 403 246 m 11 X s black /w 12 def /w2 {w 2 div} def /w3 {w 3 div} def 408 234
 m20 1 0 0 c 416 227 m 5 Y s 416 244 m 7 Y s 411 227 m 11 X s 411 251 m 11 X s
 black 416 238 m20 1 0 0 c 432 227 m 8 Y s 432 247 m 8 Y s 426 227 m 12 X s 426
 255 m 12 X s black 432 241 m20 1 0 0 c 440 229 m 10 Y s 440 250 m 9 Y s 434 229
 m 11 X s 434 259 m 11 X s black 440 244 m20 1 0 0 c 448 234 m 9 Y s 448 255 m 9
 Y s 442 234 m 11 X s 442 264 m 11 X s black 448 249 m20 1 0 0 c 455 237 m 10 Y
 s 455 258 m 10 Y s 450 237 m 11 X s 450 268 m 11 X s black 455 252 m20 1 0 0 c
 463 240 m 10 Y s 463 261 m 11 Y s 458 240 m 11 X s 458 272 m 11 X s black 463
 256 m20 1 0 0 c 471 243 m 11 Y s 471 265 m 11 Y s 465 243 m 12 X s 465 276 m 12
 X s black 471 259 m20 1 0 0 c 479 248 m 11 Y s 479 271 m 11 Y s 473 248 m 11 X
 s 473 282 m 11 X s black 479 265 m20 1 0 0 c 487 250 m 12 Y s 487 274 m 11 Y s
 481 250 m 11 X s 481 285 m 11 X s black 487 268 m20 1 0 0 c 494 251 m 12 Y s
 494 275 m 12 Y s 489 251 m 11 X s 489 287 m 11 X s black 494 269 m20 1 0 0 c
 502 251 m 12 Y s 502 275 m 13 Y s 497 251 m 11 X s 497 288 m 11 X s black 502
 269 m20 1 0 0 c 510 246 m 19 Y s 510 276 m 19 Y s 504 246 m 12 X s 504 295 m 12
 X s black 510 271 m20 1 0 0 c 518 249 m 23 Y s 518 283 m 23 Y s 512 249 m 12 X
 s 512 306 m 12 X s black 518 277 m20 1 0 0 c 526 251 m 23 Y s 526 285 m 23 Y s
 520 251 m 11 X s 520 308 m 11 X s black 526 280 m20 1 0 0 c 533 227 m 47 Y s
 533 285 m 47 Y s 528 227 m 11 X s 528 332 m 11 X s black 533 280 m20 1 0 0 c
 541 227 m 47 Y s 541 285 m 47 Y s 536 227 m 11 X s 536 332 m 11 X s black 541
 280 m20 1 0 0 c 549 227 m 47 Y s 549 285 m 48 Y s 543 227 m 12 X s 543 333 m 12
 X s black 549 280 m20 1 0 0 c 557 229 m 47 Y s 557 287 m 48 Y s 551 229 m 12 X
 s 551 335 m 12 X s black 557 282 m20 1 0 0 c 565 233 m 52 Y s 565 296 m 52 Y s
 559 233 m 11 X s 559 348 m 11 X s black 565 291 m20 1 0 0 c 573 243 m 52 Y s
 573 307 m 53 Y s 567 243 m 11 X s 567 360 m 11 X s black 573 301 m20 1 0 0 c
 580 255 m 53 Y s 580 320 m 53 Y s 575 255 m 11 X s 575 373 m 11 X s black 580
 314 m20 1 0 0 c 588 264 m 53 Y s 588 328 m 53 Y s 582 264 m 12 X s 582 381 m 12
 X s black 588 323 m20 1 0 0 c 596 271 m 53 Y s 596 335 m 53 Y s 590 271 m 12 X
 s 590 388 m 12 X s black 596 330 m20 1 0 0 c 604 274 m 53 Y s 604 339 m 53 Y s
 598 274 m 11 X s 598 392 m 11 X s black 604 333 m20 1 0 0 c 612 277 m 53 Y s
 612 342 m 53 Y s 606 277 m 11 X s 606 395 m 11 X s black 612 336 m20 1 0 0 c
 619 280 m 53 Y s 619 345 m 53 Y s 614 280 m 11 X s 614 398 m 11 X s black 619
 339 m20 1 0 0 c 627 281 m 53 Y s 627 346 m 53 Y s 622 281 m 11 X s 622 399 m 11
 X s black 627 340 m20 1 0 0 c 635 283 m 54 Y s 635 348 m 54 Y s 629 283 m 12 X
 s 629 402 m 12 X s black 635 343 m20 1 0 0 c 643 289 m 54 Y s 643 354 m 55 Y s
 637 289 m 12 X s 637 409 m 12 X s black 643 349 m20 1 0 0 c 651 295 m 55 Y s
 651 361 m 55 Y s 645 295 m 11 X s 645 416 m 11 X s black 651 356 m20 1 0 0 c
 658 302 m 55 Y s 658 368 m 55 Y s 653 302 m 11 X s 653 423 m 11 X s black 658
 363 m20 1 0 0 c 666 306 m 55 Y s 666 372 m 55 Y s 661 306 m 11 X s 661 427 m 11
 X s black 666 366 m20 1 0 0 c 674 310 m 55 Y s 674 376 m 56 Y s 668 310 m 12 X
 s 668 432 m 12 X s black 674 371 m20 1 0 0 c 682 310 m 55 Y s 682 376 m 56 Y s
 676 310 m 12 X s 676 432 m 12 X s black 682 371 m20 1 0 0 c 690 309 m 55 Y s
 690 376 m 55 Y s 684 309 m 11 X s 684 431 m 11 X s black 690 370 m20 1 0 0 c
 698 317 m 56 Y s 698 384 m 55 Y s 692 317 m 11 X s 692 439 m 11 X s black 698
 378 m20 1 0 0 c 705 324 m 55 Y s 705 391 m 55 Y s 700 324 m 11 X s 700 446 m 11
 X s black 705 385 m20 1 0 0 c 713 328 m 56 Y s 713 396 m 55 Y s 707 328 m 12 X
 s 707 451 m 12 X s black 713 390 m20 1 0 0 c 721 330 m 56 Y s 721 398 m 55 Y s
 715 330 m 12 X s 715 453 m 12 X s black 721 392 m20 1 0 0 c 729 333 m 56 Y s
 729 400 m 56 Y s 723 333 m 11 X s 723 456 m 11 X s black 729 394 m20 1 0 0 c
 737 337 m 56 Y s 737 404 m 56 Y s 731 337 m 11 X s 731 460 m 11 X s black 737
 398 m20 1 0 0 c 744 343 m 56 Y s 744 410 m 56 Y s 739 343 m 11 X s 739 466 m 11
 X s black 744 405 m20 1 0 0 c 752 349 m 56 Y s 752 416 m 57 Y s 747 349 m 11 X
 s 747 473 m 11 X s black 752 411 m20 1 0 0 c 760 353 m 56 Y s 760 421 m 56 Y s
 754 353 m 12 X s 754 477 m 12 X s black 760 415 m20 1 0 0 c 776 357 m 57 Y s
 776 425 m 57 Y s 770 357 m 11 X s 770 482 m 11 X s black 776 419 m20 1 0 0 c
 768 359 m 56 Y s 768 427 m 56 Y s 762 359 m 12 X s 762 483 m 12 X s black 768
 421 m20 1 0 0 c 783 364 m 57 Y s 783 432 m 57 Y s 778 364 m 11 X s 778 489 m 11
 X s black 783 426 m20 1 0 0 c 791 363 m 57 Y s 791 432 m 56 Y s 786 363 m 11 X
 s 786 488 m 11 X s black 791 426 m20 1 0 0 c 799 365 m 57 Y s 799 433 m 57 Y s
 793 365 m 12 X s 793 490 m 12 X s black 799 428 m20 1 0 0 c 807 366 m 57 Y s
 807 434 m 58 Y s 801 366 m 12 X s 801 492 m 12 X s black 807 429 m20 1 0 0 c
 815 367 m 58 Y s 815 436 m 57 Y s 809 367 m 11 X s 809 493 m 11 X s black 815
 430 m20 1 0 0 c 823 372 m 58 Y s 823 441 m 58 Y s 817 372 m 11 X s 817 499 m 11
 X s black 823 435 m20 1 0 0 c 830 373 m 58 Y s 830 442 m 58 Y s 825 373 m 11 X
 s 825 500 m 11 X s black 830 437 m20 1 0 0 c 838 379 m 57 Y s 838 448 m 58 Y s
 832 379 m 12 X s 832 506 m 12 X s black 838 442 m20 1 0 0 c 846 382 m 58 Y s
 846 451 m 58 Y s 840 382 m 12 X s 840 509 m 12 X s black 846 446 m20 1 0 0 c
 854 388 m 58 Y s 854 457 m 58 Y s 848 388 m 11 X s 848 515 m 11 X s black 854
 452 m20 1 0 0 c 862 393 m 58 Y s 862 462 m 59 Y s 856 393 m 11 X s 856 521 m 11
 X s black 862 457 m20 1 0 0 c 869 399 m 58 Y s 869 468 m 59 Y s 864 399 m 11 X
 s 864 527 m 11 X s black 869 463 m20 1 0 0 c 877 402 m 59 Y s 877 472 m 58 Y s
 872 402 m 11 X s 872 530 m 11 X s black 877 466 m20 1 0 0 c 885 405 m 59 Y s
 885 475 m 59 Y s 879 405 m 12 X s 879 534 m 12 X s black 885 469 m20 1 0 0 c
 893 405 m 59 Y s 893 475 m 59 Y s 887 405 m 12 X s 887 534 m 12 X s black 893
 469 m20 1 0 0 c 901 404 m 60 Y s 901 475 m 59 Y s 895 404 m 11 X s 895 534 m 11
 X s black 901 469 m20 1 0 0 c 908 404 m 60 Y s 908 475 m 59 Y s 903 404 m 11 X
 s 903 534 m 11 X s black 908 469 m20 1 0 0 c 916 404 m 60 Y s 916 475 m 59 Y s
 911 404 m 11 X s 911 534 m 11 X s black 916 469 m20 1 0 0 c 924 404 m 60 Y s
 924 475 m 59 Y s 918 404 m 12 X s 918 534 m 12 X s black 924 469 m20 1 0 0 c
 932 404 m 60 Y s 932 475 m 59 Y s 926 404 m 12 X s 926 534 m 12 X s black 932
 469 m20 1 0 0 c 940 404 m 60 Y s 940 475 m 60 Y s 934 404 m 11 X s 934 535 m 11
 X s black 940 469 m20 1 0 0 c 948 404 m 60 Y s 948 475 m 60 Y s 942 404 m 11 X
 s 942 535 m 11 X s black 948 469 m20 1 0 0 c 955 404 m 60 Y s 955 475 m 60 Y s
 950 404 m 11 X s 950 535 m 11 X s black 955 469 m20 1 0 0 c 963 404 m 61 Y s
 963 476 m 60 Y s 957 404 m 12 X s 957 536 m 12 X s black 963 470 m20 1 0 0 c
 971 411 m 61 Y s 971 483 m 60 Y s 965 411 m 12 X s 965 543 m 12 X s black 971
 477 m20 1 0 0 c 979 415 m 60 Y s 979 487 m 60 Y s 973 415 m 11 X s 973 547 m 11
 X s black 979 481 m20 1 0 0 c 987 418 m 60 Y s 987 489 m 61 Y s 981 418 m 11 X
 s 981 550 m 11 X s black 987 484 m20 1 0 0 c 994 420 m 60 Y s 994 492 m 60 Y s
 989 420 m 11 X s 989 552 m 11 X s black 994 486 m20 1 0 0 c 1002 427 m 61 Y s
 1002 500 m 61 Y s 997 427 m 11 X s 997 561 m 11 X s black 1002 494 m20 1 0 0 c
 1010 433 m 61 Y s 1010 506 m 61 Y s 1004 433 m 12 X s 1004 567 m 12 X s black
 1010 500 m20 1 0 0 c 1018 438 m 61 Y s 1018 511 m 61 Y s 1012 438 m 11 X s 1012
 572 m 11 X s black 1018 505 m20 1 0 0 c 1026 441 m 62 Y s 1026 514 m 62 Y s
 1020 441 m 11 X s 1020 576 m 11 X s black 1026 509 m20 1 0 0 c 1033 453 m 62 Y
 s 1033 526 m 63 Y s 1028 453 m 11 X s 1028 589 m 11 X s black 1033 521 m20 1 0
 0 c 1041 459 m 63 Y s 1041 533 m 62 Y s 1036 459 m 11 X s 1036 595 m 11 X s
 black 1041 527 m20 1 0 0 c 1049 461 m 63 Y s 1049 535 m 62 Y s 1043 461 m 12 X
 s 1043 597 m 12 X s black 1049 529 m20 1 0 0 c 1057 467 m 62 Y s 1057 541 m 62
 Y s 1051 467 m 12 X s 1051 603 m 12 X s black 1057 535 m20 1 0 0 c 1065 472 m
 62 Y s 1065 546 m 62 Y s 1059 472 m 11 X s 1059 608 m 11 X s black 1065 540 m20
 1 0 0 c 1073 472 m 68 Y s 1073 552 m 68 Y s 1067 472 m 11 X s 1067 620 m 11 X s
 black 1073 546 m20 1 0 0 c 1080 480 m 69 Y s 1080 560 m 68 Y s 1075 480 m 11 X
 s 1075 628 m 11 X s black 1080 554 m20 1 0 0 c 1088 489 m 68 Y s 1088 569 m 68
 Y s 1082 489 m 12 X s 1082 637 m 12 X s black 1088 563 m20 1 0 0 c 1096 491 m
 69 Y s 1096 571 m 69 Y s 1090 491 m 12 X s 1090 640 m 12 X s black 1096 565 m20
 1 0 0 c 1104 495 m 70 Y s 1104 576 m 70 Y s 1098 495 m 11 X s 1098 646 m 11 X s
 black 1104 570 m20 1 0 0 c 1112 500 m 73 Y s 1112 584 m 73 Y s 1106 500 m 11 X
 s 1106 657 m 11 X s black 1112 578 m20 1 0 0 c 1119 505 m 73 Y s 1119 590 m 73
 Y s 1114 505 m 11 X s 1114 663 m 11 X s black 1119 584 m20 1 0 0 c 1127 505 m
 76 Y s 1127 593 m 76 Y s 1122 505 m 11 X s 1122 669 m 11 X s black 1127 587 m20
 1 0 0 c 1135 511 m 76 Y s 1135 599 m 76 Y s 1129 511 m 12 X s 1129 675 m 12 X s
 black 1135 593 m20 1 0 0 c 1143 516 m 77 Y s 1143 604 m 77 Y s 1137 516 m 11 X
 s 1137 681 m 11 X s black 1143 599 m20 1 0 0 c 1151 520 m 76 Y s 1151 608 m 77
 Y s 1145 520 m 11 X s 1145 685 m 11 X s black 1151 602 m20 1 0 0 c 1158 524 m
 77 Y s 1158 613 m 77 Y s 1153 524 m 11 X s 1153 690 m 11 X s black 1158 607 m20
 1 0 0 c 1166 530 m 77 Y s 1166 619 m 77 Y s 1161 530 m 11 X s 1161 696 m 11 X s
 black 1166 613 m20 1 0 0 c 1174 536 m 78 Y s 1174 625 m 77 Y s 1168 536 m 12 X
 s 1168 702 m 12 X s black 1174 619 m20 1 0 0 c 1182 542 m 77 Y s 1182 630 m 78
 Y s 1176 542 m 12 X s 1176 708 m 12 X s black 1182 625 m20 1 0 0 c 1190 547 m
 78 Y s 1190 636 m 78 Y s 1184 547 m 11 X s 1184 714 m 11 X s black 1190 631 m20
 1 0 0 c 1198 552 m 77 Y s 1198 640 m 78 Y s 1192 552 m 11 X s 1192 718 m 11 X s
 black 1198 635 m20 1 0 0 c 1205 554 m 78 Y s 1205 643 m 78 Y s 1200 554 m 11 X
 s 1200 721 m 11 X s black 1205 638 m20 1 0 0 c 1213 554 m 78 Y s 1213 643 m 78
 Y s 1207 554 m 12 X s 1207 721 m 12 X s black 1213 637 m20 1 0 0 c 1221 562 m
 79 Y s 1221 652 m 79 Y s 1215 562 m 12 X s 1215 731 m 12 X s black 1221 647 m20
 1 0 0 c 1229 571 m 79 Y s 1229 661 m 79 Y s 1223 571 m 11 X s 1223 740 m 11 X s
 black 1229 656 m20 1 0 0 c 1237 577 m 79 Y s 1237 668 m 78 Y s 1231 577 m 11 X
 s 1231 746 m 11 X s black 1237 662 m20 1 0 0 c 1244 584 m 79 Y s 1244 675 m 79
 Y s 1239 584 m 11 X s 1239 754 m 11 X s black 1244 669 m20 1 0 0 c 1252 593 m
 79 Y s 1252 683 m 79 Y s 1247 593 m 11 X s 1247 762 m 11 X s black 1252 678 m20
 1 0 0 c 1260 599 m 79 Y s 1260 690 m 79 Y s 1254 599 m 12 X s 1254 769 m 12 X s
 black 1260 684 m20 1 0 0 c 1268 602 m 79 Y s 1268 693 m 80 Y s 1262 602 m 11 X
 s 1262 773 m 11 X s black 1268 687 m20 1 0 0 c 1276 608 m 80 Y s 1276 699 m 80
 Y s 1270 608 m 11 X s 1270 779 m 11 X s black 1276 694 m20 1 0 0 c 1283 619 m
 80 Y s 1283 711 m 79 Y s 1278 619 m 11 X s 1278 790 m 11 X s black 1283 705 m20
 1 0 0 c 1291 637 m 80 Y s 1291 729 m 80 Y s 1286 637 m 11 X s 1286 809 m 11 X s
 black 1291 723 m20 1 0 0 c 1299 641 m 81 Y s 1299 734 m 80 Y s 1293 641 m 12 X
 s 1293 814 m 12 X s black 1299 728 m20 1 0 0 c 1307 650 m 81 Y s 1307 742 m 81
 Y s 1301 650 m 12 X s 1301 823 m 12 X s black 1307 736 m20 1 0 0 c 1315 653 m
 81 Y s 1315 746 m 81 Y s 1309 653 m 11 X s 1309 827 m 11 X s black 1315 740 m20
 1 0 0 c 1322 656 m 82 Y s 1322 749 m 82 Y s 1317 656 m 11 X s 1317 831 m 11 X s
 black 1322 743 m20 1 0 0 c 1330 657 m 82 Y s 1330 750 m 82 Y s 1325 657 m 11 X
 s 1325 832 m 11 X s black 1330 744 m20 1 0 0 c 1338 659 m 82 Y s 1338 753 m 81
 Y s 1332 659 m 12 X s 1332 834 m 12 X s black 1338 747 m20 1 0 0 c 1346 659 m
 81 Y s 1346 752 m 82 Y s 1340 659 m 12 X s 1340 834 m 12 X s black 1346 746 m20
 1 0 0 c 1354 663 m 83 Y s 1354 757 m 82 Y s 1348 663 m 11 X s 1348 839 m 11 X s
 black 1354 751 m20 1 0 0 c 1362 669 m 83 Y s 1362 763 m 83 Y s 1356 669 m 11 X
 s 1356 846 m 11 X s black 1362 758 m20 1 0 0 c 1369 670 m 84 Y s 1369 765 m 84
 Y s 1364 670 m 11 X s 1364 849 m 11 X s black 1369 759 m20 1 0 0 c 1377 669 m
 87 Y s 1377 767 m 87 Y s 1372 669 m 11 X s 1372 854 m 11 X s black 1377 761 m20
 1 0 0 c 1385 675 m 87 Y s 1385 773 m 87 Y s 1379 675 m 12 X s 1379 860 m 12 X s
 black 1385 767 m20 1 0 0 c 1393 685 m 87 Y s 1393 783 m 88 Y s 1387 685 m 11 X
 s 1387 871 m 11 X s black 1393 778 m20 1 0 0 c 1401 697 m 87 Y s 1401 795 m 88
 Y s 1395 697 m 11 X s 1395 883 m 11 X s black 1401 790 m20 1 0 0 c 1408 702 m
 88 Y s 1408 801 m 87 Y s 1403 702 m 11 X s 1403 888 m 11 X s black 1408 795 m20
 1 0 0 c 1416 709 m 87 Y s 1416 808 m 87 Y s 1411 709 m 11 X s 1411 895 m 11 X s
 black 1416 802 m20 1 0 0 c 1424 715 m 88 Y s 1424 814 m 87 Y s 1418 715 m 12 X
 s 1418 901 m 12 X s black 1424 808 m20 1 0 0 c 1432 721 m 88 Y s 1432 820 m 88
 Y s 1426 721 m 12 X s 1426 908 m 12 X s black 1432 814 m20 1 0 0 c 1440 728 m
 88 Y s 1440 828 m 88 Y s 1434 728 m 11 X s 1434 916 m 11 X s black 1440 822 m20
 1 0 0 c 1447 734 m 89 Y s 1447 834 m 89 Y s 1442 734 m 11 X s 1442 923 m 11 X s
 black 1447 828 m20 1 0 0 c 1455 734 m 89 Y s 1455 834 m 89 Y s 1450 734 m 11 X
 s 1450 923 m 11 X s black 1455 828 m20 1 0 0 c 1463 743 m 90 Y s 1463 844 m 89
 Y s 1457 743 m 12 X s 1457 933 m 12 X s black 1463 838 m20 1 0 0 c 1471 748 m
 89 Y s 1471 848 m 90 Y s 1465 748 m 12 X s 1465 938 m 12 X s black 1471 843 m20
 1 0 0 c 1479 748 m 89 Y s 1479 849 m 89 Y s 1473 748 m 11 X s 1473 938 m 11 X s
 black 1479 843 m20 1 0 0 c 1487 747 m 90 Y s 1487 849 m 89 Y s 1481 747 m 11 X
 s 1481 938 m 11 X s black 1487 843 m20 1 0 0 c 1494 754 m 92 Y s 1494 857 m 92
 Y s 1489 754 m 11 X s 1489 949 m 11 X s black 1494 852 m20 1 0 0 c 1502 754 m
 94 Y s 1502 860 m 94 Y s 1497 754 m 11 X s 1497 954 m 11 X s black 1502 854 m20
 1 0 0 c 1510 753 m 97 Y s 1510 861 m 96 Y s 1504 753 m 12 X s 1504 957 m 12 X s
 black 1510 855 m20 1 0 0 c 1518 757 m 97 Y s 1518 865 m 97 Y s 1512 757 m 11 X
 s 1512 962 m 11 X s black 1518 860 m20 1 0 0 c 1526 761 m 97 Y s 1526 870 m 97
 Y s 1520 761 m 11 X s 1520 967 m 11 X s black 1526 864 m20 1 0 0 c 1533 769 m
 97 Y s 1533 877 m 97 Y s 1528 769 m 11 X s 1528 974 m 11 X s black 1533 872 m20
 1 0 0 c 1541 776 m 98 Y s 1541 885 m 97 Y s 1536 776 m 11 X s 1536 982 m 11 X s
 black 1541 879 m20 1 0 0 c 1549 786 m 98 Y s 1549 895 m 97 Y s 1543 786 m 12 X
 s 1543 992 m 12 X s black 1549 889 m20 1 0 0 c 1557 793 m 97 Y s 1557 901 m 97
 Y s 1551 793 m 12 X s 1551 998 m 12 X s black 1557 896 m20 1 0 0 c 1565 800 m
 98 Y s 1565 909 m 97 Y s 1559 800 m 11 X s 1559 1006 m 11 X s black 1565 903
 m20 1 0 0 c 1572 809 m 98 Y s 1572 918 m 97 Y s 1567 809 m 11 X s 1567 1015 m
 11 X s black 1572 912 m20 1 0 0 c 1580 819 m 97 Y s 1580 928 m 97 Y s 1575 819
 m 11 X s 1575 1025 m 11 X s black 1580 922 m20 1 0 0 c 1588 822 m 98 Y s 1588
 931 m 98 Y s 1582 822 m 12 X s 1582 1029 m 12 X s black 1588 926 m20 1 0 0 c
 1596 828 m 97 Y s 1596 937 m 97 Y s 1590 828 m 12 X s 1590 1034 m 12 X s black
 1596 931 m20 1 0 0 c 1604 834 m 98 Y s 1604 943 m 98 Y s 1598 834 m 11 X s 1598
 1041 m 11 X s black 1604 938 m20 1 0 0 c 1612 844 m 98 Y s 1612 953 m 98 Y s
 1606 844 m 11 X s 1606 1051 m 11 X s black 1612 947 m20 1 0 0 c 1619 855 m 98 Y
 s 1619 965 m 98 Y s 1614 855 m 11 X s 1614 1063 m 11 X s black 1619 959 m20 1 0
 0 c 1627 861 m 98 Y s 1627 971 m 98 Y s 1621 861 m 12 X s 1621 1069 m 12 X s
 black 1627 965 m20 1 0 0 c 1635 870 m 98 Y s 1635 980 m 98 Y s 1629 870 m 12 X
 s 1629 1078 m 12 X s black 1635 974 m20 1 0 0 c 1643 883 m 99 Y s 1643 994 m 99
 Y s 1637 883 m 11 X s 1637 1093 m 11 X s black 1643 988 m20 1 0 0 c 1651 897 m
 100 Y s 1651 1008 m 100 Y s 1645 897 m 11 X s 1645 1108 m 11 X s black 1651
 1003 m20 1 0 0 c 1658 912 m 100 Y s 1658 1023 m 100 Y s 1653 912 m 11 X s 1653
 1123 m 11 X s black 1658 1017 m20 1 0 0 c 1666 919 m 100 Y s 1666 1030 m 101 Y
 s 1661 919 m 11 X s 1661 1131 m 11 X s black 1666 1025 m20 1 0 0 c 1674 929 m
 101 Y s 1674 1041 m 100 Y s 1668 929 m 12 X s 1668 1141 m 12 X s black 1674
 1035 m20 1 0 0 c 1682 940 m 100 Y s 1682 1051 m 101 Y s 1676 940 m 12 X s 1676
 1152 m 12 X s black 1682 1046 m20 1 0 0 c 1690 951 m 100 Y s 1690 1062 m 101 Y
 s 1684 951 m 11 X s 1684 1163 m 11 X s black 1690 1057 m20 1 0 0 c 1697 953 m
 101 Y s 1697 1065 m 101 Y s 1692 953 m 11 X s 1692 1166 m 11 X s black 1697
 1059 m20 1 0 0 c 1705 960 m 101 Y s 1705 1072 m 102 Y s 1700 960 m 11 X s 1700
 1174 m 11 X s black 1705 1067 m20 1 0 0 c 1713 970 m 102 Y s 1713 1083 m 101 Y
 s 1707 970 m 12 X s 1707 1184 m 12 X s black 1713 1077 m20 1 0 0 c 1721 977 m
 102 Y s 1721 1090 m 102 Y s 1715 977 m 12 X s 1715 1192 m 12 X s black 1721
 1085 m20 1 0 0 c 1729 984 m 102 Y s 1729 1097 m 102 Y s 1723 984 m 11 X s 1723
 1199 m 11 X s black 1729 1092 m20 1 0 0 c 1737 992 m 102 Y s 1737 1105 m 102 Y
 s 1731 992 m 11 X s 1731 1207 m 11 X s black 1737 1100 m20 1 0 0 c 1744 998 m
 102 Y s 1744 1111 m 102 Y s 1739 998 m 11 X s 1739 1213 m 11 X s black 1744
 1106 m20 1 0 0 c 1752 1003 m 101 Y s 1752 1116 m 101 Y s 1746 1003 m 12 X s
 1746 1217 m 12 X s black 1752 1110 m20 1 0 0 c 1760 1012 m 101 Y s 1760 1125 m
 101 Y s 1754 1012 m 12 X s 1754 1226 m 12 X s black 1760 1119 m20 1 0 0 c 1768
 1019 m 102 Y s 1768 1132 m 102 Y s 1762 1019 m 11 X s 1762 1234 m 11 X s black
 1768 1126 m20 1 0 0 c 1776 1028 m 102 Y s 1776 1141 m 102 Y s 1770 1028 m 11 X
 s 1770 1243 m 11 X s black 1776 1136 m20 1 0 0 c 1783 1038 m 102 Y s 1783 1152
 m 101 Y s 1778 1038 m 11 X s 1778 1253 m 11 X s black 1783 1146 m20 1 0 0 c
 1791 1050 m 102 Y s 1791 1164 m 102 Y s 1786 1050 m 11 X s 1786 1266 m 11 X s
 black 1791 1158 m20 1 0 0 c 1799 1057 m 102 Y s 1799 1171 m 102 Y s 1793 1057 m
 12 X s 1793 1273 m 12 X s black 1799 1165 m20 1 0 0 c 1815 1070 m 102 Y s 1815
 1183 m 103 Y s 1809 1070 m 11 X s 1809 1286 m 11 X s black 1815 1178 m20 1 0 0
 c 1807 1077 m 102 Y s 1807 1191 m 102 Y s 1801 1077 m 12 X s 1801 1293 m 12 X s
 black 1807 1185 m20 1 0 0 c 1822 1092 m 102 Y s 1822 1205 m 103 Y s 1817 1092 m
 11 X s 1817 1308 m 11 X s black 1822 1200 m20 1 0 0 c 1830 1100 m 103 Y s 1830
 1214 m 103 Y s 1825 1100 m 11 X s 1825 1317 m 11 X s black 1830 1209 m20 1 0 0
 c 1838 1111 m 103 Y s 1838 1225 m 103 Y s 1832 1111 m 12 X s 1832 1328 m 12 X s
 black 1838 1220 m20 1 0 0 c 1846 1112 m 103 Y s 1846 1226 m 103 Y s 1840 1112 m
 12 X s 1840 1329 m 12 X s black 1846 1221 m20 1 0 0 c 1854 1115 m 103 Y s 1854
 1230 m 103 Y s 1848 1115 m 11 X s 1848 1333 m 11 X s black 1854 1224 m20 1 0 0
 c 1862 1125 m 103 Y s 1862 1239 m 104 Y s 1856 1125 m 11 X s 1856 1343 m 11 X s
 black 1862 1234 m20 1 0 0 c 1869 1133 m 104 Y s 1869 1248 m 104 Y s 1864 1133 m
 11 X s 1864 1352 m 11 X s black 1869 1243 m20 1 0 0 c 1877 1148 m 104 Y s 1877
 1264 m 104 Y s 1871 1148 m 12 X s 1871 1368 m 12 X s black 1877 1258 m20 1 0 0
 c 1885 1152 m 106 Y s 1885 1269 m 107 Y s 1879 1152 m 12 X s 1879 1376 m 12 X s
 black 1885 1264 m20 1 0 0 c 1893 1155 m 106 Y s 1893 1272 m 107 Y s 1887 1155 m
 11 X s 1887 1379 m 11 X s black 1893 1267 m20 1 0 0 c 1901 1170 m 106 Y s 1901
 1288 m 106 Y s 1895 1170 m 11 X s 1895 1394 m 11 X s black 1901 1282 m20 2268
 1701 0 0 C 1 lw 1729 73 m -39 Y s 1730 74 m -40 Y s 1729 73 m -40 Y s 1730 75 m
 -40 Y s 1728 73 m -40 Y s 1731 75 m -40 Y s 1728 72 m -40 Y s 1731 75 m -39 Y s
 1716 73 m 26 X s 1717 74 m 26 X s 1715 73 m 27 X s 1717 75 m 26 X s 1715 73 m
 26 X s 1717 75 m 27 X s 1715 72 m 26 X s 1718 75 m 26 X s 1750 73 m 2 -2 d 2 2
 d -2 2 d -2 -2 d cl s 1751 74 m 1 -2 d 2 2 d -2 2 d -1 -2 d cl s 1749 73 m 2 -2
 d 2 2 d -2 2 d -2 -2 d cl s 1751 75 m 2 -2 d 2 2 d -2 1 d -2 -1 d cl s 1749 73
 m 2 -2 d 2 2 d -2 1 d -2 -1 d cl s 1751 75 m 2 -2 d 2 2 d -2 2 d -2 -2 d cl s
 1749 72 m 1 -2 d 2 2 d -2 2 d -1 -2 d cl s 1752 75 m 2 -2 d 2 2 d -2 2 d -2 -2
 d cl s 1752 60 m -26 Y s 1752 61 m -27 Y s 1751 60 m -27 Y s 1753 61 m -26 Y s
 1751 59 m -26 Y s 1753 62 m -27 Y s 1750 59 m -27 Y s 1754 62 m -26 Y s 1767 60
 m -26 Y s 1768 61 m -27 Y s 1766 60 m -27 Y s 1768 61 m -26 Y s 1766 59 m -26 Y
 s 1768 62 m -27 Y s 1766 59 m -27 Y s 1769 62 m -26 Y s 1767 53 m 5 5 d 4 2 d 6
 X 4 -2 d 2 -5 d -19 Y s 1768 53 m 5 6 d 4 2 d 6 X 3 -2 d 2 -6 d -19 Y s 1766 52
 m 6 6 d 4 2 d 5 X 4 -2 d 2 -6 d -19 Y s 1768 54 m 6 5 d 3 2 d 6 X 4 -2 d 2 -5 d
 -19 Y s 1766 52 m 6 5 d 3 2 d 6 X 4 -2 d 2 -5 d -19 Y s 1768 54 m 6 6 d 4 2 d 5
 X 4 -2 d 2 -6 d -19 Y s 1766 51 m 5 6 d 4 2 d 6 X 3 -2 d 2 -6 d -19 Y s 1769 55
 m 5 5 d 4 2 d 6 X 4 -2 d 2 -5 d -19 Y s 1788 53 m 5 5 d 4 2 d 6 X 3 -2 d 2 -5 d
 -19 Y s 1788 53 m 6 6 d 4 2 d 5 X 4 -2 d 2 -6 d -19 Y s 1787 52 m 6 6 d 4 2 d 5
 X 4 -2 d 2 -6 d -19 Y s 1789 54 m 5 5 d 4 2 d 6 X 4 -2 d 2 -5 d -19 Y s 1787 52
 m 5 5 d 4 2 d 6 X 4 -2 d 2 -5 d -19 Y s 1789 54 m 6 6 d 4 2 d 5 X 4 -2 d 2 -6 d
 -19 Y s 1786 51 m 6 6 d 4 2 d 5 X 4 -2 d 2 -6 d -19 Y s 1790 55 m 5 5 d 4 2 d 6
 X 3 -2 d 2 -5 d -19 Y s 1822 49 m 22 X 4 Y -2 3 d -2 2 d -3 2 d -6 X -4 -2 d -4
 -4 d -1 -5 d -4 Y 1 -6 d 4 -3 d 4 -2 d 6 X 3 2 d 4 3 d s 1822 50 m 23 X 3 Y -2
 4 d -2 2 d -4 2 d -5 X -4 -2 d -4 -4 d -2 -5 d -4 Y 2 -6 d 4 -4 d 4 -2 d 5 X 4
 2 d 4 4 d s 1821 48 m 23 X 4 Y -2 4 d -2 2 d -4 2 d -5 X -4 -2 d -4 -4 d -2 -6
 d -3 Y 2 -6 d 4 -4 d 4 -2 d 5 X 4 2 d 4 4 d s 1823 50 m 22 X 4 Y -1 3 d -2 2 d
 -4 2 d -6 X -4 -2 d -3 -3 d -2 -6 d -4 Y 2 -6 d 3 -3 d 4 -2 d 6 X 4 2 d 3 3 d s
 1821 48 m 22 X 4 Y -1 4 d -2 1 d -4 2 d -6 X -4 -2 d -3 -3 d -2 -6 d -4 Y 2 -6
 d 3 -3 d 4 -2 d 6 X 4 2 d 3 3 d s 1823 50 m 23 X 4 Y -2 4 d -2 2 d -4 2 d -5 X
 -4 -2 d -4 -4 d -2 -6 d -3 Y 2 -6 d 4 -4 d 4 -2 d 5 X 4 2 d 4 4 d s 1820 48 m
 23 X 3 Y -2 4 d -2 2 d -4 2 d -5 X -4 -2 d -4 -4 d -2 -5 d -4 Y 2 -6 d 4 -4 d 4
 -2 d 5 X 4 2 d 4 4 d s 1824 51 m 22 X 4 Y -2 3 d -2 2 d -3 2 d -6 X -4 -2 d -4
 -4 d -1 -5 d -4 Y 1 -6 d 4 -4 d 4 -1 d 6 X 3 1 d 4 4 d s 1861 36 m -2 -2 d -2 2
 d 2 1 d 2 -1 d -4 Y -2 -4 d -2 -2 d s 1862 36 m -2 -2 d -2 2 d 2 2 d 2 -2 d -3
 Y -2 -4 d -2 -2 d s 1861 35 m -2 -2 d -2 2 d 2 2 d 2 -2 d -4 Y -2 -3 d -2 -2 d
 s 1862 37 m -1 -2 d -2 2 d 2 2 d 1 -2 d -4 Y -1 -4 d -2 -2 d s 1860 35 m -1 -2
 d -2 2 d 2 2 d 1 -2 d -4 Y -1 -4 d -2 -2 d s 1863 37 m -2 -2 d -2 2 d 2 2 d 2
 -2 d -4 Y -2 -3 d -2 -2 d s 1860 34 m -2 -2 d -2 2 d 2 2 d 2 -2 d -3 Y -2 -4 d
 -2 -2 d s 1863 37 m -2 -1 d -2 1 d 2 2 d 2 -2 d -3 Y -2 -4 d -2 -2 d s 1935 73
 m -39 Y s 1936 74 m -40 Y s 1935 73 m -40 Y s 1936 75 m -40 Y s 1934 73 m -40 Y
 s 1937 75 m -40 Y s 1934 72 m -40 Y s 1937 75 m -39 Y s 1935 54 m -4 4 d -4 2 d
 -5 X -4 -2 d -4 -4 d -2 -5 d -4 Y 2 -6 d 4 -3 d 4 -2 d 5 X 4 2 d 4 3 d s 1936
 55 m -4 4 d -4 2 d -5 X -4 -2 d -4 -4 d -2 -5 d -4 Y 2 -6 d 4 -4 d 4 -2 d 5 X 4
 2 d 4 4 d s 1935 54 m -4 4 d -4 2 d -6 X -3 -2 d -4 -4 d -2 -6 d -3 Y 2 -6 d 4
 -4 d 3 -2 d 6 X 4 2 d 4 4 d s 1936 56 m -4 3 d -3 2 d -6 X -4 -2 d -4 -3 d -2
 -6 d -4 Y 2 -6 d 4 -3 d 4 -2 d 6 X 3 2 d 4 3 d s 1934 54 m -4 3 d -3 2 d -6 X
 -4 -2 d -4 -3 d -2 -6 d -4 Y 2 -6 d 4 -3 d 4 -2 d 6 X 3 2 d 4 3 d s 1937 56 m
 -4 4 d -4 2 d -6 X -3 -2 d -4 -4 d -2 -6 d -3 Y 2 -6 d 4 -4 d 3 -2 d 6 X 4 2 d
 4 4 d s 1934 53 m -4 4 d -4 2 d -5 X -4 -2 d -4 -4 d -2 -5 d -4 Y 2 -6 d 4 -4 d
 4 -2 d 5 X 4 2 d 4 4 d s 1937 56 m -4 4 d -4 2 d -5 X -4 -2 d -4 -4 d -2 -5 d
 -4 Y 2 -6 d 4 -4 d 4 -1 d 5 X 4 1 d 4 4 d s 1971 60 m -26 Y s 1972 61 m -27 Y s
 1970 60 m -27 Y s 1972 61 m -26 Y s 1970 59 m -26 Y s 1972 62 m -27 Y s 1970 59
 m -27 Y s 1973 62 m -26 Y s 1971 54 m -4 4 d -4 2 d -5 X -4 -2 d -4 -4 d -2 -5
 d -4 Y 2 -6 d 4 -3 d 4 -2 d 5 X 4 2 d 4 3 d s 1972 55 m -4 4 d -4 2 d -6 X -3
 -2 d -4 -4 d -2 -5 d -4 Y 2 -6 d 4 -4 d 3 -2 d 6 X 4 2 d 4 4 d s 1970 54 m -3 4
 d -4 2 d -6 X -4 -2 d -3 -4 d -2 -6 d -3 Y 2 -6 d 3 -4 d 4 -2 d 6 X 4 2 d 3 4 d
 s 1972 56 m -4 3 d -3 2 d -6 X -4 -2 d -4 -3 d -2 -6 d -4 Y 2 -6 d 4 -3 d 4 -2
 d 6 X 3 2 d 4 3 d s 1970 54 m -4 3 d -3 2 d -6 X -4 -2 d -4 -3 d -2 -6 d -4 Y 2
 -6 d 4 -3 d 4 -2 d 6 X 3 2 d 4 3 d s 1972 56 m -3 4 d -4 2 d -6 X -4 -2 d -3 -4
 d -2 -6 d -3 Y 2 -6 d 3 -4 d 4 -2 d 6 X 4 2 d 3 4 d s 1970 53 m -4 4 d -4 2 d
 -6 X -3 -2 d -4 -4 d -2 -5 d -4 Y 2 -6 d 4 -4 d 3 -2 d 6 X 4 2 d 4 4 d s 1973
 56 m -4 4 d -4 2 d -5 X -4 -2 d -4 -4 d -2 -5 d -4 Y 2 -6 d 4 -4 d 4 -1 d 5 X 4
 1 d 4 4 d s 1982 60 m 12 -26 d s 1983 61 m 11 -27 d s 1982 60 m 11 -27 d s 1983
 61 m 12 -26 d s 1981 59 m 12 -26 d s 1984 62 m 11 -27 d s 1981 59 m 11 -27 d s
 1984 62 m 12 -26 d s 2005 60 m -11 -26 d -4 -8 d -4 -4 d -4 -2 d -2 X s 2006 61
 m -12 -27 d -3 -7 d -4 -4 d -4 -2 d -2 X s 2004 60 m -11 -27 d -4 -7 d -3 -4 d
 -4 -2 d -2 X s 2006 61 m -11 -26 d -4 -8 d -4 -4 d -4 -1 d -1 X s 2004 59 m -11
 -26 d -4 -8 d -4 -4 d -4 -1 d -1 X s 2006 62 m -11 -27 d -4 -7 d -3 -4 d -4 -2
 d -2 X s 2004 59 m -12 -27 d -3 -7 d -4 -4 d -4 -2 d -2 X s 2007 62 m -11 -26 d
 -4 -8 d -4 -4 d -4 -2 d -2 X s 2035 54 m -2 4 d -5 2 d -6 X -6 -2 d -2 -4 d 2
 -3 d 4 -2 d 9 -2 d 4 -2 d 2 -4 d -2 Y -2 -3 d -5 -2 d -6 X -6 2 d -2 3 d s 2036
 55 m -2 4 d -6 2 d -5 X -6 -2 d -2 -4 d 2 -4 d 4 -1 d 9 -2 d 4 -2 d 2 -4 d -2 Y
 -2 -4 d -6 -2 d -5 X -6 2 d -2 4 d s 2035 54 m -2 4 d -6 2 d -5 X -6 -2 d -2 -4
 d 2 -4 d 4 -2 d 9 -2 d 4 -1 d 2 -4 d -2 Y -2 -4 d -6 -2 d -5 X -6 2 d -2 4 d s
 2036 56 m -2 3 d -5 2 d -6 X -6 -2 d -1 -3 d 1 -4 d 4 -2 d 10 -2 d 3 -2 d 2 -4
 d -2 Y -2 -3 d -5 -2 d -6 X -6 2 d -1 3 d s 2034 54 m -2 3 d -5 2 d -6 X -6 -2
 d -1 -3 d 1 -4 d 4 -2 d 10 -2 d 3 -2 d 2 -4 d -2 Y -2 -3 d -5 -2 d -6 X -6 2 d
 -1 3 d s 2037 56 m -2 4 d -6 2 d -6 X -5 -2 d -2 -4 d 2 -4 d 4 -2 d 9 -2 d 4 -1
 d 2 -4 d -2 Y -2 -4 d -6 -2 d -6 X -5 2 d -2 4 d s 2034 53 m -2 4 d -6 2 d -5 X
 -6 -2 d -2 -4 d 2 -4 d 4 -1 d 9 -2 d 4 -2 d 2 -4 d -2 Y -2 -4 d -6 -2 d -5 X -6
 2 d -2 4 d s 2037 56 m -2 4 d -5 2 d -6 X -6 -2 d -2 -4 d 2 -3 d 4 -2 d 9 -2 d
 4 -2 d 2 -4 d -2 Y -2 -4 d -5 -1 d -6 X -6 1 d -2 4 d s 62 903 m 40 X s 63 904
 m 39 X s 62 903 m 39 X s 63 904 m 40 X s 61 902 m 40 X s 64 905 m 39 X s 61 902
 m 39 X s 64 905 m 40 X s 62 903 m 13 Y 2 6 d 4 4 d 3 2 d 6 1 d 10 X 5 -1 d 4 -2
 d 4 -4 d 2 -6 d -13 Y s 63 904 m 13 Y 2 6 d 3 3 d 4 2 d 6 2 d 9 X 6 -2 d 4 -2 d
 4 -3 d 1 -6 d -13 Y s 62 903 m 13 Y 1 6 d 4 3 d 4 2 d 6 2 d 9 X 6 -2 d 4 -2 d 3
 -3 d 2 -6 d -13 Y s 63 904 m 13 Y 2 6 d 4 4 d 4 2 d 5 2 d 10 X 5 -2 d 4 -2 d 4
 -4 d 2 -6 d -13 Y s 61 902 m 13 Y 2 6 d 4 4 d 4 2 d 5 2 d 10 X 5 -2 d 4 -2 d 4
 -4 d 2 -6 d -13 Y s 64 905 m 13 Y 1 6 d 4 3 d 4 2 d 6 2 d 9 X 6 -2 d 4 -2 d 3
 -3 d 2 -6 d -13 Y s 61 902 m 13 Y 2 6 d 3 4 d 4 1 d 6 2 d 9 X 6 -2 d 4 -1 d 4
 -4 d 1 -6 d -13 Y s 64 905 m 13 Y 2 6 d 4 4 d 3 2 d 6 1 d 10 X 5 -1 d 4 -2 d 4
 -4 d 2 -6 d -13 Y s 75 950 m 2 -4 d 4 -3 d 6 -2 d 3 X 6 2 d 4 3 d 2 4 d 6 Y -2
 4 d -4 4 d -6 1 d -3 X -6 -1 d -4 -4 d -2 -4 d -6 Y cl s 76 951 m 2 -4 d 4 -3 d
 5 -2 d 4 X 6 2 d 4 3 d 1 4 d 6 Y -1 4 d -4 3 d -6 2 d -4 X -5 -2 d -4 -3 d -2
 -4 d -6 Y cl s 75 950 m 2 -4 d 3 -4 d 6 -2 d 4 X 6 2 d 3 4 d 2 4 d 6 Y -2 3 d
 -3 4 d -6 2 d -4 X -6 -2 d -3 -4 d -2 -3 d -6 Y cl s 76 951 m 2 -3 d 4 -4 d 6
 -2 d 4 X 5 2 d 4 4 d 2 3 d 6 Y -2 4 d -4 4 d -5 2 d -4 X -6 -2 d -4 -4 d -2 -4
 d -6 Y cl s 74 949 m 2 -3 d 4 -4 d 6 -2 d 4 X 5 2 d 4 4 d 2 3 d 6 Y -2 4 d -4 4
 d -5 2 d -4 X -6 -2 d -4 -4 d -2 -4 d -6 Y cl s 77 952 m 2 -4 d 3 -4 d 6 -2 d 4
 X 6 2 d 3 4 d 2 4 d 6 Y -2 3 d -3 4 d -6 2 d -4 X -6 -2 d -3 -4 d -2 -3 d -6 Y
 cl s 74 949 m 2 -4 d 4 -3 d 5 -2 d 4 X 6 2 d 4 3 d 1 4 d 6 Y -1 4 d -4 3 d -6 2
 d -4 X -5 -2 d -4 -3 d -2 -4 d -6 Y cl s 77 952 m 2 -4 d 4 -3 d 6 -2 d 3 X 6 2
 d 4 3 d 2 4 d 6 Y -2 4 d -4 3 d -6 2 d -3 X -6 -2 d -4 -3 d -2 -4 d -6 Y cl s
 81 998 m -4 -2 d -2 -6 d -6 Y 2 -5 d 4 -2 d 4 2 d 2 3 d 1 10 d 2 4 d 4 2 d 2 X
 4 -2 d 2 -6 d -6 Y -2 -5 d -4 -2 d s 82 998 m -4 -2 d -2 -5 d -6 Y 2 -6 d 4 -1
 d 3 1 d 2 4 d 2 10 d 2 3 d 4 2 d 2 X 4 -2 d 1 -5 d -6 Y -1 -6 d -4 -1 d s 80
 997 m -3 -2 d -2 -5 d -6 Y 2 -6 d 3 -2 d 4 2 d 2 4 d 2 9 d 2 4 d 4 2 d 2 X 3 -2
 d 2 -5 d -6 Y -2 -6 d -3 -2 d s 82 999 m -4 -2 d -2 -6 d -6 Y 2 -5 d 4 -2 d 4 2
 d 2 4 d 2 9 d 2 4 d 3 2 d 2 X 4 -2 d 2 -6 d -6 Y -2 -5 d -4 -2 d s 80 997 m -4
 -2 d -2 -6 d -6 Y 2 -5 d 4 -2 d 4 2 d 2 4 d 2 9 d 2 4 d 3 2 d 2 X 4 -2 d 2 -6 d
 -6 Y -2 -5 d -4 -2 d s 82 999 m -3 -2 d -2 -5 d -6 Y 2 -6 d 3 -2 d 4 2 d 2 4 d
 2 9 d 2 4 d 4 2 d 2 X 3 -2 d 2 -5 d -6 Y -2 -6 d -3 -2 d s 80 996 m -4 -2 d -2
 -5 d -6 Y 2 -6 d 4 -1 d 3 1 d 2 4 d 2 10 d 2 3 d 4 2 d 2 X 4 -2 d 1 -5 d -6 Y
 -1 -6 d -4 -1 d s 83 1000 m -4 -2 d -2 -6 d -6 Y 2 -5 d 4 -2 d 4 2 d 2 3 d 1 10
 d 2 4 d 4 2 d 2 X 4 -2 d 2 -6 d -6 Y -2 -5 d -4 -2 d s 87 1009 m 23 Y -4 X -4
 -2 d -2 -2 d -2 -4 d -6 Y 2 -3 d 4 -4 d 6 -2 d 3 X 6 2 d 4 4 d 2 3 d 6 Y -2 4 d
 -4 4 d s 87 1010 m 22 Y -3 X -4 -2 d -2 -1 d -2 -4 d -6 Y 2 -4 d 4 -3 d 5 -2 d
 4 X 6 2 d 4 3 d 1 4 d 6 Y -1 4 d -4 3 d s 86 1008 m 23 Y -4 X -3 -2 d -2 -2 d
 -2 -3 d -6 Y 2 -4 d 3 -4 d 6 -2 d 4 X 6 2 d 3 4 d 2 4 d 6 Y -2 3 d -3 4 d s 88
 1010 m 23 Y -4 X -4 -2 d -2 -2 d -2 -4 d -5 Y 2 -4 d 4 -4 d 6 -2 d 4 X 5 2 d 4
 4 d 2 4 d 5 Y -2 4 d -4 4 d s 86 1008 m 23 Y -4 X -4 -2 d -2 -2 d -2 -4 d -5 Y
 2 -4 d 4 -4 d 6 -2 d 4 X 5 2 d 4 4 d 2 4 d 5 Y -2 4 d -4 4 d s 88 1010 m 23 Y
 -4 X -3 -2 d -2 -2 d -2 -3 d -6 Y 2 -4 d 3 -4 d 6 -2 d 4 X 6 2 d 3 4 d 2 4 d 6
 Y -2 3 d -3 4 d s 85 1008 m 22 Y -3 X -4 -2 d -2 -1 d -2 -4 d -6 Y 2 -4 d 4 -3
 d 5 -2 d 4 X 6 2 d 4 3 d 1 4 d 6 Y -1 4 d -4 3 d s 89 1011 m 23 Y -4 X -4 -2 d
 -2 -2 d -2 -4 d -6 Y 2 -3 d 4 -4 d 6 -2 d 3 X 6 2 d 4 4 d 2 3 d 6 Y -2 4 d -4 4
 d s 100 1049 m 2 -2 d -2 -2 d -2 2 d 2 2 d 4 X 3 -2 d 2 -2 d s 101 1049 m 1 -2
 d -1 -1 d -2 1 d 2 2 d 3 X 4 -2 d 2 -1 d s 99 1048 m 2 -2 d -2 -2 d -2 2 d 2 2
 d 4 X 4 -2 d 2 -2 d s 101 1050 m 2 -2 d -2 -2 d -2 2 d 2 2 d 4 X 4 -2 d 1 -2 d
 s 99 1048 m 2 -2 d -2 -2 d -2 2 d 2 2 d 4 X 4 -2 d 1 -2 d s 101 1050 m 2 -2 d
 -2 -2 d -2 2 d 2 2 d 4 X 4 -2 d 2 -2 d s 99 1047 m 1 -2 d -1 -1 d -2 1 d 2 2 d
 3 X 4 -2 d 2 -1 d s 102 1051 m 2 -2 d -2 -2 d -2 2 d 2 2 d 4 X 3 -2 d 2 -2 d s
 62 1101 m 40 X s 63 1102 m 39 X s 62 1101 m 39 X s 63 1103 m 40 X s 61 1101 m
 40 X s 64 1103 m 39 X s 61 1100 m 39 X s 64 1103 m 40 X s 62 1101 m 17 Y 2 6 d
 2 2 d 4 2 d 3 X 4 -2 d 2 -2 d 2 -6 d -17 Y s 63 1102 m 17 Y 2 6 d 2 2 d 3 2 d 4
 X 4 -2 d 2 -2 d 2 -6 d -17 Y s 62 1101 m 17 Y 1 6 d 2 2 d 4 2 d 4 X 4 -2 d 2 -2
 d 1 -6 d -17 Y s 63 1103 m 17 Y 2 5 d 2 2 d 4 2 d 4 X 3 -2 d 2 -2 d 2 -5 d -17
 Y s 61 1101 m 17 Y 2 5 d 2 2 d 4 2 d 4 X 3 -2 d 2 -2 d 2 -5 d -17 Y s 64 1103 m
 17 Y 1 6 d 2 2 d 4 2 d 4 X 4 -2 d 2 -2 d 1 -6 d -17 Y s 61 1100 m 17 Y 2 6 d 2
 2 d 3 2 d 4 X 4 -2 d 2 -2 d 2 -6 d -17 Y s 64 1103 m 17 Y 2 6 d 2 2 d 4 2 d 3 X
 4 -2 d 2 -2 d 2 -6 d -17 Y s 81 1115 m 21 13 d s 82 1115 m 20 14 d s 80 1114 m
 21 14 d s 82 1116 m 21 13 d s 80 1114 m 21 13 d s 82 1116 m 21 14 d s 80 1114 m
 20 13 d s 83 1117 m 21 13 d s 75 1162 m 27 X s 76 1163 m 26 X s 75 1162 m 26 X
 s 76 1163 m 27 X s 74 1161 m 27 X s 77 1164 m 26 X s 74 1161 m 26 X s 77 1164 m
 27 X s 81 1162 m -4 -4 d -2 -4 d -5 Y 2 -4 d 4 -4 d 6 -2 d 3 X 6 2 d 4 4 d 2 4
 d 5 Y -2 4 d -4 4 d s 82 1163 m -4 -4 d -2 -4 d -5 Y 2 -4 d 4 -4 d 5 -2 d 4 X 6
 2 d 4 4 d 1 4 d 5 Y -1 4 d -4 4 d s 80 1162 m -3 -4 d -2 -4 d -6 Y 2 -3 d 3 -4
 d 6 -2 d 4 X 6 2 d 3 4 d 2 3 d 6 Y -2 4 d -3 4 d s 82 1163 m -4 -4 d -2 -3 d -6
 Y 2 -4 d 4 -4 d 6 -2 d 4 X 5 2 d 4 4 d 2 4 d 6 Y -2 3 d -4 4 d s 80 1161 m -4
 -4 d -2 -3 d -6 Y 2 -4 d 4 -4 d 6 -2 d 4 X 5 2 d 4 4 d 2 4 d 6 Y -2 3 d -4 4 d
 s 82 1164 m -3 -4 d -2 -4 d -6 Y 2 -3 d 3 -4 d 6 -2 d 4 X 6 2 d 3 4 d 2 3 d 6 Y
 -2 4 d -3 4 d s 80 1161 m -4 -4 d -2 -4 d -5 Y 2 -4 d 4 -4 d 5 -2 d 4 X 6 2 d 4
 4 d 1 4 d 5 Y -1 4 d -4 4 d s 83 1164 m -4 -4 d -2 -4 d -5 Y 2 -4 d 4 -4 d 6 -2
 d 3 X 6 2 d 4 4 d 2 4 d 5 Y -2 4 d -4 4 d s 62 1198 m 40 X s 63 1199 m 39 X s
 62 1197 m 39 X s 63 1199 m 40 X s 61 1197 m 40 X s 64 1199 m 39 X s 61 1197 m
 39 X s 64 1200 m 40 X s 81 1198 m -4 -4 d -2 -4 d -5 Y 2 -4 d 4 -4 d 6 -2 d 3 X
 6 2 d 4 4 d 2 4 d 5 Y -2 4 d -4 4 d s 82 1199 m -4 -4 d -2 -4 d -6 Y 2 -3 d 4
 -4 d 5 -2 d 4 X 6 2 d 4 4 d 1 3 d 6 Y -1 4 d -4 4 d s 80 1197 m -3 -3 d -2 -4 d
 -6 Y 2 -4 d 3 -3 d 6 -2 d 4 X 6 2 d 3 3 d 2 4 d 6 Y -2 4 d -3 3 d s 82 1199 m
 -4 -4 d -2 -4 d -5 Y 2 -4 d 4 -4 d 6 -2 d 4 X 5 2 d 4 4 d 2 4 d 5 Y -2 4 d -4 4
 d s 80 1197 m -4 -4 d -2 -3 d -6 Y 2 -4 d 4 -4 d 6 -2 d 4 X 5 2 d 4 4 d 2 4 d 6
 Y -2 3 d -4 4 d s 82 1199 m -3 -3 d -2 -4 d -6 Y 2 -4 d 3 -3 d 6 -2 d 4 X 6 2 d
 3 3 d 2 4 d 6 Y -2 4 d -3 3 d s 80 1197 m -4 -4 d -2 -4 d -6 Y 2 -3 d 4 -4 d 5
 -2 d 4 X 6 2 d 4 4 d 1 3 d 6 Y -1 4 d -4 4 d s 83 1200 m -4 -4 d -2 -4 d -5 Y 2
 -4 d 4 -4 d 6 -2 d 3 X 6 2 d 4 4 d 2 4 d 5 Y -2 4 d -4 4 d s 81 1232 m -4 -2 d
 -2 -6 d -5 Y 2 -6 d 4 -2 d 4 2 d 2 4 d 1 9 d 2 4 d 4 2 d 2 X 4 -2 d 2 -6 d -5 Y
 -2 -6 d -4 -2 d s 82 1233 m -4 -2 d -2 -6 d -6 Y 2 -5 d 4 -2 d 3 2 d 2 4 d 2 9
 d 2 4 d 4 2 d 2 X 4 -2 d 1 -6 d -6 Y -1 -5 d -4 -2 d s 80 1231 m -3 -1 d -2 -6
 d -6 Y 2 -5 d 3 -2 d 4 2 d 2 3 d 2 10 d 2 4 d 4 1 d 2 X 3 -1 d 2 -6 d -6 Y -2
 -5 d -3 -2 d s 82 1233 m -4 -2 d -2 -5 d -6 Y 2 -6 d 4 -2 d 4 2 d 2 4 d 2 9 d 2
 4 d 3 2 d 2 X 4 -2 d 2 -5 d -6 Y -2 -6 d -4 -2 d s 80 1231 m -4 -2 d -2 -5 d -6
 Y 2 -6 d 4 -2 d 4 2 d 2 4 d 2 9 d 2 4 d 3 2 d 2 X 4 -2 d 2 -5 d -6 Y -2 -6 d -4
 -2 d s 82 1233 m -3 -1 d -2 -6 d -6 Y 2 -5 d 3 -2 d 4 2 d 2 3 d 2 10 d 2 4 d 4
 1 d 2 X 3 -1 d 2 -6 d -6 Y -2 -5 d -3 -2 d s 80 1231 m -4 -2 d -2 -6 d -6 Y 2
 -5 d 4 -2 d 3 2 d 2 4 d 2 9 d 2 4 d 4 2 d 2 X 4 -2 d 1 -6 d -6 Y -1 -5 d -4 -2
 d s 83 1234 m -4 -2 d -2 -6 d -5 Y 2 -6 d 4 -2 d 4 2 d 2 4 d 1 9 d 2 4 d 4 2 d
 2 X 4 -2 d 2 -6 d -5 Y -2 -6 d -4 -2 d s 54 1275 m 61 -34 d s 55 1276 m 61 -34
 d s 54 1275 m 60 -34 d s 56 1277 m 60 -34 d s 54 1275 m 60 -34 d s 56 1277 m 60
 -34 d s 53 1274 m 61 -34 d s 56 1277 m 61 -34 d s 81 1307 m -4 -3 d -2 -4 d -6
 Y 2 -4 d 4 -3 d 6 -2 d 3 X 6 2 d 4 3 d 2 4 d 6 Y -2 4 d -4 3 d s 82 1308 m -4
 -4 d -2 -3 d -6 Y 2 -4 d 4 -4 d 5 -1 d 4 X 6 1 d 4 4 d 1 4 d 6 Y -1 3 d -4 4 d
 s 80 1307 m -3 -4 d -2 -3 d -6 Y 2 -4 d 3 -4 d 6 -2 d 4 X 6 2 d 3 4 d 2 4 d 6 Y
 -2 3 d -3 4 d s 82 1309 m -4 -4 d -2 -4 d -6 Y 2 -3 d 4 -4 d 6 -2 d 4 X 5 2 d 4
 4 d 2 3 d 6 Y -2 4 d -4 4 d s 80 1307 m -4 -4 d -2 -4 d -6 Y 2 -3 d 4 -4 d 6 -2
 d 4 X 5 2 d 4 4 d 2 3 d 6 Y -2 4 d -4 4 d s 82 1309 m -3 -4 d -2 -3 d -6 Y 2 -4
 d 3 -4 d 6 -2 d 4 X 6 2 d 3 4 d 2 4 d 6 Y -2 3 d -3 4 d s 80 1306 m -4 -3 d -2
 -4 d -6 Y 2 -4 d 4 -3 d 5 -2 d 4 X 6 2 d 4 3 d 1 4 d 6 Y -1 4 d -4 3 d s 83
 1309 m -4 -3 d -2 -4 d -6 Y 2 -4 d 4 -3 d 6 -2 d 3 X 6 2 d 4 3 d 2 4 d 6 Y -2 4
 d -4 3 d s 75 1321 m 27 X s 76 1322 m 26 X s 75 1320 m 26 X s 76 1322 m 27 X s
 74 1320 m 27 X s 77 1322 m 26 X s 74 1320 m 26 X s 77 1323 m 27 X s 87 1321 m
 -6 2 d -4 3 d -2 4 d 6 Y s 87 1322 m -5 1 d -4 4 d -2 4 d 6 Y s 86 1320 m -6 2
 d -3 4 d -2 4 d 5 Y s 88 1322 m -6 2 d -4 4 d -2 3 d 6 Y s 86 1320 m -6 2 d -4
 4 d -2 3 d 6 Y s 88 1322 m -6 2 d -3 4 d -2 4 d 5 Y s 85 1320 m -5 1 d -4 4 d
 -2 4 d 6 Y s 89 1323 m -6 2 d -4 3 d -2 4 d 6 Y s 75 1342 m 27 11 d s 76 1342 m
 26 12 d s 75 1341 m 26 11 d s 76 1343 m 27 11 d s 74 1341 m 27 11 d s 77 1343 m
 26 11 d s 74 1340 m 26 12 d s 77 1343 m 27 12 d s 75 1364 m 27 -11 d 7 -4 d 4
 -4 d 2 -3 d -2 Y s 76 1365 m 26 -11 d 8 -4 d 4 -4 d 2 -4 d -2 Y s 75 1364 m 26
 -12 d 8 -3 d 4 -4 d 1 -4 d -2 Y s 76 1365 m 27 -11 d 7 -4 d 4 -4 d 2 -3 d -2 Y
 s 74 1363 m 27 -11 d 7 -4 d 4 -4 d 2 -3 d -2 Y s 77 1366 m 26 -12 d 8 -3 d 4 -4
 d 1 -4 d -2 Y s 74 1363 m 26 -11 d 8 -4 d 4 -4 d 2 -4 d -2 Y s 77 1366 m 27 -11
 d 7 -4 d 4 -4 d 2 -4 d -1 Y s 81 1394 m -4 -1 d -2 -6 d -6 Y 2 -5 d 4 -2 d 4 2
 d 2 3 d 1 10 d 2 4 d 4 1 d 2 X 4 -1 d 2 -6 d -6 Y -2 -5 d -4 -2 d s 82 1395 m
 -4 -2 d -2 -5 d -6 Y 2 -6 d 4 -2 d 3 2 d 2 4 d 2 10 d 2 3 d 4 2 d 2 X 4 -2 d 1
 -5 d -6 Y -1 -6 d -4 -2 d s 80 1394 m -3 -2 d -2 -6 d -5 Y 2 -6 d 3 -2 d 4 2 d
 2 4 d 2 9 d 2 4 d 4 2 d 2 X 3 -2 d 2 -6 d -5 Y -2 -6 d -3 -2 d s 82 1396 m -4
 -2 d -2 -6 d -6 Y 2 -5 d 4 -2 d 4 2 d 2 3 d 2 10 d 2 4 d 3 2 d 2 X 4 -2 d 2 -6
 d -6 Y -2 -5 d -4 -2 d s 80 1394 m -4 -2 d -2 -6 d -6 Y 2 -5 d 4 -2 d 4 2 d 2 4
 d 2 9 d 2 4 d 3 2 d 2 X 4 -2 d 2 -6 d -6 Y -2 -5 d -4 -2 d s 82 1396 m -3 -2 d
 -2 -6 d -5 Y 2 -6 d 3 -2 d 4 2 d 2 4 d 2 9 d 2 4 d 4 2 d 2 X 3 -2 d 2 -6 d -5 Y
 -2 -6 d -3 -2 d s 80 1393 m -4 -2 d -2 -5 d -6 Y 2 -6 d 4 -2 d 3 2 d 2 4 d 2 10
 d 2 3 d 4 2 d 2 X 4 -2 d 1 -5 d -6 Y -1 -6 d -4 -2 d s 83 1396 m -4 -1 d -2 -6
 d -6 Y 2 -5 d 4 -2 d 4 2 d 2 3 d 1 10 d 2 4 d 4 1 d 2 X 4 -1 d 2 -6 d -6 Y -2
 -5 d -4 -2 d s 62 1410 m 32 X 6 1 d 2 4 d 4 Y s 63 1410 m 32 X 6 2 d 1 4 d 4 Y
 s 62 1409 m 32 X 5 2 d 2 4 d 4 Y s 63 1411 m 32 X 6 2 d 2 3 d 4 Y s 61 1409 m
 32 X 6 2 d 2 3 d 4 Y s 64 1411 m 32 X 5 2 d 2 4 d 4 Y s 61 1408 m 32 X 6 2 d 1
 4 d 4 Y s 64 1412 m 32 X 6 1 d 2 4 d 4 Y s 75 1404 m 13 Y s 76 1405 m 13 Y s 75
 1403 m 14 Y s 76 1405 m 13 Y s 74 1403 m 13 Y s 77 1405 m 14 Y s 74 1403 m 13 Y
 s 77 1406 m 13 Y s 75 1451 m 27 X s 76 1452 m 26 X s 75 1451 m 26 X s 76 1452 m
 27 X s 74 1450 m 27 X s 77 1453 m 26 X s 74 1450 m 26 X s 77 1453 m 27 X s 81
 1451 m -4 -4 d -2 -3 d -6 Y 2 -4 d 4 -4 d 6 -2 d 3 X 6 2 d 4 4 d 2 4 d 6 Y -2 3
 d -4 4 d s 82 1452 m -4 -4 d -2 -4 d -5 Y 2 -4 d 4 -4 d 5 -2 d 4 X 6 2 d 4 4 d
 1 4 d 5 Y -1 4 d -4 4 d s 80 1451 m -3 -4 d -2 -4 d -6 Y 2 -3 d 3 -4 d 6 -2 d 4
 X 6 2 d 3 4 d 2 3 d 6 Y -2 4 d -3 4 d s 82 1452 m -4 -3 d -2 -4 d -6 Y 2 -4 d 4
 -3 d 6 -2 d 4 X 5 2 d 4 3 d 2 4 d 6 Y -2 4 d -4 3 d s 80 1450 m -4 -3 d -2 -4 d
 -6 Y 2 -4 d 4 -3 d 6 -2 d 4 X 5 2 d 4 3 d 2 4 d 6 Y -2 4 d -4 3 d s 82 1453 m
 -3 -4 d -2 -4 d -6 Y 2 -3 d 3 -4 d 6 -2 d 4 X 6 2 d 3 4 d 2 3 d 6 Y -2 4 d -3 4
 d s 80 1450 m -4 -4 d -2 -4 d -5 Y 2 -4 d 4 -4 d 5 -2 d 4 X 6 2 d 4 4 d 1 4 d 5
 Y -1 4 d -4 4 d s 83 1453 m -4 -4 d -2 -3 d -6 Y 2 -4 d 4 -4 d 6 -2 d 3 X 6 2 d
 4 4 d 2 4 d 6 Y -2 3 d -4 4 d s 62 1466 m 40 X s 63 1467 m 39 X s 62 1466 m 39
 X s 63 1467 m 40 X s 61 1465 m 40 X s 64 1468 m 39 X s 61 1465 m 39 X s 64 1468
 m 40 X s 1757 1247 284 227 C
 gr  gr 
showpage
end
%%EOF
