%!PS-Adobe-2.0 EPSF-2.0
%%BoundingBox: 0 0 567 425
%%Title: dosevstime_b.eps
%%Creator: HIGZ Version 1.23/07
%%CreationDate: :0/08/29   19.05
%%EndComments
%%BeginProlog
80 dict begin
/s {stroke} def /l {lineto} def /m {moveto} def /t {translate} def
/sw {stringwidth} def /r {rotate} def /rl {roll}  def /R {repeat} def
/d {rlineto} def /rm {rmoveto} def /gr {grestore} def /f {eofill} def
/c {setrgbcolor} def /lw {setlinewidth} def /sd {setdash} def
/cl {closepath} def /sf {scalefont setfont} def /black {0 setgray} def
/box {m dup 0 exch d exch 0 d 0 exch neg d cl} def
/NC{systemdict begin initclip end}def/C{NC box clip newpath}def
/bl {box s} def /bf {box f} def /Y { 0 exch d} def /X { 0 d} def 
/mp {newpath /y exch def /x exch def} def
/side {[w .77 mul w .23 mul] .385 w mul sd w 0 l currentpoint t -144 r} def
/mr {mp x y w2 0 360 arc} def /m24 {mr s} def /m20 {mr f} def
/mb {mp x y w2 add m w2 neg 0 d 0 w neg d w 0 d 0 w d cl} def
/mt {mp x y w2 add m w2 neg w neg d w 0 d cl} def
/m21 {mb f} def /m25 {mb s} def /m22 {mt f} def /m26 {mt s} def
/m23 {mp x y w2 sub m w2 w d w neg 0 d cl f} def
/m27 {mp x y w2 add m w3 neg w2 neg d w3 w2 neg d w3  w2 d cl s} def
/m28 {mp x w2 sub y w2 sub w3 add m w3 0 d 0 w3 neg d w3 0 d 0 w3 d w3 0 d
 0 w3 d w3 neg 0 d 0 w3 d w3 neg 0 d
 0 w3 neg d w3 neg 0 d cl s } def
/m29 {mp gsave x w2 sub y w2 add w3 sub m currentpoint t
 4 {side} repeat cl fill gr} def
/m30 {mp gsave x w2 sub y w2 add w3 sub m currentpoint t
 5 {side} repeat s gr} def
/m31 {mp x y w2 sub m 0 w d x w2 sub y m w 0 d
 x w2 sub y w2 add m w w neg d x w2 sub y w2
 sub m w w d s} def
/m2 {mp x y w2 sub m 0 w d x w2 sub y m w 0 d s} def
/m5 {mp x w2 sub y w2 sub m w w d x w2 sub y w2 add m w w neg d s} def
/DP {/PT exch def gsave 47.2 47.2 scale PT 1  eq { 16 16 1 [ 16 0 0 16 neg 0 16
] { < AA AA 55 55 AA AA 55 55 AA AA 55 55 AA AA 55 55 AA AA 55 55 AA AA 55 55
AA AA 55 55 AA AA 55 55 > } image } if PT 2 eq { 16 16 1 [ 16 0 0 16 neg 0 16
] { < BB BB EE EE BB BB EE EE BB BB EE EE BB BB EE EE BB BB EE EE BB BB EE EE
BB BB EE EE BB BB EE EE > } image } if PT 3 eq { 16 16 1 [ 16 0 0 16 neg 0 16
] { < FF FF BB BB FF FF EE EE FF FF BB BB FF FF EE EE FF FF BB BB FF FF EE EE
FF FF BB BB FF FF EE EE > } image } if PT 4 eq { 16 16 1 [ 16 0 0 16 neg 0 16
] { < DF DF BF BF 7F 7F FE FE FD FD FB FB F7 F7 EF EF DF DF BF BF 7F 7F FE FE
FD FD FB FB F7 F7 EF EF > } image } if PT 5 eq { 16 16 1 [ 16 0 0 16 neg 0 16
] { < 7F 7F BF B F DF DF EF EF F7 F7 FB FB FD FD FE FE 7F 7F BF BF DF DF EF
EF F7 F7 FB FB FD FD FE FE > } image } if PT 6 eq { 16 16 1 [ 16 0 0 16 neg 0
16 ] { < BB BB BB BB BB BB BB BB BB BB BB BB BB BB BB BB BB BB BB BB BB BB BB
BB BB BB BB BB BB BB BB BB > } image } if PT 7 eq { 16 16 1 [ 16 0 0 16 neg 0
16 ] { < FF FF FF FF FF FF 00 00 FF FF FF FF FF FF 00 00 FF FF FF FF FF FF 00
00 FF FF FF FF FF FF 00 00 > } image } if PT 8 eq { 16 16 1 [ 16 0 0 16 neg 0
16 ] { < EE EE 47 47 83 83 C5 C5 EE EE 5C 5C 38 38 74 74 EE EE 47 47 83 83 C5
C5 EE EE 5C 5C 38 38 74 74 > } image } if PT 9 eq { 16 16 1 [ 16 0 0 16 neg 0
16 ] { < EF EF EF EF D7 D7 38 38 FE FE FE FE 7D 7D 83 83 EF EF EF EF D7 D7 38
38  FE FE FE FE 7D 7D 83 83 > } image } if PT 10 eq { 16 16 1 [ 16 0 0 16 neg
0 16 ] { <  EF EF EF EF EF EF 00 00 FE FE FE FE FE FE 00 00 EF EF EF EF EF EF
00 00 FE FE FE FE FE FE 00 00 > } image } if PT 11 eq { 16 16 1 [ 16 0 0 16
neg 0 16 ] { < F7 F7 B6 B6 D5 D5 E3 E3 D5 D5 B6 B6 F7 F7 FF FF 7F 7F 6B 6B 5D
5D 3E 3E 5D 5D 6B 6B 7F 7F FF FF > } image } if PT 12 eq { 16 16 1 [ 16 0 0
16 neg 0 16 ] { < E3 E3 DD DD BE BE BE BE BE BE DD DD E3 E3 FF FF 3E 3E DD DD
EB EB EB EB EB EB DD DD 3E 3E FF FF > } image } if PT 13 eq { 16 16 1 [ 16 0
0 16 neg 0 16 ] { <  FE FE 7D 7D BB BB D7 D7 EF EF D7 D7 BB BB 7D 7D FE FE 7D
7D BB BB D7 D7 EF EF D7 D7 BB BB 7D 7D > } image } if PT 14 eq { 16 16 1 [ 16
0 0 16 neg 0 16 ] { < 00 00 EE EF EE EF EE EF 0E E0 EE EE EE EE EE EE 00 EE
FE EE FE EE FE EE 00 00 FE EF FE EF FE EF > } image } if PT 15 eq { 16 16 1 [
16 0 0 16 neg 0 16 ] { < DD DD AA AA DD DD FF FF 77 77 AA AA 77 77 FF FF DD
DD AA AA DD DD FF FF 77 77 AA AA 77 77 FF FF > } image } if PT 16 eq { 16 16
1 [ 16 0 0 16 neg 0 16 ] { <  F1 F1 EE EE 1F 1F FF FF F1 F1 EE EE 1F 1F FF FF
F1 F1 EE EE 1F 1F FF FF F1 F1 EE EE 1F 1F FF FF > } image } if PT 17 eq { 16
16 1 [ 16 0 0 16 neg 0 16 ] { <  EE EE DD DD BB BB FF FF EE EE DD DD BB BB FF
 FF EE EE DD DD BB BB FF FF EE EE DD DD BB BB FF FF > } image } if PT 18 eq {
16 16 1 [ 16 0 0 16 neg 0 16 ] { <  BB BB DD DD EE EE FF FF BB BB DD DD EE EE
FF FF BB BB DD DD EE EE FF FF BB BB DD DD EE EE FF FF > } image } if PT 19 eq
{ 16 16 1 [ 16 0 0 16 neg 0 16 ] { < 1F FC 67 F3 7B EF BD DE BD DE DE BD E6
B3 F8 0F E6 B3 DE BD BD DE BD DE 7B EF 67 F3 1F FC 7F FF > } image } if PT
20 eq { 16 16 1 [ 16 0 0 16 neg 0 16 ] { < DD DD EE EE EE EE EE EE DD DD BB
BB BB BB BB BB DD DD EE EE EE EE EE EE DD DD BB BB BB BB BB BB > } image }
if PT 21 eq { 16 16 1 [ 16 0 0 16 neg 0 16 ] { < 0E 0E EF EF EF EF EF EF E0
E0 FE FE FE FE FE FE 0E 0E EF EF EF EF EF EF E0 E0 FE FE FE FE FE FE > }
image }  if PT 22 eq { 16 16 1 [ 16 0 0 16 neg 0 16 ] { < 70 70 F7 F7 F7 F7 F7
F7 07 07 7F 7F 7F 7F 7F 7F 70 70 F7 F7 F7 F7 F7 F7 07 07 7F 7F 7F 7F 7F 7F >
} image } if PT 23 eq  { 16 16 1 [ 16 0 0 16 neg 0 16 ] { < AA AA 55 55 A9 A9
D1 D1 E1 E1 D1 D1 A9 A9 55 55 AA AA 55 55 A9 A9 D1 D1 E1 E1 D1 D1 A9 A9 55 55
> } image } if PT 24 eq { 16 16 1 [ 16 0 0 16 neg 0 16 ] { < FF FE FF FC EA
A8 D5 54 EA A8 D5 54 E8 28 D4 54 E8 E8 D4 D4 E8 EA 54 D5 A8 EA 54 D5 00 C0 00
80 > } image } if PT 25 eq {  16 16 1 [ 16 0 0 16 neg 0 16 ] { < FF FE FF FC
FF F8 FF F0 F0 00 F0 00 F0 20 F0 60 F0 E0 F1 E0 F3 E0 F0 00 E0 00 C0 00 80 00
00 00 > } image } if gr } def /FA { /PT exch def gsave clip 0 0 translate 1 1
54 { 1 sub 47.2 mul /Xcurr exch def 1 1 74 { 1 sub 47.2 mul /Ycurr exch def
gsave Xcurr Ycurr translate PT DP gr } for } for gr newpath } def
/reencdict 24 dict def /ReEncode {reencdict begin /nco&na exch def
/nfnam exch def /basefontname exch def /basefontdict basefontname findfont def
/newfont basefontdict maxlength dict def basefontdict {exch dup /FID ne
{dup /Encoding eq {exch dup length array copy newfont 3 1 roll put} {exch
newfont 3 1 roll put} ifelse} {pop pop} ifelse } forall newfont
/FontName nfnam put nco&na aload pop nco&na length 2 idiv {newfont
/Encoding get 3 1 roll put} repeat nfnam newfont definefont pop end } def
/accvec [ 176 /agrave 181 /Agrave 190 /acircumflex 192 /Acircumflex
201 /adieresis 204 /Adieresis 209 /ccedilla 210 /Ccedilla 211 /eacute
212 /Eacute 213 /egrave 214 /Egrave 215 /ecircumflex 216 /Ecircumflex
217 /edieresis 218 /Edieresis 219 /icircumflex 220 /Icircumflex
221 /idieresis 222 /Idieresis 223 /ntilde 224 /Ntilde 226 /ocircumflex
228 /Ocircumflex 229 /odieresis 230 /Odieresis 231 /ucircumflex 236 /Ucircumflex
237 /udieresis 238 /Udieresis 239 /aring 242 /Aring 243 /ydieresis
244 /Ydieresis 246 /aacute 247 /Aacute 252 /ugrave 253 /Ugrave] def
/Times-Roman /Times-Roman accvec ReEncode
/Times-Italic /Times-Italic accvec ReEncode
/Times-Bold /Times-Bold accvec ReEncode
/Times-BoldItalic /Times-BoldItalic accvec ReEncode
/Helvetica /Helvetica accvec ReEncode
/Helvetica-Oblique /Helvetica-Oblique accvec ReEncode
/Helvetica-Bold /Helvetica-Bold accvec ReEncode
/Helvetica-BoldOblique /Helvetica-BoldOblique  accvec ReEncode
/Courier /Courier accvec ReEncode
/Courier-Oblique /Courier-Oblique accvec ReEncode
/Courier-Bold /Courier-Bold accvec ReEncode
/Courier-BoldOblique /Courier-BoldOblique accvec ReEncode
/oshow {gsave [] 0 sd true charpath stroke gr} def
/stwn { /fs exch def /fn exch def /text exch def fn findfont fs sf
 text sw pop xs add /xs exch def} def
/stwb { /fs exch def /fn exch def /nbas exch def /textf exch def
textf length /tlen exch def nbas tlen gt {/nbas tlen def} if
fn findfont fs sf textf dup length nbas sub nbas getinterval sw
pop neg xs add /xs exch def} def
/accspe [ 65 /plusminus 66 /bar 67 /existential 68 /universal
69 /exclam 70 /numbersign 71 /greater 72 /question 73 /integral
74 /colon 75 /semicolon 76 /less 77 /bracketleft 78 /bracketright
79 /greaterequal 80 /braceleft 81 /braceright 82 /radical
83 /spade 84 /heart 85 /diamond 86 /club 87 /lessequal
88 /multiply 89 /percent 90 /infinity 48 /circlemultiply 49 /circleplus
50 /emptyset 51 /lozenge 52 /bullet 53 /arrowright 54 /arrowup
55 /arrowleft 56 /arrowdown 57 /arrowboth 48 /degree 44 /comma 43 /plus
 45 /angle 42 /angleleft 47 /divide 61 /notequal 40 /equivalence 41 /second
 97 /approxequal 98 /congruent 99 /perpendicular 100 /partialdiff 101 /florin
 102 /intersection 103 /union 104 /propersuperset 105 /reflexsuperset
 106 /notsubset 107 /propersubset 108 /reflexsubset 109 /element 110 /notelement
 111 /gradient 112 /logicaland 113 /logicalor 114 /arrowdblboth
 115 /arrowdblleft 116 /arrowdblup 117 /arrowdblright 118 /arrowdbldown
 119 /ampersand 120 /omega1 121 /similar 122 /aleph ] def
/Symbol /Special accspe ReEncode
%%EndProlog
 gsave  .25 .25 scale  gsave 0 0 t black [] 0 sd 1 lw 3 lw 0 0 1 c 1757 1247 284
 227 bl 1757 1247 284 227 C NC 1 lw 284 227 m 1247 Y s 318 227 m -34 X s
 [4 8] 0 sd 2041 227 m -1757 X s [] 0 sd 301 268 m -17 X s 301 310 m -17 X s 301
 352 m -17 X s 318 393 m -34 X s [4 8] 0 sd 2041 393 m -1757 X s [] 0 sd 301 435
 m -17 X s 301 476 m -17 X s 301 518 m -17 X s 318 559 m -34 X s [4 8] 0 sd 2041
 559 m -1757 X s [] 0 sd 301 601 m -17 X s 301 643 m -17 X s 301 684 m -17 X s
 318 726 m -34 X s [4 8] 0 sd 2041 726 m -1757 X s [] 0 sd 301 767 m -17 X s 301
 809 m -17 X s 301 851 m -17 X s 318 892 m -34 X s [4 8] 0 sd 2041 892 m -1757 X
 s [] 0 sd 301 934 m -17 X s 301 975 m -17 X s 301 1017 m -17 X s 318 1058 m -34
 X s [4 8] 0 sd 2041 1058 m -1757 X s [] 0 sd 301 1100 m -17 X s 301 1142 m -17
 X s 301 1183 m -17 X s 318 1225 m -34 X s [4 8] 0 sd 2041 1225 m -1757 X s
 [] 0 sd 301 1266 m -17 X s 301 1308 m -17 X s 301 1349 m -17 X s 318 1391 m -34
 X s [4 8] 0 sd 2041 1391 m -1757 X s [] 0 sd 318 1391 m -34 X s [4 8] 0 sd 2041
 1391 m -1757 X s [] 0 sd 301 1433 m -17 X s
 /xs 0 def 
(0)
 /Times-Italic     69 stwn 
 gsave  238 204
 t   0 r  xs neg 0 t 0 0 m
 /Times-Italic findfont   69 sf 0    0 m 
(0)
 show 
 gr 
 /xs 0 def 
(2)
 /Times-Italic     69 stwn 
 gsave  238 370
 t   0 r  xs neg 0 t 0 0 m
 /Times-Italic findfont   69 sf 0    0 m 
(2)
 show 
 gr 
 /xs 0 def 
(4)
 /Times-Italic     69 stwn 
 gsave  238 537
 t   0 r  xs neg 0 t 0 0 m
 /Times-Italic findfont   69 sf 0    0 m 
(4)
 show 
 gr 
 /xs 0 def 
(6)
 /Times-Italic     69 stwn 
 gsave  238 703
 t   0 r  xs neg 0 t 0 0 m
 /Times-Italic findfont   69 sf 0    0 m 
(6)
 show 
 gr 
 /xs 0 def 
(8)
 /Times-Italic     69 stwn 
 gsave  238 869
 t   0 r  xs neg 0 t 0 0 m
 /Times-Italic findfont   69 sf 0    0 m 
(8)
 show 
 gr 
 /xs 0 def 
(10)
 /Times-Italic     69 stwn 
 gsave  238 1036
 t   0 r  xs neg 0 t 0 0 m
 /Times-Italic findfont   69 sf 0    0 m 
(10)
 show 
 gr 
 /xs 0 def 
(12)
 /Times-Italic     69 stwn 
 gsave  238 1202
 t   0 r  xs neg 0 t 0 0 m
 /Times-Italic findfont   69 sf 0    0 m 
(12)
 show 
 gr 
 /xs 0 def 
(14)
 /Times-Italic     69 stwn 
 gsave  238 1368
 t   0 r  xs neg 0 t 0 0 m
 /Times-Italic findfont   69 sf 0    0 m 
(14)
 show 
 gr  284 227 m 1757 X s 284 261 m -34 Y s [4 8] 0 sd 284 1474 m -1247 Y s
 [] 0 sd 323 244 m -17 Y s 362 244 m -17 Y s 401 244 m -17 Y s 440 244 m -17 Y s
 479 261 m -34 Y s [4 8] 0 sd 479 1474 m -1247 Y s [] 0 sd 518 244 m -17 Y s 557
 244 m -17 Y s 596 244 m -17 Y s 635 244 m -17 Y s 674 261 m -34 Y s [4 8] 0 sd
 674 1474 m -1247 Y s [] 0 sd 713 244 m -17 Y s 752 244 m -17 Y s 791 244 m -17
 Y s 830 244 m -17 Y s 869 261 m -34 Y s [4 8] 0 sd 869 1474 m -1247 Y s [] 0 sd
 908 244 m -17 Y s 948 244 m -17 Y s 987 244 m -17 Y s 1026 244 m -17 Y s 1065
 261 m -34 Y s [4 8] 0 sd 1065 1474 m -1247 Y s [] 0 sd 1104 244 m -17 Y s 1143
 244 m -17 Y s 1182 244 m -17 Y s 1221 244 m -17 Y s 1260 261 m -34 Y s
 [4 8] 0 sd 1260 1474 m -1247 Y s [] 0 sd 1299 244 m -17 Y s 1338 244 m -17 Y s
 1377 244 m -17 Y s 1416 244 m -17 Y s 1455 261 m -34 Y s [4 8] 0 sd 1455 1474 m
 -1247 Y s [] 0 sd 1494 244 m -17 Y s 1533 244 m -17 Y s 1572 244 m -17 Y s 1612
 244 m -17 Y s 1651 261 m -34 Y s [4 8] 0 sd 1651 1474 m -1247 Y s [] 0 sd 1690
 244 m -17 Y s 1729 244 m -17 Y s 1768 244 m -17 Y s 1807 244 m -17 Y s 1846 261
 m -34 Y s [4 8] 0 sd 1846 1474 m -1247 Y s [] 0 sd 1885 244 m -17 Y s 1924 244
 m -17 Y s 1963 244 m -17 Y s 2002 244 m -17 Y s 2041 261 m -34 Y s [4 8] 0 sd
 2041 1474 m -1247 Y s
 /xs 0 def 
(0)
 /Times-Italic     69 stwn 
 gsave  284 142
 t   0 r  xs 2 div neg 0 t 0 0 m
 /Times-Italic findfont   69 sf 0    0 m 
(0)
 show 
 gr 
 /xs 0 def 
(25)
 /Times-Italic     69 stwn 
 gsave  479 142
 t   0 r  xs 2 div neg 0 t 0 0 m
 /Times-Italic findfont   69 sf 0    0 m 
(25)
 show 
 gr 
 /xs 0 def 
(50)
 /Times-Italic     69 stwn 
 gsave  674 142
 t   0 r  xs 2 div neg 0 t 0 0 m
 /Times-Italic findfont   69 sf 0    0 m 
(50)
 show 
 gr 
 /xs 0 def 
(75)
 /Times-Italic     69 stwn 
 gsave  869 142
 t   0 r  xs 2 div neg 0 t 0 0 m
 /Times-Italic findfont   69 sf 0    0 m 
(75)
 show 
 gr 
 /xs 0 def 
(100)
 /Times-Italic     69 stwn 
 gsave  1065 142
 t   0 r  xs 2 div neg 0 t 0 0 m
 /Times-Italic findfont   69 sf 0    0 m 
(100)
 show 
 gr 
 /xs 0 def 
(125)
 /Times-Italic     69 stwn 
 gsave  1260 142
 t   0 r  xs 2 div neg 0 t 0 0 m
 /Times-Italic findfont   69 sf 0    0 m 
(125)
 show 
 gr 
 /xs 0 def 
(150)
 /Times-Italic     69 stwn 
 gsave  1455 142
 t   0 r  xs 2 div neg 0 t 0 0 m
 /Times-Italic findfont   69 sf 0    0 m 
(150)
 show 
 gr 
 /xs 0 def 
(175)
 /Times-Italic     69 stwn 
 gsave  1651 142
 t   0 r  xs 2 div neg 0 t 0 0 m
 /Times-Italic findfont   69 sf 0    0 m 
(175)
 show 
 gr 
 /xs 0 def 
(200)
 /Times-Italic     69 stwn 
 gsave  1846 142
 t   0 r  xs 2 div neg 0 t 0 0 m
 /Times-Italic findfont   69 sf 0    0 m 
(200)
 show 
 gr 
 /xs 0 def 
(225)
 /Times-Italic     69 stwn 
 gsave  2041 142
 t   0 r  xs 2 div neg 0 t 0 0 m
 /Times-Italic findfont   69 sf 0    0 m 
(225)
 show 
 gr  1757 1247 284 227 C [] 0 sd 3 lw 1 0 0 c 354 227 m 2 Y s 362 227 m 3 Y s
 369 227 m 4 Y s 377 227 m 5 Y s 385 226 m 7 Y s 379 233 m 12 X s 393 227 m s
 393 227 m 7 Y s 387 234 m 12 X s 401 227 m 1 Y s 401 228 m 7 Y s 395 235 m 11 X
 s 408 227 m 3 Y s 408 230 m 8 Y s 403 238 m 11 X s 416 227 m 4 Y s 416 231 m 8
 Y s 411 239 m 11 X s 432 227 m 5 Y s 432 232 m 8 Y s 426 240 m 12 X s 440 227 m
 5 Y s 440 232 m 9 Y s 434 241 m 11 X s 448 227 m 2 Y s 448 240 m 3 Y s 442 227
 m 11 X s 442 243 m 11 X s black /w 12 def /w2 {w 2 div} def /w3 {w 3 div} def
 448 234 m20 1 0 0 c 455 227 m 3 Y s 455 241 m 3 Y s 450 227 m 11 X s 450 244 m
 11 X s black 455 236 m20 1 0 0 c 463 228 m 3 Y s 463 242 m 4 Y s 458 228 m 11 X
 s 458 246 m 11 X s black 463 237 m20 1 0 0 c 471 228 m 4 Y s 471 243 m 4 Y s
 465 228 m 12 X s 465 247 m 12 X s black 471 238 m20 1 0 0 c 479 230 m 4 Y s 479
 245 m 4 Y s 473 230 m 11 X s 473 249 m 11 X s black 479 239 m20 1 0 0 c 487 230
 m 4 Y s 487 246 m 3 Y s 481 230 m 11 X s 481 249 m 11 X s black 487 240 m20 1 0
 0 c 494 231 m 4 Y s 494 246 m 4 Y s 489 231 m 11 X s 489 250 m 11 X s black 494
 241 m20 1 0 0 c 502 229 m 4 Y s 502 245 m 4 Y s 497 229 m 11 X s 497 249 m 11 X
 s black 502 239 m20 1 0 0 c 510 229 m 5 Y s 510 245 m 5 Y s 504 229 m 12 X s
 504 250 m 12 X s black 510 240 m20 1 0 0 c 518 230 m 6 Y s 518 247 m 5 Y s 512
 230 m 12 X s 512 252 m 12 X s black 518 241 m20 1 0 0 c 526 231 m 5 Y s 526 247
 m 6 Y s 520 231 m 11 X s 520 253 m 11 X s black 526 242 m20 1 0 0 c 533 230 m 6
 Y s 533 247 m 6 Y s 528 230 m 11 X s 528 253 m 11 X s black 533 242 m20 1 0 0 c
 541 229 m 7 Y s 541 247 m 7 Y s 536 229 m 11 X s 536 254 m 11 X s black 541 242
 m20 1 0 0 c 549 229 m 7 Y s 549 248 m 6 Y s 543 229 m 12 X s 543 254 m 12 X s
 black 549 242 m20 1 0 0 c 557 230 m 7 Y s 557 248 m 8 Y s 551 230 m 12 X s 551
 256 m 12 X s black 557 243 m20 1 0 0 c 565 231 m 8 Y s 565 251 m 8 Y s 559 231
 m 11 X s 559 259 m 11 X s black 565 245 m20 1 0 0 c 573 231 m 10 Y s 573 253 m
 10 Y s 567 231 m 11 X s 567 263 m 11 X s black 573 247 m20 1 0 0 c 580 233 m 10
 Y s 580 255 m 10 Y s 575 233 m 11 X s 575 265 m 11 X s black 580 249 m20 1 0 0
 c 588 234 m 11 Y s 588 256 m 11 Y s 582 234 m 12 X s 582 267 m 12 X s black 588
 251 m20 1 0 0 c 596 237 m 10 Y s 596 259 m 11 Y s 590 237 m 12 X s 590 270 m 12
 X s black 596 253 m20 1 0 0 c 604 237 m 11 Y s 604 259 m 11 Y s 598 237 m 11 X
 s 598 270 m 11 X s black 604 254 m20 1 0 0 c 612 237 m 11 Y s 612 260 m 11 Y s
 606 237 m 11 X s 606 271 m 11 X s black 612 254 m20 1 0 0 c 619 238 m 11 Y s
 619 260 m 11 Y s 614 238 m 11 X s 614 271 m 11 X s black 619 254 m20 1 0 0 c
 627 238 m 11 Y s 627 261 m 11 Y s 622 238 m 11 X s 622 272 m 11 X s black 627
 255 m20 1 0 0 c 635 239 m 11 Y s 635 262 m 11 Y s 629 239 m 12 X s 629 273 m 12
 X s black 635 256 m20 1 0 0 c 643 241 m 13 Y s 643 265 m 13 Y s 637 241 m 12 X
 s 637 278 m 12 X s black 643 259 m20 1 0 0 c 651 245 m 13 Y s 651 269 m 14 Y s
 645 245 m 11 X s 645 283 m 11 X s black 651 264 m20 1 0 0 c 658 248 m 14 Y s
 658 274 m 14 Y s 653 248 m 11 X s 653 288 m 11 X s black 658 268 m20 1 0 0 c
 666 248 m 15 Y s 666 274 m 16 Y s 661 248 m 11 X s 661 290 m 11 X s black 666
 269 m20 1 0 0 c 674 248 m 16 Y s 674 275 m 16 Y s 668 248 m 12 X s 668 291 m 12
 X s black 674 270 m20 1 0 0 c 682 248 m 16 Y s 682 275 m 16 Y s 676 248 m 12 X
 s 676 291 m 12 X s black 682 270 m20 1 0 0 c 690 247 m 17 Y s 690 275 m 17 Y s
 684 247 m 11 X s 684 292 m 11 X s black 690 270 m20 1 0 0 c 698 250 m 17 Y s
 698 278 m 17 Y s 692 250 m 11 X s 692 295 m 11 X s black 698 273 m20 1 0 0 c
 705 252 m 17 Y s 705 280 m 17 Y s 700 252 m 11 X s 700 297 m 11 X s black 705
 275 m20 1 0 0 c 713 254 m 16 Y s 713 282 m 16 Y s 707 254 m 12 X s 707 298 m 12
 X s black 713 276 m20 1 0 0 c 721 254 m 17 Y s 721 282 m 17 Y s 715 254 m 12 X
 s 715 299 m 12 X s black 721 277 m20 1 0 0 c 729 254 m 16 Y s 729 282 m 17 Y s
 723 254 m 11 X s 723 299 m 11 X s black 729 276 m20 1 0 0 c 737 255 m 17 Y s
 737 283 m 17 Y s 731 255 m 11 X s 731 300 m 11 X s black 737 277 m20 1 0 0 c
 744 257 m 17 Y s 744 285 m 17 Y s 739 257 m 11 X s 739 302 m 11 X s black 744
 280 m20 1 0 0 c 752 260 m 17 Y s 752 289 m 17 Y s 747 260 m 11 X s 747 306 m 11
 X s black 752 283 m20 1 0 0 c 760 261 m 18 Y s 760 290 m 17 Y s 754 261 m 12 X
 s 754 307 m 12 X s black 760 284 m20 1 0 0 c 776 262 m 18 Y s 776 291 m 17 Y s
 770 262 m 11 X s 770 308 m 11 X s black 776 285 m20 1 0 0 c 768 263 m 17 Y s
 768 291 m 17 Y s 762 263 m 12 X s 762 308 m 12 X s black 768 286 m20 1 0 0 c
 783 264 m 18 Y s 783 293 m 17 Y s 778 264 m 11 X s 778 310 m 11 X s black 783
 287 m20 1 0 0 c 791 264 m 17 Y s 791 293 m 17 Y s 786 264 m 11 X s 786 310 m 11
 X s black 791 287 m20 1 0 0 c 799 264 m 18 Y s 799 293 m 18 Y s 793 264 m 12 X
 s 793 311 m 12 X s black 799 287 m20 1 0 0 c 807 264 m 18 Y s 807 293 m 18 Y s
 801 264 m 12 X s 801 311 m 12 X s black 807 288 m20 1 0 0 c 815 264 m 18 Y s
 815 293 m 18 Y s 809 264 m 11 X s 809 311 m 11 X s black 815 288 m20 1 0 0 c
 823 266 m 18 Y s 823 295 m 18 Y s 817 266 m 11 X s 817 313 m 11 X s black 823
 290 m20 1 0 0 c 830 267 m 17 Y s 830 296 m 18 Y s 825 267 m 11 X s 825 314 m 11
 X s black 830 290 m20 1 0 0 c 838 268 m 18 Y s 838 298 m 17 Y s 832 268 m 12 X
 s 832 315 m 12 X s black 838 292 m20 1 0 0 c 846 269 m 18 Y s 846 298 m 18 Y s
 840 269 m 12 X s 840 316 m 12 X s black 846 292 m20 1 0 0 c 854 270 m 18 Y s
 854 299 m 18 Y s 848 270 m 11 X s 848 317 m 11 X s black 854 293 m20 1 0 0 c
 862 271 m 18 Y s 862 300 m 18 Y s 856 271 m 11 X s 856 318 m 11 X s black 862
 295 m20 1 0 0 c 869 273 m 18 Y s 869 302 m 18 Y s 864 273 m 11 X s 864 320 m 11
 X s black 869 297 m20 1 0 0 c 877 274 m 18 Y s 877 304 m 18 Y s 872 274 m 11 X
 s 872 322 m 11 X s black 877 298 m20 1 0 0 c 885 275 m 18 Y s 885 304 m 19 Y s
 879 275 m 12 X s 879 323 m 12 X s black 885 299 m20 1 0 0 c 893 275 m 18 Y s
 893 304 m 19 Y s 887 275 m 12 X s 887 323 m 12 X s black 893 299 m20 1 0 0 c
 901 275 m 18 Y s 901 304 m 19 Y s 895 275 m 11 X s 895 323 m 11 X s black 901
 299 m20 1 0 0 c 908 275 m 18 Y s 908 304 m 19 Y s 903 275 m 11 X s 903 323 m 11
 X s black 908 299 m20 1 0 0 c 916 274 m 19 Y s 916 304 m 19 Y s 911 274 m 11 X
 s 911 323 m 11 X s black 916 299 m20 1 0 0 c 924 274 m 19 Y s 924 304 m 19 Y s
 918 274 m 12 X s 918 323 m 12 X s black 924 299 m20 1 0 0 c 932 274 m 19 Y s
 932 304 m 19 Y s 926 274 m 12 X s 926 323 m 12 X s black 932 299 m20 1 0 0 c
 940 274 m 19 Y s 940 304 m 19 Y s 934 274 m 11 X s 934 323 m 11 X s black 940
 299 m20 1 0 0 c 948 273 m 20 Y s 948 304 m 20 Y s 942 273 m 11 X s 942 324 m 11
 X s black 948 299 m20 1 0 0 c 955 273 m 20 Y s 955 304 m 20 Y s 950 273 m 11 X
 s 950 324 m 11 X s black 955 299 m20 1 0 0 c 963 274 m 19 Y s 963 305 m 19 Y s
 957 274 m 12 X s 957 324 m 12 X s black 963 299 m20 1 0 0 c 971 275 m 20 Y s
 971 306 m 20 Y s 965 275 m 12 X s 965 326 m 12 X s black 971 301 m20 1 0 0 c
 979 276 m 19 Y s 979 307 m 20 Y s 973 276 m 11 X s 973 327 m 11 X s black 979
 301 m20 1 0 0 c 987 276 m 20 Y s 987 307 m 20 Y s 981 276 m 11 X s 981 327 m 11
 X s black 987 302 m20 1 0 0 c 994 276 m 20 Y s 994 307 m 20 Y s 989 276 m 11 X
 s 989 327 m 11 X s black 994 302 m20 1 0 0 c 1002 279 m 21 Y s 1002 311 m 20 Y
 s 997 279 m 11 X s 997 331 m 11 X s black 1002 305 m20 1 0 0 c 1010 281 m 20 Y
 s 1010 312 m 20 Y s 1004 281 m 12 X s 1004 332 m 12 X s black 1010 307 m20 1 0
 0 c 1018 282 m 20 Y s 1018 313 m 21 Y s 1012 282 m 11 X s 1012 334 m 11 X s
 black 1018 308 m20 1 0 0 c 1026 282 m 21 Y s 1026 314 m 20 Y s 1020 282 m 11 X
 s 1020 334 m 11 X s black 1026 308 m20 1 0 0 c 1033 286 m 21 Y s 1033 318 m 20
 Y s 1028 286 m 11 X s 1028 338 m 11 X s black 1033 312 m20 1 0 0 c 1041 288 m
 20 Y s 1041 320 m 20 Y s 1036 288 m 11 X s 1036 340 m 11 X s black 1041 314 m20
 1 0 0 c 1049 288 m 20 Y s 1049 320 m 20 Y s 1043 288 m 12 X s 1043 340 m 12 X s
 black 1049 314 m20 1 0 0 c 1057 290 m 20 Y s 1057 322 m 21 Y s 1051 290 m 12 X
 s 1051 343 m 12 X s black 1057 316 m20 1 0 0 c 1065 291 m 21 Y s 1065 323 m 21
 Y s 1059 291 m 11 X s 1059 344 m 11 X s black 1065 317 m20 1 0 0 c 1073 292 m
 22 Y s 1073 325 m 22 Y s 1067 292 m 11 X s 1067 347 m 11 X s black 1073 319 m20
 1 0 0 c 1080 294 m 22 Y s 1080 327 m 22 Y s 1075 294 m 11 X s 1075 349 m 11 X s
 black 1080 322 m20 1 0 0 c 1088 297 m 21 Y s 1088 330 m 21 Y s 1082 297 m 12 X
 s 1082 351 m 12 X s black 1088 324 m20 1 0 0 c 1096 297 m 22 Y s 1096 330 m 22
 Y s 1090 297 m 12 X s 1090 352 m 12 X s black 1096 325 m20 1 0 0 c 1104 299 m
 24 Y s 1104 335 m 24 Y s 1098 299 m 11 X s 1098 359 m 11 X s black 1104 329 m20
 1 0 0 c 1112 301 m 25 Y s 1112 337 m 24 Y s 1106 301 m 11 X s 1106 361 m 11 X s
 black 1112 331 m20 1 0 0 c 1119 302 m 24 Y s 1119 337 m 25 Y s 1114 302 m 11 X
 s 1114 362 m 11 X s black 1119 332 m20 1 0 0 c 1127 304 m 25 Y s 1127 340 m 25
 Y s 1122 304 m 11 X s 1122 365 m 11 X s black 1127 335 m20 1 0 0 c 1135 305 m
 25 Y s 1135 341 m 25 Y s 1129 305 m 12 X s 1129 366 m 12 X s black 1135 336 m20
 1 0 0 c 1143 307 m 25 Y s 1143 343 m 25 Y s 1137 307 m 11 X s 1137 368 m 11 X s
 black 1143 337 m20 1 0 0 c 1151 307 m 25 Y s 1151 344 m 25 Y s 1145 307 m 11 X
 s 1145 369 m 11 X s black 1151 338 m20 1 0 0 c 1158 308 m 25 Y s 1158 345 m 25
 Y s 1153 308 m 11 X s 1153 370 m 11 X s black 1158 339 m20 1 0 0 c 1166 309 m
 26 Y s 1166 347 m 26 Y s 1161 309 m 11 X s 1161 373 m 11 X s black 1166 341 m20
 1 0 0 c 1174 311 m 26 Y s 1174 348 m 26 Y s 1168 311 m 12 X s 1168 374 m 12 X s
 black 1174 342 m20 1 0 0 c 1182 312 m 26 Y s 1182 349 m 26 Y s 1176 312 m 12 X
 s 1176 375 m 12 X s black 1182 344 m20 1 0 0 c 1190 314 m 26 Y s 1190 351 m 26
 Y s 1184 314 m 11 X s 1184 377 m 11 X s black 1190 346 m20 1 0 0 c 1198 315 m
 26 Y s 1198 353 m 26 Y s 1192 315 m 11 X s 1192 379 m 11 X s black 1198 347 m20
 1 0 0 c 1205 315 m 27 Y s 1205 353 m 27 Y s 1200 315 m 11 X s 1200 380 m 11 X s
 black 1205 347 m20 1 0 0 c 1213 312 m 28 Y s 1213 352 m 28 Y s 1207 312 m 12 X
 s 1207 380 m 12 X s black 1213 346 m20 1 0 0 c 1221 313 m 29 Y s 1221 354 m 28
 Y s 1215 313 m 12 X s 1215 382 m 12 X s black 1221 348 m20 1 0 0 c 1229 314 m
 30 Y s 1229 355 m 30 Y s 1223 314 m 11 X s 1223 385 m 11 X s black 1229 350 m20
 1 0 0 c 1237 316 m 30 Y s 1237 357 m 30 Y s 1231 316 m 11 X s 1231 387 m 11 X s
 black 1237 351 m20 1 0 0 c 1244 317 m 30 Y s 1244 358 m 30 Y s 1239 317 m 11 X
 s 1239 388 m 11 X s black 1244 353 m20 1 0 0 c 1252 320 m 30 Y s 1252 361 m 30
 Y s 1247 320 m 11 X s 1247 391 m 11 X s black 1252 355 m20 1 0 0 c 1260 322 m
 30 Y s 1260 364 m 30 Y s 1254 322 m 12 X s 1254 394 m 12 X s black 1260 358 m20
 1 0 0 c 1268 322 m 30 Y s 1268 364 m 30 Y s 1262 322 m 11 X s 1262 394 m 11 X s
 black 1268 358 m20 1 0 0 c 1276 324 m 30 Y s 1276 365 m 31 Y s 1270 324 m 11 X
 s 1270 396 m 11 X s black 1276 360 m20 1 0 0 c 1283 328 m 30 Y s 1283 369 m 31
 Y s 1278 328 m 11 X s 1278 400 m 11 X s black 1283 364 m20 1 0 0 c 1291 335 m
 30 Y s 1291 376 m 31 Y s 1286 335 m 11 X s 1286 407 m 11 X s black 1291 371 m20
 1 0 0 c 1299 336 m 31 Y s 1299 379 m 30 Y s 1293 336 m 12 X s 1293 409 m 12 X s
 black 1299 373 m20 1 0 0 c 1307 338 m 31 Y s 1307 381 m 30 Y s 1301 338 m 12 X
 s 1301 411 m 12 X s black 1307 375 m20 1 0 0 c 1315 338 m 31 Y s 1315 380 m 32
 Y s 1309 338 m 11 X s 1309 412 m 11 X s black 1315 375 m20 1 0 0 c 1322 338 m
 31 Y s 1322 381 m 31 Y s 1317 338 m 11 X s 1317 412 m 11 X s black 1322 375 m20
 1 0 0 c 1330 337 m 31 Y s 1330 380 m 31 Y s 1325 337 m 11 X s 1325 411 m 11 X s
 black 1330 374 m20 1 0 0 c 1338 338 m 31 Y s 1338 380 m 32 Y s 1332 338 m 12 X
 s 1332 412 m 12 X s black 1338 375 m20 1 0 0 c 1346 337 m 31 Y s 1346 380 m 31
 Y s 1340 337 m 12 X s 1340 411 m 12 X s black 1346 374 m20 1 0 0 c 1354 338 m
 32 Y s 1354 381 m 32 Y s 1348 338 m 11 X s 1348 413 m 11 X s black 1354 375 m20
 1 0 0 c 1362 340 m 32 Y s 1362 383 m 32 Y s 1356 340 m 11 X s 1356 415 m 11 X s
 black 1362 378 m20 1 0 0 c 1369 341 m 32 Y s 1369 384 m 32 Y s 1364 341 m 11 X
 s 1364 416 m 11 X s black 1369 379 m20 1 0 0 c 1377 341 m 32 Y s 1377 385 m 32
 Y s 1372 341 m 11 X s 1372 417 m 11 X s black 1377 379 m20 1 0 0 c 1385 343 m
 32 Y s 1385 387 m 32 Y s 1379 343 m 12 X s 1379 419 m 12 X s black 1385 381 m20
 1 0 0 c 1393 347 m 32 Y s 1393 391 m 32 Y s 1387 347 m 11 X s 1387 423 m 11 X s
 black 1393 385 m20 1 0 0 c 1401 352 m 32 Y s 1401 396 m 32 Y s 1395 352 m 11 X
 s 1395 428 m 11 X s black 1401 390 m20 1 0 0 c 1408 353 m 33 Y s 1408 397 m 32
 Y s 1403 353 m 11 X s 1403 429 m 11 X s black 1408 391 m20 1 0 0 c 1416 355 m
 32 Y s 1416 398 m 33 Y s 1411 355 m 11 X s 1411 431 m 11 X s black 1416 393 m20
 1 0 0 c 1424 356 m 32 Y s 1424 400 m 32 Y s 1418 356 m 12 X s 1418 432 m 12 X s
 black 1424 394 m20 1 0 0 c 1432 358 m 32 Y s 1432 401 m 33 Y s 1426 358 m 12 X
 s 1426 434 m 12 X s black 1432 396 m20 1 0 0 c 1440 359 m 33 Y s 1440 403 m 33
 Y s 1434 359 m 11 X s 1434 436 m 11 X s black 1440 398 m20 1 0 0 c 1447 361 m
 33 Y s 1447 405 m 33 Y s 1442 361 m 11 X s 1442 438 m 11 X s black 1447 400 m20
 1 0 0 c 1455 357 m 38 Y s 1455 406 m 38 Y s 1450 357 m 11 X s 1450 444 m 11 X s
 black 1455 400 m20 1 0 0 c 1463 360 m 37 Y s 1463 409 m 38 Y s 1457 360 m 12 X
 s 1457 447 m 12 X s black 1463 403 m20 1 0 0 c 1471 360 m 38 Y s 1471 410 m 38
 Y s 1465 360 m 12 X s 1465 448 m 12 X s black 1471 404 m20 1 0 0 c 1479 360 m
 38 Y s 1479 410 m 38 Y s 1473 360 m 11 X s 1473 448 m 11 X s black 1479 404 m20
 1 0 0 c 1487 360 m 39 Y s 1487 410 m 38 Y s 1481 360 m 11 X s 1481 448 m 11 X s
 black 1487 404 m20 1 0 0 c 1494 362 m 38 Y s 1494 412 m 38 Y s 1489 362 m 11 X
 s 1489 450 m 11 X s black 1494 406 m20 1 0 0 c 1502 361 m 39 Y s 1502 412 m 39
 Y s 1497 361 m 11 X s 1497 451 m 11 X s black 1502 406 m20 1 0 0 c 1510 361 m
 39 Y s 1510 412 m 39 Y s 1504 361 m 12 X s 1504 451 m 12 X s black 1510 406 m20
 1 0 0 c 1518 362 m 39 Y s 1518 412 m 40 Y s 1512 362 m 11 X s 1512 452 m 11 X s
 black 1518 407 m20 1 0 0 c 1526 363 m 39 Y s 1526 414 m 39 Y s 1520 363 m 11 X
 s 1520 453 m 11 X s black 1526 408 m20 1 0 0 c 1533 365 m 39 Y s 1533 416 m 39
 Y s 1528 365 m 11 X s 1528 455 m 11 X s black 1533 410 m20 1 0 0 c 1541 366 m
 40 Y s 1541 417 m 40 Y s 1536 366 m 11 X s 1536 457 m 11 X s black 1541 411 m20
 1 0 0 c 1549 369 m 39 Y s 1549 420 m 39 Y s 1543 369 m 12 X s 1543 459 m 12 X s
 black 1549 414 m20 1 0 0 c 1557 370 m 40 Y s 1557 421 m 40 Y s 1551 370 m 12 X
 s 1551 461 m 12 X s black 1557 415 m20 1 0 0 c 1565 372 m 39 Y s 1565 423 m 39
 Y s 1559 372 m 11 X s 1559 462 m 11 X s black 1565 417 m20 1 0 0 c 1572 374 m
 40 Y s 1572 425 m 40 Y s 1567 374 m 11 X s 1567 465 m 11 X s black 1572 419 m20
 1 0 0 c 1580 377 m 40 Y s 1580 428 m 40 Y s 1575 377 m 11 X s 1575 468 m 11 X s
 black 1580 422 m20 1 0 0 c 1588 378 m 40 Y s 1588 429 m 40 Y s 1582 378 m 12 X
 s 1582 469 m 12 X s black 1588 423 m20 1 0 0 c 1596 379 m 40 Y s 1596 430 m 40
 Y s 1590 379 m 12 X s 1590 470 m 12 X s black 1596 425 m20 1 0 0 c 1604 380 m
 40 Y s 1604 432 m 40 Y s 1598 380 m 11 X s 1598 472 m 11 X s black 1604 426 m20
 1 0 0 c 1612 383 m 40 Y s 1612 434 m 40 Y s 1606 383 m 11 X s 1606 474 m 11 X s
 black 1612 428 m20 1 0 0 c 1619 386 m 40 Y s 1619 438 m 40 Y s 1614 386 m 11 X
 s 1614 478 m 11 X s black 1619 432 m20 1 0 0 c 1627 388 m 40 Y s 1627 439 m 41
 Y s 1621 388 m 12 X s 1621 480 m 12 X s black 1627 434 m20 1 0 0 c 1635 390 m
 40 Y s 1635 441 m 41 Y s 1629 390 m 12 X s 1629 482 m 12 X s black 1635 436 m20
 1 0 0 c 1643 394 m 40 Y s 1643 446 m 40 Y s 1637 394 m 11 X s 1637 486 m 11 X s
 black 1643 440 m20 1 0 0 c 1651 398 m 41 Y s 1651 450 m 41 Y s 1645 398 m 11 X
 s 1645 491 m 11 X s black 1651 444 m20 1 0 0 c 1658 402 m 41 Y s 1658 455 m 41
 Y s 1653 402 m 11 X s 1653 496 m 11 X s black 1658 449 m20 1 0 0 c 1666 404 m
 42 Y s 1666 457 m 41 Y s 1661 404 m 11 X s 1661 498 m 11 X s black 1666 451 m20
 1 0 0 c 1674 407 m 42 Y s 1674 460 m 41 Y s 1668 407 m 12 X s 1668 501 m 12 X s
 black 1674 454 m20 1 0 0 c 1682 410 m 42 Y s 1682 463 m 41 Y s 1676 410 m 12 X
 s 1676 504 m 12 X s black 1682 457 m20 1 0 0 c 1690 414 m 41 Y s 1690 467 m 41
 Y s 1684 414 m 11 X s 1684 508 m 11 X s black 1690 461 m20 1 0 0 c 1697 414 m
 42 Y s 1697 467 m 42 Y s 1692 414 m 11 X s 1692 509 m 11 X s black 1697 462 m20
 1 0 0 c 1705 416 m 42 Y s 1705 469 m 42 Y s 1700 416 m 11 X s 1700 511 m 11 X s
 black 1705 464 m20 1 0 0 c 1713 419 m 42 Y s 1713 472 m 42 Y s 1707 419 m 12 X
 s 1707 514 m 12 X s black 1713 467 m20 1 0 0 c 1721 421 m 42 Y s 1721 475 m 42
 Y s 1715 421 m 12 X s 1715 517 m 12 X s black 1721 469 m20 1 0 0 c 1729 423 m
 43 Y s 1729 477 m 42 Y s 1723 423 m 11 X s 1723 519 m 11 X s black 1729 471 m20
 1 0 0 c 1737 426 m 42 Y s 1737 480 m 42 Y s 1731 426 m 11 X s 1731 522 m 11 X s
 black 1737 474 m20 1 0 0 c 1744 427 m 43 Y s 1744 481 m 42 Y s 1739 427 m 11 X
 s 1739 523 m 11 X s black 1744 475 m20 1 0 0 c 1752 429 m 42 Y s 1752 482 m 42
 Y s 1746 429 m 12 X s 1746 524 m 12 X s black 1752 476 m20 1 0 0 c 1760 431 m
 43 Y s 1760 485 m 42 Y s 1754 431 m 12 X s 1754 527 m 12 X s black 1760 479 m20
 1 0 0 c 1768 432 m 43 Y s 1768 486 m 42 Y s 1762 432 m 11 X s 1762 528 m 11 X s
 black 1768 480 m20 1 0 0 c 1776 433 m 43 Y s 1776 487 m 42 Y s 1770 433 m 11 X
 s 1770 529 m 11 X s black 1776 481 m20 1 0 0 c 1783 435 m 42 Y s 1783 488 m 42
 Y s 1778 435 m 11 X s 1778 530 m 11 X s black 1783 483 m20 1 0 0 c 1791 437 m
 43 Y s 1791 491 m 42 Y s 1786 437 m 11 X s 1786 533 m 11 X s black 1791 485 m20
 1 0 0 c 1799 439 m 42 Y s 1799 493 m 42 Y s 1793 439 m 12 X s 1793 535 m 12 X s
 black 1799 487 m20 1 0 0 c 1815 443 m 42 Y s 1815 496 m 43 Y s 1809 443 m 11 X
 s 1809 539 m 11 X s black 1815 491 m20 1 0 0 c 1807 445 m 43 Y s 1807 499 m 42
 Y s 1801 445 m 12 X s 1801 541 m 12 X s black 1807 493 m20 1 0 0 c 1822 450 m
 43 Y s 1822 504 m 42 Y s 1817 450 m 11 X s 1817 546 m 11 X s black 1822 498 m20
 1 0 0 c 1830 454 m 42 Y s 1830 507 m 43 Y s 1825 454 m 11 X s 1825 550 m 11 X s
 black 1830 502 m20 1 0 0 c 1838 459 m 43 Y s 1838 513 m 43 Y s 1832 459 m 12 X
 s 1832 556 m 12 X s black 1838 507 m20 1 0 0 c 1846 459 m 43 Y s 1846 513 m 43
 Y s 1840 459 m 12 X s 1840 556 m 12 X s black 1846 508 m20 1 0 0 c 1854 460 m
 43 Y s 1854 514 m 43 Y s 1848 460 m 11 X s 1848 557 m 11 X s black 1854 509 m20
 1 0 0 c 1862 464 m 42 Y s 1862 518 m 42 Y s 1856 464 m 11 X s 1856 560 m 11 X s
 black 1862 512 m20 1 0 0 c 1869 466 m 43 Y s 1869 520 m 43 Y s 1864 466 m 11 X
 s 1864 563 m 11 X s black 1869 514 m20 1 0 0 c 1877 469 m 42 Y s 1877 523 m 42
 Y s 1871 469 m 12 X s 1871 565 m 12 X s black 1877 517 m20 1 0 0 c 1885 470 m
 43 Y s 1885 524 m 43 Y s 1879 470 m 12 X s 1879 567 m 12 X s black 1885 519 m20
 1 0 0 c 1893 471 m 43 Y s 1893 525 m 43 Y s 1887 471 m 11 X s 1887 568 m 11 X s
 black 1893 519 m20 1 0 0 c 1901 473 m 44 Y s 1901 528 m 43 Y s 1895 473 m 11 X
 s 1895 571 m 11 X s black 1901 522 m20 2268 1701 0 0 C 1 lw 1729 73 m -39 Y s
 1730 74 m -40 Y s 1729 73 m -40 Y s 1730 75 m -40 Y s 1728 73 m -40 Y s 1731 75
 m -40 Y s 1728 72 m -40 Y s 1731 75 m -39 Y s 1716 73 m 26 X s 1717 74 m 26 X s
 1715 73 m 27 X s 1717 75 m 26 X s 1715 73 m 26 X s 1717 75 m 27 X s 1715 72 m
 26 X s 1718 75 m 26 X s 1750 73 m 2 -2 d 2 2 d -2 2 d -2 -2 d cl s 1751 74 m 1
 -2 d 2 2 d -2 2 d -1 -2 d cl s 1749 73 m 2 -2 d 2 2 d -2 2 d -2 -2 d cl s 1751
 75 m 2 -2 d 2 2 d -2 1 d -2 -1 d cl s 1749 73 m 2 -2 d 2 2 d -2 1 d -2 -1 d cl
 s 1751 75 m 2 -2 d 2 2 d -2 2 d -2 -2 d cl s 1749 72 m 1 -2 d 2 2 d -2 2 d -1
 -2 d cl s 1752 75 m 2 -2 d 2 2 d -2 2 d -2 -2 d cl s 1752 60 m -26 Y s 1752 61
 m -27 Y s 1751 60 m -27 Y s 1753 61 m -26 Y s 1751 59 m -26 Y s 1753 62 m -27 Y
 s 1750 59 m -27 Y s 1754 62 m -26 Y s 1767 60 m -26 Y s 1768 61 m -27 Y s 1766
 60 m -27 Y s 1768 61 m -26 Y s 1766 59 m -26 Y s 1768 62 m -27 Y s 1766 59 m
 -27 Y s 1769 62 m -26 Y s 1767 53 m 5 5 d 4 2 d 6 X 4 -2 d 2 -5 d -19 Y s 1768
 53 m 5 6 d 4 2 d 6 X 3 -2 d 2 -6 d -19 Y s 1766 52 m 6 6 d 4 2 d 5 X 4 -2 d 2
 -6 d -19 Y s 1768 54 m 6 5 d 3 2 d 6 X 4 -2 d 2 -5 d -19 Y s 1766 52 m 6 5 d 3
 2 d 6 X 4 -2 d 2 -5 d -19 Y s 1768 54 m 6 6 d 4 2 d 5 X 4 -2 d 2 -6 d -19 Y s
 1766 51 m 5 6 d 4 2 d 6 X 3 -2 d 2 -6 d -19 Y s 1769 55 m 5 5 d 4 2 d 6 X 4 -2
 d 2 -5 d -19 Y s 1788 53 m 5 5 d 4 2 d 6 X 3 -2 d 2 -5 d -19 Y s 1788 53 m 6 6
 d 4 2 d 5 X 4 -2 d 2 -6 d -19 Y s 1787 52 m 6 6 d 4 2 d 5 X 4 -2 d 2 -6 d -19 Y
 s 1789 54 m 5 5 d 4 2 d 6 X 4 -2 d 2 -5 d -19 Y s 1787 52 m 5 5 d 4 2 d 6 X 4
 -2 d 2 -5 d -19 Y s 1789 54 m 6 6 d 4 2 d 5 X 4 -2 d 2 -6 d -19 Y s 1786 51 m 6
 6 d 4 2 d 5 X 4 -2 d 2 -6 d -19 Y s 1790 55 m 5 5 d 4 2 d 6 X 3 -2 d 2 -5 d -19
 Y s 1822 49 m 22 X 4 Y -2 3 d -2 2 d -3 2 d -6 X -4 -2 d -4 -4 d -1 -5 d -4 Y 1
 -6 d 4 -3 d 4 -2 d 6 X 3 2 d 4 3 d s 1822 50 m 23 X 3 Y -2 4 d -2 2 d -4 2 d -5
 X -4 -2 d -4 -4 d -2 -5 d -4 Y 2 -6 d 4 -4 d 4 -2 d 5 X 4 2 d 4 4 d s 1821 48 m
 23 X 4 Y -2 4 d -2 2 d -4 2 d -5 X -4 -2 d -4 -4 d -2 -6 d -3 Y 2 -6 d 4 -4 d 4
 -2 d 5 X 4 2 d 4 4 d s 1823 50 m 22 X 4 Y -1 3 d -2 2 d -4 2 d -6 X -4 -2 d -3
 -3 d -2 -6 d -4 Y 2 -6 d 3 -3 d 4 -2 d 6 X 4 2 d 3 3 d s 1821 48 m 22 X 4 Y -1
 4 d -2 1 d -4 2 d -6 X -4 -2 d -3 -3 d -2 -6 d -4 Y 2 -6 d 3 -3 d 4 -2 d 6 X 4
 2 d 3 3 d s 1823 50 m 23 X 4 Y -2 4 d -2 2 d -4 2 d -5 X -4 -2 d -4 -4 d -2 -6
 d -3 Y 2 -6 d 4 -4 d 4 -2 d 5 X 4 2 d 4 4 d s 1820 48 m 23 X 3 Y -2 4 d -2 2 d
 -4 2 d -5 X -4 -2 d -4 -4 d -2 -5 d -4 Y 2 -6 d 4 -4 d 4 -2 d 5 X 4 2 d 4 4 d s
 1824 51 m 22 X 4 Y -2 3 d -2 2 d -3 2 d -6 X -4 -2 d -4 -4 d -1 -5 d -4 Y 1 -6
 d 4 -4 d 4 -1 d 6 X 3 1 d 4 4 d s 1861 36 m -2 -2 d -2 2 d 2 1 d 2 -1 d -4 Y -2
 -4 d -2 -2 d s 1862 36 m -2 -2 d -2 2 d 2 2 d 2 -2 d -3 Y -2 -4 d -2 -2 d s
 1861 35 m -2 -2 d -2 2 d 2 2 d 2 -2 d -4 Y -2 -3 d -2 -2 d s 1862 37 m -1 -2 d
 -2 2 d 2 2 d 1 -2 d -4 Y -1 -4 d -2 -2 d s 1860 35 m -1 -2 d -2 2 d 2 2 d 1 -2
 d -4 Y -1 -4 d -2 -2 d s 1863 37 m -2 -2 d -2 2 d 2 2 d 2 -2 d -4 Y -2 -3 d -2
 -2 d s 1860 34 m -2 -2 d -2 2 d 2 2 d 2 -2 d -3 Y -2 -4 d -2 -2 d s 1863 37 m
 -2 -1 d -2 1 d 2 2 d 2 -2 d -3 Y -2 -4 d -2 -2 d s 1935 73 m -39 Y s 1936 74 m
 -40 Y s 1935 73 m -40 Y s 1936 75 m -40 Y s 1934 73 m -40 Y s 1937 75 m -40 Y s
 1934 72 m -40 Y s 1937 75 m -39 Y s 1935 54 m -4 4 d -4 2 d -5 X -4 -2 d -4 -4
 d -2 -5 d -4 Y 2 -6 d 4 -3 d 4 -2 d 5 X 4 2 d 4 3 d s 1936 55 m -4 4 d -4 2 d
 -5 X -4 -2 d -4 -4 d -2 -5 d -4 Y 2 -6 d 4 -4 d 4 -2 d 5 X 4 2 d 4 4 d s 1935
 54 m -4 4 d -4 2 d -6 X -3 -2 d -4 -4 d -2 -6 d -3 Y 2 -6 d 4 -4 d 3 -2 d 6 X 4
 2 d 4 4 d s 1936 56 m -4 3 d -3 2 d -6 X -4 -2 d -4 -3 d -2 -6 d -4 Y 2 -6 d 4
 -3 d 4 -2 d 6 X 3 2 d 4 3 d s 1934 54 m -4 3 d -3 2 d -6 X -4 -2 d -4 -3 d -2
 -6 d -4 Y 2 -6 d 4 -3 d 4 -2 d 6 X 3 2 d 4 3 d s 1937 56 m -4 4 d -4 2 d -6 X
 -3 -2 d -4 -4 d -2 -6 d -3 Y 2 -6 d 4 -4 d 3 -2 d 6 X 4 2 d 4 4 d s 1934 53 m
 -4 4 d -4 2 d -5 X -4 -2 d -4 -4 d -2 -5 d -4 Y 2 -6 d 4 -4 d 4 -2 d 5 X 4 2 d
 4 4 d s 1937 56 m -4 4 d -4 2 d -5 X -4 -2 d -4 -4 d -2 -5 d -4 Y 2 -6 d 4 -4 d
 4 -1 d 5 X 4 1 d 4 4 d s 1971 60 m -26 Y s 1972 61 m -27 Y s 1970 60 m -27 Y s
 1972 61 m -26 Y s 1970 59 m -26 Y s 1972 62 m -27 Y s 1970 59 m -27 Y s 1973 62
 m -26 Y s 1971 54 m -4 4 d -4 2 d -5 X -4 -2 d -4 -4 d -2 -5 d -4 Y 2 -6 d 4 -3
 d 4 -2 d 5 X 4 2 d 4 3 d s 1972 55 m -4 4 d -4 2 d -6 X -3 -2 d -4 -4 d -2 -5 d
 -4 Y 2 -6 d 4 -4 d 3 -2 d 6 X 4 2 d 4 4 d s 1970 54 m -3 4 d -4 2 d -6 X -4 -2
 d -3 -4 d -2 -6 d -3 Y 2 -6 d 3 -4 d 4 -2 d 6 X 4 2 d 3 4 d s 1972 56 m -4 3 d
 -3 2 d -6 X -4 -2 d -4 -3 d -2 -6 d -4 Y 2 -6 d 4 -3 d 4 -2 d 6 X 3 2 d 4 3 d s
 1970 54 m -4 3 d -3 2 d -6 X -4 -2 d -4 -3 d -2 -6 d -4 Y 2 -6 d 4 -3 d 4 -2 d
 6 X 3 2 d 4 3 d s 1972 56 m -3 4 d -4 2 d -6 X -4 -2 d -3 -4 d -2 -6 d -3 Y 2
 -6 d 3 -4 d 4 -2 d 6 X 4 2 d 3 4 d s 1970 53 m -4 4 d -4 2 d -6 X -3 -2 d -4 -4
 d -2 -5 d -4 Y 2 -6 d 4 -4 d 3 -2 d 6 X 4 2 d 4 4 d s 1973 56 m -4 4 d -4 2 d
 -5 X -4 -2 d -4 -4 d -2 -5 d -4 Y 2 -6 d 4 -4 d 4 -1 d 5 X 4 1 d 4 4 d s 1982
 60 m 12 -26 d s 1983 61 m 11 -27 d s 1982 60 m 11 -27 d s 1983 61 m 12 -26 d s
 1981 59 m 12 -26 d s 1984 62 m 11 -27 d s 1981 59 m 11 -27 d s 1984 62 m 12 -26
 d s 2005 60 m -11 -26 d -4 -8 d -4 -4 d -4 -2 d -2 X s 2006 61 m -12 -27 d -3
 -7 d -4 -4 d -4 -2 d -2 X s 2004 60 m -11 -27 d -4 -7 d -3 -4 d -4 -2 d -2 X s
 2006 61 m -11 -26 d -4 -8 d -4 -4 d -4 -1 d -1 X s 2004 59 m -11 -26 d -4 -8 d
 -4 -4 d -4 -1 d -1 X s 2006 62 m -11 -27 d -4 -7 d -3 -4 d -4 -2 d -2 X s 2004
 59 m -12 -27 d -3 -7 d -4 -4 d -4 -2 d -2 X s 2007 62 m -11 -26 d -4 -8 d -4 -4
 d -4 -2 d -2 X s 2035 54 m -2 4 d -5 2 d -6 X -6 -2 d -2 -4 d 2 -3 d 4 -2 d 9
 -2 d 4 -2 d 2 -4 d -2 Y -2 -3 d -5 -2 d -6 X -6 2 d -2 3 d s 2036 55 m -2 4 d
 -6 2 d -5 X -6 -2 d -2 -4 d 2 -4 d 4 -1 d 9 -2 d 4 -2 d 2 -4 d -2 Y -2 -4 d -6
 -2 d -5 X -6 2 d -2 4 d s 2035 54 m -2 4 d -6 2 d -5 X -6 -2 d -2 -4 d 2 -4 d 4
 -2 d 9 -2 d 4 -1 d 2 -4 d -2 Y -2 -4 d -6 -2 d -5 X -6 2 d -2 4 d s 2036 56 m
 -2 3 d -5 2 d -6 X -6 -2 d -1 -3 d 1 -4 d 4 -2 d 10 -2 d 3 -2 d 2 -4 d -2 Y -2
 -3 d -5 -2 d -6 X -6 2 d -1 3 d s 2034 54 m -2 3 d -5 2 d -6 X -6 -2 d -1 -3 d
 1 -4 d 4 -2 d 10 -2 d 3 -2 d 2 -4 d -2 Y -2 -3 d -5 -2 d -6 X -6 2 d -1 3 d s
 2037 56 m -2 4 d -6 2 d -6 X -5 -2 d -2 -4 d 2 -4 d 4 -2 d 9 -2 d 4 -1 d 2 -4 d
 -2 Y -2 -4 d -6 -2 d -6 X -5 2 d -2 4 d s 2034 53 m -2 4 d -6 2 d -5 X -6 -2 d
 -2 -4 d 2 -4 d 4 -1 d 9 -2 d 4 -2 d 2 -4 d -2 Y -2 -4 d -6 -2 d -5 X -6 2 d -2
 4 d s 2037 56 m -2 4 d -5 2 d -6 X -6 -2 d -2 -4 d 2 -3 d 4 -2 d 9 -2 d 4 -2 d
 2 -4 d -2 Y -2 -4 d -5 -1 d -6 X -6 1 d -2 4 d s 62 903 m 40 X s 63 904 m 39 X
 s 62 903 m 39 X s 63 904 m 40 X s 61 902 m 40 X s 64 905 m 39 X s 61 902 m 39 X
 s 64 905 m 40 X s 62 903 m 13 Y 2 6 d 4 4 d 3 2 d 6 1 d 10 X 5 -1 d 4 -2 d 4 -4
 d 2 -6 d -13 Y s 63 904 m 13 Y 2 6 d 3 3 d 4 2 d 6 2 d 9 X 6 -2 d 4 -2 d 4 -3 d
 1 -6 d -13 Y s 62 903 m 13 Y 1 6 d 4 3 d 4 2 d 6 2 d 9 X 6 -2 d 4 -2 d 3 -3 d 2
 -6 d -13 Y s 63 904 m 13 Y 2 6 d 4 4 d 4 2 d 5 2 d 10 X 5 -2 d 4 -2 d 4 -4 d 2
 -6 d -13 Y s 61 902 m 13 Y 2 6 d 4 4 d 4 2 d 5 2 d 10 X 5 -2 d 4 -2 d 4 -4 d 2
 -6 d -13 Y s 64 905 m 13 Y 1 6 d 4 3 d 4 2 d 6 2 d 9 X 6 -2 d 4 -2 d 3 -3 d 2
 -6 d -13 Y s 61 902 m 13 Y 2 6 d 3 4 d 4 1 d 6 2 d 9 X 6 -2 d 4 -1 d 4 -4 d 1
 -6 d -13 Y s 64 905 m 13 Y 2 6 d 4 4 d 3 2 d 6 1 d 10 X 5 -1 d 4 -2 d 4 -4 d 2
 -6 d -13 Y s 75 950 m 2 -4 d 4 -3 d 6 -2 d 3 X 6 2 d 4 3 d 2 4 d 6 Y -2 4 d -4
 4 d -6 1 d -3 X -6 -1 d -4 -4 d -2 -4 d -6 Y cl s 76 951 m 2 -4 d 4 -3 d 5 -2 d
 4 X 6 2 d 4 3 d 1 4 d 6 Y -1 4 d -4 3 d -6 2 d -4 X -5 -2 d -4 -3 d -2 -4 d -6
 Y cl s 75 950 m 2 -4 d 3 -4 d 6 -2 d 4 X 6 2 d 3 4 d 2 4 d 6 Y -2 3 d -3 4 d -6
 2 d -4 X -6 -2 d -3 -4 d -2 -3 d -6 Y cl s 76 951 m 2 -3 d 4 -4 d 6 -2 d 4 X 5
 2 d 4 4 d 2 3 d 6 Y -2 4 d -4 4 d -5 2 d -4 X -6 -2 d -4 -4 d -2 -4 d -6 Y cl s
 74 949 m 2 -3 d 4 -4 d 6 -2 d 4 X 5 2 d 4 4 d 2 3 d 6 Y -2 4 d -4 4 d -5 2 d -4
 X -6 -2 d -4 -4 d -2 -4 d -6 Y cl s 77 952 m 2 -4 d 3 -4 d 6 -2 d 4 X 6 2 d 3 4
 d 2 4 d 6 Y -2 3 d -3 4 d -6 2 d -4 X -6 -2 d -3 -4 d -2 -3 d -6 Y cl s 74 949
 m 2 -4 d 4 -3 d 5 -2 d 4 X 6 2 d 4 3 d 1 4 d 6 Y -1 4 d -4 3 d -6 2 d -4 X -5
 -2 d -4 -3 d -2 -4 d -6 Y cl s 77 952 m 2 -4 d 4 -3 d 6 -2 d 3 X 6 2 d 4 3 d 2
 4 d 6 Y -2 4 d -4 3 d -6 2 d -3 X -6 -2 d -4 -3 d -2 -4 d -6 Y cl s 81 998 m -4
 -2 d -2 -6 d -6 Y 2 -5 d 4 -2 d 4 2 d 2 3 d 1 10 d 2 4 d 4 2 d 2 X 4 -2 d 2 -6
 d -6 Y -2 -5 d -4 -2 d s 82 998 m -4 -2 d -2 -5 d -6 Y 2 -6 d 4 -1 d 3 1 d 2 4
 d 2 10 d 2 3 d 4 2 d 2 X 4 -2 d 1 -5 d -6 Y -1 -6 d -4 -1 d s 80 997 m -3 -2 d
 -2 -5 d -6 Y 2 -6 d 3 -2 d 4 2 d 2 4 d 2 9 d 2 4 d 4 2 d 2 X 3 -2 d 2 -5 d -6 Y
 -2 -6 d -3 -2 d s 82 999 m -4 -2 d -2 -6 d -6 Y 2 -5 d 4 -2 d 4 2 d 2 4 d 2 9 d
 2 4 d 3 2 d 2 X 4 -2 d 2 -6 d -6 Y -2 -5 d -4 -2 d s 80 997 m -4 -2 d -2 -6 d
 -6 Y 2 -5 d 4 -2 d 4 2 d 2 4 d 2 9 d 2 4 d 3 2 d 2 X 4 -2 d 2 -6 d -6 Y -2 -5 d
 -4 -2 d s 82 999 m -3 -2 d -2 -5 d -6 Y 2 -6 d 3 -2 d 4 2 d 2 4 d 2 9 d 2 4 d 4
 2 d 2 X 3 -2 d 2 -5 d -6 Y -2 -6 d -3 -2 d s 80 996 m -4 -2 d -2 -5 d -6 Y 2 -6
 d 4 -1 d 3 1 d 2 4 d 2 10 d 2 3 d 4 2 d 2 X 4 -2 d 1 -5 d -6 Y -1 -6 d -4 -1 d
 s 83 1000 m -4 -2 d -2 -6 d -6 Y 2 -5 d 4 -2 d 4 2 d 2 3 d 1 10 d 2 4 d 4 2 d 2
 X 4 -2 d 2 -6 d -6 Y -2 -5 d -4 -2 d s 87 1009 m 23 Y -4 X -4 -2 d -2 -2 d -2
 -4 d -6 Y 2 -3 d 4 -4 d 6 -2 d 3 X 6 2 d 4 4 d 2 3 d 6 Y -2 4 d -4 4 d s 87
 1010 m 22 Y -3 X -4 -2 d -2 -1 d -2 -4 d -6 Y 2 -4 d 4 -3 d 5 -2 d 4 X 6 2 d 4
 3 d 1 4 d 6 Y -1 4 d -4 3 d s 86 1008 m 23 Y -4 X -3 -2 d -2 -2 d -2 -3 d -6 Y
 2 -4 d 3 -4 d 6 -2 d 4 X 6 2 d 3 4 d 2 4 d 6 Y -2 3 d -3 4 d s 88 1010 m 23 Y
 -4 X -4 -2 d -2 -2 d -2 -4 d -5 Y 2 -4 d 4 -4 d 6 -2 d 4 X 5 2 d 4 4 d 2 4 d 5
 Y -2 4 d -4 4 d s 86 1008 m 23 Y -4 X -4 -2 d -2 -2 d -2 -4 d -5 Y 2 -4 d 4 -4
 d 6 -2 d 4 X 5 2 d 4 4 d 2 4 d 5 Y -2 4 d -4 4 d s 88 1010 m 23 Y -4 X -3 -2 d
 -2 -2 d -2 -3 d -6 Y 2 -4 d 3 -4 d 6 -2 d 4 X 6 2 d 3 4 d 2 4 d 6 Y -2 3 d -3 4
 d s 85 1008 m 22 Y -3 X -4 -2 d -2 -1 d -2 -4 d -6 Y 2 -4 d 4 -3 d 5 -2 d 4 X 6
 2 d 4 3 d 1 4 d 6 Y -1 4 d -4 3 d s 89 1011 m 23 Y -4 X -4 -2 d -2 -2 d -2 -4 d
 -6 Y 2 -3 d 4 -4 d 6 -2 d 3 X 6 2 d 4 4 d 2 3 d 6 Y -2 4 d -4 4 d s 100 1049 m
 2 -2 d -2 -2 d -2 2 d 2 2 d 4 X 3 -2 d 2 -2 d s 101 1049 m 1 -2 d -1 -1 d -2 1
 d 2 2 d 3 X 4 -2 d 2 -1 d s 99 1048 m 2 -2 d -2 -2 d -2 2 d 2 2 d 4 X 4 -2 d 2
 -2 d s 101 1050 m 2 -2 d -2 -2 d -2 2 d 2 2 d 4 X 4 -2 d 1 -2 d s 99 1048 m 2
 -2 d -2 -2 d -2 2 d 2 2 d 4 X 4 -2 d 1 -2 d s 101 1050 m 2 -2 d -2 -2 d -2 2 d
 2 2 d 4 X 4 -2 d 2 -2 d s 99 1047 m 1 -2 d -1 -1 d -2 1 d 2 2 d 3 X 4 -2 d 2 -1
 d s 102 1051 m 2 -2 d -2 -2 d -2 2 d 2 2 d 4 X 3 -2 d 2 -2 d s 62 1101 m 40 X s
 63 1102 m 39 X s 62 1101 m 39 X s 63 1103 m 40 X s 61 1101 m 40 X s 64 1103 m
 39 X s 61 1100 m 39 X s 64 1103 m 40 X s 62 1101 m 17 Y 2 6 d 2 2 d 4 2 d 3 X 4
 -2 d 2 -2 d 2 -6 d -17 Y s 63 1102 m 17 Y 2 6 d 2 2 d 3 2 d 4 X 4 -2 d 2 -2 d 2
 -6 d -17 Y s 62 1101 m 17 Y 1 6 d 2 2 d 4 2 d 4 X 4 -2 d 2 -2 d 1 -6 d -17 Y s
 63 1103 m 17 Y 2 5 d 2 2 d 4 2 d 4 X 3 -2 d 2 -2 d 2 -5 d -17 Y s 61 1101 m 17
 Y 2 5 d 2 2 d 4 2 d 4 X 3 -2 d 2 -2 d 2 -5 d -17 Y s 64 1103 m 17 Y 1 6 d 2 2 d
 4 2 d 4 X 4 -2 d 2 -2 d 1 -6 d -17 Y s 61 1100 m 17 Y 2 6 d 2 2 d 3 2 d 4 X 4
 -2 d 2 -2 d 2 -6 d -17 Y s 64 1103 m 17 Y 2 6 d 2 2 d 4 2 d 3 X 4 -2 d 2 -2 d 2
 -6 d -17 Y s 81 1115 m 21 13 d s 82 1115 m 20 14 d s 80 1114 m 21 14 d s 82
 1116 m 21 13 d s 80 1114 m 21 13 d s 82 1116 m 21 14 d s 80 1114 m 20 13 d s 83
 1117 m 21 13 d s 75 1162 m 27 X s 76 1163 m 26 X s 75 1162 m 26 X s 76 1163 m
 27 X s 74 1161 m 27 X s 77 1164 m 26 X s 74 1161 m 26 X s 77 1164 m 27 X s 81
 1162 m -4 -4 d -2 -4 d -5 Y 2 -4 d 4 -4 d 6 -2 d 3 X 6 2 d 4 4 d 2 4 d 5 Y -2 4
 d -4 4 d s 82 1163 m -4 -4 d -2 -4 d -5 Y 2 -4 d 4 -4 d 5 -2 d 4 X 6 2 d 4 4 d
 1 4 d 5 Y -1 4 d -4 4 d s 80 1162 m -3 -4 d -2 -4 d -6 Y 2 -3 d 3 -4 d 6 -2 d 4
 X 6 2 d 3 4 d 2 3 d 6 Y -2 4 d -3 4 d s 82 1163 m -4 -4 d -2 -3 d -6 Y 2 -4 d 4
 -4 d 6 -2 d 4 X 5 2 d 4 4 d 2 4 d 6 Y -2 3 d -4 4 d s 80 1161 m -4 -4 d -2 -3 d
 -6 Y 2 -4 d 4 -4 d 6 -2 d 4 X 5 2 d 4 4 d 2 4 d 6 Y -2 3 d -4 4 d s 82 1164 m
 -3 -4 d -2 -4 d -6 Y 2 -3 d 3 -4 d 6 -2 d 4 X 6 2 d 3 4 d 2 3 d 6 Y -2 4 d -3 4
 d s 80 1161 m -4 -4 d -2 -4 d -5 Y 2 -4 d 4 -4 d 5 -2 d 4 X 6 2 d 4 4 d 1 4 d 5
 Y -1 4 d -4 4 d s 83 1164 m -4 -4 d -2 -4 d -5 Y 2 -4 d 4 -4 d 6 -2 d 3 X 6 2 d
 4 4 d 2 4 d 5 Y -2 4 d -4 4 d s 62 1198 m 40 X s 63 1199 m 39 X s 62 1197 m 39
 X s 63 1199 m 40 X s 61 1197 m 40 X s 64 1199 m 39 X s 61 1197 m 39 X s 64 1200
 m 40 X s 81 1198 m -4 -4 d -2 -4 d -5 Y 2 -4 d 4 -4 d 6 -2 d 3 X 6 2 d 4 4 d 2
 4 d 5 Y -2 4 d -4 4 d s 82 1199 m -4 -4 d -2 -4 d -6 Y 2 -3 d 4 -4 d 5 -2 d 4 X
 6 2 d 4 4 d 1 3 d 6 Y -1 4 d -4 4 d s 80 1197 m -3 -3 d -2 -4 d -6 Y 2 -4 d 3
 -3 d 6 -2 d 4 X 6 2 d 3 3 d 2 4 d 6 Y -2 4 d -3 3 d s 82 1199 m -4 -4 d -2 -4 d
 -5 Y 2 -4 d 4 -4 d 6 -2 d 4 X 5 2 d 4 4 d 2 4 d 5 Y -2 4 d -4 4 d s 80 1197 m
 -4 -4 d -2 -3 d -6 Y 2 -4 d 4 -4 d 6 -2 d 4 X 5 2 d 4 4 d 2 4 d 6 Y -2 3 d -4 4
 d s 82 1199 m -3 -3 d -2 -4 d -6 Y 2 -4 d 3 -3 d 6 -2 d 4 X 6 2 d 3 3 d 2 4 d 6
 Y -2 4 d -3 3 d s 80 1197 m -4 -4 d -2 -4 d -6 Y 2 -3 d 4 -4 d 5 -2 d 4 X 6 2 d
 4 4 d 1 3 d 6 Y -1 4 d -4 4 d s 83 1200 m -4 -4 d -2 -4 d -5 Y 2 -4 d 4 -4 d 6
 -2 d 3 X 6 2 d 4 4 d 2 4 d 5 Y -2 4 d -4 4 d s 81 1232 m -4 -2 d -2 -6 d -5 Y 2
 -6 d 4 -2 d 4 2 d 2 4 d 1 9 d 2 4 d 4 2 d 2 X 4 -2 d 2 -6 d -5 Y -2 -6 d -4 -2
 d s 82 1233 m -4 -2 d -2 -6 d -6 Y 2 -5 d 4 -2 d 3 2 d 2 4 d 2 9 d 2 4 d 4 2 d
 2 X 4 -2 d 1 -6 d -6 Y -1 -5 d -4 -2 d s 80 1231 m -3 -1 d -2 -6 d -6 Y 2 -5 d
 3 -2 d 4 2 d 2 3 d 2 10 d 2 4 d 4 1 d 2 X 3 -1 d 2 -6 d -6 Y -2 -5 d -3 -2 d s
 82 1233 m -4 -2 d -2 -5 d -6 Y 2 -6 d 4 -2 d 4 2 d 2 4 d 2 9 d 2 4 d 3 2 d 2 X
 4 -2 d 2 -5 d -6 Y -2 -6 d -4 -2 d s 80 1231 m -4 -2 d -2 -5 d -6 Y 2 -6 d 4 -2
 d 4 2 d 2 4 d 2 9 d 2 4 d 3 2 d 2 X 4 -2 d 2 -5 d -6 Y -2 -6 d -4 -2 d s 82
 1233 m -3 -1 d -2 -6 d -6 Y 2 -5 d 3 -2 d 4 2 d 2 3 d 2 10 d 2 4 d 4 1 d 2 X 3
 -1 d 2 -6 d -6 Y -2 -5 d -3 -2 d s 80 1231 m -4 -2 d -2 -6 d -6 Y 2 -5 d 4 -2 d
 3 2 d 2 4 d 2 9 d 2 4 d 4 2 d 2 X 4 -2 d 1 -6 d -6 Y -1 -5 d -4 -2 d s 83 1234
 m -4 -2 d -2 -6 d -5 Y 2 -6 d 4 -2 d 4 2 d 2 4 d 1 9 d 2 4 d 4 2 d 2 X 4 -2 d 2
 -6 d -5 Y -2 -6 d -4 -2 d s 54 1275 m 61 -34 d s 55 1276 m 61 -34 d s 54 1275 m
 60 -34 d s 56 1277 m 60 -34 d s 54 1275 m 60 -34 d s 56 1277 m 60 -34 d s 53
 1274 m 61 -34 d s 56 1277 m 61 -34 d s 81 1307 m -4 -3 d -2 -4 d -6 Y 2 -4 d 4
 -3 d 6 -2 d 3 X 6 2 d 4 3 d 2 4 d 6 Y -2 4 d -4 3 d s 82 1308 m -4 -4 d -2 -3 d
 -6 Y 2 -4 d 4 -4 d 5 -1 d 4 X 6 1 d 4 4 d 1 4 d 6 Y -1 3 d -4 4 d s 80 1307 m
 -3 -4 d -2 -3 d -6 Y 2 -4 d 3 -4 d 6 -2 d 4 X 6 2 d 3 4 d 2 4 d 6 Y -2 3 d -3 4
 d s 82 1309 m -4 -4 d -2 -4 d -6 Y 2 -3 d 4 -4 d 6 -2 d 4 X 5 2 d 4 4 d 2 3 d 6
 Y -2 4 d -4 4 d s 80 1307 m -4 -4 d -2 -4 d -6 Y 2 -3 d 4 -4 d 6 -2 d 4 X 5 2 d
 4 4 d 2 3 d 6 Y -2 4 d -4 4 d s 82 1309 m -3 -4 d -2 -3 d -6 Y 2 -4 d 3 -4 d 6
 -2 d 4 X 6 2 d 3 4 d 2 4 d 6 Y -2 3 d -3 4 d s 80 1306 m -4 -3 d -2 -4 d -6 Y 2
 -4 d 4 -3 d 5 -2 d 4 X 6 2 d 4 3 d 1 4 d 6 Y -1 4 d -4 3 d s 83 1309 m -4 -3 d
 -2 -4 d -6 Y 2 -4 d 4 -3 d 6 -2 d 3 X 6 2 d 4 3 d 2 4 d 6 Y -2 4 d -4 3 d s 75
 1321 m 27 X s 76 1322 m 26 X s 75 1320 m 26 X s 76 1322 m 27 X s 74 1320 m 27 X
 s 77 1322 m 26 X s 74 1320 m 26 X s 77 1323 m 27 X s 87 1321 m -6 2 d -4 3 d -2
 4 d 6 Y s 87 1322 m -5 1 d -4 4 d -2 4 d 6 Y s 86 1320 m -6 2 d -3 4 d -2 4 d 5
 Y s 88 1322 m -6 2 d -4 4 d -2 3 d 6 Y s 86 1320 m -6 2 d -4 4 d -2 3 d 6 Y s
 88 1322 m -6 2 d -3 4 d -2 4 d 5 Y s 85 1320 m -5 1 d -4 4 d -2 4 d 6 Y s 89
 1323 m -6 2 d -4 3 d -2 4 d 6 Y s 75 1342 m 27 11 d s 76 1342 m 26 12 d s 75
 1341 m 26 11 d s 76 1343 m 27 11 d s 74 1341 m 27 11 d s 77 1343 m 26 11 d s 74
 1340 m 26 12 d s 77 1343 m 27 12 d s 75 1364 m 27 -11 d 7 -4 d 4 -4 d 2 -3 d -2
 Y s 76 1365 m 26 -11 d 8 -4 d 4 -4 d 2 -4 d -2 Y s 75 1364 m 26 -12 d 8 -3 d 4
 -4 d 1 -4 d -2 Y s 76 1365 m 27 -11 d 7 -4 d 4 -4 d 2 -3 d -2 Y s 74 1363 m 27
 -11 d 7 -4 d 4 -4 d 2 -3 d -2 Y s 77 1366 m 26 -12 d 8 -3 d 4 -4 d 1 -4 d -2 Y
 s 74 1363 m 26 -11 d 8 -4 d 4 -4 d 2 -4 d -2 Y s 77 1366 m 27 -11 d 7 -4 d 4 -4
 d 2 -4 d -1 Y s 81 1394 m -4 -1 d -2 -6 d -6 Y 2 -5 d 4 -2 d 4 2 d 2 3 d 1 10 d
 2 4 d 4 1 d 2 X 4 -1 d 2 -6 d -6 Y -2 -5 d -4 -2 d s 82 1395 m -4 -2 d -2 -5 d
 -6 Y 2 -6 d 4 -2 d 3 2 d 2 4 d 2 10 d 2 3 d 4 2 d 2 X 4 -2 d 1 -5 d -6 Y -1 -6
 d -4 -2 d s 80 1394 m -3 -2 d -2 -6 d -5 Y 2 -6 d 3 -2 d 4 2 d 2 4 d 2 9 d 2 4
 d 4 2 d 2 X 3 -2 d 2 -6 d -5 Y -2 -6 d -3 -2 d s 82 1396 m -4 -2 d -2 -6 d -6 Y
 2 -5 d 4 -2 d 4 2 d 2 3 d 2 10 d 2 4 d 3 2 d 2 X 4 -2 d 2 -6 d -6 Y -2 -5 d -4
 -2 d s 80 1394 m -4 -2 d -2 -6 d -6 Y 2 -5 d 4 -2 d 4 2 d 2 4 d 2 9 d 2 4 d 3 2
 d 2 X 4 -2 d 2 -6 d -6 Y -2 -5 d -4 -2 d s 82 1396 m -3 -2 d -2 -6 d -5 Y 2 -6
 d 3 -2 d 4 2 d 2 4 d 2 9 d 2 4 d 4 2 d 2 X 3 -2 d 2 -6 d -5 Y -2 -6 d -3 -2 d s
 80 1393 m -4 -2 d -2 -5 d -6 Y 2 -6 d 4 -2 d 3 2 d 2 4 d 2 10 d 2 3 d 4 2 d 2 X
 4 -2 d 1 -5 d -6 Y -1 -6 d -4 -2 d s 83 1396 m -4 -1 d -2 -6 d -6 Y 2 -5 d 4 -2
 d 4 2 d 2 3 d 1 10 d 2 4 d 4 1 d 2 X 4 -1 d 2 -6 d -6 Y -2 -5 d -4 -2 d s 62
 1410 m 32 X 6 1 d 2 4 d 4 Y s 63 1410 m 32 X 6 2 d 1 4 d 4 Y s 62 1409 m 32 X 5
 2 d 2 4 d 4 Y s 63 1411 m 32 X 6 2 d 2 3 d 4 Y s 61 1409 m 32 X 6 2 d 2 3 d 4 Y
 s 64 1411 m 32 X 5 2 d 2 4 d 4 Y s 61 1408 m 32 X 6 2 d 1 4 d 4 Y s 64 1412 m
 32 X 6 1 d 2 4 d 4 Y s 75 1404 m 13 Y s 76 1405 m 13 Y s 75 1403 m 14 Y s 76
 1405 m 13 Y s 74 1403 m 13 Y s 77 1405 m 14 Y s 74 1403 m 13 Y s 77 1406 m 13 Y
 s 75 1451 m 27 X s 76 1452 m 26 X s 75 1451 m 26 X s 76 1452 m 27 X s 74 1450 m
 27 X s 77 1453 m 26 X s 74 1450 m 26 X s 77 1453 m 27 X s 81 1451 m -4 -4 d -2
 -3 d -6 Y 2 -4 d 4 -4 d 6 -2 d 3 X 6 2 d 4 4 d 2 4 d 6 Y -2 3 d -4 4 d s 82
 1452 m -4 -4 d -2 -4 d -5 Y 2 -4 d 4 -4 d 5 -2 d 4 X 6 2 d 4 4 d 1 4 d 5 Y -1 4
 d -4 4 d s 80 1451 m -3 -4 d -2 -4 d -6 Y 2 -3 d 3 -4 d 6 -2 d 4 X 6 2 d 3 4 d
 2 3 d 6 Y -2 4 d -3 4 d s 82 1452 m -4 -3 d -2 -4 d -6 Y 2 -4 d 4 -3 d 6 -2 d 4
 X 5 2 d 4 3 d 2 4 d 6 Y -2 4 d -4 3 d s 80 1450 m -4 -3 d -2 -4 d -6 Y 2 -4 d 4
 -3 d 6 -2 d 4 X 5 2 d 4 3 d 2 4 d 6 Y -2 4 d -4 3 d s 82 1453 m -3 -4 d -2 -4 d
 -6 Y 2 -3 d 3 -4 d 6 -2 d 4 X 6 2 d 3 4 d 2 3 d 6 Y -2 4 d -3 4 d s 80 1450 m
 -4 -4 d -2 -4 d -5 Y 2 -4 d 4 -4 d 5 -2 d 4 X 6 2 d 4 4 d 1 4 d 5 Y -1 4 d -4 4
 d s 83 1453 m -4 -4 d -2 -3 d -6 Y 2 -4 d 4 -4 d 6 -2 d 3 X 6 2 d 4 4 d 2 4 d 6
 Y -2 3 d -4 4 d s 62 1466 m 40 X s 63 1467 m 39 X s 62 1466 m 39 X s 63 1467 m
 40 X s 61 1465 m 40 X s 64 1468 m 39 X s 61 1465 m 39 X s 64 1468 m 40 X s 1757
 1247 284 227 C
 gr  gr 
showpage
end
%%EOF
