%!PS-Adobe-2.0 EPSF-2.0
%%BoundingBox: 0 0 567 567
%%Title: /home/users/ecl/kuzmin/pic.ps
%%Creator: HIGZ Version 1.23/07
%%CreationDate: :0/08/29   00.10
%%EndComments
%%BeginProlog
80 dict begin
/s {stroke} def /l {lineto} def /m {moveto} def /t {translate} def
/sw {stringwidth} def /r {rotate} def /rl {roll}  def /R {repeat} def
/d {rlineto} def /rm {rmoveto} def /gr {grestore} def /f {eofill} def
/c {setrgbcolor} def /lw {setlinewidth} def /sd {setdash} def
/cl {closepath} def /sf {scalefont setfont} def /black {0 setgray} def
/box {m dup 0 exch d exch 0 d 0 exch neg d cl} def
/NC{systemdict begin initclip end}def/C{NC box clip newpath}def
/bl {box s} def /bf {box f} def /Y { 0 exch d} def /X { 0 d} def 
/mp {newpath /y exch def /x exch def} def
/side {[w .77 mul w .23 mul] .385 w mul sd w 0 l currentpoint t -144 r} def
/mr {mp x y w2 0 360 arc} def /m24 {mr s} def /m20 {mr f} def
/mb {mp x y w2 add m w2 neg 0 d 0 w neg d w 0 d 0 w d cl} def
/mt {mp x y w2 add m w2 neg w neg d w 0 d cl} def
/m21 {mb f} def /m25 {mb s} def /m22 {mt f} def /m26 {mt s} def
/m23 {mp x y w2 sub m w2 w d w neg 0 d cl f} def
/m27 {mp x y w2 add m w3 neg w2 neg d w3 w2 neg d w3  w2 d cl s} def
/m28 {mp x w2 sub y w2 sub w3 add m w3 0 d 0 w3 neg d w3 0 d 0 w3 d w3 0 d
 0 w3 d w3 neg 0 d 0 w3 d w3 neg 0 d
 0 w3 neg d w3 neg 0 d cl s } def
/m29 {mp gsave x w2 sub y w2 add w3 sub m currentpoint t
 4 {side} repeat cl fill gr} def
/m30 {mp gsave x w2 sub y w2 add w3 sub m currentpoint t
 5 {side} repeat s gr} def
/m31 {mp x y w2 sub m 0 w d x w2 sub y m w 0 d
 x w2 sub y w2 add m w w neg d x w2 sub y w2
 sub m w w d s} def
/m2 {mp x y w2 sub m 0 w d x w2 sub y m w 0 d s} def
/m5 {mp x w2 sub y w2 sub m w w d x w2 sub y w2 add m w w neg d s} def
/DP {/PT exch def gsave 47.2 47.2 scale PT 1  eq { 16 16 1 [ 16 0 0 16 neg 0 16
] { < AA AA 55 55 AA AA 55 55 AA AA 55 55 AA AA 55 55 AA AA 55 55 AA AA 55 55
AA AA 55 55 AA AA 55 55 > } image } if PT 2 eq { 16 16 1 [ 16 0 0 16 neg 0 16
] { < BB BB EE EE BB BB EE EE BB BB EE EE BB BB EE EE BB BB EE EE BB BB EE EE
BB BB EE EE BB BB EE EE > } image } if PT 3 eq { 16 16 1 [ 16 0 0 16 neg 0 16
] { < FF FF BB BB FF FF EE EE FF FF BB BB FF FF EE EE FF FF BB BB FF FF EE EE
FF FF BB BB FF FF EE EE > } image } if PT 4 eq { 16 16 1 [ 16 0 0 16 neg 0 16
] { < DF DF BF BF 7F 7F FE FE FD FD FB FB F7 F7 EF EF DF DF BF BF 7F 7F FE FE
FD FD FB FB F7 F7 EF EF > } image } if PT 5 eq { 16 16 1 [ 16 0 0 16 neg 0 16
] { < 7F 7F BF B F DF DF EF EF F7 F7 FB FB FD FD FE FE 7F 7F BF BF DF DF EF
EF F7 F7 FB FB FD FD FE FE > } image } if PT 6 eq { 16 16 1 [ 16 0 0 16 neg 0
16 ] { < BB BB BB BB BB BB BB BB BB BB BB BB BB BB BB BB BB BB BB BB BB BB BB
BB BB BB BB BB BB BB BB BB > } image } if PT 7 eq { 16 16 1 [ 16 0 0 16 neg 0
16 ] { < FF FF FF FF FF FF 00 00 FF FF FF FF FF FF 00 00 FF FF FF FF FF FF 00
00 FF FF FF FF FF FF 00 00 > } image } if PT 8 eq { 16 16 1 [ 16 0 0 16 neg 0
16 ] { < EE EE 47 47 83 83 C5 C5 EE EE 5C 5C 38 38 74 74 EE EE 47 47 83 83 C5
C5 EE EE 5C 5C 38 38 74 74 > } image } if PT 9 eq { 16 16 1 [ 16 0 0 16 neg 0
16 ] { < EF EF EF EF D7 D7 38 38 FE FE FE FE 7D 7D 83 83 EF EF EF EF D7 D7 38
38  FE FE FE FE 7D 7D 83 83 > } image } if PT 10 eq { 16 16 1 [ 16 0 0 16 neg
0 16 ] { <  EF EF EF EF EF EF 00 00 FE FE FE FE FE FE 00 00 EF EF EF EF EF EF
00 00 FE FE FE FE FE FE 00 00 > } image } if PT 11 eq { 16 16 1 [ 16 0 0 16
neg 0 16 ] { < F7 F7 B6 B6 D5 D5 E3 E3 D5 D5 B6 B6 F7 F7 FF FF 7F 7F 6B 6B 5D
5D 3E 3E 5D 5D 6B 6B 7F 7F FF FF > } image } if PT 12 eq { 16 16 1 [ 16 0 0
16 neg 0 16 ] { < E3 E3 DD DD BE BE BE BE BE BE DD DD E3 E3 FF FF 3E 3E DD DD
EB EB EB EB EB EB DD DD 3E 3E FF FF > } image } if PT 13 eq { 16 16 1 [ 16 0
0 16 neg 0 16 ] { <  FE FE 7D 7D BB BB D7 D7 EF EF D7 D7 BB BB 7D 7D FE FE 7D
7D BB BB D7 D7 EF EF D7 D7 BB BB 7D 7D > } image } if PT 14 eq { 16 16 1 [ 16
0 0 16 neg 0 16 ] { < 00 00 EE EF EE EF EE EF 0E E0 EE EE EE EE EE EE 00 EE
FE EE FE EE FE EE 00 00 FE EF FE EF FE EF > } image } if PT 15 eq { 16 16 1 [
16 0 0 16 neg 0 16 ] { < DD DD AA AA DD DD FF FF 77 77 AA AA 77 77 FF FF DD
DD AA AA DD DD FF FF 77 77 AA AA 77 77 FF FF > } image } if PT 16 eq { 16 16
1 [ 16 0 0 16 neg 0 16 ] { <  F1 F1 EE EE 1F 1F FF FF F1 F1 EE EE 1F 1F FF FF
F1 F1 EE EE 1F 1F FF FF F1 F1 EE EE 1F 1F FF FF > } image } if PT 17 eq { 16
16 1 [ 16 0 0 16 neg 0 16 ] { <  EE EE DD DD BB BB FF FF EE EE DD DD BB BB FF
 FF EE EE DD DD BB BB FF FF EE EE DD DD BB BB FF FF > } image } if PT 18 eq {
16 16 1 [ 16 0 0 16 neg 0 16 ] { <  BB BB DD DD EE EE FF FF BB BB DD DD EE EE
FF FF BB BB DD DD EE EE FF FF BB BB DD DD EE EE FF FF > } image } if PT 19 eq
{ 16 16 1 [ 16 0 0 16 neg 0 16 ] { < 1F FC 67 F3 7B EF BD DE BD DE DE BD E6
B3 F8 0F E6 B3 DE BD BD DE BD DE 7B EF 67 F3 1F FC 7F FF > } image } if PT
20 eq { 16 16 1 [ 16 0 0 16 neg 0 16 ] { < DD DD EE EE EE EE EE EE DD DD BB
BB BB BB BB BB DD DD EE EE EE EE EE EE DD DD BB BB BB BB BB BB > } image }
if PT 21 eq { 16 16 1 [ 16 0 0 16 neg 0 16 ] { < 0E 0E EF EF EF EF EF EF E0
E0 FE FE FE FE FE FE 0E 0E EF EF EF EF EF EF E0 E0 FE FE FE FE FE FE > }
image }  if PT 22 eq { 16 16 1 [ 16 0 0 16 neg 0 16 ] { < 70 70 F7 F7 F7 F7 F7
F7 07 07 7F 7F 7F 7F 7F 7F 70 70 F7 F7 F7 F7 F7 F7 07 07 7F 7F 7F 7F 7F 7F >
} image } if PT 23 eq  { 16 16 1 [ 16 0 0 16 neg 0 16 ] { < AA AA 55 55 A9 A9
D1 D1 E1 E1 D1 D1 A9 A9 55 55 AA AA 55 55 A9 A9 D1 D1 E1 E1 D1 D1 A9 A9 55 55
> } image } if PT 24 eq { 16 16 1 [ 16 0 0 16 neg 0 16 ] { < FF FE FF FC EA
A8 D5 54 EA A8 D5 54 E8 28 D4 54 E8 E8 D4 D4 E8 EA 54 D5 A8 EA 54 D5 00 C0 00
80 > } image } if PT 25 eq {  16 16 1 [ 16 0 0 16 neg 0 16 ] { < FF FE FF FC
FF F8 FF F0 F0 00 F0 00 F0 20 F0 60 F0 E0 F1 E0 F3 E0 F0 00 E0 00 C0 00 80 00
00 00 > } image } if gr } def /FA { /PT exch def gsave clip 0 0 translate 1 1
54 { 1 sub 47.2 mul /Xcurr exch def 1 1 74 { 1 sub 47.2 mul /Ycurr exch def
gsave Xcurr Ycurr translate PT DP gr } for } for gr newpath } def
/reencdict 24 dict def /ReEncode {reencdict begin /nco&na exch def
/nfnam exch def /basefontname exch def /basefontdict basefontname findfont def
/newfont basefontdict maxlength dict def basefontdict {exch dup /FID ne
{dup /Encoding eq {exch dup length array copy newfont 3 1 roll put} {exch
newfont 3 1 roll put} ifelse} {pop pop} ifelse } forall newfont
/FontName nfnam put nco&na aload pop nco&na length 2 idiv {newfont
/Encoding get 3 1 roll put} repeat nfnam newfont definefont pop end } def
/accvec [ 176 /agrave 181 /Agrave 190 /acircumflex 192 /Acircumflex
201 /adieresis 204 /Adieresis 209 /ccedilla 210 /Ccedilla 211 /eacute
212 /Eacute 213 /egrave 214 /Egrave 215 /ecircumflex 216 /Ecircumflex
217 /edieresis 218 /Edieresis 219 /icircumflex 220 /Icircumflex
221 /idieresis 222 /Idieresis 223 /ntilde 224 /Ntilde 226 /ocircumflex
228 /Ocircumflex 229 /odieresis 230 /Odieresis 231 /ucircumflex 236 /Ucircumflex
237 /udieresis 238 /Udieresis 239 /aring 242 /Aring 243 /ydieresis
244 /Ydieresis 246 /aacute 247 /Aacute 252 /ugrave 253 /Ugrave] def
/Times-Roman /Times-Roman accvec ReEncode
/Times-Italic /Times-Italic accvec ReEncode
/Times-Bold /Times-Bold accvec ReEncode
/Times-BoldItalic /Times-BoldItalic accvec ReEncode
/Helvetica /Helvetica accvec ReEncode
/Helvetica-Oblique /Helvetica-Oblique accvec ReEncode
/Helvetica-Bold /Helvetica-Bold accvec ReEncode
/Helvetica-BoldOblique /Helvetica-BoldOblique  accvec ReEncode
/Courier /Courier accvec ReEncode
/Courier-Oblique /Courier-Oblique accvec ReEncode
/Courier-Bold /Courier-Bold accvec ReEncode
/Courier-BoldOblique /Courier-BoldOblique accvec ReEncode
/oshow {gsave [] 0 sd true charpath stroke gr} def
/stwn { /fs exch def /fn exch def /text exch def fn findfont fs sf
 text sw pop xs add /xs exch def} def
/stwb { /fs exch def /fn exch def /nbas exch def /textf exch def
textf length /tlen exch def nbas tlen gt {/nbas tlen def} if
fn findfont fs sf textf dup length nbas sub nbas getinterval sw
pop neg xs add /xs exch def} def
/accspe [ 65 /plusminus 66 /bar 67 /existential 68 /universal
69 /exclam 70 /numbersign 71 /greater 72 /question 73 /integral
74 /colon 75 /semicolon 76 /less 77 /bracketleft 78 /bracketright
79 /greaterequal 80 /braceleft 81 /braceright 82 /radical
83 /spade 84 /heart 85 /diamond 86 /club 87 /lessequal
88 /multiply 89 /percent 90 /infinity 48 /circlemultiply 49 /circleplus
50 /emptyset 51 /lozenge 52 /bullet 53 /arrowright 54 /arrowup
55 /arrowleft 56 /arrowdown 57 /arrowboth 48 /degree 44 /comma 43 /plus
 45 /angle 42 /angleleft 47 /divide 61 /notequal 40 /equivalence 41 /second
 97 /approxequal 98 /congruent 99 /perpendicular 100 /partialdiff 101 /florin
 102 /intersection 103 /union 104 /propersuperset 105 /reflexsuperset
 106 /notsubset 107 /propersubset 108 /reflexsubset 109 /element 110 /notelement
 111 /gradient 112 /logicaland 113 /logicalor 114 /arrowdblboth
 115 /arrowdblleft 116 /arrowdblup 117 /arrowdblright 118 /arrowdbldown
 119 /ampersand 120 /omega1 121 /similar 122 /aleph ] def
/Symbol /Special accspe ReEncode
%%EndProlog
 gsave  .25 .25 scale  gsave 0 0 t black [] 0 sd 1 lw 3 lw 0 0 1 c 794 794 340
 1247 bl 794 794 340 1247 C 5 lw 1 0 0 c 340 1247 m 2 Y 13 X -1 Y 7 X 1 Y 79 X 1
 Y 14 X -1 Y 6 X 1 Y 60 X 1 Y 26 X 1 Y 33 X 1 Y 20 X 1 Y 13 X 1 Y 20 X 1 Y 7 X 1
 Y 13 X 1 Y 7 X 1 Y 6 X 1 Y 7 X 1 Y 7 X 1 Y 6 X 1 Y 7 X 3 Y 6 X 1 Y 7 X 3 Y 7 X
 1 Y 6 X 3 Y 7 X 3 Y 6 X 3 Y 7 X 4 Y 7 X 5 Y 6 X 4 Y 7 X 8 Y 7 X 7 Y 6 X 8 Y 7 X
 12 Y 6 X 12 Y 7 X 16 Y 7 X 18 Y 6 X 23 Y 7 X 29 Y 6 X 36 Y 7 X 43 Y 7 X 58 Y 6
 X 70 Y 7 X 80 Y 7 X 94 Y 6 X 91 Y 7 X 64 Y 6 X -16 Y 7 X -98 Y 7 X -186 Y 6 X
 -181 Y 7 X -136 Y 6 X -64 Y 7 X -24 Y 7 X -6 Y 6 X -2 Y 7 X -1 Y 13 X -1 Y 66 X
 s 1008 1247 m 126 X s 0 0 1 c 807 1387 m 2 14 d 4 16 d 4 Y 3 17 d 3 18 d 1 7 d
 2 19 d 3 21 d 1 10 d 3 23 d 3 25 d 1 12 d 3 28 d 3 33 d 1 10 d 2 32 d 4 46 d 5
 66 d 2 16 d 4 45 d 1 18 d 1 14 d 3 23 d 1 12 d 1 8 d 1 7 d 1 3 d 2 6 d 1 3 d 1
 2 d 1 -1 d 1 -1 d 1 -4 d -1 Y 1 -6 d 1 -6 d 1 -9 d -10 Y 1 -12 d 1 -12 d 1 -14
 d -5 Y 1 -15 d 1 -20 d 1 -18 d 1 -25 d 1 -29 d 1 -40 d 1 -23 d 1 -32 d 1 -36 d
 1 -38 d 1 -41 d 1 -39 d 2 -45 d s NC 1 lw 340 1247 m 794 Y s 374 1247 m -34 X s
 357 1270 m -17 X s 357 1294 m -17 X s 357 1317 m -17 X s 357 1340 m -17 X s 374
 1363 m -34 X s 357 1386 m -17 X s 357 1409 m -17 X s 357 1432 m -17 X s 357
 1455 m -17 X s 374 1478 m -34 X s 357 1501 m -17 X s 357 1524 m -17 X s 357
 1547 m -17 X s 357 1571 m -17 X s 374 1594 m -34 X s 357 1617 m -17 X s 357
 1640 m -17 X s 357 1663 m -17 X s 357 1686 m -17 X s 374 1709 m -34 X s 357
 1732 m -17 X s 357 1755 m -17 X s 357 1778 m -17 X s 357 1801 m -17 X s 374
 1824 m -34 X s 357 1848 m -17 X s 357 1871 m -17 X s 357 1894 m -17 X s 357
 1917 m -17 X s 374 1940 m -34 X s 374 1940 m -34 X s 357 1963 m -17 X s 357
 1986 m -17 X s 357 2009 m -17 X s 357 2032 m -17 X s
 /xs 0 def 
(0)
 /Times-Italic     77 stwn 
 gsave  295 1222
 t   0 r  xs neg 0 t 0 0 m
 /Times-Italic findfont   77 sf 0    0 m 
(0)
 show 
 gr 
 /xs 0 def 
(10000)
 /Times-Italic     77 stwn 
 gsave  295 1337
 t   0 r  xs neg 0 t 0 0 m
 /Times-Italic findfont   77 sf 0    0 m 
(10000)
 show 
 gr 
 /xs 0 def 
(20000)
 /Times-Italic     77 stwn 
 gsave  295 1453
 t   0 r  xs neg 0 t 0 0 m
 /Times-Italic findfont   77 sf 0    0 m 
(20000)
 show 
 gr 
 /xs 0 def 
(30000)
 /Times-Italic     77 stwn 
 gsave  295 1568
 t   0 r  xs neg 0 t 0 0 m
 /Times-Italic findfont   77 sf 0    0 m 
(30000)
 show 
 gr 
 /xs 0 def 
(40000)
 /Times-Italic     77 stwn 
 gsave  295 1684
 t   0 r  xs neg 0 t 0 0 m
 /Times-Italic findfont   77 sf 0    0 m 
(40000)
 show 
 gr 
 /xs 0 def 
(50000)
 /Times-Italic     77 stwn 
 gsave  295 1799
 t   0 r  xs neg 0 t 0 0 m
 /Times-Italic findfont   77 sf 0    0 m 
(50000)
 show 
 gr 
 /xs 0 def 
(60000)
 /Times-Italic     77 stwn 
 gsave  295 1914
 t   0 r  xs neg 0 t 0 0 m
 /Times-Italic findfont   77 sf 0    0 m 
(60000)
 show 
 gr  340 1247 m 794 X s 340 1281 m -34 Y s 406 1264 m -17 Y s 473 1264 m -17 Y s
 539 1264 m -17 Y s 605 1281 m -34 Y s 671 1264 m -17 Y s 737 1264 m -17 Y s 803
 1264 m -17 Y s 869 1281 m -34 Y s 936 1264 m -17 Y s 1002 1264 m -17 Y s 1068
 1264 m -17 Y s 1134 1281 m -34 Y s 1134 1281 m -34 Y s
 /xs 0 def 
(0.6)
 /Times-Italic     77 stwn 
 gsave  340 1140
 t   0 r  xs 2 div neg 0 t 0 0 m
 /Times-Italic findfont   77 sf 0    0 m 
(0.6)
 show 
 gr 
 /xs 0 def 
(0.8)
 /Times-Italic     77 stwn 
 gsave  605 1140
 t   0 r  xs 2 div neg 0 t 0 0 m
 /Times-Italic findfont   77 sf 0    0 m 
(0.8)
 show 
 gr 
 /xs 0 def 
(1)
 /Times-Italic     77 stwn 
 gsave  869 1140
 t   0 r  xs 2 div neg 0 t 0 0 m
 /Times-Italic findfont   77 sf 0    0 m 
(1)
 show 
 gr 
 /xs 0 def 
(1.2)
 /Times-Italic     77 stwn 
 gsave  1134 1140
 t   0 r  xs 2 div neg 0 t 0 0 m
 /Times-Italic findfont   77 sf 0    0 m 
(1.2)
 show 
 gr  794 794 340 1247 C 2268 2268 0 0 C black
 /xs 0 def 
(E/E)
 /Times-Italic     69 stwn 
(g)
 /Symbol     48 stwn 
 gsave  1134 1077
 t   0 r  xs neg 0 t 0 0 m
 /Times-Italic findfont   69 sf 0    0 m 
(E/E)
 show 
 currentpoint pop 0 t 
 /Symbol findfont   48 sf 0  -23 m 
(g)
 show 
 gr  794 794 340 1247 C 2268 2268 0 0 C 794 794 340 1247 C 2268 2268 0 0 C
 gsave  406 1644
 t   0 r 0 0 m
 /Symbol findfont   68 sf 0    0 m 
(s)
 show 
 currentpoint pop 0 t 
 /Times-BoldItalic findfont   68 sf 0    0 m 
(E/E=1.70)
 show 
 currentpoint pop 0 t 
 /Special findfont   68 sf 0    0 m 
(Y)
 show 
 gr  794 794 340 1247 C 2268 2268 0 0 C 794 794 340 1247 C 2268 2268 0 0 C
 gsave  406 1962
 t   0 r 0 0 m
 /Times-BoldItalic findfont   68 sf 0    0 m 
(All)
 show 
 gr  794 794 340 1247 C NC 3 lw 0 0 1 c 794 794 1361 1247 bl 794 794 1361 1247 C
 5 lw 1 0 0 c 1361 1247 m 1 Y 26 X 1 Y 7 X -1 Y 13 X 1 Y 20 X -1 Y 7 X 1 Y 72 X
 1 Y 14 X -1 Y 6 X 1 Y 20 X 1 Y 7 X -1 Y 6 X 1 Y 40 X 1 Y 13 X 1 Y 20 X 1 Y 20 X
 1 Y 6 X 1 Y 20 X 1 Y 7 X 2 Y 13 X 1 Y 7 X 1 Y 6 X 2 Y 7 X 2 Y 7 X 2 Y 6 X 1 Y 7
 X 3 Y 6 X 3 Y 7 X 2 Y 7 X 5 Y 6 X 4 Y 7 X 4 Y 7 X 7 Y 6 X 7 Y 7 X 7 Y 6 X 12 Y
 7 X 12 Y 7 X 15 Y 6 X 18 Y 7 X 23 Y 6 X 30 Y 7 X 35 Y 7 X 43 Y 6 X 59 Y 7 X 70
 Y 7 X 83 Y 6 X 94 Y 7 X 91 Y 6 X 67 Y 7 X -17 Y 7 X -100 Y 6 X -186 Y 7 X -183
 Y 6 X -138 Y 7 X -61 Y 7 X -22 Y 6 X -6 Y 7 X -1 Y 13 X -1 Y 73 X s 2029 1247 m
 126 X s 0 0 1 c 1827 1380 m 3 14 d 3 16 d 1 4 d 3 17 d 2 18 d 1 7 d 3 19 d 3 20
 d 1 11 d 3 23 d 2 25 d 2 13 d 2 28 d 3 32 d 1 11 d 3 32 d 4 48 d 5 67 d 1 17 d
 4 46 d 2 17 d 1 15 d 3 24 d 1 12 d 1 8 d 1 6 d 1 4 d 1 6 d 1 3 d 1 1 d 1 X 1 -2
 d 1 -3 d -1 Y 1 -7 d 1 -7 d 1 -9 d 1 -10 d 1 -13 d 1 -12 d 1 -15 d -4 Y 1 -15 d
 1 -21 d -19 Y 1 -25 d 1 -30 d 2 -45 d 1 -17 d 1 -32 d 1 -38 d 1 -39 d 1 -41 d 1
 -41 d 1 -39 d s NC 1 lw 1361 1247 m 794 Y s 1395 1247 m -34 X s 1378 1274 m -17
 X s 1378 1300 m -17 X s 1378 1327 m -17 X s 1378 1353 m -17 X s 1395 1380 m -34
 X s 1378 1406 m -17 X s 1378 1433 m -17 X s 1378 1459 m -17 X s 1378 1485 m -17
 X s 1395 1512 m -34 X s 1378 1538 m -17 X s 1378 1565 m -17 X s 1378 1591 m -17
 X s 1378 1618 m -17 X s 1395 1644 m -34 X s 1378 1671 m -17 X s 1378 1697 m -17
 X s 1378 1724 m -17 X s 1378 1750 m -17 X s 1395 1776 m -34 X s 1378 1803 m -17
 X s 1378 1829 m -17 X s 1378 1856 m -17 X s 1378 1882 m -17 X s 1395 1909 m -34
 X s 1378 1935 m -17 X s 1378 1962 m -17 X s 1378 1988 m -17 X s 1378 2014 m -17
 X s 1395 2041 m -34 X s 1395 2041 m -34 X s
 /xs 0 def 
(0)
 /Times-Italic     77 stwn 
 gsave  1315 1222
 t   0 r  xs neg 0 t 0 0 m
 /Times-Italic findfont   77 sf 0    0 m 
(0)
 show 
 gr 
 /xs 0 def 
(10000)
 /Times-Italic     77 stwn 
 gsave  1315 1354
 t   0 r  xs neg 0 t 0 0 m
 /Times-Italic findfont   77 sf 0    0 m 
(10000)
 show 
 gr 
 /xs 0 def 
(20000)
 /Times-Italic     77 stwn 
 gsave  1315 1486
 t   0 r  xs neg 0 t 0 0 m
 /Times-Italic findfont   77 sf 0    0 m 
(20000)
 show 
 gr 
 /xs 0 def 
(30000)
 /Times-Italic     77 stwn 
 gsave  1315 1619
 t   0 r  xs neg 0 t 0 0 m
 /Times-Italic findfont   77 sf 0    0 m 
(30000)
 show 
 gr 
 /xs 0 def 
(40000)
 /Times-Italic     77 stwn 
 gsave  1315 1751
 t   0 r  xs neg 0 t 0 0 m
 /Times-Italic findfont   77 sf 0    0 m 
(40000)
 show 
 gr 
 /xs 0 def 
(50000)
 /Times-Italic     77 stwn 
 gsave  1315 1883
 t   0 r  xs neg 0 t 0 0 m
 /Times-Italic findfont   77 sf 0    0 m 
(50000)
 show 
 gr 
 /xs 0 def 
(60000)
 /Times-Italic     77 stwn 
 gsave  1315 2015
 t   0 r  xs neg 0 t 0 0 m
 /Times-Italic findfont   77 sf 0    0 m 
(60000)
 show 
 gr  1361 1247 m 794 X s 1361 1281 m -34 Y s 1427 1264 m -17 Y s 1493 1264 m -17
 Y s 1559 1264 m -17 Y s 1625 1281 m -34 Y s 1692 1264 m -17 Y s 1758 1264 m -17
 Y s 1824 1264 m -17 Y s 1890 1281 m -34 Y s 1956 1264 m -17 Y s 2022 1264 m -17
 Y s 2088 1264 m -17 Y s 2155 1281 m -34 Y s 2155 1281 m -34 Y s
 /xs 0 def 
(0.6)
 /Times-Italic     77 stwn 
 gsave  1361 1140
 t   0 r  xs 2 div neg 0 t 0 0 m
 /Times-Italic findfont   77 sf 0    0 m 
(0.6)
 show 
 gr 
 /xs 0 def 
(0.8)
 /Times-Italic     77 stwn 
 gsave  1625 1140
 t   0 r  xs 2 div neg 0 t 0 0 m
 /Times-Italic findfont   77 sf 0    0 m 
(0.8)
 show 
 gr 
 /xs 0 def 
(1)
 /Times-Italic     77 stwn 
 gsave  1890 1140
 t   0 r  xs 2 div neg 0 t 0 0 m
 /Times-Italic findfont   77 sf 0    0 m 
(1)
 show 
 gr 
 /xs 0 def 
(1.2)
 /Times-Italic     77 stwn 
 gsave  2155 1140
 t   0 r  xs 2 div neg 0 t 0 0 m
 /Times-Italic findfont   77 sf 0    0 m 
(1.2)
 show 
 gr  794 794 1361 1247 C 2268 2268 0 0 C black
 /xs 0 def 
(E/E)
 /Times-Italic     69 stwn 
(g)
 /Symbol     48 stwn 
 gsave  2155 1077
 t   0 r  xs neg 0 t 0 0 m
 /Times-Italic findfont   69 sf 0    0 m 
(E/E)
 show 
 currentpoint pop 0 t 
 /Symbol findfont   48 sf 0  -23 m 
(g)
 show 
 gr  794 794 1361 1247 C 2268 2268 0 0 C 794 794 1361 1247 C 2268 2268 0 0 C
 gsave  1427 1644
 t   0 r 0 0 m
 /Symbol findfont   68 sf 0    0 m 
(s)
 show 
 currentpoint pop 0 t 
 /Times-BoldItalic findfont   68 sf 0    0 m 
(E/E=1.70)
 show 
 currentpoint pop 0 t 
 /Special findfont   68 sf 0    0 m 
(Y)
 show 
 gr  794 794 1361 1247 C 2268 2268 0 0 C 794 794 1361 1247 C 2268 2268 0 0 C
 gsave  1427 1962
 t   0 r 0 0 m
 /Times-BoldItalic findfont   68 sf 0    0 m 
(Barrel)
 show 
 gr  794 794 1361 1247 C NC 3 lw 0 0 1 c 794 794 340 227 bl 794 794 340 227 C 5
 lw 1 0 0 c 340 227 m 2 Y 7 X -1 Y 13 X 1 Y 13 X 1 Y 7 X -2 Y 7 X 1 Y 13 X -1 Y
 6 X 1 Y 14 X 1 Y 6 X -1 Y 13 X 1 Y 14 X -1 Y 6 X 1 Y 7 X 1 Y 7 X -2 Y 6 X 2 Y 7
 X -2 Y 6 X 3 Y 7 X 1 Y 7 X -1 Y 6 X -1 Y 7 X 1 Y 13 X -1 Y 7 X 1 Y 13 X 1 Y 6 X
 -1 Y 7 X 2 Y 13 X 1 Y 7 X 1 Y 7 X -2 Y 6 X 2 Y 7 X 1 Y 6 X -1 Y 7 X 1 Y 20 X 4
 Y 13 X 3 Y 13 X 1 Y 14 X 2 Y 13 X 7 Y 6 X -1 Y 7 X 5 Y 7 X 2 Y 6 X 4 Y 7 X 1 Y
 6 X 3 Y 7 X 4 Y 7 X 7 Y 6 X 1 Y 7 X 11 Y 7 X 11 Y 6 X 7 Y 7 X 10 Y 6 X 12 Y 7 X
 23 Y 7 X 8 Y 6 X 29 Y 7 X 24 Y 6 X 42 Y 7 X 41 Y 7 X 51 Y 6 X 73 Y 7 X 77 Y 7 X
 90 Y 6 X 100 Y 7 X 52 Y 6 X -6 Y 7 X -99 Y 7 X -203 Y 6 X -180 Y 7 X -128 Y 6 X
 -62 Y 7 X -27 Y 7 X -6 Y 6 X -2 Y 7 X -1 Y 79 X s 1008 227 m 126 X s 0 0 1 c
 807 381 m 3 15 d 3 16 d 3 Y 3 18 d 3 18 d 1 6 d 3 20 d 2 21 d 1 9 d 3 23 d 3 25
 d 1 11 d 3 28 d 3 32 d 1 9 d 2 30 d 4 46 d 7 81 d 4 45 d 1 18 d 1 12 d 3 26 d 1
 11 d 2 8 d 1 7 d 2 Y 2 7 d 1 4 d 1 1 d 1 X 1 -1 d 1 -4 d 1 -5 d 1 -7 d 1 -8 d
 -9 Y 1 -12 d 1 -11 d 1 -13 d -7 Y 1 -15 d 1 -17 d 1 -19 d 1 -23 d 1 -27 d 1 -34
 d 1 -40 d 1 -33 d 1 -35 d 1 -36 d 1 -39 d 1 -38 d 1 -41 d 1 -23 d s NC 1 lw 340
 227 m 794 Y s 374 227 m -34 X s 357 250 m -17 X s 357 273 m -17 X s 357 296 m
 -17 X s 357 319 m -17 X s 374 342 m -34 X s 357 365 m -17 X s 357 388 m -17 X s
 357 411 m -17 X s 357 434 m -17 X s 374 457 m -34 X s 357 480 m -17 X s 357 503
 m -17 X s 357 526 m -17 X s 357 549 m -17 X s 374 572 m -34 X s 357 595 m -17 X
 s 357 618 m -17 X s 357 641 m -17 X s 357 664 m -17 X s 374 687 m -34 X s 357
 710 m -17 X s 357 733 m -17 X s 357 757 m -17 X s 357 780 m -17 X s 374 803 m
 -34 X s 357 826 m -17 X s 357 849 m -17 X s 357 872 m -17 X s 357 895 m -17 X s
 374 918 m -34 X s 374 918 m -34 X s 357 941 m -17 X s 357 964 m -17 X s 357 987
 m -17 X s 357 1010 m -17 X s
 /xs 0 def 
(0)
 /Times-Italic     77 stwn 
 gsave  295 201
 t   0 r  xs neg 0 t 0 0 m
 /Times-Italic findfont   77 sf 0    0 m 
(0)
 show 
 gr 
 /xs 0 def 
(1000)
 /Times-Italic     77 stwn 
 gsave  295 316
 t   0 r  xs neg 0 t 0 0 m
 /Times-Italic findfont   77 sf 0    0 m 
(1000)
 show 
 gr 
 /xs 0 def 
(2000)
 /Times-Italic     77 stwn 
 gsave  295 432
 t   0 r  xs neg 0 t 0 0 m
 /Times-Italic findfont   77 sf 0    0 m 
(2000)
 show 
 gr 
 /xs 0 def 
(3000)
 /Times-Italic     77 stwn 
 gsave  295 547
 t   0 r  xs neg 0 t 0 0 m
 /Times-Italic findfont   77 sf 0    0 m 
(3000)
 show 
 gr 
 /xs 0 def 
(4000)
 /Times-Italic     77 stwn 
 gsave  295 662
 t   0 r  xs neg 0 t 0 0 m
 /Times-Italic findfont   77 sf 0    0 m 
(4000)
 show 
 gr 
 /xs 0 def 
(5000)
 /Times-Italic     77 stwn 
 gsave  295 777
 t   0 r  xs neg 0 t 0 0 m
 /Times-Italic findfont   77 sf 0    0 m 
(5000)
 show 
 gr 
 /xs 0 def 
(6000)
 /Times-Italic     77 stwn 
 gsave  295 892
 t   0 r  xs neg 0 t 0 0 m
 /Times-Italic findfont   77 sf 0    0 m 
(6000)
 show 
 gr  340 227 m 794 X s 340 261 m -34 Y s 406 244 m -17 Y s 473 244 m -17 Y s 539
 244 m -17 Y s 605 261 m -34 Y s 671 244 m -17 Y s 737 244 m -17 Y s 803 244 m
 -17 Y s 869 261 m -34 Y s 936 244 m -17 Y s 1002 244 m -17 Y s 1068 244 m -17 Y
 s 1134 261 m -34 Y s 1134 261 m -34 Y s
 /xs 0 def 
(0.6)
 /Times-Italic     77 stwn 
 gsave  340 119
 t   0 r  xs 2 div neg 0 t 0 0 m
 /Times-Italic findfont   77 sf 0    0 m 
(0.6)
 show 
 gr 
 /xs 0 def 
(0.8)
 /Times-Italic     77 stwn 
 gsave  605 119
 t   0 r  xs 2 div neg 0 t 0 0 m
 /Times-Italic findfont   77 sf 0    0 m 
(0.8)
 show 
 gr 
 /xs 0 def 
(1)
 /Times-Italic     77 stwn 
 gsave  869 119
 t   0 r  xs 2 div neg 0 t 0 0 m
 /Times-Italic findfont   77 sf 0    0 m 
(1)
 show 
 gr 
 /xs 0 def 
(1.2)
 /Times-Italic     77 stwn 
 gsave  1134 119
 t   0 r  xs 2 div neg 0 t 0 0 m
 /Times-Italic findfont   77 sf 0    0 m 
(1.2)
 show 
 gr  794 794 340 227 C 2268 2268 0 0 C black
 /xs 0 def 
(E/E)
 /Times-Italic     69 stwn 
(g)
 /Symbol     48 stwn 
 gsave  1134 57
 t   0 r  xs neg 0 t 0 0 m
 /Times-Italic findfont   69 sf 0    0 m 
(E/E)
 show 
 currentpoint pop 0 t 
 /Symbol findfont   48 sf 0  -23 m 
(g)
 show 
 gr  794 794 340 227 C 2268 2268 0 0 C 794 794 340 227 C 2268 2268 0 0 C
 gsave  406 624
 t   0 r 0 0 m
 /Symbol findfont   68 sf 0    0 m 
(s)
 show 
 currentpoint pop 0 t 
 /Times-BoldItalic findfont   68 sf 0    0 m 
(E/E=1.74)
 show 
 currentpoint pop 0 t 
 /Special findfont   68 sf 0    0 m 
(Y)
 show 
 gr  794 794 340 227 C 2268 2268 0 0 C 794 794 340 227 C 2268 2268 0 0 C
 gsave  406 941
 t   0 r 0 0 m
 /Times-BoldItalic findfont   68 sf 0    0 m 
(Forward endcap)
 show 
 gr  794 794 340 227 C NC 3 lw 0 0 1 c 794 794 1361 227 bl 794 794 1361 227 C 5
 lw 1 0 0 c 1361 227 m 5 Y 6 X 2 Y 14 X -3 Y 6 X 3 Y 13 X 1 Y 7 X -1 Y 7 X -3 Y
 6 X 3 Y 7 X -1 Y 13 X 3 Y 13 X 3 Y 7 X -3 Y 7 X 2 Y 6 X -3 Y 7 X 2 Y 6 X -3 Y 7
 X 6 Y 20 X -4 Y 7 X 3 Y 6 X 3 Y 7 X -3 Y 6 X 1 Y 14 X 2 Y 6 X 4 Y 7 X 2 Y 6 X
 -4 Y 7 X 5 Y 7 X -2 Y 6 X 2 Y 7 X 1 Y 7 X -2 Y 6 X 3 Y 7 X 4 Y 6 X -4 Y 7 X 6 Y
 7 X -4 Y 6 X 6 Y 13 X 6 Y 7 X 2 Y 7 X -2 Y 6 X 6 Y 7 X 2 Y 7 X 9 Y 6 X -4 Y 7 X
 18 Y 6 X -8 Y 7 X 14 Y 7 X -4 Y 6 X 13 Y 7 X 2 Y 6 X 5 Y 7 X 26 Y 7 X -4 Y 6 X
 8 Y 7 X 26 Y 7 X 1 Y 6 X 22 Y 7 X 26 Y 6 X 14 Y 7 X 16 Y 7 X 35 Y 6 X 46 Y 7 X
 15 Y 6 X 27 Y 7 X 25 Y 7 X 64 Y 6 X 19 Y 7 X 71 Y 7 X 26 Y 6 X 68 Y 7 X 63 Y 6
 X 29 Y 7 X -19 Y 7 X -27 Y 6 X -127 Y 7 X -99 Y 6 X -138 Y 7 X -139 Y 7 X -76 Y
 6 X -46 Y 7 X -23 Y 7 X -10 Y 6 X -3 Y 7 X -7 Y 6 X 2 Y 7 X -1 Y 13 X -1 Y 7 X
 1 Y 6 X -1 Y 27 X s 2029 227 m 126 X s 0 0 1 c 1774 362 m 7 15 d 6 18 d 6 16 d
 1 3 d 6 18 d 1 4 d 5 19 d 1 6 d 5 20 d 2 7 d 5 21 d 2 9 d 4 23 d 2 10 d 5 26 d
 2 10 d 5 29 d 1 10 d 6 34 d 1 9 d 7 44 d 6 45 d 6 39 d 1 6 d 4 29 d 2 12 d 4 19
 d 2 11 d 1 4 d 3 11 d 2 6 d 1 4 d 1 1 d 2 2 d 1 1 d 2 X 1 -2 d 2 -5 d 2 -5 d 1
 -6 d 1 -8 d 1 -5 d 1 -11 d 2 -12 d 1 -13 d 1 -14 d 2 -17 d 1 -14 d 1 -19 d 1
 -25 d 2 -24 d 1 -29 d 1 -23 d 1 -24 d 2 -34 d 3 -71 d 2 -59 d 3 -61 d 1 -44 d s
 NC 1 lw 1361 227 m 794 Y s 1395 227 m -34 X s 1378 248 m -17 X s 1378 269 m -17
 X s 1378 290 m -17 X s 1395 312 m -34 X s 1378 333 m -17 X s 1378 354 m -17 X s
 1378 375 m -17 X s 1395 397 m -34 X s 1378 418 m -17 X s 1378 439 m -17 X s
 1378 460 m -17 X s 1395 481 m -34 X s 1378 503 m -17 X s 1378 524 m -17 X s
 1378 545 m -17 X s 1395 566 m -34 X s 1378 588 m -17 X s 1378 609 m -17 X s
 1378 630 m -17 X s 1395 651 m -34 X s 1378 673 m -17 X s 1378 694 m -17 X s
 1378 715 m -17 X s 1395 736 m -34 X s 1378 757 m -17 X s 1378 779 m -17 X s
 1378 800 m -17 X s 1395 821 m -34 X s 1378 842 m -17 X s 1378 864 m -17 X s
 1378 885 m -17 X s 1395 906 m -34 X s 1378 927 m -17 X s 1378 948 m -17 X s
 1378 970 m -17 X s 1395 991 m -34 X s 1395 991 m -34 X s 1378 1012 m -17 X s
 /xs 0 def 
(0)
 /Times-Italic     77 stwn 
 gsave  1315 201
 t   0 r  xs neg 0 t 0 0 m
 /Times-Italic findfont   77 sf 0    0 m 
(0)
 show 
 gr 
 /xs 0 def 
(200)
 /Times-Italic     77 stwn 
 gsave  1315 286
 t   0 r  xs neg 0 t 0 0 m
 /Times-Italic findfont   77 sf 0    0 m 
(200)
 show 
 gr 
 /xs 0 def 
(400)
 /Times-Italic     77 stwn 
 gsave  1315 371
 t   0 r  xs neg 0 t 0 0 m
 /Times-Italic findfont   77 sf 0    0 m 
(400)
 show 
 gr 
 /xs 0 def 
(600)
 /Times-Italic     77 stwn 
 gsave  1315 456
 t   0 r  xs neg 0 t 0 0 m
 /Times-Italic findfont   77 sf 0    0 m 
(600)
 show 
 gr 
 /xs 0 def 
(800)
 /Times-Italic     77 stwn 
 gsave  1315 541
 t   0 r  xs neg 0 t 0 0 m
 /Times-Italic findfont   77 sf 0    0 m 
(800)
 show 
 gr 
 /xs 0 def 
(1000)
 /Times-Italic     77 stwn 
 gsave  1315 626
 t   0 r  xs neg 0 t 0 0 m
 /Times-Italic findfont   77 sf 0    0 m 
(1000)
 show 
 gr 
 /xs 0 def 
(1200)
 /Times-Italic     77 stwn 
 gsave  1315 711
 t   0 r  xs neg 0 t 0 0 m
 /Times-Italic findfont   77 sf 0    0 m 
(1200)
 show 
 gr 
 /xs 0 def 
(1400)
 /Times-Italic     77 stwn 
 gsave  1315 796
 t   0 r  xs neg 0 t 0 0 m
 /Times-Italic findfont   77 sf 0    0 m 
(1400)
 show 
 gr 
 /xs 0 def 
(1600)
 /Times-Italic     77 stwn 
 gsave  1315 880
 t   0 r  xs neg 0 t 0 0 m
 /Times-Italic findfont   77 sf 0    0 m 
(1600)
 show 
 gr 
 /xs 0 def 
(1800)
 /Times-Italic     77 stwn 
 gsave  1315 965
 t   0 r  xs neg 0 t 0 0 m
 /Times-Italic findfont   77 sf 0    0 m 
(1800)
 show 
 gr  1361 227 m 794 X s 1361 261 m -34 Y s 1427 244 m -17 Y s 1493 244 m -17 Y s
 1559 244 m -17 Y s 1625 261 m -34 Y s 1692 244 m -17 Y s 1758 244 m -17 Y s
 1824 244 m -17 Y s 1890 261 m -34 Y s 1956 244 m -17 Y s 2022 244 m -17 Y s
 2088 244 m -17 Y s 2155 261 m -34 Y s 2155 261 m -34 Y s
 /xs 0 def 
(0.6)
 /Times-Italic     77 stwn 
 gsave  1361 119
 t   0 r  xs 2 div neg 0 t 0 0 m
 /Times-Italic findfont   77 sf 0    0 m 
(0.6)
 show 
 gr 
 /xs 0 def 
(0.8)
 /Times-Italic     77 stwn 
 gsave  1625 119
 t   0 r  xs 2 div neg 0 t 0 0 m
 /Times-Italic findfont   77 sf 0    0 m 
(0.8)
 show 
 gr 
 /xs 0 def 
(1)
 /Times-Italic     77 stwn 
 gsave  1890 119
 t   0 r  xs 2 div neg 0 t 0 0 m
 /Times-Italic findfont   77 sf 0    0 m 
(1)
 show 
 gr 
 /xs 0 def 
(1.2)
 /Times-Italic     77 stwn 
 gsave  2155 119
 t   0 r  xs 2 div neg 0 t 0 0 m
 /Times-Italic findfont   77 sf 0    0 m 
(1.2)
 show 
 gr  794 794 1361 227 C 2268 2268 0 0 C black
 /xs 0 def 
(E/E)
 /Times-Italic     69 stwn 
(g)
 /Symbol     48 stwn 
 gsave  2155 57
 t   0 r  xs neg 0 t 0 0 m
 /Times-Italic findfont   69 sf 0    0 m 
(E/E)
 show 
 currentpoint pop 0 t 
 /Symbol findfont   48 sf 0  -23 m 
(g)
 show 
 gr  794 794 1361 227 C 2268 2268 0 0 C 794 794 1361 227 C 2268 2268 0 0 C
 gsave  1427 624
 t   0 r 0 0 m
 /Symbol findfont   68 sf 0    0 m 
(s)
 show 
 currentpoint pop 0 t 
 /Times-BoldItalic findfont   68 sf 0    0 m 
(E/E=2.85)
 show 
 currentpoint pop 0 t 
 /Special findfont   68 sf 0    0 m 
(Y)
 show 
 gr  794 794 1361 227 C 2268 2268 0 0 C 794 794 1361 227 C 2268 2268 0 0 C
 gsave  1427 941
 t   0 r 0 0 m
 /Times-BoldItalic findfont   68 sf 0    0 m 
(Backward endcap)
 show 
 gr  794 794 1361 227 C
 gr  gr 
showpage
end
%%EOF
