%!PS-Adobe-2.0 EPSF-2.0
%%BoundingBox: 0 0 567 567
%%Title: pidistri.eps
%%Creator: HIGZ Version 1.20/11
%%CreationDate: 96/02/27   18.19
%%EndComments
80 dict begin
/s {stroke} def /l {lineto} def /m {moveto} def /t { translate} def
/sw {stringwidth} def /r {rotate} def /rl {roll} def
/d {rlineto} def /rm {rmoveto} def /gr {grestore} def /f {eofill} def
/c {setrgbcolor} def /lw {setlinewidth} def /sd {setdash} def
/cl {closepath} def /sf {scalefont setfont} def
/box {m dup 0 exch d exch 0 d 0 exch neg d cl} def
/bl {box s} def /bf {box f} def
/mp {newpath /y exch def /x exch def} def
/side {[w .77 mul w .23 mul] .385 w mul sd w 0 l currentpoint t -144 r} def
/mr {mp x y w2 0 360 arc} def /m24 {mr s} def /m20 {mr f} def
/mb {mp x y w2 add m w2 neg 0 d 0 w neg d w 0 d 0 w d cl} def
/mt {mp x y w2 add m w2 neg w neg d w 0 d cl} def
/m21 {mb f} def /m25 {mb s} def /m22 {mt f} def /m26 {mt s} def
/m23 {mp x y w2 sub m w2 w d w neg 0 d cl f} def
 /m27 {mp x y w2 add m w3 neg w2 neg d w3 w2 neg d w3 w2 d cl s} def
 /m28 {mp x w2 sub y w2 sub w3 add m w3 0 d 0 w3 neg d w3 0 d 0 w3 d w3 0 d
 0 w3 d w3 neg 0 d 0 w3 d w3 neg 0 d 0 w3 neg d w3 neg 0 d cl s } def
 /m29 {mp gsave x w2 sub y w2 add w3 sub m currentpoint t
 4 {side} repeat cl fill gr} def
 /m30 {mp gsave x w2 sub y w2 add w3 sub m currentpoint t
 5 {side} repeat s gr} def /m31 {mp x y w2 sub m 0 w d x w2 sub y m w 0 d
 x w2 sub y w2 add m w w neg d x w2 sub y w2
 sub m w w d s} def
/m2 {mp x y w2 sub m 0 w d x w2 sub y m w 0 d s} def
/m5 {mp x w2 sub y w2 sub m w w d x w2 sub y w2 add m w w neg d s} def
/reencdict 24 dict def /ReEncode {reencdict begin /nco&na exch def
/nfnam exch def /basefontname exch def /basefontdict basefontname findfont def
/newfont basefontdict maxlength dict def basefontdict {exch dup /FID ne
{dup /Encoding eq {exch dup length array copy newfont 3 1 roll put} {exch
newfont 3 1 roll put} ifelse} {pop pop} ifelse } forall newfont
/FontName nfnam put nco&na aload pop nco&na length 2 idiv {newfont
/Encoding get 3 1 roll put} repeat nfnam newfont definefont pop end } def
/accvec [ 176 /agrave 181 /Agrave 190 /acircumflex 192 /Acircumflex
201 /adieresis 204 /Adieresis 209 /ccedilla 210 /Ccedilla 211 /eacute
212 /Eacute 213 /egrave 214 /Egrave 215 /ecircumflex 216 /Ecircumflex
217 /edieresis 218 /Edieresis 219 /icircumflex 220 /Icircumflex
221 /idieresis 222 /Idieresis 223 /ntilde 224 /Ntilde 226 /ocircumflex
228 /Ocircumflex 229 /odieresis 230 /Odieresis 231 /ucircumflex 236 /Ucircumflex
237 /udieresis 238 /Udieresis 239 /aring 242 /Aring 243 /ydieresis
244 /Ydieresis 246 /aacute 247 /Aacute 252 /ugrave 253 /Ugrave] def
/Times-Roman /Times-Roman accvec ReEncode
/Times-Italic /Times-Italic accvec ReEncode
/Times-Bold /Times-Bold accvec ReEncode
/Times-BoldItalic /Times-BoldItalic accvec ReEncode
/Helvetica /Helvetica accvec ReEncode
/Helvetica-Oblique /Helvetica-Oblique accvec ReEncode
/Helvetica-Bold /Helvetica-Bold accvec ReEncode
/Helvetica-BoldOblique /Helvetica-BoldOblique  accvec ReEncode
/Courier /Courier accvec ReEncode
/Courier-Oblique /Courier-Oblique accvec ReEncode
/Courier-Bold /Courier-Bold accvec ReEncode
/Courier-BoldOblique /Courier-BoldOblique accvec ReEncode
/oshow {gsave [] 0 sd true charpath stroke gr} def
/stwn { /fs exch def /fn exch def /text exch def fn findfont fs sf
 text sw pop xs add /xs exch def} def
/stwb { /fs exch def /fn exch def /nbas exch def /textf exch def
textf length /tlen exch def nbas tlen gt {/nbas tlen def} if
fn findfont fs sf textf dup length nbas sub nbas getinterval sw
pop neg xs add /xs exch def} def
/accspe [ 65 /plusminus 66 /bar 67 /existential 68 /universal
69 /exclam 70 /numbersign 71 /greater 72 /question 73 /integral
74 /colon 75 /semicolon 76 /less 77 /bracketleft 78 /bracketright
79 /greaterequal 80 /braceleft 81 /braceright 82 /radical
83 /spade 84 /heart 85 /diamond 86 /club 87 /lessequal
88 /multiply 89 /percent 90 /infinity 48 /circlemultiply 49 /circleplus
50 /emptyset 51 /lozenge 52 /bullet 53 /arrowright 54 /arrowup
55 /arrowleft 56 /arrowdown 57 /arrowboth 48 /degree 44 /comma 43 /plus
 45 /angle 42 /angleleft 47 /divide 61 /notequal 40 /equivalence 41 /second
 97 /approxequal 98 /congruent 99 /perpendicular 100 /partialdiff 101 /florin
 102 /intersection 103 /union 104 /propersuperset 105 /reflexsuperset
 106 /notsubset 107 /propersubset 108 /reflexsubset 109 /element 110 /notelement
 111 /gradient 112 /logicaland 113 /logicalor 114 /arrowdblboth
 115 /arrowdblleft 116 /arrowdblup 117 /arrowdblright 118 /arrowdbldown
 119 /ampersand 120 /omega1 121 /similar 122 /aleph ] def
/Symbol /Special accspe ReEncode
gsave .25 .25 scale
%%EndProlog
 gsave 0 0 t 0 setgray [] 0 sd 1 lw 2 lw 1814 1814 227 227 bl 227 379 m 227 863
 l 233 863 l 233 774 l 239 774 l 239 532 l 245 532 l 251 532 l 257 532 l 257 685
 l 263 685 l 263 808 l 269 808 l 269 621 l 275 621 l 275 808 l 281 808 l 281 734
 l 287 734 l 293 734 l 293 863 l 299 863 l 299 685 l 305 685 l 305 621 l 311 621
 l 311 685 l 317 685 l 317 863 l 323 863 l 323 837 l 329 837 l 329 734 l 335 734
 l 335 907 l 341 907 l 341 685 l 347 685 l 347 734 l 353 734 l 353 774 l 359 774
 l 365 774 l 365 886 l 371 886 l 371 734 l 377 734 l 377 907 l 384 907 l 384 863
 l 390 863 l 390 886 l 396 886 l 396 863 l 402 863 l 402 944 l 408 944 l 408 976
 l 414 976 l 414 1088 l 420 1088 l 420 990 l 426 990 l 426 907 l 432 907 l 432
 1016 l 438 1016 l 438 1088 l 444 1088 l 444 1186 l 450 1186 l 450 1202 l 456
 1202 l 456 1266 l 462 1266 l 462 1368 l 468 1368 l 468 1439 l 474 1439 l 474
 1519 l 480 1519 l 480 1622 l 486 1622 l 486 1739 l 492 1739 l 492 1792 l 498
 1792 l 498 1836 l 504 1836 l 504 1869 l 510 1869 l 510 1889 l 516 1889 l 516
 1878 l 522 1878 l 522 1858 l 528 1858 l 528 1870 l 534 1870 l 534 1824 l 540
 1824 l 540 1782 l 546 1782 l 546 1744 l 552 1744 l 552 1697 l 558 1697 l 558
 1666 l 564 1666 l 564 1605 l 570 1605 l 570 1560 l 576 1560 l 576 1491 l 582
 1491 l 582 1473 l 588 1473 l 588 1456 l 595 1456 l 595 1418 l 601 1418 l 601
 1393 l 607 1393 l 607 1339 l 613 1339 l 613 1350 l 619 1350 l 619 1324 l 625
 1324 l 625 1284 l 631 1284 l 631 1245 l 637 1245 l 637 1305 l 643 1305 l 643
 1292 l 649 1292 l 649 1298 l 655 1298 l 655 1266 l 661 1266 l 661 1308 l 667
 1308 l 667 1315 l 673 1315 l 673 1277 l 679 1277 l 679 1258 l 685 1258 l 685
 1277 l 691 1277 l 691 1312 l 697 1312 l 697 1277 l 703 1277 l 703 1321 l 709
 1321 l 709 1284 l 715 1284 l 715 1355 l 721 1355 l 721 1281 l 727 1281 l 727
 1352 l 733 1352 l 733 1341 l 739 1341 l 739 1315 l 745 1315 l 745 1330 l 751
 1330 l 751 1305 l 757 1305 l 757 1258 l 763 1258 l 763 1288 l 769 1288 l 769
 1284 l 775 1284 l 775 1308 l 781 1308 l 781 1355 l 787 1355 l 787 1393 l 793
 1393 l 793 1355 l 799 1355 l 799 1350 l 805 1350 l 805 1336 l 812 1336 l 812
 1368 l 818 1368 l 818 1360 l 824 1360 l 824 1380 l 830 1380 l 830 1393 l 836
 1393 l s 836 1393 m 836 1377 l 842 1377 l 842 1375 l 848 1375 l 848 1363 l 854
 1363 l 860 1363 l 860 1350 l 866 1350 l 866 1370 l 872 1370 l 872 1380 l 878
 1380 l 878 1341 l 884 1341 l 884 1380 l 890 1380 l 890 1375 l 896 1375 l 896
 1368 l 902 1368 l 902 1360 l 908 1360 l 908 1347 l 914 1347 l 914 1382 l 920
 1382 l 920 1387 l 926 1387 l 926 1375 l 932 1375 l 932 1408 l 938 1408 l 938
 1375 l 944 1375 l 944 1384 l 950 1384 l 950 1355 l 956 1355 l 956 1368 l 962
 1368 l 962 1398 l 968 1398 l 968 1384 l 974 1384 l 974 1375 l 980 1375 l 980
 1395 l 986 1395 l 986 1377 l 992 1377 l 992 1357 l 998 1357 l 998 1428 l 1004
 1428 l 1004 1352 l 1010 1352 l 1010 1368 l 1016 1368 l 1016 1357 l 1022 1357 l
 1022 1370 l 1029 1370 l 1029 1387 l 1035 1387 l 1035 1372 l 1041 1372 l 1041
 1327 l 1047 1327 l 1047 1398 l 1053 1398 l 1053 1357 l 1059 1357 l 1059 1347 l
 1065 1347 l 1065 1336 l 1071 1336 l 1071 1321 l 1077 1321 l 1077 1308 l 1083
 1308 l 1083 1324 l 1089 1324 l 1089 1393 l 1095 1393 l 1095 1372 l 1101 1372 l
 1101 1355 l 1107 1355 l 1107 1336 l 1113 1336 l 1113 1315 l 1119 1315 l 1119
 1350 l 1125 1350 l 1125 1308 l 1131 1308 l 1131 1315 l 1137 1315 l 1137 1321 l
 1143 1321 l 1143 1347 l 1149 1347 l 1149 1341 l 1155 1341 l 1155 1288 l 1161
 1288 l 1161 1292 l 1167 1292 l 1167 1321 l 1173 1321 l 1173 1269 l 1179 1269 l
 1179 1318 l 1185 1318 l 1185 1312 l 1191 1312 l 1191 1298 l 1197 1298 l 1197
 1339 l 1203 1339 l 1203 1277 l 1209 1277 l 1209 1302 l 1215 1302 l 1215 1281 l
 1221 1281 l 1221 1253 l 1227 1253 l 1227 1288 l 1233 1288 l 1233 1284 l 1239
 1284 l 1239 1245 l 1246 1245 l 1246 1273 l 1252 1273 l 1252 1266 l 1258 1266 l
 1258 1249 l 1264 1249 l 1264 1227 l 1270 1227 l 1270 1266 l 1276 1266 l 1282
 1266 l 1282 1202 l 1288 1202 l 1288 1245 l 1294 1245 l 1294 1217 l 1300 1217 l
 1300 1212 l 1306 1212 l 1306 1249 l 1312 1249 l 1312 1266 l 1318 1266 l 1318
 1222 l 1324 1222 l 1324 1186 l 1330 1186 l 1330 1162 l 1336 1162 l 1336 1149 l
 1342 1149 l 1342 1186 l 1348 1186 l 1348 1197 l 1354 1197 l 1354 1142 l 1360
 1142 l 1360 1162 l 1366 1162 l 1366 1202 l 1372 1202 l 1372 1121 l 1378 1121 l
 1378 1128 l 1384 1128 l 1384 1212 l 1390 1212 l 1390 1070 l 1396 1070 l 1396
 1186 l 1402 1186 l 1402 1113 l 1408 1113 l 1408 1121 l 1414 1121 l 1414 1174 l
 1420 1174 l 1420 1097 l 1426 1097 l 1426 1050 l 1432 1050 l 1432 1039 l 1438
 1039 l 1438 1039 l 1444 1039 l s 1444 1039 m 1444 1039 l 1450 1039 l 1450 1028
 l 1456 1028 l 1456 1039 l 1463 1039 l 1463 1060 l 1469 1060 l 1469 1070 l 1475
 1070 l 1475 1113 l 1481 1113 l 1481 1016 l 1487 1016 l 1487 1003 l 1493 1003 l
 1493 1028 l 1499 1028 l 1499 1060 l 1505 1060 l 1505 1003 l 1511 1003 l 1511
 1097 l 1517 1097 l 1517 1050 l 1523 1050 l 1523 926 l 1529 926 l 1529 1016 l
 1535 1016 l 1535 990 l 1541 990 l 1541 944 l 1547 944 l 1547 990 l 1553 990 l
 1553 944 l 1559 944 l 1559 976 l 1565 976 l 1565 734 l 1571 734 l 1571 976 l
 1577 976 l 1577 837 l 1583 837 l 1583 808 l 1589 808 l 1589 926 l 1595 926 l
 1595 960 l 1601 960 l 1601 886 l 1607 886 l 1607 734 l 1613 734 l 1613 926 l
 1619 926 l 1619 886 l 1625 886 l 1625 960 l 1631 960 l 1631 685 l 1637 685 l
 1637 774 l 1643 774 l 1643 808 l 1649 808 l 1649 837 l 1655 837 l 1661 837 l
 1661 808 l 1667 808 l 1673 808 l 1673 926 l 1680 926 l 1680 886 l 1686 886 l
 1686 734 l 1692 734 l 1692 837 l 1698 837 l 1698 532 l 1704 532 l 1704 837 l
 1710 837 l 1710 808 l 1716 808 l 1716 621 l 1722 621 l 1722 532 l 1728 532 l
 1728 685 l 1734 685 l 1734 621 l 1740 621 l 1740 379 l 1746 379 l 1746 532 l
 1752 532 l 1752 621 l 1758 621 l 1758 808 l 1764 808 l 1764 685 l 1770 685 l
 1776 685 l 1782 685 l 1782 621 l 1788 621 l 1788 685 l 1794 685 l 1794 227 l
 1800 227 l 1800 532 l 1806 532 l 1806 379 l 1812 379 l 1812 227 l 1818 227 l
 1818 621 l 1824 621 l 1824 532 l 1830 532 l 1830 685 l 1836 685 l 1836 621 l
 1842 621 l 1848 621 l 1848 532 l 1854 532 l 1854 379 l 1860 379 l 1860 227 l
 1866 227 l 1866 532 l 1872 532 l 1872 379 l 1878 379 l 1878 227 l 1884 227 l
 1891 227 l 1891 379 l 1897 379 l 1897 379 l 1903 379 l 1903 227 l 1909 227 l
 1909 379 l 1915 379 l 1921 379 l 1927 379 l 1927 227 l 1933 227 l 1939 227 l
 1939 532 l 1945 532 l 1945 621 l 1951 621 l 1951 227 l 1957 227 l 1957 379 l
 1963 379 l 1963 227 l 1969 227 l 1969 532 l 1975 532 l 1975 379 l 1981 379 l
 1987 379 l 1987 227 l 1993 227 l 1993 532 l 1999 532 l 1999 227 l 2005 227 l
 2011 227 l 2017 227 l 2017 621 l 2023 621 l 2023 379 l 2029 379 l 2029 227 l
 2035 227 l 2035 379 l 2041 379 l s 1 lw 227 227 m 227 2041 l s 244 227 m 227
 227 l s 244 267 m 227 267 l s 244 301 m 227 301 l s 244 330 m 227 330 l s 244
 356 m 227 356 l s 261 379 m 227 379 l s
 /xs 0 def 
(1)
 /Times-BoldItalic   48 stwn 
 gsave 181 364
 t   0 r  xs neg 0 t 0 0 m
 /Times-BoldItalic findfont   48 sf 0    0 m 
(1)
 show 
 gr
 244 532 m 227 532 l s 244 621 m 227 621 l s 244 685 m 227 685 l s 244 734 m 227
 734 l s 244 774 m 227 774 l s 244 808 m 227 808 l s 244 837 m 227 837 l s 244
 863 m 227 863 l s 261 886 m 227 886 l s
 /xs 0 def 
(10)
 /Times-BoldItalic   48 stwn 
 gsave 181 870
 t   0 r  xs neg 0 t 0 0 m
 /Times-BoldItalic findfont   48 sf 0    0 m 
(10)
 show 
 gr
 244 1039 m 227 1039 l s 244 1128 m 227 1128 l s 244 1191 m 227 1191 l s 244
 1241 m 227 1241 l s 244 1281 m 227 1281 l s 244 1315 m 227 1315 l s 244 1344 m
 227 1344 l s 244 1370 m 227 1370 l s 261 1393 m 227 1393 l s
 /xs 0 def 
(10)
 /Times-BoldItalic   48 stwn 
 gsave 181 1377
 t   0 r  xs neg 0 t 0 0 m
 /Times-BoldItalic findfont   48 sf 0    0 m 
(10)
 show 
 gr
 /xs 0 def 
(2)
 /Times-BoldItalic   38 stwn 
 gsave 213 1400
 t   0 r  xs neg 0 t 0 0 m
 /Times-BoldItalic findfont   38 sf 0    0 m 
(2)
 show 
 gr
 244 1546 m 227 1546 l s 244 1635 m 227 1635 l s 244 1698 m 227 1698 l s 244
 1748 m 227 1748 l s 244 1788 m 227 1788 l s 244 1822 m 227 1822 l s 244 1851 m
 227 1851 l s 244 1877 m 227 1877 l s 261 1900 m 227 1900 l s
 /xs 0 def 
(10)
 /Times-BoldItalic   48 stwn 
 gsave 181 1884
 t   0 r  xs neg 0 t 0 0 m
 /Times-BoldItalic findfont   48 sf 0    0 m 
(10)
 show 
 gr
 /xs 0 def 
(3)
 /Times-BoldItalic   38 stwn 
 gsave 213 1907
 t   0 r  xs neg 0 t 0 0 m
 /Times-BoldItalic findfont   38 sf 0    0 m 
(3)
 show 
 gr
 227 227 m 2041 227 l s 227 261 m 227 227 l s 302 244 m 302 227 l s 377 244 m
 377 227 l s 453 244 m 453 227 l s 528 261 m 528 227 l s 604 244 m 604 227 l s
 679 244 m 679 227 l s 754 244 m 754 227 l s 830 261 m 830 227 l s 905 244 m 905
 227 l s 980 244 m 980 227 l s 1056 244 m 1056 227 l s 1131 261 m 1131 227 l s
 1206 244 m 1206 227 l s 1282 244 m 1282 227 l s 1357 244 m 1357 227 l s 1432
 261 m 1432 227 l s 1508 244 m 1508 227 l s 1583 244 m 1583 227 l s 1658 244 m
 1658 227 l s 1734 261 m 1734 227 l s 1809 244 m 1809 227 l s 1884 244 m 1884
 227 l s 1960 244 m 1960 227 l s 2035 261 m 2035 227 l s 2035 261 m 2035 227 l s
 /xs 0 def 
(0)
 /Times-BoldItalic   48 stwn 
 gsave 227 172
 t   0 r  xs 2 div neg 0 t 0 0 m
 /Times-BoldItalic findfont   48 sf 0    0 m 
(0)
 show 
 gr
 /xs 0 def 
(200)
 /Times-BoldItalic   48 stwn 
 gsave 528 172
 t   0 r  xs 2 div neg 0 t 0 0 m
 /Times-BoldItalic findfont   48 sf 0    0 m 
(200)
 show 
 gr
 /xs 0 def 
(400)
 /Times-BoldItalic   48 stwn 
 gsave 830 172
 t   0 r  xs 2 div neg 0 t 0 0 m
 /Times-BoldItalic findfont   48 sf 0    0 m 
(400)
 show 
 gr
 /xs 0 def 
(600)
 /Times-BoldItalic   48 stwn 
 gsave 1131 172
 t   0 r  xs 2 div neg 0 t 0 0 m
 /Times-BoldItalic findfont   48 sf 0    0 m 
(600)
 show 
 gr
 /xs 0 def 
(800)
 /Times-BoldItalic   48 stwn 
 gsave 1432 172
 t   0 r  xs 2 div neg 0 t 0 0 m
 /Times-BoldItalic findfont   48 sf 0    0 m 
(800)
 show 
 gr
 /xs 0 def 
(1000)
 /Times-BoldItalic   48 stwn 
 gsave 1734 172
 t   0 r  xs 2 div neg 0 t 0 0 m
 /Times-BoldItalic findfont   48 sf 0    0 m 
(1000)
 show 
 gr
 /xs 0 def 
(1200)
 /Times-BoldItalic   48 stwn 
 gsave 2035 172
 t   0 r  xs 2 div neg 0 t 0 0 m
 /Times-BoldItalic findfont   48 sf 0    0 m 
(1200)
 show 
 gr
 /xs 0 def 
(Arbitrary unit)
 /Times-BoldItalic   60 stwn 
 gsave 2041 104
 t   0 r  xs neg 0 t 0 0 m
 /Times-BoldItalic findfont   60 sf 0    0 m 
(Arbitrary unit)
 show 
 gr
 /xs 0 def 
(Number of events)
 /Times-BoldItalic   60 stwn 
 gsave 68 2041
 t  90 r  xs neg 0 t 0 0 m
 /Times-BoldItalic findfont   60 sf 0    0 m 
(Number of events)
 show 
 gr
 [12 12] 0 sd 2 lw 227 379 m 227 965 l 233 965 l 233 925 l 239 925 l 239 1054 l
 245 1054 l 245 1028 l 251 1028 l 251 1054 l 257 1054 l 257 723 l 263 723 l 263
 1028 l 269 1028 l 269 812 l 275 812 l 275 1028 l 281 1028 l 281 925 l 287 925 l
 293 925 l 293 965 l 299 965 l 299 812 l 305 812 l 311 812 l 311 1054 l 317 1054
 l 317 812 l 323 812 l 323 965 l 329 965 l 329 999 l 335 999 l 341 999 l 347 999
 l 347 723 l 353 723 l 353 1054 l 359 1054 l 359 965 l 365 965 l 365 875 l 371
 875 l 371 925 l 377 925 l 377 227 l 384 227 m 384 925 l 384 925 m 390 925 l 390
 999 l 396 999 l 396 1028 l 402 1028 l 402 1054 l 408 1054 l 414 1054 l 414 925
 l 420 925 l 420 999 l 426 999 l 426 1117 l 432 1117 l 432 1135 l 438 1135 l 438
 1151 l 444 1151 l 444 1098 l 450 1098 l 450 1166 l 456 1166 l 456 1181 l 462
 1181 l 462 1304 l 468 1304 l 468 1312 l 474 1312 l 474 1479 l 480 1479 l 480
 1575 l 486 1575 l 486 1619 l 492 1619 l 492 1693 l 498 1693 l 498 1770 l 504
 1770 l 504 1823 l 510 1823 l 510 1848 l 516 1848 l 516 1855 l 522 1855 l 522
 1863 l 528 1863 l 528 1827 l 534 1827 l 534 1816 l 540 1816 l 540 1808 l 546
 1808 l 546 1777 l 552 1777 l 552 1734 l 558 1734 l 558 1657 l 564 1657 l 564
 1615 l 570 1615 l 570 1609 l 576 1609 l 576 1570 l 582 1570 l 582 1529 l 588
 1529 l 588 1456 l 595 1456 l 595 1393 l 601 1393 l 601 1388 l 607 1388 l 607
 1398 l 613 1398 l 613 1347 l 619 1347 l 619 1261 l 625 1261 l 625 1279 l 631
 1279 l 637 1279 l 637 1194 l 643 1194 l 643 1296 l 649 1296 l 649 1251 l 655
 1251 l 655 1207 l 661 1207 l 661 1279 l 667 1279 l 667 1270 l 673 1270 l 673
 1166 l 679 1166 l 679 1194 l 685 1194 l 685 1117 l 691 1117 l 691 1251 l 697
 1251 l 697 1261 l 703 1261 l 703 1181 l 709 1181 l 709 1166 l 715 1166 l 715
 1151 l 721 1151 l 721 1312 l 727 1312 l 727 1117 l 733 1117 l 733 1241 l 739
 1241 l 739 1230 l 745 1230 l 745 1194 l 751 1194 l 751 1241 l 757 1241 l 757
 1135 l 763 1135 l 763 1319 l 769 1319 l 769 1219 l 775 1219 l 775 1194 l 781
 1194 l 781 1270 l 787 1270 l 787 1181 l 793 1181 l 793 1270 l 799 1270 l 799
 1261 l 805 1261 l 805 1241 l 812 1241 l 812 1219 l 818 1219 l 818 1207 l 824
 1207 l 824 1288 l 830 1288 l 830 1261 l 836 1261 l s 836 1261 m 836 1371 l 842
 1371 l 842 1288 l 848 1288 l 848 1241 l 854 1241 l 854 1261 l 860 1261 l 860
 1304 l 866 1304 l 866 1312 l 872 1312 l 872 1279 l 878 1279 l 878 1261 l 884
 1261 l 884 1296 l 890 1296 l 890 1326 l 896 1326 l 896 1207 l 902 1207 l 902
 1219 l 908 1219 l 908 1098 l 914 1098 l 914 1304 l 920 1304 l 920 1377 l 926
 1377 l 926 1279 l 932 1279 l 932 1304 l 938 1304 l 938 1340 l 944 1340 l 944
 1288 l 950 1288 l 950 1365 l 956 1365 l 956 1304 l 962 1304 l 962 1319 l 968
 1319 l 968 1304 l 974 1304 l 974 1319 l 980 1319 l 980 1347 l 986 1347 l 986
 1270 l 992 1270 l 992 1365 l 998 1365 l 998 1333 l 1004 1333 l 1004 1326 l 1010
 1326 l 1010 1347 l 1016 1347 l 1016 1304 l 1022 1304 l 1022 1296 l 1029 1296 l
 1029 1326 l 1035 1326 l 1035 1270 l 1041 1270 l 1041 1347 l 1047 1347 l 1047
 1241 l 1053 1241 l 1053 1333 l 1059 1333 l 1059 1319 l 1065 1319 l 1065 1393 l
 1071 1393 l 1071 1288 l 1077 1288 l 1077 1365 l 1083 1365 l 1083 1241 l 1089
 1241 l 1089 1365 l 1095 1365 l 1095 1340 l 1101 1340 l 1101 1359 l 1107 1359 l
 1107 1377 l 1113 1377 l 1113 1333 l 1119 1333 l 1119 1365 l 1125 1365 l 1131
 1365 l 1131 1279 l 1137 1279 l 1137 1241 l 1143 1241 l 1143 1371 l 1149 1371 l
 1149 1312 l 1155 1312 l 1155 1408 l 1161 1408 l 1161 1382 l 1167 1382 l 1167
 1312 l 1173 1312 l 1173 1365 l 1179 1365 l 1185 1365 l 1185 1333 l 1191 1333 l
 1197 1333 l 1197 1347 l 1203 1347 l 1203 1353 l 1209 1353 l 1209 1326 l 1215
 1326 l 1215 1312 l 1221 1312 l 1221 1382 l 1227 1382 l 1227 1251 l 1233 1251 l
 1233 1312 l 1239 1312 l 1239 1241 l 1246 1241 l 1246 1347 l 1252 1347 l 1252
 1304 l 1258 1304 l 1258 1340 l 1264 1340 l 1264 1319 l 1270 1319 l 1270 1359 l
 1276 1359 l 1276 1326 l 1282 1326 l 1282 1403 l 1288 1403 l 1288 1270 l 1294
 1270 l 1294 1288 l 1300 1288 l 1300 1270 l 1306 1270 l 1306 1230 l 1312 1230 l
 1312 1296 l 1318 1296 l 1318 1219 l 1324 1219 l 1324 1304 l 1330 1304 l 1330
 1312 l 1336 1312 l 1336 1377 l 1342 1377 l 1342 1347 l 1348 1347 l 1348 1312 l
 1354 1312 l 1354 1270 l 1360 1270 l 1360 1230 l 1366 1230 l 1366 1270 l 1372
 1270 l 1378 1270 l 1378 1151 l 1384 1151 l 1384 1230 l 1390 1230 l 1390 1219 l
 1396 1219 l 1396 1230 l 1402 1230 l 1402 1319 l 1408 1319 l 1408 1288 l 1414
 1288 l 1414 1251 l 1420 1251 l 1420 1230 l 1426 1230 l 1426 1135 l 1432 1135 l
 1432 1241 l 1438 1241 l 1438 1194 l 1444 1194 l s 1444 1194 m 1444 1151 l 1450
 1151 l 1450 1219 l 1456 1219 l 1456 1194 l 1463 1194 l 1463 1241 l 1469 1241 l
 1469 1219 l 1475 1219 l 1475 1151 l 1481 1151 l 1487 1151 l 1487 1166 l 1493
 1166 l 1493 1279 l 1499 1279 l 1499 1207 l 1505 1207 l 1505 1219 l 1511 1219 l
 1511 1230 l 1517 1230 l 1517 999 l 1523 999 l 1523 1135 l 1529 1135 l 1529 1219
 l 1535 1219 l 1535 1181 l 1541 1181 l 1541 1207 l 1547 1207 l 1547 1077 l 1553
 1077 l 1553 1117 l 1559 1117 l 1559 1135 l 1565 1135 l 1571 1135 l 1571 1054 l
 1577 1054 l 1577 1135 l 1583 1135 l 1583 1166 l 1589 1166 l 1589 1181 l 1595
 1181 l 1595 1054 l 1601 1054 l 1601 1219 l 1607 1219 l 1607 723 l 1613 723 l
 1613 1098 l 1619 1098 l 1619 999 l 1625 999 l 1625 1166 l 1631 1166 l 1631 999
 l 1637 999 l 1637 965 l 1643 965 l 1649 965 l 1649 1098 l 1655 1098 l 1655 1028
 l 1661 1028 l 1661 875 l 1667 875 l 1673 875 l 1673 1098 l 1680 1098 l 1680 925
 l 1686 925 l 1686 1151 l 1692 1151 l 1692 999 l 1698 999 l 1698 1098 l 1704
 1098 l 1704 1166 l 1710 1166 l 1710 925 l 1716 925 l 1716 1117 l 1722 1117 l
 1722 965 l 1728 965 l 1728 925 l 1734 925 l 1734 965 l 1740 965 l 1746 965 l
 1746 723 l 1752 723 l 1752 999 l 1758 999 l 1758 723 l 1764 723 l 1764 875 l
 1770 875 l 1770 227 l 1776 227 m 1776 1117 l 1776 1117 m 1782 1117 l 1782 812 l
 1788 812 l 1788 965 l 1794 965 l 1794 1054 l 1800 1054 l 1800 965 l 1806 965 l
 1806 723 l 1812 723 l 1812 965 l 1818 965 l 1818 875 l 1824 875 l 1824 812 l
 1830 812 l 1830 999 l 1836 999 l 1836 925 l 1842 925 l 1842 875 l 1848 875 l
 1854 875 l 1854 925 l 1860 925 l 1866 925 l 1866 570 l 1872 570 l 1872 812 l
 1878 812 l 1878 925 l 1884 925 l 1884 812 l 1891 812 l 1891 723 l 1897 723 l
 1897 925 l 1903 925 l 1903 875 l 1909 875 l 1909 925 l 1915 925 l 1915 570 l
 1921 570 l 1921 723 l 1927 723 l 1927 875 l 1933 875 l 1939 875 l 1939 723 l
 1945 723 l 1945 812 l 1951 812 l 1951 723 l 1957 723 l 1957 227 l 1963 227 m
 1963 965 l 1963 965 m 1969 965 l 1969 875 l 1975 875 l 1975 812 l 1981 812 l
 1981 723 l 1987 723 l 1987 570 l 1993 570 l 1993 723 l 1999 723 l 2005 723 l
 2011 723 l 2017 723 l 2017 570 l 2023 570 l 2023 227 l 2029 227 m 2029 570 l
 2029 570 m 2035 570 l 2041 570 l 2041 227 l s s s s s s s s s s [4 8] 0 sd 227
 379 m 227 227 l 257 227 m 257 532 l 257 532 m 263 532 l 263 227 l 281 227 m 281
 532 l 281 532 m 287 532 l 287 227 l 299 227 m 299 532 l 299 532 m 305 532 l 311
 532 l 311 379 l 317 379 l 317 227 l 335 227 m 335 379 l 335 379 m 341 379 l 347
 379 l 347 532 l 353 532 l 353 227 l 371 227 m 371 532 l 371 532 m 377 532 l 377
 227 l 390 227 m 390 532 l 390 532 m 396 532 l 396 227 l 402 227 m 402 379 l 402
 379 m 408 379 l 408 621 l 414 621 l 414 379 l 420 379 l 420 532 l 426 532 l 426
 227 l 432 227 m 432 532 l 432 532 m 438 532 l 438 227 l 462 227 m 462 379 l 462
 379 m 468 379 l 468 227 l 486 227 m 486 379 l 486 379 m 492 379 l 492 227 l 498
 227 m 498 379 l 498 379 m 504 379 l 504 227 l 510 227 m 510 532 l 510 532 m 516
 532 l 516 379 l 522 379 l 528 379 l 528 532 l 534 532 l 540 532 l 546 532 l 552
 532 l 552 379 l 558 379 l 564 379 l 564 532 l 570 532 l 570 379 l 576 379 l 576
 532 l 582 532 l 588 532 l 588 227 l 595 227 m 595 379 l 595 379 m 601 379 l 601
 227 l 607 227 m 607 379 l 607 379 m 613 379 l 619 379 l 619 227 l 637 227 m 637
 379 l 637 379 m 643 379 l 649 379 l 655 379 l 655 227 l 661 227 m 661 379 l 661
 379 m 667 379 l 673 379 l 673 227 l 685 227 m 685 532 l 685 532 m 691 532 l 691
 379 l 697 379 l 697 227 l 703 227 m 703 379 l 703 379 m 709 379 l 709 227 l 715
 227 m 715 532 l 715 532 m 721 532 l 721 379 l 727 379 l 727 227 l 733 227 m 733
 379 l 733 379 m 739 379 l 739 532 l 745 532 l 745 379 l 751 379 l 751 621 l 757
 621 l 763 621 l 763 379 l 769 379 l 775 379 l 781 379 l 781 532 l 787 532 l 787
 227 l 793 227 m 793 379 l 793 379 m 799 379 l 799 532 l 805 532 l 805 379 l 812
 379 l 812 227 l 824 227 m 824 532 l 824 532 m 830 532 l 836 532 l s 836 532 m
 836 227 l 860 227 m 860 379 l 860 379 m 866 379 l 872 379 l 878 379 l 884 379 l
 884 227 l 902 227 m 902 379 l 902 379 m 908 379 l 908 621 l 914 621 l 914 379 l
 920 379 l 926 379 l 932 379 l 932 685 l 938 685 l 938 227 l 944 227 m 944 379 l
 944 379 m 950 379 l 950 227 l 974 227 m 974 379 l 974 379 m 980 379 l 980 227 l
 986 227 m 986 532 l 986 532 m 992 532 l 992 227 l 1029 227 m 1029 532 l 1029
 532 m 1035 532 l 1041 532 l 1041 227 l 1071 227 m 1071 379 l 1071 379 m 1077
 379 l 1077 227 l 1083 227 m 1083 379 l 1083 379 m 1089 379 l 1089 532 l 1095
 532 l 1095 227 l 1101 227 m 1101 532 l 1101 532 m 1107 532 l 1107 379 l 1113
 379 l 1119 379 l 1119 227 l 1125 227 m 1125 532 l 1125 532 m 1131 532 l 1131
 379 l 1137 379 l 1143 379 l 1143 227 l 1167 227 m 1167 685 l 1167 685 m 1173
 685 l 1173 379 l 1179 379 l 1185 379 l 1185 227 l 1191 227 m 1191 532 l 1191
 532 m 1197 532 l 1203 532 l 1209 532 l 1209 227 l 1215 227 m 1215 379 l 1215
 379 m 1221 379 l 1221 532 l 1227 532 l 1227 379 l 1233 379 l 1233 621 l 1239
 621 l 1239 379 l 1246 379 l 1252 379 l 1252 227 l 1258 227 m 1258 379 l 1258
 379 m 1264 379 l 1264 227 l 1276 227 m 1276 379 l 1276 379 m 1282 379 l 1288
 379 l 1294 379 l 1294 227 l 1300 227 m 1300 379 l 1300 379 m 1306 379 l 1306
 227 l 1312 227 m 1312 379 l 1312 379 m 1318 379 l 1318 532 l 1324 532 l 1324
 379 l 1330 379 l 1336 379 l 1336 532 l 1342 532 l 1342 379 l 1348 379 l 1348
 227 l 1354 227 m 1354 379 l 1354 379 m 1360 379 l 1366 379 l 1366 621 l 1372
 621 l 1378 621 l 1378 532 l 1384 532 l 1384 379 l 1390 379 l 1396 379 l 1396
 734 l 1402 734 l 1402 379 l 1408 379 l 1408 227 l 1426 227 m 1426 532 l 1426
 532 m 1432 532 l 1432 379 l 1438 379 l 1444 379 l s 1444 379 m 1444 379 l 1450
 379 l 1456 379 l 1456 532 l 1463 532 l 1463 379 l 1469 379 l 1469 621 l 1475
 621 l 1475 734 l 1481 734 l 1481 379 l 1487 379 l 1487 532 l 1493 532 l 1499
 532 l 1499 685 l 1505 685 l 1505 621 l 1511 621 l 1511 532 l 1517 532 l 1517
 621 l 1523 621 l 1523 379 l 1529 379 l 1535 379 l 1535 685 l 1541 685 l 1547
 685 l 1547 734 l 1553 734 l 1553 685 l 1559 685 l 1559 621 l 1565 621 l 1565
 532 l 1571 532 l 1571 621 l 1577 621 l 1577 379 l 1583 379 l 1589 379 l 1589
 685 l 1595 685 l 1595 379 l 1601 379 l 1601 532 l 1607 532 l 1607 774 l 1613
 774 l 1613 379 l 1619 379 l 1625 379 l 1625 621 l 1631 621 l 1631 532 l 1637
 532 l 1637 734 l 1643 734 l 1649 734 l 1655 734 l 1661 734 l 1661 774 l 1667
 774 l 1667 621 l 1673 621 l 1673 685 l 1680 685 l 1686 685 l 1692 685 l 1692
 734 l 1698 734 l 1698 808 l 1704 808 l 1704 685 l 1710 685 l 1710 621 l 1716
 621 l 1716 808 l 1722 808 l 1728 808 l 1728 621 l 1734 621 l 1734 907 l 1740
 907 l 1740 837 l 1746 837 l 1746 926 l 1752 926 l 1752 944 l 1758 944 l 1758
 1050 l 1764 1050 l 1770 1050 l 1770 1149 l 1776 1149 l 1776 1113 l 1782 1113 l
 1782 1097 l 1788 1097 l 1788 1186 l 1794 1186 l 1794 1168 l 1800 1168 l 1800
 1227 l 1806 1227 l 1806 1321 l 1812 1321 l 1812 1298 l 1818 1298 l 1818 1288 l
 1824 1288 l 1824 1365 l 1830 1365 l 1830 1437 l 1836 1437 l 1836 1453 l 1842
 1453 l 1842 1488 l 1848 1488 l 1848 1550 l 1854 1550 l 1854 1579 l 1860 1579 l
 1860 1604 l 1866 1604 l 1866 1637 l 1872 1637 l 1872 1671 l 1878 1671 l 1878
 1691 l 1884 1691 l 1884 1714 l 1891 1714 l 1891 1731 l 1897 1731 l 1897 1716 l
 1903 1716 l 1903 1715 l 1909 1715 l 1909 1694 l 1915 1694 l 1915 1664 l 1921
 1664 l 1921 1596 l 1927 1596 l 1927 1565 l 1933 1565 l 1933 1498 l 1939 1498 l
 1939 1372 l 1945 1372 l 1945 1281 l 1951 1281 l 1951 1191 l 1957 1191 l 1957
 1105 l 1963 1105 l 1963 1039 l 1969 1039 l 1969 926 l 1975 926 l 1975 863 l
 1981 863 l 1981 976 l 1987 976 l 1987 734 l 1993 734 l 1993 863 l 1999 863 l
 1999 886 l 2005 886 l 2005 774 l 2011 774 l 2011 621 l 2017 621 l 2017 532 l
 2023 532 l 2029 532 l 2029 774 l 2035 774 l 2041 774 l 2041 379 l s
 gsave 1406 896
 t   0 r 0 0 m
 /Symbol findfont   86 sf 0    0 m 
(p)
 show 
 currentpoint pop 0 t 
 /Times-BoldItalic findfont   60 sf 0   43 m 
(-)
 show 
 gr
 gsave 1588 1259
 t   0 r 0 0 m
 /Symbol findfont   86 sf 0    0 m 
(p)
 show 
 currentpoint pop 0 t 
 /Times-BoldItalic findfont   60 sf 0   43 m 
(+)
 show 
 gr
 gsave 1769 1440
 t   0 r 0 0 m
 /Times-BoldItalic findfont   86 sf 0    0 m 
(e)
 show 
 currentpoint pop 0 t 
 /Times-BoldItalic findfont   60 sf 0   43 m 
(-)
 show 
 gr
gr gr showpage
end
%%EOF
