%!PS-Adobe-2.0 EPSF-2.0
%%BoundingBox: 0 0 425 567
%%Title: epi.eps
%%Creator: HIGZ Version 1.20/11
%%CreationDate: 96/02/21   21.59
%%EndComments
80 dict begin
/s {stroke} def /l {lineto} def /m {moveto} def /t { translate} def
/sw {stringwidth} def /r {rotate} def /rl {roll} def
/d {rlineto} def /rm {rmoveto} def /gr {grestore} def /f {eofill} def
/c {setrgbcolor} def /lw {setlinewidth} def /sd {setdash} def
/cl {closepath} def /sf {scalefont setfont} def
/box {m dup 0 exch d exch 0 d 0 exch neg d cl} def
/bl {box s} def /bf {box f} def
/mp {newpath /y exch def /x exch def} def
/side {[w .77 mul w .23 mul] .385 w mul sd w 0 l currentpoint t -144 r} def
/mr {mp x y w2 0 360 arc} def /m24 {mr s} def /m20 {mr f} def
/mb {mp x y w2 add m w2 neg 0 d 0 w neg d w 0 d 0 w d cl} def
/mt {mp x y w2 add m w2 neg w neg d w 0 d cl} def
/m21 {mb f} def /m25 {mb s} def /m22 {mt f} def /m26 {mt s} def
/m23 {mp x y w2 sub m w2 w d w neg 0 d cl f} def
 /m27 {mp x y w2 add m w3 neg w2 neg d w3 w2 neg d w3 w2 d cl s} def
 /m28 {mp x w2 sub y w2 sub w3 add m w3 0 d 0 w3 neg d w3 0 d 0 w3 d w3 0 d
 0 w3 d w3 neg 0 d 0 w3 d w3 neg 0 d 0 w3 neg d w3 neg 0 d cl s } def
 /m29 {mp gsave x w2 sub y w2 add w3 sub m currentpoint t
 4 {side} repeat cl fill gr} def
 /m30 {mp gsave x w2 sub y w2 add w3 sub m currentpoint t
 5 {side} repeat s gr} def /m31 {mp x y w2 sub m 0 w d x w2 sub y m w 0 d
 x w2 sub y w2 add m w w neg d x w2 sub y w2
 sub m w w d s} def
/m2 {mp x y w2 sub m 0 w d x w2 sub y m w 0 d s} def
/m5 {mp x w2 sub y w2 sub m w w d x w2 sub y w2 add m w w neg d s} def
/reencdict 24 dict def /ReEncode {reencdict begin /nco&na exch def
/nfnam exch def /basefontname exch def /basefontdict basefontname findfont def
/newfont basefontdict maxlength dict def basefontdict {exch dup /FID ne
{dup /Encoding eq {exch dup length array copy newfont 3 1 roll put} {exch
newfont 3 1 roll put} ifelse} {pop pop} ifelse } forall newfont
/FontName nfnam put nco&na aload pop nco&na length 2 idiv {newfont
/Encoding get 3 1 roll put} repeat nfnam newfont definefont pop end } def
/accvec [ 176 /agrave 181 /Agrave 190 /acircumflex 192 /Acircumflex
201 /adieresis 204 /Adieresis 209 /ccedilla 210 /Ccedilla 211 /eacute
212 /Eacute 213 /egrave 214 /Egrave 215 /ecircumflex 216 /Ecircumflex
217 /edieresis 218 /Edieresis 219 /icircumflex 220 /Icircumflex
221 /idieresis 222 /Idieresis 223 /ntilde 224 /Ntilde 226 /ocircumflex
228 /Ocircumflex 229 /odieresis 230 /Odieresis 231 /ucircumflex 236 /Ucircumflex
237 /udieresis 238 /Udieresis 239 /aring 242 /Aring 243 /ydieresis
244 /Ydieresis 246 /aacute 247 /Aacute 252 /ugrave 253 /Ugrave] def
/Times-Roman /Times-Roman accvec ReEncode
/Times-Italic /Times-Italic accvec ReEncode
/Times-Bold /Times-Bold accvec ReEncode
/Times-BoldItalic /Times-BoldItalic accvec ReEncode
/Helvetica /Helvetica accvec ReEncode
/Helvetica-Oblique /Helvetica-Oblique accvec ReEncode
/Helvetica-Bold /Helvetica-Bold accvec ReEncode
/Helvetica-BoldOblique /Helvetica-BoldOblique  accvec ReEncode
/Courier /Courier accvec ReEncode
/Courier-Oblique /Courier-Oblique accvec ReEncode
/Courier-Bold /Courier-Bold accvec ReEncode
/Courier-BoldOblique /Courier-BoldOblique accvec ReEncode
/oshow {gsave [] 0 sd true charpath stroke gr} def
/stwn { /fs exch def /fn exch def /text exch def fn findfont fs sf
 text sw pop xs add /xs exch def} def
/stwb { /fs exch def /fn exch def /nbas exch def /textf exch def
textf length /tlen exch def nbas tlen gt {/nbas tlen def} if
fn findfont fs sf textf dup length nbas sub nbas getinterval sw
pop neg xs add /xs exch def} def
/accspe [ 65 /plusminus 66 /bar 67 /existential 68 /universal
69 /exclam 70 /numbersign 71 /greater 72 /question 73 /integral
74 /colon 75 /semicolon 76 /less 77 /bracketleft 78 /bracketright
79 /greaterequal 80 /braceleft 81 /braceright 82 /radical
83 /spade 84 /heart 85 /diamond 86 /club 87 /lessequal
88 /multiply 89 /percent 90 /infinity 48 /circlemultiply 49 /circleplus
50 /emptyset 51 /lozenge 52 /bullet 53 /arrowright 54 /arrowup
55 /arrowleft 56 /arrowdown 57 /arrowboth 48 /degree 44 /comma 43 /plus
 45 /angle 42 /angleleft 47 /divide 61 /notequal 40 /equivalence 41 /second
 97 /approxequal 98 /congruent 99 /perpendicular 100 /partialdiff 101 /florin
 102 /intersection 103 /union 104 /propersuperset 105 /reflexsuperset
 106 /notsubset 107 /propersubset 108 /reflexsubset 109 /element 110 /notelement
 111 /gradient 112 /logicaland 113 /logicalor 114 /arrowdblboth
 115 /arrowdblleft 116 /arrowdblup 117 /arrowdblright 118 /arrowdbldown
 119 /ampersand 120 /omega1 121 /similar 122 /aleph ] def
/Symbol /Special accspe ReEncode
gsave .25 .25 scale
%%EndProlog
 gsave 0 0 t 0 setgray [] 0 sd 1 lw 2 lw 1247 794 227 1247 bl 1 lw 227 1247 m
 227 2041 l s 261 1247 m 227 1247 l s 244 1270 m 227 1270 l s 244 1293 m 227
 1293 l s 244 1315 m 227 1315 l s 244 1338 m 227 1338 l s 261 1361 m 227 1361 l
 s 244 1383 m 227 1383 l s 244 1406 m 227 1406 l s 244 1429 m 227 1429 l s 244
 1452 m 227 1452 l s 261 1474 m 227 1474 l s 244 1497 m 227 1497 l s 244 1520 m
 227 1520 l s 244 1542 m 227 1542 l s 244 1565 m 227 1565 l s 261 1588 m 227
 1588 l s 244 1610 m 227 1610 l s 244 1633 m 227 1633 l s 244 1656 m 227 1656 l
 s 244 1678 m 227 1678 l s 261 1701 m 227 1701 l s 244 1724 m 227 1724 l s 244
 1746 m 227 1746 l s 244 1769 m 227 1769 l s 244 1792 m 227 1792 l s 261 1814 m
 227 1814 l s 244 1837 m 227 1837 l s 244 1860 m 227 1860 l s 244 1882 m 227
 1882 l s 244 1905 m 227 1905 l s 261 1928 m 227 1928 l s 244 1950 m 227 1950 l
 s 244 1973 m 227 1973 l s 244 1996 m 227 1996 l s 244 2019 m 227 2019 l s 261
 2041 m 227 2041 l s
 /xs 0 def 
(0)
 /Times-BoldItalic   48 stwn 
 gsave 181 1232
 t   0 r  xs neg 0 t 0 0 m
 /Times-BoldItalic findfont   48 sf 0    0 m 
(0)
 show 
 gr
 /xs 0 def 
(1)
 /Times-BoldItalic   48 stwn 
 gsave 181 1345
 t   0 r  xs neg 0 t 0 0 m
 /Times-BoldItalic findfont   48 sf 0    0 m 
(1)
 show 
 gr
 /xs 0 def 
(2)
 /Times-BoldItalic   48 stwn 
 gsave 181 1458
 t   0 r  xs neg 0 t 0 0 m
 /Times-BoldItalic findfont   48 sf 0    0 m 
(2)
 show 
 gr
 /xs 0 def 
(3)
 /Times-BoldItalic   48 stwn 
 gsave 181 1572
 t   0 r  xs neg 0 t 0 0 m
 /Times-BoldItalic findfont   48 sf 0    0 m 
(3)
 show 
 gr
 /xs 0 def 
(4)
 /Times-BoldItalic   48 stwn 
 gsave 181 1685
 t   0 r  xs neg 0 t 0 0 m
 /Times-BoldItalic findfont   48 sf 0    0 m 
(4)
 show 
 gr
 /xs 0 def 
(5)
 /Times-BoldItalic   48 stwn 
 gsave 181 1799
 t   0 r  xs neg 0 t 0 0 m
 /Times-BoldItalic findfont   48 sf 0    0 m 
(5)
 show 
 gr
 /xs 0 def 
(6)
 /Times-BoldItalic   48 stwn 
 gsave 181 1912
 t   0 r  xs neg 0 t 0 0 m
 /Times-BoldItalic findfont   48 sf 0    0 m 
(6)
 show 
 gr
 /xs 0 def 
(7)
 /Times-BoldItalic   48 stwn 
 gsave 181 2025
 t   0 r  xs neg 0 t 0 0 m
 /Times-BoldItalic findfont   48 sf 0    0 m 
(7)
 show 
 gr
 227 1247 m 1474 1247 l s 227 1281 m 227 1247 l s 258 1264 m 258 1247 l s 289
 1264 m 289 1247 l s 320 1264 m 320 1247 l s 352 1264 m 352 1247 l s 383 1281 m
 383 1247 l s 414 1264 m 414 1247 l s 445 1264 m 445 1247 l s 476 1264 m 476
 1247 l s 507 1264 m 507 1247 l s 539 1281 m 539 1247 l s 570 1264 m 570 1247 l
 s 601 1264 m 601 1247 l s 632 1264 m 632 1247 l s 663 1264 m 663 1247 l s 695
 1281 m 695 1247 l s 726 1264 m 726 1247 l s 757 1264 m 757 1247 l s 788 1264 m
 788 1247 l s 819 1264 m 819 1247 l s 851 1281 m 851 1247 l s 882 1264 m 882
 1247 l s 913 1264 m 913 1247 l s 944 1264 m 944 1247 l s 975 1264 m 975 1247 l
 s 1006 1281 m 1006 1247 l s 1038 1264 m 1038 1247 l s 1069 1264 m 1069 1247 l s
 1100 1264 m 1100 1247 l s 1131 1264 m 1131 1247 l s 1162 1281 m 1162 1247 l s
 1194 1264 m 1194 1247 l s 1225 1264 m 1225 1247 l s 1256 1264 m 1256 1247 l s
 1287 1264 m 1287 1247 l s 1318 1281 m 1318 1247 l s 1349 1264 m 1349 1247 l s
 1381 1264 m 1381 1247 l s 1412 1264 m 1412 1247 l s 1443 1264 m 1443 1247 l s
 1474 1281 m 1474 1247 l s
 /xs 0 def 
(0)
 /Times-BoldItalic   48 stwn 
 gsave 227 1193
 t   0 r  xs 2 div neg 0 t 0 0 m
 /Times-BoldItalic findfont   48 sf 0    0 m 
(0)
 show 
 gr
 /xs 0 def 
(0.5)
 /Times-BoldItalic   48 stwn 
 gsave 383 1193
 t   0 r  xs 2 div neg 0 t 0 0 m
 /Times-BoldItalic findfont   48 sf 0    0 m 
(0.5)
 show 
 gr
 /xs 0 def 
(1)
 /Times-BoldItalic   48 stwn 
 gsave 539 1193
 t   0 r  xs 2 div neg 0 t 0 0 m
 /Times-BoldItalic findfont   48 sf 0    0 m 
(1)
 show 
 gr
 /xs 0 def 
(1.5)
 /Times-BoldItalic   48 stwn 
 gsave 695 1193
 t   0 r  xs 2 div neg 0 t 0 0 m
 /Times-BoldItalic findfont   48 sf 0    0 m 
(1.5)
 show 
 gr
 /xs 0 def 
(2)
 /Times-BoldItalic   48 stwn 
 gsave 851 1193
 t   0 r  xs 2 div neg 0 t 0 0 m
 /Times-BoldItalic findfont   48 sf 0    0 m 
(2)
 show 
 gr
 /xs 0 def 
(2.5)
 /Times-BoldItalic   48 stwn 
 gsave 1006 1193
 t   0 r  xs 2 div neg 0 t 0 0 m
 /Times-BoldItalic findfont   48 sf 0    0 m 
(2.5)
 show 
 gr
 /xs 0 def 
(3)
 /Times-BoldItalic   48 stwn 
 gsave 1162 1193
 t   0 r  xs 2 div neg 0 t 0 0 m
 /Times-BoldItalic findfont   48 sf 0    0 m 
(3)
 show 
 gr
 /xs 0 def 
(3.5)
 /Times-BoldItalic   48 stwn 
 gsave 1318 1193
 t   0 r  xs 2 div neg 0 t 0 0 m
 /Times-BoldItalic findfont   48 sf 0    0 m 
(3.5)
 show 
 gr
 /xs 0 def 
(4)
 /Times-BoldItalic   48 stwn 
 gsave 1474 1193
 t   0 r  xs 2 div neg 0 t 0 0 m
 /Times-BoldItalic findfont   48 sf 0    0 m 
(4)
 show 
 gr
 /xs 0 def 
(Momentum \(GeV/c\))
 /Times-BoldItalic   60 stwn 
 gsave 1474 1125
 t   0 r  xs neg 0 t 0 0 m
 /Times-BoldItalic findfont   60 sf 0    0 m 
(Momentum \(GeV/c\))
 show 
 gr
 /xs 0 def 
(Miss-ID \(%\))
 /Times-BoldItalic   60 stwn 
 gsave 68 2041
 t  90 r  xs neg 0 t 0 0 m
 /Times-BoldItalic findfont   60 sf 0    0 m 
(Miss-ID \(%\))
 show 
 gr
 /w 41 def /w2 {w 2 div} def /w3 {w 3 div} def 383 1333 m25 461 1324 m25 539
 1304 m25 851 1285 m25 1162 1265 m25 383 1790 m21 461 1550 m21 539 1499 m21 851
 1315 m21 1162 1308 m21 /w 32 def /w2 {w 2 div} def /w3 {w 3 div} def 975 1803
 m25
 gsave 1039 1775
 t   0 r 0 0 m
 /Symbol findfont   83 sf 0    0 m 
(p)
 show 
 currentpoint pop 0 t 
 /Times-Bold findfont   58 sf 0   42 m 
(-)
 show 
 gr
 975 1724 m21
 gsave 1039 1695
 t   0 r 0 0 m
 /Symbol findfont   83 sf 0    0 m 
(p)
 show 
 currentpoint pop 0 t 
 /Times-Bold findfont   58 sf 0   42 m 
(+)
 show 
 gr
 gsave 1287 1882
 t   0 r 0 0 m
 /Times-Bold findfont  100 sf 0    0 m 
(\(a\))
 show 
 gr
 2 lw 1247 794 227 227 bl 1 lw 227 227 m 227 1021 l s 261 227 m 227 227 l s 244
 249 m 227 249 l s 244 272 m 227 272 l s 244 295 m 227 295 l s 244 318 m 227 318
 l s 261 340 m 227 340 l s 244 363 m 227 363 l s 244 386 m 227 386 l s 244 408 m
 227 408 l s 244 431 m 227 431 l s 261 454 m 227 454 l s 244 476 m 227 476 l s
 244 499 m 227 499 l s 244 522 m 227 522 l s 244 544 m 227 544 l s 261 567 m 227
 567 l s 244 590 m 227 590 l s 244 612 m 227 612 l s 244 635 m 227 635 l s 244
 658 m 227 658 l s 261 680 m 227 680 l s 244 703 m 227 703 l s 244 726 m 227 726
 l s 244 748 m 227 748 l s 244 771 m 227 771 l s 261 794 m 227 794 l s 244 816 m
 227 816 l s 244 839 m 227 839 l s 244 862 m 227 862 l s 244 885 m 227 885 l s
 261 907 m 227 907 l s 244 930 m 227 930 l s 244 953 m 227 953 l s 244 975 m 227
 975 l s 244 998 m 227 998 l s 261 1021 m 227 1021 l s
 /xs 0 def 
(0)
 /Times-BoldItalic   48 stwn 
 gsave 181 211
 t   0 r  xs neg 0 t 0 0 m
 /Times-BoldItalic findfont   48 sf 0    0 m 
(0)
 show 
 gr
 /xs 0 def 
(1)
 /Times-BoldItalic   48 stwn 
 gsave 181 324
 t   0 r  xs neg 0 t 0 0 m
 /Times-BoldItalic findfont   48 sf 0    0 m 
(1)
 show 
 gr
 /xs 0 def 
(2)
 /Times-BoldItalic   48 stwn 
 gsave 181 438
 t   0 r  xs neg 0 t 0 0 m
 /Times-BoldItalic findfont   48 sf 0    0 m 
(2)
 show 
 gr
 /xs 0 def 
(3)
 /Times-BoldItalic   48 stwn 
 gsave 181 551
 t   0 r  xs neg 0 t 0 0 m
 /Times-BoldItalic findfont   48 sf 0    0 m 
(3)
 show 
 gr
 /xs 0 def 
(4)
 /Times-BoldItalic   48 stwn 
 gsave 181 665
 t   0 r  xs neg 0 t 0 0 m
 /Times-BoldItalic findfont   48 sf 0    0 m 
(4)
 show 
 gr
 /xs 0 def 
(5)
 /Times-BoldItalic   48 stwn 
 gsave 181 778
 t   0 r  xs neg 0 t 0 0 m
 /Times-BoldItalic findfont   48 sf 0    0 m 
(5)
 show 
 gr
 /xs 0 def 
(6)
 /Times-BoldItalic   48 stwn 
 gsave 181 891
 t   0 r  xs neg 0 t 0 0 m
 /Times-BoldItalic findfont   48 sf 0    0 m 
(6)
 show 
 gr
 /xs 0 def 
(7)
 /Times-BoldItalic   48 stwn 
 gsave 181 1005
 t   0 r  xs neg 0 t 0 0 m
 /Times-BoldItalic findfont   48 sf 0    0 m 
(7)
 show 
 gr
 227 227 m 1474 227 l s 227 261 m 227 227 l s 258 244 m 258 227 l s 289 244 m
 289 227 l s 320 244 m 320 227 l s 352 244 m 352 227 l s 383 261 m 383 227 l s
 414 244 m 414 227 l s 445 244 m 445 227 l s 476 244 m 476 227 l s 507 244 m 507
 227 l s 539 261 m 539 227 l s 570 244 m 570 227 l s 601 244 m 601 227 l s 632
 244 m 632 227 l s 663 244 m 663 227 l s 695 261 m 695 227 l s 726 244 m 726 227
 l s 757 244 m 757 227 l s 788 244 m 788 227 l s 819 244 m 819 227 l s 851 261 m
 851 227 l s 882 244 m 882 227 l s 913 244 m 913 227 l s 944 244 m 944 227 l s
 975 244 m 975 227 l s 1006 261 m 1006 227 l s 1038 244 m 1038 227 l s 1069 244
 m 1069 227 l s 1100 244 m 1100 227 l s 1131 244 m 1131 227 l s 1162 261 m 1162
 227 l s 1194 244 m 1194 227 l s 1225 244 m 1225 227 l s 1256 244 m 1256 227 l s
 1287 244 m 1287 227 l s 1318 261 m 1318 227 l s 1349 244 m 1349 227 l s 1381
 244 m 1381 227 l s 1412 244 m 1412 227 l s 1443 244 m 1443 227 l s 1474 261 m
 1474 227 l s
 /xs 0 def 
(0)
 /Times-BoldItalic   48 stwn 
 gsave 227 172
 t   0 r  xs 2 div neg 0 t 0 0 m
 /Times-BoldItalic findfont   48 sf 0    0 m 
(0)
 show 
 gr
 /xs 0 def 
(0.5)
 /Times-BoldItalic   48 stwn 
 gsave 383 172
 t   0 r  xs 2 div neg 0 t 0 0 m
 /Times-BoldItalic findfont   48 sf 0    0 m 
(0.5)
 show 
 gr
 /xs 0 def 
(1)
 /Times-BoldItalic   48 stwn 
 gsave 539 172
 t   0 r  xs 2 div neg 0 t 0 0 m
 /Times-BoldItalic findfont   48 sf 0    0 m 
(1)
 show 
 gr
 /xs 0 def 
(1.5)
 /Times-BoldItalic   48 stwn 
 gsave 695 172
 t   0 r  xs 2 div neg 0 t 0 0 m
 /Times-BoldItalic findfont   48 sf 0    0 m 
(1.5)
 show 
 gr
 /xs 0 def 
(2)
 /Times-BoldItalic   48 stwn 
 gsave 851 172
 t   0 r  xs 2 div neg 0 t 0 0 m
 /Times-BoldItalic findfont   48 sf 0    0 m 
(2)
 show 
 gr
 /xs 0 def 
(2.5)
 /Times-BoldItalic   48 stwn 
 gsave 1006 172
 t   0 r  xs 2 div neg 0 t 0 0 m
 /Times-BoldItalic findfont   48 sf 0    0 m 
(2.5)
 show 
 gr
 /xs 0 def 
(3)
 /Times-BoldItalic   48 stwn 
 gsave 1162 172
 t   0 r  xs 2 div neg 0 t 0 0 m
 /Times-BoldItalic findfont   48 sf 0    0 m 
(3)
 show 
 gr
 /xs 0 def 
(3.5)
 /Times-BoldItalic   48 stwn 
 gsave 1318 172
 t   0 r  xs 2 div neg 0 t 0 0 m
 /Times-BoldItalic findfont   48 sf 0    0 m 
(3.5)
 show 
 gr
 /xs 0 def 
(4)
 /Times-BoldItalic   48 stwn 
 gsave 1474 172
 t   0 r  xs 2 div neg 0 t 0 0 m
 /Times-BoldItalic findfont   48 sf 0    0 m 
(4)
 show 
 gr
 /xs 0 def 
(Momentum \(GeV/c\))
 /Times-BoldItalic   60 stwn 
 gsave 1474 104
 t   0 r  xs neg 0 t 0 0 m
 /Times-BoldItalic findfont   60 sf 0    0 m 
(Momentum \(GeV/c\))
 show 
 gr
 /xs 0 def 
(Miss-ID \(%\))
 /Times-BoldItalic   60 stwn 
 gsave 68 1021
 t  90 r  xs neg 0 t 0 0 m
 /Times-BoldItalic findfont   60 sf 0    0 m 
(Miss-ID \(%\))
 show 
 gr
 /w 41 def /w2 {w 2 div} def /w3 {w 3 div} def 383 363 m25 461 377 m25 539 358
 m25 851 324 m25 1162 284 m25 383 920 m21 461 740 m21 539 760 m21 851 287 m21
 1162 255 m21 /w 32 def /w2 {w 2 div} def /w3 {w 3 div} def 975 782 m25
 gsave 1039 754
 t   0 r 0 0 m
 /Symbol findfont   83 sf 0    0 m 
(p)
 show 
 currentpoint pop 0 t 
 /Times-Bold findfont   58 sf 0   42 m 
(-)
 show 
 gr
 975 703 m21
 gsave 1039 675
 t   0 r 0 0 m
 /Symbol findfont   83 sf 0    0 m 
(p)
 show 
 currentpoint pop 0 t 
 /Times-Bold findfont   58 sf 0   42 m 
(+)
 show 
 gr
 gsave 1287 862
 t   0 r 0 0 m
 /Times-Bold findfont  100 sf 0    0 m 
(\(b\))
 show 
 gr
gr gr showpage
end
%%EOF
