%!PS-Adobe-2.0 EPSF-2.0
%%BoundingBox: 0 0 510 765
%%Title: nim_lin.eps
%%Creator: HIGZ Version 1.23/07
%%CreationDate: 99/06/14   14.34
%%EndComments
%%BeginProlog
80 dict begin
/s {stroke} def /l {lineto} def /m {moveto} def /t {translate} def
/sw {stringwidth} def /r {rotate} def /rl {roll}  def /R {repeat} def
/d {rlineto} def /rm {rmoveto} def /gr {grestore} def /f {eofill} def
/c {setrgbcolor} def /lw {setlinewidth} def /sd {setdash} def
/cl {closepath} def /sf {scalefont setfont} def /black {0 setgray} def
/box {m dup 0 exch d exch 0 d 0 exch neg d cl} def
/NC{systemdict begin initclip end}def/C{NC box clip newpath}def
/bl {box s} def /bf {box f} def /Y { 0 exch d} def /X { 0 d} def 
/mp {newpath /y exch def /x exch def} def
/side {[w .77 mul w .23 mul] .385 w mul sd w 0 l currentpoint t -144 r} def
/mr {mp x y w2 0 360 arc} def /m24 {mr s} def /m20 {mr f} def
/mb {mp x y w2 add m w2 neg 0 d 0 w neg d w 0 d 0 w d cl} def
/mt {mp x y w2 add m w2 neg w neg d w 0 d cl} def
/m21 {mb f} def /m25 {mb s} def /m22 {mt f} def /m26 {mt s} def
/m23 {mp x y w2 sub m w2 w d w neg 0 d cl f} def
/m27 {mp x y w2 add m w3 neg w2 neg d w3 w2 neg d w3  w2 d cl s} def
/m28 {mp x w2 sub y w2 sub w3 add m w3 0 d 0 w3 neg d w3 0 d 0 w3 d w3 0 d
 0 w3 d w3 neg 0 d 0 w3 d w3 neg 0 d
 0 w3 neg d w3 neg 0 d cl s } def
/m29 {mp gsave x w2 sub y w2 add w3 sub m currentpoint t
 4 {side} repeat cl fill gr} def
/m30 {mp gsave x w2 sub y w2 add w3 sub m currentpoint t
 5 {side} repeat s gr} def
/m31 {mp x y w2 sub m 0 w d x w2 sub y m w 0 d
 x w2 sub y w2 add m w w neg d x w2 sub y w2
 sub m w w d s} def
/m2 {mp x y w2 sub m 0 w d x w2 sub y m w 0 d s} def
/m5 {mp x w2 sub y w2 sub m w w d x w2 sub y w2 add m w w neg d s} def
/DP {/PT exch def gsave 47.2 47.2 scale PT 1  eq { 16 16 1 [ 16 0 0 16 neg 0 16
] { < AA AA 55 55 AA AA 55 55 AA AA 55 55 AA AA 55 55 AA AA 55 55 AA AA 55 55
AA AA 55 55 AA AA 55 55 > } image } if PT 2 eq { 16 16 1 [ 16 0 0 16 neg 0 16
] { < BB BB EE EE BB BB EE EE BB BB EE EE BB BB EE EE BB BB EE EE BB BB EE EE
BB BB EE EE BB BB EE EE > } image } if PT 3 eq { 16 16 1 [ 16 0 0 16 neg 0 16
] { < FF FF BB BB FF FF EE EE FF FF BB BB FF FF EE EE FF FF BB BB FF FF EE EE
FF FF BB BB FF FF EE EE > } image } if PT 4 eq { 16 16 1 [ 16 0 0 16 neg 0 16
] { < DF DF BF BF 7F 7F FE FE FD FD FB FB F7 F7 EF EF DF DF BF BF 7F 7F FE FE
FD FD FB FB F7 F7 EF EF > } image } if PT 5 eq { 16 16 1 [ 16 0 0 16 neg 0 16
] { < 7F 7F BF B F DF DF EF EF F7 F7 FB FB FD FD FE FE 7F 7F BF BF DF DF EF
EF F7 F7 FB FB FD FD FE FE > } image } if PT 6 eq { 16 16 1 [ 16 0 0 16 neg 0
16 ] { < BB BB BB BB BB BB BB BB BB BB BB BB BB BB BB BB BB BB BB BB BB BB BB
BB BB BB BB BB BB BB BB BB > } image } if PT 7 eq { 16 16 1 [ 16 0 0 16 neg 0
16 ] { < FF FF FF FF FF FF 00 00 FF FF FF FF FF FF 00 00 FF FF FF FF FF FF 00
00 FF FF FF FF FF FF 00 00 > } image } if PT 8 eq { 16 16 1 [ 16 0 0 16 neg 0
16 ] { < EE EE 47 47 83 83 C5 C5 EE EE 5C 5C 38 38 74 74 EE EE 47 47 83 83 C5
C5 EE EE 5C 5C 38 38 74 74 > } image } if PT 9 eq { 16 16 1 [ 16 0 0 16 neg 0
16 ] { < EF EF EF EF D7 D7 38 38 FE FE FE FE 7D 7D 83 83 EF EF EF EF D7 D7 38
38  FE FE FE FE 7D 7D 83 83 > } image } if PT 10 eq { 16 16 1 [ 16 0 0 16 neg
0 16 ] { <  EF EF EF EF EF EF 00 00 FE FE FE FE FE FE 00 00 EF EF EF EF EF EF
00 00 FE FE FE FE FE FE 00 00 > } image } if PT 11 eq { 16 16 1 [ 16 0 0 16
neg 0 16 ] { < F7 F7 B6 B6 D5 D5 E3 E3 D5 D5 B6 B6 F7 F7 FF FF 7F 7F 6B 6B 5D
5D 3E 3E 5D 5D 6B 6B 7F 7F FF FF > } image } if PT 12 eq { 16 16 1 [ 16 0 0
16 neg 0 16 ] { < E3 E3 DD DD BE BE BE BE BE BE DD DD E3 E3 FF FF 3E 3E DD DD
EB EB EB EB EB EB DD DD 3E 3E FF FF > } image } if PT 13 eq { 16 16 1 [ 16 0
0 16 neg 0 16 ] { <  FE FE 7D 7D BB BB D7 D7 EF EF D7 D7 BB BB 7D 7D FE FE 7D
7D BB BB D7 D7 EF EF D7 D7 BB BB 7D 7D > } image } if PT 14 eq { 16 16 1 [ 16
0 0 16 neg 0 16 ] { < 00 00 EE EF EE EF EE EF 0E E0 EE EE EE EE EE EE 00 EE
FE EE FE EE FE EE 00 00 FE EF FE EF FE EF > } image } if PT 15 eq { 16 16 1 [
16 0 0 16 neg 0 16 ] { < DD DD AA AA DD DD FF FF 77 77 AA AA 77 77 FF FF DD
DD AA AA DD DD FF FF 77 77 AA AA 77 77 FF FF > } image } if PT 16 eq { 16 16
1 [ 16 0 0 16 neg 0 16 ] { <  F1 F1 EE EE 1F 1F FF FF F1 F1 EE EE 1F 1F FF FF
F1 F1 EE EE 1F 1F FF FF F1 F1 EE EE 1F 1F FF FF > } image } if PT 17 eq { 16
16 1 [ 16 0 0 16 neg 0 16 ] { <  EE EE DD DD BB BB FF FF EE EE DD DD BB BB FF
 FF EE EE DD DD BB BB FF FF EE EE DD DD BB BB FF FF > } image } if PT 18 eq {
16 16 1 [ 16 0 0 16 neg 0 16 ] { <  BB BB DD DD EE EE FF FF BB BB DD DD EE EE
FF FF BB BB DD DD EE EE FF FF BB BB DD DD EE EE FF FF > } image } if PT 19 eq
{ 16 16 1 [ 16 0 0 16 neg 0 16 ] { < 1F FC 67 F3 7B EF BD DE BD DE DE BD E6
B3 F8 0F E6 B3 DE BD BD DE BD DE 7B EF 67 F3 1F FC 7F FF > } image } if PT
20 eq { 16 16 1 [ 16 0 0 16 neg 0 16 ] { < DD DD EE EE EE EE EE EE DD DD BB
BB BB BB BB BB DD DD EE EE EE EE EE EE DD DD BB BB BB BB BB BB > } image }
if PT 21 eq { 16 16 1 [ 16 0 0 16 neg 0 16 ] { < 0E 0E EF EF EF EF EF EF E0
E0 FE FE FE FE FE FE 0E 0E EF EF EF EF EF EF E0 E0 FE FE FE FE FE FE > }
image }  if PT 22 eq { 16 16 1 [ 16 0 0 16 neg 0 16 ] { < 70 70 F7 F7 F7 F7 F7
F7 07 07 7F 7F 7F 7F 7F 7F 70 70 F7 F7 F7 F7 F7 F7 07 07 7F 7F 7F 7F 7F 7F >
} image } if PT 23 eq  { 16 16 1 [ 16 0 0 16 neg 0 16 ] { < AA AA 55 55 A9 A9
D1 D1 E1 E1 D1 D1 A9 A9 55 55 AA AA 55 55 A9 A9 D1 D1 E1 E1 D1 D1 A9 A9 55 55
> } image } if PT 24 eq { 16 16 1 [ 16 0 0 16 neg 0 16 ] { < FF FE FF FC EA
A8 D5 54 EA A8 D5 54 E8 28 D4 54 E8 E8 D4 D4 E8 EA 54 D5 A8 EA 54 D5 00 C0 00
80 > } image } if PT 25 eq {  16 16 1 [ 16 0 0 16 neg 0 16 ] { < FF FE FF FC
FF F8 FF F0 F0 00 F0 00 F0 20 F0 60 F0 E0 F1 E0 F3 E0 F0 00 E0 00 C0 00 80 00
00 00 > } image } if gr } def /FA { /PT exch def gsave clip 0 0 translate 1 1
54 { 1 sub 47.2 mul /Xcurr exch def 1 1 74 { 1 sub 47.2 mul /Ycurr exch def
gsave Xcurr Ycurr translate PT DP gr } for } for gr } def
/reencdict 24 dict def /ReEncode {reencdict begin /nco&na exch def
/nfnam exch def /basefontname exch def /basefontdict basefontname findfont def
/newfont basefontdict maxlength dict def basefontdict {exch dup /FID ne
{dup /Encoding eq {exch dup length array copy newfont 3 1 roll put} {exch
newfont 3 1 roll put} ifelse} {pop pop} ifelse } forall newfont
/FontName nfnam put nco&na aload pop nco&na length 2 idiv {newfont
/Encoding get 3 1 roll put} repeat nfnam newfont definefont pop end } def
/accvec [ 176 /agrave 181 /Agrave 190 /acircumflex 192 /Acircumflex
201 /adieresis 204 /Adieresis 209 /ccedilla 210 /Ccedilla 211 /eacute
212 /Eacute 213 /egrave 214 /Egrave 215 /ecircumflex 216 /Ecircumflex
217 /edieresis 218 /Edieresis 219 /icircumflex 220 /Icircumflex
221 /idieresis 222 /Idieresis 223 /ntilde 224 /Ntilde 226 /ocircumflex
228 /Ocircumflex 229 /odieresis 230 /Odieresis 231 /ucircumflex 236 /Ucircumflex
237 /udieresis 238 /Udieresis 239 /aring 242 /Aring 243 /ydieresis
244 /Ydieresis 246 /aacute 247 /Aacute 252 /ugrave 253 /Ugrave] def
/Times-Roman /Times-Roman accvec ReEncode
/Times-Italic /Times-Italic accvec ReEncode
/Times-Bold /Times-Bold accvec ReEncode
/Times-BoldItalic /Times-BoldItalic accvec ReEncode
/Helvetica /Helvetica accvec ReEncode
/Helvetica-Oblique /Helvetica-Oblique accvec ReEncode
/Helvetica-Bold /Helvetica-Bold accvec ReEncode
/Helvetica-BoldOblique /Helvetica-BoldOblique  accvec ReEncode
/Courier /Courier accvec ReEncode
/Courier-Oblique /Courier-Oblique accvec ReEncode
/Courier-Bold /Courier-Bold accvec ReEncode
/Courier-BoldOblique /Courier-BoldOblique accvec ReEncode
/oshow {gsave [] 0 sd true charpath stroke gr} def
/stwn { /fs exch def /fn exch def /text exch def fn findfont fs sf
 text sw pop xs add /xs exch def} def
/stwb { /fs exch def /fn exch def /nbas exch def /textf exch def
textf length /tlen exch def nbas tlen gt {/nbas tlen def} if
fn findfont fs sf textf dup length nbas sub nbas getinterval sw
pop neg xs add /xs exch def} def
/accspe [ 65 /plusminus 66 /bar 67 /existential 68 /universal
69 /exclam 70 /numbersign 71 /greater 72 /question 73 /integral
74 /colon 75 /semicolon 76 /less 77 /bracketleft 78 /bracketright
79 /greaterequal 80 /braceleft 81 /braceright 82 /radical
83 /spade 84 /heart 85 /diamond 86 /club 87 /lessequal
88 /multiply 89 /percent 90 /infinity 48 /circlemultiply 49 /circleplus
50 /emptyset 51 /lozenge 52 /bullet 53 /arrowright 54 /arrowup
55 /arrowleft 56 /arrowdown 57 /arrowboth 48 /degree 44 /comma 43 /plus
 45 /angle 42 /angleleft 47 /divide 61 /notequal 40 /equivalence 41 /second
 97 /approxequal 98 /congruent 99 /perpendicular 100 /partialdiff 101 /florin
 102 /intersection 103 /union 104 /propersuperset 105 /reflexsuperset
 106 /notsubset 107 /propersubset 108 /reflexsubset 109 /element 110 /notelement
 111 /gradient 112 /logicaland 113 /logicalor 114 /arrowdblboth
 115 /arrowdblleft 116 /arrowdblup 117 /arrowdblright 118 /arrowdbldown
 119 /ampersand 120 /omega1 121 /similar 122 /aleph ] def
/Symbol /Special accspe ReEncode
%%EndProlog
 gsave  .25 .25 scale  gsave 0 0 t black [] 0 sd 1 lw 1507 1474 306 1473 bl 2040
 3060 0 0 C 1507 1474 306 1473 C NC 306 1473 m 1474 Y s 323 1633 m -17 X s
 [4 8] 0 sd 1813 1633 m -1507 X s [] 0 sd 323 1726 m -17 X s [4 8] 0 sd 1813
 1726 m -1507 X s [] 0 sd 323 1793 m -17 X s [4 8] 0 sd 1813 1793 m -1507 X s
 [] 0 sd 323 1844 m -17 X s [4 8] 0 sd 1813 1844 m -1507 X s [] 0 sd 323 1886 m
 -17 X s [4 8] 0 sd 1813 1886 m -1507 X s [] 0 sd 323 1922 m -17 X s [4 8] 0 sd
 1813 1922 m -1507 X s [] 0 sd 323 1952 m -17 X s [4 8] 0 sd 1813 1952 m -1507 X
 s [] 0 sd 323 1979 m -17 X s [4 8] 0 sd 1813 1979 m -1507 X s [] 0 sd 340 2004
 m -34 X s [4 8] 0 sd 1813 2004 m -1507 X s
 /xs 0 def 
(10)
 /Helvetica-Bold     62 stwn 
 gsave  215 1981
 t   0 r  xs neg 0 t 0 0 m
 /Helvetica-Bold findfont   62 sf 0    0 m 
(10)
 show 
 gr 
 /xs 0 def 
(2)
 /Helvetica-Bold     50 stwn 
 gsave  261 2014
 t   0 r  xs neg 0 t 0 0 m
 /Helvetica-Bold findfont   50 sf 0    0 m 
(2)
 show 
 gr  [] 0 sd 323 2163 m -17 X s [4 8] 0 sd 1813 2163 m -1507 X s [] 0 sd 323
 2257 m -17 X s [4 8] 0 sd 1813 2257 m -1507 X s [] 0 sd 323 2323 m -17 X s
 [4 8] 0 sd 1813 2323 m -1507 X s [] 0 sd 323 2374 m -17 X s [4 8] 0 sd 1813
 2374 m -1507 X s [] 0 sd 323 2416 m -17 X s [4 8] 0 sd 1813 2416 m -1507 X s
 [] 0 sd 323 2452 m -17 X s [4 8] 0 sd 1813 2452 m -1507 X s [] 0 sd 323 2483 m
 -17 X s [4 8] 0 sd 1813 2483 m -1507 X s [] 0 sd 323 2510 m -17 X s [4 8] 0 sd
 1813 2510 m -1507 X s [] 0 sd 340 2534 m -34 X s [4 8] 0 sd 1813 2534 m -1507 X
 s
 /xs 0 def 
(10)
 /Helvetica-Bold     62 stwn 
 gsave  215 2511
 t   0 r  xs neg 0 t 0 0 m
 /Helvetica-Bold findfont   62 sf 0    0 m 
(10)
 show 
 gr 
 /xs 0 def 
(3)
 /Helvetica-Bold     50 stwn 
 gsave  261 2544
 t   0 r  xs neg 0 t 0 0 m
 /Helvetica-Bold findfont   50 sf 0    0 m 
(3)
 show 
 gr  [] 0 sd 323 2694 m -17 X s [4 8] 0 sd 1813 2694 m -1507 X s [] 0 sd 323
 2787 m -17 X s [4 8] 0 sd 1813 2787 m -1507 X s [] 0 sd 323 2853 m -17 X s
 [4 8] 0 sd 1813 2853 m -1507 X s [] 0 sd 323 2905 m -17 X s [4 8] 0 sd 1813
 2905 m -1507 X s [] 0 sd 306 1473 m 1507 X s 469 1490 m -17 Y s [4 8] 0 sd 469
 2947 m -1474 Y s [] 0 sd 565 1490 m -17 Y s [4 8] 0 sd 565 2947 m -1474 Y s
 [] 0 sd 633 1490 m -17 Y s [4 8] 0 sd 633 2947 m -1474 Y s [] 0 sd 685 1490 m
 -17 Y s [4 8] 0 sd 685 2947 m -1474 Y s [] 0 sd 728 1490 m -17 Y s [4 8] 0 sd
 728 2947 m -1474 Y s [] 0 sd 765 1490 m -17 Y s [4 8] 0 sd 765 2947 m -1474 Y s
 [] 0 sd 796 1490 m -17 Y s [4 8] 0 sd 796 2947 m -1474 Y s [] 0 sd 824 1490 m
 -17 Y s [4 8] 0 sd 824 2947 m -1474 Y s [] 0 sd 849 1507 m -34 Y s [4 8] 0 sd
 849 2947 m -1474 Y s
 /xs 0 def 
(10)
 /Helvetica-Bold     62 stwn 
 gsave  849 1376
 t   0 r  xs 2 div neg 0 t 0 0 m
 /Helvetica-Bold findfont   62 sf 0    0 m 
(10)
 show 
 gr 
 /xs 0 def 
(2)
 /Helvetica-Bold     50 stwn 
 gsave  905 1421
 t   0 r  xs 2 div neg 0 t 0 0 m
 /Helvetica-Bold findfont   50 sf 0    0 m 
(2)
 show 
 gr  [] 0 sd 1012 1490 m -17 Y s [4 8] 0 sd 1012 2947 m -1474 Y s [] 0 sd 1107
 1490 m -17 Y s [4 8] 0 sd 1107 2947 m -1474 Y s [] 0 sd 1175 1490 m -17 Y s
 [4 8] 0 sd 1175 2947 m -1474 Y s [] 0 sd 1228 1490 m -17 Y s [4 8] 0 sd 1228
 2947 m -1474 Y s [] 0 sd 1271 1490 m -17 Y s [4 8] 0 sd 1271 2947 m -1474 Y s
 [] 0 sd 1307 1490 m -17 Y s [4 8] 0 sd 1307 2947 m -1474 Y s [] 0 sd 1339 1490
 m -17 Y s [4 8] 0 sd 1339 2947 m -1474 Y s [] 0 sd 1366 1490 m -17 Y s
 [4 8] 0 sd 1366 2947 m -1474 Y s [] 0 sd 1391 1507 m -34 Y s [4 8] 0 sd 1391
 2947 m -1474 Y s
 /xs 0 def 
(10)
 /Helvetica-Bold     62 stwn 
 gsave  1391 1376
 t   0 r  xs 2 div neg 0 t 0 0 m
 /Helvetica-Bold findfont   62 sf 0    0 m 
(10)
 show 
 gr 
 /xs 0 def 
(3)
 /Helvetica-Bold     50 stwn 
 gsave  1448 1421
 t   0 r  xs 2 div neg 0 t 0 0 m
 /Helvetica-Bold findfont   50 sf 0    0 m 
(3)
 show 
 gr  [] 0 sd 1554 1490 m -17 Y s [4 8] 0 sd 1554 2947 m -1474 Y s [] 0 sd 1650
 1490 m -17 Y s [4 8] 0 sd 1650 2947 m -1474 Y s [] 0 sd 1718 1490 m -17 Y s
 [4 8] 0 sd 1718 2947 m -1474 Y s [] 0 sd 1770 1490 m -17 Y s [4 8] 0 sd 1770
 2947 m -1474 Y s [] 0 sd 1813 1490 m -17 Y s [4 8] 0 sd 1813 2947 m -1474 Y s
 1507 1474 306 1473 C 2040 3060 0 0 C
 /xs 0 def 
(E)
 /Helvetica-Bold     62 stwn 
(TH)
 /Helvetica-Bold     43 stwn 
( \(MeV\))
 /Helvetica-Bold     62 stwn 
 gsave  1813 1247
 t   0 r  xs neg 0 t 0 0 m
 /Helvetica-Bold findfont   62 sf 0    0 m 
(E)
 show 
 currentpoint pop 0 t 
 /Helvetica-Bold findfont   43 sf 0  -21 m 
(TH)
 show 
 currentpoint pop 0 t 
 /Helvetica-Bold findfont   62 sf 0    0 m 
( \(MeV\))
 show 
 gr 
 /xs 0 def 
(E)
 /Helvetica-Bold     62 stwn 
(CsI)
 /Helvetica-Bold     43 stwn 
( \(MeV\))
 /Helvetica-Bold     62 stwn 
 gsave  79 2947
 t  90 r  xs neg 0 t 0 0 m
 /Helvetica-Bold findfont   62 sf 0    0 m 
(E)
 show 
 currentpoint pop 0 t 
 /Helvetica-Bold findfont   43 sf 0  -21 m 
(CsI)
 show 
 currentpoint pop 0 t 
 /Helvetica-Bold findfont   62 sf 0    0 m 
( \(MeV\))
 show 
 gr  1507 1474 306 1473 C [] 0 sd /w 34 def /w2 {w 2 div} def /w3 {w 3 div} def
 560 1710 m20 684 1834 m20 786 1936 m20 871 2016 m20 1101 2248 m20 1232 2372 m20
 1362 2499 m20 1372 2506 m21 1435 2568 m21 1488 2620 m21 1531 2661 m21 1652 2779
 m21 1719 2842 m21 1789 2911 m21 2040 3060 0 0 C 1507 1474 306 1473 C 2040 3060
 0 0 C /w 32 def /w2 {w 2 div} def /w3 {w 3 div} def 469 2809 m20 1507 1474 306
 1473 C 2040 3060 0 0 C 1507 1474 306 1473 C 2040 3060 0 0 C
 gsave  565 2787
 t   0 r 0 0 m
 /Helvetica-Bold findfont   62 sf 0    0 m 
(Compton)
 show 
 gr  1507 1474 306 1473 C 2040 3060 0 0 C 1507 1474 306 1473 C 2040 3060 0 0 C
 469 2716 m21 1507 1474 306 1473 C 2040 3060 0 0 C 1507 1474 306 1473 C 2040
 3060 0 0 C
 gsave  565 2694
 t   0 r 0 0 m
 /Helvetica-Bold findfont   62 sf 0    0 m 
(Bremsstrahlung)
 show 
 gr  1507 1474 306 1473 C 2040 3060 0 0 C 1507 1474 306 1473 C 2040 3060 0 0 C
 gsave  349 2853
 t   0 r 0 0 m
 /Helvetica-Bold findfont   62 sf 0    0 m 
(\(a\))
 show 
 gr  1507 1474 306 1473 C NC 1507 850 306 340 bl 2040 3060 0 0 C 1507 850 306
 340 C NC 306 340 m 850 Y s 340 340 m -34 X s [4 8] 0 sd 1813 340 m -1507 X s
 [] 0 sd 323 370 m -17 X s 323 401 m -17 X s 323 431 m -17 X s 340 461 m -34 X s
 [4 8] 0 sd 1813 461 m -1507 X s [] 0 sd 323 492 m -17 X s 323 522 m -17 X s 323
 553 m -17 X s 340 583 m -34 X s [4 8] 0 sd 1813 583 m -1507 X s [] 0 sd 323 613
 m -17 X s 323 644 m -17 X s 323 674 m -17 X s 340 704 m -34 X s [4 8] 0 sd 1813
 704 m -1507 X s [] 0 sd 323 735 m -17 X s 323 765 m -17 X s 323 795 m -17 X s
 340 826 m -34 X s [4 8] 0 sd 1813 826 m -1507 X s [] 0 sd 323 856 m -17 X s 323
 886 m -17 X s 323 917 m -17 X s 340 947 m -34 X s [4 8] 0 sd 1813 947 m -1507 X
 s [] 0 sd 323 978 m -17 X s 323 1008 m -17 X s 323 1038 m -17 X s 340 1069 m
 -34 X s [4 8] 0 sd 1813 1069 m -1507 X s [] 0 sd 323 1099 m -17 X s 323 1129 m
 -17 X s 323 1160 m -17 X s 340 1190 m -34 X s [4 8] 0 sd 1813 1190 m -1507 X s
 /xs 0 def 
(-8)
 /Helvetica-Bold     62 stwn 
 gsave  215 317
 t   0 r  xs neg 0 t 0 0 m
 /Helvetica-Bold findfont   62 sf 0    0 m 
(-8)
 show 
 gr 
 /xs 0 def 
(-6)
 /Helvetica-Bold     62 stwn 
 gsave  215 439
 t   0 r  xs neg 0 t 0 0 m
 /Helvetica-Bold findfont   62 sf 0    0 m 
(-6)
 show 
 gr 
 /xs 0 def 
(-4)
 /Helvetica-Bold     62 stwn 
 gsave  215 560
 t   0 r  xs neg 0 t 0 0 m
 /Helvetica-Bold findfont   62 sf 0    0 m 
(-4)
 show 
 gr 
 /xs 0 def 
(-2)
 /Helvetica-Bold     62 stwn 
 gsave  215 682
 t   0 r  xs neg 0 t 0 0 m
 /Helvetica-Bold findfont   62 sf 0    0 m 
(-2)
 show 
 gr 
 /xs 0 def 
(0)
 /Helvetica-Bold     62 stwn 
 gsave  215 803
 t   0 r  xs neg 0 t 0 0 m
 /Helvetica-Bold findfont   62 sf 0    0 m 
(0)
 show 
 gr 
 /xs 0 def 
(2)
 /Helvetica-Bold     62 stwn 
 gsave  215 924
 t   0 r  xs neg 0 t 0 0 m
 /Helvetica-Bold findfont   62 sf 0    0 m 
(2)
 show 
 gr 
 /xs 0 def 
(4)
 /Helvetica-Bold     62 stwn 
 gsave  215 1046
 t   0 r  xs neg 0 t 0 0 m
 /Helvetica-Bold findfont   62 sf 0    0 m 
(4)
 show 
 gr 
 /xs 0 def 
(6)
 /Helvetica-Bold     62 stwn 
 gsave  215 1167
 t   0 r  xs neg 0 t 0 0 m
 /Helvetica-Bold findfont   62 sf 0    0 m 
(6)
 show 
 gr  [] 0 sd 306 340 m 1507 X s 469 357 m -17 Y s [4 8] 0 sd 469 1190 m -850 Y s
 [] 0 sd 565 357 m -17 Y s [4 8] 0 sd 565 1190 m -850 Y s [] 0 sd 633 357 m -17
 Y s [4 8] 0 sd 633 1190 m -850 Y s [] 0 sd 685 357 m -17 Y s [4 8] 0 sd 685
 1190 m -850 Y s [] 0 sd 728 357 m -17 Y s [4 8] 0 sd 728 1190 m -850 Y s
 [] 0 sd 765 357 m -17 Y s [4 8] 0 sd 765 1190 m -850 Y s [] 0 sd 796 357 m -17
 Y s [4 8] 0 sd 796 1190 m -850 Y s [] 0 sd 824 357 m -17 Y s [4 8] 0 sd 824
 1190 m -850 Y s [] 0 sd 849 374 m -34 Y s [4 8] 0 sd 849 1190 m -850 Y s
 /xs 0 def 
(10)
 /Helvetica-Bold     62 stwn 
 gsave  849 243
 t   0 r  xs 2 div neg 0 t 0 0 m
 /Helvetica-Bold findfont   62 sf 0    0 m 
(10)
 show 
 gr 
 /xs 0 def 
(2)
 /Helvetica-Bold     50 stwn 
 gsave  905 288
 t   0 r  xs 2 div neg 0 t 0 0 m
 /Helvetica-Bold findfont   50 sf 0    0 m 
(2)
 show 
 gr  [] 0 sd 1012 357 m -17 Y s [4 8] 0 sd 1012 1190 m -850 Y s [] 0 sd 1107 357
 m -17 Y s [4 8] 0 sd 1107 1190 m -850 Y s [] 0 sd 1175 357 m -17 Y s [4 8] 0 sd
 1175 1190 m -850 Y s [] 0 sd 1228 357 m -17 Y s [4 8] 0 sd 1228 1190 m -850 Y s
 [] 0 sd 1271 357 m -17 Y s [4 8] 0 sd 1271 1190 m -850 Y s [] 0 sd 1307 357 m
 -17 Y s [4 8] 0 sd 1307 1190 m -850 Y s [] 0 sd 1339 357 m -17 Y s [4 8] 0 sd
 1339 1190 m -850 Y s [] 0 sd 1366 357 m -17 Y s [4 8] 0 sd 1366 1190 m -850 Y s
 [] 0 sd 1391 374 m -34 Y s [4 8] 0 sd 1391 1190 m -850 Y s
 /xs 0 def 
(10)
 /Helvetica-Bold     62 stwn 
 gsave  1391 243
 t   0 r  xs 2 div neg 0 t 0 0 m
 /Helvetica-Bold findfont   62 sf 0    0 m 
(10)
 show 
 gr 
 /xs 0 def 
(3)
 /Helvetica-Bold     50 stwn 
 gsave  1448 288
 t   0 r  xs 2 div neg 0 t 0 0 m
 /Helvetica-Bold findfont   50 sf 0    0 m 
(3)
 show 
 gr  [] 0 sd 1554 357 m -17 Y s [4 8] 0 sd 1554 1190 m -850 Y s [] 0 sd 1650 357
 m -17 Y s [4 8] 0 sd 1650 1190 m -850 Y s [] 0 sd 1718 357 m -17 Y s [4 8] 0 sd
 1718 1190 m -850 Y s [] 0 sd 1770 357 m -17 Y s [4 8] 0 sd 1770 1190 m -850 Y s
 [] 0 sd 1813 357 m -17 Y s [4 8] 0 sd 1813 1190 m -850 Y s 1507 850 306 340 C
 2040 3060 0 0 C
 /xs 0 def 
(E)
 /Helvetica-Bold     62 stwn 
(TH)
 /Helvetica-Bold     43 stwn 
( \(MeV\))
 /Helvetica-Bold     62 stwn 
 gsave  1813 113
 t   0 r  xs neg 0 t 0 0 m
 /Helvetica-Bold findfont   62 sf 0    0 m 
(E)
 show 
 currentpoint pop 0 t 
 /Helvetica-Bold findfont   43 sf 0  -21 m 
(TH)
 show 
 currentpoint pop 0 t 
 /Helvetica-Bold findfont   62 sf 0    0 m 
( \(MeV\))
 show 
 gr 
 /xs 0 def 
(\(E)
 /Helvetica-Bold     62 stwn 
(CsI)
 /Helvetica-Bold     43 stwn 
(-E)
 /Helvetica-Bold     62 stwn 
(TH)
 /Helvetica-Bold     43 stwn 
(\)/E)
 /Helvetica-Bold     62 stwn 
(TH)
 /Helvetica-Bold     43 stwn 
(\(%\))
 /Helvetica-Bold     62 stwn 
 gsave  79 1190
 t  90 r  xs neg 0 t 0 0 m
 /Helvetica-Bold findfont   62 sf 0    0 m 
(\(E)
 show 
 currentpoint pop 0 t 
 /Helvetica-Bold findfont   43 sf 0  -21 m 
(CsI)
 show 
 currentpoint pop 0 t 
 /Helvetica-Bold findfont   62 sf 0    0 m 
(-E)
 show 
 currentpoint pop 0 t 
 /Helvetica-Bold findfont   43 sf 0  -21 m 
(TH)
 show 
 currentpoint pop 0 t 
 /Helvetica-Bold findfont   62 sf 0    0 m 
(\)/E)
 show 
 currentpoint pop 0 t 
 /Helvetica-Bold findfont   43 sf 0  -21 m 
(TH)
 show 
 currentpoint pop 0 t 
 /Helvetica-Bold findfont   62 sf 0    0 m 
(\(%\))
 show 
 gr  1507 850 306 340 C [] 0 sd 560 470 m 57 Y s 560 561 m 57 Y s 543 470 m 34 X
 s 543 618 m 34 X s /w 34 def /w2 {w 2 div} def /w3 {w 3 div} def 560 544 m20
 684 528 m 51 Y s 684 613 m 51 Y s 667 528 m 34 X s 667 664 m 34 X s 684 596 m20
 786 570 m 46 Y s 786 650 m 46 Y s 769 570 m 34 X s 769 696 m 34 X s 786 633 m20
 871 523 m 49 Y s 871 606 m 49 Y s 854 523 m 34 X s 854 655 m 34 X s 871 589 m20
 1101 712 m 33 Y s 1101 779 m 33 Y s 1084 712 m 34 X s 1084 812 m 34 X s 1101
 762 m20 1232 609 m 36 Y s 1232 679 m 35 Y s 1215 609 m 34 X s 1215 714 m 34 X s
 1232 662 m20 1362 583 m 38 Y s 1362 655 m 37 Y s 1345 583 m 34 X s 1345 692 m
 34 X s 1362 638 m20 1372 551 m 32 Y s 1372 617 m 32 Y s 1355 551 m 34 X s 1355
 649 m 34 X s 1372 600 m21 1435 549 m 31 Y s 1435 614 m 32 Y s 1418 549 m 34 X s
 1418 646 m 34 X s 1435 597 m21 1488 553 m 31 Y s 1488 618 m 32 Y s 1471 553 m
 34 X s 1471 650 m 34 X s 1488 601 m21 1531 533 m 31 Y s 1531 598 m 32 Y s 1514
 533 m 34 X s 1514 630 m 34 X s 1531 581 m21 1652 535 m 34 Y s 1652 603 m 34 Y s
 1635 535 m 34 X s 1635 637 m 34 X s 1652 586 m21 1719 442 m 36 Y s 1719 512 m
 36 Y s 1702 442 m 34 X s 1702 548 m 34 X s 1719 495 m21 1789 460 m 37 Y s 1789
 531 m 38 Y s 1772 460 m 34 X s 1772 569 m 34 X s 1789 514 m21 2040 3060 0 0 C
 1507 850 306 340 C 2040 3060 0 0 C /w 32
 def /w2 {w 2 div} def /w3 {w 3 div} def 469 1129 m20 1507 850 306 340 C 2040
 3060 0 0 C 1507 850 306 340 C 2040 3060 0 0 C
 gsave  565 1117
 t   0 r 0 0 m
 /Helvetica-Bold findfont   62 sf 0    0 m 
(Compton)
 show 
 gr  1507 850 306 340 C 2040 3060 0 0 C 1507 850 306 340 C 2040 3060 0 0 C 469
 1069 m21 1507 850 306 340 C 2040 3060 0 0 C 1507 850 306 340 C 2040 3060 0 0 C
 gsave  565 1056
 t   0 r 0 0 m
 /Helvetica-Bold findfont   62 sf 0    0 m 
(Bremsstrahlung)
 show 
 gr  1507 850 306 340 C 2040 3060 0 0 C 1507 850 306 340 C 2040 3060 0 0 C
 gsave  349 1099
 t   0 r 0 0 m
 /Helvetica-Bold findfont   62 sf 0    0 m 
(\(b\))
 show 
 gr  1507 850 306 340 C
 gr  gr 
showpage
end
%%EOF
