%!PS-Adobe-2.0 EPSF-2.0
%%BoundingBox: 0 0 567 567
%%Title: nim_compton5.eps
%%Creator: HIGZ Version 1.23/07
%%CreationDate: 99/02/18   23.08
%%EndComments
%%BeginProlog
80 dict begin
/s {stroke} def /l {lineto} def /m {moveto} def /t {translate} def
/sw {stringwidth} def /r {rotate} def /rl {roll}  def /R {repeat} def
/d {rlineto} def /rm {rmoveto} def /gr {grestore} def /f {eofill} def
/c {setrgbcolor} def /lw {setlinewidth} def /sd {setdash} def
/cl {closepath} def /sf {scalefont setfont} def /black {0 setgray} def
/box {m dup 0 exch d exch 0 d 0 exch neg d cl} def
/NC{systemdict begin initclip end}def/C{NC box clip newpath}def
/bl {box s} def /bf {box f} def /Y { 0 exch d} def /X { 0 d} def 
/mp {newpath /y exch def /x exch def} def
/side {[w .77 mul w .23 mul] .385 w mul sd w 0 l currentpoint t -144 r} def
/mr {mp x y w2 0 360 arc} def /m24 {mr s} def /m20 {mr f} def
/mb {mp x y w2 add m w2 neg 0 d 0 w neg d w 0 d 0 w d cl} def
/mt {mp x y w2 add m w2 neg w neg d w 0 d cl} def
/m21 {mb f} def /m25 {mb s} def /m22 {mt f} def /m26 {mt s} def
/m23 {mp x y w2 sub m w2 w d w neg 0 d cl f} def
/m27 {mp x y w2 add m w3 neg w2 neg d w3 w2 neg d w3  w2 d cl s} def
/m28 {mp x w2 sub y w2 sub w3 add m w3 0 d 0 w3 neg d w3 0 d 0 w3 d w3 0 d
 0 w3 d w3 neg 0 d 0 w3 d w3 neg 0 d
 0 w3 neg d w3 neg 0 d cl s } def
/m29 {mp gsave x w2 sub y w2 add w3 sub m currentpoint t
 4 {side} repeat cl fill gr} def
/m30 {mp gsave x w2 sub y w2 add w3 sub m currentpoint t
 5 {side} repeat s gr} def
/m31 {mp x y w2 sub m 0 w d x w2 sub y m w 0 d
 x w2 sub y w2 add m w w neg d x w2 sub y w2
 sub m w w d s} def
/m2 {mp x y w2 sub m 0 w d x w2 sub y m w 0 d s} def
/m5 {mp x w2 sub y w2 sub m w w d x w2 sub y w2 add m w w neg d s} def
/DP {/PT exch def gsave 47.2 47.2 scale PT 1  eq { 16 16 1 [ 16 0 0 16 neg 0 16
] { < AA AA 55 55 AA AA 55 55 AA AA 55 55 AA AA 55 55 AA AA 55 55 AA AA 55 55
AA AA 55 55 AA AA 55 55 > } image } if PT 2 eq { 16 16 1 [ 16 0 0 16 neg 0 16
] { < BB BB EE EE BB BB EE EE BB BB EE EE BB BB EE EE BB BB EE EE BB BB EE EE
BB BB EE EE BB BB EE EE > } image } if PT 3 eq { 16 16 1 [ 16 0 0 16 neg 0 16
] { < FF FF BB BB FF FF EE EE FF FF BB BB FF FF EE EE FF FF BB BB FF FF EE EE
FF FF BB BB FF FF EE EE > } image } if PT 4 eq { 16 16 1 [ 16 0 0 16 neg 0 16
] { < DF DF BF BF 7F 7F FE FE FD FD FB FB F7 F7 EF EF DF DF BF BF 7F 7F FE FE
FD FD FB FB F7 F7 EF EF > } image } if PT 5 eq { 16 16 1 [ 16 0 0 16 neg 0 16
] { < 7F 7F BF B F DF DF EF EF F7 F7 FB FB FD FD FE FE 7F 7F BF BF DF DF EF
EF F7 F7 FB FB FD FD FE FE > } image } if PT 6 eq { 16 16 1 [ 16 0 0 16 neg 0
16 ] { < BB BB BB BB BB BB BB BB BB BB BB BB BB BB BB BB BB BB BB BB BB BB BB
BB BB BB BB BB BB BB BB BB > } image } if PT 7 eq { 16 16 1 [ 16 0 0 16 neg 0
16 ] { < FF FF FF FF FF FF 00 00 FF FF FF FF FF FF 00 00 FF FF FF FF FF FF 00
00 FF FF FF FF FF FF 00 00 > } image } if PT 8 eq { 16 16 1 [ 16 0 0 16 neg 0
16 ] { < EE EE 47 47 83 83 C5 C5 EE EE 5C 5C 38 38 74 74 EE EE 47 47 83 83 C5
C5 EE EE 5C 5C 38 38 74 74 > } image } if PT 9 eq { 16 16 1 [ 16 0 0 16 neg 0
16 ] { < EF EF EF EF D7 D7 38 38 FE FE FE FE 7D 7D 83 83 EF EF EF EF D7 D7 38
38  FE FE FE FE 7D 7D 83 83 > } image } if PT 10 eq { 16 16 1 [ 16 0 0 16 neg
0 16 ] { <  EF EF EF EF EF EF 00 00 FE FE FE FE FE FE 00 00 EF EF EF EF EF EF
00 00 FE FE FE FE FE FE 00 00 > } image } if PT 11 eq { 16 16 1 [ 16 0 0 16
neg 0 16 ] { < F7 F7 B6 B6 D5 D5 E3 E3 D5 D5 B6 B6 F7 F7 FF FF 7F 7F 6B 6B 5D
5D 3E 3E 5D 5D 6B 6B 7F 7F FF FF > } image } if PT 12 eq { 16 16 1 [ 16 0 0
16 neg 0 16 ] { < E3 E3 DD DD BE BE BE BE BE BE DD DD E3 E3 FF FF 3E 3E DD DD
EB EB EB EB EB EB DD DD 3E 3E FF FF > } image } if PT 13 eq { 16 16 1 [ 16 0
0 16 neg 0 16 ] { <  FE FE 7D 7D BB BB D7 D7 EF EF D7 D7 BB BB 7D 7D FE FE 7D
7D BB BB D7 D7 EF EF D7 D7 BB BB 7D 7D > } image } if PT 14 eq { 16 16 1 [ 16
0 0 16 neg 0 16 ] { < 00 00 EE EF EE EF EE EF 0E E0 EE EE EE EE EE EE 00 EE
FE EE FE EE FE EE 00 00 FE EF FE EF FE EF > } image } if PT 15 eq { 16 16 1 [
16 0 0 16 neg 0 16 ] { < DD DD AA AA DD DD FF FF 77 77 AA AA 77 77 FF FF DD
DD AA AA DD DD FF FF 77 77 AA AA 77 77 FF FF > } image } if PT 16 eq { 16 16
1 [ 16 0 0 16 neg 0 16 ] { <  F1 F1 EE EE 1F 1F FF FF F1 F1 EE EE 1F 1F FF FF
F1 F1 EE EE 1F 1F FF FF F1 F1 EE EE 1F 1F FF FF > } image } if PT 17 eq { 16
16 1 [ 16 0 0 16 neg 0 16 ] { <  EE EE DD DD BB BB FF FF EE EE DD DD BB BB FF
 FF EE EE DD DD BB BB FF FF EE EE DD DD BB BB FF FF > } image } if PT 18 eq {
16 16 1 [ 16 0 0 16 neg 0 16 ] { <  BB BB DD DD EE EE FF FF BB BB DD DD EE EE
FF FF BB BB DD DD EE EE FF FF BB BB DD DD EE EE FF FF > } image } if PT 19 eq
{ 16 16 1 [ 16 0 0 16 neg 0 16 ] { < 1F FC 67 F3 7B EF BD DE BD DE DE BD E6
B3 F8 0F E6 B3 DE BD BD DE BD DE 7B EF 67 F3 1F FC 7F FF > } image } if PT
20 eq { 16 16 1 [ 16 0 0 16 neg 0 16 ] { < DD DD EE EE EE EE EE EE DD DD BB
BB BB BB BB BB DD DD EE EE EE EE EE EE DD DD BB BB BB BB BB BB > } image }
if PT 21 eq { 16 16 1 [ 16 0 0 16 neg 0 16 ] { < 0E 0E EF EF EF EF EF EF E0
E0 FE FE FE FE FE FE 0E 0E EF EF EF EF EF EF E0 E0 FE FE FE FE FE FE > }
image }  if PT 22 eq { 16 16 1 [ 16 0 0 16 neg 0 16 ] { < 70 70 F7 F7 F7 F7 F7
F7 07 07 7F 7F 7F 7F 7F 7F 70 70 F7 F7 F7 F7 F7 F7 07 07 7F 7F 7F 7F 7F 7F >
} image } if PT 23 eq  { 16 16 1 [ 16 0 0 16 neg 0 16 ] { < AA AA 55 55 A9 A9
D1 D1 E1 E1 D1 D1 A9 A9 55 55 AA AA 55 55 A9 A9 D1 D1 E1 E1 D1 D1 A9 A9 55 55
> } image } if PT 24 eq { 16 16 1 [ 16 0 0 16 neg 0 16 ] { < FF FE FF FC EA
A8 D5 54 EA A8 D5 54 E8 28 D4 54 E8 E8 D4 D4 E8 EA 54 D5 A8 EA 54 D5 00 C0 00
80 > } image } if PT 25 eq {  16 16 1 [ 16 0 0 16 neg 0 16 ] { < FF FE FF FC
FF F8 FF F0 F0 00 F0 00 F0 20 F0 60 F0 E0 F1 E0 F3 E0 F0 00 E0 00 C0 00 80 00
00 00 > } image } if gr } def /FA { /PT exch def gsave clip 0 0 translate 1 1
54 { 1 sub 47.2 mul /Xcurr exch def 1 1 74 { 1 sub 47.2 mul /Ycurr exch def
gsave Xcurr Ycurr translate PT DP gr } for } for gr } def
/reencdict 24 dict def /ReEncode {reencdict begin /nco&na exch def
/nfnam exch def /basefontname exch def /basefontdict basefontname findfont def
/newfont basefontdict maxlength dict def basefontdict {exch dup /FID ne
{dup /Encoding eq {exch dup length array copy newfont 3 1 roll put} {exch
newfont 3 1 roll put} ifelse} {pop pop} ifelse } forall newfont
/FontName nfnam put nco&na aload pop nco&na length 2 idiv {newfont
/Encoding get 3 1 roll put} repeat nfnam newfont definefont pop end } def
/accvec [ 176 /agrave 181 /Agrave 190 /acircumflex 192 /Acircumflex
201 /adieresis 204 /Adieresis 209 /ccedilla 210 /Ccedilla 211 /eacute
212 /Eacute 213 /egrave 214 /Egrave 215 /ecircumflex 216 /Ecircumflex
217 /edieresis 218 /Edieresis 219 /icircumflex 220 /Icircumflex
221 /idieresis 222 /Idieresis 223 /ntilde 224 /Ntilde 226 /ocircumflex
228 /Ocircumflex 229 /odieresis 230 /Odieresis 231 /ucircumflex 236 /Ucircumflex
237 /udieresis 238 /Udieresis 239 /aring 242 /Aring 243 /ydieresis
244 /Ydieresis 246 /aacute 247 /Aacute 252 /ugrave 253 /Ugrave] def
/Times-Roman /Times-Roman accvec ReEncode
/Times-Italic /Times-Italic accvec ReEncode
/Times-Bold /Times-Bold accvec ReEncode
/Times-BoldItalic /Times-BoldItalic accvec ReEncode
/Helvetica /Helvetica accvec ReEncode
/Helvetica-Oblique /Helvetica-Oblique accvec ReEncode
/Helvetica-Bold /Helvetica-Bold accvec ReEncode
/Helvetica-BoldOblique /Helvetica-BoldOblique  accvec ReEncode
/Courier /Courier accvec ReEncode
/Courier-Oblique /Courier-Oblique accvec ReEncode
/Courier-Bold /Courier-Bold accvec ReEncode
/Courier-BoldOblique /Courier-BoldOblique accvec ReEncode
/oshow {gsave [] 0 sd true charpath stroke gr} def
/stwn { /fs exch def /fn exch def /text exch def fn findfont fs sf
 text sw pop xs add /xs exch def} def
/stwb { /fs exch def /fn exch def /nbas exch def /textf exch def
textf length /tlen exch def nbas tlen gt {/nbas tlen def} if
fn findfont fs sf textf dup length nbas sub nbas getinterval sw
pop neg xs add /xs exch def} def
/accspe [ 65 /plusminus 66 /bar 67 /existential 68 /universal
69 /exclam 70 /numbersign 71 /greater 72 /question 73 /integral
74 /colon 75 /semicolon 76 /less 77 /bracketleft 78 /bracketright
79 /greaterequal 80 /braceleft 81 /braceright 82 /radical
83 /spade 84 /heart 85 /diamond 86 /club 87 /lessequal
88 /multiply 89 /percent 90 /infinity 48 /circlemultiply 49 /circleplus
50 /emptyset 51 /lozenge 52 /bullet 53 /arrowright 54 /arrowup
55 /arrowleft 56 /arrowdown 57 /arrowboth 48 /degree 44 /comma 43 /plus
 45 /angle 42 /angleleft 47 /divide 61 /notequal 40 /equivalence 41 /second
 97 /approxequal 98 /congruent 99 /perpendicular 100 /partialdiff 101 /florin
 102 /intersection 103 /union 104 /propersuperset 105 /reflexsuperset
 106 /notsubset 107 /propersubset 108 /reflexsubset 109 /element 110 /notelement
 111 /gradient 112 /logicaland 113 /logicalor 114 /arrowdblboth
 115 /arrowdblleft 116 /arrowdblup 117 /arrowdblright 118 /arrowdbldown
 119 /ampersand 120 /omega1 121 /similar 122 /aleph ] def
/Symbol /Special accspe ReEncode
%%EndProlog
 gsave  .25 .25 scale  gsave 0 0 t black [] 0 sd 1 lw 794 453 227 1588 bl 794
 453 227 1588 C 235 1928 m 23 Y s 235 1952 m 22 Y s 227 1951 m 7 X s 235 1951 m
 8 X s /w 0 def /w2 {w 2 div} def /w3 {w 3 div} def 235 1951 m20 251 1926 m 23 Y
 s 251 1950 m 23 Y s 243 1950 m 7 X s 251 1950 m 8 X s 251 1950 m20 266 1967 m
 24 Y s 266 1992 m 24 Y s 259 1991 m 7 X s 267 1991 m 7 X s 266 1991 m20 282
 1958 m 24 Y s 282 1983 m 24 Y s 274 1982 m 8 X s 283 1982 m 7 X s 282 1982 m20
 298 1926 m 23 Y s 298 1950 m 23 Y s 290 1950 m 8 X s 299 1950 m 7 X s 298 1950
 m20 314 1931 m 23 Y s 314 1955 m 22 Y s 306 1954 m 8 X s 315 1954 m 7 X s 314
 1954 m20 330 1952 m 24 Y s 330 1977 m 24 Y s 322 1976 m 7 X s 331 1976 m 7 X s
 330 1976 m20 346 1928 m 23 Y s 346 1952 m 22 Y s 338 1951 m 7 X s 346 1951 m 8
 X s 346 1951 m20 362 1896 m 22 Y s 362 1919 m 22 Y s 354 1918 m 7 X s 362 1918
 m 8 X s 362 1918 m20 378 1954 m 23 Y s 378 1979 m 23 Y s 370 1978 m 7 X s 378
 1978 m 8 X s 378 1978 m20 393 1939 m 23 Y s 393 1964 m 23 Y s 386 1963 m 7 X s
 394 1963 m 7 X s 393 1963 m20 409 1937 m 23 Y s 409 1961 m 23 Y s 401 1960 m 8
 X s 410 1960 m 7 X s 409 1960 m20 425 1939 m 23 Y s 425 1964 m 23 Y s 417 1963
 m 8 X s 426 1963 m 7 X s 425 1963 m20 441 1971 m 24 Y s 441 1996 m 25 Y s 433
 1996 m 8 X s 442 1996 m 7 X s 441 1996 m20 457 1926 m 23 Y s 457 1950 m 23 Y s
 449 1950 m 7 X s 458 1950 m 7 X s 457 1950 m20 473 1926 m 23 Y s 473 1950 m 23
 Y s 465 1950 m 7 X s 473 1950 m 8 X s 473 1950 m20 489 1944 m 23 Y s 489 1968 m
 23 Y s 481 1968 m 7 X s 489 1968 m 8 X s 489 1968 m20 505 1885 m 21 Y s 505
 1907 m 21 Y s 497 1906 m 7 X s 505 1906 m 8 X s 505 1906 m20 521 1892 m 21 Y s
 521 1914 m 22 Y s 513 1914 m 7 X s 521 1914 m 7 X s 521 1914 m20 536 1877 m 21
 Y s 536 1900 m 21 Y s 528 1899 m 8 X s 537 1899 m 7 X s 536 1899 m20 552 1839 m
 19 Y s 552 1859 m 20 Y s 544 1859 m 8 X s 553 1859 m 7 X s 552 1859 m20 568
 1846 m 20 Y s 568 1867 m 20 Y s 560 1866 m 8 X s 569 1866 m 7 X s 568 1866 m20
 584 1839 m 19 Y s 584 1859 m 20 Y s 576 1859 m 7 X s 585 1859 m 7 X s 584 1859
 m20 600 1773 m 17 Y s 600 1791 m 17 Y s 592 1790 m 7 X s 600 1790 m 8 X s 600
 1790 m20 616 1769 m 16 Y s 616 1786 m 17 Y s 608 1786 m 7 X s 616 1786 m 8 X s
 616 1786 m20 632 1734 m 15 Y s 632 1751 m 15 Y s 624 1750 m 7 X s 632 1750 m 8
 X s 632 1750 m20 648 1705 m 13 Y s 648 1719 m 14 Y s 640 1719 m 7 X s 648 1719
 m 7 X s 648 1719 m20 663 1709 m 14 Y s 663 1724 m 13 Y s 655 1723 m 8 X s 664
 1723 m 7 X s 663 1723 m20 679 1653 m 10 Y s 679 1664 m 10 Y s 671 1664 m 8 X s
 680 1664 m 7 X s 679 1664 m20 695 1661 m 11 Y s 695 1673 m 11 Y s 687 1673 m 8
 X s 696 1673 m 7 X s 695 1673 m20 711 1631 m 8 Y s 711 1640 m 9 Y s 703 1640 m
 7 X s 712 1640 m 7 X s 711 1640 m20 727 1631 m 8 Y s 727 1640 m 9 Y s 719 1640
 m 7 X s 727 1640 m 8 X s 727 1640 m20 743 1615 m 6 Y s 743 1622 m 7 Y s 735
 1622 m 7 X s 743 1622 m 8 X s 743 1622 m20 759 1621 m 8 Y s 759 1630 m 7 Y s
 751 1629 m 7 X s 759 1629 m 8 X s 759 1629 m20 775 1605 m 6 Y s 775 1612 m 5 Y
 s 767 1611 m 7 X s 775 1611 m 7 X s 775 1611 m20 790 1605 m 6 Y s 790 1612 m 5
 Y s 782 1611 m 8 X s 791 1611 m 7 X s 790 1611 m20 806 1608 m 6 Y s 806 1615 m
 6 Y s 798 1614 m 8 X s 807 1614 m 7 X s 806 1614 m20 822 1605 m 6 Y s 822 1612
 m 5 Y s 814 1611 m 8 X s 823 1611 m 7 X s 822 1611 m20 838 1605 m 6 Y s 838
 1612 m 5 Y s 830 1611 m 7 X s 839 1611 m 7 X s 838 1611 m20 854 1613 m 7 Y s
 854 1621 m 6 Y s 846 1620 m 7 X s 854 1620 m 8 X s 854 1620 m20 870 1608 m 6 Y
 s 870 1615 m 6 Y s 862 1614 m 7 X s 870 1614 m 8 X s 870 1614 m20 886 1607 m 5
 Y s 886 1613 m 6 Y s 878 1613 m 7 X s 886 1613 m 8 X s 886 1613 m20 902 1605 m
 6 Y s 902 1612 m 5 Y s 894 1611 m 7 X s 902 1611 m 7 X s 902 1611 m20 917 1616
 m 7 Y s 917 1624 m 7 Y s 909 1623 m 8 X s 918 1623 m 7 X s 917 1623 m20 933
 1612 m 6 Y s 933 1619 m 7 Y s 925 1619 m 8 X s 934 1619 m 7 X s 933 1619 m20
 949 1607 m 5 Y s 949 1613 m 6 Y s 941 1613 m 8 X s 950 1613 m 7 X s 949 1613
 m20 965 1608 m 6 Y s 965 1615 m 6 Y s 957 1614 m 7 X s 966 1614 m 7 X s 965
 1614 m20 981 1608 m 6 Y s 981 1615 m 6 Y s 973 1614 m 7 X s 981 1614 m 8 X s
 981 1614 m20 997 1619 m 7 Y s 997 1627 m 7 Y s 989 1626 m 7 X s 997 1626 m 8 X
 s 997 1626 m20 1013 1613 m 7 Y s 1013 1621 m 6 Y s 1005 1620 m 7 X s 1013 1620
 m 8 X s 1013 1620 m20 235 1952 m 16 2 d 15 3 d 16 2 d 16 2 d 16 2 d 16 2 d 16 1
 d 16 1 d 31 X 16 -2 d 16 -2 d 16 -4 d 13 -4 d 3 -1 d 12 -5 d 4 -2 d 11 -6 d 5
 -3 d 10 -7 d 6 -4 d 10 -8 d 6 -5 d 10 -10 d 5 -7 d 10 -11 d 6 -7 d 11 -14 d 5
 -8 d 12 -17 d 4 -7 d 14 -21 d 2 -4 d 16 -27 d 16 -28 d 16 -26 d 11 -19 d 4 -7 d
 10 -13 d 6 -9 d 9 -11 d 7 -8 d 8 -9 d 8 -7 d 8 -6 d 8 -5 d 9 -5 d 7 -3 d 10 -3
 d 6 -2 d 12 -2 d 4 X 15 -2 d 32 X 16 -1 d 111 X 16 -1 d 48 X s NC 227 1588 m
 453 Y s 261 1588 m -34 X s 244 1617 m -17 X s 244 1647 m -17 X s 244 1677 m -17
 X s 244 1707 m -17 X s 261 1737 m -34 X s 244 1766 m -17 X s 244 1796 m -17 X s
 244 1826 m -17 X s 244 1856 m -17 X s 261 1886 m -34 X s 244 1915 m -17 X s 244
 1945 m -17 X s 244 1975 m -17 X s 244 2005 m -17 X s 261 2035 m -34 X s 261
 2035 m -34 X s
 /xs 0 def 
(0)
 /Helvetica-Bold     47 stwn 
 gsave  181 1571
 t   0 r  xs neg 0 t 0 0 m
 /Helvetica-Bold findfont   47 sf 0    0 m 
(0)
 show 
 gr 
 /xs 0 def 
(100)
 /Helvetica-Bold     47 stwn 
 gsave  181 1720
 t   0 r  xs neg 0 t 0 0 m
 /Helvetica-Bold findfont   47 sf 0    0 m 
(100)
 show 
 gr 
 /xs 0 def 
(200)
 /Helvetica-Bold     47 stwn 
 gsave  181 1869
 t   0 r  xs neg 0 t 0 0 m
 /Helvetica-Bold findfont   47 sf 0    0 m 
(200)
 show 
 gr 
 /xs 0 def 
(300)
 /Helvetica-Bold     47 stwn 
 gsave  181 2018
 t   0 r  xs neg 0 t 0 0 m
 /Helvetica-Bold findfont   47 sf 0    0 m 
(300)
 show 
 gr  227 1588 m 794 X s 230 1622 m -34 Y s 265 1605 m -17 Y s 301 1605 m -17 Y s
 337 1605 m -17 Y s 372 1605 m -17 Y s 408 1622 m -34 Y s 444 1605 m -17 Y s 480
 1605 m -17 Y s 515 1605 m -17 Y s 551 1605 m -17 Y s 587 1622 m -34 Y s 622
 1605 m -17 Y s 658 1605 m -17 Y s 694 1605 m -17 Y s 729 1605 m -17 Y s 765
 1622 m -34 Y s 801 1605 m -17 Y s 836 1605 m -17 Y s 872 1605 m -17 Y s 908
 1605 m -17 Y s 943 1622 m -34 Y s 230 1622 m -34 Y s 943 1622 m -34 Y s 979
 1605 m -17 Y s 1015 1605 m -17 Y s
 /xs 0 def 
(95)
 /Helvetica-Bold     47 stwn 
 gsave  230 1531
 t   0 r  xs 2 div neg 0 t 0 0 m
 /Helvetica-Bold findfont   47 sf 0    0 m 
(95)
 show 
 gr 
 /xs 0 def 
(100)
 /Helvetica-Bold     47 stwn 
 gsave  408 1531
 t   0 r  xs 2 div neg 0 t 0 0 m
 /Helvetica-Bold findfont   47 sf 0    0 m 
(100)
 show 
 gr 
 /xs 0 def 
(105)
 /Helvetica-Bold     47 stwn 
 gsave  587 1531
 t   0 r  xs 2 div neg 0 t 0 0 m
 /Helvetica-Bold findfont   47 sf 0    0 m 
(105)
 show 
 gr 
 /xs 0 def 
(110)
 /Helvetica-Bold     47 stwn 
 gsave  765 1531
 t   0 r  xs 2 div neg 0 t 0 0 m
 /Helvetica-Bold findfont   47 sf 0    0 m 
(110)
 show 
 gr 
 /xs 0 def 
(115)
 /Helvetica-Bold     47 stwn 
 gsave  943 1531
 t   0 r  xs 2 div neg 0 t 0 0 m
 /Helvetica-Bold findfont   47 sf 0    0 m 
(115)
 show 
 gr  794 453 227 1588 C 2268 2268 0 0 C 794 453 227 1588 C 2268 2268 0 0 C
 gsave  551 1930
 t   0 r 0 0 m
 /Helvetica-Bold findfont   47 sf 0    0 m 
(E)
 show 
 currentpoint pop 0 t 
 /Helvetica-Bold findfont   33 sf 0  -16 m 
(TH)
 show 
 currentpoint pop 0 t 
 /Helvetica-Bold findfont   47 sf 0    0 m 
( = 109.8 MeV)
 show 
 gr  794 453 227 1588 C 2268 2268 0 0 C
 /xs 0 def 
(E)
 /Helvetica-Bold     47 stwn 
(CsI)
 /Helvetica-Bold     33 stwn 
( \(MeV\))
 /Helvetica-Bold     47 stwn 
 gsave  1021 1463
 t   0 r  xs neg 0 t 0 0 m
 /Helvetica-Bold findfont   47 sf 0    0 m 
(E)
 show 
 currentpoint pop 0 t 
 /Helvetica-Bold findfont   33 sf 0  -16 m 
(CsI)
 show 
 currentpoint pop 0 t 
 /Helvetica-Bold findfont   47 sf 0    0 m 
( \(MeV\))
 show 
 gr  794 453 227 1588 C 2268 2268 0 0 C 794 453 227 1588 C 2268 2268 0 0 C
 gsave  943 1990
 t   0 r 0 0 m
 /Helvetica-Bold findfont   47 sf 0    0 m 
(\(a\))
 show 
 gr  794 453 227 1588 C
 gr  gr 
showpage
end
%%EOF
