%!PS-Adobe-2.0 EPSF-2.0
%%BoundingBox: 0 0 567 567
%%Title: nim_compton3.eps
%%Creator: HIGZ Version 1.23/07
%%CreationDate: 99/02/18   23.17
%%EndComments
%%BeginProlog
80 dict begin
/s {stroke} def /l {lineto} def /m {moveto} def /t {translate} def
/sw {stringwidth} def /r {rotate} def /rl {roll}  def /R {repeat} def
/d {rlineto} def /rm {rmoveto} def /gr {grestore} def /f {eofill} def
/c {setrgbcolor} def /lw {setlinewidth} def /sd {setdash} def
/cl {closepath} def /sf {scalefont setfont} def /black {0 setgray} def
/box {m dup 0 exch d exch 0 d 0 exch neg d cl} def
/NC{systemdict begin initclip end}def/C{NC box clip newpath}def
/bl {box s} def /bf {box f} def /Y { 0 exch d} def /X { 0 d} def 
/mp {newpath /y exch def /x exch def} def
/side {[w .77 mul w .23 mul] .385 w mul sd w 0 l currentpoint t -144 r} def
/mr {mp x y w2 0 360 arc} def /m24 {mr s} def /m20 {mr f} def
/mb {mp x y w2 add m w2 neg 0 d 0 w neg d w 0 d 0 w d cl} def
/mt {mp x y w2 add m w2 neg w neg d w 0 d cl} def
/m21 {mb f} def /m25 {mb s} def /m22 {mt f} def /m26 {mt s} def
/m23 {mp x y w2 sub m w2 w d w neg 0 d cl f} def
/m27 {mp x y w2 add m w3 neg w2 neg d w3 w2 neg d w3  w2 d cl s} def
/m28 {mp x w2 sub y w2 sub w3 add m w3 0 d 0 w3 neg d w3 0 d 0 w3 d w3 0 d
 0 w3 d w3 neg 0 d 0 w3 d w3 neg 0 d
 0 w3 neg d w3 neg 0 d cl s } def
/m29 {mp gsave x w2 sub y w2 add w3 sub m currentpoint t
 4 {side} repeat cl fill gr} def
/m30 {mp gsave x w2 sub y w2 add w3 sub m currentpoint t
 5 {side} repeat s gr} def
/m31 {mp x y w2 sub m 0 w d x w2 sub y m w 0 d
 x w2 sub y w2 add m w w neg d x w2 sub y w2
 sub m w w d s} def
/m2 {mp x y w2 sub m 0 w d x w2 sub y m w 0 d s} def
/m5 {mp x w2 sub y w2 sub m w w d x w2 sub y w2 add m w w neg d s} def
/DP {/PT exch def gsave 47.2 47.2 scale PT 1  eq { 16 16 1 [ 16 0 0 16 neg 0 16
] { < AA AA 55 55 AA AA 55 55 AA AA 55 55 AA AA 55 55 AA AA 55 55 AA AA 55 55
AA AA 55 55 AA AA 55 55 > } image } if PT 2 eq { 16 16 1 [ 16 0 0 16 neg 0 16
] { < BB BB EE EE BB BB EE EE BB BB EE EE BB BB EE EE BB BB EE EE BB BB EE EE
BB BB EE EE BB BB EE EE > } image } if PT 3 eq { 16 16 1 [ 16 0 0 16 neg 0 16
] { < FF FF BB BB FF FF EE EE FF FF BB BB FF FF EE EE FF FF BB BB FF FF EE EE
FF FF BB BB FF FF EE EE > } image } if PT 4 eq { 16 16 1 [ 16 0 0 16 neg 0 16
] { < DF DF BF BF 7F 7F FE FE FD FD FB FB F7 F7 EF EF DF DF BF BF 7F 7F FE FE
FD FD FB FB F7 F7 EF EF > } image } if PT 5 eq { 16 16 1 [ 16 0 0 16 neg 0 16
] { < 7F 7F BF B F DF DF EF EF F7 F7 FB FB FD FD FE FE 7F 7F BF BF DF DF EF
EF F7 F7 FB FB FD FD FE FE > } image } if PT 6 eq { 16 16 1 [ 16 0 0 16 neg 0
16 ] { < BB BB BB BB BB BB BB BB BB BB BB BB BB BB BB BB BB BB BB BB BB BB BB
BB BB BB BB BB BB BB BB BB > } image } if PT 7 eq { 16 16 1 [ 16 0 0 16 neg 0
16 ] { < FF FF FF FF FF FF 00 00 FF FF FF FF FF FF 00 00 FF FF FF FF FF FF 00
00 FF FF FF FF FF FF 00 00 > } image } if PT 8 eq { 16 16 1 [ 16 0 0 16 neg 0
16 ] { < EE EE 47 47 83 83 C5 C5 EE EE 5C 5C 38 38 74 74 EE EE 47 47 83 83 C5
C5 EE EE 5C 5C 38 38 74 74 > } image } if PT 9 eq { 16 16 1 [ 16 0 0 16 neg 0
16 ] { < EF EF EF EF D7 D7 38 38 FE FE FE FE 7D 7D 83 83 EF EF EF EF D7 D7 38
38  FE FE FE FE 7D 7D 83 83 > } image } if PT 10 eq { 16 16 1 [ 16 0 0 16 neg
0 16 ] { <  EF EF EF EF EF EF 00 00 FE FE FE FE FE FE 00 00 EF EF EF EF EF EF
00 00 FE FE FE FE FE FE 00 00 > } image } if PT 11 eq { 16 16 1 [ 16 0 0 16
neg 0 16 ] { < F7 F7 B6 B6 D5 D5 E3 E3 D5 D5 B6 B6 F7 F7 FF FF 7F 7F 6B 6B 5D
5D 3E 3E 5D 5D 6B 6B 7F 7F FF FF > } image } if PT 12 eq { 16 16 1 [ 16 0 0
16 neg 0 16 ] { < E3 E3 DD DD BE BE BE BE BE BE DD DD E3 E3 FF FF 3E 3E DD DD
EB EB EB EB EB EB DD DD 3E 3E FF FF > } image } if PT 13 eq { 16 16 1 [ 16 0
0 16 neg 0 16 ] { <  FE FE 7D 7D BB BB D7 D7 EF EF D7 D7 BB BB 7D 7D FE FE 7D
7D BB BB D7 D7 EF EF D7 D7 BB BB 7D 7D > } image } if PT 14 eq { 16 16 1 [ 16
0 0 16 neg 0 16 ] { < 00 00 EE EF EE EF EE EF 0E E0 EE EE EE EE EE EE 00 EE
FE EE FE EE FE EE 00 00 FE EF FE EF FE EF > } image } if PT 15 eq { 16 16 1 [
16 0 0 16 neg 0 16 ] { < DD DD AA AA DD DD FF FF 77 77 AA AA 77 77 FF FF DD
DD AA AA DD DD FF FF 77 77 AA AA 77 77 FF FF > } image } if PT 16 eq { 16 16
1 [ 16 0 0 16 neg 0 16 ] { <  F1 F1 EE EE 1F 1F FF FF F1 F1 EE EE 1F 1F FF FF
F1 F1 EE EE 1F 1F FF FF F1 F1 EE EE 1F 1F FF FF > } image } if PT 17 eq { 16
16 1 [ 16 0 0 16 neg 0 16 ] { <  EE EE DD DD BB BB FF FF EE EE DD DD BB BB FF
 FF EE EE DD DD BB BB FF FF EE EE DD DD BB BB FF FF > } image } if PT 18 eq {
16 16 1 [ 16 0 0 16 neg 0 16 ] { <  BB BB DD DD EE EE FF FF BB BB DD DD EE EE
FF FF BB BB DD DD EE EE FF FF BB BB DD DD EE EE FF FF > } image } if PT 19 eq
{ 16 16 1 [ 16 0 0 16 neg 0 16 ] { < 1F FC 67 F3 7B EF BD DE BD DE DE BD E6
B3 F8 0F E6 B3 DE BD BD DE BD DE 7B EF 67 F3 1F FC 7F FF > } image } if PT
20 eq { 16 16 1 [ 16 0 0 16 neg 0 16 ] { < DD DD EE EE EE EE EE EE DD DD BB
BB BB BB BB BB DD DD EE EE EE EE EE EE DD DD BB BB BB BB BB BB > } image }
if PT 21 eq { 16 16 1 [ 16 0 0 16 neg 0 16 ] { < 0E 0E EF EF EF EF EF EF E0
E0 FE FE FE FE FE FE 0E 0E EF EF EF EF EF EF E0 E0 FE FE FE FE FE FE > }
image }  if PT 22 eq { 16 16 1 [ 16 0 0 16 neg 0 16 ] { < 70 70 F7 F7 F7 F7 F7
F7 07 07 7F 7F 7F 7F 7F 7F 70 70 F7 F7 F7 F7 F7 F7 07 07 7F 7F 7F 7F 7F 7F >
} image } if PT 23 eq  { 16 16 1 [ 16 0 0 16 neg 0 16 ] { < AA AA 55 55 A9 A9
D1 D1 E1 E1 D1 D1 A9 A9 55 55 AA AA 55 55 A9 A9 D1 D1 E1 E1 D1 D1 A9 A9 55 55
> } image } if PT 24 eq { 16 16 1 [ 16 0 0 16 neg 0 16 ] { < FF FE FF FC EA
A8 D5 54 EA A8 D5 54 E8 28 D4 54 E8 E8 D4 D4 E8 EA 54 D5 A8 EA 54 D5 00 C0 00
80 > } image } if PT 25 eq {  16 16 1 [ 16 0 0 16 neg 0 16 ] { < FF FE FF FC
FF F8 FF F0 F0 00 F0 00 F0 20 F0 60 F0 E0 F1 E0 F3 E0 F0 00 E0 00 C0 00 80 00
00 00 > } image } if gr } def /FA { /PT exch def gsave clip 0 0 translate 1 1
54 { 1 sub 47.2 mul /Xcurr exch def 1 1 74 { 1 sub 47.2 mul /Ycurr exch def
gsave Xcurr Ycurr translate PT DP gr } for } for gr } def
/reencdict 24 dict def /ReEncode {reencdict begin /nco&na exch def
/nfnam exch def /basefontname exch def /basefontdict basefontname findfont def
/newfont basefontdict maxlength dict def basefontdict {exch dup /FID ne
{dup /Encoding eq {exch dup length array copy newfont 3 1 roll put} {exch
newfont 3 1 roll put} ifelse} {pop pop} ifelse } forall newfont
/FontName nfnam put nco&na aload pop nco&na length 2 idiv {newfont
/Encoding get 3 1 roll put} repeat nfnam newfont definefont pop end } def
/accvec [ 176 /agrave 181 /Agrave 190 /acircumflex 192 /Acircumflex
201 /adieresis 204 /Adieresis 209 /ccedilla 210 /Ccedilla 211 /eacute
212 /Eacute 213 /egrave 214 /Egrave 215 /ecircumflex 216 /Ecircumflex
217 /edieresis 218 /Edieresis 219 /icircumflex 220 /Icircumflex
221 /idieresis 222 /Idieresis 223 /ntilde 224 /Ntilde 226 /ocircumflex
228 /Ocircumflex 229 /odieresis 230 /Odieresis 231 /ucircumflex 236 /Ucircumflex
237 /udieresis 238 /Udieresis 239 /aring 242 /Aring 243 /ydieresis
244 /Ydieresis 246 /aacute 247 /Aacute 252 /ugrave 253 /Ugrave] def
/Times-Roman /Times-Roman accvec ReEncode
/Times-Italic /Times-Italic accvec ReEncode
/Times-Bold /Times-Bold accvec ReEncode
/Times-BoldItalic /Times-BoldItalic accvec ReEncode
/Helvetica /Helvetica accvec ReEncode
/Helvetica-Oblique /Helvetica-Oblique accvec ReEncode
/Helvetica-Bold /Helvetica-Bold accvec ReEncode
/Helvetica-BoldOblique /Helvetica-BoldOblique  accvec ReEncode
/Courier /Courier accvec ReEncode
/Courier-Oblique /Courier-Oblique accvec ReEncode
/Courier-Bold /Courier-Bold accvec ReEncode
/Courier-BoldOblique /Courier-BoldOblique accvec ReEncode
/oshow {gsave [] 0 sd true charpath stroke gr} def
/stwn { /fs exch def /fn exch def /text exch def fn findfont fs sf
 text sw pop xs add /xs exch def} def
/stwb { /fs exch def /fn exch def /nbas exch def /textf exch def
textf length /tlen exch def nbas tlen gt {/nbas tlen def} if
fn findfont fs sf textf dup length nbas sub nbas getinterval sw
pop neg xs add /xs exch def} def
/accspe [ 65 /plusminus 66 /bar 67 /existential 68 /universal
69 /exclam 70 /numbersign 71 /greater 72 /question 73 /integral
74 /colon 75 /semicolon 76 /less 77 /bracketleft 78 /bracketright
79 /greaterequal 80 /braceleft 81 /braceright 82 /radical
83 /spade 84 /heart 85 /diamond 86 /club 87 /lessequal
88 /multiply 89 /percent 90 /infinity 48 /circlemultiply 49 /circleplus
50 /emptyset 51 /lozenge 52 /bullet 53 /arrowright 54 /arrowup
55 /arrowleft 56 /arrowdown 57 /arrowboth 48 /degree 44 /comma 43 /plus
 45 /angle 42 /angleleft 47 /divide 61 /notequal 40 /equivalence 41 /second
 97 /approxequal 98 /congruent 99 /perpendicular 100 /partialdiff 101 /florin
 102 /intersection 103 /union 104 /propersuperset 105 /reflexsuperset
 106 /notsubset 107 /propersubset 108 /reflexsubset 109 /element 110 /notelement
 111 /gradient 112 /logicaland 113 /logicalor 114 /arrowdblboth
 115 /arrowdblleft 116 /arrowdblup 117 /arrowdblright 118 /arrowdbldown
 119 /ampersand 120 /omega1 121 /similar 122 /aleph ] def
/Symbol /Special accspe ReEncode
%%EndProlog
 gsave  .25 .25 scale  gsave 0 0 t black [] 0 sd 1 lw 794 453 227 1588 bl 794
 453 227 1588 C 235 1884 m 29 Y s 235 1914 m 28 Y s 227 1913 m 7 X s 235 1913 m
 8 X s /w 0 def /w2 {w 2 div} def /w3 {w 3 div} def 235 1913 m20 251 1909 m 29 Y
 s 251 1940 m 29 Y s 243 1939 m 7 X s 251 1939 m 8 X s 251 1939 m20 266 1946 m
 31 Y s 266 1978 m 32 Y s 259 1978 m 7 X s 267 1978 m 7 X s 266 1978 m20 282
 1911 m 30 Y s 282 1942 m 30 Y s 274 1942 m 8 X s 283 1942 m 7 X s 282 1942 m20
 298 1879 m 28 Y s 298 1909 m 28 Y s 290 1908 m 8 X s 299 1908 m 7 X s 298 1908
 m20 314 1951 m 31 Y s 314 1983 m 32 Y s 306 1983 m 8 X s 315 1983 m 7 X s 314
 1983 m20 330 1916 m 30 Y s 330 1947 m 30 Y s 322 1947 m 7 X s 331 1947 m 7 X s
 330 1947 m20 346 1934 m 30 Y s 346 1965 m 31 Y s 338 1965 m 7 X s 346 1965 m 8
 X s 346 1965 m20 362 1963 m 32 Y s 362 1996 m 32 Y s 354 1996 m 7 X s 362 1996
 m 8 X s 362 1996 m20 378 1936 m 31 Y s 378 1968 m 31 Y s 370 1967 m 7 X s 378
 1967 m 8 X s 378 1967 m20 393 1897 m 29 Y s 393 1927 m 29 Y s 386 1926 m 7 X s
 394 1926 m 7 X s 393 1926 m20 409 1953 m 32 Y s 409 1986 m 32 Y s 401 1986 m 8
 X s 410 1986 m 7 X s 409 1986 m20 425 1939 m 30 Y s 425 1971 m 30 Y s 417 1970
 m 8 X s 426 1970 m 7 X s 425 1970 m20 441 1931 m 31 Y s 441 1963 m 30 Y s 433
 1962 m 8 X s 442 1962 m 7 X s 441 1962 m20 457 1931 m 31 Y s 457 1963 m 30 Y s
 449 1962 m 7 X s 458 1962 m 7 X s 457 1962 m20 473 1909 m 29 Y s 473 1940 m 29
 Y s 465 1939 m 7 X s 473 1939 m 8 X s 473 1939 m20 489 1845 m 26 Y s 489 1872 m
 27 Y s 481 1872 m 7 X s 489 1872 m 8 X s 489 1872 m20 505 1892 m 28 Y s 505
 1921 m 29 Y s 497 1921 m 7 X s 505 1921 m 8 X s 505 1921 m20 521 1914 m 30 Y s
 521 1945 m 30 Y s 513 1944 m 7 X s 521 1944 m 7 X s 521 1944 m20 536 1850 m 26
 Y s 536 1878 m 26 Y s 528 1877 m 8 X s 537 1877 m 7 X s 536 1877 m20 552 1805 m
 25 Y s 552 1831 m 25 Y s 544 1830 m 8 X s 553 1830 m 7 X s 552 1830 m20 568
 1818 m 25 Y s 568 1844 m 25 Y s 560 1843 m 8 X s 569 1843 m 7 X s 568 1843 m20
 584 1791 m 23 Y s 584 1816 m 23 Y s 576 1815 m 7 X s 585 1815 m 7 X s 584 1815
 m20 600 1730 m 20 Y s 600 1751 m 20 Y s 592 1750 m 7 X s 600 1750 m 8 X s 600
 1750 m20 616 1752 m 21 Y s 616 1774 m 22 Y s 608 1774 m 7 X s 616 1774 m 8 X s
 616 1774 m20 632 1720 m 19 Y s 632 1741 m 19 Y s 624 1740 m 7 X s 632 1740 m 8
 X s 632 1740 m20 648 1670 m 15 Y s 648 1686 m 16 Y s 640 1686 m 7 X s 648 1686
 m 7 X s 648 1686 m20 663 1667 m 16 Y s 663 1684 m 15 Y s 655 1683 m 8 X s 664
 1683 m 7 X s 663 1683 m20 679 1616 m 10 Y s 679 1627 m 9 Y s 671 1626 m 8 X s
 680 1626 m 7 X s 679 1626 m20 695 1607 m 8 Y s 695 1617 m 8 Y s 687 1616 m 8 X
 s 696 1616 m 7 X s 695 1616 m20 711 1603 m 7 Y s 711 1611 m 8 Y s 703 1611 m 7
 X s 712 1611 m 7 X s 711 1611 m20 727 1595 m 5 Y s 727 1601 m 5 Y s 719 1601 m
 7 X s 727 1601 m 8 X s 727 1601 m20 743 1593 m 4 Y s 743 1599 m 4 Y s 735 1598
 m 7 X s 743 1598 m 8 X s 743 1598 m20 759 1593 m 4 Y s 759 1599 m 4 Y s 751
 1598 m 7 X s 759 1598 m 8 X s 759 1598 m20 775 1597 m 6 Y s 775 1604 m 5 Y s
 767 1603 m 7 X s 775 1603 m 7 X s 775 1603 m20 790 1589 m 3 Y s 790 1593 m 3 Y
 s 782 1593 m 8 X s 791 1593 m 7 X s 790 1593 m20 806 1589 m 3 Y s 806 1593 m 3
 Y s 798 1593 m 8 X s 807 1593 m 7 X s 806 1593 m20 822 1591 m 4 Y s 822 1596 m
 4 Y s 814 1595 m 8 X s 823 1595 m 7 X s 822 1595 m20 838 1595 m 5 Y s 838 1601
 m 5 Y s 830 1601 m 7 X s 839 1601 m 7 X s 838 1601 m20 854 1601 m 7 Y s 854
 1609 m 7 Y s 846 1608 m 7 X s 854 1608 m 8 X s 854 1608 m20 870 1589 m 3 Y s
 870 1593 m 3 Y s 862 1593 m 7 X s 870 1593 m 8 X s 870 1593 m20 886 1589 m 3 Y
 s 886 1593 m 3 Y s 878 1593 m 7 X s 886 1593 m 8 X s 886 1593 m20 902 1589 m 3
 Y s 902 1593 m 3 Y s 894 1593 m 7 X s 902 1593 m 7 X s 902 1593 m20 917 1591 m
 4 Y s 917 1596 m 4 Y s 909 1595 m 8 X s 918 1595 m 7 X s 917 1595 m20 933 1595
 m 5 Y s 933 1601 m 5 Y s 925 1601 m 8 X s 934 1601 m 7 X s 933 1601 m20 949
 1588 m 2 Y s 949 1591 m 2 Y s 941 1590 m 8 X s 950 1590 m 7 X s 949 1590 m20
 965 1591 m 4 Y s 965 1596 m 4 Y s 957 1595 m 7 X s 966 1595 m 7 X s 965 1595
 m20 981 1589 m 3 Y s 981 1593 m 3 Y s 973 1593 m 7 X s 981 1593 m 8 X s 981
 1593 m20 997 1593 m 4 Y s 997 1599 m 4 Y s 989 1598 m 7 X s 997 1598 m 8 X s
 997 1598 m20 1013 1589 m 3 Y s 1013 1593 m 3 Y s 1005 1593 m 7 X s 1013 1593 m
 8 X s 1013 1593 m20 235 1943 m 16 2 d 15 2 d 16 2 d 16 2 d 16 1 d 16 2 d 16 1 d
 16 1 d 31 X 16 -1 d 16 -3 d 14 -2 d 2 -1 d 13 -4 d 3 -1 d 11 -5 d 5 -2 d 10 -6
 d 6 -3 d 9 -7 d 7 -5 d 9 -8 d 7 -7 d 8 -9 d 7 -9 d 9 -11 d 7 -10 d 10 -14 d 6
 -11 d 10 -18 d 6 -10 d 13 -24 d 3 -6 d 16 -31 d 16 -31 d 11 -22 d 5 -8 d 9 -16
 d 6 -10 d 8 -11 d 7 -10 d 1 -2 d 7 -8 d 8 -8 d 1 -1 d 7 -6 d 9 -6 d 8 -4 d 8 -4
 d 9 -3 d 7 -1 d 12 -2 d 20 X 15 -1 d 223 X s NC 227 1588 m 453 Y s 261 1588 m
 -34 X s 244 1613 m -17 X s 244 1639 m -17 X s 244 1665 m -17 X s 244 1691 m -17
 X s 261 1717 m -34 X s 244 1743 m -17 X s 244 1768 m -17 X s 244 1794 m -17 X s
 244 1820 m -17 X s 261 1846 m -34 X s 244 1872 m -17 X s 244 1898 m -17 X s 244
 1923 m -17 X s 244 1949 m -17 X s 261 1975 m -34 X s 261 1975 m -34 X s 244
 2001 m -17 X s 244 2027 m -17 X s
 /xs 0 def 
(0)
 /Helvetica-Bold     47 stwn 
 gsave  181 1571
 t   0 r  xs neg 0 t 0 0 m
 /Helvetica-Bold findfont   47 sf 0    0 m 
(0)
 show 
 gr 
 /xs 0 def 
(50)
 /Helvetica-Bold     47 stwn 
 gsave  181 1700
 t   0 r  xs neg 0 t 0 0 m
 /Helvetica-Bold findfont   47 sf 0    0 m 
(50)
 show 
 gr 
 /xs 0 def 
(100)
 /Helvetica-Bold     47 stwn 
 gsave  181 1829
 t   0 r  xs neg 0 t 0 0 m
 /Helvetica-Bold findfont   47 sf 0    0 m 
(100)
 show 
 gr 
 /xs 0 def 
(150)
 /Helvetica-Bold     47 stwn 
 gsave  181 1958
 t   0 r  xs neg 0 t 0 0 m
 /Helvetica-Bold findfont   47 sf 0    0 m 
(150)
 show 
 gr  227 1588 m 794 X s 270 1622 m -34 Y s 320 1605 m -17 Y s 370 1605 m -17 Y s
 420 1605 m -17 Y s 470 1622 m -34 Y s 520 1605 m -17 Y s 570 1605 m -17 Y s 620
 1605 m -17 Y s 670 1622 m -34 Y s 720 1605 m -17 Y s 770 1605 m -17 Y s 820
 1605 m -17 Y s 870 1622 m -34 Y s 270 1622 m -34 Y s 870 1622 m -34 Y s 920
 1605 m -17 Y s 970 1605 m -17 Y s 1020 1605 m -17 Y s
 /xs 0 def 
(460)
 /Helvetica-Bold     47 stwn 
 gsave  270 1531
 t   0 r  xs 2 div neg 0 t 0 0 m
 /Helvetica-Bold findfont   47 sf 0    0 m 
(460)
 show 
 gr 
 /xs 0 def 
(480)
 /Helvetica-Bold     47 stwn 
 gsave  470 1531
 t   0 r  xs 2 div neg 0 t 0 0 m
 /Helvetica-Bold findfont   47 sf 0    0 m 
(480)
 show 
 gr 
 /xs 0 def 
(500)
 /Helvetica-Bold     47 stwn 
 gsave  670 1531
 t   0 r  xs 2 div neg 0 t 0 0 m
 /Helvetica-Bold findfont   47 sf 0    0 m 
(500)
 show 
 gr 
 /xs 0 def 
(520)
 /Helvetica-Bold     47 stwn 
 gsave  870 1531
 t   0 r  xs 2 div neg 0 t 0 0 m
 /Helvetica-Bold findfont   47 sf 0    0 m 
(520)
 show 
 gr  794 453 227 1588 C 2268 2268 0 0 C 794 453 227 1588 C 2268 2268 0 0 C
 gsave  570 1936
 t   0 r 0 0 m
 /Helvetica-Bold findfont   47 sf 0    0 m 
(E)
 show 
 currentpoint pop 0 t 
 /Helvetica-Bold findfont   33 sf 0  -16 m 
(TH)
 show 
 currentpoint pop 0 t 
 /Helvetica-Bold findfont   47 sf 0    0 m 
( = 508.3 MeV)
 show 
 gr  794 453 227 1588 C 2268 2268 0 0 C
 /xs 0 def 
(E)
 /Helvetica-Bold     47 stwn 
(CsI)
 /Helvetica-Bold     33 stwn 
( \(MeV\))
 /Helvetica-Bold     47 stwn 
 gsave  1021 1463
 t   0 r  xs neg 0 t 0 0 m
 /Helvetica-Bold findfont   47 sf 0    0 m 
(E)
 show 
 currentpoint pop 0 t 
 /Helvetica-Bold findfont   33 sf 0  -16 m 
(CsI)
 show 
 currentpoint pop 0 t 
 /Helvetica-Bold findfont   47 sf 0    0 m 
( \(MeV\))
 show 
 gr  794 453 227 1588 C 2268 2268 0 0 C 794 453 227 1588 C 2268 2268 0 0 C
 gsave  920 1988
 t   0 r 0 0 m
 /Helvetica-Bold findfont   47 sf 0    0 m 
(\(b\))
 show 
 gr  794 453 227 1588 C
 gr  gr 
showpage
end
%%EOF
