%!PS-Adobe-2.0 EPSF-2.0
%%BoundingBox: 0 0 567 567
%%Title: nim_brems.eps
%%Creator: HIGZ Version 1.23/07
%%CreationDate: 99/01/20   17.50
%%EndComments
%%BeginProlog
80 dict begin
/s {stroke} def /l {lineto} def /m {moveto} def /t {translate} def
/sw {stringwidth} def /r {rotate} def /rl {roll}  def /R {repeat} def
/d {rlineto} def /rm {rmoveto} def /gr {grestore} def /f {eofill} def
/c {setrgbcolor} def /lw {setlinewidth} def /sd {setdash} def
/cl {closepath} def /sf {scalefont setfont} def /black {0 setgray} def
/box {m dup 0 exch d exch 0 d 0 exch neg d cl} def
/NC{systemdict begin initclip end}def/C{NC box clip newpath}def
/bl {box s} def /bf {box f} def /Y { 0 exch d} def /X { 0 d} def 
/mp {newpath /y exch def /x exch def} def
/side {[w .77 mul w .23 mul] .385 w mul sd w 0 l currentpoint t -144 r} def
/mr {mp x y w2 0 360 arc} def /m24 {mr s} def /m20 {mr f} def
/mb {mp x y w2 add m w2 neg 0 d 0 w neg d w 0 d 0 w d cl} def
/mt {mp x y w2 add m w2 neg w neg d w 0 d cl} def
/m21 {mb f} def /m25 {mb s} def /m22 {mt f} def /m26 {mt s} def
/m23 {mp x y w2 sub m w2 w d w neg 0 d cl f} def
/m27 {mp x y w2 add m w3 neg w2 neg d w3 w2 neg d w3  w2 d cl s} def
/m28 {mp x w2 sub y w2 sub w3 add m w3 0 d 0 w3 neg d w3 0 d 0 w3 d w3 0 d
 0 w3 d w3 neg 0 d 0 w3 d w3 neg 0 d
 0 w3 neg d w3 neg 0 d cl s } def
/m29 {mp gsave x w2 sub y w2 add w3 sub m currentpoint t
 4 {side} repeat cl fill gr} def
/m30 {mp gsave x w2 sub y w2 add w3 sub m currentpoint t
 5 {side} repeat s gr} def
/m31 {mp x y w2 sub m 0 w d x w2 sub y m w 0 d
 x w2 sub y w2 add m w w neg d x w2 sub y w2
 sub m w w d s} def
/m2 {mp x y w2 sub m 0 w d x w2 sub y m w 0 d s} def
/m5 {mp x w2 sub y w2 sub m w w d x w2 sub y w2 add m w w neg d s} def
/DP {/PT exch def gsave 47.2 47.2 scale PT 1  eq { 16 16 1 [ 16 0 0 16 neg 0 16
] { < AA AA 55 55 AA AA 55 55 AA AA 55 55 AA AA 55 55 AA AA 55 55 AA AA 55 55
AA AA 55 55 AA AA 55 55 > } image } if PT 2 eq { 16 16 1 [ 16 0 0 16 neg 0 16
] { < BB BB EE EE BB BB EE EE BB BB EE EE BB BB EE EE BB BB EE EE BB BB EE EE
BB BB EE EE BB BB EE EE > } image } if PT 3 eq { 16 16 1 [ 16 0 0 16 neg 0 16
] { < FF FF BB BB FF FF EE EE FF FF BB BB FF FF EE EE FF FF BB BB FF FF EE EE
FF FF BB BB FF FF EE EE > } image } if PT 4 eq { 16 16 1 [ 16 0 0 16 neg 0 16
] { < DF DF BF BF 7F 7F FE FE FD FD FB FB F7 F7 EF EF DF DF BF BF 7F 7F FE FE
FD FD FB FB F7 F7 EF EF > } image } if PT 5 eq { 16 16 1 [ 16 0 0 16 neg 0 16
] { < 7F 7F BF B F DF DF EF EF F7 F7 FB FB FD FD FE FE 7F 7F BF BF DF DF EF
EF F7 F7 FB FB FD FD FE FE > } image } if PT 6 eq { 16 16 1 [ 16 0 0 16 neg 0
16 ] { < BB BB BB BB BB BB BB BB BB BB BB BB BB BB BB BB BB BB BB BB BB BB BB
BB BB BB BB BB BB BB BB BB > } image } if PT 7 eq { 16 16 1 [ 16 0 0 16 neg 0
16 ] { < FF FF FF FF FF FF 00 00 FF FF FF FF FF FF 00 00 FF FF FF FF FF FF 00
00 FF FF FF FF FF FF 00 00 > } image } if PT 8 eq { 16 16 1 [ 16 0 0 16 neg 0
16 ] { < EE EE 47 47 83 83 C5 C5 EE EE 5C 5C 38 38 74 74 EE EE 47 47 83 83 C5
C5 EE EE 5C 5C 38 38 74 74 > } image } if PT 9 eq { 16 16 1 [ 16 0 0 16 neg 0
16 ] { < EF EF EF EF D7 D7 38 38 FE FE FE FE 7D 7D 83 83 EF EF EF EF D7 D7 38
38  FE FE FE FE 7D 7D 83 83 > } image } if PT 10 eq { 16 16 1 [ 16 0 0 16 neg
0 16 ] { <  EF EF EF EF EF EF 00 00 FE FE FE FE FE FE 00 00 EF EF EF EF EF EF
00 00 FE FE FE FE FE FE 00 00 > } image } if PT 11 eq { 16 16 1 [ 16 0 0 16
neg 0 16 ] { < F7 F7 B6 B6 D5 D5 E3 E3 D5 D5 B6 B6 F7 F7 FF FF 7F 7F 6B 6B 5D
5D 3E 3E 5D 5D 6B 6B 7F 7F FF FF > } image } if PT 12 eq { 16 16 1 [ 16 0 0
16 neg 0 16 ] { < E3 E3 DD DD BE BE BE BE BE BE DD DD E3 E3 FF FF 3E 3E DD DD
EB EB EB EB EB EB DD DD 3E 3E FF FF > } image } if PT 13 eq { 16 16 1 [ 16 0
0 16 neg 0 16 ] { <  FE FE 7D 7D BB BB D7 D7 EF EF D7 D7 BB BB 7D 7D FE FE 7D
7D BB BB D7 D7 EF EF D7 D7 BB BB 7D 7D > } image } if PT 14 eq { 16 16 1 [ 16
0 0 16 neg 0 16 ] { < 00 00 EE EF EE EF EE EF 0E E0 EE EE EE EE EE EE 00 EE
FE EE FE EE FE EE 00 00 FE EF FE EF FE EF > } image } if PT 15 eq { 16 16 1 [
16 0 0 16 neg 0 16 ] { < DD DD AA AA DD DD FF FF 77 77 AA AA 77 77 FF FF DD
DD AA AA DD DD FF FF 77 77 AA AA 77 77 FF FF > } image } if PT 16 eq { 16 16
1 [ 16 0 0 16 neg 0 16 ] { <  F1 F1 EE EE 1F 1F FF FF F1 F1 EE EE 1F 1F FF FF
F1 F1 EE EE 1F 1F FF FF F1 F1 EE EE 1F 1F FF FF > } image } if PT 17 eq { 16
16 1 [ 16 0 0 16 neg 0 16 ] { <  EE EE DD DD BB BB FF FF EE EE DD DD BB BB FF
 FF EE EE DD DD BB BB FF FF EE EE DD DD BB BB FF FF > } image } if PT 18 eq {
16 16 1 [ 16 0 0 16 neg 0 16 ] { <  BB BB DD DD EE EE FF FF BB BB DD DD EE EE
FF FF BB BB DD DD EE EE FF FF BB BB DD DD EE EE FF FF > } image } if PT 19 eq
{ 16 16 1 [ 16 0 0 16 neg 0 16 ] { < 1F FC 67 F3 7B EF BD DE BD DE DE BD E6
B3 F8 0F E6 B3 DE BD BD DE BD DE 7B EF 67 F3 1F FC 7F FF > } image } if PT
20 eq { 16 16 1 [ 16 0 0 16 neg 0 16 ] { < DD DD EE EE EE EE EE EE DD DD BB
BB BB BB BB BB DD DD EE EE EE EE EE EE DD DD BB BB BB BB BB BB > } image }
if PT 21 eq { 16 16 1 [ 16 0 0 16 neg 0 16 ] { < 0E 0E EF EF EF EF EF EF E0
E0 FE FE FE FE FE FE 0E 0E EF EF EF EF EF EF E0 E0 FE FE FE FE FE FE > }
image }  if PT 22 eq { 16 16 1 [ 16 0 0 16 neg 0 16 ] { < 70 70 F7 F7 F7 F7 F7
F7 07 07 7F 7F 7F 7F 7F 7F 70 70 F7 F7 F7 F7 F7 F7 07 07 7F 7F 7F 7F 7F 7F >
} image } if PT 23 eq  { 16 16 1 [ 16 0 0 16 neg 0 16 ] { < AA AA 55 55 A9 A9
D1 D1 E1 E1 D1 D1 A9 A9 55 55 AA AA 55 55 A9 A9 D1 D1 E1 E1 D1 D1 A9 A9 55 55
> } image } if PT 24 eq { 16 16 1 [ 16 0 0 16 neg 0 16 ] { < FF FE FF FC EA
A8 D5 54 EA A8 D5 54 E8 28 D4 54 E8 E8 D4 D4 E8 EA 54 D5 A8 EA 54 D5 00 C0 00
80 > } image } if PT 25 eq {  16 16 1 [ 16 0 0 16 neg 0 16 ] { < FF FE FF FC
FF F8 FF F0 F0 00 F0 00 F0 20 F0 60 F0 E0 F1 E0 F3 E0 F0 00 E0 00 C0 00 80 00
00 00 > } image } if gr } def /FA { /PT exch def gsave clip 0 0 translate 1 1
54 { 1 sub 47.2 mul /Xcurr exch def 1 1 74 { 1 sub 47.2 mul /Ycurr exch def
gsave Xcurr Ycurr translate PT DP gr } for } for gr } def
/reencdict 24 dict def /ReEncode {reencdict begin /nco&na exch def
/nfnam exch def /basefontname exch def /basefontdict basefontname findfont def
/newfont basefontdict maxlength dict def basefontdict {exch dup /FID ne
{dup /Encoding eq {exch dup length array copy newfont 3 1 roll put} {exch
newfont 3 1 roll put} ifelse} {pop pop} ifelse } forall newfont
/FontName nfnam put nco&na aload pop nco&na length 2 idiv {newfont
/Encoding get 3 1 roll put} repeat nfnam newfont definefont pop end } def
/accvec [ 176 /agrave 181 /Agrave 190 /acircumflex 192 /Acircumflex
201 /adieresis 204 /Adieresis 209 /ccedilla 210 /Ccedilla 211 /eacute
212 /Eacute 213 /egrave 214 /Egrave 215 /ecircumflex 216 /Ecircumflex
217 /edieresis 218 /Edieresis 219 /icircumflex 220 /Icircumflex
221 /idieresis 222 /Idieresis 223 /ntilde 224 /Ntilde 226 /ocircumflex
228 /Ocircumflex 229 /odieresis 230 /Odieresis 231 /ucircumflex 236 /Ucircumflex
237 /udieresis 238 /Udieresis 239 /aring 242 /Aring 243 /ydieresis
244 /Ydieresis 246 /aacute 247 /Aacute 252 /ugrave 253 /Ugrave] def
/Times-Roman /Times-Roman accvec ReEncode
/Times-Italic /Times-Italic accvec ReEncode
/Times-Bold /Times-Bold accvec ReEncode
/Times-BoldItalic /Times-BoldItalic accvec ReEncode
/Helvetica /Helvetica accvec ReEncode
/Helvetica-Oblique /Helvetica-Oblique accvec ReEncode
/Helvetica-Bold /Helvetica-Bold accvec ReEncode
/Helvetica-BoldOblique /Helvetica-BoldOblique  accvec ReEncode
/Courier /Courier accvec ReEncode
/Courier-Oblique /Courier-Oblique accvec ReEncode
/Courier-Bold /Courier-Bold accvec ReEncode
/Courier-BoldOblique /Courier-BoldOblique accvec ReEncode
/oshow {gsave [] 0 sd true charpath stroke gr} def
/stwn { /fs exch def /fn exch def /text exch def fn findfont fs sf
 text sw pop xs add /xs exch def} def
/stwb { /fs exch def /fn exch def /nbas exch def /textf exch def
textf length /tlen exch def nbas tlen gt {/nbas tlen def} if
fn findfont fs sf textf dup length nbas sub nbas getinterval sw
pop neg xs add /xs exch def} def
/accspe [ 65 /plusminus 66 /bar 67 /existential 68 /universal
69 /exclam 70 /numbersign 71 /greater 72 /question 73 /integral
74 /colon 75 /semicolon 76 /less 77 /bracketleft 78 /bracketright
79 /greaterequal 80 /braceleft 81 /braceright 82 /radical
83 /spade 84 /heart 85 /diamond 86 /club 87 /lessequal
88 /multiply 89 /percent 90 /infinity 48 /circlemultiply 49 /circleplus
50 /emptyset 51 /lozenge 52 /bullet 53 /arrowright 54 /arrowup
55 /arrowleft 56 /arrowdown 57 /arrowboth 48 /degree 44 /comma 43 /plus
 45 /angle 42 /angleleft 47 /divide 61 /notequal 40 /equivalence 41 /second
 97 /approxequal 98 /congruent 99 /perpendicular 100 /partialdiff 101 /florin
 102 /intersection 103 /union 104 /propersuperset 105 /reflexsuperset
 106 /notsubset 107 /propersubset 108 /reflexsubset 109 /element 110 /notelement
 111 /gradient 112 /logicaland 113 /logicalor 114 /arrowdblboth
 115 /arrowdblleft 116 /arrowdblup 117 /arrowdblright 118 /arrowdbldown
 119 /ampersand 120 /omega1 121 /similar 122 /aleph ] def
/Symbol /Special accspe ReEncode
%%EndProlog
 gsave  .25 .25 scale  gsave 0 0 t black [] 0 sd 1 lw 794 794 227 1247 bl 794
 794 227 1247 C 227 1247 m 2 X s 229 1247 m 2 X s 231 1247 m 2 X s 233 1247 m 2
 X s 235 1247 m 2 X s 237 1247 m 2 X s 239 1247 m 3 X s 242 1247 m 2 X s 244
 1247 m 2 X s 246 1247 m 2 X s 248 1247 m 2 X s 250 1247 m 2 X s 252 1247 m 2 X
 s 254 1247 m 2 X s 256 1247 m 2 X s 258 1247 m 3 X s 261 1247 m 2 X s 263 1247
 m 2 X s 265 1247 m 2 X s 267 1247 m 2 X s 269 1247 m 2 X s 271 1247 m 2 X s 273
 1247 m 2 X s 275 1247 m 2 X s 277 1247 m 3 X s 280 1247 m 2 X s 284 1247 m s
 284 1249 m s 282 1248 m 1 X s 284 1248 m 2 X s /w 0
 def /w2 {w 2 div} def /w3 {w 3 div} def 284 1248 m20 288 1254 m 2 Y s 288 1257
 m 1 Y s 286 1256 m 1 X s 289 1256 m 1 X s 288 1256 m20 292 1272 m 3 Y s 292
 1276 m 4 Y s 290 1276 m 2 X s 293 1276 m 1 X s 292 1276 m20 296 1331 m 6 Y s
 296 1338 m 7 Y s 294 1338 m 2 X s 297 1338 m 2 X s 296 1338 m20 301 1523 m 12 Y
 s 301 1536 m 13 Y s 299 1536 m 1 X s 301 1536 m 2 X s 301 1536 m20 305 1764 m
 17 Y s 305 1783 m 17 Y s 303 1782 m 1 X s 305 1782 m 2 X s 305 1782 m20 309
 1925 m 20 Y s 309 1946 m 20 Y s 307 1946 m 2 X s 310 1946 m 1 X s 309 1946 m20
 313 1941 m 20 Y s 313 1962 m 20 Y s 311 1962 m 2 X s 314 1962 m 1 X s 313 1962
 m20 318 1916 m 20 Y s 318 1937 m 19 Y s 315 1936 m 2 X s 318 1936 m 2 X s 318
 1936 m20 322 1883 m 19 Y s 322 1903 m 19 Y s 320 1902 m 1 X s 322 1902 m 2 X s
 322 1902 m20 326 1844 m 18 Y s 326 1863 m 19 Y s 324 1863 m 1 X s 327 1863 m 1
 X s 326 1863 m20 330 1820 m 18 Y s 330 1839 m 18 Y s 328 1838 m 2 X s 331 1838
 m 1 X s 330 1838 m20 334 1784 m 18 Y s 334 1803 m 17 Y s 332 1802 m 2 X s 335
 1802 m 2 X s 334 1802 m20 339 1748 m 17 Y s 339 1766 m 17 Y s 337 1766 m 1 X s
 339 1766 m 2 X s 339 1766 m20 343 1761 m 17 Y s 343 1779 m 17 Y s 341 1779 m 1
 X s 343 1779 m 2 X s 343 1779 m20 347 1746 m 16 Y s 347 1763 m 17 Y s 345 1763
 m 2 X s 348 1763 m 1 X s 347 1763 m20 351 1708 m 16 Y s 351 1725 m 16 Y s 349
 1725 m 2 X s 352 1725 m 1 X s 351 1725 m20 356 1723 m 16 Y s 356 1740 m 17 Y s
 353 1740 m 2 X s 356 1740 m 2 X s 356 1740 m20 360 1684 m 15 Y s 360 1700 m 16
 Y s 358 1700 m 1 X s 360 1700 m 2 X s 360 1700 m20 364 1674 m 16 Y s 364 1691 m
 15 Y s 362 1690 m 1 X s 365 1690 m 1 X s 364 1690 m20 368 1665 m 16 Y s 368
 1682 m 15 Y s 366 1681 m 2 X s 369 1681 m 1 X s 368 1681 m20 372 1607 m 14 Y s
 372 1622 m 14 Y s 370 1621 m 2 X s 373 1621 m 2 X s 372 1621 m20 377 1643 m 14
 Y s 377 1659 m 14 Y s 375 1658 m 1 X s 377 1658 m 2 X s 377 1658 m20 381 1623 m
 14 Y s 381 1638 m 15 Y s 379 1638 m 1 X s 381 1638 m 2 X s 381 1638 m20 385
 1570 m 14 Y s 385 1585 m 13 Y s 383 1584 m 2 X s 386 1584 m 1 X s 385 1584 m20
 389 1585 m 14 Y s 389 1600 m 14 Y s 387 1599 m 2 X s 390 1599 m 1 X s 389 1599
 m20 394 1570 m 14 Y s 394 1585 m 13 Y s 391 1584 m 2 X s 394 1584 m 2 X s 394
 1584 m20 398 1573 m 13 Y s 398 1587 m 14 Y s 396 1587 m 1 X s 398 1587 m 2 X s
 398 1587 m20 402 1534 m 13 Y s 402 1548 m 12 Y s 400 1547 m 1 X s 403 1547 m 1
 X s 402 1547 m20 406 1556 m 13 Y s 406 1570 m 13 Y s 404 1570 m 2 X s 407 1570
 m 1 X s 406 1570 m20 410 1522 m 12 Y s 410 1535 m 12 Y s 408 1534 m 2 X s 411
 1534 m 2 X s 410 1534 m20 415 1532 m 12 Y s 415 1545 m 13 Y s 413 1545 m 1 X s
 415 1545 m 2 X s 415 1545 m20 419 1506 m 12 Y s 419 1519 m 12 Y s 417 1518 m 1
 X s 419 1518 m 2 X s 419 1518 m20 423 1520 m 12 Y s 423 1533 m 13 Y s 421 1533
 m 2 X s 424 1533 m 1 X s 423 1533 m20 427 1525 m 12 Y s 427 1538 m 13 Y s 425
 1538 m 2 X s 428 1538 m 1 X s 427 1538 m20 432 1484 m 12 Y s 432 1497 m 11 Y s
 429 1496 m 2 X s 432 1496 m 2 X s 432 1496 m20 436 1491 m 12 Y s 436 1504 m 11
 Y s 434 1503 m 1 X s 436 1503 m 2 X s 436 1503 m20 440 1474 m 11 Y s 440 1486 m
 11 Y s 438 1486 m 1 X s 441 1486 m 1 X s 440 1486 m20 444 1497 m 12 Y s 444
 1510 m 12 Y s 442 1510 m 2 X s 445 1510 m 1 X s 444 1510 m20 448 1470 m 11 Y s
 448 1482 m 11 Y s 446 1482 m 2 X s 449 1482 m 2 X s 448 1482 m20 453 1451 m 10
 Y s 453 1463 m 10 Y s 451 1462 m 1 X s 453 1462 m 2 X s 453 1462 m20 457 1461 m
 11 Y s 457 1473 m 11 Y s 455 1472 m 1 X s 457 1472 m 2 X s 457 1472 m20 461
 1454 m 10 Y s 461 1465 m 11 Y s 459 1465 m 2 X s 462 1465 m 1 X s 461 1465 m20
 465 1485 m 11 Y s 465 1497 m 12 Y s 463 1497 m 2 X s 466 1497 m 1 X s 465 1497
 m20 470 1451 m 10 Y s 470 1463 m 10 Y s 467 1462 m 2 X s 470 1462 m 2 X s 470
 1462 m20 474 1437 m 10 Y s 474 1449 m 10 Y s 472 1448 m 1 X s 474 1448 m 2 X s
 474 1448 m20 478 1432 m 10 Y s 478 1443 m 10 Y s 476 1443 m 1 X s 479 1443 m 1
 X s 478 1443 m20 482 1445 m 10 Y s 482 1456 m 11 Y s 480 1456 m 2 X s 483 1456
 m 1 X s 482 1456 m20 486 1436 m 10 Y s 486 1447 m 11 Y s 484 1447 m 2 X s 487
 1447 m 2 X s 486 1447 m20 491 1405 m 9 Y s 491 1416 m 9 Y s 489 1415 m 1 X s
 491 1415 m 2 X s 491 1415 m20 495 1438 m 11 Y s 495 1450 m 10 Y s 493 1449 m 1
 X s 495 1449 m 2 X s 495 1449 m20 499 1424 m 10 Y s 499 1435 m 10 Y s 497 1435
 m 2 X s 500 1435 m 1 X s 499 1435 m20 503 1423 m 10 Y s 503 1434 m 10 Y s 501
 1434 m 2 X s 504 1434 m 1 X s 503 1434 m20 508 1410 m 9 Y s 508 1420 m 10 Y s
 505 1420 m 2 X s 508 1420 m 2 X s 508 1420 m20 512 1423 m 10 Y s 512 1434 m 10
 Y s 510 1434 m 1 X s 512 1434 m 2 X s 512 1434 m20 516 1410 m 9 Y s 516 1420 m
 10 Y s 514 1420 m 1 X s 517 1420 m 1 X s 516 1420 m20 520 1401 m 9 Y s 520 1411
 m 10 Y s 518 1411 m 2 X s 521 1411 m 1 X s 520 1411 m20 524 1420 m 9 Y s 524
 1431 m 9 Y s 522 1430 m 2 X s 525 1430 m 2 X s 524 1430 m20 529 1405 m 9 Y s
 529 1415 m 9 Y s 527 1414 m 1 X s 529 1414 m 2 X s 529 1414 m20 533 1397 m 9 Y
 s 533 1407 m 9 Y s 531 1407 m 1 X s 533 1407 m 2 X s 533 1407 m20 537 1395 m 9
 Y s 537 1405 m 9 Y s 535 1405 m 2 X s 538 1405 m 1 X s 537 1405 m20 541 1398 m
 9 Y s 541 1408 m 9 Y s 539 1407 m 2 X s 542 1407 m 1 X s 541 1407 m20 546 1391
 m 9 Y s 546 1401 m 9 Y s 543 1400 m 2 X s 546 1400 m 2 X s 546 1400 m20 550
 1385 m 9 Y s 550 1395 m 8 Y s 548 1394 m 1 X s 550 1394 m 2 X s 550 1394 m20
 554 1390 m 9 Y s 554 1400 m 9 Y s 552 1399 m 1 X s 555 1399 m 1 X s 554 1399
 m20 558 1391 m 9 Y s 558 1401 m 9 Y s 556 1400 m 2 X s 559 1400 m 1 X s 558
 1400 m20 562 1367 m 8 Y s 562 1376 m 8 Y s 560 1376 m 2 X s 563 1376 m 2 X s
 562 1376 m20 567 1376 m 9 Y s 567 1386 m 8 Y s 565 1385 m 1 X s 567 1385 m 2 X
 s 567 1385 m20 571 1374 m 8 Y s 571 1383 m 8 Y s 569 1383 m 1 X s 571 1383 m 2
 X s 571 1383 m20 575 1372 m 8 Y s 575 1381 m 9 Y s 573 1381 m 2 X s 576 1381 m
 1 X s 575 1381 m20 579 1374 m 9 Y s 579 1384 m 8 Y s 577 1383 m 2 X s 580 1383
 m 1 X s 579 1383 m20 584 1368 m 8 Y s 584 1377 m 8 Y s 581 1377 m 2 X s 584
 1377 m 2 X s 584 1377 m20 588 1369 m 8 Y s 588 1378 m 8 Y s 586 1377 m 1 X s
 588 1377 m 2 X s 588 1377 m20 592 1365 m 8 Y s 592 1374 m 8 Y s 590 1374 m 1 X
 s 593 1374 m 1 X s 592 1374 m20 596 1364 m 8 Y s 596 1373 m 8 Y s 594 1372 m 2
 X s 597 1372 m 1 X s 596 1372 m20 600 1353 m 7 Y s 600 1362 m 7 Y s 598 1361 m
 2 X s 601 1361 m 2 X s 600 1361 m20 605 1360 m 8 Y s 605 1369 m 8 Y s 603 1369
 m 1 X s 605 1369 m 2 X s 605 1369 m20 609 1365 m 8 Y s 609 1374 m 8 Y s 607
 1374 m 1 X s 609 1374 m 2 X s 609 1374 m20 613 1367 m 9 Y s 613 1377 m 8 Y s
 611 1376 m 2 X s 614 1376 m 1 X s 613 1376 m20 617 1344 m 7 Y s 617 1352 m 8 Y
 s 615 1352 m 2 X s 618 1352 m 1 X s 617 1352 m20 622 1357 m 8 Y s 622 1366 m 7
 Y s 619 1365 m 2 X s 622 1365 m 2 X s 622 1365 m20 626 1364 m 8 Y s 626 1373 m
 8 Y s 624 1373 m 1 X s 626 1373 m 2 X s 626 1373 m20 630 1361 m 8 Y s 630 1370
 m 8 Y s 628 1369 m 1 X s 631 1369 m 1 X s 630 1369 m20 634 1345 m 7 Y s 634
 1353 m 7 Y s 632 1352 m 2 X s 635 1352 m 1 X s 634 1352 m20 638 1346 m 7 Y s
 638 1354 m 7 Y s 636 1354 m 2 X s 639 1354 m 2 X s 638 1354 m20 643 1340 m 7 Y
 s 643 1348 m 7 Y s 641 1348 m 1 X s 643 1348 m 2 X s 643 1348 m20 647 1356 m 8
 Y s 647 1365 m 8 Y s 645 1365 m 1 X s 647 1365 m 2 X s 647 1365 m20 651 1346 m
 7 Y s 651 1354 m 7 Y s 649 1354 m 2 X s 652 1354 m 1 X s 651 1354 m20 655 1333
 m 7 Y s 655 1341 m 7 Y s 653 1340 m 2 X s 656 1340 m 1 X s 655 1340 m20 660
 1356 m 8 Y s 660 1365 m 8 Y s 657 1365 m 2 X s 660 1365 m 2 X s 660 1365 m20
 664 1349 m 7 Y s 664 1358 m 7 Y s 662 1357 m 1 X s 664 1357 m 2 X s 664 1357
 m20 668 1351 m 7 Y s 668 1359 m 8 Y s 666 1359 m 1 X s 669 1359 m 1 X s 668
 1359 m20 672 1340 m 7 Y s 672 1348 m 7 Y s 670 1347 m 2 X s 673 1347 m 1 X s
 672 1347 m20 676 1345 m 7 Y s 676 1353 m 7 Y s 674 1352 m 2 X s 677 1352 m 2 X
 s 676 1352 m20 681 1351 m 7 Y s 681 1359 m 8 Y s 679 1359 m 1 X s 681 1359 m 2
 X s 681 1359 m20 685 1345 m 7 Y s 685 1353 m 7 Y s 683 1352 m 1 X s 685 1352 m
 2 X s 685 1352 m20 689 1340 m 7 Y s 689 1348 m 7 Y s 687 1347 m 2 X s 690 1347
 m 1 X s 689 1347 m20 693 1331 m 6 Y s 693 1338 m 7 Y s 691 1338 m 2 X s 694
 1338 m 1 X s 693 1338 m20 698 1335 m 6 Y s 698 1342 m 7 Y s 695 1342 m 2 X s
 698 1342 m 2 X s 698 1342 m20 702 1338 m 7 Y s 702 1346 m 7 Y s 700 1345 m 1 X
 s 702 1345 m 2 X s 702 1345 m20 706 1325 m 6 Y s 706 1333 m 6 Y s 704 1332 m 1
 X s 707 1332 m 1 X s 706 1332 m20 710 1326 m 6 Y s 710 1333 m 7 Y s 708 1333 m
 2 X s 711 1333 m 1 X s 710 1333 m20 714 1325 m 6 Y s 714 1333 m 6 Y s 712 1332
 m 2 X s 715 1332 m 2 X s 714 1332 m20 719 1324 m 6 Y s 719 1331 m 7 Y s 717
 1331 m 1 X s 719 1331 m 2 X s 719 1331 m20 723 1331 m 6 Y s 723 1338 m 7 Y s
 721 1338 m 1 X s 723 1338 m 2 X s 723 1338 m20 727 1344 m 7 Y s 727 1352 m 8 Y
 s 725 1352 m 2 X s 728 1352 m 1 X s 727 1352 m20 731 1333 m 7 Y s 731 1341 m 7
 Y s 729 1341 m 2 X s 732 1341 m 1 X s 731 1341 m20 736 1327 m 6 Y s 736 1334 m
 7 Y s 733 1334 m 2 X s 736 1334 m 2 X s 736 1334 m20 740 1320 m 6 Y s 740 1327
 m 6 Y s 738 1326 m 1 X s 740 1326 m 2 X s 740 1326 m20 744 1329 m 7 Y s 744
 1337 m 6 Y s 742 1336 m 1 X s 745 1336 m 1 X s 744 1336 m20 748 1332 m 7 Y s
 748 1340 m 7 Y s 746 1340 m 2 X s 749 1340 m 1 X s 748 1340 m20 752 1331 m 7 Y
 s 752 1339 m 7 Y s 750 1338 m 2 X s 753 1338 m 2 X s 752 1338 m20 757 1315 m 6
 Y s 757 1322 m 6 Y s 755 1322 m 1 X s 757 1322 m 2 X s 757 1322 m20 761 1337 m
 7 Y s 761 1345 m 7 Y s 759 1345 m 1 X s 761 1345 m 2 X s 761 1345 m20 765 1327
 m 6 Y s 765 1334 m 7 Y s 763 1334 m 2 X s 766 1334 m 1 X s 765 1334 m20 769
 1326 m 7 Y s 769 1334 m 6 Y s 767 1333 m 2 X s 770 1333 m 1 X s 769 1333 m20
 774 1320 m 6 Y s 774 1327 m 7 Y s 771 1327 m 2 X s 774 1327 m 2 X s 774 1327
 m20 778 1329 m 7 Y s 778 1337 m 6 Y s 776 1336 m 1 X s 778 1336 m 2 X s 778
 1336 m20 782 1323 m 6 Y s 782 1330 m 7 Y s 780 1330 m 1 X s 783 1330 m 1 X s
 782 1330 m20 786 1318 m 7 Y s 786 1326 m 6 Y s 784 1325 m 2 X s 787 1325 m 1 X
 s 786 1325 m20 790 1322 m 6 Y s 790 1329 m 6 Y s 788 1329 m 2 X s 791 1329 m 2
 X s 790 1329 m20 795 1313 m 6 Y s 795 1320 m 6 Y s 793 1319 m 1 X s 795 1319 m
 2 X s 795 1319 m20 799 1320 m 6 Y s 799 1327 m 6 Y s 797 1326 m 1 X s 799 1326
 m 2 X s 799 1326 m20 803 1320 m 6 Y s 803 1327 m 6 Y s 801 1326 m 2 X s 804
 1326 m 1 X s 803 1326 m20 807 1323 m 7 Y s 807 1331 m 6 Y s 805 1330 m 2 X s
 808 1330 m 1 X s 807 1330 m20 812 1310 m 6 Y s 812 1317 m 6 Y s 809 1316 m 2 X
 s 812 1316 m 2 X s 812 1316 m20 816 1322 m 7 Y s 816 1330 m 6 Y s 814 1329 m 1
 X s 816 1329 m 2 X s 816 1329 m20 820 1317 m 6 Y s 820 1325 m 6 Y s 818 1324 m
 1 X s 821 1324 m 1 X s 820 1324 m20 824 1322 m 6 Y s 824 1329 m 6 Y s 822 1329
 m 2 X s 825 1329 m 1 X s 824 1329 m20 828 1317 m 6 Y s 828 1325 m 6 Y s 826
 1324 m 2 X s 829 1324 m 2 X s 828 1324 m20 833 1325 m 6 Y s 833 1332 m 6 Y s
 831 1331 m 1 X s 833 1331 m 2 X s 833 1331 m20 837 1336 m 7 Y s 837 1344 m 7 Y
 s 835 1344 m 1 X s 837 1344 m 2 X s 837 1344 m20 841 1309 m 6 Y s 841 1316 m 6
 Y s 839 1315 m 2 X s 842 1315 m 1 X s 841 1315 m20 845 1314 m 6 Y s 845 1321 m
 6 Y s 843 1320 m 2 X s 846 1320 m 1 X s 845 1320 m20 850 1322 m 6 Y s 850 1329
 m 6 Y s 847 1329 m 2 X s 850 1329 m 2 X s 850 1329 m20 854 1322 m 6 Y s 854
 1329 m 6 Y s 852 1329 m 1 X s 854 1329 m 2 X s 854 1329 m20 858 1319 m 6 Y s
 858 1326 m 6 Y s 856 1326 m 1 X s 859 1326 m 1 X s 858 1326 m20 862 1312 m 6 Y
 s 862 1319 m 6 Y s 860 1319 m 2 X s 863 1319 m 1 X s 862 1319 m20 866 1313 m 6
 Y s 866 1320 m 6 Y s 864 1320 m 2 X s 867 1320 m 2 X s 866 1320 m20 871 1311 m
 6 Y s 871 1318 m 6 Y s 869 1318 m 1 X s 871 1318 m 2 X s 871 1318 m20 875 1308
 m 6 Y s 875 1315 m 5 Y s 873 1314 m 1 X s 875 1314 m 2 X s 875 1314 m20 879
 1317 m 6 Y s 879 1324 m 6 Y s 877 1323 m 2 X s 880 1323 m 1 X s 879 1323 m20
 883 1318 m 6 Y s 883 1325 m 6 Y s 881 1325 m 2 X s 884 1325 m 1 X s 883 1325
 m20 888 1308 m 6 Y s 888 1315 m 6 Y s 885 1315 m 2 X s 888 1315 m 2 X s 888
 1315 m20 892 1311 m 6 Y s 892 1318 m 6 Y s 890 1318 m 1 X s 892 1318 m 2 X s
 892 1318 m20 896 1311 m 6 Y s 896 1318 m 6 Y s 894 1318 m 1 X s 897 1318 m 1 X
 s 896 1318 m20 900 1308 m 6 Y s 900 1315 m 5 Y s 898 1314 m 2 X s 901 1314 m 1
 X s 900 1314 m20 904 1306 m 5 Y s 904 1312 m 6 Y s 902 1312 m 2 X s 905 1312 m
 2 X s 904 1312 m20 909 1313 m 6 Y s 909 1320 m 6 Y s 907 1319 m 1 X s 909 1319
 m 2 X s 909 1319 m20 913 1314 m 6 Y s 913 1321 m 6 Y s 911 1320 m 1 X s 913
 1320 m 2 X s 913 1320 m20 917 1305 m 6 Y s 917 1312 m 5 Y s 915 1311 m 2 X s
 918 1311 m 1 X s 917 1311 m20 921 1311 m 5 Y s 921 1318 m 5 Y s 919 1317 m 2 X
 s 922 1317 m 1 X s 921 1317 m20 926 1306 m 5 Y s 926 1312 m 6 Y s 923 1312 m 2
 X s 926 1312 m 2 X s 926 1312 m20 930 1305 m 6 Y s 930 1312 m 5 Y s 928 1311 m
 1 X s 930 1311 m 2 X s 930 1311 m20 934 1309 m 6 Y s 934 1316 m 6 Y s 932 1315
 m 1 X s 935 1315 m 1 X s 934 1315 m20 938 1298 m 6 Y s 938 1305 m 5 Y s 936
 1304 m 2 X s 939 1304 m 1 X s 938 1304 m20 942 1300 m 5 Y s 942 1307 m 5 Y s
 940 1306 m 2 X s 943 1306 m 2 X s 942 1306 m20 947 1303 m 5 Y s 947 1309 m 6 Y
 s 945 1309 m 1 X s 947 1309 m 2 X s 947 1309 m20 951 1300 m 5 Y s 951 1306 m 5
 Y s 949 1305 m 1 X s 951 1305 m 2 X s 951 1305 m20 955 1295 m 5 Y s 955 1301 m
 5 Y s 953 1301 m 2 X s 956 1301 m 1 X s 955 1301 m20 959 1305 m 6 Y s 959 1312
 m 5 Y s 957 1311 m 2 X s 960 1311 m 1 X s 959 1311 m20 964 1283 m 4 Y s 964
 1289 m 4 Y s 961 1288 m 2 X s 964 1288 m 2 X s 964 1288 m20 968 1291 m 5 Y s
 968 1297 m 4 Y s 966 1296 m 1 X s 968 1296 m 2 X s 968 1296 m20 972 1288 m 5 Y
 s 972 1294 m 4 Y s 970 1293 m 1 X s 973 1293 m 1 X s 972 1293 m20 976 1276 m 3
 Y s 976 1280 m 4 Y s 974 1280 m 2 X s 977 1280 m 1 X s 976 1280 m20 980 1267 m
 3 Y s 980 1271 m 3 Y s 978 1271 m 2 X s 981 1271 m 2 X s 980 1271 m20 985 1260
 m 2 Y s 985 1263 m 2 Y s 983 1262 m 1 X s 985 1262 m 2 X s 985 1262 m20 989
 1253 m 1 Y s 989 1256 m 1 Y s 987 1255 m 1 X s 989 1255 m 2 X s 989 1255 m20
 993 1249 m 1 Y s 993 1251 m 1 Y s 991 1250 m 2 X s 994 1250 m 1 X s 993 1250
 m20 995 1247 m 2 X s 997 1247 m 2 X s 1002 1247 m s 1002 1249 m s 999 1248 m 2
 X s 1002 1248 m 2 X s 1002 1248 m20 1004 1247 m 2 X s 1006 1247 m 2 X s 1008
 1247 m 2 X s 1010 1247 m 2 X s 1012 1247 m 2 X s 1014 1247 m 2 X s 1016 1247 m
 2 X s 1018 1247 m 3 X s 757 1333 m 4 X 4 -1 d 4 X 5 -1 d 4 -1 d 4 X 4 -1 d 4 X
 5 -1 d 4 X 4 -1 d 4 X 5 -1 d 4 X 4 -1 d 4 X 3 -1 d 10 X 4 -1 d 4 X 5 -1 d 4 X 4
 -1 d 8 X 5 -1 d 4 X 4 -1 d 9 X 4 -1 d 4 X 4 -1 d 4 X 5 -1 d 4 X 4 -1 d 4 X 5 -1
 d 4 -1 d 3 -1 d 1 X 3 -1 d 1 X 3 -1 d 1 -1 d 3 X 2 -1 d 3 -2 d 1 X 2 -1 d 2 -1
 d -1 Y 2 -1 d 2 -1 d -1 Y 2 -1 d 2 -2 d 1 -1 d s 964 1296 m 1 -1 d 2 -2 d 1 -1
 d 1 -2 d 2 -2 d 1 -2 d 2 -2 d 1 -3 d 1 -2 d 2 -3 d 2 -4 d 5 -9 d 3 -5 d 1 -2 d
 1 -2 d 1 -2 d 1 -1 d 1 -1 d 1 X 1 -1 d 1 X 1 -1 d 21 X s NC 227 1247 m 794 Y s
 261 1247 m -34 X s 244 1276 m -17 X s 244 1305 m -17 X s 244 1334 m -17 X s 261
 1363 m -34 X s 244 1392 m -17 X s 244 1421 m -17 X s 244 1450 m -17 X s 261
 1479 m -34 X s 244 1508 m -17 X s 244 1537 m -17 X s 244 1566 m -17 X s 261
 1595 m -34 X s 244 1624 m -17 X s 244 1653 m -17 X s 244 1682 m -17 X s 261
 1711 m -34 X s 244 1740 m -17 X s 244 1769 m -17 X s 244 1798 m -17 X s 261
 1827 m -34 X s 244 1856 m -17 X s 244 1885 m -17 X s 244 1914 m -17 X s 261
 1943 m -34 X s 261 1943 m -34 X s 244 1972 m -17 X s 244 2001 m -17 X s 244
 2030 m -17 X s
 /xs 0 def 
(0)
 /Helvetica-Bold     47 stwn 
 gsave  181 1230
 t   0 r  xs neg 0 t 0 0 m
 /Helvetica-Bold findfont   47 sf 0    0 m 
(0)
 show 
 gr 
 /xs 0 def 
(200)
 /Helvetica-Bold     47 stwn 
 gsave  181 1346
 t   0 r  xs neg 0 t 0 0 m
 /Helvetica-Bold findfont   47 sf 0    0 m 
(200)
 show 
 gr 
 /xs 0 def 
(400)
 /Helvetica-Bold     47 stwn 
 gsave  181 1462
 t   0 r  xs neg 0 t 0 0 m
 /Helvetica-Bold findfont   47 sf 0    0 m 
(400)
 show 
 gr 
 /xs 0 def 
(600)
 /Helvetica-Bold     47 stwn 
 gsave  181 1578
 t   0 r  xs neg 0 t 0 0 m
 /Helvetica-Bold findfont   47 sf 0    0 m 
(600)
 show 
 gr 
 /xs 0 def 
(800)
 /Helvetica-Bold     47 stwn 
 gsave  181 1694
 t   0 r  xs neg 0 t 0 0 m
 /Helvetica-Bold findfont   47 sf 0    0 m 
(800)
 show 
 gr 
 /xs 0 def 
(1000)
 /Helvetica-Bold     47 stwn 
 gsave  181 1810
 t   0 r  xs neg 0 t 0 0 m
 /Helvetica-Bold findfont   47 sf 0    0 m 
(1000)
 show 
 gr 
 /xs 0 def 
(1200)
 /Helvetica-Bold     47 stwn 
 gsave  181 1926
 t   0 r  xs neg 0 t 0 0 m
 /Helvetica-Bold findfont   47 sf 0    0 m 
(1200)
 show 
 gr  227 1247 m 794 X s 227 1281 m -34 Y s 266 1264 m -17 Y s 306 1264 m -17 Y s
 346 1264 m -17 Y s 385 1264 m -17 Y s 425 1281 m -34 Y s 464 1264 m -17 Y s 504
 1264 m -17 Y s 543 1264 m -17 Y s 583 1264 m -17 Y s 623 1281 m -34 Y s 662
 1264 m -17 Y s 702 1264 m -17 Y s 741 1264 m -17 Y s 781 1264 m -17 Y s 820
 1281 m -34 Y s 860 1264 m -17 Y s 900 1264 m -17 Y s 939 1264 m -17 Y s 979
 1264 m -17 Y s 1018 1281 m -34 Y s 1018 1281 m -34 Y s
 /xs 0 def 
(0)
 /Helvetica-Bold     47 stwn 
 gsave  227 1191
 t   0 r  xs 2 div neg 0 t 0 0 m
 /Helvetica-Bold findfont   47 sf 0    0 m 
(0)
 show 
 gr 
 /xs 0 def 
(1000)
 /Helvetica-Bold     47 stwn 
 gsave  425 1191
 t   0 r  xs 2 div neg 0 t 0 0 m
 /Helvetica-Bold findfont   47 sf 0    0 m 
(1000)
 show 
 gr 
 /xs 0 def 
(2000)
 /Helvetica-Bold     47 stwn 
 gsave  623 1191
 t   0 r  xs 2 div neg 0 t 0 0 m
 /Helvetica-Bold findfont   47 sf 0    0 m 
(2000)
 show 
 gr 
 /xs 0 def 
(3000)
 /Helvetica-Bold     47 stwn 
 gsave  820 1191
 t   0 r  xs 2 div neg 0 t 0 0 m
 /Helvetica-Bold findfont   47 sf 0    0 m 
(3000)
 show 
 gr 
 /xs 0 def 
(4000)
 /Helvetica-Bold     47 stwn 
 gsave  1018 1191
 t   0 r  xs 2 div neg 0 t 0 0 m
 /Helvetica-Bold findfont   47 sf 0    0 m 
(4000)
 show 
 gr  794 794 227 1247 C 2268 2268 0 0 C 794 794 227 1247 C 2268 2268 0 0 C
 gsave  860 1943
 t   0 r 0 0 m
 /Helvetica-Bold findfont   47 sf 0    0 m 
(\(a\))
 show 
 gr  794 794 227 1247 C 2268 2268 0 0 C
 /xs 0 def 
(E)
 /Helvetica-Bold     47 stwn 
(CsI)
 /Helvetica-Bold     33 stwn 
( \(MeV\))
 /Helvetica-Bold     47 stwn 
 gsave  1021 1123
 t   0 r  xs neg 0 t 0 0 m
 /Helvetica-Bold findfont   47 sf 0    0 m 
(E)
 show 
 currentpoint pop 0 t 
 /Helvetica-Bold findfont   33 sf 0  -16 m 
(CsI)
 show 
 currentpoint pop 0 t 
 /Helvetica-Bold findfont   47 sf 0    0 m 
( \(MeV\))
 show 
 gr  794 794 227 1247 C NC 794 794 1247 1247 bl 794 794 1247 1247 C 1256 1766 m
 49 Y s 1256 1816 m 49 Y s 1247 1815 m 8 X s 1256 1815 m 8 X s 1256 1815 m20
 1272 1799 m 50 Y s 1272 1850 m 51 Y s 1264 1850 m 8 X s 1273 1850 m 7 X s 1272
 1850 m20 1289 1766 m 49 Y s 1289 1816 m 49 Y s 1280 1815 m 8 X s 1289 1815 m 8
 X s 1289 1815 m20 1305 1820 m 51 Y s 1305 1872 m 51 Y s 1297 1871 m 8 X s 1306
 1871 m 8 X s 1305 1871 m20 1322 1906 m 55 Y s 1322 1962 m 55 Y s 1314 1962 m 7
 X s 1322 1962 m 8 X s 1322 1962 m20 1338 1704 m 46 Y s 1338 1752 m 45 Y s 1330
 1751 m 8 X s 1339 1751 m 8 X s 1338 1751 m20 1355 1741 m 48 Y s 1355 1790 m 48
 Y s 1347 1790 m 7 X s 1355 1790 m 8 X s 1355 1790 m20 1371 1799 m 50 Y s 1371
 1850 m 51 Y s 1363 1850 m 8 X s 1372 1850 m 8 X s 1371 1850 m20 1388 1799 m 50
 Y s 1388 1850 m 51 Y s 1380 1850 m 7 X s 1389 1850 m 7 X s 1388 1850 m20 1405
 1778 m 50 Y s 1405 1829 m 49 Y s 1396 1828 m 8 X s 1405 1828 m 8 X s 1405 1828
 m20 1421 1729 m 47 Y s 1421 1777 m 47 Y s 1413 1777 m 7 X s 1422 1777 m 7 X s
 1421 1777 m20 1438 1737 m 48 Y s 1438 1786 m 47 Y s 1429 1785 m 8 X s 1438 1785
 m 8 X s 1438 1785 m20 1454 1721 m 47 Y s 1454 1769 m 46 Y s 1446 1768 m 8 X s
 1455 1768 m 7 X s 1454 1768 m20 1471 1696 m 46 Y s 1471 1743 m 45 Y s 1462 1742
 m 8 X s 1471 1742 m 8 X s 1471 1742 m20 1487 1762 m 49 Y s 1487 1812 m 48 Y s
 1479 1811 m 8 X s 1488 1811 m 7 X s 1487 1811 m20 1504 1770 m 49 Y s 1504 1820
 m 49 Y s 1495 1820 m 8 X s 1504 1820 m 8 X s 1504 1820 m20 1520 1700 m 46 Y s
 1520 1747 m 46 Y s 1512 1747 m 8 X s 1521 1747 m 8 X s 1520 1747 m20 1537 1721
 m 47 Y s 1537 1769 m 46 Y s 1529 1768 m 7 X s 1537 1768 m 8 X s 1537 1768 m20
 1553 1721 m 47 Y s 1553 1769 m 46 Y s 1545 1768 m 8 X s 1554 1768 m 8 X s 1553
 1768 m20 1570 1696 m 46 Y s 1570 1743 m 45 Y s 1562 1742 m 7 X s 1570 1742 m 8
 X s 1570 1742 m20 1586 1680 m 45 Y s 1586 1726 m 44 Y s 1578 1725 m 8 X s 1587
 1725 m 8 X s 1586 1725 m20 1603 1733 m 47 Y s 1603 1782 m 47 Y s 1595 1781 m 7
 X s 1604 1781 m 7 X s 1603 1781 m20 1619 1741 m 48 Y s 1619 1790 m 48 Y s 1611
 1790 m 8 X s 1620 1790 m 8 X s 1619 1790 m20 1636 1676 m 44 Y s 1636 1721 m 45
 Y s 1628 1721 m 7 X s 1637 1721 m 7 X s 1636 1721 m20 1653 1717 m 46 Y s 1653
 1764 m 47 Y s 1644 1764 m 8 X s 1653 1764 m 8 X s 1653 1764 m20 1669 1680 m 45
 Y s 1669 1726 m 44 Y s 1661 1725 m 8 X s 1670 1725 m 7 X s 1669 1725 m20 1686
 1676 m 44 Y s 1686 1721 m 45 Y s 1677 1721 m 8 X s 1686 1721 m 8 X s 1686 1721
 m20 1702 1704 m 46 Y s 1702 1752 m 45 Y s 1694 1751 m 8 X s 1703 1751 m 7 X s
 1702 1751 m20 1719 1627 m 42 Y s 1719 1670 m 42 Y s 1710 1669 m 8 X s 1719 1669
 m 8 X s 1719 1669 m20 1735 1639 m 43 Y s 1735 1683 m 42 Y s 1727 1682 m 8 X s
 1736 1682 m 8 X s 1735 1682 m20 1752 1659 m 44 Y s 1752 1704 m 44 Y s 1744 1704
 m 7 X s 1752 1704 m 8 X s 1752 1704 m20 1768 1635 m 42 Y s 1768 1678 m 43 Y s
 1760 1678 m 8 X s 1769 1678 m 8 X s 1768 1678 m20 1785 1602 m 41 Y s 1785 1644
 m 41 Y s 1777 1643 m 7 X s 1785 1643 m 8 X s 1785 1643 m20 1801 1676 m 44 Y s
 1801 1721 m 45 Y s 1793 1721 m 8 X s 1802 1721 m 8 X s 1801 1721 m20 1818 1513
 m 35 Y s 1818 1549 m 36 Y s 1810 1549 m 7 X s 1819 1549 m 7 X s 1818 1549 m20
 1834 1569 m 39 Y s 1834 1609 m 39 Y s 1826 1609 m 8 X s 1835 1609 m 8 X s 1834
 1609 m20 1851 1549 m 38 Y s 1851 1588 m 38 Y s 1843 1587 m 7 X s 1852 1587 m 7
 X s 1851 1587 m20 1868 1456 m 32 Y s 1868 1489 m 32 Y s 1859 1488 m 8 X s 1868
 1488 m 8 X s 1868 1488 m20 1884 1392 m 27 Y s 1884 1420 m 27 Y s 1876 1420 m 8
 X s 1885 1420 m 7 X s 1884 1420 m20 1901 1337 m 22 Y s 1901 1360 m 21 Y s 1892
 1359 m 8 X s 1901 1359 m 8 X s 1901 1359 m20 1917 1288 m 15 Y s 1917 1304 m 15
 Y s 1909 1303 m 8 X s 1918 1303 m 7 X s 1917 1303 m20 1934 1259 m 9 Y s 1934
 1269 m 10 Y s 1925 1269 m 8 X s 1934 1269 m 8 X s 1934 1269 m20 1942 1247 m 8 X
 s 1950 1247 m 9 X s 1967 1247 m 4 Y s 1967 1252 m 4 Y s 1959 1252 m 7 X s 1967
 1252 m 8 X s 1967 1252 m20 1975 1247 m 8 X s 1983 1247 m 9 X s 1992 1247 m 8 X
 s 2000 1247 m 8 X s 2008 1247 m 8 X s 2016 1247 m 9 X s 2025 1247 m 8 X s 2033
 1247 m 8 X s 1256 1823 m 16 -2 d 17 -3 d 16 -5 d 17 -1 d 16 -3 d 17 -4 d 16 -3
 d 17 -2 d 17 -4 d 16 -2 d 17 -4 d 16 -2 d 17 -2 d 16 -4 d 17 -2 d 16 -4 d 17 -2
 d 16 -3 d 17 -4 d 16 -3 d 17 -4 d 16 -3 d 17 -5 d 17 -5 d 16 -6 d 17 -6 d 16 -8
 d 17 -8 d 16 -11 d 14 -11 d 3 -2 d 12 -11 d 4 -4 d 11 -12 d 6 -7 d 10 -13 d 6
 -10 d 10 -16 d 7 -12 d 8 -16 d 8 -19 d 8 -18 d 7 -19 d 2 -4 d 8 -23 d 9 -28 d 9
 -32 d 7 -24 d 17 -61 d 12 -43 d 4 -14 d 7 -20 d 4 -10 d 4 -9 d 2 -2 d 4 -6 d 4
 -5 d 6 -4 d 2 -1 d 5 -1 d 12 1 d 66 X s NC 1247 1247 m 794 Y s 1281 1247 m -34
 X s 1264 1269 m -17 X s 1264 1290 m -17 X s 1264 1312 m -17 X s 1281 1333 m -34
 X s 1264 1355 m -17 X s 1264 1377 m -17 X s 1264 1398 m -17 X s 1281 1420 m -34
 X s 1264 1441 m -17 X s 1264 1463 m -17 X s 1264 1484 m -17 X s 1281 1506 m -34
 X s 1264 1527 m -17 X s 1264 1549 m -17 X s 1264 1570 m -17 X s 1281 1592 m -34
 X s 1264 1613 m -17 X s 1264 1635 m -17 X s 1264 1656 m -17 X s 1281 1678 m -34
 X s 1264 1699 m -17 X s 1264 1721 m -17 X s 1264 1742 m -17 X s 1281 1764 m -34
 X s 1264 1785 m -17 X s 1264 1807 m -17 X s 1264 1828 m -17 X s 1281 1850 m -34
 X s 1264 1871 m -17 X s 1264 1893 m -17 X s 1264 1914 m -17 X s 1281 1936 m -34
 X s 1264 1958 m -17 X s 1264 1979 m -17 X s 1264 2001 m -17 X s 1281 2022 m -34
 X s 1281 2022 m -34 X s
 /xs 0 def 
(0)
 /Helvetica-Bold     47 stwn 
 gsave  1202 1230
 t   0 r  xs neg 0 t 0 0 m
 /Helvetica-Bold findfont   47 sf 0    0 m 
(0)
 show 
 gr 
 /xs 0 def 
(20)
 /Helvetica-Bold     47 stwn 
 gsave  1202 1316
 t   0 r  xs neg 0 t 0 0 m
 /Helvetica-Bold findfont   47 sf 0    0 m 
(20)
 show 
 gr 
 /xs 0 def 
(40)
 /Helvetica-Bold     47 stwn 
 gsave  1202 1403
 t   0 r  xs neg 0 t 0 0 m
 /Helvetica-Bold findfont   47 sf 0    0 m 
(40)
 show 
 gr 
 /xs 0 def 
(60)
 /Helvetica-Bold     47 stwn 
 gsave  1202 1489
 t   0 r  xs neg 0 t 0 0 m
 /Helvetica-Bold findfont   47 sf 0    0 m 
(60)
 show 
 gr 
 /xs 0 def 
(80)
 /Helvetica-Bold     47 stwn 
 gsave  1202 1575
 t   0 r  xs neg 0 t 0 0 m
 /Helvetica-Bold findfont   47 sf 0    0 m 
(80)
 show 
 gr 
 /xs 0 def 
(100)
 /Helvetica-Bold     47 stwn 
 gsave  1202 1661
 t   0 r  xs neg 0 t 0 0 m
 /Helvetica-Bold findfont   47 sf 0    0 m 
(100)
 show 
 gr 
 /xs 0 def 
(120)
 /Helvetica-Bold     47 stwn 
 gsave  1202 1747
 t   0 r  xs neg 0 t 0 0 m
 /Helvetica-Bold findfont   47 sf 0    0 m 
(120)
 show 
 gr 
 /xs 0 def 
(140)
 /Helvetica-Bold     47 stwn 
 gsave  1202 1833
 t   0 r  xs neg 0 t 0 0 m
 /Helvetica-Bold findfont   47 sf 0    0 m 
(140)
 show 
 gr 
 /xs 0 def 
(160)
 /Helvetica-Bold     47 stwn 
 gsave  1202 1919
 t   0 r  xs neg 0 t 0 0 m
 /Helvetica-Bold findfont   47 sf 0    0 m 
(160)
 show 
 gr 
 /xs 0 def 
(180)
 /Helvetica-Bold     47 stwn 
 gsave  1202 2005
 t   0 r  xs neg 0 t 0 0 m
 /Helvetica-Bold findfont   47 sf 0    0 m 
(180)
 show 
 gr  1247 1247 m 794 X s 1257 1281 m -34 Y s 1296 1264 m -17 Y s 1335 1264 m -17
 Y s 1374 1264 m -17 Y s 1412 1264 m -17 Y s 1451 1281 m -34 Y s 1490 1264 m -17
 Y s 1529 1264 m -17 Y s 1567 1264 m -17 Y s 1606 1264 m -17 Y s 1645 1281 m -34
 Y s 1684 1264 m -17 Y s 1723 1264 m -17 Y s 1761 1264 m -17 Y s 1800 1264 m -17
 Y s 1839 1281 m -34 Y s 1878 1264 m -17 Y s 1916 1264 m -17 Y s 1955 1264 m -17
 Y s 1994 1264 m -17 Y s 2033 1281 m -34 Y s 1257 1281 m -34 Y s 2033 1281 m -34
 Y s
 /xs 0 def 
(3000)
 /Helvetica-Bold     47 stwn 
 gsave  1257 1191
 t   0 r  xs 2 div neg 0 t 0 0 m
 /Helvetica-Bold findfont   47 sf 0    0 m 
(3000)
 show 
 gr 
 /xs 0 def 
(3250)
 /Helvetica-Bold     47 stwn 
 gsave  1451 1191
 t   0 r  xs 2 div neg 0 t 0 0 m
 /Helvetica-Bold findfont   47 sf 0    0 m 
(3250)
 show 
 gr 
 /xs 0 def 
(3500)
 /Helvetica-Bold     47 stwn 
 gsave  1645 1191
 t   0 r  xs 2 div neg 0 t 0 0 m
 /Helvetica-Bold findfont   47 sf 0    0 m 
(3500)
 show 
 gr 
 /xs 0 def 
(3750)
 /Helvetica-Bold     47 stwn 
 gsave  1839 1191
 t   0 r  xs 2 div neg 0 t 0 0 m
 /Helvetica-Bold findfont   47 sf 0    0 m 
(3750)
 show 
 gr 
 /xs 0 def 
(4000)
 /Helvetica-Bold     47 stwn 
 gsave  2033 1191
 t   0 r  xs 2 div neg 0 t 0 0 m
 /Helvetica-Bold findfont   47 sf 0    0 m 
(4000)
 show 
 gr  794 794 1247 1247 C 2268 2268 0 0 C 794 794 1247 1247 C 2268 2268 0 0 C
 gsave  1878 1936
 t   0 r 0 0 m
 /Helvetica-Bold findfont   47 sf 0    0 m 
(\(b\))
 show 
 gr  794 794 1247 1247 C 2268 2268 0 0 C
 /xs 0 def 
(E)
 /Helvetica-Bold     47 stwn 
(CsI)
 /Helvetica-Bold     33 stwn 
( \(MeV\))
 /Helvetica-Bold     47 stwn 
 gsave  2041 1123
 t   0 r  xs neg 0 t 0 0 m
 /Helvetica-Bold findfont   47 sf 0    0 m 
(E)
 show 
 currentpoint pop 0 t 
 /Helvetica-Bold findfont   33 sf 0  -16 m 
(CsI)
 show 
 currentpoint pop 0 t 
 /Helvetica-Bold findfont   47 sf 0    0 m 
( \(MeV\))
 show 
 gr  794 794 1247 1247 C
 gr  gr 
showpage
end
%%EOF
