%!PS-Adobe-2.0 EPSF-2.0
%%BoundingBox: 0 0 567 765
%%Title: nim_thredep.eps
%%Creator: HIGZ Version 1.23/07
%%CreationDate: 99/05/02   16.34
%%EndComments
%%BeginProlog
80 dict begin
/s {stroke} def /l {lineto} def /m {moveto} def /t {translate} def
/sw {stringwidth} def /r {rotate} def /rl {roll}  def /R {repeat} def
/d {rlineto} def /rm {rmoveto} def /gr {grestore} def /f {eofill} def
/c {setrgbcolor} def /lw {setlinewidth} def /sd {setdash} def
/cl {closepath} def /sf {scalefont setfont} def /black {0 setgray} def
/box {m dup 0 exch d exch 0 d 0 exch neg d cl} def
/NC{systemdict begin initclip end}def/C{NC box clip newpath}def
/bl {box s} def /bf {box f} def /Y { 0 exch d} def /X { 0 d} def 
/mp {newpath /y exch def /x exch def} def
/side {[w .77 mul w .23 mul] .385 w mul sd w 0 l currentpoint t -144 r} def
/mr {mp x y w2 0 360 arc} def /m24 {mr s} def /m20 {mr f} def
/mb {mp x y w2 add m w2 neg 0 d 0 w neg d w 0 d 0 w d cl} def
/mt {mp x y w2 add m w2 neg w neg d w 0 d cl} def
/m21 {mb f} def /m25 {mb s} def /m22 {mt f} def /m26 {mt s} def
/m23 {mp x y w2 sub m w2 w d w neg 0 d cl f} def
/m27 {mp x y w2 add m w3 neg w2 neg d w3 w2 neg d w3  w2 d cl s} def
/m28 {mp x w2 sub y w2 sub w3 add m w3 0 d 0 w3 neg d w3 0 d 0 w3 d w3 0 d
 0 w3 d w3 neg 0 d 0 w3 d w3 neg 0 d
 0 w3 neg d w3 neg 0 d cl s } def
/m29 {mp gsave x w2 sub y w2 add w3 sub m currentpoint t
 4 {side} repeat cl fill gr} def
/m30 {mp gsave x w2 sub y w2 add w3 sub m currentpoint t
 5 {side} repeat s gr} def
/m31 {mp x y w2 sub m 0 w d x w2 sub y m w 0 d
 x w2 sub y w2 add m w w neg d x w2 sub y w2
 sub m w w d s} def
/m2 {mp x y w2 sub m 0 w d x w2 sub y m w 0 d s} def
/m5 {mp x w2 sub y w2 sub m w w d x w2 sub y w2 add m w w neg d s} def
/DP {/PT exch def gsave 47.2 47.2 scale PT 1  eq { 16 16 1 [ 16 0 0 16 neg 0 16
] { < AA AA 55 55 AA AA 55 55 AA AA 55 55 AA AA 55 55 AA AA 55 55 AA AA 55 55
AA AA 55 55 AA AA 55 55 > } image } if PT 2 eq { 16 16 1 [ 16 0 0 16 neg 0 16
] { < BB BB EE EE BB BB EE EE BB BB EE EE BB BB EE EE BB BB EE EE BB BB EE EE
BB BB EE EE BB BB EE EE > } image } if PT 3 eq { 16 16 1 [ 16 0 0 16 neg 0 16
] { < FF FF BB BB FF FF EE EE FF FF BB BB FF FF EE EE FF FF BB BB FF FF EE EE
FF FF BB BB FF FF EE EE > } image } if PT 4 eq { 16 16 1 [ 16 0 0 16 neg 0 16
] { < DF DF BF BF 7F 7F FE FE FD FD FB FB F7 F7 EF EF DF DF BF BF 7F 7F FE FE
FD FD FB FB F7 F7 EF EF > } image } if PT 5 eq { 16 16 1 [ 16 0 0 16 neg 0 16
] { < 7F 7F BF B F DF DF EF EF F7 F7 FB FB FD FD FE FE 7F 7F BF BF DF DF EF
EF F7 F7 FB FB FD FD FE FE > } image } if PT 6 eq { 16 16 1 [ 16 0 0 16 neg 0
16 ] { < BB BB BB BB BB BB BB BB BB BB BB BB BB BB BB BB BB BB BB BB BB BB BB
BB BB BB BB BB BB BB BB BB > } image } if PT 7 eq { 16 16 1 [ 16 0 0 16 neg 0
16 ] { < FF FF FF FF FF FF 00 00 FF FF FF FF FF FF 00 00 FF FF FF FF FF FF 00
00 FF FF FF FF FF FF 00 00 > } image } if PT 8 eq { 16 16 1 [ 16 0 0 16 neg 0
16 ] { < EE EE 47 47 83 83 C5 C5 EE EE 5C 5C 38 38 74 74 EE EE 47 47 83 83 C5
C5 EE EE 5C 5C 38 38 74 74 > } image } if PT 9 eq { 16 16 1 [ 16 0 0 16 neg 0
16 ] { < EF EF EF EF D7 D7 38 38 FE FE FE FE 7D 7D 83 83 EF EF EF EF D7 D7 38
38  FE FE FE FE 7D 7D 83 83 > } image } if PT 10 eq { 16 16 1 [ 16 0 0 16 neg
0 16 ] { <  EF EF EF EF EF EF 00 00 FE FE FE FE FE FE 00 00 EF EF EF EF EF EF
00 00 FE FE FE FE FE FE 00 00 > } image } if PT 11 eq { 16 16 1 [ 16 0 0 16
neg 0 16 ] { < F7 F7 B6 B6 D5 D5 E3 E3 D5 D5 B6 B6 F7 F7 FF FF 7F 7F 6B 6B 5D
5D 3E 3E 5D 5D 6B 6B 7F 7F FF FF > } image } if PT 12 eq { 16 16 1 [ 16 0 0
16 neg 0 16 ] { < E3 E3 DD DD BE BE BE BE BE BE DD DD E3 E3 FF FF 3E 3E DD DD
EB EB EB EB EB EB DD DD 3E 3E FF FF > } image } if PT 13 eq { 16 16 1 [ 16 0
0 16 neg 0 16 ] { <  FE FE 7D 7D BB BB D7 D7 EF EF D7 D7 BB BB 7D 7D FE FE 7D
7D BB BB D7 D7 EF EF D7 D7 BB BB 7D 7D > } image } if PT 14 eq { 16 16 1 [ 16
0 0 16 neg 0 16 ] { < 00 00 EE EF EE EF EE EF 0E E0 EE EE EE EE EE EE 00 EE
FE EE FE EE FE EE 00 00 FE EF FE EF FE EF > } image } if PT 15 eq { 16 16 1 [
16 0 0 16 neg 0 16 ] { < DD DD AA AA DD DD FF FF 77 77 AA AA 77 77 FF FF DD
DD AA AA DD DD FF FF 77 77 AA AA 77 77 FF FF > } image } if PT 16 eq { 16 16
1 [ 16 0 0 16 neg 0 16 ] { <  F1 F1 EE EE 1F 1F FF FF F1 F1 EE EE 1F 1F FF FF
F1 F1 EE EE 1F 1F FF FF F1 F1 EE EE 1F 1F FF FF > } image } if PT 17 eq { 16
16 1 [ 16 0 0 16 neg 0 16 ] { <  EE EE DD DD BB BB FF FF EE EE DD DD BB BB FF
 FF EE EE DD DD BB BB FF FF EE EE DD DD BB BB FF FF > } image } if PT 18 eq {
16 16 1 [ 16 0 0 16 neg 0 16 ] { <  BB BB DD DD EE EE FF FF BB BB DD DD EE EE
FF FF BB BB DD DD EE EE FF FF BB BB DD DD EE EE FF FF > } image } if PT 19 eq
{ 16 16 1 [ 16 0 0 16 neg 0 16 ] { < 1F FC 67 F3 7B EF BD DE BD DE DE BD E6
B3 F8 0F E6 B3 DE BD BD DE BD DE 7B EF 67 F3 1F FC 7F FF > } image } if PT
20 eq { 16 16 1 [ 16 0 0 16 neg 0 16 ] { < DD DD EE EE EE EE EE EE DD DD BB
BB BB BB BB BB DD DD EE EE EE EE EE EE DD DD BB BB BB BB BB BB > } image }
if PT 21 eq { 16 16 1 [ 16 0 0 16 neg 0 16 ] { < 0E 0E EF EF EF EF EF EF E0
E0 FE FE FE FE FE FE 0E 0E EF EF EF EF EF EF E0 E0 FE FE FE FE FE FE > }
image }  if PT 22 eq { 16 16 1 [ 16 0 0 16 neg 0 16 ] { < 70 70 F7 F7 F7 F7 F7
F7 07 07 7F 7F 7F 7F 7F 7F 70 70 F7 F7 F7 F7 F7 F7 07 07 7F 7F 7F 7F 7F 7F >
} image } if PT 23 eq  { 16 16 1 [ 16 0 0 16 neg 0 16 ] { < AA AA 55 55 A9 A9
D1 D1 E1 E1 D1 D1 A9 A9 55 55 AA AA 55 55 A9 A9 D1 D1 E1 E1 D1 D1 A9 A9 55 55
> } image } if PT 24 eq { 16 16 1 [ 16 0 0 16 neg 0 16 ] { < FF FE FF FC EA
A8 D5 54 EA A8 D5 54 E8 28 D4 54 E8 E8 D4 D4 E8 EA 54 D5 A8 EA 54 D5 00 C0 00
80 > } image } if PT 25 eq {  16 16 1 [ 16 0 0 16 neg 0 16 ] { < FF FE FF FC
FF F8 FF F0 F0 00 F0 00 F0 20 F0 60 F0 E0 F1 E0 F3 E0 F0 00 E0 00 C0 00 80 00
00 00 > } image } if gr } def /FA { /PT exch def gsave clip 0 0 translate 1 1
54 { 1 sub 47.2 mul /Xcurr exch def 1 1 74 { 1 sub 47.2 mul /Ycurr exch def
gsave Xcurr Ycurr translate PT DP gr } for } for gr } def
/reencdict 24 dict def /ReEncode {reencdict begin /nco&na exch def
/nfnam exch def /basefontname exch def /basefontdict basefontname findfont def
/newfont basefontdict maxlength dict def basefontdict {exch dup /FID ne
{dup /Encoding eq {exch dup length array copy newfont 3 1 roll put} {exch
newfont 3 1 roll put} ifelse} {pop pop} ifelse } forall newfont
/FontName nfnam put nco&na aload pop nco&na length 2 idiv {newfont
/Encoding get 3 1 roll put} repeat nfnam newfont definefont pop end } def
/accvec [ 176 /agrave 181 /Agrave 190 /acircumflex 192 /Acircumflex
201 /adieresis 204 /Adieresis 209 /ccedilla 210 /Ccedilla 211 /eacute
212 /Eacute 213 /egrave 214 /Egrave 215 /ecircumflex 216 /Ecircumflex
217 /edieresis 218 /Edieresis 219 /icircumflex 220 /Icircumflex
221 /idieresis 222 /Idieresis 223 /ntilde 224 /Ntilde 226 /ocircumflex
228 /Ocircumflex 229 /odieresis 230 /Odieresis 231 /ucircumflex 236 /Ucircumflex
237 /udieresis 238 /Udieresis 239 /aring 242 /Aring 243 /ydieresis
244 /Ydieresis 246 /aacute 247 /Aacute 252 /ugrave 253 /Ugrave] def
/Times-Roman /Times-Roman accvec ReEncode
/Times-Italic /Times-Italic accvec ReEncode
/Times-Bold /Times-Bold accvec ReEncode
/Times-BoldItalic /Times-BoldItalic accvec ReEncode
/Helvetica /Helvetica accvec ReEncode
/Helvetica-Oblique /Helvetica-Oblique accvec ReEncode
/Helvetica-Bold /Helvetica-Bold accvec ReEncode
/Helvetica-BoldOblique /Helvetica-BoldOblique  accvec ReEncode
/Courier /Courier accvec ReEncode
/Courier-Oblique /Courier-Oblique accvec ReEncode
/Courier-Bold /Courier-Bold accvec ReEncode
/Courier-BoldOblique /Courier-BoldOblique accvec ReEncode
/oshow {gsave [] 0 sd true charpath stroke gr} def
/stwn { /fs exch def /fn exch def /text exch def fn findfont fs sf
 text sw pop xs add /xs exch def} def
/stwb { /fs exch def /fn exch def /nbas exch def /textf exch def
textf length /tlen exch def nbas tlen gt {/nbas tlen def} if
fn findfont fs sf textf dup length nbas sub nbas getinterval sw
pop neg xs add /xs exch def} def
/accspe [ 65 /plusminus 66 /bar 67 /existential 68 /universal
69 /exclam 70 /numbersign 71 /greater 72 /question 73 /integral
74 /colon 75 /semicolon 76 /less 77 /bracketleft 78 /bracketright
79 /greaterequal 80 /braceleft 81 /braceright 82 /radical
83 /spade 84 /heart 85 /diamond 86 /club 87 /lessequal
88 /multiply 89 /percent 90 /infinity 48 /circlemultiply 49 /circleplus
50 /emptyset 51 /lozenge 52 /bullet 53 /arrowright 54 /arrowup
55 /arrowleft 56 /arrowdown 57 /arrowboth 48 /degree 44 /comma 43 /plus
 45 /angle 42 /angleleft 47 /divide 61 /notequal 40 /equivalence 41 /second
 97 /approxequal 98 /congruent 99 /perpendicular 100 /partialdiff 101 /florin
 102 /intersection 103 /union 104 /propersuperset 105 /reflexsuperset
 106 /notsubset 107 /propersubset 108 /reflexsubset 109 /element 110 /notelement
 111 /gradient 112 /logicaland 113 /logicalor 114 /arrowdblboth
 115 /arrowdblleft 116 /arrowdblup 117 /arrowdblright 118 /arrowdbldown
 119 /ampersand 120 /omega1 121 /similar 122 /aleph ] def
/Symbol /Special accspe ReEncode
%%EndProlog
 gsave  .25 .25 scale  gsave 0 0 t black [] 0 sd 1 lw 1813 1161 227 1672 bl 1813
 1161 227 1672 C NC 227 1672 m 1161 Y s 261 1672 m -34 X s [4 8] 0 sd 2040 1672
 m -1813 X s [] 0 sd 244 1730 m -17 X s 244 1788 m -17 X s 244 1846 m -17 X s
 261 1904 m -34 X s [4 8] 0 sd 2040 1904 m -1813 X s [] 0 sd 244 1962 m -17 X s
 244 2020 m -17 X s 244 2078 m -17 X s 261 2136 m -34 X s [4 8] 0 sd 2040 2136 m
 -1813 X s [] 0 sd 244 2194 m -17 X s 244 2253 m -17 X s 244 2311 m -17 X s 261
 2369 m -34 X s [4 8] 0 sd 2040 2369 m -1813 X s [] 0 sd 244 2427 m -17 X s 244
 2485 m -17 X s 244 2543 m -17 X s 261 2601 m -34 X s [4 8] 0 sd 2040 2601 m
 -1813 X s [] 0 sd 244 2659 m -17 X s 244 2717 m -17 X s 244 2775 m -17 X s 261
 2833 m -34 X s [4 8] 0 sd 2040 2833 m -1813 X s
 /xs 0 def 
(0)
 /Helvetica-Bold     47 stwn 
 gsave  215 1655
 t   0 r  xs neg 0 t 0 0 m
 /Helvetica-Bold findfont   47 sf 0    0 m 
(0)
 show 
 gr 
 /xs 0 def 
(2)
 /Helvetica-Bold     47 stwn 
 gsave  215 1887
 t   0 r  xs neg 0 t 0 0 m
 /Helvetica-Bold findfont   47 sf 0    0 m 
(2)
 show 
 gr 
 /xs 0 def 
(4)
 /Helvetica-Bold     47 stwn 
 gsave  215 2119
 t   0 r  xs neg 0 t 0 0 m
 /Helvetica-Bold findfont   47 sf 0    0 m 
(4)
 show 
 gr 
 /xs 0 def 
(6)
 /Helvetica-Bold     47 stwn 
 gsave  215 2352
 t   0 r  xs neg 0 t 0 0 m
 /Helvetica-Bold findfont   47 sf 0    0 m 
(6)
 show 
 gr 
 /xs 0 def 
(8)
 /Helvetica-Bold     47 stwn 
 gsave  215 2584
 t   0 r  xs neg 0 t 0 0 m
 /Helvetica-Bold findfont   47 sf 0    0 m 
(8)
 show 
 gr 
 /xs 0 def 
(10)
 /Helvetica-Bold     47 stwn 
 gsave  215 2816
 t   0 r  xs neg 0 t 0 0 m
 /Helvetica-Bold findfont   47 sf 0    0 m 
(10)
 show 
 gr  [] 0 sd 227 1672 m 1813 X s 227 1706 m -34 Y s [4 8] 0 sd 227 2833 m -1161
 Y s [] 0 sd 278 1689 m -17 Y s 330 1689 m -17 Y s 382 1689 m -17 Y s 434 1689 m
 -17 Y s 486 1706 m -34 Y s [4 8] 0 sd 486 2833 m -1161 Y s [] 0 sd 538 1689 m
 -17 Y s 589 1689 m -17 Y s 641 1689 m -17 Y s 693 1689 m -17 Y s 745 1706 m -34
 Y s [4 8] 0 sd 745 2833 m -1161 Y s [] 0 sd 797 1689 m -17 Y s 848 1689 m -17 Y
 s 900 1689 m -17 Y s 952 1689 m -17 Y s 1004 1706 m -34 Y s [4 8] 0 sd 1004
 2833 m -1161 Y s [] 0 sd 1056 1689 m -17 Y s 1107 1689 m -17 Y s 1159 1689 m
 -17 Y s 1211 1689 m -17 Y s 1263 1706 m -34 Y s [4 8] 0 sd 1263 2833 m -1161 Y
 s [] 0 sd 1315 1689 m -17 Y s 1366 1689 m -17 Y s 1418 1689 m -17 Y s 1470 1689
 m -17 Y s 1522 1706 m -34 Y s [4 8] 0 sd 1522 2833 m -1161 Y s [] 0 sd 1574
 1689 m -17 Y s 1626 1689 m -17 Y s 1677 1689 m -17 Y s 1729 1689 m -17 Y s 1781
 1706 m -34 Y s [4 8] 0 sd 1781 2833 m -1161 Y s [] 0 sd 1833 1689 m -17 Y s
 1885 1689 m -17 Y s 1936 1689 m -17 Y s 1988 1689 m -17 Y s 2040 1706 m -34 Y s
 [4 8] 0 sd 2040 2833 m -1161 Y s
 /xs 0 def 
(-1)
 /Helvetica-Bold     47 stwn 
 gsave  227 1615
 t   0 r  xs 2 div neg 0 t 0 0 m
 /Helvetica-Bold findfont   47 sf 0    0 m 
(-1)
 show 
 gr 
 /xs 0 def 
(0)
 /Helvetica-Bold     47 stwn 
 gsave  486 1615
 t   0 r  xs 2 div neg 0 t 0 0 m
 /Helvetica-Bold findfont   47 sf 0    0 m 
(0)
 show 
 gr 
 /xs 0 def 
(1)
 /Helvetica-Bold     47 stwn 
 gsave  745 1615
 t   0 r  xs 2 div neg 0 t 0 0 m
 /Helvetica-Bold findfont   47 sf 0    0 m 
(1)
 show 
 gr 
 /xs 0 def 
(2)
 /Helvetica-Bold     47 stwn 
 gsave  1004 1615
 t   0 r  xs 2 div neg 0 t 0 0 m
 /Helvetica-Bold findfont   47 sf 0    0 m 
(2)
 show 
 gr 
 /xs 0 def 
(3)
 /Helvetica-Bold     47 stwn 
 gsave  1263 1615
 t   0 r  xs 2 div neg 0 t 0 0 m
 /Helvetica-Bold findfont   47 sf 0    0 m 
(3)
 show 
 gr 
 /xs 0 def 
(4)
 /Helvetica-Bold     47 stwn 
 gsave  1522 1615
 t   0 r  xs 2 div neg 0 t 0 0 m
 /Helvetica-Bold findfont   47 sf 0    0 m 
(4)
 show 
 gr 
 /xs 0 def 
(5)
 /Helvetica-Bold     47 stwn 
 gsave  1781 1615
 t   0 r  xs 2 div neg 0 t 0 0 m
 /Helvetica-Bold findfont   47 sf 0    0 m 
(5)
 show 
 gr 
 /xs 0 def 
(6)
 /Helvetica-Bold     47 stwn 
 gsave  2040 1615
 t   0 r  xs 2 div neg 0 t 0 0 m
 /Helvetica-Bold findfont   47 sf 0    0 m 
(6)
 show 
 gr  1813 1161 227 1672 C 2267 3060 0 0 C
 /xs 0 def 
(threshold \(MeV\))
 /Helvetica-Bold     47 stwn 
 gsave  2040 1468
 t   0 r  xs neg 0 t 0 0 m
 /Helvetica-Bold findfont   47 sf 0    0 m 
(threshold \(MeV\))
 show 
 gr 
 /xs 0 def 
(s)
 /Symbol     47 stwn 
(E)
 /Helvetica-Bold     33 stwn 
(/E \()
 /Helvetica-Bold     47 stwn 
(Y)
 /Special     47 stwn 
(\))
 /Helvetica-Bold     47 stwn 
 gsave  57 2833
 t  90 r  xs neg 0 t 0 0 m
 /Symbol findfont   47 sf 0    0 m 
(s)
 show 
 currentpoint pop 0 t 
 /Helvetica-Bold findfont   33 sf 0  -16 m 
(E)
 show 
 currentpoint pop 0 t 
 /Helvetica-Bold findfont   47 sf 0    0 m 
(/E \()
 show 
 currentpoint pop 0 t 
 /Special findfont   47 sf 0    0 m 
(Y)
 show 
 currentpoint pop 0 t 
 /Helvetica-Bold findfont   47 sf 0    0 m 
(\))
 show 
 gr  1813 1161 227 1672 C [] 0 sd 486 2234 m 6 -20 d 7 -19 d 6 -18 d 7 -17 d 8
 -17 d 6 -14 d 7 -12 d 7 -12 d 8 -11 d 7 -9 d 7 -7 d 1 -2 d 6 -4 d 7 -5 d 7 -2 d
 8 -1 d 14 -1 d 19 X 10 2 d 11 3 d 12 5 d 16 8 d 21 13 d 33 22 d 18 11 d 31 17 d
 37 22 d 61 38 d 60 37 d 36 22 d 34 18 d 46 24 d 45 21 d 46 21 d 45 19 d 46 18 d
 46 18 d 47 16 d 47 15 d 48 14 d 48 12 d 48 11 d 41 9 d 47 8 d 48 7 d 48 6 d 46
 5 d 35 2 d s 486 2198 m 19 Y s 486 2251 m 19 Y s 469 2198 m 34 X s 469 2270 m
 34 X s /w 34 def /w2 {w 2 div} def /w3 {w 3 div} def 486 2234 m20 563 2046 m 13
 Y s 563 2093 m 13 Y s 546 2046 m 34 X s 546 2106 m 34 X s 563 2076 m20 615 2034
 m 12 Y s 615 2080 m 12 Y s 598 2034 m 34 X s 598 2092 m 34 X s 615 2063 m20 745
 2096 m 14 Y s 745 2144 m 14 Y s 728 2096 m 34 X s 728 2158 m 34 X s 745 2127
 m20 1004 2246 m 18 Y s 1004 2298 m 19 Y s 987 2246 m 34 X s 987 2317 m 34 X s
 1004 2281 m20 1781 2457 m 33 Y s 1781 2524 m 33 Y s 1764 2457 m 34 X s 1764
 2557 m 34 X s 1781 2507 m20 486 2075 m 9 -14 d 9 -12 d 9 -12 d 9 -10 d 9 -9 d 9
 -7 d 9 -7 d 9 -5 d 5 -2 d 9 -3 d 7 -1 d 10 -1 d 26 2 d 13 1 d 14 3 d 17 5 d 18
 6 d 34 14 d 26 11 d 8 3 d 33 13 d 38 17 d 57 26 d 81 37 d 39 18 d 11 4 d 72 29
 d 73 29 d 73 27 d 73 26 d 75 25 d 63 21 d 73 22 d 74 21 d 73 20 d 71 19 d 57 13
 d s 486 2075 m21 563 1997 m21 615 1994 m21 745 2037 m21 1004 2152 m21 1781 2378
 m 9 Y s 1781 2421 m 10 Y s 1764 2378 m 34 X s 1764 2431 m 34 X s 1781 2404 m21
 486 1991 m 12 -10 d 10 -8 d 11 -7 d 11 -6 d 11 -5 d 10 -4 d 12 -3 d 9 -2 d 24 X
 19 1 d 16 2 d 18 3 d 17 3 d 21 6 d 58 16 d 29 9 d 33 10 d 41 15 d 60 23 d 57 21
 d 39 13 d 84 28 d 85 26 d 93 28 d 79 23 d 85 24 d 85 22 d 90 23 d 80 20 d 96 22
 d s 486 1991 m22 563 1948 m22 615 1947 m22 745 1977 m22 1004 2050 m 1 Y s 1004
 2085 m 1 Y s 987 2050 m 34 X s 987 2086 m 34 X s 1004 2068 m22 1781 2251 m 16 Y
 s 1781 2301 m 15 Y s 1764 2251 m 34 X s 1764 2316 m 34 X s 1781 2284 m22 486
 1935 m 18 -6 d 19 -6 d 17 -4 d 18 -3 d 5 -1 d 19 -2 d 17 -1 d 30 X 15 2 d 17 2
 d 21 4 d 56 13 d 7 2 d 41 8 d 47 11 d 56 14 d 115 29 d 120 30 d 134 35 d 133 35
 d 137 37 d 127 35 d 126 36 d s 486 1914 m 4 Y s 486 1952 m 4 Y s 469 1914 m 34
 X s 469 1956 m 34 X s 486 1935 m23 563 1896 m 2 Y s 563 1932 m 3 Y s 546 1896 m
 34 X s 546 1935 m 34 X s 563 1915 m23 615 1892 m 3 Y s 615 1929 m 3 Y s 598
 1892 m 34 X s 598 1932 m 34 X s 615 1912 m23 745 1914 m 4 Y s 745 1952 m 3 Y s
 728 1914 m 34 X s 728 1955 m 34 X s 745 1935 m23 1004 1972 m 8 Y s 1004 2014 m
 9 Y s 987 1972 m 34 X s 987 2023 m 34 X s 1004 1997 m23 1781 2150 m 38 Y s 1781
 2222 m 37 Y s 1764 2150 m 34 X s 1764 2259 m 34 X s 1781 2205 m23 486 1888 m 17
 -1 d 17 -2 d 16 -1 d 17 -1 d 26 X 21 1 d 15 1 d 16 1 d 20 2 d 26 3 d 44 6 d 20
 2 d 4 1 d 28 2 d 33 3 d 147 8 d 32 3 d 19 1 d 52 5 d 52 5 d 53 5 d 53 6 d 54 7
 d 55 7 d 55 8 d 61 9 d 53 8 d 55 8 d 55 10 d 60 10 d 52 10 d 54 11 d 13 2 d s
 486 1870 m 1 Y s 486 1905 m 2 Y s 469 1870 m 34 X s 469 1907 m 34 X s 486 1888
 m24 563 1865 m 1 Y s 563 1900 m 1 Y s 546 1865 m 34 X s 546 1901 m 34 X s 563
 1883 m24 615 1867 m 1 Y s 615 1902 m 1 Y s 598 1867 m 34 X s 598 1903 m 34 X s
 615 1885 m24 745 1881 m 2 Y s 745 1917 m 2 Y s 728 1881 m 34 X s 728 1919 m 34
 X s 745 1900 m24 1004 1896 m 4 Y s 1004 1934 m 4 Y s 987 1896 m 34 X s 987 1938
 m 34 X s 1004 1917 m24 1781 2000 m 11 Y s 1781 2045 m 12 Y s 1764 2000 m 34 X s
 1764 2057 m 34 X s 1781 2028 m24 486 1858 m 9 -1 d 8 -1 d 10 -1 d 43 X 7 1 d 6
 X 7 1 d 9 1 d 15 2 d 8 1 d 6 1 d 8 X 8 1 d 15 X 9 -1 d 10 X 14 -1 d 41 -4 d 10
 X 8 -1 d 74 X 21 1 d 22 1 d 30 1 d 48 2 d 46 3 d 26 1 d 53 2 d 53 3 d 54 2 d 55
 3 d 56 3 d 56 3 d 56 4 d 60 4 d 52 3 d 56 4 d 56 4 d 59 5 d 53 4 d 58 5 d s 486
 1858 m25 563 1822 m 17 Y s 563 1873 m 16 Y s 546 1822 m 34 X s 546 1889 m 34 X
 s 563 1856 m25 615 1840 m 5 Y s 615 1879 m 5 Y s 598 1840 m 34 X s 598 1884 m
 34 X s 615 1862 m25 745 1835 m 4 Y s 745 1873 m 4 Y s 728 1835 m 34 X s 728
 1877 m 34 X s 745 1856 m25 1004 1848 m s 1004 1882 m s 987 1848 m 34 X s 987
 1882 m 34 X s 1004 1865 m25 1781 1891 m 6 Y s 1781 1931 m 5 Y s 1764 1891 m 34
 X s 1764 1936 m 34 X s 1781 1914 m25 486 1868 m 20 X 9 -1 d 19 X 11 -1 d 9 X 9
 -1 d 52 -3 d 39 X 6 1 d 7 X 7 1 d 11 1 d 22 2 d 8 1 d 7 X 7 1 d 11 X 5 1 d 20 X
 10 1 d 296 X 68 1 d 69 X 69 1 d 77 1 d 66 X 69 1 d 69 1 d 75 1 d 65 1 d 69 1 d
 14 X s 486 1842 m 9 Y s 486 1885 m 9 Y s 469 1842 m 34 X s 469 1894 m 34 X s
 486 1868 m26 563 1839 m 9 Y s 563 1882 m 10 Y s 546 1839 m 34 X s 546 1892 m 34
 X s 563 1865 m26 615 1837 m 8 Y s 615 1879 m 8 Y s 598 1837 m 34 X s 598 1887 m
 34 X s 615 1862 m26 745 1845 m 8 Y s 745 1887 m 7 Y s 728 1845 m 34 X s 728
 1894 m 34 X s 745 1870 m26 1004 1845 m 9 Y s 1004 1888 m 8 Y s 987 1845 m 34 X
 s 987 1896 m 34 X s 1004 1871 m26 1781 1855 m 7 Y s 1781 1896 m 7 Y s 1764 1855
 m 34 X s 1764 1903 m 34 X s 1781 1879 m26 2267 3060 0 0 C 1813 1161 227 1672 C
 2267 3060 0 0 C
 gsave  486 2775
 t   0 r 0 0 m
 /Helvetica-Bold findfont   47 sf 0    0 m 
(E)
 show 
 currentpoint pop 0 t 
 /Symbol findfont   33 sf 0  -16 m 
(g)
 show 
 currentpoint pop 0 t 
 /Helvetica-Bold findfont   47 sf 0    0 m 
( = 28.07 MeV)
 show 
 gr  1813 1161 227 1672 C 2267 3060 0 0 C 1813 1161 227 1672 C 2267 3060 0 0 C
 gsave  486 2717
 t   0 r 0 0 m
 /Helvetica-Bold findfont   47 sf 0    0 m 
(E)
 show 
 currentpoint pop 0 t 
 /Symbol findfont   33 sf 0  -16 m 
(g)
 show 
 currentpoint pop 0 t 
 /Helvetica-Bold findfont   47 sf 0    0 m 
( = 48.20 MeV)
 show 
 gr  1813 1161 227 1672 C 2267 3060 0 0 C 1813 1161 227 1672 C 2267 3060 0 0 C
 gsave  486 2659
 t   0 r 0 0 m
 /Helvetica-Bold findfont   47 sf 0    0 m 
(E)
 show 
 currentpoint pop 0 t 
 /Symbol findfont   33 sf 0  -16 m 
(g)
 show 
 currentpoint pop 0 t 
 /Helvetica-Bold findfont   47 sf 0    0 m 
( = 74.95 MeV)
 show 
 gr  1813 1161 227 1672 C 2267 3060 0 0 C 1813 1161 227 1672 C 2267 3060 0 0 C
 gsave  486 2601
 t   0 r 0 0 m
 /Helvetica-Bold findfont   47 sf 0    0 m 
(E)
 show 
 currentpoint pop 0 t 
 /Symbol findfont   33 sf 0  -16 m 
(g)
 show 
 currentpoint pop 0 t 
 /Helvetica-Bold findfont   47 sf 0    0 m 
( = 107.7 MeV)
 show 
 gr  1813 1161 227 1672 C 2267 3060 0 0 C 1813 1161 227 1672 C 2267 3060 0 0 C
 gsave  486 2543
 t   0 r 0 0 m
 /Helvetica-Bold findfont   47 sf 0    0 m 
(E)
 show 
 currentpoint pop 0 t 
 /Symbol findfont   33 sf 0  -16 m 
(g)
 show 
 currentpoint pop 0 t 
 /Helvetica-Bold findfont   47 sf 0    0 m 
( = 286.5 MeV)
 show 
 gr  1813 1161 227 1672 C 2267 3060 0 0 C 1813 1161 227 1672 C 2267 3060 0 0 C
 gsave  486 2485
 t   0 r 0 0 m
 /Helvetica-Bold findfont   47 sf 0    0 m 
(E)
 show 
 currentpoint pop 0 t 
 /Symbol findfont   33 sf 0  -16 m 
(g)
 show 
 currentpoint pop 0 t 
 /Helvetica-Bold findfont   47 sf 0    0 m 
( = 501.6 MeV)
 show 
 gr  1813 1161 227 1672 C 2267 3060 0 0 C 1813 1161 227 1672 C 2267 3060 0 0 C
 gsave  486 2427
 t   0 r 0 0 m
 /Helvetica-Bold findfont   47 sf 0    0 m 
(E)
 show 
 currentpoint pop 0 t 
 /Symbol findfont   33 sf 0  -16 m 
(g)
 show 
 currentpoint pop 0 t 
 /Helvetica-Bold findfont   47 sf 0    0 m 
( = 875.7 MeV)
 show 
 gr  1813 1161 227 1672 C 2267 3060 0 0 C 1813 1161 227 1672 C 2267 3060 0 0 C
 /w 32 def /w2 {w 2 div} def /w3 {w 3 div} def 408 2798 m20 1813 1161 227 1672 C
 2267 3060 0 0 C 1813 1161 227 1672 C 2267 3060 0 0 C 408 2740 m21 1813 1161 227
 1672 C 2267 3060 0 0 C 1813 1161 227 1672 C 2267 3060 0 0 C 408 2682 m22 1813
 1161 227 1672 C 2267 3060 0 0 C 1813 1161 227 1672 C 2267 3060 0 0 C 408 2624
 m23 1813 1161 227 1672 C 2267 3060 0 0 C 1813 1161 227 1672 C 2267 3060 0 0 C
 408 2566 m24 1813 1161 227 1672 C 2267 3060 0 0 C 1813 1161 227 1672 C 2267
 3060 0 0 C 408 2508 m25 1813 1161 227 1672 C 2267 3060 0 0 C 1813 1161 227 1672
 C 2267 3060 0 0 C 408 2450 m26 1813 1161 227 1672 C
 gr  gr 
showpage
end
%%EOF
