%!PS-Adobe-2.0 EPSF-2.0
%%BoundingBox: 0 0 567 567
%%Title: nonuni.eps
%%Creator: HIGZ Version 1.22/08
%%CreationDate: 97/07/02   14.12
%%EndComments
80 dict begin
/s {stroke} def /l {lineto} def /m {moveto} def /t {translate} def
/sw {stringwidth} def /r {rotate} def /rl {roll}  def /R {repeat} def
/d {rlineto} def /rm {rmoveto} def /gr {grestore} def /f {eofill} def
/c {setrgbcolor} def /lw {setlinewidth} def /sd {setdash} def
/cl {closepath} def /sf {scalefont setfont} def /black {0 setgray} def
/box {m dup 0 exch d exch 0 d 0 exch neg d cl} def
/NC{systemdict begin initclip end}def/C{NC box clip newpath}def
/bl {box s} def /bf {box f} def /Y { 0 exch d} def /X { 0 d} def 
/mp {newpath /y exch def /x exch def} def
/side {[w .77 mul w .23 mul] .385 w mul sd w 0 l currentpoint t -144 r} def
/mr {mp x y w2 0 360 arc} def /m24 {mr s} def /m20 {mr f} def
/mb {mp x y w2 add m w2 neg 0 d 0 w neg d w 0 d 0 w d cl} def
/mt {mp x y w2 add m w2 neg w neg d w 0 d cl} def
/m21 {mb f} def /m25 {mb s} def /m22 {mt f} def /m26 {mt s} def
/m23 {mp x y w2 sub m w2 w d w neg 0 d cl f} def
/m27 {mp x y w2 add m w3 neg w2 neg d w3 w2 neg d w3  w2 d cl s} def
/m28 {mp x w2 sub y w2 sub w3 add m w3 0 d 0 w3 neg d w3 0 d 0 w3 d w3 0 d
 0 w3 d w3 neg 0 d 0 w3 d w3 neg 0 d
 0 w3 neg d w3 neg 0 d cl s } def
/m29 {mp gsave x w2 sub y w2 add w3 sub m currentpoint t
 4 {side} repeat cl fill gr} def
/m30 {mp gsave x w2 sub y w2 add w3 sub m currentpoint t
 5 {side} repeat s gr} def
/m31 {mp x y w2 sub m 0 w d x w2 sub y m w 0 d
 x w2 sub y w2 add m w w neg d x w2 sub y w2
 sub m w w d s} def
/m2 {mp x y w2 sub m 0 w d x w2 sub y m w 0 d s} def
/m5 {mp x w2 sub y w2 sub m w w d x w2 sub y w2 add m w w neg d s} def
/DP {/PT exch def gsave 47.2 47.2 scale PT 1 eq { 16 16 1 [ 16 0 0 16 neg 0 16
] { < AA AA 55 55 AA AA 55 55 AA AA 55 55 AA AA 55 55 AA AA 55 55 AA AA 55 55
AA AA 55 55 AA AA 55 55 > } image } if PT 2 eq { 16 16 1 [ 16 0 0 16 neg 0 16
] { < BB BB EE EE BB BB EE EE BB BB EE EE BB BB EE EE BB BB EE EE BB BB EE EE
BB BB EE EE BB BB EE EE > } image } if PT 3 eq { 16 16 1 [ 16 0 0 16 neg 0 16
] { < FF FF BB BB FF FF EE EE FF FF BB BB FF FF EE EE FF FF BB BB FF FF EE EE
FF FF BB BB FF FF EE EE > } image } if PT 4 eq { 16 16 1 [ 16 0 0 16 neg 0 16
] { < DF DF BF BF 7F 7F FE FE FD FD FB FB F7 F7 EF EF DF DF BF BF 7F 7F FE FE
FD FD FB FB F7 F7 EF EF > } image } if PT 5 eq { 16 16 1 [ 16 0 0 16 neg 0 16
] { < 7F 7F BF B F DF DF EF EF F7 F7 FB FB FD FD FE FE 7F 7F BF BF DF DF EF
EF F7 F7 FB FB FD FD FE FE > } image } if PT 6 eq { 16 16 1 [ 16 0 0 16 neg 0
16 ] { < BB BB BB BB BB BB BB BB BB BB BB BB BB BB BB BB BB BB BB BB BB BB BB
BB BB BB BB BB BB BB BB BB > } image } if PT 7 eq { 16 16 1 [ 16 0 0 16 neg 0
16 ] { < FF FF FF FF FF FF 00 00 FF FF FF FF FF FF 00 00 FF FF FF FF FF FF 00
00 FF FF FF FF FF FF 00 00 > } image } if PT 8 eq { 16 16 1 [ 16 0 0 16 neg 0
16 ] { < EE EE 47 47 83 83 C5 C5 EE EE 5C 5C 38 38 74 74 EE EE 47 47 83 83 C5
C5 EE EE 5C 5C 38 38 74 74 > } image } if PT 9 eq { 16 16 1 [ 16 0 0 16 neg 0
16 ] { < EF EF EF EF D7 D7 38 38 FE FE FE FE 7D 7D 83 83 EF EF EF EF D7 D7 38
38 FE FE FE FE 7D 7D 83 83 > } image } if PT 10 eq { 16 16 1 [ 16 0 0 16 neg
0 16 ] { < EF EF EF EF EF EF 00 00 FE FE FE FE FE FE 00 00 EF EF EF EF EF EF
00 00 FE FE FE FE FE FE 00 00 > } image } if PT 11 eq { 16 16 1 [ 16 0 0 16
neg 0 16 ] { < F7 F7 B6 B6 D5 D5 E3 E3 D5 D5 B6 B6 F7 F7 FF FF 7F 7F 6B 6B 5D
5D 3E 3E 5D 5D 6B 6B 7F 7F FF FF > } image } if PT 12 eq { 16 16 1 [ 16 0 0
16 neg 0 16 ] { < E3 E3 DD DD BE BE BE BE BE BE DD DD E3 E3 FF FF 3E 3E DD DD
EB EB EB EB EB EB DD DD 3E 3E FF FF > } image } if PT 13 eq { 16 16 1 [ 16 0
0 16 neg 0 16 ] { < FE FE 7D 7D BB BB D7 D7 EF EF D7 D7 BB BB 7D 7D FE FE 7D
7D BB BB D7 D7 EF EF D7 D7 BB BB 7D 7D > } image } if PT 14 eq { 16 16 1 [ 16
0 0 16 neg 0 16 ] { < 00 00 EE EF EE EF EE EF 0E E0 EE EE EE EE EE EE 00 EE
FE EE FE EE FE EE 00 00 FE EF FE EF FE EF > } image } if PT 15 eq { 16 16 1 [
16 0 0 16 neg 0 16 ] { < DD DD AA AA DD DD FF FF 77 77 AA AA 77 77 FF FF DD
DD AA AA DD DD FF FF 77 77 AA AA 77 77 FF FF > } image } if PT 16 eq { 16 16
1 [ 16 0 0 16 neg 0 16 ] { < F1 F1 EE EE 1F 1F FF FF F1 F1 EE EE 1F 1F FF FF
F1 F1 EE EE 1F 1F FF FF F1 F1 EE EE 1F 1F FF FF > } image } if PT 17 eq { 16
16 1 [ 16 0 0 16 neg 0 16 ] { < EE EE DD DD BB BB FF FF EE EE DD DD BB BB FF
FF EE EE DD DD BB BB FF FF EE EE DD DD BB BB FF FF > } image } if PT 18 eq {
16 16 1 [ 16 0 0 16 neg 0 16 ] { < BB BB DD DD EE EE FF FF BB BB DD DD EE EE
FF FF BB BB DD DD EE EE FF FF BB BB DD DD EE EE FF FF > } image } if PT 19 eq
{ 16 16 1 [ 16 0 0 16 neg 0 16 ] { < 1F FC 67 F3 7B EF BD DE BD DE DE BD E6
B3 F8 0F E6 B3 DE BD BD DE BD DE 7B EF 67 F3 1F FC 7F FF > } image } if PT
20 eq { 16 16 1 [ 16 0 0 16 neg 0 16 ] { < DD DD EE EE EE EE EE EE DD DD BB
BB BB BB BB BB DD DD EE EE EE EE EE EE DD DD BB BB BB BB BB BB > } image }
if PT 21 eq { 16 16 1 [ 16 0 0 16 neg 0 16 ] { < 0E 0E EF EF EF EF EF EF E0
E0 FE FE FE FE FE FE 0E 0E EF EF EF EF EF EF E0 E0 FE FE FE FE FE FE > }
image } if PT 22 eq { 16 16 1 [ 16 0 0 16 neg 0 16 ] { < 70 70 F7 F7 F7 F7 F7
F7 07 07 7F 7F 7F 7F 7F 7F 70 70 F7 F7 F7 F7 F7 F7 07 07 7F 7F 7F 7F 7F 7F >
} image } if PT 23 eq { 16 16 1 [ 16 0 0 16 neg 0 16 ] { < AA AA 55 55 A9 A9
D1 D1 E1 E1 D1 D1 A9 A9 55 55 AA AA 55 55 A9 A9 D1 D1 E1 E1 D1 D1 A9 A9 55 55
> } image } if PT 24 eq { 16 16 1 [ 16 0 0 16 neg 0 16 ] { < FF FE FF FC EA
A8 D5 54 EA A8 D5 54 E8 28 D4 54 E8 E8 D4 D4 E8 EA 54 D5 A8 EA 54 D5 00 C0 00
80 > } image } if PT 25 eq { 16 16 1 [ 16 0 0 16 neg 0 16 ] { < FF FE FF FC
FF F8 FF F0 F0 00 F0 00 F0 20 F0 60 F0 E0 F1 E0 F3 E0 F0 00 E0 00 C0 00 80 00
00 00 > } image } if gr } def /FA { /PT exch def gsave clip 0 0 translate 1 1
54 { 1 sub 47.2 mul /Xcurr exch def 1 1 74 { 1 sub 47.2 mul /Ycurr exch def
gsave Xcurr Ycurr translate PT DP gr } for } for gr } def
/reencdict 24 dict def /ReEncode {reencdict begin /nco&na exch def
/nfnam exch def /basefontname exch def /basefontdict basefontname findfont def
/newfont basefontdict maxlength dict def basefontdict {exch dup /FID ne
{dup /Encoding eq {exch dup length array copy newfont 3 1 roll put} {exch
newfont 3 1 roll put} ifelse} {pop pop} ifelse } forall newfont
/FontName nfnam put nco&na aload pop nco&na length 2 idiv {newfont
/Encoding get 3 1 roll put} repeat nfnam newfont definefont pop end } def
/accvec [ 176 /agrave 181 /Agrave 190 /acircumflex 192 /Acircumflex
201 /adieresis 204 /Adieresis 209 /ccedilla 210 /Ccedilla 211 /eacute
212 /Eacute 213 /egrave 214 /Egrave 215 /ecircumflex 216 /Ecircumflex
217 /edieresis 218 /Edieresis 219 /icircumflex 220 /Icircumflex
221 /idieresis 222 /Idieresis 223 /ntilde 224 /Ntilde 226 /ocircumflex
228 /Ocircumflex 229 /odieresis 230 /Odieresis 231 /ucircumflex 236 /Ucircumflex
237 /udieresis 238 /Udieresis 239 /aring 242 /Aring 243 /ydieresis
244 /Ydieresis 246 /aacute 247 /Aacute 252 /ugrave 253 /Ugrave] def
/Times-Roman /Times-Roman accvec ReEncode
/Times-Italic /Times-Italic accvec ReEncode
/Times-Bold /Times-Bold accvec ReEncode
/Times-BoldItalic /Times-BoldItalic accvec ReEncode
/Helvetica /Helvetica accvec ReEncode
/Helvetica-Oblique /Helvetica-Oblique accvec ReEncode
/Helvetica-Bold /Helvetica-Bold accvec ReEncode
/Helvetica-BoldOblique /Helvetica-BoldOblique  accvec ReEncode
/Courier /Courier accvec ReEncode
/Courier-Oblique /Courier-Oblique accvec ReEncode
/Courier-Bold /Courier-Bold accvec ReEncode
/Courier-BoldOblique /Courier-BoldOblique accvec ReEncode
/oshow {gsave [] 0 sd true charpath stroke gr} def
/stwn { /fs exch def /fn exch def /text exch def fn findfont fs sf
 text sw pop xs add /xs exch def} def
/stwb { /fs exch def /fn exch def /nbas exch def /textf exch def
textf length /tlen exch def nbas tlen gt {/nbas tlen def} if
fn findfont fs sf textf dup length nbas sub nbas getinterval sw
pop neg xs add /xs exch def} def
/accspe [ 65 /plusminus 66 /bar 67 /existential 68 /universal
69 /exclam 70 /numbersign 71 /greater 72 /question 73 /integral
74 /colon 75 /semicolon 76 /less 77 /bracketleft 78 /bracketright
79 /greaterequal 80 /braceleft 81 /braceright 82 /radical
83 /spade 84 /heart 85 /diamond 86 /club 87 /lessequal
88 /multiply 89 /percent 90 /infinity 48 /circlemultiply 49 /circleplus
50 /emptyset 51 /lozenge 52 /bullet 53 /arrowright 54 /arrowup
55 /arrowleft 56 /arrowdown 57 /arrowboth 48 /degree 44 /comma 43 /plus
 45 /angle 42 /angleleft 47 /divide 61 /notequal 40 /equivalence 41 /second
 97 /approxequal 98 /congruent 99 /perpendicular 100 /partialdiff 101 /florin
 102 /intersection 103 /union 104 /propersuperset 105 /reflexsuperset
 106 /notsubset 107 /propersubset 108 /reflexsubset 109 /element 110 /notelement
 111 /gradient 112 /logicaland 113 /logicalor 114 /arrowdblboth
 115 /arrowdblleft 116 /arrowdblup 117 /arrowdblright 118 /arrowdbldown
 119 /ampersand 120 /omega1 121 /similar 122 /aleph ] def
/Symbol /Special accspe ReEncode
gsave .25 .25 scale 
%%EndProlog
 gsave 0 0 t black [] 0 sd 1 lw 3 lw 1758 1814 283 227 bl 1758 1814 283 227 C NC
 1 lw 283 227 m 1814 Y s 318 227 m -35 X s [4 8] 0 sd 2041 227 m -1758 X s
 [] 0 sd 301 340 m -18 X s 318 454 m -35 X s [4 8] 0 sd 2041 454 m -1758 X s
 [] 0 sd 301 567 m -18 X s 318 680 m -35 X s [4 8] 0 sd 2041 680 m -1758 X s
 [] 0 sd 301 794 m -18 X s 318 907 m -35 X s [4 8] 0 sd 2041 907 m -1758 X s
 [] 0 sd 301 1021 m -18 X s 318 1134 m -35 X s [4 8] 0 sd 2041 1134 m -1758 X s
 [] 0 sd 301 1247 m -18 X s 318 1361 m -35 X s [4 8] 0 sd 2041 1361 m -1758 X s
 [] 0 sd 301 1474 m -18 X s 318 1588 m -35 X s [4 8] 0 sd 2041 1588 m -1758 X s
 [] 0 sd 301 1701 m -18 X s 318 1814 m -35 X s [4 8] 0 sd 2041 1814 m -1758 X s
 [] 0 sd 301 1928 m -18 X s 318 2041 m -35 X s [4 8] 0 sd 2041 2041 m -1758 X s
 /xs 0 def 
(0.7)
 /Times-BoldItalic     86 stwn 
 gsave  261 198
 t   0 r  xs neg 0 t 0 0 m
 /Times-BoldItalic findfont   86 sf 0    0 m 
(0.7)
 show 
 gr
 /xs 0 def 
(0.75)
 /Times-BoldItalic     86 stwn 
 gsave  261 425
 t   0 r  xs neg 0 t 0 0 m
 /Times-BoldItalic findfont   86 sf 0    0 m 
(0.75)
 show 
 gr
 /xs 0 def 
(0.8)
 /Times-BoldItalic     86 stwn 
 gsave  261 652
 t   0 r  xs neg 0 t 0 0 m
 /Times-BoldItalic findfont   86 sf 0    0 m 
(0.8)
 show 
 gr
 /xs 0 def 
(0.85)
 /Times-BoldItalic     86 stwn 
 gsave  261 879
 t   0 r  xs neg 0 t 0 0 m
 /Times-BoldItalic findfont   86 sf 0    0 m 
(0.85)
 show 
 gr
 /xs 0 def 
(0.9)
 /Times-BoldItalic     86 stwn 
 gsave  261 1106
 t   0 r  xs neg 0 t 0 0 m
 /Times-BoldItalic findfont   86 sf 0    0 m 
(0.9)
 show 
 gr
 /xs 0 def 
(0.95)
 /Times-BoldItalic     86 stwn 
 gsave  261 1332
 t   0 r  xs neg 0 t 0 0 m
 /Times-BoldItalic findfont   86 sf 0    0 m 
(0.95)
 show 
 gr
 /xs 0 def 
(1)
 /Times-BoldItalic     86 stwn 
 gsave  261 1559
 t   0 r  xs neg 0 t 0 0 m
 /Times-BoldItalic findfont   86 sf 0    0 m 
(1)
 show 
 gr
 /xs 0 def 
(1.05)
 /Times-BoldItalic     86 stwn 
 gsave  261 1786
 t   0 r  xs neg 0 t 0 0 m
 /Times-BoldItalic findfont   86 sf 0    0 m 
(1.05)
 show 
 gr
 /xs 0 def 
(1.1)
 /Times-BoldItalic     86 stwn 
 gsave  261 2013
 t   0 r  xs neg 0 t 0 0 m
 /Times-BoldItalic findfont   86 sf 0    0 m 
(1.1)
 show 
 gr
 [] 0 sd 283 227 m 1758 X s 338 261 m -34 Y s [4 8] 0 sd 338 2041 m -1814 Y s
 [] 0 sd 393 244 m -17 Y s 448 244 m -17 Y s 503 244 m -17 Y s 558 244 m -17 Y s
 613 261 m -34 Y s [4 8] 0 sd 613 2041 m -1814 Y s [] 0 sd 668 244 m -17 Y s 723
 244 m -17 Y s 778 244 m -17 Y s 833 244 m -17 Y s 888 261 m -34 Y s [4 8] 0 sd
 888 2041 m -1814 Y s [] 0 sd 943 244 m -17 Y s 998 244 m -17 Y s 1052 244 m -17
 Y s 1107 244 m -17 Y s 1162 261 m -34 Y s [4 8] 0 sd 1162 2041 m -1814 Y s
 [] 0 sd 1217 244 m -17 Y s 1272 244 m -17 Y s 1327 244 m -17 Y s 1382 244 m -17
 Y s 1437 261 m -34 Y s [4 8] 0 sd 1437 2041 m -1814 Y s [] 0 sd 1492 244 m -17
 Y s 1547 244 m -17 Y s 1602 244 m -17 Y s 1657 244 m -17 Y s 1712 261 m -34 Y s
 [4 8] 0 sd 1712 2041 m -1814 Y s [] 0 sd 1767 244 m -17 Y s 1821 244 m -17 Y s
 1876 244 m -17 Y s 1931 244 m -17 Y s 1986 261 m -34 Y s [4 8] 0 sd 1986 2041 m
 -1814 Y s [] 0 sd 338 261 m -34 Y s [4 8] 0 sd 338 2041 m -1814 Y s [] 0 sd 284
 244 m -17 Y s 1986 261 m -34 Y s [4 8] 0 sd 1986 2041 m -1814 Y s
 /xs 0 def 
(0)
 /Times-BoldItalic     86 stwn 
 gsave  338 136
 t   0 r  xs 2 div neg 0 t 0 0 m
 /Times-BoldItalic findfont   86 sf 0    0 m 
(0)
 show 
 gr
 /xs 0 def 
(5)
 /Times-BoldItalic     86 stwn 
 gsave  613 136
 t   0 r  xs 2 div neg 0 t 0 0 m
 /Times-BoldItalic findfont   86 sf 0    0 m 
(5)
 show 
 gr
 /xs 0 def 
(10)
 /Times-BoldItalic     86 stwn 
 gsave  888 136
 t   0 r  xs 2 div neg 0 t 0 0 m
 /Times-BoldItalic findfont   86 sf 0    0 m 
(10)
 show 
 gr
 /xs 0 def 
(15)
 /Times-BoldItalic     86 stwn 
 gsave  1162 136
 t   0 r  xs 2 div neg 0 t 0 0 m
 /Times-BoldItalic findfont   86 sf 0    0 m 
(15)
 show 
 gr
 /xs 0 def 
(20)
 /Times-BoldItalic     86 stwn 
 gsave  1437 136
 t   0 r  xs 2 div neg 0 t 0 0 m
 /Times-BoldItalic findfont   86 sf 0    0 m 
(20)
 show 
 gr
 /xs 0 def 
(25)
 /Times-BoldItalic     86 stwn 
 gsave  1712 136
 t   0 r  xs 2 div neg 0 t 0 0 m
 /Times-BoldItalic findfont   86 sf 0    0 m 
(25)
 show 
 gr
 /xs 0 def 
(30)
 /Times-BoldItalic     86 stwn 
 gsave  1986 136
 t   0 r  xs 2 div neg 0 t 0 0 m
 /Times-BoldItalic findfont   86 sf 0    0 m 
(30)
 show 
 gr
 1758 1814 283 227 C [] 0 sd 1904 1488 m 51 Y s 1904 1551 m 50 Y s 1876 1545 m
 22 X s 1910 1545 m 21 X s 1898 1488 m 12 X s 1898 1601 m 12 X s 1876 1539 m 12
 Y s 1931 1539 m 12 Y s /w 11 def /w2 {w 2 div} def /w3 {w 3 div} def 1904 1545
 m20 1739 1452 m 29 Y s 1739 1492 m 30 Y s 1712 1487 m 21 X s 1745 1487 m 22 X s
 1733 1452 m 12 X s 1733 1522 m 12 X s 1712 1481 m 11 Y s 1767 1481 m 11 Y s
 1739 1487 m20 1574 1390 m 30 Y s 1574 1431 m 30 Y s 1547 1426 m 22 X s 1580
 1426 m 22 X s 1569 1390 m 11 X s 1569 1461 m 11 X s 1547 1420 m 11 Y s 1602
 1420 m 11 Y s 1574 1426 m20 1410 1393 m 22 Y s 1410 1426 m 22 Y s 1382 1421 m
 22 X s 1415 1421 m 22 X s 1404 1393 m 11 X s 1404 1448 m 11 X s 1382 1415 m 11
 Y s 1437 1415 m 11 Y s 1410 1421 m20 1245 1464 m 24 Y s 1245 1499 m 24 Y s 1217
 1494 m 22 X s 1250 1494 m 22 X s 1239 1464 m 11 X s 1239 1523 m 11 X s 1217
 1488 m 11 Y s 1272 1488 m 11 Y s 1245 1494 m20 1080 1548 m 16 Y s 1080 1575 m
 16 Y s 1052 1570 m 22 X s 1086 1570 m 21 X s 1074 1548 m 12 X s 1074 1591 m 12
 X s 1052 1564 m 11 Y s 1107 1564 m 11 Y s 1080 1570 m20 915 1589 m 15 Y s 915
 1615 m 15 Y s 888 1610 m 22 X s 921 1610 m 22 X s 910 1589 m 11 X s 910 1630 m
 11 X s 888 1604 m 11 Y s 943 1604 m 11 Y s 915 1610 m20 750 1673 m 23 Y s 750
 1707 m 23 Y s 723 1701 m 22 X s 756 1701 m 22 X s 745 1673 m 11 X s 745 1730 m
 11 X s 723 1696 m 11 Y s 778 1696 m 11 Y s 750 1701 m20 586 1752 m 21 Y s 586
 1784 m 21 Y s 558 1779 m 22 X s 591 1779 m 22 X s 580 1752 m 11 X s 580 1805 m
 11 X s 558 1773 m 11 Y s 613 1773 m 11 Y s 586 1779 m20 421 1812 m 13 Y s 421
 1836 m 14 Y s 393 1831 m 22 X s 426 1831 m 22 X s 415 1812 m 11 X s 415 1850 m
 11 X s 393 1825 m 11 Y s 448 1825 m 11 Y s 421 1831 m20 1904 1552 m -15 -10 d
 -15 -10 d -15 -9 d -14 -8 d -15 -9 d -15 -7 d -15 -7 d -15 -7 d -15 -7 d -14 -5
 d -15 -6 d -15 -5 d -15 -4 d -15 -5 d -15 -3 d -14 -4 d -15 -3 d -15 -2 d -15
 -3 d -15 -2 d -15 -1 d -14 -1 d -15 -1 d -15 -1 d -30 X -15 1 d -14 1 d -15 1 d
 -15 1 d -15 2 d -15 2 d -15 2 d -14 2 d -15 3 d -15 3 d -15 3 d -15 4 d -15 3 d
 -14 4 d -15 4 d -15 5 d -15 4 d -15 5 d -14 5 d -15 5 d -15 5 d -15 6 d -15 5 d
 -15 6 d -14 6 d -15 6 d -15 6 d -15 6 d -15 7 d -15 6 d -14 7 d -15 6 d -15 7 d
 -15 7 d -15 7 d -15 7 d -14 7 d -15 7 d -15 7 d -15 7 d -15 7 d -15 7 d -14 7 d
 -15 8 d -15 7 d -15 7 d -15 7 d -15 7 d -14 7 d -15 7 d -15 8 d -15 6 d -15 7 d
 -15 7 d -14 7 d -15 7 d -15 6 d -15 7 d -15 6 d -15 6 d -14 7 d -15 6 d -15 6 d
 -15 5 d -15 6 d -15 5 d -14 6 d -15 5 d -15 5 d -15 5 d -15 4 d -15 5 d -14 4 d
 s 2268 2268 0 0 C 641 116 m -60 Y s 642 117 m -60 Y s 640 116 m -61 Y s 643 118
 m -60 Y s 640 115 m -60 Y s 643 119 m -60 Y s 641 116 m 20 X 9 -3 d 5 -5 d 3 -6
 d 3 -9 d -14 Y -3 -9 d -3 -5 d -5 -6 d -9 -3 d -20 X s 642 117 m 20 X 9 -2 d 6
 -6 d 2 -6 d 3 -8 d -15 Y -3 -8 d -2 -6 d -6 -6 d -9 -3 d -20 X s 640 116 m 21 X
 8 -3 d 6 -6 d 3 -6 d 3 -8 d -15 Y -3 -8 d -3 -6 d -6 -6 d -8 -3 d -21 X s 643
 118 m 20 X 9 -3 d 5 -6 d 3 -5 d 3 -9 d -14 Y -3 -9 d -3 -6 d -5 -5 d -9 -3 d
 -20 X s 640 115 m 20 X 8 -3 d 6 -6 d 3 -5 d 3 -9 d -14 Y -3 -9 d -3 -6 d -6 -5
 d -8 -3 d -20 X s 643 119 m 21 X 8 -3 d 6 -6 d 3 -6 d 3 -8 d -15 Y -3 -8 d -3
 -6 d -6 -6 d -8 -2 d -21 X s 698 116 m 3 -3 d 3 3 d -3 3 d -3 -3 d cl s 700 117
 m 2 -2 d 3 2 d -3 3 d -2 -3 d cl s 698 116 m 3 -3 d 2 3 d -2 2 d -3 -2 d cl s
 700 118 m 3 -3 d 3 3 d -3 3 d -3 -3 d cl s 697 115 m 3 -3 d 3 3 d -3 3 d -3 -3
 d cl s 701 119 m 3 -3 d 2 3 d -2 2 d -3 -2 d cl s 701 96 m -40 Y s 702 97 m -40
 Y s 701 96 m -41 Y s 703 98 m -40 Y s 700 95 m -40 Y s 704 99 m -40 Y s 753 88
 m -3 5 d -9 3 d -8 X -9 -3 d -3 -5 d 3 -6 d 6 -3 d 14 -3 d 6 -3 d 3 -5 d -3 Y
 -3 -6 d -9 -3 d -8 X -9 3 d -3 6 d s 754 89 m -3 6 d -9 2 d -8 X -9 -2 d -3 -6
 d 3 -6 d 6 -3 d 14 -3 d 6 -3 d 3 -5 d -3 Y -3 -6 d -9 -3 d -8 X -9 3 d -3 6 d s
 752 87 m -3 6 d -8 3 d -9 X -9 -3 d -2 -6 d 2 -6 d 6 -3 d 15 -2 d 5 -3 d 3 -6 d
 -3 Y -3 -6 d -8 -3 d -9 X -9 3 d -2 6 d s 755 89 m -3 6 d -9 3 d -9 X -8 -3 d
 -3 -6 d 3 -5 d 6 -3 d 14 -3 d 6 -3 d 3 -6 d -3 Y -3 -5 d -9 -3 d -9 X -8 3 d -3
 5 d s 751 86 m -2 6 d -9 3 d -9 X -8 -3 d -3 -6 d 3 -5 d 6 -3 d 14 -3 d 6 -3 d
 2 -6 d -3 Y -2 -5 d -9 -3 d -9 X -8 3 d -3 5 d s 755 90 m -3 6 d -8 3 d -9 X -9
 -3 d -2 -6 d 2 -6 d 6 -3 d 15 -2 d 5 -3 d 3 -6 d -3 Y -3 -6 d -8 -2 d -9 X -9 2
 d -2 6 d s 776 116 m -48 Y 2 -9 d 6 -3 d 6 X s 777 117 m -48 Y 3 -9 d 5 -3 d 6
 X s 775 116 m -49 Y 3 -9 d 6 -3 d 5 X s 777 118 m -49 Y 3 -8 d 6 -3 d 6 X s 774
 115 m -49 Y 3 -8 d 6 -3 d 6 X s 778 119 m -49 Y 3 -9 d 6 -2 d 5 X s 767 96 m 20
 X s 768 97 m 20 X s 766 96 m 20 X s 769 98 m 20 X s 766 95 m 20 X s 769 99 m 20
 X s 839 96 m -40 Y s 840 97 m -40 Y s 838 96 m -41 Y s 840 98 m -40 Y s 837 95
 m -40 Y s 841 99 m -40 Y s 839 88 m -6 5 d -6 3 d -8 X -6 -3 d -6 -5 d -3 -9 d
 -6 Y 3 -8 d 6 -6 d 6 -3 d 8 X 6 3 d 6 6 d s 840 89 m -6 6 d -6 2 d -8 X -6 -2 d
 -6 -6 d -3 -9 d -6 Y 3 -8 d 6 -6 d 6 -3 d 8 X 6 3 d 6 6 d s 838 87 m -6 6 d -5
 3 d -9 X -6 -3 d -6 -6 d -2 -9 d -5 Y 2 -9 d 6 -6 d 6 -3 d 9 X 5 3 d 6 6 d s
 840 89 m -5 6 d -6 3 d -9 X -5 -3 d -6 -6 d -3 -8 d -6 Y 3 -9 d 6 -5 d 5 -3 d 9
 X 6 3 d 5 5 d s 837 86 m -5 6 d -6 3 d -9 X -5 -3 d -6 -6 d -3 -8 d -6 Y 3 -9 d
 6 -5 d 5 -3 d 9 X 6 3 d 5 5 d s 841 90 m -6 6 d -5 3 d -9 X -6 -3 d -6 -6 d -2
 -9 d -5 Y 2 -9 d 6 -6 d 6 -2 d 9 X 5 2 d 6 6 d s 861 96 m -40 Y s 863 97 m -40
 Y s 861 96 m -41 Y s 863 98 m -40 Y s 860 95 m -40 Y s 864 99 m -40 Y s 861 85
 m 9 8 d 6 3 d 8 X 6 -3 d 3 -8 d -29 Y s 863 86 m 8 9 d 6 2 d 9 X 5 -2 d 3 -9 d
 -29 Y s 861 84 m 8 9 d 6 3 d 9 X 5 -3 d 3 -9 d -29 Y s 863 87 m 9 8 d 6 3 d 8 X
 6 -3 d 3 -8 d -29 Y s 860 84 m 9 8 d 6 3 d 8 X 6 -3 d 3 -8 d -29 Y s 864 87 m 8
 9 d 6 3 d 9 X 5 -3 d 3 -9 d -28 Y s 947 88 m -5 5 d -6 3 d -9 X -5 -3 d -6 -5 d
 -3 -9 d -6 Y 3 -8 d 6 -6 d 5 -3 d 9 X 6 3 d 5 6 d s 949 89 m -6 6 d -6 2 d -9 X
 -5 -2 d -6 -6 d -3 -9 d -6 Y 3 -8 d 6 -6 d 5 -3 d 9 X 6 3 d 6 6 d s 947 87 m -6
 6 d -6 3 d -8 X -6 -3 d -6 -6 d -3 -9 d -5 Y 3 -9 d 6 -6 d 6 -3 d 8 X 6 3 d 6 6
 d s 949 89 m -6 6 d -5 3 d -9 X -6 -3 d -5 -6 d -3 -8 d -6 Y 3 -9 d 5 -5 d 6 -3
 d 9 X 5 3 d 6 5 d s 946 86 m -6 6 d -5 3 d -9 X -6 -3 d -5 -6 d -3 -8 d -6 Y 3
 -9 d 5 -5 d 6 -3 d 9 X 5 3 d 6 5 d s 950 90 m -6 6 d -6 3 d -8 X -6 -3 d -6 -6
 d -3 -9 d -5 Y 3 -9 d 6 -6 d 6 -2 d 8 X 6 2 d 6 6 d s 964 79 m 35 X 6 Y -3 5 d
 -3 3 d -6 3 d -8 X -6 -3 d -6 -5 d -3 -9 d -6 Y 3 -8 d 6 -6 d 6 -3 d 8 X 6 3 d
 6 6 d s 966 80 m 34 X 6 Y -3 6 d -3 3 d -5 2 d -9 X -6 -2 d -5 -6 d -3 -9 d -6
 Y 3 -8 d 5 -6 d 6 -3 d 9 X 5 3 d 6 6 d s 964 78 m 34 X 6 Y -3 6 d -2 3 d -6 3 d
 -9 X -6 -3 d -5 -6 d -3 -9 d -5 Y 3 -9 d 5 -6 d 6 -3 d 9 X 6 3 d 5 6 d s 966 81
 m 35 X 6 Y -3 5 d -3 3 d -6 3 d -8 X -6 -3 d -6 -6 d -3 -8 d -6 Y 3 -9 d 6 -5 d
 6 -3 d 8 X 6 3 d 6 5 d s 963 78 m 35 X 6 Y -3 5 d -3 3 d -6 3 d -8 X -6 -3 d -6
 -6 d -3 -8 d -6 Y 3 -9 d 6 -5 d 6 -3 d 8 X 6 3 d 6 5 d s 967 81 m 34 X 6 Y -3 6
 d -2 3 d -6 3 d -9 X -6 -3 d -5 -6 d -3 -9 d -5 Y 3 -9 d 5 -6 d 6 -2 d 9 X 6 2
 d 5 6 d s 1065 116 m -6 X -6 -3 d -3 -8 d -49 Y s 1066 117 m -6 X -6 -2 d -2 -9
 d -49 Y s 1064 116 m -6 X -5 -3 d -3 -9 d -49 Y s 1066 118 m -5 X -6 -3 d -3 -8
 d -49 Y s 1063 115 m -5 X -6 -3 d -3 -8 d -49 Y s 1067 119 m -6 X -5 -3 d -3 -9
 d -48 Y s 1042 96 m 20 X s 1043 97 m 20 X s 1041 96 m 20 X s 1044 98 m 20 X s
 1041 95 m 20 X s 1044 99 m 20 X s 1082 96 m -40 Y s 1083 97 m -40 Y s 1081 96 m
 -41 Y s 1084 98 m -40 Y s 1081 95 m -40 Y s 1084 99 m -40 Y s 1082 79 m 3 9 d 5
 5 d 6 3 d 9 X s 1083 80 m 3 9 d 6 6 d 5 2 d 9 X s 1081 78 m 3 9 d 6 6 d 6 3 d 8
 X s 1084 81 m 2 8 d 6 6 d 6 3 d 9 X s 1081 78 m 2 8 d 6 6 d 6 3 d 9 X s 1084 81
 m 3 9 d 6 6 d 6 3 d 8 X s 1130 96 m -5 -3 d -6 -5 d -3 -9 d -6 Y 3 -8 d 6 -6 d
 5 -3 d 9 X 6 3 d 6 6 d 2 8 d 6 Y -2 9 d -6 5 d -6 3 d -9 X cl s 1132 97 m -6 -2
 d -6 -6 d -3 -9 d -6 Y 3 -8 d 6 -6 d 6 -3 d 8 X 6 3 d 6 6 d 3 8 d 6 Y -3 9 d -6
 6 d -6 2 d -8 X cl s 1130 96 m -6 -3 d -6 -6 d -2 -9 d -5 Y 2 -9 d 6 -6 d 6 -3
 d 8 X 6 3 d 6 6 d 3 9 d 5 Y -3 9 d -6 6 d -6 3 d -8 X cl s 1132 98 m -5 -3 d -6
 -6 d -3 -8 d -6 Y 3 -9 d 6 -5 d 5 -3 d 9 X 6 3 d 5 5 d 3 9 d 6 Y -3 8 d -5 6 d
 -6 3 d -9 X cl s 1129 95 m -5 -3 d -6 -6 d -3 -8 d -6 Y 3 -9 d 6 -5 d 5 -3 d 9
 X 6 3 d 5 5 d 3 9 d 6 Y -3 8 d -5 6 d -6 3 d -9 X cl s 1133 99 m -6 -3 d -6 -6
 d -2 -9 d -5 Y 2 -9 d 6 -6 d 6 -2 d 8 X 6 2 d 6 6 d 3 9 d 5 Y -3 9 d -6 6 d -6
 3 d -8 X cl s 1173 96 m -40 Y s 1175 97 m -40 Y s 1173 96 m -41 Y s 1175 98 m
 -40 Y s 1172 95 m -40 Y s 1176 99 m -40 Y s 1173 85 m 9 8 d 6 3 d 8 X 6 -3 d 3
 -8 d -29 Y s 1175 86 m 8 9 d 6 2 d 9 X 5 -2 d 3 -9 d -29 Y s 1173 84 m 8 9 d 6
 3 d 9 X 5 -3 d 3 -9 d -29 Y s 1175 87 m 9 8 d 6 3 d 8 X 6 -3 d 3 -8 d -29 Y s
 1172 84 m 9 8 d 6 3 d 8 X 6 -3 d 3 -8 d -29 Y s 1176 87 m 8 9 d 6 3 d 9 X 5 -3
 d 3 -9 d -28 Y s 1205 85 m 8 8 d 6 3 d 9 X 6 -3 d 2 -8 d -29 Y s 1206 86 m 9 9
 d 5 2 d 9 X 6 -2 d 3 -9 d -29 Y s 1204 84 m 9 9 d 6 3 d 8 X 6 -3 d 3 -9 d -29 Y
 s 1207 87 m 8 8 d 6 3 d 9 X 5 -3 d 3 -8 d -29 Y s 1204 84 m 8 8 d 6 3 d 9 X 5
 -3 d 3 -8 d -29 Y s 1207 87 m 9 9 d 6 3 d 8 X 6 -3 d 3 -9 d -28 Y s 1288 96 m
 -60 Y s 1289 97 m -60 Y s 1287 96 m -61 Y s 1290 98 m -60 Y s 1287 95 m -60 Y s
 1290 99 m -61 Y s 1288 88 m 6 5 d 5 3 d 9 X 6 -3 d 5 -5 d 3 -9 d -6 Y -3 -8 d
 -5 -6 d -6 -3 d -9 X -5 3 d -6 6 d s 1289 89 m 6 6 d 6 2 d 8 X 6 -2 d 6 -6 d 2
 -9 d -6 Y -2 -8 d -6 -6 d -6 -3 d -8 X -6 3 d -6 6 d s 1287 87 m 6 6 d 6 3 d 8
 X 6 -3 d 6 -6 d 3 -9 d -5 Y -3 -9 d -6 -6 d -6 -3 d -8 X -6 3 d -6 6 d s 1290
 89 m 5 6 d 6 3 d 9 X 5 -3 d 6 -6 d 3 -8 d -6 Y -3 -9 d -6 -5 d -5 -3 d -9 X -6
 3 d -5 5 d s 1287 86 m 5 6 d 6 3 d 9 X 5 -3 d 6 -6 d 3 -8 d -6 Y -3 -9 d -6 -5
 d -5 -3 d -9 X -6 3 d -5 5 d s 1290 90 m 6 6 d 6 3 d 8 X 6 -3 d 6 -6 d 3 -9 d
 -5 Y -3 -9 d -6 -6 d -6 -2 d -8 X -6 2 d -6 6 d s 1342 116 m -60 Y s 1343 117 m
 -60 Y s 1342 116 m -61 Y s 1344 118 m -60 Y s 1341 115 m -60 Y s 1345 119 m -60
 Y s 1342 85 m 9 8 d 6 3 d 8 X 6 -3 d 3 -8 d -29 Y s 1343 86 m 9 9 d 6 2 d 8 X 6
 -2 d 3 -9 d -29 Y s 1342 84 m 8 9 d 6 3 d 9 X 5 -3 d 3 -9 d -29 Y s 1344 87 m 9
 8 d 5 3 d 9 X 6 -3 d 3 -8 d -29 Y s 1341 84 m 9 8 d 5 3 d 9 X 6 -3 d 3 -8 d -29
 Y s 1345 87 m 8 9 d 6 3 d 9 X 5 -3 d 3 -9 d -28 Y s 1408 96 m -6 -3 d -5 -5 d
 -3 -9 d -6 Y 3 -8 d 5 -6 d 6 -3 d 9 X 5 3 d 6 6 d 3 8 d 6 Y -3 9 d -6 5 d -5 3
 d -9 X cl s 1409 97 m -5 -2 d -6 -6 d -3 -9 d -6 Y 3 -8 d 6 -6 d 5 -3 d 9 X 6 3
 d 5 6 d 3 8 d 6 Y -3 9 d -5 6 d -6 2 d -9 X cl s 1407 96 m -5 -3 d -6 -6 d -3
 -9 d -5 Y 3 -9 d 6 -6 d 5 -3 d 9 X 6 3 d 6 6 d 2 9 d 5 Y -2 9 d -6 6 d -6 3 d
 -9 X cl s 1410 98 m -6 -3 d -6 -6 d -2 -8 d -6 Y 2 -9 d 6 -5 d 6 -3 d 8 X 6 3 d
 6 5 d 3 9 d 6 Y -3 8 d -6 6 d -6 3 d -8 X cl s 1407 95 m -6 -3 d -6 -6 d -2 -8
 d -6 Y 2 -9 d 6 -5 d 6 -3 d 8 X 6 3 d 6 5 d 3 9 d 6 Y -3 8 d -6 6 d -6 3 d -8 X
 cl s 1411 99 m -6 -3 d -6 -6 d -3 -9 d -5 Y 3 -9 d 6 -6 d 6 -2 d 8 X 6 2 d 6 6
 d 2 9 d 5 Y -2 9 d -6 6 d -6 3 d -8 X cl s 1454 116 m -48 Y 3 -9 d 5 -3 d 6 X s
 1455 117 m -48 Y 3 -9 d 6 -3 d 5 X s 1453 116 m -49 Y 3 -9 d 6 -3 d 6 X s 1456
 118 m -49 Y 3 -8 d 5 -3 d 6 X s 1453 115 m -49 Y 3 -8 d 5 -3 d 6 X s 1456 119 m
 -49 Y 3 -9 d 6 -2 d 6 X s 1445 96 m 20 X s 1447 97 m 20 X s 1445 96 m 20 X s
 1447 98 m 20 X s 1444 95 m 20 X s 1448 99 m 20 X s 1497 96 m -6 -3 d -6 -5 d -2
 -9 d -6 Y 2 -8 d 6 -6 d 6 -3 d 8 X 6 3 d 6 6 d 3 8 d 6 Y -3 9 d -6 5 d -6 3 d
 -8 X cl s 1498 97 m -6 -2 d -5 -6 d -3 -9 d -6 Y 3 -8 d 5 -6 d 6 -3 d 9 X 5 3 d
 6 6 d 3 8 d 6 Y -3 9 d -6 6 d -5 2 d -9 X cl s 1496 96 m -6 -3 d -5 -6 d -3 -9
 d -5 Y 3 -9 d 5 -6 d 6 -3 d 9 X 6 3 d 5 6 d 3 9 d 5 Y -3 9 d -5 6 d -6 3 d -9 X
 cl s 1499 98 m -6 -3 d -6 -6 d -3 -8 d -6 Y 3 -9 d 6 -5 d 6 -3 d 8 X 6 3 d 6 5
 d 3 9 d 6 Y -3 8 d -6 6 d -6 3 d -8 X cl s 1496 95 m -6 -3 d -6 -6 d -3 -8 d -6
 Y 3 -9 d 6 -5 d 6 -3 d 8 X 6 3 d 6 5 d 3 9 d 6 Y -3 8 d -6 6 d -6 3 d -8 X cl s
 1499 99 m -6 -3 d -5 -6 d -3 -9 d -5 Y 3 -9 d 5 -6 d 6 -2 d 9 X 6 2 d 5 6 d 3 9
 d 5 Y -3 9 d -5 6 d -6 3 d -9 X cl s 1571 116 m -60 Y s 1572 117 m -60 Y s 1571
 116 m -61 Y s 1573 118 m -60 Y s 1570 115 m -60 Y s 1574 119 m -60 Y s 1571 88
 m -5 5 d -6 3 d -9 X -6 -3 d -5 -5 d -3 -9 d -6 Y 3 -8 d 5 -6 d 6 -3 d 9 X 6 3
 d 5 6 d s 1572 89 m -5 6 d -6 2 d -9 X -5 -2 d -6 -6 d -3 -9 d -6 Y 3 -8 d 6 -6
 d 5 -3 d 9 X 6 3 d 5 6 d s 1571 87 m -6 6 d -6 3 d -8 X -6 -3 d -6 -6 d -3 -9 d
 -5 Y 3 -9 d 6 -6 d 6 -3 d 8 X 6 3 d 6 6 d s 1573 89 m -6 6 d -5 3 d -9 X -6 -3
 d -5 -6 d -3 -8 d -6 Y 3 -9 d 5 -5 d 6 -3 d 9 X 5 3 d 6 5 d s 1570 86 m -6 6 d
 -5 3 d -9 X -6 -3 d -5 -6 d -3 -8 d -6 Y 3 -9 d 5 -5 d 6 -3 d 9 X 5 3 d 6 5 d s
 1574 90 m -6 6 d -6 3 d -8 X -6 -3 d -6 -6 d -3 -9 d -5 Y 3 -9 d 6 -6 d 6 -2 d
 8 X 6 2 d 6 6 d s 1591 116 m 3 -3 d 3 3 d -3 3 d -3 -3 d cl s 1592 117 m 3 -2 d
 3 2 d -3 3 d -3 -3 d cl s 1591 116 m 3 -3 d 2 3 d -2 2 d -3 -2 d cl s 1593 118
 m 3 -3 d 3 3 d -3 3 d -3 -3 d cl s 1590 115 m 3 -3 d 3 3 d -3 3 d -3 -3 d cl s
 1594 119 m 3 -3 d 2 3 d -2 2 d -3 -2 d cl s 1594 96 m -40 Y s 1595 97 m -40 Y s
 1594 96 m -41 Y s 1596 98 m -40 Y s 1593 95 m -40 Y s 1597 99 m -40 Y s 1628 96
 m -5 -3 d -6 -5 d -3 -9 d -6 Y 3 -8 d 6 -6 d 5 -3 d 9 X 6 3 d 6 6 d 2 8 d 6 Y
 -2 9 d -6 5 d -6 3 d -9 X cl s 1630 97 m -6 -2 d -6 -6 d -3 -9 d -6 Y 3 -8 d 6
 -6 d 6 -3 d 8 X 6 3 d 6 6 d 3 8 d 6 Y -3 9 d -6 6 d -6 2 d -8 X cl s 1628 96 m
 -6 -3 d -6 -6 d -2 -9 d -5 Y 2 -9 d 6 -6 d 6 -3 d 8 X 6 3 d 6 6 d 3 9 d 5 Y -3
 9 d -6 6 d -6 3 d -8 X cl s 1630 98 m -5 -3 d -6 -6 d -3 -8 d -6 Y 3 -9 d 6 -5
 d 5 -3 d 9 X 6 3 d 5 5 d 3 9 d 6 Y -3 8 d -5 6 d -6 3 d -9 X cl s 1627 95 m -5
 -3 d -6 -6 d -3 -8 d -6 Y 3 -9 d 6 -5 d 5 -3 d 9 X 6 3 d 5 5 d 3 9 d 6 Y -3 8 d
 -5 6 d -6 3 d -9 X cl s 1631 99 m -6 -3 d -6 -6 d -2 -9 d -5 Y 2 -9 d 6 -6 d 6
 -2 d 8 X 6 2 d 6 6 d 3 9 d 5 Y -3 9 d -6 6 d -6 3 d -8 X cl s 1703 116 m -60 Y
 s 1704 117 m -60 Y s 1702 116 m -61 Y s 1705 118 m -60 Y s 1702 115 m -60 Y s
 1705 119 m -60 Y s 1703 88 m -6 5 d -6 3 d -8 X -6 -3 d -6 -5 d -2 -9 d -6 Y 2
 -8 d 6 -6 d 6 -3 d 8 X 6 3 d 6 6 d s 1704 89 m -6 6 d -5 2 d -9 X -6 -2 d -5 -6
 d -3 -9 d -6 Y 3 -8 d 5 -6 d 6 -3 d 9 X 5 3 d 6 6 d s 1702 87 m -5 6 d -6 3 d
 -9 X -5 -3 d -6 -6 d -3 -9 d -5 Y 3 -9 d 6 -6 d 5 -3 d 9 X 6 3 d 5 6 d s 1705
 89 m -6 6 d -6 3 d -8 X -6 -3 d -6 -6 d -3 -8 d -6 Y 3 -9 d 6 -5 d 6 -3 d 8 X 6
 3 d 6 5 d s 1702 86 m -6 6 d -6 3 d -8 X -6 -3 d -6 -6 d -3 -8 d -6 Y 3 -9 d 6
 -5 d 6 -3 d 8 X 6 3 d 6 5 d s 1705 90 m -5 6 d -6 3 d -9 X -5 -3 d -6 -6 d -3
 -9 d -5 Y 3 -9 d 6 -6 d 5 -2 d 9 X 6 2 d 5 6 d s 1723 79 m 34 X 6 Y -3 5 d -2 3
 d -6 3 d -9 X -5 -3 d -6 -5 d -3 -9 d -6 Y 3 -8 d 6 -6 d 5 -3 d 9 X 6 3 d 5 6 d
 s 1724 80 m 34 X 6 Y -2 6 d -3 3 d -6 2 d -9 X -5 -2 d -6 -6 d -3 -9 d -6 Y 3
 -8 d 6 -6 d 5 -3 d 9 X 6 3 d 5 6 d s 1722 78 m 35 X 6 Y -3 6 d -3 3 d -6 3 d -8
 X -6 -3 d -6 -6 d -3 -9 d -5 Y 3 -9 d 6 -6 d 6 -3 d 8 X 6 3 d 6 6 d s 1725 81 m
 34 X 6 Y -3 5 d -3 3 d -5 3 d -9 X -6 -3 d -5 -6 d -3 -8 d -6 Y 3 -9 d 5 -5 d 6
 -3 d 9 X 5 3 d 6 5 d s 1722 78 m 34 X 6 Y -3 5 d -3 3 d -5 3 d -9 X -6 -3 d -5
 -6 d -3 -8 d -6 Y 3 -9 d 5 -5 d 6 -3 d 9 X 5 3 d 6 5 d s 1725 81 m 35 X 6 Y -3
 6 d -3 3 d -6 3 d -8 X -6 -3 d -6 -6 d -3 -9 d -5 Y 3 -9 d 6 -6 d 6 -2 d 8 X 6
 2 d 6 6 d s 1826 128 m -6 -6 d -5 -9 d -6 -11 d -3 -14 d -12 Y 3 -14 d 6 -12 d
 5 -8 d 6 -6 d s 1827 129 m -6 -6 d -5 -8 d -6 -12 d -3 -14 d -12 Y 3 -14 d 6
 -11 d 5 -9 d 6 -6 d s 1825 127 m -5 -6 d -6 -8 d -6 -12 d -3 -14 d -11 Y 3 -15
 d 6 -11 d 6 -9 d 5 -6 d s 1828 129 m -6 -5 d -6 -9 d -5 -11 d -3 -15 d -11 Y 3
 -14 d 5 -12 d 6 -8 d 6 -6 d s 1825 126 m -6 -5 d -6 -9 d -5 -11 d -3 -15 d -11
 Y 3 -14 d 5 -12 d 6 -8 d 6 -6 d s 1828 130 m -5 -6 d -6 -8 d -6 -12 d -3 -14 d
 -11 Y 3 -15 d 6 -11 d 6 -9 d 5 -6 d s 1877 88 m -5 5 d -6 3 d -9 X -5 -3 d -6
 -5 d -3 -9 d -6 Y 3 -8 d 6 -6 d 5 -3 d 9 X 6 3 d 5 6 d s 1879 89 m -6 6 d -6 2
 d -8 X -6 -2 d -6 -6 d -3 -9 d -6 Y 3 -8 d 6 -6 d 6 -3 d 8 X 6 3 d 6 6 d s 1877
 87 m -6 6 d -6 3 d -8 X -6 -3 d -6 -6 d -2 -9 d -5 Y 2 -9 d 6 -6 d 6 -3 d 8 X 6
 3 d 6 6 d s 1879 89 m -5 6 d -6 3 d -9 X -5 -3 d -6 -6 d -3 -8 d -6 Y 3 -9 d 6
 -5 d 5 -3 d 9 X 6 3 d 5 5 d s 1876 86 m -5 6 d -6 3 d -9 X -5 -3 d -6 -6 d -3
 -8 d -6 Y 3 -9 d 6 -5 d 5 -3 d 9 X 6 3 d 5 5 d s 1880 90 m -6 6 d -6 3 d -8 X
 -6 -3 d -6 -6 d -2 -9 d -5 Y 2 -9 d 6 -6 d 6 -2 d 8 X 6 2 d 6 6 d s 1897 96 m
 -40 Y s 1899 97 m -40 Y s 1897 96 m -41 Y s 1899 98 m -40 Y s 1896 95 m -40 Y s
 1900 99 m -40 Y s 1897 85 m 9 8 d 6 3 d 8 X 6 -3 d 3 -8 d -29 Y s 1899 86 m 8 9
 d 6 2 d 9 X 5 -2 d 3 -9 d -29 Y s 1897 84 m 8 9 d 6 3 d 9 X 6 -3 d 2 -9 d -29 Y
 s 1899 87 m 9 8 d 6 3 d 8 X 6 -3 d 3 -8 d -29 Y s 1896 84 m 9 8 d 6 3 d 8 X 6
 -3 d 3 -8 d -29 Y s 1900 87 m 8 9 d 6 3 d 9 X 6 -3 d 2 -9 d -28 Y s 1929 85 m 9
 8 d 5 3 d 9 X 6 -3 d 2 -8 d -29 Y s 1930 86 m 9 9 d 5 2 d 9 X 6 -2 d 3 -9 d -29
 Y s 1928 84 m 9 9 d 6 3 d 8 X 6 -3 d 3 -9 d -29 Y s 1931 87 m 8 8 d 6 3 d 9 X 5
 -3 d 3 -8 d -29 Y s 1928 84 m 8 8 d 6 3 d 9 X 5 -3 d 3 -8 d -29 Y s 1931 87 m 9
 9 d 6 3 d 8 X 6 -3 d 3 -9 d -28 Y s 1986 62 m -3 -3 d 3 -3 d 3 3 d -3 3 d cl s
 1987 63 m -2 -3 d 2 -3 d 3 3 d -3 3 d cl s 1986 61 m -3 -3 d 3 -3 d 2 3 d -2 3
 d cl s 1988 64 m -3 -3 d 3 -3 d 3 3 d -3 3 d cl s 1985 61 m -3 -3 d 3 -3 d 3 3
 d -3 3 d cl s 1989 64 m -3 -3 d 3 -2 d 2 2 d -2 3 d cl s 2009 128 m 6 -6 d 6 -9
 d 5 -11 d 3 -14 d -12 Y -3 -14 d -5 -12 d -6 -8 d -6 -6 d s 2010 129 m 6 -6 d 6
 -8 d 5 -12 d 3 -14 d -12 Y -3 -14 d -5 -11 d -6 -9 d -6 -6 d s 2009 127 m 5 -6
 d 6 -8 d 6 -12 d 3 -14 d -11 Y -3 -15 d -6 -11 d -6 -9 d -5 -6 d s 2011 129 m 6
 -5 d 5 -9 d 6 -11 d 3 -15 d -11 Y -3 -14 d -6 -12 d -5 -8 d -6 -6 d s 2008 126
 m 6 -5 d 5 -9 d 6 -11 d 3 -15 d -11 Y -3 -14 d -6 -12 d -5 -8 d -6 -6 d s 2012
 130 m 5 -6 d 6 -8 d 6 -12 d 3 -14 d -11 Y -3 -15 d -6 -11 d -6 -9 d -5 -6 d s
 61 1033 m 40 X s 63 1034 m 40 X s 61 1033 m 40 X s 63 1035 m 40 X s 60 1032 m
 40 X s 64 1036 m 40 X s 73 1033 m -9 9 d -3 5 d 9 Y 3 6 d 9 3 d 28 X s 74 1034
 m -9 9 d -2 6 d 8 Y 2 6 d 9 3 d 29 X s 72 1033 m -8 8 d -3 6 d 8 Y 3 6 d 8 3 d
 29 X s 75 1035 m -9 9 d -3 5 d 9 Y 3 6 d 9 2 d 28 X s 72 1032 m -9 9 d -3 5 d 9
 Y 3 6 d 9 2 d 28 X s 75 1036 m -8 8 d -3 6 d 8 Y 3 6 d 8 3 d 29 X s 61 1099 m 3
 -6 d 6 -5 d 9 -3 d 5 X 9 3 d 6 5 d 2 6 d 9 Y -2 5 d -6 6 d -9 3 d -5 X -9 -3 d
 -6 -6 d -3 -5 d -9 Y cl s 63 1100 m 2 -6 d 6 -5 d 9 -3 d 5 X 9 3 d 6 5 d 3 6 d
 9 Y -3 6 d -6 5 d -9 3 d -5 X -9 -3 d -6 -5 d -2 -6 d -9 Y cl s 61 1098 m 3 -5
 d 5 -6 d 9 -3 d 6 X 8 3 d 6 6 d 3 5 d 9 Y -3 6 d -6 5 d -8 3 d -6 X -9 -3 d -5
 -5 d -3 -6 d -9 Y cl s 63 1101 m 3 -6 d 6 -6 d 8 -3 d 6 X 9 3 d 5 6 d 3 6 d 8 Y
 -3 6 d -5 6 d -9 3 d -6 X -8 -3 d -6 -6 d -3 -6 d -8 Y cl s 60 1098 m 3 -6 d 6
 -6 d 8 -3 d 6 X 9 3 d 5 6 d 3 6 d 8 Y -3 6 d -5 6 d -9 3 d -6 X -8 -3 d -6 -6 d
 -3 -6 d -8 Y cl s 64 1101 m 3 -5 d 5 -6 d 9 -3 d 6 X 8 3 d 6 6 d 3 5 d 9 Y -3 6
 d -6 5 d -8 3 d -6 X -9 -3 d -5 -5 d -3 -6 d -9 Y cl s 61 1142 m 40 X s 63 1143
 m 40 X s 61 1141 m 40 X s 63 1144 m 40 X s 60 1141 m 40 X s 64 1144 m 40 X s 79
 1142 m -9 3 d -6 6 d -3 5 d 9 Y s 80 1143 m -9 3 d -6 6 d -2 5 d 9 Y s 78 1141
 m -9 3 d -5 6 d -3 6 d 8 Y s 80 1144 m -8 3 d -6 5 d -3 6 d 9 Y s 77 1141 m -8
 3 d -6 5 d -3 6 d 9 Y s 81 1144 m -9 3 d -5 6 d -3 6 d 8 Y s 61 1179 m 40 X s
 63 1180 m 40 X s 61 1179 m 40 X s 63 1181 m 40 X s 60 1178 m 40 X s 64 1182 m
 40 X s 73 1179 m -9 9 d -3 5 d 9 Y 3 6 d 9 3 d 28 X s 74 1180 m -9 9 d -2 6 d 8
 Y 2 6 d 9 3 d 29 X s 72 1179 m -8 8 d -3 6 d 8 Y 3 6 d 8 3 d 29 X s 75 1181 m
 -9 9 d -3 5 d 9 Y 3 6 d 9 2 d 28 X s 72 1178 m -9 9 d -3 5 d 9 Y 3 6 d 9 2 d 28
 X s 75 1182 m -8 8 d -3 6 d 8 Y 3 6 d 8 3 d 29 X s 73 1211 m -9 8 d -3 6 d 9 Y
 3 5 d 9 3 d 28 X s 74 1212 m -9 8 d -2 6 d 9 Y 2 5 d 9 3 d 29 X s 72 1210 m -8
 9 d -3 5 d 9 Y 3 6 d 8 3 d 29 X s 75 1212 m -9 9 d -3 6 d 8 Y 3 6 d 9 3 d 28 X
 s 72 1209 m -9 9 d -3 6 d 8 Y 3 6 d 9 3 d 28 X s 75 1213 m -8 9 d -3 5 d 9 Y 3
 6 d 8 3 d 29 X s 61 1276 m 3 -5 d 6 -6 d 9 -3 d 5 X 9 3 d 6 6 d 2 5 d 9 Y -2 6
 d -6 5 d -9 3 d -5 X -9 -3 d -6 -5 d -3 -6 d -9 Y cl s 63 1278 m 2 -6 d 6 -6 d
 9 -3 d 5 X 9 3 d 6 6 d 3 6 d 8 Y -3 6 d -6 6 d -9 3 d -5 X -9 -3 d -6 -6 d -2
 -6 d -8 Y cl s 61 1276 m 3 -6 d 5 -6 d 9 -2 d 6 X 8 2 d 6 6 d 3 6 d 8 Y -3 6 d
 -6 6 d -8 3 d -6 X -9 -3 d -5 -6 d -3 -6 d -8 Y cl s 63 1278 m 3 -5 d 6 -6 d 8
 -3 d 6 X 9 3 d 5 6 d 3 5 d 9 Y -3 6 d -5 5 d -9 3 d -6 X -8 -3 d -6 -5 d -3 -6
 d -9 Y cl s 60 1275 m 3 -5 d 6 -6 d 8 -3 d 6 X 9 3 d 5 6 d 3 5 d 9 Y -3 6 d -5
 5 d -9 3 d -6 X -8 -3 d -6 -5 d -3 -6 d -9 Y cl s 64 1279 m 3 -6 d 5 -6 d 9 -2
 d 6 X 8 2 d 6 6 d 3 6 d 8 Y -3 6 d -6 6 d -8 3 d -6 X -9 -3 d -5 -6 d -3 -6 d
 -8 Y cl s 41 1319 m 60 X s 43 1321 m 60 X s 41 1319 m 60 X s 43 1321 m 60 X s
 40 1318 m 60 X s 44 1322 m 60 X s 41 1339 m 3 3 d -3 3 d -3 -3 d 3 -3 d cl s 43
 1341 m 2 2 d -2 3 d -3 -3 d 3 -2 d cl s 41 1339 m 3 3 d -3 3 d -3 -3 d 3 -3 d
 cl s 43 1341 m 3 3 d -3 3 d -3 -3 d 3 -3 d cl s 40 1338 m 3 3 d -3 3 d -3 -3 d
 3 -3 d cl s 44 1342 m 3 3 d -3 3 d -3 -3 d 3 -3 d cl s 61 1342 m 40 X s 63 1343
 m 40 X s 61 1342 m 40 X s 63 1344 m 40 X s 60 1341 m 40 X s 64 1345 m 40 X s 61
 1394 m 40 -32 d s 63 1395 m 40 -31 d s 61 1393 m 40 -31 d s 63 1396 m 40 -32 d
 s 60 1393 m 40 -32 d s 64 1396 m 40 -31 d s 61 1362 m 32 Y s 63 1364 m 31 Y s
 61 1362 m 31 Y s 63 1364 m 32 Y s 60 1361 m 32 Y s 64 1365 m 31 Y s 101 1362 m
 32 Y s 103 1364 m 31 Y s 101 1362 m 31 Y s 103 1364 m 32 Y s 100 1361 m 32 Y s
 104 1365 m 31 Y s 79 1411 m 34 Y -6 X -6 -3 d -3 -2 d -3 -6 d -9 Y 3 -5 d 6 -6
 d 9 -3 d 5 X 9 3 d 6 6 d 2 5 d 9 Y -2 6 d -6 5 d s 80 1412 m 35 Y -6 X -6 -3 d
 -3 -3 d -2 -6 d -9 Y 2 -5 d 6 -6 d 9 -3 d 5 X 9 3 d 6 6 d 3 5 d 9 Y -3 6 d -6 6
 d s 78 1410 m 35 Y -6 X -5 -3 d -3 -3 d -3 -6 d -8 Y 3 -6 d 5 -6 d 9 -3 d 6 X 8
 3 d 6 6 d 3 6 d 8 Y -3 6 d -6 6 d s 80 1413 m 34 Y -5 X -6 -3 d -3 -3 d -3 -5 d
 -9 Y 3 -6 d 6 -5 d 8 -3 d 6 X 9 3 d 5 5 d 3 6 d 9 Y -3 5 d -5 6 d s 77 1410 m
 34 Y -5 X -6 -3 d -3 -3 d -3 -5 d -9 Y 3 -6 d 6 -5 d 8 -3 d 6 X 9 3 d 5 5 d 3 6
 d 9 Y -3 5 d -5 6 d s 81 1413 m 35 Y -6 X -5 -3 d -3 -3 d -3 -6 d -8 Y 3 -6 d 5
 -6 d 9 -3 d 6 X 8 3 d 6 6 d 3 6 d 8 Y -3 6 d -6 6 d s 41 1497 m 60 X s 43 1498
 m 60 X s 41 1496 m 60 X s 43 1499 m 60 X s 40 1496 m 60 X s 44 1499 m 60 X s 70
 1497 m -6 -6 d -3 -6 d -8 Y 3 -6 d 6 -6 d 9 -3 d 5 X 9 3 d 6 6 d 2 6 d 8 Y -2 6
 d -6 6 d s 71 1498 m -6 -6 d -2 -5 d -9 Y 2 -6 d 6 -5 d 9 -3 d 5 X 9 3 d 6 5 d
 3 6 d 9 Y -3 5 d -6 6 d s 69 1496 m -5 -6 d -3 -5 d -9 Y 3 -6 d 5 -5 d 9 -3 d 6
 X 8 3 d 6 5 d 3 6 d 9 Y -3 5 d -6 6 d s 72 1499 m -6 -6 d -3 -6 d -8 Y 3 -6 d 6
 -6 d 8 -3 d 6 X 9 3 d 5 6 d 3 6 d 8 Y -3 6 d -5 6 d s 69 1496 m -6 -6 d -3 -6 d
 -8 Y 3 -6 d 6 -6 d 8 -3 d 6 X 9 3 d 5 6 d 3 6 d 8 Y -3 6 d -5 6 d s 72 1499 m
 -5 -6 d -3 -5 d -9 Y 3 -6 d 5 -5 d 9 -3 d 6 X 8 3 d 6 5 d 3 6 d 9 Y -3 5 d -6 6
 d s 41 1548 m 60 X s 43 1550 m 60 X s 41 1548 m 60 X s 43 1550 m 60 X s 40 1547
 m 60 X s 44 1551 m 60 X s 41 1568 m 3 3 d -3 3 d -3 -3 d 3 -3 d cl s 43 1570 m
 2 2 d -2 3 d -3 -3 d 3 -2 d cl s 41 1568 m 3 3 d -3 2 d -3 -2 d 3 -3 d cl s 43
 1570 m 3 3 d -3 3 d -3 -3 d 3 -3 d cl s 40 1567 m 3 3 d -3 3 d -3 -3 d 3 -3 d
 cl s 44 1571 m 3 3 d -3 2 d -3 -2 d 3 -3 d cl s 61 1571 m 40 X s 63 1572 m 40 X
 s 61 1571 m 40 X s 63 1573 m 40 X s 60 1570 m 40 X s 64 1574 m 40 X s 61 1626 m
 46 X 9 -3 d 3 -3 d 2 -6 d -8 Y -2 -6 d s 63 1627 m 45 X 9 -3 d 3 -3 d 3 -6 d -8
 Y -3 -6 d s 61 1625 m 46 X 8 -3 d 3 -3 d 3 -5 d -9 Y -3 -6 d s 63 1627 m 46 X 9
 -2 d 2 -3 d 3 -6 d -9 Y -3 -5 d s 60 1624 m 46 X 9 -2 d 2 -3 d 3 -6 d -9 Y -3
 -5 d s 64 1628 m 46 X 8 -3 d 3 -3 d 3 -5 d -9 Y -3 -6 d s 70 1626 m -6 -6 d -3
 -6 d -8 Y 3 -6 d 6 -6 d 9 -3 d 5 X 9 3 d 6 6 d 2 6 d 8 Y -2 6 d -6 6 d s 71
 1627 m -6 -6 d -2 -6 d -8 Y 2 -6 d 6 -6 d 9 -3 d 5 X 9 3 d 6 6 d 3 6 d 8 Y -3 6
 d -6 6 d s 69 1625 m -5 -6 d -3 -5 d -9 Y 3 -6 d 5 -5 d 9 -3 d 6 X 8 3 d 6 5 d
 3 6 d 9 Y -3 5 d -6 6 d s 72 1627 m -6 -5 d -3 -6 d -9 Y 3 -5 d 6 -6 d 8 -3 d 6
 X 9 3 d 5 6 d 3 5 d 9 Y -3 6 d -5 5 d s 69 1624 m -6 -5 d -3 -6 d -9 Y 3 -5 d 6
 -6 d 8 -3 d 6 X 9 3 d 5 6 d 3 5 d 9 Y -3 6 d -5 5 d s 72 1628 m -5 -6 d -3 -5 d
 -9 Y 3 -6 d 5 -5 d 9 -3 d 6 X 8 3 d 6 5 d 3 6 d 9 Y -3 5 d -6 6 d s 41 1649 m
 60 X s 43 1650 m 60 X s 41 1648 m 60 X s 43 1650 m 60 X s 40 1647 m 60 X s 44
 1651 m 60 X s 73 1649 m -9 8 d -3 6 d 8 Y 3 6 d 9 3 d 28 X s 74 1650 m -9 8 d
 -2 6 d 9 Y 2 5 d 9 3 d 29 X s 72 1648 m -8 8 d -3 6 d 9 Y 3 6 d 8 2 d 29 X s 75
 1650 m -9 9 d -3 6 d 8 Y 3 6 d 9 3 d 28 X s 72 1647 m -9 9 d -3 6 d 8 Y 3 6 d 9
 3 d 28 X s 75 1651 m -8 8 d -3 6 d 9 Y 3 6 d 8 2 d 29 X s 41 1706 m 49 X 9 3 d
 2 5 d 6 Y s 43 1707 m 48 X 9 3 d 3 6 d 5 Y s 41 1705 m 48 X 9 3 d 3 6 d 5 Y s
 43 1708 m 49 X 8 2 d 3 6 d 6 Y s 40 1705 m 49 X 8 2 d 3 6 d 6 Y s 44 1708 m 48
 X 9 3 d 3 6 d 5 Y s 61 1697 m 20 Y s 63 1698 m 20 Y s 61 1697 m 20 Y s 63 1699
 m 20 Y s 60 1696 m 20 Y s 64 1700 m 20 Y s 61 1777 m 3 -5 d 6 -6 d 9 -3 d 5 X 9
 3 d 6 6 d 2 5 d 9 Y -2 6 d -6 5 d -9 3 d -5 X -9 -3 d -6 -5 d -3 -6 d -9 Y cl s
 63 1778 m 2 -5 d 6 -6 d 9 -3 d 5 X 9 3 d 6 6 d 3 5 d 9 Y -3 6 d -6 6 d -9 2 d
 -5 X -9 -2 d -6 -6 d -2 -6 d -9 Y cl s 61 1777 m 3 -6 d 5 -6 d 9 -3 d 6 X 8 3 d
 6 6 d 3 6 d 8 Y -3 6 d -6 6 d -8 3 d -6 X -9 -3 d -5 -6 d -3 -6 d -8 Y cl s 63
 1779 m 3 -6 d 6 -5 d 8 -3 d 6 X 9 3 d 5 5 d 3 6 d 9 Y -3 5 d -5 6 d -9 3 d -6 X
 -8 -3 d -6 -6 d -3 -5 d -9 Y cl s 60 1776 m 3 -6 d 6 -5 d 8 -3 d 6 X 9 3 d 5 5
 d 3 6 d 9 Y -3 5 d -5 6 d -9 3 d -6 X -8 -3 d -6 -6 d -3 -5 d -9 Y cl s 64 1780
 m 3 -6 d 5 -6 d 9 -3 d 6 X 8 3 d 6 6 d 3 6 d 8 Y -3 6 d -6 6 d -8 3 d -6 X -9
 -3 d -5 -6 d -3 -6 d -8 Y cl s 61 1820 m 29 X 9 3 d 2 6 d 8 Y -2 6 d -9 9 d s
 63 1821 m 28 X 9 3 d 3 6 d 9 Y -3 5 d -9 9 d s 61 1820 m 28 X 9 2 d 3 6 d 9 Y
 -3 6 d -9 8 d s 63 1822 m 29 X 8 3 d 3 6 d 8 Y -3 6 d -8 9 d s 60 1819 m 29 X 8
 3 d 3 6 d 8 Y -3 6 d -8 9 d s 64 1823 m 28 X 9 2 d 3 6 d 9 Y -3 6 d -9 8 d s 61
 1852 m 40 X s 63 1853 m 40 X s 61 1851 m 40 X s 63 1854 m 40 X s 60 1851 m 40 X
 s 64 1854 m 40 X s 41 1877 m 49 X 9 3 d 2 6 d 6 Y s 43 1879 m 48 X 9 3 d 3 5 d
 6 Y s 41 1877 m 48 X 9 3 d 3 5 d 6 Y s 43 1879 m 49 X 8 3 d 3 6 d 6 Y s 40 1876
 m 49 X 8 3 d 3 6 d 6 Y s 44 1880 m 48 X 9 3 d 3 5 d 6 Y s 61 1869 m 20 Y s 63
 1870 m 20 Y s 61 1868 m 20 Y s 63 1871 m 20 Y s 60 1868 m 20 Y s 64 1871 m 20 Y
 s 61 1909 m 60 X s 63 1910 m 60 X s 61 1908 m 60 X s 63 1911 m 60 X s 60 1908 m
 60 X s 64 1911 m 60 X s 70 1909 m -6 6 d -3 5 d 9 Y 3 6 d 6 5 d 9 3 d 5 X 9 -3
 d 6 -5 d 2 -6 d -9 Y -2 -5 d -6 -6 d s 71 1910 m -6 6 d -2 6 d 8 Y 2 6 d 6 6 d
 9 2 d 5 X 9 -2 d 6 -6 d 3 -6 d -8 Y -3 -6 d -6 -6 d s 69 1908 m -5 6 d -3 6 d 8
 Y 3 6 d 5 6 d 9 3 d 6 X 8 -3 d 6 -6 d 3 -6 d -8 Y -3 -6 d -6 -6 d s 72 1911 m
 -6 5 d -3 6 d 9 Y 3 6 d 6 5 d 8 3 d 6 X 9 -3 d 5 -5 d 3 -6 d -9 Y -3 -6 d -5 -5
 d s 69 1908 m -6 5 d -3 6 d 9 Y 3 6 d 6 5 d 8 3 d 6 X 9 -3 d 5 -5 d 3 -6 d -9 Y
 -3 -6 d -5 -5 d s 72 1911 m -5 6 d -3 6 d 8 Y 3 6 d 5 6 d 9 3 d 6 X 8 -3 d 6 -6
 d 3 -6 d -8 Y -3 -6 d -6 -6 d s 61 1963 m 29 X 9 3 d 2 6 d 8 Y -2 6 d -9 9 d s
 63 1965 m 28 X 9 2 d 3 6 d 9 Y -3 5 d -9 9 d s 61 1963 m 28 X 9 3 d 3 5 d 9 Y
 -3 6 d -9 8 d s 63 1965 m 29 X 8 3 d 3 6 d 8 Y -3 6 d -8 9 d s 60 1962 m 29 X 8
 3 d 3 6 d 8 Y -3 6 d -8 9 d s 64 1966 m 28 X 9 3 d 3 5 d 9 Y -3 6 d -9 8 d s 61
 1995 m 40 X s 63 1996 m 40 X s 61 1994 m 40 X s 63 1997 m 40 X s 60 1994 m 40 X
 s 64 1997 m 40 X s 41 2021 m 49 X 9 2 d 2 6 d 6 Y s 43 2022 m 48 X 9 3 d 3 5 d
 6 Y s 41 2020 m 48 X 9 3 d 3 6 d 5 Y s 43 2022 m 49 X 8 3 d 3 6 d 6 Y s 40 2019
 m 49 X 8 3 d 3 6 d 6 Y s 44 2023 m 48 X 9 3 d 3 6 d 5 Y s 61 2012 m 20 Y s 63
 2013 m 20 Y s 61 2011 m 20 Y s 63 2014 m 20 Y s 60 2011 m 20 Y s 64 2014 m 20 Y
 s 1758 1814 283 227 C
gr gr showpage
end
%%EOF
