%!PS-Adobe-2.0 EPSF-2.0
%%BoundingBox: 0 0 567 567
%%Title: paw_ratio.eps
%%Creator: HIGZ Version 1.23/07
%%CreationDate: 99/07/20   12.57
%%EndComments
%%BeginProlog
80 dict begin
/s {stroke} def /l {lineto} def /m {moveto} def /t {translate} def
/sw {stringwidth} def /r {rotate} def /rl {roll}  def /R {repeat} def
/d {rlineto} def /rm {rmoveto} def /gr {grestore} def /f {eofill} def
/c {setrgbcolor} def /lw {setlinewidth} def /sd {setdash} def
/cl {closepath} def /sf {scalefont setfont} def /black {0 setgray} def
/box {m dup 0 exch d exch 0 d 0 exch neg d cl} def
/NC{systemdict begin initclip end}def/C{NC box clip newpath}def
/bl {box s} def /bf {box f} def /Y { 0 exch d} def /X { 0 d} def 
/mp {newpath /y exch def /x exch def} def
/side {[w .77 mul w .23 mul] .385 w mul sd w 0 l currentpoint t -144 r} def
/mr {mp x y w2 0 360 arc} def /m24 {mr s} def /m20 {mr f} def
/mb {mp x y w2 add m w2 neg 0 d 0 w neg d w 0 d 0 w d cl} def
/mt {mp x y w2 add m w2 neg w neg d w 0 d cl} def
/m21 {mb f} def /m25 {mb s} def /m22 {mt f} def /m26 {mt s} def
/m23 {mp x y w2 sub m w2 w d w neg 0 d cl f} def
/m27 {mp x y w2 add m w3 neg w2 neg d w3 w2 neg d w3  w2 d cl s} def
/m28 {mp x w2 sub y w2 sub w3 add m w3 0 d 0 w3 neg d w3 0 d 0 w3 d w3 0 d
 0 w3 d w3 neg 0 d 0 w3 d w3 neg 0 d
 0 w3 neg d w3 neg 0 d cl s } def
/m29 {mp gsave x w2 sub y w2 add w3 sub m currentpoint t
 4 {side} repeat cl fill gr} def
/m30 {mp gsave x w2 sub y w2 add w3 sub m currentpoint t
 5 {side} repeat s gr} def
/m31 {mp x y w2 sub m 0 w d x w2 sub y m w 0 d
 x w2 sub y w2 add m w w neg d x w2 sub y w2
 sub m w w d s} def
/m2 {mp x y w2 sub m 0 w d x w2 sub y m w 0 d s} def
/m5 {mp x w2 sub y w2 sub m w w d x w2 sub y w2 add m w w neg d s} def
/DP {/PT exch def gsave 47.2 47.2 scale PT 1  eq { 16 16 1 [ 16 0 0 16 neg 0 16
] { < AA AA 55 55 AA AA 55 55 AA AA 55 55 AA AA 55 55 AA AA 55 55 AA AA 55 55
AA AA 55 55 AA AA 55 55 > } image } if PT 2 eq { 16 16 1 [ 16 0 0 16 neg 0 16
] { < BB BB EE EE BB BB EE EE BB BB EE EE BB BB EE EE BB BB EE EE BB BB EE EE
BB BB EE EE BB BB EE EE > } image } if PT 3 eq { 16 16 1 [ 16 0 0 16 neg 0 16
] { < FF FF BB BB FF FF EE EE FF FF BB BB FF FF EE EE FF FF BB BB FF FF EE EE
FF FF BB BB FF FF EE EE > } image } if PT 4 eq { 16 16 1 [ 16 0 0 16 neg 0 16
] { < DF DF BF BF 7F 7F FE FE FD FD FB FB F7 F7 EF EF DF DF BF BF 7F 7F FE FE
FD FD FB FB F7 F7 EF EF > } image } if PT 5 eq { 16 16 1 [ 16 0 0 16 neg 0 16
] { < 7F 7F BF B F DF DF EF EF F7 F7 FB FB FD FD FE FE 7F 7F BF BF DF DF EF
EF F7 F7 FB FB FD FD FE FE > } image } if PT 6 eq { 16 16 1 [ 16 0 0 16 neg 0
16 ] { < BB BB BB BB BB BB BB BB BB BB BB BB BB BB BB BB BB BB BB BB BB BB BB
BB BB BB BB BB BB BB BB BB > } image } if PT 7 eq { 16 16 1 [ 16 0 0 16 neg 0
16 ] { < FF FF FF FF FF FF 00 00 FF FF FF FF FF FF 00 00 FF FF FF FF FF FF 00
00 FF FF FF FF FF FF 00 00 > } image } if PT 8 eq { 16 16 1 [ 16 0 0 16 neg 0
16 ] { < EE EE 47 47 83 83 C5 C5 EE EE 5C 5C 38 38 74 74 EE EE 47 47 83 83 C5
C5 EE EE 5C 5C 38 38 74 74 > } image } if PT 9 eq { 16 16 1 [ 16 0 0 16 neg 0
16 ] { < EF EF EF EF D7 D7 38 38 FE FE FE FE 7D 7D 83 83 EF EF EF EF D7 D7 38
38  FE FE FE FE 7D 7D 83 83 > } image } if PT 10 eq { 16 16 1 [ 16 0 0 16 neg
0 16 ] { <  EF EF EF EF EF EF 00 00 FE FE FE FE FE FE 00 00 EF EF EF EF EF EF
00 00 FE FE FE FE FE FE 00 00 > } image } if PT 11 eq { 16 16 1 [ 16 0 0 16
neg 0 16 ] { < F7 F7 B6 B6 D5 D5 E3 E3 D5 D5 B6 B6 F7 F7 FF FF 7F 7F 6B 6B 5D
5D 3E 3E 5D 5D 6B 6B 7F 7F FF FF > } image } if PT 12 eq { 16 16 1 [ 16 0 0
16 neg 0 16 ] { < E3 E3 DD DD BE BE BE BE BE BE DD DD E3 E3 FF FF 3E 3E DD DD
EB EB EB EB EB EB DD DD 3E 3E FF FF > } image } if PT 13 eq { 16 16 1 [ 16 0
0 16 neg 0 16 ] { <  FE FE 7D 7D BB BB D7 D7 EF EF D7 D7 BB BB 7D 7D FE FE 7D
7D BB BB D7 D7 EF EF D7 D7 BB BB 7D 7D > } image } if PT 14 eq { 16 16 1 [ 16
0 0 16 neg 0 16 ] { < 00 00 EE EF EE EF EE EF 0E E0 EE EE EE EE EE EE 00 EE
FE EE FE EE FE EE 00 00 FE EF FE EF FE EF > } image } if PT 15 eq { 16 16 1 [
16 0 0 16 neg 0 16 ] { < DD DD AA AA DD DD FF FF 77 77 AA AA 77 77 FF FF DD
DD AA AA DD DD FF FF 77 77 AA AA 77 77 FF FF > } image } if PT 16 eq { 16 16
1 [ 16 0 0 16 neg 0 16 ] { <  F1 F1 EE EE 1F 1F FF FF F1 F1 EE EE 1F 1F FF FF
F1 F1 EE EE 1F 1F FF FF F1 F1 EE EE 1F 1F FF FF > } image } if PT 17 eq { 16
16 1 [ 16 0 0 16 neg 0 16 ] { <  EE EE DD DD BB BB FF FF EE EE DD DD BB BB FF
 FF EE EE DD DD BB BB FF FF EE EE DD DD BB BB FF FF > } image } if PT 18 eq {
16 16 1 [ 16 0 0 16 neg 0 16 ] { <  BB BB DD DD EE EE FF FF BB BB DD DD EE EE
FF FF BB BB DD DD EE EE FF FF BB BB DD DD EE EE FF FF > } image } if PT 19 eq
{ 16 16 1 [ 16 0 0 16 neg 0 16 ] { < 1F FC 67 F3 7B EF BD DE BD DE DE BD E6
B3 F8 0F E6 B3 DE BD BD DE BD DE 7B EF 67 F3 1F FC 7F FF > } image } if PT
20 eq { 16 16 1 [ 16 0 0 16 neg 0 16 ] { < DD DD EE EE EE EE EE EE DD DD BB
BB BB BB BB BB DD DD EE EE EE EE EE EE DD DD BB BB BB BB BB BB > } image }
if PT 21 eq { 16 16 1 [ 16 0 0 16 neg 0 16 ] { < 0E 0E EF EF EF EF EF EF E0
E0 FE FE FE FE FE FE 0E 0E EF EF EF EF EF EF E0 E0 FE FE FE FE FE FE > }
image }  if PT 22 eq { 16 16 1 [ 16 0 0 16 neg 0 16 ] { < 70 70 F7 F7 F7 F7 F7
F7 07 07 7F 7F 7F 7F 7F 7F 70 70 F7 F7 F7 F7 F7 F7 07 07 7F 7F 7F 7F 7F 7F >
} image } if PT 23 eq  { 16 16 1 [ 16 0 0 16 neg 0 16 ] { < AA AA 55 55 A9 A9
D1 D1 E1 E1 D1 D1 A9 A9 55 55 AA AA 55 55 A9 A9 D1 D1 E1 E1 D1 D1 A9 A9 55 55
> } image } if PT 24 eq { 16 16 1 [ 16 0 0 16 neg 0 16 ] { < FF FE FF FC EA
A8 D5 54 EA A8 D5 54 E8 28 D4 54 E8 E8 D4 D4 E8 EA 54 D5 A8 EA 54 D5 00 C0 00
80 > } image } if PT 25 eq {  16 16 1 [ 16 0 0 16 neg 0 16 ] { < FF FE FF FC
FF F8 FF F0 F0 00 F0 00 F0 20 F0 60 F0 E0 F1 E0 F3 E0 F0 00 E0 00 C0 00 80 00
00 00 > } image } if gr } def /FA { /PT exch def gsave clip 0 0 translate 1 1
54 { 1 sub 47.2 mul /Xcurr exch def 1 1 74 { 1 sub 47.2 mul /Ycurr exch def
gsave Xcurr Ycurr translate PT DP gr } for } for gr } def
/reencdict 24 dict def /ReEncode {reencdict begin /nco&na exch def
/nfnam exch def /basefontname exch def /basefontdict basefontname findfont def
/newfont basefontdict maxlength dict def basefontdict {exch dup /FID ne
{dup /Encoding eq {exch dup length array copy newfont 3 1 roll put} {exch
newfont 3 1 roll put} ifelse} {pop pop} ifelse } forall newfont
/FontName nfnam put nco&na aload pop nco&na length 2 idiv {newfont
/Encoding get 3 1 roll put} repeat nfnam newfont definefont pop end } def
/accvec [ 176 /agrave 181 /Agrave 190 /acircumflex 192 /Acircumflex
201 /adieresis 204 /Adieresis 209 /ccedilla 210 /Ccedilla 211 /eacute
212 /Eacute 213 /egrave 214 /Egrave 215 /ecircumflex 216 /Ecircumflex
217 /edieresis 218 /Edieresis 219 /icircumflex 220 /Icircumflex
221 /idieresis 222 /Idieresis 223 /ntilde 224 /Ntilde 226 /ocircumflex
228 /Ocircumflex 229 /odieresis 230 /Odieresis 231 /ucircumflex 236 /Ucircumflex
237 /udieresis 238 /Udieresis 239 /aring 242 /Aring 243 /ydieresis
244 /Ydieresis 246 /aacute 247 /Aacute 252 /ugrave 253 /Ugrave] def
/Times-Roman /Times-Roman accvec ReEncode
/Times-Italic /Times-Italic accvec ReEncode
/Times-Bold /Times-Bold accvec ReEncode
/Times-BoldItalic /Times-BoldItalic accvec ReEncode
/Helvetica /Helvetica accvec ReEncode
/Helvetica-Oblique /Helvetica-Oblique accvec ReEncode
/Helvetica-Bold /Helvetica-Bold accvec ReEncode
/Helvetica-BoldOblique /Helvetica-BoldOblique  accvec ReEncode
/Courier /Courier accvec ReEncode
/Courier-Oblique /Courier-Oblique accvec ReEncode
/Courier-Bold /Courier-Bold accvec ReEncode
/Courier-BoldOblique /Courier-BoldOblique accvec ReEncode
/oshow {gsave [] 0 sd true charpath stroke gr} def
/stwn { /fs exch def /fn exch def /text exch def fn findfont fs sf
 text sw pop xs add /xs exch def} def
/stwb { /fs exch def /fn exch def /nbas exch def /textf exch def
textf length /tlen exch def nbas tlen gt {/nbas tlen def} if
fn findfont fs sf textf dup length nbas sub nbas getinterval sw
pop neg xs add /xs exch def} def
/accspe [ 65 /plusminus 66 /bar 67 /existential 68 /universal
69 /exclam 70 /numbersign 71 /greater 72 /question 73 /integral
74 /colon 75 /semicolon 76 /less 77 /bracketleft 78 /bracketright
79 /greaterequal 80 /braceleft 81 /braceright 82 /radical
83 /spade 84 /heart 85 /diamond 86 /club 87 /lessequal
88 /multiply 89 /percent 90 /infinity 48 /circlemultiply 49 /circleplus
50 /emptyset 51 /lozenge 52 /bullet 53 /arrowright 54 /arrowup
55 /arrowleft 56 /arrowdown 57 /arrowboth 48 /degree 44 /comma 43 /plus
 45 /angle 42 /angleleft 47 /divide 61 /notequal 40 /equivalence 41 /second
 97 /approxequal 98 /congruent 99 /perpendicular 100 /partialdiff 101 /florin
 102 /intersection 103 /union 104 /propersuperset 105 /reflexsuperset
 106 /notsubset 107 /propersubset 108 /reflexsubset 109 /element 110 /notelement
 111 /gradient 112 /logicaland 113 /logicalor 114 /arrowdblboth
 115 /arrowdblleft 116 /arrowdblup 117 /arrowdblright 118 /arrowdbldown
 119 /ampersand 120 /omega1 121 /similar 122 /aleph ] def
/Symbol /Special accspe ReEncode
%%EndProlog
 gsave  .25 .25 scale  gsave 0 0 t black [] 0 sd 1 lw 3 lw 0 0 1 c 1588 1701 340
 284 bl 1588 1701 340 284 C NC 1 lw 340 284 m 1701 Y s 374 284 m -34 X s
 [4 8] 0 sd 1928 284 m -1588 X s [] 0 sd 357 337 m -17 X s 357 390 m -17 X s 357
 443 m -17 X s 374 496 m -34 X s [4 8] 0 sd 1928 496 m -1588 X s [] 0 sd 357 549
 m -17 X s 357 602 m -17 X s 357 656 m -17 X s 374 709 m -34 X s [4 8] 0 sd 1928
 709 m -1588 X s [] 0 sd 357 762 m -17 X s 357 815 m -17 X s 357 868 m -17 X s
 374 921 m -34 X s [4 8] 0 sd 1928 921 m -1588 X s [] 0 sd 357 975 m -17 X s 357
 1028 m -17 X s 357 1081 m -17 X s 374 1134 m -34 X s [4 8] 0 sd 1928 1134 m
 -1588 X s [] 0 sd 357 1187 m -17 X s 357 1240 m -17 X s 357 1293 m -17 X s 374
 1347 m -34 X s [4 8] 0 sd 1928 1347 m -1588 X s [] 0 sd 357 1400 m -17 X s 357
 1453 m -17 X s 357 1506 m -17 X s 374 1559 m -34 X s [4 8] 0 sd 1928 1559 m
 -1588 X s [] 0 sd 357 1612 m -17 X s 357 1666 m -17 X s 357 1719 m -17 X s 374
 1772 m -34 X s [4 8] 0 sd 1928 1772 m -1588 X s [] 0 sd 357 1825 m -17 X s 357
 1878 m -17 X s 357 1931 m -17 X s 374 1985 m -34 X s [4 8] 0 sd 1928 1985 m
 -1588 X s
 /xs 0 def 
(0.9)
 /Helvetica-Bold     70 stwn 
 gsave  295 258
 t   0 r  xs neg 0 t 0 0 m
 /Helvetica-Bold findfont   70 sf 0    0 m 
(0.9)
 show 
 gr 
 /xs 0 def 
(0.92)
 /Helvetica-Bold     70 stwn 
 gsave  295 471
 t   0 r  xs neg 0 t 0 0 m
 /Helvetica-Bold findfont   70 sf 0    0 m 
(0.92)
 show 
 gr 
 /xs 0 def 
(0.94)
 /Helvetica-Bold     70 stwn 
 gsave  295 683
 t   0 r  xs neg 0 t 0 0 m
 /Helvetica-Bold findfont   70 sf 0    0 m 
(0.94)
 show 
 gr 
 /xs 0 def 
(0.96)
 /Helvetica-Bold     70 stwn 
 gsave  295 896
 t   0 r  xs neg 0 t 0 0 m
 /Helvetica-Bold findfont   70 sf 0    0 m 
(0.96)
 show 
 gr 
 /xs 0 def 
(0.98)
 /Helvetica-Bold     70 stwn 
 gsave  295 1108
 t   0 r  xs neg 0 t 0 0 m
 /Helvetica-Bold findfont   70 sf 0    0 m 
(0.98)
 show 
 gr 
 /xs 0 def 
(1)
 /Helvetica-Bold     70 stwn 
 gsave  295 1321
 t   0 r  xs neg 0 t 0 0 m
 /Helvetica-Bold findfont   70 sf 0    0 m 
(1)
 show 
 gr 
 /xs 0 def 
(1.02)
 /Helvetica-Bold     70 stwn 
 gsave  295 1534
 t   0 r  xs neg 0 t 0 0 m
 /Helvetica-Bold findfont   70 sf 0    0 m 
(1.02)
 show 
 gr 
 /xs 0 def 
(1.04)
 /Helvetica-Bold     70 stwn 
 gsave  295 1746
 t   0 r  xs neg 0 t 0 0 m
 /Helvetica-Bold findfont   70 sf 0    0 m 
(1.04)
 show 
 gr 
 /xs 0 def 
(1.06)
 /Helvetica-Bold     70 stwn 
 gsave  295 1959
 t   0 r  xs neg 0 t 0 0 m
 /Helvetica-Bold findfont   70 sf 0    0 m 
(1.06)
 show 
 gr  [] 0 sd 340 284 m 1588 X s 462 318 m -34 Y s [4 8] 0 sd 462 1985 m -1701 Y
 s [] 0 sd 523 301 m -17 Y s 584 301 m -17 Y s 646 301 m -17 Y s 707 318 m -34 Y
 s [4 8] 0 sd 707 1985 m -1701 Y s [] 0 sd 768 301 m -17 Y s 829 301 m -17 Y s
 890 301 m -17 Y s 951 318 m -34 Y s [4 8] 0 sd 951 1985 m -1701 Y s [] 0 sd
 1012 301 m -17 Y s 1073 301 m -17 Y s 1134 301 m -17 Y s 1195 318 m -34 Y s
 [4 8] 0 sd 1195 1985 m -1701 Y s [] 0 sd 1256 301 m -17 Y s 1317 301 m -17 Y s
 1378 301 m -17 Y s 1439 318 m -34 Y s [4 8] 0 sd 1439 1985 m -1701 Y s [] 0 sd
 1500 301 m -17 Y s 1561 301 m -17 Y s 1622 301 m -17 Y s 1684 318 m -34 Y s
 [4 8] 0 sd 1684 1985 m -1701 Y s [] 0 sd 1745 301 m -17 Y s 1806 301 m -17 Y s
 1867 301 m -17 Y s 1928 318 m -34 Y s [4 8] 0 sd 1928 1985 m -1701 Y s [] 0 sd
 462 318 m -34 Y s [4 8] 0 sd 462 1985 m -1701 Y s [] 0 sd 401 301 m -17 Y s
 /xs 0 def 
(-8)
 /Helvetica-Bold     70 stwn 
 gsave  462 176
 t   0 r  xs 2 div neg 0 t 0 0 m
 /Helvetica-Bold findfont   70 sf 0    0 m 
(-8)
 show 
 gr 
 /xs 0 def 
(-6)
 /Helvetica-Bold     70 stwn 
 gsave  707 176
 t   0 r  xs 2 div neg 0 t 0 0 m
 /Helvetica-Bold findfont   70 sf 0    0 m 
(-6)
 show 
 gr 
 /xs 0 def 
(-4)
 /Helvetica-Bold     70 stwn 
 gsave  951 176
 t   0 r  xs 2 div neg 0 t 0 0 m
 /Helvetica-Bold findfont   70 sf 0    0 m 
(-4)
 show 
 gr 
 /xs 0 def 
(-2)
 /Helvetica-Bold     70 stwn 
 gsave  1195 176
 t   0 r  xs 2 div neg 0 t 0 0 m
 /Helvetica-Bold findfont   70 sf 0    0 m 
(-2)
 show 
 gr 
 /xs 0 def 
(0)
 /Helvetica-Bold     70 stwn 
 gsave  1439 176
 t   0 r  xs 2 div neg 0 t 0 0 m
 /Helvetica-Bold findfont   70 sf 0    0 m 
(0)
 show 
 gr 
 /xs 0 def 
(2)
 /Helvetica-Bold     70 stwn 
 gsave  1684 176
 t   0 r  xs 2 div neg 0 t 0 0 m
 /Helvetica-Bold findfont   70 sf 0    0 m 
(2)
 show 
 gr 
 /xs 0 def 
(4)
 /Helvetica-Bold     70 stwn 
 gsave  1928 176
 t   0 r  xs 2 div neg 0 t 0 0 m
 /Helvetica-Bold findfont   70 sf 0    0 m 
(4)
 show 
 gr  1588 1701 340 284 C black /w 20 def /w2 {w 2 div} def /w3 {w 3 div} def
 1806 1070 m24 1745 1041 m24 1684 1011 m24 1622 1021 m24 1561 994 m24 1500 883
 m24 1439 758 m24 1378 818 m24 1317 895 m24 1256 920 m24 1195 954 m24 1134 967
 m24 1073 958 m24 1012 953 m24 951 955 m24 890 927 m24 829 901 m24 768 824 m24
 707 939 m24 646 969 m24 584 976 m24 523 988 m24 462 989 m24 1806 976 m20 1745
 987 m20 1684 987 m20 1622 953 m20 1561 952 m20 1500 905 m20 1439 791 m20 1378
 884 m20 1317 958 m20 1256 1007 m20 1195 1005 m20 1134 988 m20 1073 1006 m20
 1012 989 m20 951 967 m20 890 950 m20 829 959 m20 768 830 m20 707 907 m20 646
 933 m20 584 928 m20 523 943 m20 462 930 m20 1806 1262 m26 1745 1265 m26 1684
 1257 m26 1622 1259 m26 1561 1231 m26 1500 1113 m26 1439 1051 m26 1378 1052 m26
 1317 1131 m26 1256 1153 m26 1195 1184 m26 1134 1198 m26 1073 1192 m26 1012 1216
 m26 951 1219 m26 890 1172 m26 829 1161 m26 768 1073 m26 707 1166 m26 646 1170
 m26 584 1180 m26 523 1176 m26 462 1164 m26 1806 1150 m22 1745 1155 m22 1684
 1134 m22 1622 1133 m22 1561 1145 m22 1500 1098 m22 1439 998 m22 1378 1091 m22
 1317 1152 m22 1256 1180 m22 1195 1178 m22 1134 1157 m22 1073 1168 m22 1012 1153
 m22 951 1145 m22 890 1135 m22 829 1148 m22 768 1021 m22 707 1096 m22 646 1105
 m22 584 1093 m22 523 1084 m22 462 1063 m22 2268 2268 0 0 C
 /xs 0 def 
(X)
 /Helvetica-Bold     62 stwn 
(beam)
 /Helvetica-Bold     43 stwn 
( \( cm \))
 /Helvetica-Bold     62 stwn 
 gsave  1928 113
 t   0 r  xs neg 0 t 0 0 m
 /Helvetica-Bold findfont   62 sf 0    0 m 
(X)
 show 
 currentpoint pop 0 t 
 /Helvetica-Bold findfont   43 sf 0  -21 m 
(beam)
 show 
 currentpoint pop 0 t 
 /Helvetica-Bold findfont   62 sf 0    0 m 
( \( cm \))
 show 
 gr 
 /xs 0 def 
( E)
 /Helvetica-Bold     62 stwn 
(CsI\040)
 /Helvetica-Bold     43 stwn 
(/E)
 /Helvetica-Bold     62 stwn 
(tag)
 /Helvetica-Bold     43 stwn 
 gsave  113 1985
 t  90 r  xs neg 0 t 0 0 m
 /Helvetica-Bold findfont   62 sf 0    0 m 
( E)
 show 
 currentpoint pop 0 t 
 /Helvetica-Bold findfont   43 sf 0  -21 m 
(CsI\040)
 show 
 currentpoint pop 0 t 
 /Helvetica-Bold findfont   62 sf 0    0 m 
(/E)
 show 
 currentpoint pop 0 t 
 /Helvetica-Bold findfont   43 sf 0  -21 m 
(tag)
 show 
 gr  1588 1701 340 284 C 1806 1070 1745 1041 1684 1011 1622 1021 1561 994 1500
 883 1439 758 1378 818 1317 895 1256 920 1195 954 1134 967 1073 958 1012 953 951
 955 890 927 829 901 768 824 707 939 646 969 584 976 523 988 462 989 23 { m24} R
 1806 1070 m -41 -19 d -20 -10 d -10 -5 d -27 -16 d -8 -4 d -7 -3 d -7 -2 d -2 X
 -6 -1 d -7 1 d -8 2 d -28 8 d -13 X -15 -2 d -10 -2 d -8 -3 d -7 -3 d -7 -5 d
 -5 -4 d -6 -5 d -3 -3 d -4 -5 d -6 -7 d -5 -9 d -6 -11 d -8 -13 d -9 -19 d -17
 -36 d -6 -11 d -4 -9 d -5 -11 d -6 -16 d -14 -35 d -5 -14 d -4 -10 d -5 -8 d -3
 -7 d -4 -5 d -3 -4 d -4 -3 d -3 -2 d -1 -1 d -3 -1 d -4 X -3 1 d -4 2 d -4 3 d
 -43 55 d -8 9 d -8 11 d -25 35 d -7 9 d -6 6 d -5 5 d -2 2 d -6 4 d -6 4 d -8 3
 d -12 4 d -18 5 d -8 3 d -3 2 d -61 34 d -13 4 d -13 4 d -13 3 d -12 1 d -10 1
 d -10 X -11 -1 d -25 -5 d -15 -3 d -38 -4 d -18 -1 d -16 X -35 4 d -8 -1 d -7
 -1 d -8 -2 d -9 -4 d -14 -6 d -23 -13 d -7 -3 d -10 -4 d -30 -10 d -8 -3 d -6
 -4 d -6 -4 d -1 -1 d -4 -4 d -4 -5 d -5 -6 d -6 -10 d -14 -26 d -5 -8 d -4 -7 d
 -4 -4 d -4 -4 d -4 -2 d -3 -1 d -4 X -3 1 d -4 3 d -3 3 d -3 5 d -4 5 d -4 8 d
 -4 10 d -6 16 d -13 31 d -4 10 d -4 9 d -4 6 d -3 5 d -2 3 d -6 5 d -5 5 d -6 4
 d -7 4 d -8 4 d -10 3 d -19 5 d -10 2 d -12 2 d -22 2 d -14 1 d -4 X -61 12 d
 -20 1 d -19 1 d -22 -1 d s 1806 976 1745 987 1684 987 1622 953 1561 952 1500
 905 1439 791 1378 884 1317 958 1256 1007 1195 1005 1134 988 1073 1006 1012 989
 951 967 890 950 829 959 768 830 707 907 646 933 584 928 523 943 462 930 23 {
 m20} R 1806 1262 1745 1265 1684 1257 1622 1259 1561 1231 1500 1113 1439 1051
 1378 1052 1317 1131 1256 1153 1195 1184 1134 1198 1073 1192 1012 1216 951 1219
 890 1172 829 1161 768 1073 707 1166 646 1170 584 1180 523 1176 462 1164 23 {
 m26} R 1806 1262 m -15 2 d -15 1 d -14 1 d -14 -1 d -13 X -13 -2 d -23 -4 d -10
 -1 d -5 -1 d -8 X -9 1 d -26 2 d -13 X -6 -1 d -18 -4 d -9 -3 d -7 -2 d -6 -3 d
 -5 -3 d -6 -4 d -4 -4 d -5 -4 d -1 -1 d -3 -5 d -4 -5 d -4 -6 d -4 -7 d -4 -9 d
 -5 -11 d -9 -21 d -8 -18 d -6 -12 d -5 -9 d -3 -6 d -4 -6 d -2 -3 d -9 -12 d -7
 -10 d -7 -8 d -7 -7 d -6 -7 d -6 -5 d -6 -5 d -6 -4 d -5 -3 d -2 -1 d -7 -3 d
 -6 -2 d -8 -2 d -17 X -6 1 d -6 2 d -5 2 d -6 3 d -3 2 d -4 4 d -4 4 d -50 69 d
 -4 3 d -6 3 d -5 3 d -7 2 d -10 3 d -16 3 d -6 2 d -7 3 d -9 4 d -14 8 d -21 11
 d -8 4 d -8 4 d -1 X -13 5 d -12 3 d -12 3 d -10 2 d -10 1 d -18 X -11 -2 d -15
 -3 d -7 -1 d -14 X -6 1 d -7 2 d -36 17 d -6 2 d -6 2 d -22 4 d -9 1 d -8 1 d
 -7 X -6 -1 d -6 -1 d -3 -1 d -5 -2 d -4 -3 d -6 -3 d -6 -6 d -10 -9 d -11 -11 d
 -7 -5 d -4 -3 d -5 -3 d -3 -2 d -5 -2 d -5 -1 d -28 X -6 -1 d -5 -1 d -5 -1 d
 -3 -2 d -4 -3 d -3 -2 d -4 -4 d -3 -4 d -3 -6 d -4 -7 d -5 -10 d -12 -24 d -4
 -7 d -3 -7 d -3 -4 d -3 -4 d -3 -4 d -3 -2 d -2 -2 d -3 -1 d -6 X -3 1 d -2 2 d
 -3 2 d -3 4 d -3 4 d -3 5 d -4 8 d -5 9 d -14 32 d -4 7 d -3 5 d -4 6 d -2 3 d
 -3 3 d -2 2 d -4 2 d -4 2 d -5 2 d -5 1 d -12 X -10 -2 d -11 -1 d -10 X -62 10
 d -25 X -16 -1 d -20 -3 d -16 -2 d -16 -3 d -16 -4 d -13 -3 d s 1806 1150 1745
 1155 1684 1134 1622 1133 1561 1145 1500 1098 1439 998 1378 1091 1317 1152 1256
 1180 1195 1178 1134 1157 1073 1168 1012 1153 951 1145 890 1135 829 1148 768
 1021 707 1096 646 1105 584 1093 523 1084 462 1063 23 { m22} R 2268 2268 0 0 C
 1588 1701 340 284 C 2268 2268 0 0 C
 gsave  707 1772
 t   0 r 0 0 m
 /Helvetica-Bold findfont   62 sf 0    0 m 
(470 MeV on 5X5 matrix \(Data\))
 show 
 gr  1588 1701 340 284 C 2268 2268 0 0 C 1588 1701 340 284 C 2268 2268 0 0 C /w
 32 def /w2 {w 2 div} def /w3 {w 3 div} def 646 1793 m22 1588 1701 340 284 C
 2268 2268 0 0 C 1588 1701 340 284 C 2268 2268 0 0 C
 gsave  1403 1666
 t   0 r 0 0 m
 /Helvetica-Bold findfont   62 sf 0    0 m 
(\( MC \))
 show 
 gr  1588 1701 340 284 C 2268 2268 0 0 C 1588 1701 340 284 C 2268 2268 0 0 C 646
 1687 m26 1588 1701 340 284 C 2268 2268 0 0 C 1588 1701 340 284 C 2268 2268 0 0
 C
 gsave  707 1559
 t   0 r 0 0 m
 /Helvetica-Bold findfont   62 sf 0    0 m 
(470 MeV on 3X3 matrix \(Data\))
 show 
 gr  1588 1701 340 284 C 2268 2268 0 0 C 1588 1701 340 284 C 2268 2268 0 0 C 646
 1581 m20 1588 1701 340 284 C 2268 2268 0 0 C 1588 1701 340 284 C 2268 2268 0 0
 C
 gsave  1403 1453
 t   0 r 0 0 m
 /Helvetica-Bold findfont   62 sf 0    0 m 
(\( MC \))
 show 
 gr  1588 1701 340 284 C 2268 2268 0 0 C 1588 1701 340 284 C 2268 2268 0 0 C 646
 1474 m24 1588 1701 340 284 C 2268 2268 0 0 C 1588 1701 340 284 C 2268 2268 0 0
 C 1588 1701 340 284 C 2268 2268 0 0 C 768 549 m 160 Y s 740 663 m 28 46 d 27
 -46 d s 1588 1701 340 284 C 2268 2268 0 0 C 1588 1701 340 284 C 2268 2268 0 0 C
 1588 1701 340 284 C 2268 2268 0 0 C 1439 549 m 160 Y s 1412 663 m 27 46 d 28
 -46 d s 1588 1701 340 284 C 2268 2268 0 0 C 1588 1701 340 284 C 2268 2268 0 0 C
 gsave  646 475
 t   0 r 0 0 m
 /Helvetica-Bold findfont   62 sf 0    0 m 
(Air Gap)
 show 
 gr  1588 1701 340 284 C 2268 2268 0 0 C 1588 1701 340 284 C 2268 2268 0 0 C
 gsave  1342 475
 t   0 r 0 0 m
 /Helvetica-Bold findfont   62 sf 0    0 m 
(Al Fin)
 show 
 gr  1588 1701 340 284 C
 gr  gr 
showpage
end
%%EOF
