%!PS-Adobe-2.0 EPSF-2.0
%%BoundingBox: 0 0 567 567
%%Title: paw_res.eps
%%Creator: HIGZ Version 1.23/07
%%CreationDate: 99/07/20   13.08
%%EndComments
%%BeginProlog
80 dict begin
/s {stroke} def /l {lineto} def /m {moveto} def /t {translate} def
/sw {stringwidth} def /r {rotate} def /rl {roll}  def /R {repeat} def
/d {rlineto} def /rm {rmoveto} def /gr {grestore} def /f {eofill} def
/c {setrgbcolor} def /lw {setlinewidth} def /sd {setdash} def
/cl {closepath} def /sf {scalefont setfont} def /black {0 setgray} def
/box {m dup 0 exch d exch 0 d 0 exch neg d cl} def
/NC{systemdict begin initclip end}def/C{NC box clip newpath}def
/bl {box s} def /bf {box f} def /Y { 0 exch d} def /X { 0 d} def 
/mp {newpath /y exch def /x exch def} def
/side {[w .77 mul w .23 mul] .385 w mul sd w 0 l currentpoint t -144 r} def
/mr {mp x y w2 0 360 arc} def /m24 {mr s} def /m20 {mr f} def
/mb {mp x y w2 add m w2 neg 0 d 0 w neg d w 0 d 0 w d cl} def
/mt {mp x y w2 add m w2 neg w neg d w 0 d cl} def
/m21 {mb f} def /m25 {mb s} def /m22 {mt f} def /m26 {mt s} def
/m23 {mp x y w2 sub m w2 w d w neg 0 d cl f} def
/m27 {mp x y w2 add m w3 neg w2 neg d w3 w2 neg d w3  w2 d cl s} def
/m28 {mp x w2 sub y w2 sub w3 add m w3 0 d 0 w3 neg d w3 0 d 0 w3 d w3 0 d
 0 w3 d w3 neg 0 d 0 w3 d w3 neg 0 d
 0 w3 neg d w3 neg 0 d cl s } def
/m29 {mp gsave x w2 sub y w2 add w3 sub m currentpoint t
 4 {side} repeat cl fill gr} def
/m30 {mp gsave x w2 sub y w2 add w3 sub m currentpoint t
 5 {side} repeat s gr} def
/m31 {mp x y w2 sub m 0 w d x w2 sub y m w 0 d
 x w2 sub y w2 add m w w neg d x w2 sub y w2
 sub m w w d s} def
/m2 {mp x y w2 sub m 0 w d x w2 sub y m w 0 d s} def
/m5 {mp x w2 sub y w2 sub m w w d x w2 sub y w2 add m w w neg d s} def
/DP {/PT exch def gsave 47.2 47.2 scale PT 1  eq { 16 16 1 [ 16 0 0 16 neg 0 16
] { < AA AA 55 55 AA AA 55 55 AA AA 55 55 AA AA 55 55 AA AA 55 55 AA AA 55 55
AA AA 55 55 AA AA 55 55 > } image } if PT 2 eq { 16 16 1 [ 16 0 0 16 neg 0 16
] { < BB BB EE EE BB BB EE EE BB BB EE EE BB BB EE EE BB BB EE EE BB BB EE EE
BB BB EE EE BB BB EE EE > } image } if PT 3 eq { 16 16 1 [ 16 0 0 16 neg 0 16
] { < FF FF BB BB FF FF EE EE FF FF BB BB FF FF EE EE FF FF BB BB FF FF EE EE
FF FF BB BB FF FF EE EE > } image } if PT 4 eq { 16 16 1 [ 16 0 0 16 neg 0 16
] { < DF DF BF BF 7F 7F FE FE FD FD FB FB F7 F7 EF EF DF DF BF BF 7F 7F FE FE
FD FD FB FB F7 F7 EF EF > } image } if PT 5 eq { 16 16 1 [ 16 0 0 16 neg 0 16
] { < 7F 7F BF B F DF DF EF EF F7 F7 FB FB FD FD FE FE 7F 7F BF BF DF DF EF
EF F7 F7 FB FB FD FD FE FE > } image } if PT 6 eq { 16 16 1 [ 16 0 0 16 neg 0
16 ] { < BB BB BB BB BB BB BB BB BB BB BB BB BB BB BB BB BB BB BB BB BB BB BB
BB BB BB BB BB BB BB BB BB > } image } if PT 7 eq { 16 16 1 [ 16 0 0 16 neg 0
16 ] { < FF FF FF FF FF FF 00 00 FF FF FF FF FF FF 00 00 FF FF FF FF FF FF 00
00 FF FF FF FF FF FF 00 00 > } image } if PT 8 eq { 16 16 1 [ 16 0 0 16 neg 0
16 ] { < EE EE 47 47 83 83 C5 C5 EE EE 5C 5C 38 38 74 74 EE EE 47 47 83 83 C5
C5 EE EE 5C 5C 38 38 74 74 > } image } if PT 9 eq { 16 16 1 [ 16 0 0 16 neg 0
16 ] { < EF EF EF EF D7 D7 38 38 FE FE FE FE 7D 7D 83 83 EF EF EF EF D7 D7 38
38  FE FE FE FE 7D 7D 83 83 > } image } if PT 10 eq { 16 16 1 [ 16 0 0 16 neg
0 16 ] { <  EF EF EF EF EF EF 00 00 FE FE FE FE FE FE 00 00 EF EF EF EF EF EF
00 00 FE FE FE FE FE FE 00 00 > } image } if PT 11 eq { 16 16 1 [ 16 0 0 16
neg 0 16 ] { < F7 F7 B6 B6 D5 D5 E3 E3 D5 D5 B6 B6 F7 F7 FF FF 7F 7F 6B 6B 5D
5D 3E 3E 5D 5D 6B 6B 7F 7F FF FF > } image } if PT 12 eq { 16 16 1 [ 16 0 0
16 neg 0 16 ] { < E3 E3 DD DD BE BE BE BE BE BE DD DD E3 E3 FF FF 3E 3E DD DD
EB EB EB EB EB EB DD DD 3E 3E FF FF > } image } if PT 13 eq { 16 16 1 [ 16 0
0 16 neg 0 16 ] { <  FE FE 7D 7D BB BB D7 D7 EF EF D7 D7 BB BB 7D 7D FE FE 7D
7D BB BB D7 D7 EF EF D7 D7 BB BB 7D 7D > } image } if PT 14 eq { 16 16 1 [ 16
0 0 16 neg 0 16 ] { < 00 00 EE EF EE EF EE EF 0E E0 EE EE EE EE EE EE 00 EE
FE EE FE EE FE EE 00 00 FE EF FE EF FE EF > } image } if PT 15 eq { 16 16 1 [
16 0 0 16 neg 0 16 ] { < DD DD AA AA DD DD FF FF 77 77 AA AA 77 77 FF FF DD
DD AA AA DD DD FF FF 77 77 AA AA 77 77 FF FF > } image } if PT 16 eq { 16 16
1 [ 16 0 0 16 neg 0 16 ] { <  F1 F1 EE EE 1F 1F FF FF F1 F1 EE EE 1F 1F FF FF
F1 F1 EE EE 1F 1F FF FF F1 F1 EE EE 1F 1F FF FF > } image } if PT 17 eq { 16
16 1 [ 16 0 0 16 neg 0 16 ] { <  EE EE DD DD BB BB FF FF EE EE DD DD BB BB FF
 FF EE EE DD DD BB BB FF FF EE EE DD DD BB BB FF FF > } image } if PT 18 eq {
16 16 1 [ 16 0 0 16 neg 0 16 ] { <  BB BB DD DD EE EE FF FF BB BB DD DD EE EE
FF FF BB BB DD DD EE EE FF FF BB BB DD DD EE EE FF FF > } image } if PT 19 eq
{ 16 16 1 [ 16 0 0 16 neg 0 16 ] { < 1F FC 67 F3 7B EF BD DE BD DE DE BD E6
B3 F8 0F E6 B3 DE BD BD DE BD DE 7B EF 67 F3 1F FC 7F FF > } image } if PT
20 eq { 16 16 1 [ 16 0 0 16 neg 0 16 ] { < DD DD EE EE EE EE EE EE DD DD BB
BB BB BB BB BB DD DD EE EE EE EE EE EE DD DD BB BB BB BB BB BB > } image }
if PT 21 eq { 16 16 1 [ 16 0 0 16 neg 0 16 ] { < 0E 0E EF EF EF EF EF EF E0
E0 FE FE FE FE FE FE 0E 0E EF EF EF EF EF EF E0 E0 FE FE FE FE FE FE > }
image }  if PT 22 eq { 16 16 1 [ 16 0 0 16 neg 0 16 ] { < 70 70 F7 F7 F7 F7 F7
F7 07 07 7F 7F 7F 7F 7F 7F 70 70 F7 F7 F7 F7 F7 F7 07 07 7F 7F 7F 7F 7F 7F >
} image } if PT 23 eq  { 16 16 1 [ 16 0 0 16 neg 0 16 ] { < AA AA 55 55 A9 A9
D1 D1 E1 E1 D1 D1 A9 A9 55 55 AA AA 55 55 A9 A9 D1 D1 E1 E1 D1 D1 A9 A9 55 55
> } image } if PT 24 eq { 16 16 1 [ 16 0 0 16 neg 0 16 ] { < FF FE FF FC EA
A8 D5 54 EA A8 D5 54 E8 28 D4 54 E8 E8 D4 D4 E8 EA 54 D5 A8 EA 54 D5 00 C0 00
80 > } image } if PT 25 eq {  16 16 1 [ 16 0 0 16 neg 0 16 ] { < FF FE FF FC
FF F8 FF F0 F0 00 F0 00 F0 20 F0 60 F0 E0 F1 E0 F3 E0 F0 00 E0 00 C0 00 80 00
00 00 > } image } if gr } def /FA { /PT exch def gsave clip 0 0 translate 1 1
54 { 1 sub 47.2 mul /Xcurr exch def 1 1 74 { 1 sub 47.2 mul /Ycurr exch def
gsave Xcurr Ycurr translate PT DP gr } for } for gr } def
/reencdict 24 dict def /ReEncode {reencdict begin /nco&na exch def
/nfnam exch def /basefontname exch def /basefontdict basefontname findfont def
/newfont basefontdict maxlength dict def basefontdict {exch dup /FID ne
{dup /Encoding eq {exch dup length array copy newfont 3 1 roll put} {exch
newfont 3 1 roll put} ifelse} {pop pop} ifelse } forall newfont
/FontName nfnam put nco&na aload pop nco&na length 2 idiv {newfont
/Encoding get 3 1 roll put} repeat nfnam newfont definefont pop end } def
/accvec [ 176 /agrave 181 /Agrave 190 /acircumflex 192 /Acircumflex
201 /adieresis 204 /Adieresis 209 /ccedilla 210 /Ccedilla 211 /eacute
212 /Eacute 213 /egrave 214 /Egrave 215 /ecircumflex 216 /Ecircumflex
217 /edieresis 218 /Edieresis 219 /icircumflex 220 /Icircumflex
221 /idieresis 222 /Idieresis 223 /ntilde 224 /Ntilde 226 /ocircumflex
228 /Ocircumflex 229 /odieresis 230 /Odieresis 231 /ucircumflex 236 /Ucircumflex
237 /udieresis 238 /Udieresis 239 /aring 242 /Aring 243 /ydieresis
244 /Ydieresis 246 /aacute 247 /Aacute 252 /ugrave 253 /Ugrave] def
/Times-Roman /Times-Roman accvec ReEncode
/Times-Italic /Times-Italic accvec ReEncode
/Times-Bold /Times-Bold accvec ReEncode
/Times-BoldItalic /Times-BoldItalic accvec ReEncode
/Helvetica /Helvetica accvec ReEncode
/Helvetica-Oblique /Helvetica-Oblique accvec ReEncode
/Helvetica-Bold /Helvetica-Bold accvec ReEncode
/Helvetica-BoldOblique /Helvetica-BoldOblique  accvec ReEncode
/Courier /Courier accvec ReEncode
/Courier-Oblique /Courier-Oblique accvec ReEncode
/Courier-Bold /Courier-Bold accvec ReEncode
/Courier-BoldOblique /Courier-BoldOblique accvec ReEncode
/oshow {gsave [] 0 sd true charpath stroke gr} def
/stwn { /fs exch def /fn exch def /text exch def fn findfont fs sf
 text sw pop xs add /xs exch def} def
/stwb { /fs exch def /fn exch def /nbas exch def /textf exch def
textf length /tlen exch def nbas tlen gt {/nbas tlen def} if
fn findfont fs sf textf dup length nbas sub nbas getinterval sw
pop neg xs add /xs exch def} def
/accspe [ 65 /plusminus 66 /bar 67 /existential 68 /universal
69 /exclam 70 /numbersign 71 /greater 72 /question 73 /integral
74 /colon 75 /semicolon 76 /less 77 /bracketleft 78 /bracketright
79 /greaterequal 80 /braceleft 81 /braceright 82 /radical
83 /spade 84 /heart 85 /diamond 86 /club 87 /lessequal
88 /multiply 89 /percent 90 /infinity 48 /circlemultiply 49 /circleplus
50 /emptyset 51 /lozenge 52 /bullet 53 /arrowright 54 /arrowup
55 /arrowleft 56 /arrowdown 57 /arrowboth 48 /degree 44 /comma 43 /plus
 45 /angle 42 /angleleft 47 /divide 61 /notequal 40 /equivalence 41 /second
 97 /approxequal 98 /congruent 99 /perpendicular 100 /partialdiff 101 /florin
 102 /intersection 103 /union 104 /propersuperset 105 /reflexsuperset
 106 /notsubset 107 /propersubset 108 /reflexsubset 109 /element 110 /notelement
 111 /gradient 112 /logicaland 113 /logicalor 114 /arrowdblboth
 115 /arrowdblleft 116 /arrowdblup 117 /arrowdblright 118 /arrowdbldown
 119 /ampersand 120 /omega1 121 /similar 122 /aleph ] def
/Symbol /Special accspe ReEncode
%%EndProlog
 gsave  .25 .25 scale  gsave 0 0 t black [] 0 sd 1 lw 3 lw 0 0 1 c 1701 1701 284
 284 bl 1701 1701 284 284 C NC 1 lw 284 284 m 1701 Y s 318 284 m -34 X s
 [4 8] 0 sd 1985 284 m -1701 X s [] 0 sd 301 318 m -17 X s 301 352 m -17 X s 301
 386 m -17 X s 301 420 m -17 X s 318 454 m -34 X s [4 8] 0 sd 1985 454 m -1701 X
 s [] 0 sd 301 488 m -17 X s 301 522 m -17 X s 301 556 m -17 X s 301 590 m -17 X
 s 318 624 m -34 X s [4 8] 0 sd 1985 624 m -1701 X s [] 0 sd 301 658 m -17 X s
 301 692 m -17 X s 301 726 m -17 X s 301 760 m -17 X s 318 794 m -34 X s
 [4 8] 0 sd 1985 794 m -1701 X s [] 0 sd 301 828 m -17 X s 301 862 m -17 X s 301
 896 m -17 X s 301 930 m -17 X s 318 964 m -34 X s [4 8] 0 sd 1985 964 m -1701 X
 s [] 0 sd 301 998 m -17 X s 301 1032 m -17 X s 301 1066 m -17 X s 301 1100 m
 -17 X s 318 1134 m -34 X s [4 8] 0 sd 1985 1134 m -1701 X s [] 0 sd 301 1168 m
 -17 X s 301 1202 m -17 X s 301 1236 m -17 X s 301 1270 m -17 X s 318 1304 m -34
 X s [4 8] 0 sd 1985 1304 m -1701 X s [] 0 sd 301 1338 m -17 X s 301 1372 m -17
 X s 301 1406 m -17 X s 301 1440 m -17 X s 318 1474 m -34 X s [4 8] 0 sd 1985
 1474 m -1701 X s [] 0 sd 301 1508 m -17 X s 301 1542 m -17 X s 301 1576 m -17 X
 s 301 1610 m -17 X s 318 1644 m -34 X s [4 8] 0 sd 1985 1644 m -1701 X s
 [] 0 sd 301 1678 m -17 X s 301 1712 m -17 X s 301 1746 m -17 X s 301 1780 m -17
 X s 318 1814 m -34 X s [4 8] 0 sd 1985 1814 m -1701 X s [] 0 sd 301 1848 m -17
 X s 301 1882 m -17 X s 301 1916 m -17 X s 301 1950 m -17 X s 318 1985 m -34 X s
 [4 8] 0 sd 1985 1985 m -1701 X s
 /xs 0 def 
(0)
 /Helvetica-Bold     70 stwn 
 gsave  238 258
 t   0 r  xs neg 0 t 0 0 m
 /Helvetica-Bold findfont   70 sf 0    0 m 
(0)
 show 
 gr 
 /xs 0 def 
(0.5)
 /Helvetica-Bold     70 stwn 
 gsave  238 428
 t   0 r  xs neg 0 t 0 0 m
 /Helvetica-Bold findfont   70 sf 0    0 m 
(0.5)
 show 
 gr 
 /xs 0 def 
(1)
 /Helvetica-Bold     70 stwn 
 gsave  238 598
 t   0 r  xs neg 0 t 0 0 m
 /Helvetica-Bold findfont   70 sf 0    0 m 
(1)
 show 
 gr 
 /xs 0 def 
(1.5)
 /Helvetica-Bold     70 stwn 
 gsave  238 768
 t   0 r  xs neg 0 t 0 0 m
 /Helvetica-Bold findfont   70 sf 0    0 m 
(1.5)
 show 
 gr 
 /xs 0 def 
(2)
 /Helvetica-Bold     70 stwn 
 gsave  238 938
 t   0 r  xs neg 0 t 0 0 m
 /Helvetica-Bold findfont   70 sf 0    0 m 
(2)
 show 
 gr 
 /xs 0 def 
(2.5)
 /Helvetica-Bold     70 stwn 
 gsave  238 1108
 t   0 r  xs neg 0 t 0 0 m
 /Helvetica-Bold findfont   70 sf 0    0 m 
(2.5)
 show 
 gr 
 /xs 0 def 
(3)
 /Helvetica-Bold     70 stwn 
 gsave  238 1279
 t   0 r  xs neg 0 t 0 0 m
 /Helvetica-Bold findfont   70 sf 0    0 m 
(3)
 show 
 gr 
 /xs 0 def 
(3.5)
 /Helvetica-Bold     70 stwn 
 gsave  238 1449
 t   0 r  xs neg 0 t 0 0 m
 /Helvetica-Bold findfont   70 sf 0    0 m 
(3.5)
 show 
 gr 
 /xs 0 def 
(4)
 /Helvetica-Bold     70 stwn 
 gsave  238 1619
 t   0 r  xs neg 0 t 0 0 m
 /Helvetica-Bold findfont   70 sf 0    0 m 
(4)
 show 
 gr 
 /xs 0 def 
(4.5)
 /Helvetica-Bold     70 stwn 
 gsave  238 1789
 t   0 r  xs neg 0 t 0 0 m
 /Helvetica-Bold findfont   70 sf 0    0 m 
(4.5)
 show 
 gr 
 /xs 0 def 
(5)
 /Helvetica-Bold     70 stwn 
 gsave  238 1959
 t   0 r  xs neg 0 t 0 0 m
 /Helvetica-Bold findfont   70 sf 0    0 m 
(5)
 show 
 gr  [] 0 sd 284 284 m 1701 X s 414 318 m -34 Y s [4 8] 0 sd 414 1985 m -1701 Y
 s [] 0 sd 480 301 m -17 Y s 545 301 m -17 Y s 611 301 m -17 Y s 676 318 m -34 Y
 s [4 8] 0 sd 676 1985 m -1701 Y s [] 0 sd 741 301 m -17 Y s 807 301 m -17 Y s
 872 301 m -17 Y s 938 318 m -34 Y s [4 8] 0 sd 938 1985 m -1701 Y s [] 0 sd
 1003 301 m -17 Y s 1069 301 m -17 Y s 1134 301 m -17 Y s 1199 318 m -34 Y s
 [4 8] 0 sd 1199 1985 m -1701 Y s [] 0 sd 1265 301 m -17 Y s 1330 301 m -17 Y s
 1396 301 m -17 Y s 1461 318 m -34 Y s [4 8] 0 sd 1461 1985 m -1701 Y s [] 0 sd
 1527 301 m -17 Y s 1592 301 m -17 Y s 1657 301 m -17 Y s 1723 318 m -34 Y s
 [4 8] 0 sd 1723 1985 m -1701 Y s [] 0 sd 1788 301 m -17 Y s 1854 301 m -17 Y s
 1919 301 m -17 Y s 1985 318 m -34 Y s [4 8] 0 sd 1985 1985 m -1701 Y s [] 0 sd
 414 318 m -34 Y s [4 8] 0 sd 414 1985 m -1701 Y s [] 0 sd 349 301 m -17 Y s
 /xs 0 def 
(-8)
 /Helvetica-Bold     70 stwn 
 gsave  414 176
 t   0 r  xs 2 div neg 0 t 0 0 m
 /Helvetica-Bold findfont   70 sf 0    0 m 
(-8)
 show 
 gr 
 /xs 0 def 
(-6)
 /Helvetica-Bold     70 stwn 
 gsave  676 176
 t   0 r  xs 2 div neg 0 t 0 0 m
 /Helvetica-Bold findfont   70 sf 0    0 m 
(-6)
 show 
 gr 
 /xs 0 def 
(-4)
 /Helvetica-Bold     70 stwn 
 gsave  938 176
 t   0 r  xs 2 div neg 0 t 0 0 m
 /Helvetica-Bold findfont   70 sf 0    0 m 
(-4)
 show 
 gr 
 /xs 0 def 
(-2)
 /Helvetica-Bold     70 stwn 
 gsave  1199 176
 t   0 r  xs 2 div neg 0 t 0 0 m
 /Helvetica-Bold findfont   70 sf 0    0 m 
(-2)
 show 
 gr 
 /xs 0 def 
(0)
 /Helvetica-Bold     70 stwn 
 gsave  1461 176
 t   0 r  xs 2 div neg 0 t 0 0 m
 /Helvetica-Bold findfont   70 sf 0    0 m 
(0)
 show 
 gr 
 /xs 0 def 
(2)
 /Helvetica-Bold     70 stwn 
 gsave  1723 176
 t   0 r  xs 2 div neg 0 t 0 0 m
 /Helvetica-Bold findfont   70 sf 0    0 m 
(2)
 show 
 gr 
 /xs 0 def 
(4)
 /Helvetica-Bold     70 stwn 
 gsave  1985 176
 t   0 r  xs 2 div neg 0 t 0 0 m
 /Helvetica-Bold findfont   70 sf 0    0 m 
(4)
 show 
 gr  1701 1701 284 284 C black /w 20 def /w2 {w 2 div} def /w3 {w 3 div} def
 1854 827 m24 1788 890 m24 1723 990 m24 1657 996 m24 1592 992 m24 1527 1104 m24
 1461 1178 m24 1396 1090 m24 1330 978 m24 1265 1024 m24 1199 977 m24 1134 1005
 m24 1069 971 m24 1003 939 m24 938 982 m24 872 945 m24 807 996 m24 741 1042 m24
 676 1002 m24 611 905 m24 545 965 m24 480 964 m24 414 948 m24 1854 914 m20 1788
 902 m20 1723 970 m20 1657 956 m20 1592 959 m20 1527 1048 m20 1461 1136 m20 1396
 1060 m20 1330 958 m20 1265 913 m20 1199 957 m20 1134 925 m20 1069 901 m20 1003
 953 m20 938 931 m20 872 942 m20 807 1001 m20 741 1061 m20 676 979 m20 611 928
 m20 545 914 m20 480 913 m20 414 950 m20 1854 731 m26 1788 756 m26 1723 776 m26
 1657 786 m26 1592 830 m26 1527 882 m26 1461 976 m26 1396 899 m26 1330 802 m26
 1265 802 m26 1199 771 m26 1134 764 m26 1069 758 m26 1003 740 m26 938 797 m26
 872 745 m26 807 771 m26 741 804 m26 676 769 m26 611 724 m26 545 788 m26 480 795
 m26 414 792 m26 1854 752 m22 1788 751 m22 1723 782 m22 1657 815 m22 1592 803
 m22 1527 867 m22 1461 989 m22 1396 867 m22 1330 824 m22 1265 780 m22 1199 801
 m22 1134 791 m22 1069 781 m22 1003 774 m22 938 786 m22 872 789 m22 807 781 m22
 741 903 m22 676 817 m22 611 790 m22 545 807 m22 480 796 m22 414 812 m22 2268
 2268 0 0 C
 /xs 0 def 
(X)
 /Helvetica-Bold     62 stwn 
(beam)
 /Helvetica-Bold     43 stwn 
( \( cm \))
 /Helvetica-Bold     62 stwn 
 gsave  1985 91
 t   0 r  xs neg 0 t 0 0 m
 /Helvetica-Bold findfont   62 sf 0    0 m 
(X)
 show 
 currentpoint pop 0 t 
 /Helvetica-Bold findfont   43 sf 0  -21 m 
(beam)
 show 
 currentpoint pop 0 t 
 /Helvetica-Bold findfont   62 sf 0    0 m 
( \( cm \))
 show 
 gr 
 /xs 0 def 
(Energy Resolution \( % \))
 /Helvetica-Bold     62 stwn 
 gsave  57 1985
 t  90 r  xs neg 0 t 0 0 m
 /Helvetica-Bold findfont   62 sf 0    0 m 
(Energy Resolution \( % \))
 show 
 gr  1701 1701 284 284 C 1854 827 1788 890 1723 990 1657 996 1592 992 1527 1104
 1461 1178 1396 1090 1330 978 1265 1024 1199 977 1134 1005 1069 971 1003 939 938
 982 872 945 807 996 741 1042 676 1002 611 905 545 965 480 964 414 948 23 { m24
} R 1854 827 m -11 7 d -11 10 d -12 10 d -11 12 d -11 12 d -10 12 d -65 100 d -5
 3 d -6 3 d -6 2 d -8 1 d -10 X -15 -2 d -10 -1 d -6 X -6 -1 d -9 -2 d -20 -6 d
 -7 -1 d -6 -1 d -6 1 d -4 2 d -5 2 d -2 2 d -5 4 d -4 6 d -5 7 d -6 9 d -7 13 d
 -12 25 d -10 21 d -6 11 d -5 8 d -5 8 d -9 14 d -20 30 d -7 9 d -6 7 d -5 6 d
 -5 3 d -5 3 d -4 1 d -4 1 d -1 X -4 -1 d -4 -2 d -4 -3 d -5 -5 d -5 -6 d -6 -8
 d -7 -12 d -12 -21 d -12 -20 d -6 -10 d -5 -8 d -6 -11 d -8 -17 d -14 -30 d -7
 -13 d -5 -10 d -5 -7 d -5 -7 d -4 -4 d -4 -3 d -3 -2 d -3 -1 d -4 X -4 2 d -5 2
 d -5 4 d -7 7 d -19 22 d -6 5 d -4 3 d -4 2 d -8 X -5 -2 d -5 -3 d -6 -5 d -7
 -6 d -17 -18 d -7 -6 d -5 -3 d -4 -2 d -6 -2 d -4 X -6 1 d -55 27 d -6 X -7 -2
 d -9 -4 d -10 -6 d -25 -17 d -8 -5 d -10 -5 d -25 -16 d -10 -6 d -7 -3 d -5 -1
 d -6 -1 d -3 X -4 1 d -6 2 d -5 4 d -8 6 d -24 22 d -6 4 d -5 2 d -4 2 d -8 X
 -5 -2 d -5 -3 d -7 -4 d -11 -10 d -10 -9 d -7 -5 d -6 -2 d -4 -2 d -6 X -5 1 d
 -5 2 d -55 48 d -10 8 d -28 25 d -8 6 d -6 3 d -6 3 d -5 1 d -9 X -7 -2 d -6 -2
 d -8 -4 d -8 -5 d -8 -7 d -11 -9 d -11 -11 d -4 -5 d -5 -7 d -6 -9 d -7 -14 d
 -14 -28 d -7 -10 d -4 -8 d -5 -6 d -4 -4 d -4 -3 d -4 -2 d -1 -1 d -66 60 d -7
 2 d -7 2 d -19 X -12 -1 d -20 -4 d -17 -2 d -17 -4 d -16 -4 d -16 -6 d s 1854
 914 1788 902 1723 970 1657 956 1592 959 1527 1048 1461 1136 1396 1060 1330 958
 1265 913 1199 957 1134 925 1069 901 1003 953 938 931 872 942 807 1001 741 1061
 676 979 611 928 545 914 480 913 414 950 23 { m20} R 1854 731 1788 756 1723 776
 1657 786 1592 830 1527 882 1461 976 1396 899 1330 802 1265 802 1199 771 1134
 764 1069 758 1003 740 938 797 872 745 807 771 741 804 676 769 611 724 545 788
 480 795 414 792 23 { m26} R 1854 731 m -25 10 d -24 9 d -17 6 d -33 11 d -15 5
 d -17 4 d -9 2 d -12 1 d -20 1 d -8 1 d -7 2 d -7 2 d -3 1 d -7 3 d -10 6 d -11
 7 d -37 28 d -20 14 d -15 10 d -10 8 d -7 7 d -7 6 d -6 7 d -4 5 d -5 5 d -4 8
 d -6 11 d -19 36 d -4 7 d -4 6 d -4 5 d -4 4 d -4 3 d -3 2 d -3 1 d -2 1 d -4 X
 -3 -1 d -4 -2 d -4 -2 d -4 -4 d -4 -4 d -5 -6 d -5 -8 d -8 -12 d -15 -24 d -5
 -9 d -4 -5 d -5 -7 d -6 -10 d -9 -14 d -15 -27 d -6 -10 d -5 -8 d -5 -7 d -5 -5
 d -4 -5 d -4 -3 d -2 -1 d -4 -3 d -4 -1 d -5 -1 d -5 -1 d -7 1 d -11 2 d -12 3
 d -6 1 d -5 X -5 -1 d -1 X -7 -2 d -7 -3 d -8 -4 d -14 -8 d -12 -7 d -9 -4 d -7
 -3 d -2 X -8 -2 d -11 -2 d -46 -3 d -31 -2 d -21 -2 d -13 -2 d -7 -2 d -8 -3 d
 -15 -7 d -9 -3 d -7 -2 d -6 -2 d -10 X -4 1 d -4 2 d -4 2 d -4 4 d -5 5 d -7 7
 d -19 23 d -5 5 d -4 4 d -4 3 d -4 1 d -3 1 d -6 X -4 -1 d -4 -2 d -4 -3 d -5
 -4 d -5 -6 d -12 -14 d -7 -8 d -5 -5 d -5 -4 d -4 -3 d -4 -1 d -3 -1 d -4 -1 d
 -6 X -5 1 d -6 2 d -8 4 d -31 17 d -5 3 d -7 3 d -9 6 d -23 15 d -7 4 d -7 2 d
 -5 2 d -5 X -3 1 d -5 -1 d -5 -1 d -7 -2 d -7 -4 d -8 -5 d -10 -6 d -18 -13 d
 -5 -3 d -5 -3 d -7 -6 d -10 -9 d -11 -11 d -7 -6 d -5 -4 d -5 -3 d -5 -2 d -4
 -1 d -6 X -4 1 d -4 2 d -4 2 d -4 4 d -5 5 d -6 7 d -12 15 d -8 11 d -6 7 d -4
 4 d -4 3 d -5 3 d -6 3 d -6 2 d -7 1 d -8 1 d -9 1 d -25 -1 d -22 X -18 -1 d
 -17 -1 d -13 -1 d s 1854 752 1788 751 1723 782 1657 815 1592 803 1527 867 1461
 989 1396 867 1330 824 1265 780 1199 801 1134 791 1069 781 1003 774 938 786 872
 789 807 781 741 903 676 817 611 790 545 807 480 796 414 812 23 { m22} R 2268
 2268 0 0 C 1701 1701 284 284 C 2268 2268 0 0 C
 gsave  741 1644
 t   0 r 0 0 m
 /Helvetica-Bold findfont   62 sf 0    0 m 
(470 MeV on 5X5 matrix \(Data\))
 show 
 gr  1701 1701 284 284 C 2268 2268 0 0 C 1701 1701 284 284 C 2268 2268 0 0 C /w
 32 def /w2 {w 2 div} def /w3 {w 3 div} def 702 1672 m22 1701 1701 284 284 C
 2268 2268 0 0 C 1701 1701 284 284 C 2268 2268 0 0 C
 gsave  1428 1576
 t   0 r 0 0 m
 /Helvetica-Bold findfont   62 sf 0    0 m 
(\( MC \))
 show 
 gr  1701 1701 284 284 C 2268 2268 0 0 C 1701 1701 284 284 C 2268 2268 0 0 C 702
 1603 m26 1701 1701 284 284 C 2268 2268 0 0 C 1701 1701 284 284 C 2268 2268 0 0
 C
 gsave  741 1474
 t   0 r 0 0 m
 /Helvetica-Bold findfont   62 sf 0    0 m 
(470 MeV on 3X3 matrix \(Data\))
 show 
 gr  1701 1701 284 284 C 2268 2268 0 0 C 1701 1701 284 284 C 2268 2268 0 0 C 702
 1501 m20 1701 1701 284 284 C 2268 2268 0 0 C 1701 1701 284 284 C 2268 2268 0 0
 C
 gsave  1428 1406
 t   0 r 0 0 m
 /Helvetica-Bold findfont   62 sf 0    0 m 
(\( MC \))
 show 
 gr  1701 1701 284 284 C 2268 2268 0 0 C 1701 1701 284 284 C 2268 2268 0 0 C 702
 1413 m24 1701 1701 284 284 C 2268 2268 0 0 C 1701 1701 284 284 C 2268 2268 0 0
 C 1701 1701 284 284 C 2268 2268 0 0 C 741 556 m 136 Y s 714 646 m 27 46 d 28
 -46 d s 1701 1701 284 284 C 2268 2268 0 0 C 1701 1701 284 284 C 2268 2268 0 0 C
 1701 1701 284 284 C 2268 2268 0 0 C 1461 556 m 136 Y s 1434 646 m 27 46 d 27
 -46 d s 1701 1701 284 284 C 2268 2268 0 0 C 1701 1701 284 284 C 2268 2268 0 0 C
 gsave  611 454
 t   0 r 0 0 m
 /Helvetica-Bold findfont   62 sf 0    0 m 
(Air Gap)
 show 
 gr  1701 1701 284 284 C 2268 2268 0 0 C 1701 1701 284 284 C 2268 2268 0 0 C
 gsave  1356 454
 t   0 r 0 0 m
 /Helvetica-Bold findfont   62 sf 0    0 m 
(Al Fin)
 show 
 gr  1701 1701 284 284 C
 gr  gr 
showpage
end
%%EOF
