%!PS-Adobe-2.0 EPSF-2.0
%%BoundingBox: 0 0 567 567
%%Title: pi.eps
%%Creator: HIGZ Version 1.23/07
%%CreationDate: :0/08/02   19.10
%%EndComments
%%BeginProlog
80 dict begin
/s {stroke} def /l {lineto} def /m {moveto} def /t {translate} def
/sw {stringwidth} def /r {rotate} def /rl {roll}  def /R {repeat} def
/d {rlineto} def /rm {rmoveto} def /gr {grestore} def /f {eofill} def
/c {setrgbcolor} def /lw {setlinewidth} def /sd {setdash} def
/cl {closepath} def /sf {scalefont setfont} def /black {0 setgray} def
/box {m dup 0 exch d exch 0 d 0 exch neg d cl} def
/NC{systemdict begin initclip end}def/C{NC box clip newpath}def
/bl {box s} def /bf {box f} def /Y { 0 exch d} def /X { 0 d} def 
/mp {newpath /y exch def /x exch def} def
/side {[w .77 mul w .23 mul] .385 w mul sd w 0 l currentpoint t -144 r} def
/mr {mp x y w2 0 360 arc} def /m24 {mr s} def /m20 {mr f} def
/mb {mp x y w2 add m w2 neg 0 d 0 w neg d w 0 d 0 w d cl} def
/mt {mp x y w2 add m w2 neg w neg d w 0 d cl} def
/m21 {mb f} def /m25 {mb s} def /m22 {mt f} def /m26 {mt s} def
/m23 {mp x y w2 sub m w2 w d w neg 0 d cl f} def
/m27 {mp x y w2 add m w3 neg w2 neg d w3 w2 neg d w3  w2 d cl s} def
/m28 {mp x w2 sub y w2 sub w3 add m w3 0 d 0 w3 neg d w3 0 d 0 w3 d w3 0 d
 0 w3 d w3 neg 0 d 0 w3 d w3 neg 0 d
 0 w3 neg d w3 neg 0 d cl s } def
/m29 {mp gsave x w2 sub y w2 add w3 sub m currentpoint t
 4 {side} repeat cl fill gr} def
/m30 {mp gsave x w2 sub y w2 add w3 sub m currentpoint t
 5 {side} repeat s gr} def
/m31 {mp x y w2 sub m 0 w d x w2 sub y m w 0 d
 x w2 sub y w2 add m w w neg d x w2 sub y w2
 sub m w w d s} def
/m2 {mp x y w2 sub m 0 w d x w2 sub y m w 0 d s} def
/m5 {mp x w2 sub y w2 sub m w w d x w2 sub y w2 add m w w neg d s} def
/DP {/PT exch def gsave 47.2 47.2 scale PT 1  eq { 16 16 1 [ 16 0 0 16 neg 0 16
] { < AA AA 55 55 AA AA 55 55 AA AA 55 55 AA AA 55 55 AA AA 55 55 AA AA 55 55
AA AA 55 55 AA AA 55 55 > } image } if PT 2 eq { 16 16 1 [ 16 0 0 16 neg 0 16
] { < BB BB EE EE BB BB EE EE BB BB EE EE BB BB EE EE BB BB EE EE BB BB EE EE
BB BB EE EE BB BB EE EE > } image } if PT 3 eq { 16 16 1 [ 16 0 0 16 neg 0 16
] { < FF FF BB BB FF FF EE EE FF FF BB BB FF FF EE EE FF FF BB BB FF FF EE EE
FF FF BB BB FF FF EE EE > } image } if PT 4 eq { 16 16 1 [ 16 0 0 16 neg 0 16
] { < DF DF BF BF 7F 7F FE FE FD FD FB FB F7 F7 EF EF DF DF BF BF 7F 7F FE FE
FD FD FB FB F7 F7 EF EF > } image } if PT 5 eq { 16 16 1 [ 16 0 0 16 neg 0 16
] { < 7F 7F BF B F DF DF EF EF F7 F7 FB FB FD FD FE FE 7F 7F BF BF DF DF EF
EF F7 F7 FB FB FD FD FE FE > } image } if PT 6 eq { 16 16 1 [ 16 0 0 16 neg 0
16 ] { < BB BB BB BB BB BB BB BB BB BB BB BB BB BB BB BB BB BB BB BB BB BB BB
BB BB BB BB BB BB BB BB BB > } image } if PT 7 eq { 16 16 1 [ 16 0 0 16 neg 0
16 ] { < FF FF FF FF FF FF 00 00 FF FF FF FF FF FF 00 00 FF FF FF FF FF FF 00
00 FF FF FF FF FF FF 00 00 > } image } if PT 8 eq { 16 16 1 [ 16 0 0 16 neg 0
16 ] { < EE EE 47 47 83 83 C5 C5 EE EE 5C 5C 38 38 74 74 EE EE 47 47 83 83 C5
C5 EE EE 5C 5C 38 38 74 74 > } image } if PT 9 eq { 16 16 1 [ 16 0 0 16 neg 0
16 ] { < EF EF EF EF D7 D7 38 38 FE FE FE FE 7D 7D 83 83 EF EF EF EF D7 D7 38
38  FE FE FE FE 7D 7D 83 83 > } image } if PT 10 eq { 16 16 1 [ 16 0 0 16 neg
0 16 ] { <  EF EF EF EF EF EF 00 00 FE FE FE FE FE FE 00 00 EF EF EF EF EF EF
00 00 FE FE FE FE FE FE 00 00 > } image } if PT 11 eq { 16 16 1 [ 16 0 0 16
neg 0 16 ] { < F7 F7 B6 B6 D5 D5 E3 E3 D5 D5 B6 B6 F7 F7 FF FF 7F 7F 6B 6B 5D
5D 3E 3E 5D 5D 6B 6B 7F 7F FF FF > } image } if PT 12 eq { 16 16 1 [ 16 0 0
16 neg 0 16 ] { < E3 E3 DD DD BE BE BE BE BE BE DD DD E3 E3 FF FF 3E 3E DD DD
EB EB EB EB EB EB DD DD 3E 3E FF FF > } image } if PT 13 eq { 16 16 1 [ 16 0
0 16 neg 0 16 ] { <  FE FE 7D 7D BB BB D7 D7 EF EF D7 D7 BB BB 7D 7D FE FE 7D
7D BB BB D7 D7 EF EF D7 D7 BB BB 7D 7D > } image } if PT 14 eq { 16 16 1 [ 16
0 0 16 neg 0 16 ] { < 00 00 EE EF EE EF EE EF 0E E0 EE EE EE EE EE EE 00 EE
FE EE FE EE FE EE 00 00 FE EF FE EF FE EF > } image } if PT 15 eq { 16 16 1 [
16 0 0 16 neg 0 16 ] { < DD DD AA AA DD DD FF FF 77 77 AA AA 77 77 FF FF DD
DD AA AA DD DD FF FF 77 77 AA AA 77 77 FF FF > } image } if PT 16 eq { 16 16
1 [ 16 0 0 16 neg 0 16 ] { <  F1 F1 EE EE 1F 1F FF FF F1 F1 EE EE 1F 1F FF FF
F1 F1 EE EE 1F 1F FF FF F1 F1 EE EE 1F 1F FF FF > } image } if PT 17 eq { 16
16 1 [ 16 0 0 16 neg 0 16 ] { <  EE EE DD DD BB BB FF FF EE EE DD DD BB BB FF
 FF EE EE DD DD BB BB FF FF EE EE DD DD BB BB FF FF > } image } if PT 18 eq {
16 16 1 [ 16 0 0 16 neg 0 16 ] { <  BB BB DD DD EE EE FF FF BB BB DD DD EE EE
FF FF BB BB DD DD EE EE FF FF BB BB DD DD EE EE FF FF > } image } if PT 19 eq
{ 16 16 1 [ 16 0 0 16 neg 0 16 ] { < 1F FC 67 F3 7B EF BD DE BD DE DE BD E6
B3 F8 0F E6 B3 DE BD BD DE BD DE 7B EF 67 F3 1F FC 7F FF > } image } if PT
20 eq { 16 16 1 [ 16 0 0 16 neg 0 16 ] { < DD DD EE EE EE EE EE EE DD DD BB
BB BB BB BB BB DD DD EE EE EE EE EE EE DD DD BB BB BB BB BB BB > } image }
if PT 21 eq { 16 16 1 [ 16 0 0 16 neg 0 16 ] { < 0E 0E EF EF EF EF EF EF E0
E0 FE FE FE FE FE FE 0E 0E EF EF EF EF EF EF E0 E0 FE FE FE FE FE FE > }
image }  if PT 22 eq { 16 16 1 [ 16 0 0 16 neg 0 16 ] { < 70 70 F7 F7 F7 F7 F7
F7 07 07 7F 7F 7F 7F 7F 7F 70 70 F7 F7 F7 F7 F7 F7 07 07 7F 7F 7F 7F 7F 7F >
} image } if PT 23 eq  { 16 16 1 [ 16 0 0 16 neg 0 16 ] { < AA AA 55 55 A9 A9
D1 D1 E1 E1 D1 D1 A9 A9 55 55 AA AA 55 55 A9 A9 D1 D1 E1 E1 D1 D1 A9 A9 55 55
> } image } if PT 24 eq { 16 16 1 [ 16 0 0 16 neg 0 16 ] { < FF FE FF FC EA
A8 D5 54 EA A8 D5 54 E8 28 D4 54 E8 E8 D4 D4 E8 EA 54 D5 A8 EA 54 D5 00 C0 00
80 > } image } if PT 25 eq {  16 16 1 [ 16 0 0 16 neg 0 16 ] { < FF FE FF FC
FF F8 FF F0 F0 00 F0 00 F0 20 F0 60 F0 E0 F1 E0 F3 E0 F0 00 E0 00 C0 00 80 00
00 00 > } image } if gr } def /FA { /PT exch def gsave clip 0 0 translate 1 1
54 { 1 sub 47.2 mul /Xcurr exch def 1 1 74 { 1 sub 47.2 mul /Ycurr exch def
gsave Xcurr Ycurr translate PT DP gr } for } for gr newpath } def
/reencdict 24 dict def /ReEncode {reencdict begin /nco&na exch def
/nfnam exch def /basefontname exch def /basefontdict basefontname findfont def
/newfont basefontdict maxlength dict def basefontdict {exch dup /FID ne
{dup /Encoding eq {exch dup length array copy newfont 3 1 roll put} {exch
newfont 3 1 roll put} ifelse} {pop pop} ifelse } forall newfont
/FontName nfnam put nco&na aload pop nco&na length 2 idiv {newfont
/Encoding get 3 1 roll put} repeat nfnam newfont definefont pop end } def
/accvec [ 176 /agrave 181 /Agrave 190 /acircumflex 192 /Acircumflex
201 /adieresis 204 /Adieresis 209 /ccedilla 210 /Ccedilla 211 /eacute
212 /Eacute 213 /egrave 214 /Egrave 215 /ecircumflex 216 /Ecircumflex
217 /edieresis 218 /Edieresis 219 /icircumflex 220 /Icircumflex
221 /idieresis 222 /Idieresis 223 /ntilde 224 /Ntilde 226 /ocircumflex
228 /Ocircumflex 229 /odieresis 230 /Odieresis 231 /ucircumflex 236 /Ucircumflex
237 /udieresis 238 /Udieresis 239 /aring 242 /Aring 243 /ydieresis
244 /Ydieresis 246 /aacute 247 /Aacute 252 /ugrave 253 /Ugrave] def
/Times-Roman /Times-Roman accvec ReEncode
/Times-Italic /Times-Italic accvec ReEncode
/Times-Bold /Times-Bold accvec ReEncode
/Times-BoldItalic /Times-BoldItalic accvec ReEncode
/Helvetica /Helvetica accvec ReEncode
/Helvetica-Oblique /Helvetica-Oblique accvec ReEncode
/Helvetica-Bold /Helvetica-Bold accvec ReEncode
/Helvetica-BoldOblique /Helvetica-BoldOblique  accvec ReEncode
/Courier /Courier accvec ReEncode
/Courier-Oblique /Courier-Oblique accvec ReEncode
/Courier-Bold /Courier-Bold accvec ReEncode
/Courier-BoldOblique /Courier-BoldOblique accvec ReEncode
/oshow {gsave [] 0 sd true charpath stroke gr} def
/stwn { /fs exch def /fn exch def /text exch def fn findfont fs sf
 text sw pop xs add /xs exch def} def
/stwb { /fs exch def /fn exch def /nbas exch def /textf exch def
textf length /tlen exch def nbas tlen gt {/nbas tlen def} if
fn findfont fs sf textf dup length nbas sub nbas getinterval sw
pop neg xs add /xs exch def} def
/accspe [ 65 /plusminus 66 /bar 67 /existential 68 /universal
69 /exclam 70 /numbersign 71 /greater 72 /question 73 /integral
74 /colon 75 /semicolon 76 /less 77 /bracketleft 78 /bracketright
79 /greaterequal 80 /braceleft 81 /braceright 82 /radical
83 /spade 84 /heart 85 /diamond 86 /club 87 /lessequal
88 /multiply 89 /percent 90 /infinity 48 /circlemultiply 49 /circleplus
50 /emptyset 51 /lozenge 52 /bullet 53 /arrowright 54 /arrowup
55 /arrowleft 56 /arrowdown 57 /arrowboth 48 /degree 44 /comma 43 /plus
 45 /angle 42 /angleleft 47 /divide 61 /notequal 40 /equivalence 41 /second
 97 /approxequal 98 /congruent 99 /perpendicular 100 /partialdiff 101 /florin
 102 /intersection 103 /union 104 /propersuperset 105 /reflexsuperset
 106 /notsubset 107 /propersubset 108 /reflexsubset 109 /element 110 /notelement
 111 /gradient 112 /logicaland 113 /logicalor 114 /arrowdblboth
 115 /arrowdblleft 116 /arrowdblup 117 /arrowdblright 118 /arrowdbldown
 119 /ampersand 120 /omega1 121 /similar 122 /aleph ] def
/Symbol /Special accspe ReEncode
%%EndProlog
 gsave  .25 .25 scale  gsave 0 0 t black [] 0 sd 1 lw 4 lw 1814 1814 227 227 bl
 1814 1814 227 227 C 2268 2268 0 0 C
 /xs 0 def 
(p)
 /Symbol    125 stwn 
(0)
 /Times-Bold     88 stwn 
(5)
 /Special    125 stwn 
(g)
 /Symbol    125 stwn 
(g)
 /Symbol    125 stwn 
( in hadronic events)
 /Times-Bold    125 stwn 
 gsave  1134 2115
 t   0 r  xs 2 div neg 0 t 0 0 m
 /Symbol findfont  125 sf 0    0 m 
(p)
 show 
 currentpoint pop 0 t 
 /Times-Bold findfont   88 sf 0   63 m 
(0)
 show 
 currentpoint pop 0 t 
 /Special findfont  125 sf 0    0 m 
(5)
 show 
 currentpoint pop 0 t 
 /Symbol findfont  125 sf 0    0 m 
(g)
 show 
 currentpoint pop 0 t 
 /Symbol findfont  125 sf 0    0 m 
(g)
 show 
 currentpoint pop 0 t 
 /Times-Bold findfont  125 sf 0    0 m 
( in hadronic events)
 show 
 gr  1814 1814 227 227 C 1 lw 1 1 0 c 227 227 m 956 Y 18 X 2 Y 18 X 3 Y 36 X 3 Y
 18 X 3 Y 18 X 1 Y 18 X 3 Y 18 X 1 Y 17 X 4 Y 18 X -2 Y 18 X 7 Y 36 X 1 Y 18 X 1
 Y 18 X 1 Y 18 X 3 Y 54 X 3 Y 18 X -1 Y 18 X 1 Y 18 X 3 Y 18 X 3 Y 18 X -1 Y 18
 X 1 Y 18 X 3 Y 18 X -1 Y 18 X 3 Y 36 X 4 Y 18 X 1 Y 18 X 5 Y 18 X 4 Y 18 X 2 Y
 18 X 6 Y 18 X 8 Y 17 X 9 Y 18 X 11 Y 18 X 12 Y 18 X 16 Y 18 X 24 Y 18 X 29 Y 18
 X 34 Y 18 X 44 Y 18 X 51 Y 18 X 62 Y 18 X 70 Y 18 X 72 Y 18 X -1465 Y f 4 lw
 black 227 227 m 956 Y 18 X 2 Y 18 X 3 Y 36 X 3 Y 18 X 3 Y 18 X 1 Y 18 X 3 Y 18
 X 1 Y 17 X 4 Y 18 X -2 Y 18 X 7 Y 36 X 1 Y 18 X 1 Y 18 X 1 Y 18 X 3 Y 54 X 3 Y
 18 X -1 Y 18 X 1 Y 18 X 3 Y 18 X 3 Y 18 X -1 Y 18 X 1 Y 18 X 3 Y 18 X -1 Y 18 X
 3 Y 36 X 4 Y 18 X 1 Y 18 X 5 Y 18 X 4 Y 18 X 2 Y 18 X 6 Y 18 X 8 Y 17 X 9 Y 18
 X 11 Y 18 X 12 Y 18 X 16 Y 18 X 24 Y 18 X 29 Y 18 X 34 Y 18 X 44 Y 18 X 51 Y 18
 X 62 Y 18 X 70 Y 18 X 72 Y 18 X s 1 lw 1 1 0 c 1107 227 m 1534 Y 18 X 61 Y 18 X
 34 Y 18 X 4 Y 18 X -30 Y 18 X -60 Y 18 X -84 Y 18 X -98 Y 18 X -93 Y 18 X -87 Y
 18 X -74 Y 18 X -57 Y 18 X -48 Y 18 X -36 Y 18 X -30 Y 18 X -20 Y 17 X -16 Y 18
 X -14 Y 18 X -12 Y 18 X -8 Y 18 X -7 Y 18 X -8 Y 18 X -6 Y 18 X -7 Y 18 X -6 Y
 18 X -4 Y 18 X -2 Y 18 X -5 Y 18 X -6 Y 18 X -3 Y 18 X -5 Y 18 X -6 Y 18 X -2 Y
 18 X -5 Y 18 X -4 Y 18 X -5 Y 18 X -2 Y 18 X -5 Y 18 X -6 Y 36 X -6 Y 18 X -4 Y
 18 X -3 Y 18 X -4 Y 17 X -4 Y 18 X -5 Y 18 X -2 Y 18 X -5 Y 18 X -5 Y 18 X -734
 Y f 4 lw black 1107 1692 m 69 Y 18 X 61 Y 18 X 34 Y 18 X 4 Y 18 X -30 Y 18 X
 -60 Y 18 X -84 Y 18 X -98 Y 18 X -93 Y 18 X -87 Y 18 X -74 Y 18 X -57 Y 18 X
 -48 Y 18 X -36 Y 18 X -30 Y 18 X -20 Y 17 X -16 Y 18 X -14 Y 18 X -12 Y 18 X -8
 Y 18 X -7 Y 18 X -8 Y 18 X -6 Y 18 X -7 Y 18 X -6 Y 18 X -4 Y 18 X -2 Y 18 X -5
 Y 18 X -6 Y 18 X -3 Y 18 X -5 Y 18 X -6 Y 18 X -2 Y 18 X -5 Y 18 X -4 Y 18 X -5
 Y 18 X -2 Y 18 X -5 Y 18 X -6 Y 36 X -6 Y 18 X -4 Y 18 X -3 Y 18 X -4 Y 17 X -4
 Y 18 X -5 Y 18 X -2 Y 18 X -5 Y 18 X -5 Y 18 X s 1 lw 1 1 0 c 1987 227 m 729 Y
 18 X -2 Y 18 X -3 Y 18 X -724 Y f 4 lw black 1987 961 m -5 Y 18 X -2 Y 18 X -3
 Y 18 X s 236 1180 m 18 4 d 18 3 d 18 3 d 18 3 d 18 2 d 18 3 d 18 1 d 17 2 d 18
 2 d 18 1 d 18 2 d 18 1 d 18 1 d 18 1 d 18 2 d 18 1 d 18 1 d 18 1 d 18 1 d 18 1
 d 18 1 d 18 1 d 18 2 d 18 1 d 18 1 d 18 2 d 18 1 d 18 2 d 18 2 d 18 3 d 18 2 d
 18 4 d 18 4 d 18 5 d 18 6 d 17 7 d 18 9 d 18 11 d 15 10 d 3 4 d 13 11 d 5 6 d
 12 12 d 6 9 d 10 14 d 8 12 d 9 15 d 9 17 d 8 17 d 8 18 d 2 6 d 7 18 d 7 20 d 4
 12 d 7 21 d 6 22 d 5 18 d 6 23 d 10 42 d 2 12 d 6 26 d 10 45 d 2 11 d 8 31 d 7
 31 d 3 10 d s 1116 1773 m 6 21 d 6 17 d 6 16 d 6 12 d 5 8 d 5 6 d 2 2 d 6 2 d 5
 X 5 -3 d 2 -1 d 5 -7 d 6 -9 d 6 -13 d 1 -3 d 5 -15 d 7 -22 d 6 -22 d 6 -25 d 9
 -42 d 3 -11 d 8 -42 d 10 -47 d 18 -92 d 13 -66 d 5 -21 d 10 -44 d 8 -33 d 7 -30
 d 9 -28 d 2 -7 d 8 -23 d 8 -23 d 2 -4 d 8 -20 d 10 -19 d 9 -16 d 9 -12 d 11 -14
 d 7 -7 d 13 -11 d 4 -4 d 18 -11 d 18 -8 d 18 -8 d 18 -6 d 18 -6 d 18 -6 d 18 -6
 d 18 -6 d 18 -5 d 18 -5 d 18 -6 d 18 -5 d 18 -5 d 18 -5 d 18 -4 d 18 -5 d 18 -4
 d 18 -5 d 18 -4 d 18 -4 d 18 -4 d 18 -3 d 18 -4 d 18 -4 d 18 -3 d 18 -4 d 18 -3
 d 17 -4 d 18 -3 d 18 -4 d 18 -4 d 18 -4 d 18 -4 d s 1996 959 m 5 -2 d 5 -1 d 4
 -1 d 4 -1 d 5 -2 d 5 -1 d 4 -1 d 4 -2 d s NC 1 lw 227 227 m 1814 Y s 4 lw 295
 227 m -68 X s 261 294 m -34 X s 261 361 m -34 X s 261 428 m -34 X s 295 496 m
 -68 X s 261 563 m -34 X s 261 630 m -34 X s 261 697 m -34 X s 295 764 m -68 X s
 261 831 m -34 X s 261 899 m -34 X s 261 966 m -34 X s 295 1033 m -68 X s 261
 1100 m -34 X s 261 1167 m -34 X s 261 1234 m -34 X s 295 1302 m -68 X s 261
 1369 m -34 X s 261 1436 m -34 X s 261 1503 m -34 X s 295 1570 m -68 X s 261
 1638 m -34 X s 261 1705 m -34 X s 261 1772 m -34 X s 295 1839 m -68 X s 295
 1839 m -68 X s 261 1906 m -34 X s 261 1973 m -34 X s 261 2041 m -34 X s
 /xs 0 def 
(0)
 /Times-Bold     67 stwn 
 gsave  181 204
 t   0 r  xs neg 0 t 0 0 m
 /Times-Bold findfont   67 sf 0    0 m 
(0)
 show 
 gr 
 /xs 0 def 
(200)
 /Times-Bold     67 stwn 
 gsave  181 473
 t   0 r  xs neg 0 t 0 0 m
 /Times-Bold findfont   67 sf 0    0 m 
(200)
 show 
 gr 
 /xs 0 def 
(400)
 /Times-Bold     67 stwn 
 gsave  181 742
 t   0 r  xs neg 0 t 0 0 m
 /Times-Bold findfont   67 sf 0    0 m 
(400)
 show 
 gr 
 /xs 0 def 
(600)
 /Times-Bold     67 stwn 
 gsave  181 1010
 t   0 r  xs neg 0 t 0 0 m
 /Times-Bold findfont   67 sf 0    0 m 
(600)
 show 
 gr 
 /xs 0 def 
(800)
 /Times-Bold     67 stwn 
 gsave  181 1279
 t   0 r  xs neg 0 t 0 0 m
 /Times-Bold findfont   67 sf 0    0 m 
(800)
 show 
 gr 
 /xs 0 def 
(1000)
 /Times-Bold     67 stwn 
 gsave  181 1548
 t   0 r  xs neg 0 t 0 0 m
 /Times-Bold findfont   67 sf 0    0 m 
(1000)
 show 
 gr 
 /xs 0 def 
(1200)
 /Times-Bold     67 stwn 
 gsave  181 1816
 t   0 r  xs neg 0 t 0 0 m
 /Times-Bold findfont   67 sf 0    0 m 
(1200)
 show 
 gr 
 /xs 0 def 
(x 10)
 /Times-Bold     67 stwn 
 gsave  181 1952
 t   0 r  xs neg 0 t 0 0 m
 /Times-Bold findfont   67 sf 0    0 m 
(x 10)
 show 
 gr 
 /xs 0 def 
(3)
 /Times-Bold     53 stwn 
 gsave  227 1980
 t   0 r  xs neg 0 t 0 0 m
 /Times-Bold findfont   53 sf 0    0 m 
(3)
 show 
 gr  1 lw 227 227 m 1814 X s 4 lw 227 295 m -68 Y s 317 261 m -34 Y s 406 261 m
 -34 Y s 496 261 m -34 Y s 586 295 m -68 Y s 676 261 m -34 Y s 766 261 m -34 Y s
 856 261 m -34 Y s 945 295 m -68 Y s 1035 261 m -34 Y s 1125 261 m -34 Y s 1215
 261 m -34 Y s 1305 295 m -68 Y s 1394 261 m -34 Y s 1484 261 m -34 Y s 1574 261
 m -34 Y s 1664 295 m -68 Y s 1754 261 m -34 Y s 1844 261 m -34 Y s 1933 261 m
 -34 Y s 2023 295 m -68 Y s 227 295 m -68 Y s 2023 295 m -68 Y s
 /xs 0 def 
(0.08)
 /Times-Bold     67 stwn 
 gsave  227 159
 t   0 r  xs 2 div neg 0 t 0 0 m
 /Times-Bold findfont   67 sf 0    0 m 
(0.08)
 show 
 gr 
 /xs 0 def 
(0.1)
 /Times-Bold     67 stwn 
 gsave  586 159
 t   0 r  xs 2 div neg 0 t 0 0 m
 /Times-Bold findfont   67 sf 0    0 m 
(0.1)
 show 
 gr 
 /xs 0 def 
(0.12)
 /Times-Bold     67 stwn 
 gsave  945 159
 t   0 r  xs 2 div neg 0 t 0 0 m
 /Times-Bold findfont   67 sf 0    0 m 
(0.12)
 show 
 gr 
 /xs 0 def 
(0.14)
 /Times-Bold     67 stwn 
 gsave  1305 159
 t   0 r  xs 2 div neg 0 t 0 0 m
 /Times-Bold findfont   67 sf 0    0 m 
(0.14)
 show 
 gr 
 /xs 0 def 
(0.16)
 /Times-Bold     67 stwn 
 gsave  1664 159
 t   0 r  xs 2 div neg 0 t 0 0 m
 /Times-Bold findfont   67 sf 0    0 m 
(0.16)
 show 
 gr 
 /xs 0 def 
(0.18)
 /Times-Bold     67 stwn 
 gsave  2023 159
 t   0 r  xs 2 div neg 0 t 0 0 m
 /Times-Bold findfont   67 sf 0    0 m 
(0.18)
 show 
 gr  1814 1814 227 227 C 2268 2268 0 0 C
 /xs 0 def 
(M)
 /Times-Bold    100 stwn 
(g)
 /Symbol     70 stwn 
(g)
 /Symbol     70 stwn 
(\(GeV/c)
 /Times-Bold    100 stwn 
(2)
 /Times-Bold     70 stwn 
(\))
 /Times-Bold    100 stwn 
 gsave  1134 57
 t   0 r  xs 2 div neg 0 t 0 0 m
 /Times-Bold findfont  100 sf 0    0 m 
(M)
 show 
 currentpoint pop 0 t 
 /Symbol findfont   70 sf 0  -33 m 
(g)
 show 
 currentpoint pop 0 t 
 /Symbol findfont   70 sf 0  -33 m 
(g)
 show 
 currentpoint pop 0 t 
 /Times-Bold findfont  100 sf 0    0 m 
(\(GeV/c)
 show 
 currentpoint pop 0 t 
 /Times-Bold findfont   70 sf 0   50 m 
(2)
 show 
 currentpoint pop 0 t 
 /Times-Bold findfont  100 sf 0    0 m 
(\))
 show 
 gr  1814 1814 227 227 C 2268 2268 0 0 C 1814 1814 227 227 C 2268 2268 0 0 C
 gsave  406 708
 t   0 r 0 0 m
 /Helvetica-Bold findfont   78 sf 0    0 m 
( )
 show 
 currentpoint pop 0 t 
 /Symbol findfont   55 sf 0  -26 m 
( )
 show 
 currentpoint pop 0 t 
 /Helvetica-Bold findfont   78 sf 0    0 m 
( )
 show 
 currentpoint pop 0 t 
 /Helvetica-Bold findfont   78 sf 0    0 m 
( )
 show 
 currentpoint pop 0 t 
 /Helvetica-Bold findfont   78 sf 0    0 m 
( )
 show 
 gr  1814 1814 227 227 C 2268 2268 0 0 C 1814 1814 227 227 C 2268 2268 0 0 C
 gsave  406 573
 t   0 r 0 0 m
 /Symbol findfont   78 sf 0    0 m 
(s)
 show 
 currentpoint pop 0 t 
 /Helvetica-Bold findfont   55 sf 0  -26 m 
(m)
 show 
 currentpoint pop 0 t 
 /Helvetica-Bold findfont   78 sf 0    0 m 
( = 4.75 +- 0.08 \(MeV/c)
 show 
 currentpoint pop 0 t 
 /Helvetica-Bold findfont   55 sf 0   39 m 
(2)
 show 
 currentpoint pop 0 t 
 /Helvetica-Bold findfont   78 sf 0    0 m 
(\))
 show 
 gr  1814 1814 227 227 C
 gr  gr 
showpage
end
%%EOF
