%!PS-Adobe-2.0 EPSF-2.0
%%BoundingBox: 0 0 567 425
%%Title: pos_all.eps
%%Creator: HIGZ Version 1.23/07
%%CreationDate: 99/07/21   10.01
%%EndComments
%%BeginProlog
80 dict begin
/s {stroke} def /l {lineto} def /m {moveto} def /t {translate} def
/sw {stringwidth} def /r {rotate} def /rl {roll}  def /R {repeat} def
/d {rlineto} def /rm {rmoveto} def /gr {grestore} def /f {eofill} def
/c {setrgbcolor} def /lw {setlinewidth} def /sd {setdash} def
/cl {closepath} def /sf {scalefont setfont} def /black {0 setgray} def
/box {m dup 0 exch d exch 0 d 0 exch neg d cl} def
/NC{systemdict begin initclip end}def/C{NC box clip newpath}def
/bl {box s} def /bf {box f} def /Y { 0 exch d} def /X { 0 d} def 
/mp {newpath /y exch def /x exch def} def
/side {[w .77 mul w .23 mul] .385 w mul sd w 0 l currentpoint t -144 r} def
/mr {mp x y w2 0 360 arc} def /m24 {mr s} def /m20 {mr f} def
/mb {mp x y w2 add m w2 neg 0 d 0 w neg d w 0 d 0 w d cl} def
/mt {mp x y w2 add m w2 neg w neg d w 0 d cl} def
/m21 {mb f} def /m25 {mb s} def /m22 {mt f} def /m26 {mt s} def
/m23 {mp x y w2 sub m w2 w d w neg 0 d cl f} def
/m27 {mp x y w2 add m w3 neg w2 neg d w3 w2 neg d w3  w2 d cl s} def
/m28 {mp x w2 sub y w2 sub w3 add m w3 0 d 0 w3 neg d w3 0 d 0 w3 d w3 0 d
 0 w3 d w3 neg 0 d 0 w3 d w3 neg 0 d
 0 w3 neg d w3 neg 0 d cl s } def
/m29 {mp gsave x w2 sub y w2 add w3 sub m currentpoint t
 4 {side} repeat cl fill gr} def
/m30 {mp gsave x w2 sub y w2 add w3 sub m currentpoint t
 5 {side} repeat s gr} def
/m31 {mp x y w2 sub m 0 w d x w2 sub y m w 0 d
 x w2 sub y w2 add m w w neg d x w2 sub y w2
 sub m w w d s} def
/m2 {mp x y w2 sub m 0 w d x w2 sub y m w 0 d s} def
/m5 {mp x w2 sub y w2 sub m w w d x w2 sub y w2 add m w w neg d s} def
/DP {/PT exch def gsave 47.2 47.2 scale PT 1  eq { 16 16 1 [ 16 0 0 16 neg 0 16
] { < AA AA 55 55 AA AA 55 55 AA AA 55 55 AA AA 55 55 AA AA 55 55 AA AA 55 55
AA AA 55 55 AA AA 55 55 > } image } if PT 2 eq { 16 16 1 [ 16 0 0 16 neg 0 16
] { < BB BB EE EE BB BB EE EE BB BB EE EE BB BB EE EE BB BB EE EE BB BB EE EE
BB BB EE EE BB BB EE EE > } image } if PT 3 eq { 16 16 1 [ 16 0 0 16 neg 0 16
] { < FF FF BB BB FF FF EE EE FF FF BB BB FF FF EE EE FF FF BB BB FF FF EE EE
FF FF BB BB FF FF EE EE > } image } if PT 4 eq { 16 16 1 [ 16 0 0 16 neg 0 16
] { < DF DF BF BF 7F 7F FE FE FD FD FB FB F7 F7 EF EF DF DF BF BF 7F 7F FE FE
FD FD FB FB F7 F7 EF EF > } image } if PT 5 eq { 16 16 1 [ 16 0 0 16 neg 0 16
] { < 7F 7F BF B F DF DF EF EF F7 F7 FB FB FD FD FE FE 7F 7F BF BF DF DF EF
EF F7 F7 FB FB FD FD FE FE > } image } if PT 6 eq { 16 16 1 [ 16 0 0 16 neg 0
16 ] { < BB BB BB BB BB BB BB BB BB BB BB BB BB BB BB BB BB BB BB BB BB BB BB
BB BB BB BB BB BB BB BB BB > } image } if PT 7 eq { 16 16 1 [ 16 0 0 16 neg 0
16 ] { < FF FF FF FF FF FF 00 00 FF FF FF FF FF FF 00 00 FF FF FF FF FF FF 00
00 FF FF FF FF FF FF 00 00 > } image } if PT 8 eq { 16 16 1 [ 16 0 0 16 neg 0
16 ] { < EE EE 47 47 83 83 C5 C5 EE EE 5C 5C 38 38 74 74 EE EE 47 47 83 83 C5
C5 EE EE 5C 5C 38 38 74 74 > } image } if PT 9 eq { 16 16 1 [ 16 0 0 16 neg 0
16 ] { < EF EF EF EF D7 D7 38 38 FE FE FE FE 7D 7D 83 83 EF EF EF EF D7 D7 38
38  FE FE FE FE 7D 7D 83 83 > } image } if PT 10 eq { 16 16 1 [ 16 0 0 16 neg
0 16 ] { <  EF EF EF EF EF EF 00 00 FE FE FE FE FE FE 00 00 EF EF EF EF EF EF
00 00 FE FE FE FE FE FE 00 00 > } image } if PT 11 eq { 16 16 1 [ 16 0 0 16
neg 0 16 ] { < F7 F7 B6 B6 D5 D5 E3 E3 D5 D5 B6 B6 F7 F7 FF FF 7F 7F 6B 6B 5D
5D 3E 3E 5D 5D 6B 6B 7F 7F FF FF > } image } if PT 12 eq { 16 16 1 [ 16 0 0
16 neg 0 16 ] { < E3 E3 DD DD BE BE BE BE BE BE DD DD E3 E3 FF FF 3E 3E DD DD
EB EB EB EB EB EB DD DD 3E 3E FF FF > } image } if PT 13 eq { 16 16 1 [ 16 0
0 16 neg 0 16 ] { <  FE FE 7D 7D BB BB D7 D7 EF EF D7 D7 BB BB 7D 7D FE FE 7D
7D BB BB D7 D7 EF EF D7 D7 BB BB 7D 7D > } image } if PT 14 eq { 16 16 1 [ 16
0 0 16 neg 0 16 ] { < 00 00 EE EF EE EF EE EF 0E E0 EE EE EE EE EE EE 00 EE
FE EE FE EE FE EE 00 00 FE EF FE EF FE EF > } image } if PT 15 eq { 16 16 1 [
16 0 0 16 neg 0 16 ] { < DD DD AA AA DD DD FF FF 77 77 AA AA 77 77 FF FF DD
DD AA AA DD DD FF FF 77 77 AA AA 77 77 FF FF > } image } if PT 16 eq { 16 16
1 [ 16 0 0 16 neg 0 16 ] { <  F1 F1 EE EE 1F 1F FF FF F1 F1 EE EE 1F 1F FF FF
F1 F1 EE EE 1F 1F FF FF F1 F1 EE EE 1F 1F FF FF > } image } if PT 17 eq { 16
16 1 [ 16 0 0 16 neg 0 16 ] { <  EE EE DD DD BB BB FF FF EE EE DD DD BB BB FF
 FF EE EE DD DD BB BB FF FF EE EE DD DD BB BB FF FF > } image } if PT 18 eq {
16 16 1 [ 16 0 0 16 neg 0 16 ] { <  BB BB DD DD EE EE FF FF BB BB DD DD EE EE
FF FF BB BB DD DD EE EE FF FF BB BB DD DD EE EE FF FF > } image } if PT 19 eq
{ 16 16 1 [ 16 0 0 16 neg 0 16 ] { < 1F FC 67 F3 7B EF BD DE BD DE DE BD E6
B3 F8 0F E6 B3 DE BD BD DE BD DE 7B EF 67 F3 1F FC 7F FF > } image } if PT
20 eq { 16 16 1 [ 16 0 0 16 neg 0 16 ] { < DD DD EE EE EE EE EE EE DD DD BB
BB BB BB BB BB DD DD EE EE EE EE EE EE DD DD BB BB BB BB BB BB > } image }
if PT 21 eq { 16 16 1 [ 16 0 0 16 neg 0 16 ] { < 0E 0E EF EF EF EF EF EF E0
E0 FE FE FE FE FE FE 0E 0E EF EF EF EF EF EF E0 E0 FE FE FE FE FE FE > }
image }  if PT 22 eq { 16 16 1 [ 16 0 0 16 neg 0 16 ] { < 70 70 F7 F7 F7 F7 F7
F7 07 07 7F 7F 7F 7F 7F 7F 70 70 F7 F7 F7 F7 F7 F7 07 07 7F 7F 7F 7F 7F 7F >
} image } if PT 23 eq  { 16 16 1 [ 16 0 0 16 neg 0 16 ] { < AA AA 55 55 A9 A9
D1 D1 E1 E1 D1 D1 A9 A9 55 55 AA AA 55 55 A9 A9 D1 D1 E1 E1 D1 D1 A9 A9 55 55
> } image } if PT 24 eq { 16 16 1 [ 16 0 0 16 neg 0 16 ] { < FF FE FF FC EA
A8 D5 54 EA A8 D5 54 E8 28 D4 54 E8 E8 D4 D4 E8 EA 54 D5 A8 EA 54 D5 00 C0 00
80 > } image } if PT 25 eq {  16 16 1 [ 16 0 0 16 neg 0 16 ] { < FF FE FF FC
FF F8 FF F0 F0 00 F0 00 F0 20 F0 60 F0 E0 F1 E0 F3 E0 F0 00 E0 00 C0 00 80 00
00 00 > } image } if gr } def /FA { /PT exch def gsave clip 0 0 translate 1 1
54 { 1 sub 47.2 mul /Xcurr exch def 1 1 74 { 1 sub 47.2 mul /Ycurr exch def
gsave Xcurr Ycurr translate PT DP gr } for } for gr } def
/reencdict 24 dict def /ReEncode {reencdict begin /nco&na exch def
/nfnam exch def /basefontname exch def /basefontdict basefontname findfont def
/newfont basefontdict maxlength dict def basefontdict {exch dup /FID ne
{dup /Encoding eq {exch dup length array copy newfont 3 1 roll put} {exch
newfont 3 1 roll put} ifelse} {pop pop} ifelse } forall newfont
/FontName nfnam put nco&na aload pop nco&na length 2 idiv {newfont
/Encoding get 3 1 roll put} repeat nfnam newfont definefont pop end } def
/accvec [ 176 /agrave 181 /Agrave 190 /acircumflex 192 /Acircumflex
201 /adieresis 204 /Adieresis 209 /ccedilla 210 /Ccedilla 211 /eacute
212 /Eacute 213 /egrave 214 /Egrave 215 /ecircumflex 216 /Ecircumflex
217 /edieresis 218 /Edieresis 219 /icircumflex 220 /Icircumflex
221 /idieresis 222 /Idieresis 223 /ntilde 224 /Ntilde 226 /ocircumflex
228 /Ocircumflex 229 /odieresis 230 /Odieresis 231 /ucircumflex 236 /Ucircumflex
237 /udieresis 238 /Udieresis 239 /aring 242 /Aring 243 /ydieresis
244 /Ydieresis 246 /aacute 247 /Aacute 252 /ugrave 253 /Ugrave] def
/Times-Roman /Times-Roman accvec ReEncode
/Times-Italic /Times-Italic accvec ReEncode
/Times-Bold /Times-Bold accvec ReEncode
/Times-BoldItalic /Times-BoldItalic accvec ReEncode
/Helvetica /Helvetica accvec ReEncode
/Helvetica-Oblique /Helvetica-Oblique accvec ReEncode
/Helvetica-Bold /Helvetica-Bold accvec ReEncode
/Helvetica-BoldOblique /Helvetica-BoldOblique  accvec ReEncode
/Courier /Courier accvec ReEncode
/Courier-Oblique /Courier-Oblique accvec ReEncode
/Courier-Bold /Courier-Bold accvec ReEncode
/Courier-BoldOblique /Courier-BoldOblique accvec ReEncode
/oshow {gsave [] 0 sd true charpath stroke gr} def
/stwn { /fs exch def /fn exch def /text exch def fn findfont fs sf
 text sw pop xs add /xs exch def} def
/stwb { /fs exch def /fn exch def /nbas exch def /textf exch def
textf length /tlen exch def nbas tlen gt {/nbas tlen def} if
fn findfont fs sf textf dup length nbas sub nbas getinterval sw
pop neg xs add /xs exch def} def
/accspe [ 65 /plusminus 66 /bar 67 /existential 68 /universal
69 /exclam 70 /numbersign 71 /greater 72 /question 73 /integral
74 /colon 75 /semicolon 76 /less 77 /bracketleft 78 /bracketright
79 /greaterequal 80 /braceleft 81 /braceright 82 /radical
83 /spade 84 /heart 85 /diamond 86 /club 87 /lessequal
88 /multiply 89 /percent 90 /infinity 48 /circlemultiply 49 /circleplus
50 /emptyset 51 /lozenge 52 /bullet 53 /arrowright 54 /arrowup
55 /arrowleft 56 /arrowdown 57 /arrowboth 48 /degree 44 /comma 43 /plus
 45 /angle 42 /angleleft 47 /divide 61 /notequal 40 /equivalence 41 /second
 97 /approxequal 98 /congruent 99 /perpendicular 100 /partialdiff 101 /florin
 102 /intersection 103 /union 104 /propersuperset 105 /reflexsuperset
 106 /notsubset 107 /propersubset 108 /reflexsubset 109 /element 110 /notelement
 111 /gradient 112 /logicaland 113 /logicalor 114 /arrowdblboth
 115 /arrowdblleft 116 /arrowdblup 117 /arrowdblright 118 /arrowdbldown
 119 /ampersand 120 /omega1 121 /similar 122 /aleph ] def
/Symbol /Special accspe ReEncode
%%EndProlog
 gsave  .25 .25 scale  gsave 0 0 t black [] 0 sd 1 lw 3 lw 0 0 1 c 1701 1134 284
 284 bl 2268 1701 0 0 C 1701 1134 284 284 C NC 1 lw 284 284 m 1134 Y s 318 284 m
 -34 X s [4 8] 0 sd 1985 284 m -1701 X s [] 0 sd 301 315 m -17 X s 301 347 m -17
 X s 301 378 m -17 X s 318 410 m -34 X s [4 8] 0 sd 1985 410 m -1701 X s [] 0 sd
 301 441 m -17 X s 301 473 m -17 X s 301 504 m -17 X s 318 536 m -34 X s
 [4 8] 0 sd 1985 536 m -1701 X s [] 0 sd 301 567 m -17 X s 301 599 m -17 X s 301
 630 m -17 X s 318 662 m -34 X s [4 8] 0 sd 1985 662 m -1701 X s [] 0 sd 301 693
 m -17 X s 301 725 m -17 X s 301 756 m -17 X s 318 788 m -34 X s [4 8] 0 sd 1985
 788 m -1701 X s [] 0 sd 301 819 m -17 X s 301 851 m -17 X s 301 882 m -17 X s
 318 914 m -34 X s [4 8] 0 sd 1985 914 m -1701 X s [] 0 sd 301 945 m -17 X s 301
 977 m -17 X s 301 1008 m -17 X s 318 1040 m -34 X s [4 8] 0 sd 1985 1040 m
 -1701 X s [] 0 sd 301 1071 m -17 X s 301 1103 m -17 X s 301 1134 m -17 X s 318
 1166 m -34 X s [4 8] 0 sd 1985 1166 m -1701 X s [] 0 sd 301 1197 m -17 X s 301
 1228 m -17 X s 301 1260 m -17 X s 318 1292 m -34 X s [4 8] 0 sd 1985 1292 m
 -1701 X s [] 0 sd 301 1323 m -17 X s 301 1355 m -17 X s 301 1386 m -17 X s 318
 1418 m -34 X s [4 8] 0 sd 1985 1418 m -1701 X s
 /xs 0 def 
(0)
 /Helvetica-Bold     70 stwn 
 gsave  238 258
 t   0 r  xs neg 0 t 0 0 m
 /Helvetica-Bold findfont   70 sf 0    0 m 
(0)
 show 
 gr 
 /xs 0 def 
(2)
 /Helvetica-Bold     70 stwn 
 gsave  238 384
 t   0 r  xs neg 0 t 0 0 m
 /Helvetica-Bold findfont   70 sf 0    0 m 
(2)
 show 
 gr 
 /xs 0 def 
(4)
 /Helvetica-Bold     70 stwn 
 gsave  238 510
 t   0 r  xs neg 0 t 0 0 m
 /Helvetica-Bold findfont   70 sf 0    0 m 
(4)
 show 
 gr 
 /xs 0 def 
(6)
 /Helvetica-Bold     70 stwn 
 gsave  238 636
 t   0 r  xs neg 0 t 0 0 m
 /Helvetica-Bold findfont   70 sf 0    0 m 
(6)
 show 
 gr 
 /xs 0 def 
(8)
 /Helvetica-Bold     70 stwn 
 gsave  238 762
 t   0 r  xs neg 0 t 0 0 m
 /Helvetica-Bold findfont   70 sf 0    0 m 
(8)
 show 
 gr 
 /xs 0 def 
(10)
 /Helvetica-Bold     70 stwn 
 gsave  238 888
 t   0 r  xs neg 0 t 0 0 m
 /Helvetica-Bold findfont   70 sf 0    0 m 
(10)
 show 
 gr 
 /xs 0 def 
(12)
 /Helvetica-Bold     70 stwn 
 gsave  238 1014
 t   0 r  xs neg 0 t 0 0 m
 /Helvetica-Bold findfont   70 sf 0    0 m 
(12)
 show 
 gr 
 /xs 0 def 
(14)
 /Helvetica-Bold     70 stwn 
 gsave  238 1140
 t   0 r  xs neg 0 t 0 0 m
 /Helvetica-Bold findfont   70 sf 0    0 m 
(14)
 show 
 gr 
 /xs 0 def 
(16)
 /Helvetica-Bold     70 stwn 
 gsave  238 1266
 t   0 r  xs neg 0 t 0 0 m
 /Helvetica-Bold findfont   70 sf 0    0 m 
(16)
 show 
 gr 
 /xs 0 def 
(18)
 /Helvetica-Bold     70 stwn 
 gsave  238 1392
 t   0 r  xs neg 0 t 0 0 m
 /Helvetica-Bold findfont   70 sf 0    0 m 
(18)
 show 
 gr  [] 0 sd 284 284 m 1701 X s 284 301 m -17 Y s [4 8] 0 sd 284 1418 m -1134 Y
 s [] 0 sd 383 301 m -17 Y s [4 8] 0 sd 383 1418 m -1134 Y s [] 0 sd 454 301 m
 -17 Y s [4 8] 0 sd 454 1418 m -1134 Y s [] 0 sd 509 301 m -17 Y s [4 8] 0 sd
 509 1418 m -1134 Y s [] 0 sd 554 301 m -17 Y s [4 8] 0 sd 554 1418 m -1134 Y s
 [] 0 sd 592 301 m -17 Y s [4 8] 0 sd 592 1418 m -1134 Y s [] 0 sd 625 301 m -17
 Y s [4 8] 0 sd 625 1418 m -1134 Y s [] 0 sd 654 301 m -17 Y s [4 8] 0 sd 654
 1418 m -1134 Y s [] 0 sd 680 318 m -34 Y s [4 8] 0 sd 680 1418 m -1134 Y s
 /xs 0 def 
(10)
 /Helvetica-Bold     70 stwn 
 gsave  654 143
 t   0 r  xs 2 div neg 0 t 0 0 m
 /Helvetica-Bold findfont   70 sf 0    0 m 
(10)
 show 
 gr 
 /xs 0 def 
(-1)
 /Helvetica-Bold     56 stwn 
 gsave  737 194
 t   0 r  xs 2 div neg 0 t 0 0 m
 /Helvetica-Bold findfont   56 sf 0    0 m 
(-1)
 show 
 gr  [] 0 sd 851 301 m -17 Y s [4 8] 0 sd 851 1418 m -1134 Y s [] 0 sd 950 301 m
 -17 Y s [4 8] 0 sd 950 1418 m -1134 Y s [] 0 sd 1021 301 m -17 Y s [4 8] 0 sd
 1021 1418 m -1134 Y s [] 0 sd 1076 301 m -17 Y s [4 8] 0 sd 1076 1418 m -1134 Y
 s [] 0 sd 1121 301 m -17 Y s [4 8] 0 sd 1121 1418 m -1134 Y s [] 0 sd 1159 301
 m -17 Y s [4 8] 0 sd 1159 1418 m -1134 Y s [] 0 sd 1192 301 m -17 Y s
 [4 8] 0 sd 1192 1418 m -1134 Y s [] 0 sd 1221 301 m -17 Y s [4 8] 0 sd 1221
 1418 m -1134 Y s [] 0 sd 1247 318 m -34 Y s [4 8] 0 sd 1247 1418 m -1134 Y s
 /xs 0 def 
(1)
 /Helvetica-Bold     70 stwn 
 gsave  1247 143
 t   0 r  xs 2 div neg 0 t 0 0 m
 /Helvetica-Bold findfont   70 sf 0    0 m 
(1)
 show 
 gr  [] 0 sd 1418 301 m -17 Y s [4 8] 0 sd 1418 1418 m -1134 Y s [] 0 sd 1517
 301 m -17 Y s [4 8] 0 sd 1517 1418 m -1134 Y s [] 0 sd 1588 301 m -17 Y s
 [4 8] 0 sd 1588 1418 m -1134 Y s [] 0 sd 1643 301 m -17 Y s [4 8] 0 sd 1643
 1418 m -1134 Y s [] 0 sd 1688 301 m -17 Y s [4 8] 0 sd 1688 1418 m -1134 Y s
 [] 0 sd 1726 301 m -17 Y s [4 8] 0 sd 1726 1418 m -1134 Y s [] 0 sd 1759 301 m
 -17 Y s [4 8] 0 sd 1759 1418 m -1134 Y s [] 0 sd 1788 301 m -17 Y s [4 8] 0 sd
 1788 1418 m -1134 Y s [] 0 sd 1814 318 m -34 Y s [4 8] 0 sd 1814 1418 m -1134 Y
 s
 /xs 0 def 
(10)
 /Helvetica-Bold     70 stwn 
 gsave  1814 143
 t   0 r  xs 2 div neg 0 t 0 0 m
 /Helvetica-Bold findfont   70 sf 0    0 m 
(10)
 show 
 gr  [] 0 sd 1985 301 m -17 Y s [4 8] 0 sd 1985 1418 m -1134 Y s 1701 1134 284
 284 C [] 0 sd 1 0 0 c 0 9 680 1127 bl black /w 29
 def /w2 {w 2 div} def /w3 {w 3 div} def 680 1131 m24 1 0 0 c 0 11 851 945 bl
 black 851 951 m24 1 0 0 c 0 10 950 841 bl black 950 846 m24 1 0 0 c 0 7 1061
 760 bl black 1061 764 m24 1 0 0 c 0 2 1247 644 bl black 1247 645 m24 1 0 0 c 0
 2 1418 547 bl black 1418 548 m24 1 0 0 c 0 1 1643 472 bl black 1643 473 m24 1 0
 0 c 0 1 1759 443 bl black 1759 444 m24 680 1009 m20 851 916 m20 950 862 m20
 1061 774 m20 2268 1701 0 0 C
 /xs 0 def 
(E)
 /Helvetica-Bold     62 stwn 
(g)
 /Symbol     43 stwn 
( \( GeV \))
 /Helvetica-Bold     62 stwn 
 gsave  1985 34
 t   0 r  xs neg 0 t 0 0 m
 /Helvetica-Bold findfont   62 sf 0    0 m 
(E)
 show 
 currentpoint pop 0 t 
 /Symbol findfont   43 sf 0  -21 m 
(g)
 show 
 currentpoint pop 0 t 
 /Helvetica-Bold findfont   62 sf 0    0 m 
( \( GeV \))
 show 
 gr 
 /xs 0 def 
(Average Position Resolution \( mm \))
 /Helvetica-Bold     62 stwn 
 gsave  57 1418
 t  90 r  xs neg 0 t 0 0 m
 /Helvetica-Bold findfont   62 sf 0    0 m 
(Average Position Resolution \( mm \))
 show 
 gr  1701 1134 284 284 C /w 21 def /w2 {w 2 div} def /w3 {w 3 div} def 680 1131
 851 951 950 846 1061 764 1247 645 1418 548 1643 473 1759 444 8 { m24} R 680
 1009 851 916 950 862 1061 774 4 { m20} R 680 1184 m 11 -17 d 10 -17 d 11 -16 d
 11 -16 d 11 -16 d 11 -15 d 10 -15 d 11 -15 d 11 -14 d 11 -14 d 11 -14 d 10 -14
 d 11 -13 d 11 -13 d 11 -13 d 10 -12 d 11 -12 d 11 -12 d 11 -12 d 11 -12 d 10
 -11 d 11 -11 d 11 -11 d 11 -11 d 11 -10 d 10 -10 d 11 -10 d 11 -10 d 11 -10 d
 11 -9 d 10 -9 d 11 -9 d 11 -9 d 11 -9 d 10 -9 d 11 -8 d 11 -8 d 11 -8 d 11 -8 d
 10 -8 d 11 -7 d 11 -8 d 11 -7 d 11 -7 d 10 -7 d 11 -7 d 11 -7 d 11 -6 d 11 -7 d
 10 -6 d 11 -6 d 11 -6 d 11 -6 d 11 -6 d 10 -6 d 11 -6 d 11 -5 d 11 -6 d 10 -5 d
 11 -5 d 11 -5 d 11 -5 d 11 -5 d 10 -5 d 11 -5 d 11 -4 d 11 -5 d 11 -4 d 10 -5 d
 11 -4 d 11 -4 d 11 -4 d 11 -4 d 10 -4 d 11 -4 d 11 -4 d 11 -4 d 10 -3 d 11 -4 d
 11 -4 d 11 -3 d 11 -4 d 10 -3 d 11 -3 d 11 -3 d 11 -4 d 11 -3 d 10 -3 d 11 -3 d
 11 -3 d 11 -2 d 11 -3 d 10 -3 d 11 -3 d 11 -2 d 11 -3 d 10 -3 d 11 -2 d 11 -3 d
 11 -2 d s 2268 1701 0 0 C 1701 1134 284 284 C 2268 1701 0 0 C
 gsave  1418 1024
 t   0 r 0 0 m
 /Helvetica-Bold findfont   78 sf 0    0 m 
( Monte Carlo)
 show 
 gr  1701 1134 284 284 C 2268 1701 0 0 C 1701 1134 284 284 C 2268 1701 0 0 C /w
 32 def /w2 {w 2 div} def /w3 {w 3 div} def 1392 1040 m24 1701 1134 284 284 C
 2268 1701 0 0 C 1701 1134 284 284 C 2268 1701 0 0 C
 gsave  1418 1103
 t   0 r 0 0 m
 /Helvetica-Bold findfont   78 sf 0    0 m 
( DATA)
 show 
 gr  1701 1134 284 284 C 2268 1701 0 0 C 1701 1134 284 284 C 2268 1701 0 0 C
 1392 1118 m20 1701 1134 284 284 C
 gr  gr 
showpage
end
%%EOF
