%!PS-Adobe-2.0 EPSF-2.0
%%BoundingBox: 0 0 567 680
%%Title: ratio_nim.eps
%%Creator: HIGZ Version 1.22/09
%%CreationDate: 96/12/19   21.50
%%EndComments
80 dict begin
/s {stroke} def /l {lineto} def /m {moveto} def /t {translate} def
/sw {stringwidth} def /r {rotate} def /rl {roll}  def /R {repeat} def
/d {rlineto} def /rm {rmoveto} def /gr {grestore} def /f {eofill} def
/c {setrgbcolor} def /lw {setlinewidth} def /sd {setdash} def
/cl {closepath} def /sf {scalefont setfont} def /black {0 setgray} def
/box {m dup 0 exch d exch 0 d 0 exch neg d cl} def
/NC{systemdict begin initclip end}def/C{NC box clip newpath}def
/bl {box s} def /bf {box f} def /Y { 0 exch d} def /X { 0 d} def 
/mp {newpath /y exch def /x exch def} def
/side {[w .77 mul w .23 mul] .385 w mul sd w 0 l currentpoint t -144 r} def
/mr {mp x y w2 0 360 arc} def /m24 {mr s} def /m20 {mr f} def
/mb {mp x y w2 add m w2 neg 0 d 0 w neg d w 0 d 0 w d cl} def
/mt {mp x y w2 add m w2 neg w neg d w 0 d cl} def
/m21 {mb f} def /m25 {mb s} def /m22 {mt f} def /m26 {mt s} def
/m23 {mp x y w2 sub m w2 w d w neg 0 d cl f} def
/m27 {mp x y w2 add m w3 neg w2 neg d w3 w2 neg d w3  w2 d cl s} def
/m28 {mp x w2 sub y w2 sub w3 add m w3 0 d 0 w3 neg d w3 0 d 0 w3 d w3 0 d
 0 w3 d w3 neg 0 d 0 w3 d w3 neg 0 d
 0 w3 neg d w3 neg 0 d cl s } def
/m29 {mp gsave x w2 sub y w2 add w3 sub m currentpoint t
 4 {side} repeat cl fill gr} def
/m30 {mp gsave x w2 sub y w2 add w3 sub m currentpoint t
 5 {side} repeat s gr} def
/m31 {mp x y w2 sub m 0 w d x w2 sub y m w 0 d
 x w2 sub y w2 add m w w neg d x w2 sub y w2
 sub m w w d s} def
/m2 {mp x y w2 sub m 0 w d x w2 sub y m w 0 d s} def
/m5 {mp x w2 sub y w2 sub m w w d x w2 sub y w2 add m w w neg d s} def
/DP {/PT exch def gsave 47.2 47.2 scale PT 1 eq { 16 16 1 [ 16 0 0 16 neg 0 16
] { < AA AA 55 55 AA AA 55 55 AA AA 55 55 AA AA 55 55 AA AA 55 55 AA AA 55 55
AA AA 55 55 AA AA 55 55 > } image } if PT 2 eq { 16 16 1 [ 16 0 0 16 neg 0 16
] { < BB BB EE EE BB BB EE EE BB BB EE EE BB BB EE EE BB BB EE EE BB BB EE EE
BB BB EE EE BB BB EE EE > } image } if PT 3 eq { 16 16 1 [ 16 0 0 16 neg 0 16
] { < FF FF BB BB FF FF EE EE FF FF BB BB FF FF EE EE FF FF BB BB FF FF EE EE
FF FF BB BB FF FF EE EE > } image } if PT 4 eq { 16 16 1 [ 16 0 0 16 neg 0 16
] { < DF DF BF BF 7F 7F FE FE FD FD FB FB F7 F7 EF EF DF DF BF BF 7F 7F FE FE
FD FD FB FB F7 F7 EF EF > } image } if PT 5 eq { 16 16 1 [ 16 0 0 16 neg 0 16
] { < 7F 7F BF B F DF DF EF EF F7 F7 FB FB FD FD FE FE 7F 7F BF BF DF DF EF
EF F7 F7 FB FB FD FD FE FE > } image } if PT 6 eq { 16 16 1 [ 16 0 0 16 neg 0
16 ] { < BB BB BB BB BB BB BB BB BB BB BB BB BB BB BB BB BB BB BB BB BB BB BB
BB BB BB BB BB BB BB BB BB > } image } if PT 7 eq { 16 16 1 [ 16 0 0 16 neg 0
16 ] { < FF FF FF FF FF FF 00 00 FF FF FF FF FF FF 00 00 FF FF FF FF FF FF 00
00 FF FF FF FF FF FF 00 00 > } image } if PT 8 eq { 16 16 1 [ 16 0 0 16 neg 0
16 ] { < EE EE 47 47 83 83 C5 C5 EE EE 5C 5C 38 38 74 74 EE EE 47 47 83 83 C5
C5 EE EE 5C 5C 38 38 74 74 > } image } if PT 9 eq { 16 16 1 [ 16 0 0 16 neg 0
16 ] { < EF EF EF EF D7 D7 38 38 FE FE FE FE 7D 7D 83 83 EF EF EF EF D7 D7 38
38 FE FE FE FE 7D 7D 83 83 > } image } if PT 10 eq { 16 16 1 [ 16 0 0 16 neg
0 16 ] { < EF EF EF EF EF EF 00 00 FE FE FE FE FE FE 00 00 EF EF EF EF EF EF
00 00 FE FE FE FE FE FE 00 00 > } image } if PT 11 eq { 16 16 1 [ 16 0 0 16
neg 0 16 ] { < F7 F7 B6 B6 D5 D5 E3 E3 D5 D5 B6 B6 F7 F7 FF FF 7F 7F 6B 6B 5D
5D 3E 3E 5D 5D 6B 6B 7F 7F FF FF > } image } if PT 12 eq { 16 16 1 [ 16 0 0
16 neg 0 16 ] { < E3 E3 DD DD BE BE BE BE BE BE DD DD E3 E3 FF FF 3E 3E DD DD
EB EB EB EB EB EB DD DD 3E 3E FF FF > } image } if PT 13 eq { 16 16 1 [ 16 0
0 16 neg 0 16 ] { < FE FE 7D 7D BB BB D7 D7 EF EF D7 D7 BB BB 7D 7D FE FE 7D
7D BB BB D7 D7 EF EF D7 D7 BB BB 7D 7D > } image } if PT 14 eq { 16 16 1 [ 16
0 0 16 neg 0 16 ] { < 00 00 EE EF EE EF EE EF 0E E0 EE EE EE EE EE EE 00 EE
FE EE FE EE FE EE 00 00 FE EF FE EF FE EF > } image } if PT 15 eq { 16 16 1 [
16 0 0 16 neg 0 16 ] { < DD DD AA AA DD DD FF FF 77 77 AA AA 77 77 FF FF DD
DD AA AA DD DD FF FF 77 77 AA AA 77 77 FF FF > } image } if PT 16 eq { 16 16
1 [ 16 0 0 16 neg 0 16 ] { < F1 F1 EE EE 1F 1F FF FF F1 F1 EE EE 1F 1F FF FF
F1 F1 EE EE 1F 1F FF FF F1 F1 EE EE 1F 1F FF FF > } image } if PT 17 eq { 16
16 1 [ 16 0 0 16 neg 0 16 ] { < EE EE DD DD BB BB FF FF EE EE DD DD BB BB FF
FF EE EE DD DD BB BB FF FF EE EE DD DD BB BB FF FF > } image } if PT 18 eq {
16 16 1 [ 16 0 0 16 neg 0 16 ] { < BB BB DD DD EE EE FF FF BB BB DD DD EE EE
FF FF BB BB DD DD EE EE FF FF BB BB DD DD EE EE FF FF > } image } if PT 19 eq
{ 16 16 1 [ 16 0 0 16 neg 0 16 ] { < 1F FC 67 F3 7B EF BD DE BD DE DE BD E6
B3 F8 0F E6 B3 DE BD BD DE BD DE 7B EF 67 F3 1F FC 7F FF > } image } if PT
20 eq { 16 16 1 [ 16 0 0 16 neg 0 16 ] { < DD DD EE EE EE EE EE EE DD DD BB
BB BB BB BB BB DD DD EE EE EE EE EE EE DD DD BB BB BB BB BB BB > } image }
if PT 21 eq { 16 16 1 [ 16 0 0 16 neg 0 16 ] { < 0E 0E EF EF EF EF EF EF E0
E0 FE FE FE FE FE FE 0E 0E EF EF EF EF EF EF E0 E0 FE FE FE FE FE FE > }
image } if PT 22 eq { 16 16 1 [ 16 0 0 16 neg 0 16 ] { < 70 70 F7 F7 F7 F7 F7
F7 07 07 7F 7F 7F 7F 7F 7F 70 70 F7 F7 F7 F7 F7 F7 07 07 7F 7F 7F 7F 7F 7F >
} image } if PT 23 eq { 16 16 1 [ 16 0 0 16 neg 0 16 ] { < AA AA 55 55 A9 A9
D1 D1 E1 E1 D1 D1 A9 A9 55 55 AA AA 55 55 A9 A9 D1 D1 E1 E1 D1 D1 A9 A9 55 55
> } image } if PT 24 eq { 16 16 1 [ 16 0 0 16 neg 0 16 ] { < FF FE FF FC EA
A8 D5 54 EA A8 D5 54 E8 28 D4 54 E8 E8 D4 D4 E8 EA 54 D5 A8 EA 54 D5 00 C0 00
80 > } image } if PT 25 eq { 16 16 1 [ 16 0 0 16 neg 0 16 ] { < FF FE FF FC
FF F8 FF F0 F0 00 F0 00 F0 20 F0 60 F0 E0 F1 E0 F3 E0 F0 00 E0 00 C0 00 80 00
00 00 > } image } if gr } def /FA { /PT exch def gsave clip 0 0 translate 1 1
54 { 1 sub 47.2 mul /Xcurr exch def 1 1 74 { 1 sub 47.2 mul /Ycurr exch def
gsave Xcurr Ycurr translate PT DP gr } for } for gr } def
/reencdict 24 dict def /ReEncode {reencdict begin /nco&na exch def
/nfnam exch def /basefontname exch def /basefontdict basefontname findfont def
/newfont basefontdict maxlength dict def basefontdict {exch dup /FID ne
{dup /Encoding eq {exch dup length array copy newfont 3 1 roll put} {exch
newfont 3 1 roll put} ifelse} {pop pop} ifelse } forall newfont
/FontName nfnam put nco&na aload pop nco&na length 2 idiv {newfont
/Encoding get 3 1 roll put} repeat nfnam newfont definefont pop end } def
/accvec [ 176 /agrave 181 /Agrave 190 /acircumflex 192 /Acircumflex
201 /adieresis 204 /Adieresis 209 /ccedilla 210 /Ccedilla 211 /eacute
212 /Eacute 213 /egrave 214 /Egrave 215 /ecircumflex 216 /Ecircumflex
217 /edieresis 218 /Edieresis 219 /icircumflex 220 /Icircumflex
221 /idieresis 222 /Idieresis 223 /ntilde 224 /Ntilde 226 /ocircumflex
228 /Ocircumflex 229 /odieresis 230 /Odieresis 231 /ucircumflex 236 /Ucircumflex
237 /udieresis 238 /Udieresis 239 /aring 242 /Aring 243 /ydieresis
244 /Ydieresis 246 /aacute 247 /Aacute 252 /ugrave 253 /Ugrave] def
/Times-Roman /Times-Roman accvec ReEncode
/Times-Italic /Times-Italic accvec ReEncode
/Times-Bold /Times-Bold accvec ReEncode
/Times-BoldItalic /Times-BoldItalic accvec ReEncode
/Helvetica /Helvetica accvec ReEncode
/Helvetica-Oblique /Helvetica-Oblique accvec ReEncode
/Helvetica-Bold /Helvetica-Bold accvec ReEncode
/Helvetica-BoldOblique /Helvetica-BoldOblique  accvec ReEncode
/Courier /Courier accvec ReEncode
/Courier-Oblique /Courier-Oblique accvec ReEncode
/Courier-Bold /Courier-Bold accvec ReEncode
/Courier-BoldOblique /Courier-BoldOblique accvec ReEncode
/oshow {gsave [] 0 sd true charpath stroke gr} def
/stwn { /fs exch def /fn exch def /text exch def fn findfont fs sf
 text sw pop xs add /xs exch def} def
/stwb { /fs exch def /fn exch def /nbas exch def /textf exch def
textf length /tlen exch def nbas tlen gt {/nbas tlen def} if
fn findfont fs sf textf dup length nbas sub nbas getinterval sw
pop neg xs add /xs exch def} def
/accspe [ 65 /plusminus 66 /bar 67 /existential 68 /universal
69 /exclam 70 /numbersign 71 /greater 72 /question 73 /integral
74 /colon 75 /semicolon 76 /less 77 /bracketleft 78 /bracketright
79 /greaterequal 80 /braceleft 81 /braceright 82 /radical
83 /spade 84 /heart 85 /diamond 86 /club 87 /lessequal
88 /multiply 89 /percent 90 /infinity 48 /circlemultiply 49 /circleplus
50 /emptyset 51 /lozenge 52 /bullet 53 /arrowright 54 /arrowup
55 /arrowleft 56 /arrowdown 57 /arrowboth 48 /degree 44 /comma 43 /plus
 45 /angle 42 /angleleft 47 /divide 61 /notequal 40 /equivalence 41 /second
 97 /approxequal 98 /congruent 99 /perpendicular 100 /partialdiff 101 /florin
 102 /intersection 103 /union 104 /propersuperset 105 /reflexsuperset
 106 /notsubset 107 /propersubset 108 /reflexsubset 109 /element 110 /notelement
 111 /gradient 112 /logicaland 113 /logicalor 114 /arrowdblboth
 115 /arrowdblleft 116 /arrowdblup 117 /arrowdblright 118 /arrowdbldown
 119 /ampersand 120 /omega1 121 /similar 122 /aleph ] def
/Symbol /Special accspe ReEncode
gsave .25 .25 scale 
%%EndProlog
 gsave 0 0 t black [] 0 sd 1 lw 2 lw 1757 1020 283 1417 bl 2267 2720 0 0 C 1757
 1020 283 1417 C NC 1 lw 283 1417 m 1020 Y s 317 1417 m -34 X s [4 8] 0 sd 2040
 1417 m -1757 X s [] 0 sd 300 1445 m -17 X s 300 1473 m -17 X s 300 1502 m -17 X
 s 300 1530 m -17 X s 317 1558 m -34 X s [4 8] 0 sd 2040 1558 m -1757 X s
 [] 0 sd 300 1587 m -17 X s 300 1615 m -17 X s 300 1643 m -17 X s 300 1672 m -17
 X s 317 1700 m -34 X s [4 8] 0 sd 2040 1700 m -1757 X s [] 0 sd 300 1728 m -17
 X s 300 1757 m -17 X s 300 1785 m -17 X s 300 1813 m -17 X s 317 1842 m -34 X s
 [4 8] 0 sd 2040 1842 m -1757 X s [] 0 sd 300 1870 m -17 X s 300 1898 m -17 X s
 300 1927 m -17 X s 300 1955 m -17 X s 317 1983 m -34 X s [4 8] 0 sd 2040 1983 m
 -1757 X s [] 0 sd 300 2012 m -17 X s 300 2040 m -17 X s 300 2068 m -17 X s 300
 2097 m -17 X s 317 2125 m -34 X s [4 8] 0 sd 2040 2125 m -1757 X s [] 0 sd 300
 2153 m -17 X s 300 2182 m -17 X s 300 2210 m -17 X s 300 2238 m -17 X s 317
 2267 m -34 X s [4 8] 0 sd 2040 2267 m -1757 X s [] 0 sd 300 2295 m -17 X s 300
 2323 m -17 X s 300 2352 m -17 X s 300 2380 m -17 X s 317 2408 m -34 X s
 [4 8] 0 sd 2040 2408 m -1757 X s [] 0 sd 317 2408 m -34 X s [4 8] 0 sd 2040
 2408 m -1757 X s
 /xs 0 def 
(65)
 /Helvetica     64 stwn 
 gsave  238 1393
 t   0 r  xs neg 0 t 0 0 m
 /Helvetica findfont   64 sf 0    0 m 
(65)
 show 
 gr
 /xs 0 def 
(70)
 /Helvetica     64 stwn 
 gsave  238 1535
 t   0 r  xs neg 0 t 0 0 m
 /Helvetica findfont   64 sf 0    0 m 
(70)
 show 
 gr
 /xs 0 def 
(75)
 /Helvetica     64 stwn 
 gsave  238 1677
 t   0 r  xs neg 0 t 0 0 m
 /Helvetica findfont   64 sf 0    0 m 
(75)
 show 
 gr
 /xs 0 def 
(80)
 /Helvetica     64 stwn 
 gsave  238 1818
 t   0 r  xs neg 0 t 0 0 m
 /Helvetica findfont   64 sf 0    0 m 
(80)
 show 
 gr
 /xs 0 def 
(85)
 /Helvetica     64 stwn 
 gsave  238 1960
 t   0 r  xs neg 0 t 0 0 m
 /Helvetica findfont   64 sf 0    0 m 
(85)
 show 
 gr
 /xs 0 def 
(90)
 /Helvetica     64 stwn 
 gsave  238 2102
 t   0 r  xs neg 0 t 0 0 m
 /Helvetica findfont   64 sf 0    0 m 
(90)
 show 
 gr
 /xs 0 def 
(95)
 /Helvetica     64 stwn 
 gsave  238 2243
 t   0 r  xs neg 0 t 0 0 m
 /Helvetica findfont   64 sf 0    0 m 
(95)
 show 
 gr
 /xs 0 def 
(100)
 /Helvetica     64 stwn 
 gsave  238 2385
 t   0 r  xs neg 0 t 0 0 m
 /Helvetica findfont   64 sf 0    0 m 
(100)
 show 
 gr
 [] 0 sd 283 1417 m 1757 X s 283 1451 m -34 Y s [4 8] 0 sd 283 2437 m -1020 Y s
 /xs 0 def 
(0)
 /Helvetica     64 stwn 
 gsave  283 1317
 t   0 r  xs 2 div neg 0 t 0 0 m
 /Helvetica findfont   64 sf 0    0 m 
(0)
 show 
 gr
 [] 0 sd 426 1434 m -17 Y s [4 8] 0 sd 426 2437 m -1020 Y s [] 0 sd 510 1434 m
 -17 Y s [4 8] 0 sd 510 2437 m -1020 Y s [] 0 sd 569 1434 m -17 Y s [4 8] 0 sd
 569 2437 m -1020 Y s [] 0 sd 615 1434 m -17 Y s [4 8] 0 sd 615 2437 m -1020 Y s
 [] 0 sd 653 1434 m -17 Y s [4 8] 0 sd 653 2437 m -1020 Y s [] 0 sd 685 1434 m
 -17 Y s [4 8] 0 sd 685 2437 m -1020 Y s [] 0 sd 712 1434 m -17 Y s [4 8] 0 sd
 712 2437 m -1020 Y s [] 0 sd 737 1434 m -17 Y s [4 8] 0 sd 737 2437 m -1020 Y s
 [] 0 sd 758 1451 m -34 Y s [4 8] 0 sd 758 2437 m -1020 Y s
 /xs 0 def 
(10)
 /Helvetica     64 stwn 
 gsave  758 1317
 t   0 r  xs 2 div neg 0 t 0 0 m
 /Helvetica findfont   64 sf 0    0 m 
(10)
 show 
 gr
 [] 0 sd 901 1434 m -17 Y s [4 8] 0 sd 901 2437 m -1020 Y s [] 0 sd 985 1434 m
 -17 Y s [4 8] 0 sd 985 2437 m -1020 Y s [] 0 sd 1044 1434 m -17 Y s [4 8] 0 sd
 1044 2437 m -1020 Y s [] 0 sd 1090 1434 m -17 Y s [4 8] 0 sd 1090 2437 m -1020
 Y s [] 0 sd 1128 1434 m -17 Y s [4 8] 0 sd 1128 2437 m -1020 Y s [] 0 sd 1160
 1434 m -17 Y s [4 8] 0 sd 1160 2437 m -1020 Y s [] 0 sd 1187 1434 m -17 Y s
 [4 8] 0 sd 1187 2437 m -1020 Y s [] 0 sd 1211 1434 m -17 Y s [4 8] 0 sd 1211
 2437 m -1020 Y s [] 0 sd 1233 1451 m -34 Y s [4 8] 0 sd 1233 2437 m -1020 Y s
 /xs 0 def 
(10)
 /Helvetica     64 stwn 
 gsave  1233 1317
 t   0 r  xs 2 div neg 0 t 0 0 m
 /Helvetica findfont   64 sf 0    0 m 
(10)
 show 
 gr
 /xs 0 def 
(2)
 /Helvetica     51 stwn 
 gsave  1291 1364
 t   0 r  xs 2 div neg 0 t 0 0 m
 /Helvetica findfont   51 sf 0    0 m 
(2)
 show 
 gr
 [] 0 sd 1376 1434 m -17 Y s [4 8] 0 sd 1376 2437 m -1020 Y s [] 0 sd 1460 1434
 m -17 Y s [4 8] 0 sd 1460 2437 m -1020 Y s [] 0 sd 1519 1434 m -17 Y s
 [4 8] 0 sd 1519 2437 m -1020 Y s [] 0 sd 1565 1434 m -17 Y s [4 8] 0 sd 1565
 2437 m -1020 Y s [] 0 sd 1603 1434 m -17 Y s [4 8] 0 sd 1603 2437 m -1020 Y s
 [] 0 sd 1634 1434 m -17 Y s [4 8] 0 sd 1634 2437 m -1020 Y s [] 0 sd 1662 1434
 m -17 Y s [4 8] 0 sd 1662 2437 m -1020 Y s [] 0 sd 1686 1434 m -17 Y s
 [4 8] 0 sd 1686 2437 m -1020 Y s [] 0 sd 1708 1451 m -34 Y s [4 8] 0 sd 1708
 2437 m -1020 Y s
 /xs 0 def 
(10)
 /Helvetica     64 stwn 
 gsave  1708 1317
 t   0 r  xs 2 div neg 0 t 0 0 m
 /Helvetica findfont   64 sf 0    0 m 
(10)
 show 
 gr
 /xs 0 def 
(3)
 /Helvetica     51 stwn 
 gsave  1766 1364
 t   0 r  xs 2 div neg 0 t 0 0 m
 /Helvetica findfont   51 sf 0    0 m 
(3)
 show 
 gr
 [] 0 sd 1851 1434 m -17 Y s [4 8] 0 sd 1851 2437 m -1020 Y s [] 0 sd 1935 1434
 m -17 Y s [4 8] 0 sd 1935 2437 m -1020 Y s [] 0 sd 1994 1434 m -17 Y s
 [4 8] 0 sd 1994 2437 m -1020 Y s [] 0 sd 2040 1434 m -17 Y s [4 8] 0 sd 2040
 2437 m -1020 Y s 1757 1020 283 1417 C [] 0 sd 4 lw 283 2408 m 475 -8 d 475 -82
 d 475 -46 d s /w 49 def /w2 {w 2 div} def /w3 {w 3 div} def 283 2408 758 2400
 1233 2318 1708 2272 4 { m21} R 283 2408 m 475 -39 d 475 -85 d 475 -207 d s 283
 2408 758 2369 1233 2284 1708 2077 4 { m20} R 283 2408 m 475 -93 d 475 -295 d
 475 -354 d s 283 2408 758 2315 1233 2020 1708 1666 4 { m22} R 2267 2720 0 0 C
 1757 1020 283 1417 C 2267 2720 0 0 C
 gsave  1777 2244
 t   0 r 0 0 m
 /Helvetica findfont   47 sf 0    0 m 
(NOV)
 show 
 gr
 1757 1020 283 1417 C 2267 2720 0 0 C 1757 1020 283 1417 C 2267 2720 0 0 C
 gsave  1777 2051
 t   0 r 0 0 m
 /Helvetica findfont   47 sf 0    0 m 
(Crismatec)
 show 
 gr
 1757 1020 283 1417 C 2267 2720 0 0 C
 /xs 0 def 
(Relative Light Output\040)
 /Helvetica     70 stwn 
(M)
 /Special     70 stwn 
(%)
 /Helvetica     70 stwn 
(N)
 /Special     70 stwn 
 gsave  68 2437
 t  90 r  xs neg 0 t 0 0 m
 /Helvetica findfont   70 sf 0    0 m 
(Relative Light Output\040)
 show 
 currentpoint pop 0 t 
 /Special findfont   70 sf 0    0 m 
(M)
 show 
 currentpoint pop 0 t 
 /Helvetica findfont   70 sf 0    0 m 
(%)
 show 
 currentpoint pop 0 t 
 /Special findfont   70 sf 0    0 m 
(N)
 show 
 gr
 1757 1020 283 1417 C 2267 2720 0 0 C 1757 1020 283 1417 C 2267 2720 0 0 C
 gsave  353 1672
 t   0 r 0 0 m
 /Helvetica findfont   78 sf 0    0 m 
(Front-face Irrad.)
 show 
 gr
 1757 1020 283 1417 C 2267 2720 0 0 C 1757 1020 283 1417 C 2267 2720 0 0 C
 gsave  426 1530
 t   0 r 0 0 m
 /Helvetica findfont   78 sf 0    0 m 
(\(PMT readout\))
 show 
 gr
 1757 1020 283 1417 C 2267 2720 0 0 C 1757 1020 283 1417 C 2267 2720 0 0 C
 gsave  1777 1626
 t   0 r 0 0 m
 /Helvetica findfont   47 sf 0    0 m 
(SIC \(OLD\))
 show 
 gr
 1757 1020 283 1417 C 9 lw 283 2408 m 475 -85 d s 758 2323 m 475 -198 d s 1233
 2125 m 475 -283 d s 2267 2720 0 0 C 1757 1020 283 1417 C 2267 2720 0 0 C
 gsave  1543 1770
 t   0 r 0 0 m
 /Helvetica findfont   81 sf 0    0 m 
( Requirement)
 show 
 gr
 1757 1020 283 1417 C 2267 2720 0 0 C 1757 1020 283 1417 C 2267 2720 0 0 C 1 1 1
 c
 /xs 0 def 
(n)
 /ZapfDingbats     70 stwn 
 gsave  283 1193
 t   0 r  xs 2 div neg 0 t 0 0 m
 /ZapfDingbats findfont   70 sf 0    0 m 
(n)
 show 
 gr
 1757 1020 283 1417 C NC 2 lw black 1757 1020 283 227 bl 2267 2720 0 0 C 1757
 1020 283 227 C NC 1 lw 283 227 m 1020 Y s 317 227 m -34 X s [4 8] 0 sd 2040 227
 m -1757 X s [] 0 sd 300 255 m -17 X s 300 283 m -17 X s 300 312 m -17 X s 300
 340 m -17 X s 317 368 m -34 X s [4 8] 0 sd 2040 368 m -1757 X s [] 0 sd 300 397
 m -17 X s 300 425 m -17 X s 300 453 m -17 X s 300 482 m -17 X s 317 510 m -34 X
 s [4 8] 0 sd 2040 510 m -1757 X s [] 0 sd 300 538 m -17 X s 300 567 m -17 X s
 300 595 m -17 X s 300 623 m -17 X s 317 652 m -34 X s [4 8] 0 sd 2040 652 m
 -1757 X s [] 0 sd 300 680 m -17 X s 300 708 m -17 X s 300 737 m -17 X s 300 765
 m -17 X s 317 793 m -34 X s [4 8] 0 sd 2040 793 m -1757 X s [] 0 sd 300 822 m
 -17 X s 300 850 m -17 X s 300 878 m -17 X s 300 907 m -17 X s 317 935 m -34 X s
 [4 8] 0 sd 2040 935 m -1757 X s [] 0 sd 300 963 m -17 X s 300 992 m -17 X s 300
 1020 m -17 X s 300 1048 m -17 X s 317 1077 m -34 X s [4 8] 0 sd 2040 1077 m
 -1757 X s [] 0 sd 300 1105 m -17 X s 300 1133 m -17 X s 300 1162 m -17 X s 300
 1190 m -17 X s 317 1218 m -34 X s [4 8] 0 sd 2040 1218 m -1757 X s [] 0 sd 317
 1218 m -34 X s [4 8] 0 sd 2040 1218 m -1757 X s
 /xs 0 def 
(65)
 /Helvetica     64 stwn 
 gsave  238 203
 t   0 r  xs neg 0 t 0 0 m
 /Helvetica findfont   64 sf 0    0 m 
(65)
 show 
 gr
 /xs 0 def 
(70)
 /Helvetica     64 stwn 
 gsave  238 345
 t   0 r  xs neg 0 t 0 0 m
 /Helvetica findfont   64 sf 0    0 m 
(70)
 show 
 gr
 /xs 0 def 
(75)
 /Helvetica     64 stwn 
 gsave  238 487
 t   0 r  xs neg 0 t 0 0 m
 /Helvetica findfont   64 sf 0    0 m 
(75)
 show 
 gr
 /xs 0 def 
(80)
 /Helvetica     64 stwn 
 gsave  238 628
 t   0 r  xs neg 0 t 0 0 m
 /Helvetica findfont   64 sf 0    0 m 
(80)
 show 
 gr
 /xs 0 def 
(85)
 /Helvetica     64 stwn 
 gsave  238 770
 t   0 r  xs neg 0 t 0 0 m
 /Helvetica findfont   64 sf 0    0 m 
(85)
 show 
 gr
 /xs 0 def 
(90)
 /Helvetica     64 stwn 
 gsave  238 912
 t   0 r  xs neg 0 t 0 0 m
 /Helvetica findfont   64 sf 0    0 m 
(90)
 show 
 gr
 /xs 0 def 
(95)
 /Helvetica     64 stwn 
 gsave  238 1053
 t   0 r  xs neg 0 t 0 0 m
 /Helvetica findfont   64 sf 0    0 m 
(95)
 show 
 gr
 /xs 0 def 
(100)
 /Helvetica     64 stwn 
 gsave  238 1195
 t   0 r  xs neg 0 t 0 0 m
 /Helvetica findfont   64 sf 0    0 m 
(100)
 show 
 gr
 [] 0 sd 283 227 m 1757 X s 283 261 m -34 Y s [4 8] 0 sd 283 1247 m -1020 Y s
 /xs 0 def 
(0)
 /Helvetica     64 stwn 
 gsave  283 127
 t   0 r  xs 2 div neg 0 t 0 0 m
 /Helvetica findfont   64 sf 0    0 m 
(0)
 show 
 gr
 [] 0 sd 426 244 m -17 Y s [4 8] 0 sd 426 1247 m -1020 Y s [] 0 sd 510 244 m -17
 Y s [4 8] 0 sd 510 1247 m -1020 Y s [] 0 sd 569 244 m -17 Y s [4 8] 0 sd 569
 1247 m -1020 Y s [] 0 sd 615 244 m -17 Y s [4 8] 0 sd 615 1247 m -1020 Y s
 [] 0 sd 653 244 m -17 Y s [4 8] 0 sd 653 1247 m -1020 Y s [] 0 sd 685 244 m -17
 Y s [4 8] 0 sd 685 1247 m -1020 Y s [] 0 sd 712 244 m -17 Y s [4 8] 0 sd 712
 1247 m -1020 Y s [] 0 sd 737 244 m -17 Y s [4 8] 0 sd 737 1247 m -1020 Y s
 [] 0 sd 758 261 m -34 Y s [4 8] 0 sd 758 1247 m -1020 Y s
 /xs 0 def 
(10)
 /Helvetica     64 stwn 
 gsave  758 127
 t   0 r  xs 2 div neg 0 t 0 0 m
 /Helvetica findfont   64 sf 0    0 m 
(10)
 show 
 gr
 [] 0 sd 901 244 m -17 Y s [4 8] 0 sd 901 1247 m -1020 Y s [] 0 sd 985 244 m -17
 Y s [4 8] 0 sd 985 1247 m -1020 Y s [] 0 sd 1044 244 m -17 Y s [4 8] 0 sd 1044
 1247 m -1020 Y s [] 0 sd 1090 244 m -17 Y s [4 8] 0 sd 1090 1247 m -1020 Y s
 [] 0 sd 1128 244 m -17 Y s [4 8] 0 sd 1128 1247 m -1020 Y s [] 0 sd 1160 244 m
 -17 Y s [4 8] 0 sd 1160 1247 m -1020 Y s [] 0 sd 1187 244 m -17 Y s [4 8] 0 sd
 1187 1247 m -1020 Y s [] 0 sd 1211 244 m -17 Y s [4 8] 0 sd 1211 1247 m -1020 Y
 s [] 0 sd 1233 261 m -34 Y s [4 8] 0 sd 1233 1247 m -1020 Y s
 /xs 0 def 
(10)
 /Helvetica     64 stwn 
 gsave  1233 127
 t   0 r  xs 2 div neg 0 t 0 0 m
 /Helvetica findfont   64 sf 0    0 m 
(10)
 show 
 gr
 /xs 0 def 
(2)
 /Helvetica     51 stwn 
 gsave  1291 174
 t   0 r  xs 2 div neg 0 t 0 0 m
 /Helvetica findfont   51 sf 0    0 m 
(2)
 show 
 gr
 [] 0 sd 1376 244 m -17 Y s [4 8] 0 sd 1376 1247 m -1020 Y s [] 0 sd 1460 244 m
 -17 Y s [4 8] 0 sd 1460 1247 m -1020 Y s [] 0 sd 1519 244 m -17 Y s [4 8] 0 sd
 1519 1247 m -1020 Y s [] 0 sd 1565 244 m -17 Y s [4 8] 0 sd 1565 1247 m -1020 Y
 s [] 0 sd 1603 244 m -17 Y s [4 8] 0 sd 1603 1247 m -1020 Y s [] 0 sd 1634 244
 m -17 Y s [4 8] 0 sd 1634 1247 m -1020 Y s [] 0 sd 1662 244 m -17 Y s
 [4 8] 0 sd 1662 1247 m -1020 Y s [] 0 sd 1686 244 m -17 Y s [4 8] 0 sd 1686
 1247 m -1020 Y s [] 0 sd 1708 261 m -34 Y s [4 8] 0 sd 1708 1247 m -1020 Y s
 /xs 0 def 
(10)
 /Helvetica     64 stwn 
 gsave  1708 127
 t   0 r  xs 2 div neg 0 t 0 0 m
 /Helvetica findfont   64 sf 0    0 m 
(10)
 show 
 gr
 /xs 0 def 
(3)
 /Helvetica     51 stwn 
 gsave  1766 174
 t   0 r  xs 2 div neg 0 t 0 0 m
 /Helvetica findfont   51 sf 0    0 m 
(3)
 show 
 gr
 [] 0 sd 1851 244 m -17 Y s [4 8] 0 sd 1851 1247 m -1020 Y s [] 0 sd 1935 244 m
 -17 Y s [4 8] 0 sd 1935 1247 m -1020 Y s [] 0 sd 1994 244 m -17 Y s [4 8] 0 sd
 1994 1247 m -1020 Y s [] 0 sd 2040 244 m -17 Y s [4 8] 0 sd 2040 1247 m -1020 Y
 s 1757 1020 283 227 C [] 0 sd 283 1218 m 475 -2 d 475 -125 d 475 -3 d s 283
 1218 758 1216 1233 1091 1708 1088 4 { m21} R 283 1218 m 475 -85 d 475 -56 d 475
 -227 d s 283 1218 758 1133 1233 1077 1708 850 4 { m20} R 283 1218 m 475 -153 d
 475 -306 d 475 -405 d s 283 1218 758 1065 1233 759 1708 354 4 { m22} R 2267
 2720 0 0 C 1757 1020 283 227 C 2267 2720 0 0 C
 gsave  1777 1054
 t   0 r 0 0 m
 /Helvetica findfont   47 sf 0    0 m 
(NOV)
 show 
 gr
 1757 1020 283 227 C 2267 2720 0 0 C 1757 1020 283 227 C 2267 2720 0 0 C
 gsave  1777 861
 t   0 r 0 0 m
 /Helvetica findfont   47 sf 0    0 m 
(Crismatec)
 show 
 gr
 1757 1020 283 227 C 2267 2720 0 0 C
 /xs 0 def 
(Dose \040)
 /Helvetica     70 stwn 
(M)
 /Special     70 stwn 
(rad)
 /Helvetica     70 stwn 
(N)
 /Special     70 stwn 
 gsave  2040 48
 t   0 r  xs neg 0 t 0 0 m
 /Helvetica findfont   70 sf 0    0 m 
(Dose \040)
 show 
 currentpoint pop 0 t 
 /Special findfont   70 sf 0    0 m 
(M)
 show 
 currentpoint pop 0 t 
 /Helvetica findfont   70 sf 0    0 m 
(rad)
 show 
 currentpoint pop 0 t 
 /Special findfont   70 sf 0    0 m 
(N)
 show 
 gr
 /xs 0 def 
(Relative Light Output\040)
 /Helvetica     70 stwn 
(M)
 /Special     70 stwn 
(%)
 /Helvetica     70 stwn 
(N)
 /Special     70 stwn 
 gsave  68 1247
 t  90 r  xs neg 0 t 0 0 m
 /Helvetica findfont   70 sf 0    0 m 
(Relative Light Output\040)
 show 
 currentpoint pop 0 t 
 /Special findfont   70 sf 0    0 m 
(M)
 show 
 currentpoint pop 0 t 
 /Helvetica findfont   70 sf 0    0 m 
(%)
 show 
 currentpoint pop 0 t 
 /Special findfont   70 sf 0    0 m 
(N)
 show 
 gr
 1757 1020 283 227 C 2267 2720 0 0 C 1757 1020 283 227 C 2267 2720 0 0 C
 gsave  353 482
 t   0 r 0 0 m
 /Helvetica findfont   78 sf 0    0 m 
(Front-face Irrad.)
 show 
 gr
 1757 1020 283 227 C 2267 2720 0 0 C 1757 1020 283 227 C 2267 2720 0 0 C
 gsave  426 340
 t   0 r 0 0 m
 /Helvetica findfont   78 sf 0    0 m 
(\(PD readout\))
 show 
 gr
 1757 1020 283 227 C 2267 2720 0 0 C 1757 1020 283 227 C 2267 2720 0 0 C
 gsave  1777 323
 t   0 r 0 0 m
 /Helvetica findfont   47 sf 0    0 m 
(SIC \(OLD\))
 show 
 gr
 1757 1020 283 227 C 9 lw 283 1218 m 475 -85 d s 758 1133 m 475 -198 d s 1233
 935 m 475 -283 d s 2267 2720 0 0 C 1757 1020 283 227 C 2267 2720 0 0 C
 gsave  1543 580
 t   0 r 0 0 m
 /Helvetica findfont   81 sf 0    0 m 
( Requirement)
 show 
 gr
 1757 1020 283 227 C
gr gr showpage
end
%%EOF
