%!PS-Adobe-2.0 EPSF-2.0
%%BoundingBox: 0 0 567 567
%%Title: ratio_newsic_note.eps
%%Creator: HIGZ Version 1.22/09
%%CreationDate: 96/12/16   21.50
%%EndComments
80 dict begin
/s {stroke} def /l {lineto} def /m {moveto} def /t {translate} def
/sw {stringwidth} def /r {rotate} def /rl {roll}  def /R {repeat} def
/d {rlineto} def /rm {rmoveto} def /gr {grestore} def /f {eofill} def
/c {setrgbcolor} def /lw {setlinewidth} def /sd {setdash} def
/cl {closepath} def /sf {scalefont setfont} def /black {0 setgray} def
/box {m dup 0 exch d exch 0 d 0 exch neg d cl} def
/NC{systemdict begin initclip end}def/C{NC box clip newpath}def
/bl {box s} def /bf {box f} def /Y { 0 exch d} def /X { 0 d} def 
/mp {newpath /y exch def /x exch def} def
/side {[w .77 mul w .23 mul] .385 w mul sd w 0 l currentpoint t -144 r} def
/mr {mp x y w2 0 360 arc} def /m24 {mr s} def /m20 {mr f} def
/mb {mp x y w2 add m w2 neg 0 d 0 w neg d w 0 d 0 w d cl} def
/mt {mp x y w2 add m w2 neg w neg d w 0 d cl} def
/m21 {mb f} def /m25 {mb s} def /m22 {mt f} def /m26 {mt s} def
/m23 {mp x y w2 sub m w2 w d w neg 0 d cl f} def
/m27 {mp x y w2 add m w3 neg w2 neg d w3 w2 neg d w3  w2 d cl s} def
/m28 {mp x w2 sub y w2 sub w3 add m w3 0 d 0 w3 neg d w3 0 d 0 w3 d w3 0 d
 0 w3 d w3 neg 0 d 0 w3 d w3 neg 0 d
 0 w3 neg d w3 neg 0 d cl s } def
/m29 {mp gsave x w2 sub y w2 add w3 sub m currentpoint t
 4 {side} repeat cl fill gr} def
/m30 {mp gsave x w2 sub y w2 add w3 sub m currentpoint t
 5 {side} repeat s gr} def
/m31 {mp x y w2 sub m 0 w d x w2 sub y m w 0 d
 x w2 sub y w2 add m w w neg d x w2 sub y w2
 sub m w w d s} def
/m2 {mp x y w2 sub m 0 w d x w2 sub y m w 0 d s} def
/m5 {mp x w2 sub y w2 sub m w w d x w2 sub y w2 add m w w neg d s} def
/DP {/PT exch def gsave 47.2 47.2 scale PT 1 eq { 16 16 1 [ 16 0 0 16 neg 0 16
] { < AA AA 55 55 AA AA 55 55 AA AA 55 55 AA AA 55 55 AA AA 55 55 AA AA 55 55
AA AA 55 55 AA AA 55 55 > } image } if PT 2 eq { 16 16 1 [ 16 0 0 16 neg 0 16
] { < BB BB EE EE BB BB EE EE BB BB EE EE BB BB EE EE BB BB EE EE BB BB EE EE
BB BB EE EE BB BB EE EE > } image } if PT 3 eq { 16 16 1 [ 16 0 0 16 neg 0 16
] { < FF FF BB BB FF FF EE EE FF FF BB BB FF FF EE EE FF FF BB BB FF FF EE EE
FF FF BB BB FF FF EE EE > } image } if PT 4 eq { 16 16 1 [ 16 0 0 16 neg 0 16
] { < DF DF BF BF 7F 7F FE FE FD FD FB FB F7 F7 EF EF DF DF BF BF 7F 7F FE FE
FD FD FB FB F7 F7 EF EF > } image } if PT 5 eq { 16 16 1 [ 16 0 0 16 neg 0 16
] { < 7F 7F BF B F DF DF EF EF F7 F7 FB FB FD FD FE FE 7F 7F BF BF DF DF EF
EF F7 F7 FB FB FD FD FE FE > } image } if PT 6 eq { 16 16 1 [ 16 0 0 16 neg 0
16 ] { < BB BB BB BB BB BB BB BB BB BB BB BB BB BB BB BB BB BB BB BB BB BB BB
BB BB BB BB BB BB BB BB BB > } image } if PT 7 eq { 16 16 1 [ 16 0 0 16 neg 0
16 ] { < FF FF FF FF FF FF 00 00 FF FF FF FF FF FF 00 00 FF FF FF FF FF FF 00
00 FF FF FF FF FF FF 00 00 > } image } if PT 8 eq { 16 16 1 [ 16 0 0 16 neg 0
16 ] { < EE EE 47 47 83 83 C5 C5 EE EE 5C 5C 38 38 74 74 EE EE 47 47 83 83 C5
C5 EE EE 5C 5C 38 38 74 74 > } image } if PT 9 eq { 16 16 1 [ 16 0 0 16 neg 0
16 ] { < EF EF EF EF D7 D7 38 38 FE FE FE FE 7D 7D 83 83 EF EF EF EF D7 D7 38
38 FE FE FE FE 7D 7D 83 83 > } image } if PT 10 eq { 16 16 1 [ 16 0 0 16 neg
0 16 ] { < EF EF EF EF EF EF 00 00 FE FE FE FE FE FE 00 00 EF EF EF EF EF EF
00 00 FE FE FE FE FE FE 00 00 > } image } if PT 11 eq { 16 16 1 [ 16 0 0 16
neg 0 16 ] { < F7 F7 B6 B6 D5 D5 E3 E3 D5 D5 B6 B6 F7 F7 FF FF 7F 7F 6B 6B 5D
5D 3E 3E 5D 5D 6B 6B 7F 7F FF FF > } image } if PT 12 eq { 16 16 1 [ 16 0 0
16 neg 0 16 ] { < E3 E3 DD DD BE BE BE BE BE BE DD DD E3 E3 FF FF 3E 3E DD DD
EB EB EB EB EB EB DD DD 3E 3E FF FF > } image } if PT 13 eq { 16 16 1 [ 16 0
0 16 neg 0 16 ] { < FE FE 7D 7D BB BB D7 D7 EF EF D7 D7 BB BB 7D 7D FE FE 7D
7D BB BB D7 D7 EF EF D7 D7 BB BB 7D 7D > } image } if PT 14 eq { 16 16 1 [ 16
0 0 16 neg 0 16 ] { < 00 00 EE EF EE EF EE EF 0E E0 EE EE EE EE EE EE 00 EE
FE EE FE EE FE EE 00 00 FE EF FE EF FE EF > } image } if PT 15 eq { 16 16 1 [
16 0 0 16 neg 0 16 ] { < DD DD AA AA DD DD FF FF 77 77 AA AA 77 77 FF FF DD
DD AA AA DD DD FF FF 77 77 AA AA 77 77 FF FF > } image } if PT 16 eq { 16 16
1 [ 16 0 0 16 neg 0 16 ] { < F1 F1 EE EE 1F 1F FF FF F1 F1 EE EE 1F 1F FF FF
F1 F1 EE EE 1F 1F FF FF F1 F1 EE EE 1F 1F FF FF > } image } if PT 17 eq { 16
16 1 [ 16 0 0 16 neg 0 16 ] { < EE EE DD DD BB BB FF FF EE EE DD DD BB BB FF
FF EE EE DD DD BB BB FF FF EE EE DD DD BB BB FF FF > } image } if PT 18 eq {
16 16 1 [ 16 0 0 16 neg 0 16 ] { < BB BB DD DD EE EE FF FF BB BB DD DD EE EE
FF FF BB BB DD DD EE EE FF FF BB BB DD DD EE EE FF FF > } image } if PT 19 eq
{ 16 16 1 [ 16 0 0 16 neg 0 16 ] { < 1F FC 67 F3 7B EF BD DE BD DE DE BD E6
B3 F8 0F E6 B3 DE BD BD DE BD DE 7B EF 67 F3 1F FC 7F FF > } image } if PT
20 eq { 16 16 1 [ 16 0 0 16 neg 0 16 ] { < DD DD EE EE EE EE EE EE DD DD BB
BB BB BB BB BB DD DD EE EE EE EE EE EE DD DD BB BB BB BB BB BB > } image }
if PT 21 eq { 16 16 1 [ 16 0 0 16 neg 0 16 ] { < 0E 0E EF EF EF EF EF EF E0
E0 FE FE FE FE FE FE 0E 0E EF EF EF EF EF EF E0 E0 FE FE FE FE FE FE > }
image } if PT 22 eq { 16 16 1 [ 16 0 0 16 neg 0 16 ] { < 70 70 F7 F7 F7 F7 F7
F7 07 07 7F 7F 7F 7F 7F 7F 70 70 F7 F7 F7 F7 F7 F7 07 07 7F 7F 7F 7F 7F 7F >
} image } if PT 23 eq { 16 16 1 [ 16 0 0 16 neg 0 16 ] { < AA AA 55 55 A9 A9
D1 D1 E1 E1 D1 D1 A9 A9 55 55 AA AA 55 55 A9 A9 D1 D1 E1 E1 D1 D1 A9 A9 55 55
> } image } if PT 24 eq { 16 16 1 [ 16 0 0 16 neg 0 16 ] { < FF FE FF FC EA
A8 D5 54 EA A8 D5 54 E8 28 D4 54 E8 E8 D4 D4 E8 EA 54 D5 A8 EA 54 D5 00 C0 00
80 > } image } if PT 25 eq { 16 16 1 [ 16 0 0 16 neg 0 16 ] { < FF FE FF FC
FF F8 FF F0 F0 00 F0 00 F0 20 F0 60 F0 E0 F1 E0 F3 E0 F0 00 E0 00 C0 00 80 00
00 00 > } image } if gr } def /FA { /PT exch def gsave clip 0 0 translate 1 1
54 { 1 sub 47.2 mul /Xcurr exch def 1 1 74 { 1 sub 47.2 mul /Ycurr exch def
gsave Xcurr Ycurr translate PT DP gr } for } for gr } def
/reencdict 24 dict def /ReEncode {reencdict begin /nco&na exch def
/nfnam exch def /basefontname exch def /basefontdict basefontname findfont def
/newfont basefontdict maxlength dict def basefontdict {exch dup /FID ne
{dup /Encoding eq {exch dup length array copy newfont 3 1 roll put} {exch
newfont 3 1 roll put} ifelse} {pop pop} ifelse } forall newfont
/FontName nfnam put nco&na aload pop nco&na length 2 idiv {newfont
/Encoding get 3 1 roll put} repeat nfnam newfont definefont pop end } def
/accvec [ 176 /agrave 181 /Agrave 190 /acircumflex 192 /Acircumflex
201 /adieresis 204 /Adieresis 209 /ccedilla 210 /Ccedilla 211 /eacute
212 /Eacute 213 /egrave 214 /Egrave 215 /ecircumflex 216 /Ecircumflex
217 /edieresis 218 /Edieresis 219 /icircumflex 220 /Icircumflex
221 /idieresis 222 /Idieresis 223 /ntilde 224 /Ntilde 226 /ocircumflex
228 /Ocircumflex 229 /odieresis 230 /Odieresis 231 /ucircumflex 236 /Ucircumflex
237 /udieresis 238 /Udieresis 239 /aring 242 /Aring 243 /ydieresis
244 /Ydieresis 246 /aacute 247 /Aacute 252 /ugrave 253 /Ugrave] def
/Times-Roman /Times-Roman accvec ReEncode
/Times-Italic /Times-Italic accvec ReEncode
/Times-Bold /Times-Bold accvec ReEncode
/Times-BoldItalic /Times-BoldItalic accvec ReEncode
/Helvetica /Helvetica accvec ReEncode
/Helvetica-Oblique /Helvetica-Oblique accvec ReEncode
/Helvetica-Bold /Helvetica-Bold accvec ReEncode
/Helvetica-BoldOblique /Helvetica-BoldOblique  accvec ReEncode
/Courier /Courier accvec ReEncode
/Courier-Oblique /Courier-Oblique accvec ReEncode
/Courier-Bold /Courier-Bold accvec ReEncode
/Courier-BoldOblique /Courier-BoldOblique accvec ReEncode
/oshow {gsave [] 0 sd true charpath stroke gr} def
/stwn { /fs exch def /fn exch def /text exch def fn findfont fs sf
 text sw pop xs add /xs exch def} def
/stwb { /fs exch def /fn exch def /nbas exch def /textf exch def
textf length /tlen exch def nbas tlen gt {/nbas tlen def} if
fn findfont fs sf textf dup length nbas sub nbas getinterval sw
pop neg xs add /xs exch def} def
/accspe [ 65 /plusminus 66 /bar 67 /existential 68 /universal
69 /exclam 70 /numbersign 71 /greater 72 /question 73 /integral
74 /colon 75 /semicolon 76 /less 77 /bracketleft 78 /bracketright
79 /greaterequal 80 /braceleft 81 /braceright 82 /radical
83 /spade 84 /heart 85 /diamond 86 /club 87 /lessequal
88 /multiply 89 /percent 90 /infinity 48 /circlemultiply 49 /circleplus
50 /emptyset 51 /lozenge 52 /bullet 53 /arrowright 54 /arrowup
55 /arrowleft 56 /arrowdown 57 /arrowboth 48 /degree 44 /comma 43 /plus
 45 /angle 42 /angleleft 47 /divide 61 /notequal 40 /equivalence 41 /second
 97 /approxequal 98 /congruent 99 /perpendicular 100 /partialdiff 101 /florin
 102 /intersection 103 /union 104 /propersuperset 105 /reflexsuperset
 106 /notsubset 107 /propersubset 108 /reflexsubset 109 /element 110 /notelement
 111 /gradient 112 /logicaland 113 /logicalor 114 /arrowdblboth
 115 /arrowdblleft 116 /arrowdblup 117 /arrowdblright 118 /arrowdbldown
 119 /ampersand 120 /omega1 121 /similar 122 /aleph ] def
/Symbol /Special accspe ReEncode
gsave .25 .25 scale 
%%EndProlog
 gsave 0 0 t black [] 0 sd 1 lw 1757 1758 284 227 bl 2268 2268 0 0 C
 /xs 0 def 
( Light Output vs Dose)
 /Helvetica     62 stwn 
 gsave  1134 2053
 t   0 r  xs 2 div neg 0 t 0 0 m
 /Helvetica findfont   62 sf 0    0 m 
( Light Output vs Dose)
 show 
 gr
 1757 1758 284 227 C NC 284 227 m 1758 Y s 318 227 m -34 X s [4 8] 0 sd 2041 227
 m -1757 X s [] 0 sd 301 285 m -17 X s 301 344 m -17 X s 301 403 m -17 X s 301
 461 m -17 X s 318 520 m -34 X s [4 8] 0 sd 2041 520 m -1757 X s [] 0 sd 301 578
 m -17 X s 301 637 m -17 X s 301 696 m -17 X s 301 754 m -17 X s 318 813 m -34 X
 s [4 8] 0 sd 2041 813 m -1757 X s [] 0 sd 301 871 m -17 X s 301 930 m -17 X s
 301 988 m -17 X s 301 1047 m -17 X s 318 1106 m -34 X s [4 8] 0 sd 2041 1106 m
 -1757 X s [] 0 sd 301 1164 m -17 X s 301 1223 m -17 X s 301 1281 m -17 X s 301
 1340 m -17 X s 318 1399 m -34 X s [4 8] 0 sd 2041 1399 m -1757 X s [] 0 sd 301
 1457 m -17 X s 301 1516 m -17 X s 301 1574 m -17 X s 301 1633 m -17 X s 318
 1692 m -34 X s [4 8] 0 sd 2041 1692 m -1757 X s [] 0 sd 301 1750 m -17 X s 301
 1809 m -17 X s 301 1867 m -17 X s 301 1926 m -17 X s 318 1985 m -34 X s
 [4 8] 0 sd 2041 1985 m -1757 X s
 /xs 0 def 
(70)
 /Helvetica     67 stwn 
 gsave  238 202
 t   0 r  xs neg 0 t 0 0 m
 /Helvetica findfont   67 sf 0    0 m 
(70)
 show 
 gr
 /xs 0 def 
(75)
 /Helvetica     67 stwn 
 gsave  238 495
 t   0 r  xs neg 0 t 0 0 m
 /Helvetica findfont   67 sf 0    0 m 
(75)
 show 
 gr
 /xs 0 def 
(80)
 /Helvetica     67 stwn 
 gsave  238 788
 t   0 r  xs neg 0 t 0 0 m
 /Helvetica findfont   67 sf 0    0 m 
(80)
 show 
 gr
 /xs 0 def 
(85)
 /Helvetica     67 stwn 
 gsave  238 1081
 t   0 r  xs neg 0 t 0 0 m
 /Helvetica findfont   67 sf 0    0 m 
(85)
 show 
 gr
 /xs 0 def 
(90)
 /Helvetica     67 stwn 
 gsave  238 1374
 t   0 r  xs neg 0 t 0 0 m
 /Helvetica findfont   67 sf 0    0 m 
(90)
 show 
 gr
 /xs 0 def 
(95)
 /Helvetica     67 stwn 
 gsave  238 1667
 t   0 r  xs neg 0 t 0 0 m
 /Helvetica findfont   67 sf 0    0 m 
(95)
 show 
 gr
 /xs 0 def 
(100)
 /Helvetica     67 stwn 
 gsave  238 1960
 t   0 r  xs neg 0 t 0 0 m
 /Helvetica findfont   67 sf 0    0 m 
(100)
 show 
 gr
 [] 0 sd 284 227 m 1757 X s 284 261 m -34 Y s [4 8] 0 sd 284 1985 m -1758 Y s
 /xs 0 def 
(0)
 /Helvetica     67 stwn 
 gsave  284 124
 t   0 r  xs 2 div neg 0 t 0 0 m
 /Helvetica findfont   67 sf 0    0 m 
(0)
 show 
 gr
 [] 0 sd 427 244 m -17 Y s [4 8] 0 sd 427 1985 m -1758 Y s [] 0 sd 510 244 m -17
 Y s [4 8] 0 sd 510 1985 m -1758 Y s [] 0 sd 570 244 m -17 Y s [4 8] 0 sd 570
 1985 m -1758 Y s [] 0 sd 616 244 m -17 Y s [4 8] 0 sd 616 1985 m -1758 Y s
 [] 0 sd 653 244 m -17 Y s [4 8] 0 sd 653 1985 m -1758 Y s [] 0 sd 685 244 m -17
 Y s [4 8] 0 sd 685 1985 m -1758 Y s [] 0 sd 713 244 m -17 Y s [4 8] 0 sd 713
 1985 m -1758 Y s [] 0 sd 737 244 m -17 Y s [4 8] 0 sd 737 1985 m -1758 Y s
 [] 0 sd 759 261 m -34 Y s [4 8] 0 sd 759 1985 m -1758 Y s
 /xs 0 def 
(10)
 /Helvetica     67 stwn 
 gsave  759 124
 t   0 r  xs 2 div neg 0 t 0 0 m
 /Helvetica findfont   67 sf 0    0 m 
(10)
 show 
 gr
 [] 0 sd 902 244 m -17 Y s [4 8] 0 sd 902 1985 m -1758 Y s [] 0 sd 985 244 m -17
 Y s [4 8] 0 sd 985 1985 m -1758 Y s [] 0 sd 1045 244 m -17 Y s [4 8] 0 sd 1045
 1985 m -1758 Y s [] 0 sd 1091 244 m -17 Y s [4 8] 0 sd 1091 1985 m -1758 Y s
 [] 0 sd 1128 244 m -17 Y s [4 8] 0 sd 1128 1985 m -1758 Y s [] 0 sd 1160 244 m
 -17 Y s [4 8] 0 sd 1160 1985 m -1758 Y s [] 0 sd 1188 244 m -17 Y s [4 8] 0 sd
 1188 1985 m -1758 Y s [] 0 sd 1212 244 m -17 Y s [4 8] 0 sd 1212 1985 m -1758 Y
 s [] 0 sd 1234 261 m -34 Y s [4 8] 0 sd 1234 1985 m -1758 Y s
 /xs 0 def 
(10)
 /Helvetica     67 stwn 
 gsave  1234 124
 t   0 r  xs 2 div neg 0 t 0 0 m
 /Helvetica findfont   67 sf 0    0 m 
(10)
 show 
 gr
 /xs 0 def 
(2)
 /Helvetica     53 stwn 
 gsave  1295 172
 t   0 r  xs 2 div neg 0 t 0 0 m
 /Helvetica findfont   53 sf 0    0 m 
(2)
 show 
 gr
 [] 0 sd 1377 244 m -17 Y s [4 8] 0 sd 1377 1985 m -1758 Y s [] 0 sd 1461 244 m
 -17 Y s [4 8] 0 sd 1461 1985 m -1758 Y s [] 0 sd 1520 244 m -17 Y s [4 8] 0 sd
 1520 1985 m -1758 Y s [] 0 sd 1566 244 m -17 Y s [4 8] 0 sd 1566 1985 m -1758 Y
 s [] 0 sd 1604 244 m -17 Y s [4 8] 0 sd 1604 1985 m -1758 Y s [] 0 sd 1635 244
 m -17 Y s [4 8] 0 sd 1635 1985 m -1758 Y s [] 0 sd 1663 244 m -17 Y s
 [4 8] 0 sd 1663 1985 m -1758 Y s [] 0 sd 1687 244 m -17 Y s [4 8] 0 sd 1687
 1985 m -1758 Y s [] 0 sd 1709 261 m -34 Y s [4 8] 0 sd 1709 1985 m -1758 Y s
 /xs 0 def 
(10)
 /Helvetica     67 stwn 
 gsave  1709 124
 t   0 r  xs 2 div neg 0 t 0 0 m
 /Helvetica findfont   67 sf 0    0 m 
(10)
 show 
 gr
 /xs 0 def 
(3)
 /Helvetica     53 stwn 
 gsave  1770 172
 t   0 r  xs 2 div neg 0 t 0 0 m
 /Helvetica findfont   53 sf 0    0 m 
(3)
 show 
 gr
 [] 0 sd 1852 244 m -17 Y s [4 8] 0 sd 1852 1985 m -1758 Y s [] 0 sd 1936 244 m
 -17 Y s [4 8] 0 sd 1936 1985 m -1758 Y s [] 0 sd 1995 244 m -17 Y s [4 8] 0 sd
 1995 1985 m -1758 Y s [] 0 sd 2041 244 m -17 Y s [4 8] 0 sd 2041 1985 m -1758 Y
 s 1757 1758 284 227 C 2268 2268 0 0 C 1757 1758 284 227 C 2268 2268 0 0 C
 /xs 0 def 
(0)
 /Helvetica     67 stwn 
 gsave  284 -483
 t   0 r  xs 2 div neg 0 t 0 0 m
 /Helvetica findfont   67 sf 0    0 m 
(0)
 show 
 gr
 1757 1758 284 227 C [] 0 sd 4 lw 284 1985 m 475 -194 d 475 -609 d 475 -733 d s
 /w 41 def /w2 {w 2 div} def /w3 {w 3 div} def 284 1985 759 1791 1234 1182 1709
 449 4 { m20} R 284 1985 m 475 -94 d 475 -211 d 475 -287 d s 284 1985 759 1891
 1234 1680 1709 1393 4 { m30} R 284 1985 m 475 -36 d 475 -257 d 475 -270 d s 284
 1985 759 1949 1234 1692 1709 1422 4 { m30} R 284 1985 m 475 -53 d 475 -18 d 475
 18 d s 284 1985 759 1932 1234 1914 1709 1932 4 { m30} R 284 1985 m 475 -100 d
 475 -117 d 475 -117 d s 284 1985 759 1885 1234 1768 1709 1651 4 { m30} R 284
 1985 m 475 -118 d 475 -70 d 475 -234 d s 284 1985 759 1867 1234 1797 1709 1563
 4 { m30} R 2268 2268 0 0 C
 /xs 0 def 
(Dose \040)
 /Helvetica     70 stwn 
(M)
 /Special     70 stwn 
(rad)
 /Helvetica     70 stwn 
(N)
 /Special     70 stwn 
 gsave  2041 48
 t   0 r  xs neg 0 t 0 0 m
 /Helvetica findfont   70 sf 0    0 m 
(Dose \040)
 show 
 currentpoint pop 0 t 
 /Special findfont   70 sf 0    0 m 
(M)
 show 
 currentpoint pop 0 t 
 /Helvetica findfont   70 sf 0    0 m 
(rad)
 show 
 currentpoint pop 0 t 
 /Special findfont   70 sf 0    0 m 
(N)
 show 
 gr
 /xs 0 def 
( Relative Light Output \040)
 /Helvetica     70 stwn 
(M)
 /Special     70 stwn 
(%)
 /Helvetica     70 stwn 
(N)
 /Special     70 stwn 
 gsave  57 1985
 t  90 r  xs neg 0 t 0 0 m
 /Helvetica findfont   70 sf 0    0 m 
( Relative Light Output \040)
 show 
 currentpoint pop 0 t 
 /Special findfont   70 sf 0    0 m 
(M)
 show 
 currentpoint pop 0 t 
 /Helvetica findfont   70 sf 0    0 m 
(%)
 show 
 currentpoint pop 0 t 
 /Special findfont   70 sf 0    0 m 
(N)
 show 
 gr
 1757 1758 284 227 C 8 lw 284 1985 m 475 -176 d s 759 1809 m 475 -410 d s 1234
 1399 m 475 -586 d s 2268 2268 0 0 C 1757 1758 284 227 C 2268 2268 0 0 C
 gsave  1520 724
 t   0 r 0 0 m
 /Helvetica findfont   81 sf 0    0 m 
( Requirement)
 show 
 gr
 1757 1758 284 227 C 2268 2268 0 0 C 1757 1758 284 227 C 2268 2268 0 0 C
 gsave  1793 1515
 t   0 r 0 0 m
 /Helvetica findfont   81 sf 0    0 m 
(New)
 show 
 gr
 1757 1758 284 227 C 2268 2268 0 0 C 1757 1758 284 227 C 2268 2268 0 0 C
 gsave  1793 402
 t   0 r 0 0 m
 /Helvetica findfont   81 sf 0    0 m 
(Old)
 show 
 gr
 1757 1758 284 227 C
gr gr showpage
end
%%EOF
