%!PS-Adobe-2.0 EPSF-2.0
%%Title: setup1.fig
%%Creator: /usr/tmp/fig2dev Version 3.1 Patchlevel 1
%%CreationDate: Mon Apr 14 12:03:42 1997
%%For: garmash@sky.inp.nsk.su (Aleksej Yu. Garmash,G-Bondar (D3) Main/261,92-27,(A.Yu.Garmash))
%%Orientation: Portrait
%%BoundingBox: 0 0 1297 538
%%Pages: 0
%%BeginSetup
%%IncludeFeature: *PageSize Letter
%%EndSetup
%%EndComments
/$F2psDict 200 dict def
$F2psDict begin
$F2psDict /mtrx matrix put
/col-1 {} def
/col0 {0.000 0.000 0.000 srgb} bind def
/col1 {0.000 0.000 1.000 srgb} bind def
/col2 {0.000 1.000 0.000 srgb} bind def
/col3 {0.000 1.000 1.000 srgb} bind def
/col4 {1.000 0.000 0.000 srgb} bind def
/col5 {1.000 0.000 1.000 srgb} bind def
/col6 {1.000 1.000 0.000 srgb} bind def
/col7 {1.000 1.000 1.000 srgb} bind def
/col8 {0.000 0.000 0.560 srgb} bind def
/col9 {0.000 0.000 0.690 srgb} bind def
/col10 {0.000 0.000 0.820 srgb} bind def
/col11 {0.530 0.810 1.000 srgb} bind def
/col12 {0.000 0.560 0.000 srgb} bind def
/col13 {0.000 0.690 0.000 srgb} bind def
/col14 {0.000 0.820 0.000 srgb} bind def
/col15 {0.000 0.560 0.560 srgb} bind def
/col16 {0.000 0.690 0.690 srgb} bind def
/col17 {0.000 0.820 0.820 srgb} bind def
/col18 {0.560 0.000 0.000 srgb} bind def
/col19 {0.690 0.000 0.000 srgb} bind def
/col20 {0.820 0.000 0.000 srgb} bind def
/col21 {0.560 0.000 0.560 srgb} bind def
/col22 {0.690 0.000 0.690 srgb} bind def
/col23 {0.820 0.000 0.820 srgb} bind def
/col24 {0.500 0.190 0.000 srgb} bind def
/col25 {0.630 0.250 0.000 srgb} bind def
/col26 {0.750 0.380 0.000 srgb} bind def
/col27 {1.000 0.500 0.500 srgb} bind def
/col28 {1.000 0.630 0.630 srgb} bind def
/col29 {1.000 0.750 0.750 srgb} bind def
/col30 {1.000 0.880 0.880 srgb} bind def
/col31 {1.000 0.840 0.000 srgb} bind def

end
save
-164.0 667.0 translate
1 -1 scale

/clp {closepath} bind def
/ef {eofill} bind def
/gr {grestore} bind def
/gs {gsave} bind def
/l {lineto} bind def
/m {moveto} bind def
/n {newpath} bind def
/s {stroke} bind def
/slc {setlinecap} bind def
/slj {setlinejoin} bind def
/slw {setlinewidth} bind def
/srgb {setrgbcolor} bind def
/rot {rotate} bind def
/sc {scale} bind def
/tr {translate} bind def
/tnt {dup dup currentrgbcolor
  4 -2 roll dup 1 exch sub 3 -1 roll mul add
  4 -2 roll dup 1 exch sub 3 -1 roll mul add
  4 -2 roll dup 1 exch sub 3 -1 roll mul add srgb}
  bind def
/shd {dup dup currentrgbcolor 4 -2 roll mul 4 -2 roll mul
  4 -2 roll mul srgb} bind def
 /DrawEllipse {
	/endangle exch def
	/startangle exch def
	/yrad exch def
	/xrad exch def
	/y exch def
	/x exch def
	/savematrix mtrx currentmatrix def
	x y tr xrad yrad sc 0 0 1 startangle endangle arc
	closepath
	savematrix setmatrix
	} def

/$F2psBegin {$F2psDict begin /$F2psEnteredState save def} def
/$F2psEnd {$F2psEnteredState restore end} def
%%EndProlog

$F2psBegin
10 setmiterlimit
 0.06299 0.06299 sc
7.500 slw
% Polyline
n 20523 4413 m 20163 4548 l  gs col-1 s gr 
% Polyline
n 16833 4413 m 17193 4548 l  gs col-1 s gr 
% Polyline
n 16833 3828 m 17193 4053 l  gs col-1 s gr 
% Polyline
n 17194 3559 m 16834 3199 l  gs col-1 s gr 
% Polyline
n 20164 3559 m 20524 3199 l  gs col-1 s gr 
% Polyline
n 16831 6526 m 16831 3196 l  20521 3196 l  20521 6526 l  gs col-1 s gr 
% Polyline
n 7830 8370 m 7830 9225 l  gs col-1 s gr 
% Polyline
n 16833 5043 m 17193 5043 l  gs col-1 s gr 
% Polyline
n 19893 3198 m 19668 3558 l  gs col-1 s gr 
% Polyline
n 19308 3198 m 19173 3558 l  gs col-1 s gr 
% Polyline
n 20523 3828 m 20163 4053 l  gs col-1 s gr 
% Polyline
n 20163 5043 m 20523 5043 l  gs col-1 s gr 
% Polyline
n 16833 6258 m 17193 6033 l  gs col-1 s gr 
% Polyline
n 16833 5673 m 17193 5538 l  gs col-1 s gr 
% Polyline
n 20523 5673 m 20163 5538 l  gs col-1 s gr 
% Polyline
n 20523 6258 m 20163 6033 l  gs col-1 s gr 
% Polyline
n 7830 9315 m 7830 9360 l  gs col-1 s gr 
% Ellipse
n 3826 6526 225 225 0 360 DrawEllipse gs col-1 s gr

% Ellipse
n 3825 3375 225 225 0 360 DrawEllipse gs col-1 s gr

% Ellipse
n 13276 4276 225 225 0 360 DrawEllipse gs col-1 s gr

% Ellipse
n 13280 5627 225 225 0 360 DrawEllipse gs col-1 s gr

% Ellipse
n 13276 8326 225 225 0 360 DrawEllipse gs col-1 s gr

% Ellipse
n 13276 2296 225 225 0 360 DrawEllipse gs col-1 s gr

% Ellipse
n 13280 3152 225 225 0 360 DrawEllipse gs col-1 s gr

% Ellipse
n 13276 6661 225 225 0 360 DrawEllipse gs col-1 s gr

% Arc
	[66.7] 0 setdash
n 20700.00 8640.00 225.00 180.00 0.00 arcn
gs col-1 s gr
	[] 0 setdash
% Polyline
n 7830 9450 m 7830 10350 l  gs col-1 s gr 
% Polyline
n 18676 8326 m 18676 9181 l  gs col-1 s gr 
% Polyline
n 18676 9271 m 18676 9316 l  gs col-1 s gr 
% Polyline
n 18676 9406 m 18676 10306 l  gs col-1 s gr 
% Arc
n 20700.00 8640.00 225.00 180.00 0.00 arc
gs col-1 s gr

% Arc
	[66.7] 0 setdash
n 16650.00 8640.00 225.00 180.00 0.00 arcn
gs col-1 s gr
	[] 0 setdash
% Arc
n 16650.00 8640.00 225.00 180.00 0.00 arc
gs col-1 s gr

% Arc
n 18183.00 10014.00 m 18135.00 9900.00 l 18231.00 9978.00 l  18207.50 9996.50 l 18183.00 10014.00 l clp gs 0.00 setgray ef gr gs col-1 s gr
n 19119.00 9978.00 m 19215.00 9900.00 l 19167.00 10014.00 l  19143.50 9996.50 l 19119.00 9978.00 l clp gs 0.00 setgray ef gr gs col-1 s gr
n 18675.00 9495.00 675.00 36.87 143.13 arc
gs col-1 s gr

% Polyline
n 18678 3558 m 18678 3198 l  gs col-1 s gr 
% Polyline
n 7110 9090 m 7110 9675 l  gs col-1 s gr 
% Polyline
n 8460 9090 m 8460 9675 l  gs col-1 s gr 
% Polyline
n 4050 9450 m 4050 10125 l  gs col-1 s gr 
n 4020.00 9570.00 m 4050.00 9450.00 l 4080.00 9570.00 l  4050.50 9570.50 l 4020.00 9570.00 l clp gs 0.00 setgray ef gr gs col-1 s gr
n 4080.00 10005.00 m 4050.00 10125.00 l 4020.00 10005.00 l  4050.50 10005.50 l 4080.00 10005.00 l clp gs 0.00 setgray ef gr gs col-1 s gr
% Polyline
n 3242 9090 m 12242 9090 l  12242 8910 l  3242 8910 l  3242 9090 l  gs col-1 s gr 
% Polyline
n 9231 3881 m 9265 4369 l  gs col-1 s gr 
% Polyline
n 9096 3892 m 9228 3877 l  gs col-1 s gr 
% Interp Spline
n 5940 2700 m
	6094.20 2666.25 6161.70 2655.00 6210 2655 curveto
	6274.41 2655.00 6419.11 2682.96 6480 2700 curveto
	6533.91 2715.08 6644.52 2784.45 6705 2790 curveto
	6762.26 2795.26 6879.50 2762.33 6930 2745 curveto
	6952.15 2737.40 6994.65 2703.81 7020 2700 curveto
	7088.96 2689.63 7225.88 2744.25 7290 2745 curveto
	7364.54 2745.87 7529.35 2696.10 7605 2700 curveto
	7649.11 2702.28 7742.29 2739.74 7785 2745 curveto
	7836.79 2751.38 7956.89 2757.54 8010 2745 curveto
	8033.75 2739.39 8076.25 2705.61 8100 2700 curveto
	8153.11 2687.46 8273.74 2700.00 8325 2700 curveto
	8355.75 2700.00 8429.25 2700.00 8460 2700 curveto
	8501.01 2700.00 8598.71 2695.91 8640 2700 curveto
	8692.63 2705.21 8812.37 2739.79 8865 2745 curveto
	8895.96 2748.07 8968.92 2748.83 9000 2745 curveto
	9042.71 2739.74 9138.99 2710.25 9180 2700 curveto
	9221.01 2689.75 9317.29 2660.26 9360 2655 curveto
	9391.08 2651.17 9464.04 2651.93 9495 2655 curveto
	9547.63 2660.21 9667.37 2694.79 9720 2700 curveto
	9727.74 2700.77 9738.99 2700.77 9765 2700 curveto
 gs col-1 s gr

% Polyline
n 11520 9450 m 11520 10125 l  gs col-1 s gr 
n 11490.00 9570.00 m 11520.00 9450.00 l 11550.00 9570.00 l  11520.50 9570.50 l 11490.00 9570.00 l clp gs 0.00 setgray ef gr gs col-1 s gr
n 11550.00 10005.00 m 11520.00 10125.00 l 11490.00 10005.00 l  11520.50 10005.50 l 11550.00 10005.00 l clp gs 0.00 setgray ef gr gs col-1 s gr
% Polyline
n 11700 5040 m 13050 5040 l  gs col-1 s gr 
% Polyline
n 4230 5040 m 4320 5040 l  gs col-1 s gr 
% Polyline
n 4500 5040 m 5850 5040 l  gs col-1 s gr 
% Polyline
n 6030 5040 m 6120 5040 l  gs col-1 s gr 
% Polyline
n 6300 5040 m 6570 5040 l  gs col-1 s gr 
% Polyline
n 11430 5040 m 11520 5040 l  gs col-1 s gr 
% Polyline
n 9900 5040 m 11250 5040 l  gs col-1 s gr 
% Polyline
n 9630 5040 m 9720 5040 l  gs col-1 s gr 
% Polyline
n 9045 5040 m 9450 5040 l  gs col-1 s gr 
% Polyline
n 9126 4380 m 9261 4372 l  gs col-1 s gr 
% Polyline
n 18187 6532 m 18187 3562 l  gs col-1 s gr 
% Polyline
n 18682 3562 m 18682 6487 l  gs col-1 s gr 
% Polyline
n 18682 6532 m 18682 6352 l  gs col-1 s gr 
% Polyline
n 19672 6532 m 19672 3562 l  gs col-1 s gr 
% Polyline
n 18183 3558 m 18048 3198 l  gs col-1 s gr 
% Polyline
n 17688 3558 m 17463 3198 l  gs col-1 s gr 
% Polyline
n 20166 4550 m 17196 4550 l  gs col-1 s gr 
% Polyline
n 19177 3562 m 19177 6532 l  19177 6487 l  gs col-1 s gr 
% Polyline
n 17692 3562 m 17692 6532 l  gs col-1 s gr 
% Polyline
n 9092 6187 m 9224 6202 l  gs col-1 s gr 
% Polyline
n 9227 6198 m 9261 5710 l  gs col-1 s gr 
% Polyline
n 9122 5699 m 9257 5707 l  gs col-1 s gr 
% Polyline
n 17196 5046 m 20166 5046 l  gs col-1 s gr 
% Polyline
n 17197 3562 m 20167 3562 l  20167 6532 l  17197 6532 l  17197 3562 l  gs col-1 s gr 
% Polyline
n 20166 6036 m 17196 6036 l  gs col-1 s gr 
% Polyline
n 20166 5541 m 17196 5541 l  gs col-1 s gr 
% Polyline
n 20166 4056 m 17196 4056 l  gs col-1 s gr 
% Polyline
n 5355 7965 m 5355 8100 l  gs col-1 s gr 
% Polyline
n 8055 4815 m 12915 4275 l  gs col-1 s gr 
n 8201.43 4828.91 m 8055.00 4815.00 l 8194.81 4769.28 l  8174.77 4802.25 l 8201.43 4828.91 l clp gs 0.00 setgray ef gr gs col-1 s gr
% Polyline
n 18494 4825 m 13634 4285 l  gs col-1 s gr 
n 18354.19 4779.28 m 18494.00 4825.00 l 18347.57 4838.91 l  18375.23 4812.25 l 18354.19 4779.28 l clp gs 0.00 setgray ef gr gs col-1 s gr
% Polyline
n 13655 5866 m 17570 7441 l  gs col-1 s gr 
n 17447.60 7359.42 m 17570.00 7441.00 l 17425.21 7415.09 l  17459.17 7396.71 l 17447.60 7359.42 l clp gs 0.00 setgray ef gr gs col-1 s gr
% Polyline
n 12898 5856 m 8983 7431 l  gs col-1 s gr 
n 9127.79 7405.09 m 8983.00 7431.00 l 9105.40 7349.42 l  9094.83 7386.71 l 9127.79 7405.09 l clp gs 0.00 setgray ef gr gs col-1 s gr
% Polyline
n 12871 2229 m 10126 2094 l  gs col-1 s gr 
n 10268.35 2131.04 m 10126.00 2094.00 l 10271.30 2071.11 l  10246.36 2100.39 l 10268.35 2131.04 l clp gs 0.00 setgray ef gr gs col-1 s gr
% Polyline
n 13680 2250 m 16425 2115 l  gs col-1 s gr 
n 16279.70 2092.11 m 16425.00 2115.00 l 16282.65 2152.04 l  16305.64 2121.39 l 16279.70 2092.11 l clp gs 0.00 setgray ef gr gs col-1 s gr
% Polyline
n 12870 3063 m 9000 2748 l  gs col-1 s gr 
n 9141.09 2789.58 m 9000.00 2748.00 l 9145.96 2729.78 l  9120.10 2758.24 l 9141.09 2789.58 l clp gs 0.00 setgray ef gr gs col-1 s gr
% Polyline
n 13725 3063 m 17595 2748 l  gs col-1 s gr 
n 17449.04 2729.78 m 17595.00 2748.00 l 17453.91 2789.58 l  17475.90 2758.24 l 17449.04 2729.78 l clp gs 0.00 setgray ef gr gs col-1 s gr
% Polyline
	[66.7] 0 setdash
n 16650 2250 m 20700 2250 l  20700 2610 l  16650 2610 l  16650 2250 l  gs col-1 s gr 	[] 0 setdash
% Polyline
n 9051 6793 m 9183 6804 l  9228 6339 l  9081 6324 l  gs col-1 s gr 
% Polyline
n 9142 4492 m 9273 4485 l  9292 4972 l  9145 4972 l  gs col-1 s gr 
% Polyline
n 9146 5591 m 9277 5598 l  9296 5111 l  9149 5111 l  gs col-1 s gr 
% Polyline
n 16650 6525 m 20700 6525 l  gs col-1 s gr 
% Polyline
	[66.7] 0 setdash
n 16650 2565 m 20700 2565 l  20700 2925 l  16650 2925 l  16650 2565 l  gs col-1 s gr 	[] 0 setdash
% Polyline
	[66.7] 0 setdash
n 16650 7200 m 20700 7200 l  20700 7560 l  16650 7560 l  16650 7200 l  gs col-1 s gr 	[] 0 setdash
% Polyline
	[66.7] 0 setdash
n 16650 7515 m 20700 7515 l  20700 7875 l  16650 7875 l  16650 7515 l  gs col-1 s gr 	[] 0 setdash
% Polyline
n 16650 3105 m 20700 3105 l  gs col-1 s gr 
% Polyline
n 12960 6840 m 10800 8055 l  gs col-1 s gr 
n 10940.21 8010.55 m 10800.00 8055.00 l 10910.80 7958.26 l  10905.09 7996.67 l 10940.21 8010.55 l clp gs 0.00 setgray ef gr gs col-1 s gr
/Times-BoldItalic findfont 300.00 scalefont setfont
3735 3465 m
gs 1 -1 sc (4) col-1 show gr
/Times-BoldItalic findfont 300.00 scalefont setfont
3780 6615 m
gs 1 -1 sc (5) col-1 show gr
/Times-BoldItalic findfont 300.00 scalefont setfont
13230 4365 m
gs 1 -1 sc (1) col-1 show gr
/Times-BoldItalic findfont 300.00 scalefont setfont
13230 5715 m
gs 1 -1 sc (2) col-1 show gr
/Times-BoldItalic findfont 300.00 scalefont setfont
13230 8415 m
gs 1 -1 sc (6) col-1 show gr
/Times-BoldItalic findfont 300.00 scalefont setfont
13230 2385 m
gs 1 -1 sc (3) col-1 show gr
/Times-BoldItalic findfont 300.00 scalefont setfont
13230 3240 m
gs 1 -1 sc (2) col-1 show gr
/Times-BoldItalic findfont 300.00 scalefont setfont
13230 6750 m
gs 1 -1 sc (3) col-1 show gr
/Times-Italic findfont 270.00 scalefont setfont
2610 4500 m
gs 1 -1 sc (photon   beam) col-1 show gr
% Polyline
n 13635 6840 m 16290 8055 l  gs col-1 s gr 
n 16171.54 7967.80 m 16290.00 8055.00 l 16146.58 8022.36 l  16181.38 8005.57 l 16171.54 7967.80 l clp gs 0.00 setgray ef gr gs col-1 s gr
% Polyline
n 4050 3600 m 4770 4455 l  gs col-1 s gr 
n 4700.19 4325.53 m 4770.00 4455.00 l 4654.30 4364.18 l  4693.20 4363.71 l 4700.19 4325.53 l clp gs 0.00 setgray ef gr gs col-1 s gr
% Polyline
n 4050 6345 m 5355 5175 l  gs col-1 s gr 
n 5227.76 5248.79 m 5355.00 5175.00 l 5267.81 5293.46 l  5266.15 5255.61 l 5227.76 5248.79 l clp gs 0.00 setgray ef gr gs col-1 s gr
% Polyline
n 12915 8370 m 7830 9000 l  gs col-1 s gr 
n 7976.60 9012.07 m 7830.00 9000.00 l 7969.22 8952.52 l  7949.59 8985.75 l 7976.60 9012.07 l clp gs 0.00 setgray ef gr gs col-1 s gr
% Interp Spline
n 6236 7380 m
	6401.62 7345.41 6474.12 7334.16 6526 7335 curveto
	6589.57 7336.03 6730.10 7376.03 6791 7385 curveto
	6844.37 7392.86 6971.48 7409.83 7026 7410 curveto
	7095.56 7410.22 7256.91 7381.91 7326 7380 curveto
	7377.61 7378.57 7499.56 7390.12 7551 7390 curveto
	7620.75 7389.83 7784.96 7368.02 7856 7375 curveto
	7908.75 7380.18 8022.17 7427.05 8076 7430 curveto
	8155.06 7434.33 8330.48 7393.05 8406 7385 curveto
	8494.70 7375.55 8704.87 7348.87 8796 7355 curveto
	8829.36 7357.24 8903.02 7381.80 8936 7385 curveto
	9001.65 7391.37 9156.04 7379.92 9221 7380 curveto
	9277.99 7380.07 9413.72 7388.26 9471 7385 curveto
	9531.09 7381.58 9670.21 7350.88 9731 7350 curveto
	9780.80 7349.28 9852.05 7356.78 10016 7380 curveto
 gs col-1 s gr

% Interp Spline
n 5966 7650 m
	6114.89 7698.75 6181.14 7715.00 6231 7715 curveto
	6297.48 7715.00 6433.67 7658.71 6496 7650 curveto
	6557.72 7641.38 6704.40 7640.60 6766 7640 curveto
	6830.99 7639.37 6985.82 7638.09 7051 7645 curveto
	7110.42 7651.30 7244.55 7694.04 7306 7695 curveto
	7371.89 7696.03 7516.32 7652.26 7581 7650 curveto
	7643.94 7647.80 7788.62 7674.90 7851 7675 curveto
	7915.68 7675.11 8067.24 7656.03 8131 7650 curveto
	8187.98 7644.61 8323.03 7624.80 8381 7625 curveto
	8445.98 7625.23 8597.33 7646.96 8661 7655 curveto
	8723.84 7662.93 8870.90 7695.58 8936 7695 curveto
	9001.28 7694.42 9146.47 7652.71 9211 7650 curveto
	9270.23 7647.51 9407.34 7669.80 9466 7670 curveto
	9514.29 7670.17 9584.29 7665.17 9746 7650 curveto
 gs col-1 s gr

% Interp Spline
n 6226 2425 m
	6337.27 2396.60 6386.02 2386.60 6421 2385 curveto
	6505.86 2381.11 6699.33 2410.91 6781 2425 curveto
	6840.07 2435.19 6973.36 2483.30 7036 2485 curveto
	7104.01 2486.85 7251.66 2443.76 7316 2435 curveto
	7376.21 2426.80 7519.75 2410.15 7581 2410 curveto
	7645.69 2409.84 7797.05 2430.87 7861 2435 curveto
	7917.92 2438.68 8053.74 2446.36 8111 2445 curveto
	8176.48 2443.44 8330.22 2420.00 8396 2420 curveto
	8461.78 2420.00 8615.41 2444.06 8681 2445 curveto
	8739.56 2445.84 8877.96 2437.23 8936 2430 curveto
	8990.37 2423.22 9114.86 2386.71 9171 2385 curveto
	9244.33 2382.77 9410.12 2417.65 9481 2425 curveto
	9539.00 2431.01 9677.43 2444.28 9736 2445 curveto
	9784.16 2445.60 9854.16 2441.85 10016 2430 curveto
 gs col-1 s gr

% Polyline
n 13635 8370 m 18630 9000 l  gs col-1 s gr 
n 18490.89 8952.22 m 18630.00 9000.00 l 18483.38 9011.74 l  18511.44 8985.48 l 18490.89 8952.22 l clp gs 0.00 setgray ef gr gs col-1 s gr
% Polyline
n 9051 3281 m 9183 3270 l  9228 3735 l  9081 3750 l  gs col-1 s gr 
% Polyline
n 5175 2160 m 4905 2160 l  4905 2070 l  11070 2070 l  11070 2160 l  10755 2160 l  gs col-1 s gr 
% Polyline
n 4905 8100 m 4905 8010 l  5355 8010 l  gs col-1 s gr 
% Polyline
n 5805 8010 m 10080 8010 l  gs col-1 s gr 
% Polyline
n 10530 8010 m 11070 8010 l  11070 8100 l  gs col-1 s gr 
% Polyline
n 16560 3015 m 16560 7110 l  gs col-1 s gr 
% Polyline
n 16650 3015 m 16650 7110 l  gs col-1 s gr 
% Polyline
n 16425 2160 m 16200 2160 l  16200 2070 l  21150 2070 l  21150 2160 l  20925 2160 l  gs col-1 s gr 
% Polyline
n 16200 8100 m 16200 8010 l  16650 8010 l  gs col-1 s gr 
% Polyline
n 20700 8010 m 21150 8010 l  21150 8100 l  gs col-1 s gr 
% Polyline
n 5805 7965 m 5805 8100 l  gs col-1 s gr 
% Polyline
n 10530 7965 m 10530 8100 l  gs col-1 s gr 
% Polyline
n 10080 7965 m 10080 8100 l  gs col-1 s gr 
% Polyline
n 16650 7965 m 16650 8100 l  gs col-1 s gr 
% Polyline
n 17100 8010 m 20250 8010 l  gs col-1 s gr 
% Polyline
n 20250 7965 m 20250 8100 l  gs col-1 s gr 
% Polyline
n 20700 7965 m 20700 8100 l  gs col-1 s gr 
% Polyline
n 17100 7965 m 17100 8100 l  gs col-1 s gr 
% Polyline
n 20700 3015 m 20700 7110 l  gs col-1 s gr 
% Polyline
n 15750 8910 m 15750 8640 l  21600 8640 l  21600 8865 l  21600 8910 l  21600 8865 l  gs col-1 s gr 
% Polyline
n 20656 8641 m 20431 8191 l  gs col-1 s gr 
% Polyline
n 20656 8641 m 20746 8641 l  20971 8191 l  gs col-1 s gr 
% Polyline
n 14175 9090 m 23175 9090 l  23175 8910 l  14175 8910 l  14175 9090 l  gs col-1 s gr 
15.000 slw
% Polyline
n 2745 4725 m 4095 4725 l  gs col-1 s gr 
n 3807.00 4665.00 m 4095.00 4725.00 l 3807.00 4785.00 l  3855.50 4725.50 l 3807.00 4665.00 l clp gs col7 1.00 shd ef gr gs col-1 s gr
7.500 slw
% Polyline
n 16650 6660 m 20700 6660 l  gs col-1 s gr 
% Polyline
n 16426 3016 m 16426 2161 l  20926 2161 l  20926 2971 l  20926 3016 l  16426 3016 l  gs col-1 s gr 
% Polyline
n 16426 7966 m 16426 7111 l  20926 7111 l  20926 7921 l  20926 7966 l  16426 7966 l  gs col-1 s gr 
% Polyline
n 16606 8641 m 16696 8641 l  16921 8191 l  gs col-1 s gr 
% Polyline
n 20790 3015 m 20790 7110 l  gs col-1 s gr 
% Polyline
n 15075 8190 m 22275 8190 l  22275 8145 l  22275 8100 l  15075 8100 l  15075 8190 l  gs col-1 s gr 
% Polyline
n 18000 9090 m 18000 9675 l  gs col-1 s gr 
% Polyline
n 19350 9090 m 19350 9675 l  gs col-1 s gr 
% Polyline
n 16606 8641 m 16381 8191 l  gs col-1 s gr 
% Polyline
n 14850 9450 m 14850 10125 l  gs col-1 s gr 
n 14820.00 9570.00 m 14850.00 9450.00 l 14880.00 9570.00 l  14850.50 9570.50 l 14820.00 9570.00 l clp gs 0.00 setgray ef gr gs col-1 s gr
n 14880.00 10005.00 m 14850.00 10125.00 l 14820.00 10005.00 l  14850.50 10005.50 l 14880.00 10005.00 l clp gs 0.00 setgray ef gr gs col-1 s gr
% Polyline
n 22500 9450 m 22500 10125 l  gs col-1 s gr 
n 22470.00 9570.00 m 22500.00 9450.00 l 22530.00 9570.00 l  22500.50 9570.50 l 22470.00 9570.00 l clp gs 0.00 setgray ef gr gs col-1 s gr
n 22530.00 10005.00 m 22500.00 10125.00 l 22470.00 10005.00 l  22500.50 10005.50 l 22530.00 10005.00 l clp gs 0.00 setgray ef gr gs col-1 s gr
% Polyline
n 17325 10575 m 20025 10575 l  gs col-1 s gr 
n 17445.00 10605.00 m 17325.00 10575.00 l 17445.00 10545.00 l  17445.50 10575.50 l 17445.00 10605.00 l clp gs 0.00 setgray ef gr gs col-1 s gr
n 19905.00 10545.00 m 20025.00 10575.00 l 19905.00 10605.00 l  19905.50 10575.50 l 19905.00 10545.00 l clp gs 0.00 setgray ef gr gs col-1 s gr
% Polyline
n 2700 5040 m 4050 5040 l  gs col-1 s gr 
% Polyline
n 6497 5038 m 6479 5546 l  9126 5646 l  9144 5038 l  9144 5038 l  gs col-1 s gr 
% Polyline
n 6479 5546 m 6443 6053 l  9089 6256 l  9126 5646 l  9126 5646 l  gs col-1 s gr 
% Polyline
n 6443 6053 m 6390 6541 l  9037 6866 l  9089 6256 l  gs col-1 s gr 
% Ellipse
n 5944 2704 180 180 0 360 DrawEllipse gs col-1 s gr

% Ellipse
n 8104 2704 180 180 0 360 DrawEllipse gs col-1 s gr

% Ellipse
n 7564 2704 180 180 0 360 DrawEllipse gs col-1 s gr

% Ellipse
n 7024 2704 180 180 0 360 DrawEllipse gs col-1 s gr

% Ellipse
n 6484 2704 180 180 0 360 DrawEllipse gs col-1 s gr

% Polyline
n 6497 5038 m 9144 5038 l  gs col-1 s gr 
% Polyline
n 5402 7877 m 6122 7157 l  10262 7157 l  10262 7157 l  gs col-1 s gr 
% Polyline
n 9812 7877 m 10532 7157 l  10217 7157 l  gs col-1 s gr 
% Polyline
n 9812 7877 m 5402 7877 l  gs col-1 s gr 
% Polyline
n 5176 7966 m 10756 7966 l  10756 7111 l  5176 7111 l  5176 7966 l  5221 7966 l 
 5221 7156 l  10711 7156 l  10711 7921 l  5221 7921 l  gs col-1 s gr 
% Polyline
n 6443 4025 m 6390 3536 l  9037 3211 l  9089 3821 l  gs col-1 s gr 
% Polyline
n 6479 4531 m 6443 4025 l  9089 3821 l  9126 4430 l  9126 4430 l  gs col-1 s gr 
% Polyline
n 6497 5039 m 6479 4531 l  9126 4430 l  9144 5039 l  9144 5039 l  gs col-1 s gr 
% Polyline
n 6497 5039 m 9144 5039 l  gs col-1 s gr 
% Ellipse
n 8644 2704 180 180 0 360 DrawEllipse gs col-1 s gr

% Ellipse
n 9995 2435 180 180 0 360 DrawEllipse gs col-1 s gr

% Polyline
n 5177 3017 m 10757 3017 l  10757 2162 l  5177 2162 l  5177 3017 l  5222 3017 l 
 5222 2207 l  10712 2207 l  10712 2972 l  5222 2972 l  gs col-1 s gr 
% Polyline
n 5403 2928 m 6123 2208 l  10263 2208 l  10263 2208 l  gs col-1 s gr 
% Polyline
n 9813 2928 m 10533 2208 l  10218 2208 l  gs col-1 s gr 
% Polyline
n 6211 6526 m 9340 6911 l  9340 6911 l  gs col-1 s gr 
% Polyline
n 4591 5311 m 5086 5311 l  5086 4771 l  4591 4771 l  4591 5311 l  gs col-1 s gr 
% Polyline
n 4591 4726 m 5086 4726 l  5086 4186 l  4591 4186 l  4591 4726 l  gs col-1 s gr 
% Polyline
n 9813 2928 m 5403 2928 l  gs col-1 s gr 
% Ellipse
n 9455 2435 180 180 0 360 DrawEllipse gs col-1 s gr

% Ellipse
n 9184 2704 180 180 0 360 DrawEllipse gs col-1 s gr

% Ellipse
n 9724 2704 180 180 0 360 DrawEllipse gs col-1 s gr

% Ellipse
n 6215 2435 180 180 0 360 DrawEllipse gs col-1 s gr

% Ellipse
n 6755 2435 180 180 0 360 DrawEllipse gs col-1 s gr

% Ellipse
n 8915 2435 180 180 0 360 DrawEllipse gs col-1 s gr

% Ellipse
n 8375 2435 180 180 0 360 DrawEllipse gs col-1 s gr

% Ellipse
n 7835 2435 180 180 0 360 DrawEllipse gs col-1 s gr

% Ellipse
n 7295 2435 180 180 0 360 DrawEllipse gs col-1 s gr

% Ellipse
n 9994 7384 180 180 0 360 DrawEllipse gs col-1 s gr

% Polyline
n 15391 9226 m 15661 9226 l  gs col-1 s gr 
% Polyline
n 21691 10126 m 21691 9226 l  21826 9091 l  21961 9226 l  21961 10126 l  gs col-1 s gr 
% Polyline
n 21691 9451 m 21961 9406 l  gs col-1 s gr 
% Polyline
n 21691 9541 m 21961 9496 l  gs col-1 s gr 
% Polyline
n 21691 9901 m 21961 9856 l  gs col-1 s gr 
% Polyline
n 21691 9811 m 21961 9766 l  gs col-1 s gr 
% Polyline
n 21691 9721 m 21961 9676 l  gs col-1 s gr 
% Polyline
n 21691 9631 m 21961 9586 l  gs col-1 s gr 
% Polyline
n 15391 10081 m 15661 10036 l  gs col-1 s gr 
% Polyline
n 15391 10126 m 15391 9226 l  15526 9091 l  15661 9226 l  15661 10126 l  gs col-1 s gr 
% Polyline
n 15391 9451 m 15661 9406 l  gs col-1 s gr 
% Polyline
n 15391 9541 m 15661 9496 l  gs col-1 s gr 
% Polyline
n 15391 9631 m 15661 9586 l  gs col-1 s gr 
% Polyline
n 15391 9991 m 15661 9946 l  gs col-1 s gr 
% Polyline
n 15391 9901 m 15661 9856 l  gs col-1 s gr 
% Polyline
n 15391 9811 m 15661 9766 l  gs col-1 s gr 
% Polyline
n 15391 9721 m 15661 9676 l  gs col-1 s gr 
% Polyline
n 21691 9991 m 21961 9946 l  gs col-1 s gr 
% Ellipse
n 9723 7653 180 180 0 360 DrawEllipse gs col-1 s gr

% Ellipse
n 6214 7384 180 180 0 360 DrawEllipse gs col-1 s gr

% Ellipse
n 6754 7384 180 180 0 360 DrawEllipse gs col-1 s gr

% Ellipse
n 7294 7384 180 180 0 360 DrawEllipse gs col-1 s gr

% Ellipse
n 9454 7384 180 180 0 360 DrawEllipse gs col-1 s gr

% Ellipse
n 8914 7384 180 180 0 360 DrawEllipse gs col-1 s gr

% Ellipse
n 8374 7384 180 180 0 360 DrawEllipse gs col-1 s gr

% Ellipse
n 7834 7384 180 180 0 360 DrawEllipse gs col-1 s gr

% Ellipse
n 9183 7653 180 180 0 360 DrawEllipse gs col-1 s gr

% Polyline
n 21691 10081 m 21961 10036 l  gs col-1 s gr 
% Polyline
n 21691 9226 m 21961 9226 l  gs col-1 s gr 
% Ellipse
n 5943 7653 180 180 0 360 DrawEllipse gs col-1 s gr

% Ellipse
n 6483 7653 180 180 0 360 DrawEllipse gs col-1 s gr

% Ellipse
n 8643 7653 180 180 0 360 DrawEllipse gs col-1 s gr

% Ellipse
n 8103 7653 180 180 0 360 DrawEllipse gs col-1 s gr

% Ellipse
n 7563 7653 180 180 0 360 DrawEllipse gs col-1 s gr

% Ellipse
n 7023 7653 180 180 0 360 DrawEllipse gs col-1 s gr

% Polyline
n 6211 6571 m 9340 6956 l  gs col-1 s gr 
30.000 slw
% Polyline
n 9990 2430 m 10035 2430 l  gs col-1 s gr 
% Polyline
n 6210 2430 m 6255 2430 l  gs col-1 s gr 
% Polyline
n 7830 2430 m 7875 2430 l  gs col-1 s gr 
% Polyline
n 6210 7380 m 6255 7380 l  gs col-1 s gr 
% Polyline
n 8370 7380 m 8415 7380 l  gs col-1 s gr 
% Polyline
n 7830 7380 m 7875 7380 l  gs col-1 s gr 
% Polyline
n 7290 7380 m 7335 7380 l  gs col-1 s gr 
% Polyline
n 6750 7380 m 6795 7380 l  gs col-1 s gr 
% Polyline
n 9450 2430 m 9495 2430 l  gs col-1 s gr 
% Polyline
n 8100 2700 m 8145 2700 l  gs col-1 s gr 
% Polyline
n 8640 2700 m 8685 2700 l  gs col-1 s gr 
% Polyline
n 9180 2700 m 9225 2700 l  gs col-1 s gr 
% Polyline
n 9720 2700 m 9765 2700 l  gs col-1 s gr 
% Polyline
n 8910 2430 m 8955 2430 l  gs col-1 s gr 
% Polyline
n 8370 2430 m 8415 2430 l  gs col-1 s gr 
% Polyline
n 7290 2430 m 7335 2430 l  gs col-1 s gr 
% Polyline
n 6750 2430 m 6795 2430 l  gs col-1 s gr 
% Polyline
n 8910 7380 m 8955 7380 l  gs col-1 s gr 
% Polyline
n 8100 7650 m 8145 7650 l  gs col-1 s gr 
7.500 slw
% Polyline
n 6525 7020 m 6525 6615 l  gs col-1 s gr 
% Polyline
n 6749 7015 m 6749 6640 l  gs col-1 s gr 
% Polyline
n 8549 7025 m 8549 6860 l  gs col-1 s gr 
% Polyline
n 4187 8192 m 11387 8192 l  11387 8147 l  11387 8102 l  4187 8102 l  4187 8192 l  gs col-1 s gr 
% Polyline
n 9407 8642 m 9407 8912 l  10037 8912 l  10037 8642 l  9992 8642 l  9992 8867 l 
 9452 8867 l  9452 8642 l  9407 8642 l  9407 8642 l  gs col-1 s gr 
% Polyline
n 5537 8642 m 5537 8912 l  6167 8912 l  6167 8642 l  6122 8642 l  6122 8867 l 
 5582 8867 l  5582 8642 l  5537 8642 l  5537 8642 l  gs col-1 s gr 
% Polyline
n 8779 7015 m 8779 6885 l  gs col-1 s gr 
30.000 slw
% Polyline
n 5940 7650 m 5985 7650 l  gs col-1 s gr 
% Polyline
n 9450 7380 m 9495 7380 l  gs col-1 s gr 
% Polyline
n 9990 7380 m 10035 7380 l  gs col-1 s gr 
% Polyline
n 6480 7650 m 6525 7650 l  gs col-1 s gr 
% Polyline
n 7020 7650 m 7065 7650 l  gs col-1 s gr 
% Polyline
n 8640 7650 m 8685 7650 l  gs col-1 s gr 
% Polyline
n 9720 7650 m 9765 7650 l  gs col-1 s gr 
% Polyline
n 9180 7650 m 9225 7650 l  gs col-1 s gr 
% Polyline
n 7560 7650 m 7605 7650 l  gs col-1 s gr 
% Polyline
n 7560 2700 m 7605 2700 l  gs col-1 s gr 
7.500 slw
% Polyline
n 4590 9630 m 4860 9585 l  gs col-1 s gr 
% Polyline
n 4590 9720 m 4860 9675 l  gs col-1 s gr 
% Polyline
n 4590 9810 m 4860 9765 l  gs col-1 s gr 
% Polyline
n 4590 9900 m 4860 9855 l  gs col-1 s gr 
% Polyline
n 10711 10126 m 10711 9226 l  10846 9091 l  10981 9226 l  10981 10126 l  gs col-1 s gr 
% Polyline
n 4590 9225 m 4860 9225 l  gs col-1 s gr 
% Polyline
n 4590 10080 m 4860 10035 l  gs col-1 s gr 
% Polyline
n 4590 9990 m 4860 9945 l  gs col-1 s gr 
% Polyline
n 4590 9540 m 4860 9495 l  gs col-1 s gr 
% Polyline
n 6211 6571 m 6211 6526 l  gs col-1 s gr 
% Polyline
n 9341 6951 m 9337 6906 l  gs col-1 s gr 
% Polyline
n 5718 8868 m 5988 8868 l  5988 8418 l  5718 8418 l  5718 8868 l  gs col-1 s gr 
% Polyline
n 5718 8643 m 5628 8643 l  5493 8193 l  6213 8193 l  6078 8643 l  5988 8643 l  gs col-1 s gr 
% Polyline
n 4590 9450 m 4860 9405 l  gs col-1 s gr 
% Polyline
n 4590 10125 m 4590 9225 l  4725 9090 l  4860 9225 l  4860 10125 l  gs col-1 s gr 
% Polyline
n 9588 8643 m 9498 8643 l  9363 8193 l  10083 8193 l  9948 8643 l  9858 8643 l  gs col-1 s gr 
% Polyline
n 9588 8868 m 9858 8868 l  9858 8418 l  9588 8418 l  9588 8868 l  gs col-1 s gr 
% Polyline
n 10711 9451 m 10981 9406 l  gs col-1 s gr 
% Polyline
n 10035 3015 m 10035 7110 l  gs col-1 s gr 
% Polyline
n 5805 3015 m 5805 7110 l  gs col-1 s gr 
% Polyline
n 5805 7020 m 10035 7020 l  gs col-1 s gr 
% Polyline
n 5805 3105 m 10035 3105 l  gs col-1 s gr 
30.000 slw
% Polyline
n 7020 2700 m 7065 2700 l  gs col-1 s gr 
% Polyline
n 6480 2700 m 6525 2700 l  gs col-1 s gr 
% Polyline
n 5940 2700 m 5985 2700 l  gs col-1 s gr 
7.500 slw
% Polyline
n 5355 3825 m 5355 5625 l  5400 5625 l  5400 3825 l  5355 3825 l  gs col-1 s gr 
% Arc
n 7293.00 10014.00 m 7245.00 9900.00 l 7341.00 9978.00 l  7317.50 9996.50 l 7293.00 10014.00 l clp gs 0.00 setgray ef gr gs col-1 s gr
n 8229.00 9978.00 m 8325.00 9900.00 l 8277.00 10014.00 l  8253.50 9996.50 l 8229.00 9978.00 l clp gs 0.00 setgray ef gr gs col-1 s gr
n 7785.00 9495.00 675.00 36.87 143.13 arc
gs col-1 s gr

% Polyline
n 10711 9541 m 10981 9496 l  gs col-1 s gr 
% Polyline
n 10711 9631 m 10981 9586 l  gs col-1 s gr 
% Polyline
n 10711 9721 m 10981 9676 l  gs col-1 s gr 
% Polyline
n 10711 9811 m 10981 9766 l  gs col-1 s gr 
% Polyline
n 10711 9226 m 10981 9226 l  gs col-1 s gr 
% Polyline
n 10711 10081 m 10981 10036 l  gs col-1 s gr 
% Polyline
n 10711 9991 m 10981 9946 l  gs col-1 s gr 
% Polyline
n 10711 9901 m 10981 9856 l  gs col-1 s gr 
$F2psEnd
restore
