%!PS-Adobe-2.0 EPSF-2.0
%%BoundingBox: 0 0 992 567
%%Title: spectra_sic.eps
%%Creator: HIGZ Version 1.22/09
%%CreationDate: 96/12/19   22.11
%%EndComments
80 dict begin
/s {stroke} def /l {lineto} def /m {moveto} def /t {translate} def
/sw {stringwidth} def /r {rotate} def /rl {roll}  def /R {repeat} def
/d {rlineto} def /rm {rmoveto} def /gr {grestore} def /f {eofill} def
/c {setrgbcolor} def /lw {setlinewidth} def /sd {setdash} def
/cl {closepath} def /sf {scalefont setfont} def /black {0 setgray} def
/box {m dup 0 exch d exch 0 d 0 exch neg d cl} def
/NC{systemdict begin initclip end}def/C{NC box clip newpath}def
/bl {box s} def /bf {box f} def /Y { 0 exch d} def /X { 0 d} def 
/mp {newpath /y exch def /x exch def} def
/side {[w .77 mul w .23 mul] .385 w mul sd w 0 l currentpoint t -144 r} def
/mr {mp x y w2 0 360 arc} def /m24 {mr s} def /m20 {mr f} def
/mb {mp x y w2 add m w2 neg 0 d 0 w neg d w 0 d 0 w d cl} def
/mt {mp x y w2 add m w2 neg w neg d w 0 d cl} def
/m21 {mb f} def /m25 {mb s} def /m22 {mt f} def /m26 {mt s} def
/m23 {mp x y w2 sub m w2 w d w neg 0 d cl f} def
/m27 {mp x y w2 add m w3 neg w2 neg d w3 w2 neg d w3  w2 d cl s} def
/m28 {mp x w2 sub y w2 sub w3 add m w3 0 d 0 w3 neg d w3 0 d 0 w3 d w3 0 d
 0 w3 d w3 neg 0 d 0 w3 d w3 neg 0 d
 0 w3 neg d w3 neg 0 d cl s } def
/m29 {mp gsave x w2 sub y w2 add w3 sub m currentpoint t
 4 {side} repeat cl fill gr} def
/m30 {mp gsave x w2 sub y w2 add w3 sub m currentpoint t
 5 {side} repeat s gr} def
/m31 {mp x y w2 sub m 0 w d x w2 sub y m w 0 d
 x w2 sub y w2 add m w w neg d x w2 sub y w2
 sub m w w d s} def
/m2 {mp x y w2 sub m 0 w d x w2 sub y m w 0 d s} def
/m5 {mp x w2 sub y w2 sub m w w d x w2 sub y w2 add m w w neg d s} def
/DP {/PT exch def gsave 47.2 47.2 scale PT 1 eq { 16 16 1 [ 16 0 0 16 neg 0 16
] { < AA AA 55 55 AA AA 55 55 AA AA 55 55 AA AA 55 55 AA AA 55 55 AA AA 55 55
AA AA 55 55 AA AA 55 55 > } image } if PT 2 eq { 16 16 1 [ 16 0 0 16 neg 0 16
] { < BB BB EE EE BB BB EE EE BB BB EE EE BB BB EE EE BB BB EE EE BB BB EE EE
BB BB EE EE BB BB EE EE > } image } if PT 3 eq { 16 16 1 [ 16 0 0 16 neg 0 16
] { < FF FF BB BB FF FF EE EE FF FF BB BB FF FF EE EE FF FF BB BB FF FF EE EE
FF FF BB BB FF FF EE EE > } image } if PT 4 eq { 16 16 1 [ 16 0 0 16 neg 0 16
] { < DF DF BF BF 7F 7F FE FE FD FD FB FB F7 F7 EF EF DF DF BF BF 7F 7F FE FE
FD FD FB FB F7 F7 EF EF > } image } if PT 5 eq { 16 16 1 [ 16 0 0 16 neg 0 16
] { < 7F 7F BF B F DF DF EF EF F7 F7 FB FB FD FD FE FE 7F 7F BF BF DF DF EF
EF F7 F7 FB FB FD FD FE FE > } image } if PT 6 eq { 16 16 1 [ 16 0 0 16 neg 0
16 ] { < BB BB BB BB BB BB BB BB BB BB BB BB BB BB BB BB BB BB BB BB BB BB BB
BB BB BB BB BB BB BB BB BB > } image } if PT 7 eq { 16 16 1 [ 16 0 0 16 neg 0
16 ] { < FF FF FF FF FF FF 00 00 FF FF FF FF FF FF 00 00 FF FF FF FF FF FF 00
00 FF FF FF FF FF FF 00 00 > } image } if PT 8 eq { 16 16 1 [ 16 0 0 16 neg 0
16 ] { < EE EE 47 47 83 83 C5 C5 EE EE 5C 5C 38 38 74 74 EE EE 47 47 83 83 C5
C5 EE EE 5C 5C 38 38 74 74 > } image } if PT 9 eq { 16 16 1 [ 16 0 0 16 neg 0
16 ] { < EF EF EF EF D7 D7 38 38 FE FE FE FE 7D 7D 83 83 EF EF EF EF D7 D7 38
38 FE FE FE FE 7D 7D 83 83 > } image } if PT 10 eq { 16 16 1 [ 16 0 0 16 neg
0 16 ] { < EF EF EF EF EF EF 00 00 FE FE FE FE FE FE 00 00 EF EF EF EF EF EF
00 00 FE FE FE FE FE FE 00 00 > } image } if PT 11 eq { 16 16 1 [ 16 0 0 16
neg 0 16 ] { < F7 F7 B6 B6 D5 D5 E3 E3 D5 D5 B6 B6 F7 F7 FF FF 7F 7F 6B 6B 5D
5D 3E 3E 5D 5D 6B 6B 7F 7F FF FF > } image } if PT 12 eq { 16 16 1 [ 16 0 0
16 neg 0 16 ] { < E3 E3 DD DD BE BE BE BE BE BE DD DD E3 E3 FF FF 3E 3E DD DD
EB EB EB EB EB EB DD DD 3E 3E FF FF > } image } if PT 13 eq { 16 16 1 [ 16 0
0 16 neg 0 16 ] { < FE FE 7D 7D BB BB D7 D7 EF EF D7 D7 BB BB 7D 7D FE FE 7D
7D BB BB D7 D7 EF EF D7 D7 BB BB 7D 7D > } image } if PT 14 eq { 16 16 1 [ 16
0 0 16 neg 0 16 ] { < 00 00 EE EF EE EF EE EF 0E E0 EE EE EE EE EE EE 00 EE
FE EE FE EE FE EE 00 00 FE EF FE EF FE EF > } image } if PT 15 eq { 16 16 1 [
16 0 0 16 neg 0 16 ] { < DD DD AA AA DD DD FF FF 77 77 AA AA 77 77 FF FF DD
DD AA AA DD DD FF FF 77 77 AA AA 77 77 FF FF > } image } if PT 16 eq { 16 16
1 [ 16 0 0 16 neg 0 16 ] { < F1 F1 EE EE 1F 1F FF FF F1 F1 EE EE 1F 1F FF FF
F1 F1 EE EE 1F 1F FF FF F1 F1 EE EE 1F 1F FF FF > } image } if PT 17 eq { 16
16 1 [ 16 0 0 16 neg 0 16 ] { < EE EE DD DD BB BB FF FF EE EE DD DD BB BB FF
FF EE EE DD DD BB BB FF FF EE EE DD DD BB BB FF FF > } image } if PT 18 eq {
16 16 1 [ 16 0 0 16 neg 0 16 ] { < BB BB DD DD EE EE FF FF BB BB DD DD EE EE
FF FF BB BB DD DD EE EE FF FF BB BB DD DD EE EE FF FF > } image } if PT 19 eq
{ 16 16 1 [ 16 0 0 16 neg 0 16 ] { < 1F FC 67 F3 7B EF BD DE BD DE DE BD E6
B3 F8 0F E6 B3 DE BD BD DE BD DE 7B EF 67 F3 1F FC 7F FF > } image } if PT
20 eq { 16 16 1 [ 16 0 0 16 neg 0 16 ] { < DD DD EE EE EE EE EE EE DD DD BB
BB BB BB BB BB DD DD EE EE EE EE EE EE DD DD BB BB BB BB BB BB > } image }
if PT 21 eq { 16 16 1 [ 16 0 0 16 neg 0 16 ] { < 0E 0E EF EF EF EF EF EF E0
E0 FE FE FE FE FE FE 0E 0E EF EF EF EF EF EF E0 E0 FE FE FE FE FE FE > }
image } if PT 22 eq { 16 16 1 [ 16 0 0 16 neg 0 16 ] { < 70 70 F7 F7 F7 F7 F7
F7 07 07 7F 7F 7F 7F 7F 7F 70 70 F7 F7 F7 F7 F7 F7 07 07 7F 7F 7F 7F 7F 7F >
} image } if PT 23 eq { 16 16 1 [ 16 0 0 16 neg 0 16 ] { < AA AA 55 55 A9 A9
D1 D1 E1 E1 D1 D1 A9 A9 55 55 AA AA 55 55 A9 A9 D1 D1 E1 E1 D1 D1 A9 A9 55 55
> } image } if PT 24 eq { 16 16 1 [ 16 0 0 16 neg 0 16 ] { < FF FE FF FC EA
A8 D5 54 EA A8 D5 54 E8 28 D4 54 E8 E8 D4 D4 E8 EA 54 D5 A8 EA 54 D5 00 C0 00
80 > } image } if PT 25 eq { 16 16 1 [ 16 0 0 16 neg 0 16 ] { < FF FE FF FC
FF F8 FF F0 F0 00 F0 00 F0 20 F0 60 F0 E0 F1 E0 F3 E0 F0 00 E0 00 C0 00 80 00
00 00 > } image } if gr } def /FA { /PT exch def gsave clip 0 0 translate 1 1
54 { 1 sub 47.2 mul /Xcurr exch def 1 1 74 { 1 sub 47.2 mul /Ycurr exch def
gsave Xcurr Ycurr translate PT DP gr } for } for gr } def
/reencdict 24 dict def /ReEncode {reencdict begin /nco&na exch def
/nfnam exch def /basefontname exch def /basefontdict basefontname findfont def
/newfont basefontdict maxlength dict def basefontdict {exch dup /FID ne
{dup /Encoding eq {exch dup length array copy newfont 3 1 roll put} {exch
newfont 3 1 roll put} ifelse} {pop pop} ifelse } forall newfont
/FontName nfnam put nco&na aload pop nco&na length 2 idiv {newfont
/Encoding get 3 1 roll put} repeat nfnam newfont definefont pop end } def
/accvec [ 176 /agrave 181 /Agrave 190 /acircumflex 192 /Acircumflex
201 /adieresis 204 /Adieresis 209 /ccedilla 210 /Ccedilla 211 /eacute
212 /Eacute 213 /egrave 214 /Egrave 215 /ecircumflex 216 /Ecircumflex
217 /edieresis 218 /Edieresis 219 /icircumflex 220 /Icircumflex
221 /idieresis 222 /Idieresis 223 /ntilde 224 /Ntilde 226 /ocircumflex
228 /Ocircumflex 229 /odieresis 230 /Odieresis 231 /ucircumflex 236 /Ucircumflex
237 /udieresis 238 /Udieresis 239 /aring 242 /Aring 243 /ydieresis
244 /Ydieresis 246 /aacute 247 /Aacute 252 /ugrave 253 /Ugrave] def
/Times-Roman /Times-Roman accvec ReEncode
/Times-Italic /Times-Italic accvec ReEncode
/Times-Bold /Times-Bold accvec ReEncode
/Times-BoldItalic /Times-BoldItalic accvec ReEncode
/Helvetica /Helvetica accvec ReEncode
/Helvetica-Oblique /Helvetica-Oblique accvec ReEncode
/Helvetica-Bold /Helvetica-Bold accvec ReEncode
/Helvetica-BoldOblique /Helvetica-BoldOblique  accvec ReEncode
/Courier /Courier accvec ReEncode
/Courier-Oblique /Courier-Oblique accvec ReEncode
/Courier-Bold /Courier-Bold accvec ReEncode
/Courier-BoldOblique /Courier-BoldOblique accvec ReEncode
/oshow {gsave [] 0 sd true charpath stroke gr} def
/stwn { /fs exch def /fn exch def /text exch def fn findfont fs sf
 text sw pop xs add /xs exch def} def
/stwb { /fs exch def /fn exch def /nbas exch def /textf exch def
textf length /tlen exch def nbas tlen gt {/nbas tlen def} if
fn findfont fs sf textf dup length nbas sub nbas getinterval sw
pop neg xs add /xs exch def} def
/accspe [ 65 /plusminus 66 /bar 67 /existential 68 /universal
69 /exclam 70 /numbersign 71 /greater 72 /question 73 /integral
74 /colon 75 /semicolon 76 /less 77 /bracketleft 78 /bracketright
79 /greaterequal 80 /braceleft 81 /braceright 82 /radical
83 /spade 84 /heart 85 /diamond 86 /club 87 /lessequal
88 /multiply 89 /percent 90 /infinity 48 /circlemultiply 49 /circleplus
50 /emptyset 51 /lozenge 52 /bullet 53 /arrowright 54 /arrowup
55 /arrowleft 56 /arrowdown 57 /arrowboth 48 /degree 44 /comma 43 /plus
 45 /angle 42 /angleleft 47 /divide 61 /notequal 40 /equivalence 41 /second
 97 /approxequal 98 /congruent 99 /perpendicular 100 /partialdiff 101 /florin
 102 /intersection 103 /union 104 /propersuperset 105 /reflexsuperset
 106 /notsubset 107 /propersubset 108 /reflexsubset 109 /element 110 /notelement
 111 /gradient 112 /logicaland 113 /logicalor 114 /arrowdblboth
 115 /arrowdblleft 116 /arrowdblup 117 /arrowdblright 118 /arrowdbldown
 119 /ampersand 120 /omega1 121 /similar 122 /aleph ] def
/Symbol /Special accspe ReEncode
gsave .25 .25 scale 
%%EndProlog
 gsave 0 0 t black [] 0 sd 1 lw 1616 1757 283 227 bl 1616 1757 283 227 C NC 283
 227 m 1757 Y s 317 227 m -34 X s [4 8] 0 sd 1899 227 m -1616 X s [] 0 sd 300
 262 m -17 X s 300 297 m -17 X s 300 332 m -17 X s 300 367 m -17 X s 317 402 m
 -34 X s [4 8] 0 sd 1899 402 m -1616 X s [] 0 sd 300 438 m -17 X s 300 473 m -17
 X s 300 508 m -17 X s 300 543 m -17 X s 317 578 m -34 X s [4 8] 0 sd 1899 578 m
 -1616 X s [] 0 sd 300 613 m -17 X s 300 648 m -17 X s 300 684 m -17 X s 300 719
 m -17 X s 317 754 m -34 X s [4 8] 0 sd 1899 754 m -1616 X s [] 0 sd 300 789 m
 -17 X s 300 824 m -17 X s 300 859 m -17 X s 300 895 m -17 X s 317 930 m -34 X s
 [4 8] 0 sd 1899 930 m -1616 X s [] 0 sd 300 965 m -17 X s 300 1000 m -17 X s
 300 1035 m -17 X s 300 1070 m -17 X s 317 1105 m -34 X s [4 8] 0 sd 1899 1105 m
 -1616 X s [] 0 sd 300 1141 m -17 X s 300 1176 m -17 X s 300 1211 m -17 X s 300
 1246 m -17 X s 317 1281 m -34 X s [4 8] 0 sd 1899 1281 m -1616 X s [] 0 sd 300
 1316 m -17 X s 300 1351 m -17 X s 300 1387 m -17 X s 300 1422 m -17 X s 317
 1457 m -34 X s [4 8] 0 sd 1899 1457 m -1616 X s [] 0 sd 300 1492 m -17 X s 300
 1527 m -17 X s 300 1562 m -17 X s 300 1597 m -17 X s 317 1633 m -34 X s
 [4 8] 0 sd 1899 1633 m -1616 X s [] 0 sd 300 1668 m -17 X s 300 1703 m -17 X s
 300 1738 m -17 X s 300 1773 m -17 X s 317 1808 m -34 X s [4 8] 0 sd 1899 1808 m
 -1616 X s [] 0 sd 300 1843 m -17 X s 300 1879 m -17 X s 300 1914 m -17 X s 300
 1949 m -17 X s 317 1984 m -34 X s [4 8] 0 sd 1899 1984 m -1616 X s
 /xs 0 def 
(0)
 /Helvetica     67 stwn 
 gsave  238 202
 t   0 r  xs neg 0 t 0 0 m
 /Helvetica findfont   67 sf 0    0 m 
(0)
 show 
 gr
 /xs 0 def 
(10)
 /Helvetica     67 stwn 
 gsave  238 378
 t   0 r  xs neg 0 t 0 0 m
 /Helvetica findfont   67 sf 0    0 m 
(10)
 show 
 gr
 /xs 0 def 
(20)
 /Helvetica     67 stwn 
 gsave  238 554
 t   0 r  xs neg 0 t 0 0 m
 /Helvetica findfont   67 sf 0    0 m 
(20)
 show 
 gr
 /xs 0 def 
(30)
 /Helvetica     67 stwn 
 gsave  238 730
 t   0 r  xs neg 0 t 0 0 m
 /Helvetica findfont   67 sf 0    0 m 
(30)
 show 
 gr
 /xs 0 def 
(40)
 /Helvetica     67 stwn 
 gsave  238 905
 t   0 r  xs neg 0 t 0 0 m
 /Helvetica findfont   67 sf 0    0 m 
(40)
 show 
 gr
 /xs 0 def 
(50)
 /Helvetica     67 stwn 
 gsave  238 1081
 t   0 r  xs neg 0 t 0 0 m
 /Helvetica findfont   67 sf 0    0 m 
(50)
 show 
 gr
 /xs 0 def 
(60)
 /Helvetica     67 stwn 
 gsave  238 1257
 t   0 r  xs neg 0 t 0 0 m
 /Helvetica findfont   67 sf 0    0 m 
(60)
 show 
 gr
 /xs 0 def 
(70)
 /Helvetica     67 stwn 
 gsave  238 1432
 t   0 r  xs neg 0 t 0 0 m
 /Helvetica findfont   67 sf 0    0 m 
(70)
 show 
 gr
 /xs 0 def 
(80)
 /Helvetica     67 stwn 
 gsave  238 1608
 t   0 r  xs neg 0 t 0 0 m
 /Helvetica findfont   67 sf 0    0 m 
(80)
 show 
 gr
 /xs 0 def 
(90)
 /Helvetica     67 stwn 
 gsave  238 1784
 t   0 r  xs neg 0 t 0 0 m
 /Helvetica findfont   67 sf 0    0 m 
(90)
 show 
 gr
 /xs 0 def 
(100)
 /Helvetica     67 stwn 
 gsave  238 1960
 t   0 r  xs neg 0 t 0 0 m
 /Helvetica findfont   67 sf 0    0 m 
(100)
 show 
 gr
 [] 0 sd 283 227 m 1616 X s 310 261 m -34 Y s [4 8] 0 sd 310 1984 m -1757 Y s
 [] 0 sd 442 244 m -17 Y s 575 244 m -17 Y s 707 244 m -17 Y s 840 261 m -34 Y s
 [4 8] 0 sd 840 1984 m -1757 Y s [] 0 sd 972 244 m -17 Y s 1104 244 m -17 Y s
 1237 244 m -17 Y s 1369 261 m -34 Y s [4 8] 0 sd 1369 1984 m -1757 Y s [] 0 sd
 1502 244 m -17 Y s 1634 244 m -17 Y s 1767 244 m -17 Y s 1899 261 m -34 Y s
 [4 8] 0 sd 1899 1984 m -1757 Y s [] 0 sd 310 261 m -34 Y s [4 8] 0 sd 310 1984
 m -1757 Y s
 /xs 0 def 
(200)
 /Helvetica     67 stwn 
 gsave  310 155
 t   0 r  xs 2 div neg 0 t 0 0 m
 /Helvetica findfont   67 sf 0    0 m 
(200)
 show 
 gr
 /xs 0 def 
(400)
 /Helvetica     67 stwn 
 gsave  840 155
 t   0 r  xs 2 div neg 0 t 0 0 m
 /Helvetica findfont   67 sf 0    0 m 
(400)
 show 
 gr
 /xs 0 def 
(600)
 /Helvetica     67 stwn 
 gsave  1369 155
 t   0 r  xs 2 div neg 0 t 0 0 m
 /Helvetica findfont   67 sf 0    0 m 
(600)
 show 
 gr
 /xs 0 def 
(800)
 /Helvetica     67 stwn 
 gsave  1899 155
 t   0 r  xs 2 div neg 0 t 0 0 m
 /Helvetica findfont   67 sf 0    0 m 
(800)
 show 
 gr
 1616 1757 283 227 C [12 15 4 15] 0 sd 2 lw 310 227 m 5 Y 10 X -2 Y 3 X 2 Y 5 X
 -1 Y 3 X 1 Y 3 X -1 Y 2 X 2 Y 3 X -2 Y 3 X 2 Y 5 X 4 Y 2 X 3 Y 3 X 1 Y 3 X 1 Y
 2 X 2 Y 3 X 2 Y 3 X 2 Y 2 X 2 Y 3 X 8 Y 2 X 6 Y 3 X 4 Y 3 X 6 Y 2 X 9 Y 3 X 10
 Y 3 X 1 Y 2 X 3 Y 3 X 11 Y 3 X 15 Y 2 X 22 Y 3 X 21 Y 2 X 18 Y 3 X 20 Y 3 X 24
 Y 2 X 6 Y 3 X 13 Y 3 X 15 Y 2 X 19 Y 3 X 18 Y 3 X 22 Y 2 X 22 Y 3 X 20 Y 2 X 19
 Y 3 X 7 Y 3 X 25 Y 2 X 18 Y 3 X 4 Y 3 X 20 Y 2 X 14 Y 3 X 9 Y 3 X 35 Y 2 X 15 Y
 3 X 19 Y 2 X 29 Y 3 X 33 Y 3 X 8 Y 2 X 7 Y 3 X 23 Y 3 X 28 Y 2 X 9 Y 3 X 14 Y 2
 X 15 Y 3 X 16 Y 3 X 8 Y 2 X 23 Y 3 X 17 Y 3 X 21 Y 2 X 26 Y 3 X 9 Y 3 X 22 Y 2
 X 13 Y 3 X -6 Y 2 X -9 Y 3 X -4 Y 3 X 24 Y 2 X 22 Y 3 X -5 Y 3 X -2 Y 2 X 20 Y
 3 X 27 Y 3 X 11 Y 2 X 14 Y 3 X 18 Y 2 X 31 Y 3 X 15 Y 3 X 10 Y 2 X 10 Y 3 X 23
 Y 3 X 26 Y 2 X 31 Y 3 X 15 Y 2 X 2 Y 3 X 4 Y 3 X 12 Y 2 X 8 Y 3 X 3 Y 3 X 19 Y
 2 X 16 Y 3 X s 576 1404 m -5 Y 3 X 46 Y 2 X 11 Y 3 X 22 Y 2 X 17 Y 3 X -2 Y 3 X
 -2 Y 2 X -3 Y 3 X 5 Y 3 X 11 Y 2 X 9 Y 3 X -18 Y 3 X -3 Y 2 X -29 Y 3 X -50 Y 5
 X -9 Y 3 X -68 Y 2 X -94 Y 3 X -83 Y 3 X -67 Y 2 X -74 Y 3 X -162 Y 3 X -122 Y
 2 X -90 Y 3 X -64 Y 2 X -41 Y 3 X -63 Y 3 X -47 Y 2 X -40 Y 3 X -28 Y 3 X -33 Y
 2 X -22 Y 3 X -15 Y 2 X -13 Y 3 X -10 Y 3 X -5 Y 2 X -9 Y 3 X -4 Y 3 X -1 Y 2 X
 -1 Y 3 X -4 Y 3 X -3 Y 2 X -2 Y 5 X -2 Y 11 X -2 Y 11 X -1 Y 2 X -1 Y 13 X 1 Y
 3 X 1 Y 16 X -2 Y 5 X 2 Y 3 X -2 Y 21 X 2 Y 2 X -2 Y 6 X -6 Y s [4 8] 0 sd 310
 227 m 7 Y 3 X -1 Y 21 X 2 Y 2 X -2 Y 3 X 2 Y 5 X -2 Y 3 X 2 Y 2 X 1 Y 3 X 2 Y 3
 X 2 Y 2 X 4 Y 3 X 1 Y 3 X 4 Y 2 X 3 Y 3 X 1 Y 2 X 3 Y 3 X 19 Y 3 X 7 Y 2 X 2 Y
 3 X 6 Y 3 X 5 Y 2 X 7 Y 3 X 7 Y 3 X 16 Y 2 X 14 Y 3 X 19 Y 2 X 23 Y 3 X 25 Y 3
 X 14 Y 2 X 26 Y 3 X 9 Y 3 X 11 Y 2 X 17 Y 3 X 20 Y 3 X 3 Y 2 X 5 Y 3 X 9 Y 2 X
 21 Y 3 X 27 Y 3 X 12 Y 2 X 18 Y 3 X 28 Y 3 X 24 Y 2 X 14 Y 3 X 16 Y 3 X 25 Y 2
 X 35 Y 3 X 31 Y 2 X 8 Y 3 X 12 Y 3 X 10 Y 2 X 28 Y 3 X 16 Y 3 X 18 Y 2 X 23 Y 3
 X 16 Y 2 X 15 Y 3 X 20 Y 3 X 12 Y 2 X 12 Y 3 X 14 Y 3 X 7 Y 2 X 20 Y 3 X 23 Y 3
 X 8 Y 2 X 16 Y 5 X 12 Y 3 X 27 Y 3 X 2 Y 8 X 14 Y 2 X -6 Y 3 X 23 Y 3 X 28 Y 2
 X 25 Y 3 X 10 Y 2 X 13 Y 3 X 7 Y 3 X 12 Y 2 X 14 Y 3 X 12 Y 3 X 58 Y 2 X -1 Y 3
 X 7 Y 2 X 44 Y 3 X 28 Y 3 X 2 Y 2 X 5 Y 3 X 14 Y 3 X -2 Y 2 X 14 Y 3 X s 576
 1411 m 34 Y 3 X -2 Y 2 X 3 Y 3 X 14 Y 2 X 13 Y 3 X 12 Y 3 X 12 Y 2 X 16 Y 3 X
 25 Y 3 X -14 Y 2 X -9 Y 3 X -12 Y 3 X -13 Y 2 X -12 Y 3 X -7 Y 2 X -4 Y 3 X -15
 Y 3 X -67 Y 2 X -88 Y 3 X -93 Y 3 X -97 Y 2 X -56 Y 3 X -97 Y 3 X -153 Y 2 X
 -56 Y 3 X -61 Y 2 X -85 Y 3 X -84 Y 3 X -62 Y 2 X -44 Y 3 X -24 Y 3 X -42 Y 2 X
 -26 Y 3 X -16 Y 2 X -19 Y 3 X -7 Y 3 X -7 Y 2 X -4 Y 3 X -7 Y 3 X -4 Y 2 X -5 Y
 3 X -2 Y 3 X -1 Y 5 X -4 Y 5 X 2 Y 3 X -2 Y 2 X -1 Y 3 X -4 Y 3 X -2 Y 2 X -1 Y
 34 X 2 Y 22 X 2 Y 21 X -10 Y s [12 12] 0 sd 310 227 m -7 Y 3 X 3 Y 13 X -1 Y 13
 X 3 Y 5 X 3 Y 3 X 6 Y 2 X -1 Y 3 X 3 Y 3 X 3 Y 5 X 6 Y 3 X 3 Y 5 X 6 Y 5 X 3 Y
 3 X 8 Y 2 X 9 Y 3 X 12 Y 3 X 3 Y 2 X 12 Y 3 X 3 Y 3 X 12 Y 2 X 9 Y 3 X 18 Y 2 X
 33 Y 3 X 14 Y 3 X 12 Y 2 X 15 Y 3 X 19 Y 3 X 11 Y 2 X 12 Y 3 X 38 Y 3 X 10 Y 2
 X 15 Y 3 X 23 Y 2 X 19 Y 6 X 14 Y 2 X 5 Y 3 X 27 Y 3 X 21 Y 2 X 21 Y 3 X 6 Y 3
 X 15 Y 2 X 48 Y 3 X 21 Y 5 X 33 Y 3 X 21 Y 2 X 17 Y 3 X 20 Y 3 X 13 Y 7 X 52 Y
 3 X 6 Y 3 X 5 Y 2 X 6 Y 3 X 31 Y 3 X 7 Y 2 X 10 Y 3 X 33 Y 3 X 21 Y 2 X 5 Y 3 X
 6 Y 2 X 21 Y 3 X 16 Y 3 X 1 Y 2 X 4 Y 3 X 12 Y 5 X 11 Y 3 X 16 Y 3 X 15 Y 2 X
 15 Y 3 X 12 Y 2 X 7 Y 3 X 8 Y 3 X 2 Y 2 X 21 Y 3 X 31 Y 3 X 50 Y 5 X 5 Y 2 X 12
 Y 3 X 11 Y 3 X 4 Y 2 X 44 Y 3 X 8 Y 3 X 17 Y 2 X 8 Y 3 X s 576 1379 m 31 Y 3 X
 21 Y 2 X 4 Y 3 X -10 Y 2 X 2 Y 3 X 19 Y 3 X 27 Y 2 X 6 Y 8 X -14 Y 3 X 10 Y 3 X
 -4 Y 2 X -12 Y 3 X -3 Y 2 X -8 Y 3 X -67 Y 3 X -15 Y 2 X -69 Y 3 X -60 Y 3 X
 -96 Y 2 X -67 Y 3 X -180 Y 3 X -107 Y 2 X -64 Y 3 X -90 Y 2 X -109 Y 3 X -56 Y
 3 X -42 Y 2 X -34 Y 3 X -18 Y 3 X -33 Y 2 X -30 Y 3 X -15 Y 2 X -15 Y 3 X -9 Y
 3 X -9 Y 2 X -3 Y 3 X -7 Y 5 X -3 Y 3 X -3 Y 5 X -3 Y 3 X 3 Y 2 X -3 Y 3 X -3 Y
 3 X -7 Y 10 X -3 Y 13 X -1 Y 8 X -3 Y 3 X 3 Y 13 X -1 Y 19 X 3 Y 7 X -1 Y 11 X
 -3 Y 3 X -1 Y s [] 0 sd 310 227 m 2 Y 3 X -5 Y 5 X 2 Y 10 X 2 Y 8 X -3 Y 8 X -1
 Y 3 X 3 Y 5 X 2 Y 3 X 3 Y 2 X 2 Y 3 X 2 Y 5 X 3 Y 3 X 5 Y 2 X 7 Y 3 X 3 Y 3 X 5
 Y 8 X 7 Y 2 X 8 Y 3 X 7 Y 3 X 11 Y 2 X 10 Y 3 X 10 Y 2 X 13 Y 3 X 26 Y 3 X 15 Y
 2 X 13 Y 3 X 8 Y 3 X 12 Y 2 X 16 Y 3 X 20 Y 3 X 18 Y 2 X 16 Y 3 X 21 Y 2 X 22 Y
 3 X 20 Y 3 X 35 Y 2 X 15 Y 3 X 20 Y 3 X 8 Y 2 X 20 Y 3 X 40 Y 3 X 15 Y 2 X 20 Y
 3 X 33 Y 2 X 12 Y 3 X 18 Y 3 X 10 Y 2 X 2 Y 6 X 23 Y 2 X 42 Y 3 X 23 Y 2 X 2 Y
 3 X 8 Y 3 X 12 Y 2 X 8 Y 3 X 2 Y 3 X 3 Y 2 X 5 Y 3 X 2 Y 8 X 5 Y 2 X 5 Y 3 X 3
 Y 3 X 2 Y 2 X -10 Y 3 X 8 Y 5 X 7 Y 3 X 28 Y 3 X 55 Y 2 X 3 Y 3 X 27 Y 2 X 3 Y
 3 X 15 Y 3 X 20 Y 2 X 47 Y 3 X 18 Y 3 X 30 Y 2 X 32 Y 3 X 50 Y 2 X 35 Y 3 X 23
 Y 3 X 23 Y 2 X 45 Y 3 X 12 Y 3 X 8 Y 2 X 2 Y 3 X s 576 1406 m 8 Y 3 X 7 Y 2 X
 35 Y 3 X 13 Y 2 X -5 Y 3 X -23 Y 3 X 50 Y 2 X 8 Y 3 X -3 Y 3 X 10 Y 2 X 13 Y 3
 X -8 Y 5 X -15 Y 3 X -35 Y 2 X 5 Y 3 X -85 Y 3 X -65 Y 2 X -45 Y 3 X -95 Y 3 X
 -108 Y 2 X -62 Y 3 X -101 Y 3 X -82 Y 2 X -118 Y 3 X -103 Y 2 X -75 Y 3 X -78 Y
 3 X -52 Y 2 X -26 Y 3 X -31 Y 3 X -24 Y 2 X -18 Y 3 X -13 Y 2 X -13 Y 3 X -8 Y
 3 X -6 Y 2 X -5 Y 3 X -5 Y 3 X -3 Y 5 X -3 Y 3 X -3 Y 2 X -3 Y 5 X -3 Y 6 X -2
 Y 2 X -1 Y 16 X -3 Y 5 X 2 Y 11 X -1 Y 10 X 2 Y 3 X -2 Y 3 X 2 Y 2 X -3 Y 14 X
 -1 Y 5 X 3 Y 2 X -3 Y 6 X 2 Y 8 X -1 Y s [12 15 4 15] 0 sd 628 227 m 3 Y 29 X 1
 Y 2 X -1 Y 3 X 1 Y 3 X -1 Y 5 X 1 Y 19 X -1 Y 5 X 1 Y 8 X 1 Y 2 X 2 Y 3 X 3 Y 3
 X 1 Y 2 X 1 Y 3 X 1 Y 3 X 2 Y 2 X 4 Y 3 X 3 Y 3 X 4 Y 2 X 2 Y 3 X 3 Y 2 X 1 Y 3
 X 7 Y 3 X 5 Y 2 X 1 Y 3 X 3 Y 3 X 2 Y 2 X 3 Y 3 X 5 Y 3 X 4 Y 2 X 16 Y 3 X 5 Y
 3 X 7 Y 5 X 6 Y 2 X 8 Y 3 X 7 Y 3 X 10 Y 2 X 6 Y 3 X 11 Y 3 X -4 Y 2 X 5 Y 3 X
 7 Y 3 X 4 Y 2 X 5 Y 3 X 9 Y 3 X 6 Y 2 X 9 Y 3 X 6 Y 2 X 3 Y 3 X 3 Y 3 X 4 Y 2 X
 6 Y 3 X 7 Y 3 X 5 Y 2 X 3 Y 3 X 9 Y 3 X 9 Y 2 X 23 Y 3 X 3 Y 3 X 8 Y 2 X 5 Y 3
 X 2 Y 2 X -1 Y 3 X -1 Y 3 X 12 Y 2 X 4 Y 3 X 2 Y 3 X 5 Y 2 X -4 Y 8 X 8 Y 3 X
 -17 Y 3 X 22 Y 2 X 1 Y 5 X 3 Y 3 X 4 Y 3 X -20 Y 2 X 3 Y 3 X 5 Y 3 X s 895 528
 m 17 Y 2 X -6 Y 3 X -3 Y 3 X -4 Y 2 X 7 Y 6 X 2 Y 2 X 8 Y 3 X -1 Y 2 X 3 Y 3 X
 7 Y 3 X -1 Y 2 X -4 Y 3 X 11 Y 3 X 9 Y 5 X 6 Y 3 X -3 Y 2 X 10 Y 3 X 5 Y 3 X 3
 Y 2 X 11 Y 3 X 9 Y 2 X 12 Y 3 X 7 Y 3 X 9 Y 2 X 2 Y 3 X 8 Y 3 X 20 Y 2 X 13 Y 3
 X 8 Y 3 X 5 Y 2 X 9 Y 3 X 19 Y 3 X 15 Y 2 X 7 Y 3 X 17 Y 2 X 6 Y 3 X 2 Y 3 X 13
 Y 2 X 13 Y 3 X 3 Y 3 X 12 Y 2 X 17 Y 3 X 17 Y 3 X 3 Y 2 X 25 Y 3 X 6 Y 3 X 15 Y
 2 X 7 Y 3 X 24 Y 2 X 15 Y 3 X 10 Y 3 X 3 Y 2 X 23 Y 3 X 11 Y 3 X 4 Y 2 X 6 Y 3
 X 19 Y 3 X 7 Y 2 X 10 Y 3 X 27 Y 3 X 13 Y 2 X 4 Y 3 X 9 Y 2 X 22 Y 3 X 8 Y 3 X
 7 Y 2 X 3 Y 3 X 16 Y 3 X 8 Y 2 X 9 Y 3 X 25 Y 3 X 6 Y 2 X 11 Y 3 X 7 Y 3 X 7 Y
 2 X 18 Y 3 X 8 Y 2 X 6 Y 3 X 2 Y 3 X 2 Y 2 X 14 Y 3 X 5 Y 3 X 6 Y 2 X 18 Y 3 X
 -15 Y 3 X 14 Y 2 X 14 Y 3 X 8 Y 3 X 5 Y 2 X 22 Y 3 X 11 Y 2 X -2 Y 3 X 2 Y 3 X
 11 Y 2 X 7 Y 3 X 21 Y 3 X 9 Y 2 X 4 Y 3 X 39 Y 3 X s 1162 1447 m 8 Y 2 X -1 Y 3
 X -9 Y 3 X -6 Y 2 X 7 Y 3 X -29 Y 2 X -4 Y 3 X 19 Y 3 X 7 Y 2 X 4 Y 3 X -5 Y 3
 X -9 Y 2 X -2 Y 3 X -12 Y 3 X 22 Y 2 X 2 Y 3 X -8 Y 3 X 11 Y 2 X -7 Y 3 X -5 Y
 2 X -8 Y 3 X 14 Y 3 X -10 Y 2 X -3 Y 3 X -1 Y 3 X 12 Y 2 X 19 Y 3 X -13 Y 3 X
 -16 Y 2 X 14 Y 3 X -3 Y 3 X -2 Y 2 X -20 Y 3 X -11 Y 2 X -17 Y 3 X -8 Y 5 X -3
 Y 3 X -8 Y 3 X 2 Y 2 X -27 Y 3 X 5 Y 3 X 4 Y 2 X 19 Y 3 X 22 Y 3 X 10 Y 2 X 1 Y
 3 X -14 Y 2 X -20 Y 3 X -21 Y 3 X 9 Y 2 X -7 Y 3 X 4 Y 3 X -12 Y 2 X -14 Y 3 X
 -1 Y 3 X 3 Y 2 X -12 Y 3 X -29 Y 3 X -9 Y 5 X -31 Y 2 X 6 Y 3 X -6 Y 3 X -12 Y
 2 X -13 Y 3 X -28 Y 3 X 2 Y 2 X -16 Y 3 X 3 Y 3 X 12 Y 2 X -13 Y 3 X -9 Y 3 X
 -5 Y 2 X -3 Y 3 X -19 Y 2 X -40 Y 3 X -27 Y 3 X 4 Y 2 X -37 Y 3 X 49 Y 5 X 11 Y
 3 X -11 Y 3 X -20 Y 2 X -17 Y 3 X -3 Y 3 X -7 Y 2 X -5 Y 3 X -6 Y 2 X -19 Y 3 X
 -32 Y 3 X -5 Y 2 X -21 Y 3 X -30 Y 3 X 28 Y 2 X -46 Y 3 X -12 Y 3 X -1 Y 2 X
 -15 Y 6 X s 1429 885 m -11 Y 2 X -3 Y 3 X -1 Y 2 X -11 Y 3 X -5 Y 3 X -8 Y 2 X
 -12 Y 3 X 1 Y 3 X -13 Y 2 X 3 Y 3 X -13 Y 3 X -12 Y 2 X -9 Y 3 X -6 Y 3 X -13 Y
 2 X -1 Y 3 X -6 Y 2 X -19 Y 3 X -13 Y 3 X -4 Y 2 X -14 Y 3 X -18 Y 3 X -4 Y 2 X
 -1 Y 3 X -3 Y 3 X -5 Y 2 X 7 Y 3 X -1 Y 3 X -16 Y 2 X -7 Y 3 X -18 Y 2 X -22 Y
 3 X -5 Y 5 X 4 Y 3 X -2 Y 3 X -11 Y 2 X -4 Y 3 X -10 Y 5 X -13 Y 3 X -8 Y 3 X
 -5 Y 2 X -4 Y 3 X -4 Y 2 X -10 Y 3 X -13 Y 3 X -20 Y 2 X -19 Y 3 X -12 Y 3 X -9
 Y 5 X 7 Y 3 X 2 Y 5 X -5 Y 5 X -5 Y 3 X 4 Y 5 X -5 Y 3 X -8 Y 2 X -11 Y 3 X -11
 Y 3 X -5 Y 5 X 2 Y 3 X -9 Y 2 X -11 Y 3 X -3 Y 3 X -6 Y 5 X -5 Y 2 X -4 Y 3 X
 -13 Y 3 X -5 Y 2 X -1 Y 3 X -6 Y 3 X -1 Y 2 X -2 Y 3 X -5 Y 3 X 7 Y 5 X 2 Y 5 X
 -6 Y 5 X -4 Y 6 X -9 Y 2 X -1 Y 3 X -11 Y 3 X -3 Y 2 X 3 Y 6 X -5 Y 5 X -11 Y 5
 X 1 Y 3 X -1 Y 2 X s 1695 338 m 3 X 2 Y 5 X 1 Y 6 X 6 Y 2 X 3 Y 8 X 2 Y 3 X -1
 Y 3 X 2 Y 2 X -4 Y 3 X -6 Y 2 X 1 Y 3 X -2 Y 3 X -2 Y 2 X -3 Y 3 X 2 Y 3 X -5 Y
 2 X -8 Y 3 X 1 Y 5 X 1 Y 6 X 7 Y 2 X -13 Y 3 X 4 Y 2 X -2 Y 3 X 3 Y 3 X -4 Y 2
 X 8 Y 3 X -5 Y 3 X -2 Y 2 X 8 Y 3 X 4 Y 3 X -1 Y 5 X 1 Y 3 X 5 Y 2 X 3 Y 8 X 1
 Y 5 X 1 Y 3 X -6 Y 3 X -2 Y 2 X 1 Y 3 X 1 Y 5 X 11 Y 3 X 1 Y 3 X -1 Y 5 X 2 Y 5
 X -6 Y 3 X -5 Y 2 X 4 Y 3 X -1 Y 3 X -9 Y 2 X 11 Y 3 X 4 Y 3 X -1 Y 2 X 2 Y 3 X
 2 Y 5 X 1 Y 5 X 2 Y 6 X -8 Y 2 X -3 Y 8 X -119 Y 3 X s [4 8] 0 sd 628 227 m 10
 Y 10 X 1 Y 11 X -1 Y 8 X -1 Y 2 X -2 Y 14 X -1 Y 26 X 1 Y 3 X 1 Y 2 X 3 Y 3 X 2
 Y 3 X 2 Y 2 X 3 Y 3 X 3 Y 3 X 2 Y 2 X 2 Y 3 X 4 Y 3 X 3 Y 2 X 3 Y 3 X 1 Y 2 X 2
 Y 3 X 8 Y 3 X 6 Y 2 X 4 Y 3 X 7 Y 3 X 6 Y 2 X 1 Y 3 X 3 Y 3 X 5 Y 2 X 11 Y 3 X
 11 Y 3 X 8 Y 2 X -2 Y 3 X 6 Y 2 X 1 Y 3 X 1 Y 3 X 4 Y 2 X 7 Y 3 X 18 Y 3 X 6 Y
 2 X 1 Y 3 X 8 Y 3 X 7 Y 2 X 8 Y 3 X 10 Y 3 X 7 Y 2 X 4 Y 3 X 4 Y 2 X 4 Y 3 X 6
 Y 3 X 2 Y 2 X 5 Y 3 X 8 Y 3 X 4 Y 2 X 8 Y 3 X 10 Y 3 X 8 Y 2 X 22 Y 3 X 4 Y 3 X
 5 Y 2 X 3 Y 3 X 3 Y 2 X 4 Y 3 X 4 Y 3 X 4 Y 2 X -2 Y 6 X 8 Y 2 X -4 Y 3 X 4 Y 5
 X 7 Y 3 X -17 Y 3 X 21 Y 2 X 2 Y 3 X -1 Y 2 X 3 Y 3 X -2 Y 3 X -16 Y 2 X 8 Y 3
 X 6 Y 3 X s 895 546 m 17 Y 2 X -8 Y 8 X 6 Y 3 X -6 Y 3 X -2 Y 2 X 11 Y 3 X 2 Y
 2 X 2 Y 3 X 7 Y 3 X 1 Y 2 X -3 Y 3 X 7 Y 3 X 6 Y 2 X 7 Y 3 X 15 Y 3 X 4 Y 2 X
 12 Y 3 X 5 Y 3 X 1 Y 2 X 12 Y 3 X 12 Y 2 X 5 Y 3 X 6 Y 3 X 14 Y 2 X 6 Y 3 X 7 Y
 3 X 11 Y 2 X 6 Y 3 X 2 Y 3 X 6 Y 2 X 14 Y 3 X 16 Y 3 X 14 Y 2 X 9 Y 3 X 15 Y 2
 X 5 Y 3 X 7 Y 3 X 14 Y 2 X 6 Y 3 X 2 Y 3 X 12 Y 2 X 27 Y 3 X 23 Y 3 X 12 Y 2 X
 26 Y 3 X -7 Y 3 X 15 Y 2 X 6 Y 3 X 16 Y 2 X 3 Y 3 X 9 Y 3 X 17 Y 2 X 33 Y 3 X
 16 Y 3 X 11 Y 2 X 4 Y 3 X 14 Y 3 X 2 Y 2 X 6 Y 3 X 30 Y 3 X 14 Y 2 X 7 Y 3 X 8
 Y 2 X 17 Y 3 X 8 Y 3 X 10 Y 2 X 13 Y 3 X 32 Y 3 X 13 Y 2 X 2 Y 3 X 32 Y 3 X 3 Y
 2 X 2 Y 6 X -7 Y 2 X 18 Y 3 X 5 Y 2 X 9 Y 3 X 6 Y 3 X 5 Y 2 X 25 Y 3 X 4 Y 3 X
 20 Y 2 X 36 Y 6 X 1 Y 2 X -11 Y 3 X -6 Y 3 X 2 Y 2 X 25 Y 3 X 11 Y 5 X 19 Y 3 X
 11 Y 2 X -19 Y 3 X 17 Y 3 X 21 Y 2 X -6 Y 3 X 24 Y 3 X s 1162 1465 m 11 Y 2 X 4
 Y 3 X 10 Y 3 X 2 Y 2 X -6 Y 3 X -22 Y 2 X -20 Y 3 X 13 Y 3 X -2 Y 2 X 12 Y 3 X
 8 Y 3 X 5 Y 2 X -25 Y 3 X -18 Y 3 X 25 Y 5 X -2 Y 3 X 17 Y 2 X -6 Y 3 X -26 Y 2
 X -5 Y 3 X 12 Y 3 X 10 Y 2 X 17 Y 3 X 6 Y 3 X 12 Y 2 X 6 Y 3 X -9 Y 3 X -38 Y 2
 X 4 Y 3 X -10 Y 3 X 2 Y 2 X -2 Y 3 X 16 Y 2 X -17 Y 3 X -14 Y 3 X -6 Y 2 X -25
 Y 3 X -6 Y 3 X 13 Y 2 X -9 Y 3 X -2 Y 3 X -17 Y 2 X 16 Y 3 X 10 Y 3 X 16 Y 5 X
 -8 Y 2 X -14 Y 3 X -27 Y 3 X -3 Y 2 X 2 Y 3 X 20 Y 3 X -38 Y 2 X -8 Y 3 X -17 Y
 3 X -6 Y 2 X -11 Y 3 X -23 Y 3 X 1 Y 2 X 9 Y 3 X -26 Y 2 X 2 Y 3 X -8 Y 3 X -3
 Y 2 X -13 Y 3 X -5 Y 3 X -15 Y 2 X -6 Y 3 X -8 Y 3 X 18 Y 2 X -28 Y 3 X -17 Y 3
 X 1 Y 2 X 20 Y 3 X -9 Y 2 X -53 Y 3 X -25 Y 3 X -8 Y 2 X -14 Y 3 X 51 Y 3 X -21
 Y 2 X -2 Y 3 X -25 Y 5 X -15 Y 3 X 6 Y 3 X -15 Y 2 X -10 Y 3 X -11 Y 2 X -9 Y 3
 X -30 Y 3 X -9 Y 2 X -19 Y 3 X -32 Y 3 X 38 Y 2 X -50 Y 3 X -13 Y 5 X -23 Y 3 X
 3 Y 3 X s 1429 919 m -16 Y 2 X -11 Y 3 X -4 Y 2 X -13 Y 3 X -6 Y 3 X -6 Y 2 X
 -13 Y 6 X -10 Y 2 X -7 Y 3 X -6 Y 3 X -18 Y 2 X -4 Y 3 X -1 Y 3 X -27 Y 2 X -8
 Y 3 X -7 Y 2 X -9 Y 3 X 1 Y 3 X 5 Y 2 X -5 Y 3 X -20 Y 8 X -14 Y 3 X -8 Y 2 X 5
 Y 3 X 4 Y 3 X -21 Y 2 X 5 Y 3 X -37 Y 2 X -24 Y 3 X -20 Y 3 X 4 Y 2 X 6 Y 3 X 2
 Y 5 X -9 Y 3 X -4 Y 3 X 2 Y 2 X -9 Y 3 X -9 Y 3 X -8 Y 2 X -4 Y 3 X -3 Y 2 X
 -11 Y 3 X -16 Y 3 X -19 Y 2 X -5 Y 3 X 6 Y 5 X -5 Y 3 X -9 Y 3 X -15 Y 2 X -5 Y
 3 X -10 Y 3 X -5 Y 2 X -5 Y 3 X -5 Y 2 X -10 Y 6 X -2 Y 2 X -14 Y 3 X -5 Y 3 X
 -2 Y 2 X -10 Y 3 X -8 Y 3 X 1 Y 2 X -5 Y 3 X -2 Y 3 X -5 Y 5 X -5 Y 2 X 3 Y 3 X
 -6 Y 5 X 4 Y 3 X -5 Y 3 X -8 Y 2 X -12 Y 3 X -6 Y 3 X 3 Y 2 X -5 Y 3 X -4 Y 3 X
 -6 Y 5 X 2 Y 2 X -5 Y 3 X 3 Y 3 X -8 Y 2 X 2 Y 3 X -6 Y 3 X -2 Y 2 X -1 Y 3 X
 -7 Y 3 X 3 Y 2 X -7 Y 3 X -4 Y 5 X 4 Y 3 X 5 Y 2 X s 1695 358 m 3 X 2 Y 5 X 2 Y
 6 X -7 Y 2 X 3 Y 8 X -5 Y 6 X 1 Y 2 X -1 Y 5 X -6 Y 3 X -2 Y 3 X -7 Y 2 X 10 Y
 3 X 3 Y 3 X 3 Y 5 X 2 Y 5 X 2 Y 3 X 1 Y 3 X -2 Y 2 X -6 Y 3 X 1 Y 2 X 2 Y 11 X
 -6 Y 5 X -7 Y 3 X -4 Y 3 X -1 Y 2 X -8 Y 6 X -3 Y 2 X 3 Y 8 X 1 Y 3 X 1 Y 2 X 1
 Y 3 X 1 Y 5 X 1 Y 3 X 2 Y 5 X 1 Y 3 X 2 Y 3 X -10 Y 2 X 10 Y 3 X -9 Y 8 X 2 Y 2
 X 3 Y 6 X 2 Y 2 X 2 Y 3 X 2 Y 5 X 2 Y 3 X 2 Y 5 X 2 Y 5 X 2 Y 8 X 2 Y 6 X 1 Y 2
 X -124 Y 3 X s [12 12] 0 sd 628 227 m 2 X -3 Y 3 X 3 Y 8 X -2 Y 5 X 1 Y 3 X 1 Y
 5 X -1 Y 8 X 1 Y 32 X 2 Y 13 X 4 Y 3 X 1 Y 2 X 2 Y 3 X 2 Y 3 X 1 Y 2 X 2 Y 3 X
 5 Y 3 X 3 Y 2 X 4 Y 3 X 1 Y 5 X 7 Y 3 X 3 Y 2 X 2 Y 6 X 14 Y 2 X 4 Y 3 X 1 Y 3
 X 6 Y 2 X 7 Y 3 X 9 Y 3 X 12 Y 2 X -4 Y 8 X 10 Y 3 X 5 Y 2 X 3 Y 3 X 17 Y 3 X 2
 Y 2 X 4 Y 3 X 12 Y 3 X 6 Y 2 X 3 Y 3 X 5 Y 3 X 3 Y 2 X 2 Y 3 X 2 Y 2 X 18 Y 3 X
 5 Y 3 X 4 Y 2 X 3 Y 3 X 9 Y 3 X 6 Y 2 X 5 Y 3 X 4 Y 3 X 4 Y 2 X 25 Y 6 X 8 Y 2
 X 5 Y 3 X 7 Y 2 X 4 Y 3 X 1 Y 3 X 2 Y 2 X 3 Y 6 X 4 Y 2 X -4 Y 3 X 3 Y 3 X 1 Y
 2 X 6 Y 3 X -15 Y 3 X 24 Y 2 X 1 Y 5 X 3 Y 3 X 5 Y 3 X -15 Y 2 X 4 Y 3 X 2 Y 3
 X s 895 521 m 14 Y 2 X -7 Y 8 X 3 Y 3 X 3 Y 3 X 2 Y 2 X 9 Y 3 X -2 Y 2 X -1 Y 3
 X 2 Y 5 X 1 Y 3 X 6 Y 3 X 6 Y 5 X 12 Y 3 X 1 Y 2 X 11 Y 3 X 6 Y 3 X 3 Y 2 X 5 Y
 3 X 6 Y 2 X 4 Y 3 X 8 Y 3 X 15 Y 2 X 7 Y 3 X 5 Y 3 X 20 Y 2 X 8 Y 3 X -1 Y 3 X
 13 Y 2 X 6 Y 3 X 5 Y 3 X 14 Y 2 X 8 Y 3 X 20 Y 2 X 4 Y 3 X 8 Y 3 X 23 Y 2 X 3 Y
 3 X 8 Y 3 X 10 Y 2 X 19 Y 3 X 10 Y 3 X 7 Y 2 X 28 Y 3 X -7 Y 3 X 15 Y 2 X 2 Y 3
 X 17 Y 2 X 41 Y 3 X 3 Y 3 X 13 Y 2 X 14 Y 3 X 5 Y 3 X 18 Y 2 X 5 Y 3 X 26 Y 3 X
 -1 Y 2 X 1 Y 3 X 32 Y 3 X 25 Y 2 X 19 Y 3 X 25 Y 2 X 7 Y 6 X -5 Y 2 X 17 Y 3 X
 14 Y 3 X 11 Y 2 X 17 Y 3 X 22 Y 8 X 11 Y 3 X 9 Y 2 X 18 Y 3 X 13 Y 2 X 7 Y 3 X
 -4 Y 5 X 17 Y 3 X -5 Y 3 X -4 Y 2 X 37 Y 3 X 6 Y 3 X 22 Y 2 X 6 Y 3 X 4 Y 5 X
 21 Y 3 X 4 Y 2 X -4 Y 3 X 8 Y 3 X 16 Y 5 X 26 Y 3 X 8 Y 2 X -13 Y 3 X 27 Y 3 X
 s 1162 1419 m 5 Y 10 X 13 Y 3 X -15 Y 2 X -22 Y 3 X 13 Y 3 X -4 Y 2 X -8 Y 3 X
 -3 Y 3 X 8 Y 2 X -17 Y 3 X 2 Y 3 X 24 Y 2 X -19 Y 3 X -7 Y 3 X 14 Y 5 X -9 Y 2
 X -20 Y 3 X 27 Y 3 X 10 Y 2 X 3 Y 3 X -7 Y 3 X -6 Y 2 X -1 Y 3 X -5 Y 3 X -2 Y
 2 X 4 Y 3 X -15 Y 3 X -12 Y 2 X -2 Y 3 X 12 Y 2 X -19 Y 3 X -30 Y 5 X -12 Y 3 X
 -5 Y 3 X 4 Y 2 X -2 Y 3 X 2 Y 3 X -3 Y 2 X 20 Y 6 X -2 Y 2 X -3 Y 3 X -19 Y 2 X
 -3 Y 3 X -16 Y 3 X 10 Y 2 X -11 Y 3 X -3 Y 3 X -21 Y 2 X -5 Y 3 X -9 Y 3 X -17
 Y 2 X 4 Y 3 X -8 Y 3 X -27 Y 2 X 3 Y 3 X -48 Y 2 X 7 Y 3 X 7 Y 3 X 7 Y 2 X -24
 Y 3 X -3 Y 3 X 5 Y 2 X -9 Y 3 X -12 Y 3 X -9 Y 2 X -18 Y 3 X 3 Y 3 X 3 Y 5 X
 -19 Y 2 X -34 Y 3 X -38 Y 3 X -10 Y 2 X -6 Y 3 X 36 Y 3 X -20 Y 2 X 7 Y 3 X -20
 Y 3 X -6 Y 2 X -10 Y 3 X 3 Y 3 X -7 Y 2 X -1 Y 3 X -21 Y 2 X -4 Y 3 X -59 Y 3 X
 -1 Y 2 X -19 Y 3 X -25 Y 3 X 24 Y 2 X -37 Y 3 X -14 Y 5 X -15 Y 3 X 4 Y 3 X s
 1429 825 m -7 Y 2 X -17 Y 3 X -2 Y 2 X -3 Y 3 X -20 Y 5 X -11 Y 3 X 2 Y 3 X -12
 Y 2 X 6 Y 6 X -12 Y 2 X -2 Y 3 X -15 Y 3 X -13 Y 2 X -7 Y 3 X -4 Y 2 X -14 Y 3
 X -8 Y 3 X -1 Y 2 X -14 Y 3 X -7 Y 3 X 10 Y 2 X 13 Y 3 X -20 Y 5 X -6 Y 3 X -14
 Y 3 X -29 Y 5 X -7 Y 2 X -13 Y 3 X -8 Y 3 X -11 Y 2 X 9 Y 3 X 6 Y 3 X 1 Y 5 X
 -15 Y 3 X -9 Y 2 X -8 Y 3 X -31 Y 3 X -11 Y 2 X -7 Y 3 X -3 Y 2 X 3 Y 3 X -6 Y
 3 X -7 Y 2 X -9 Y 3 X -12 Y 5 X -16 Y 3 X -4 Y 3 X -9 Y 2 X 1 Y 3 X -9 Y 5 X 1
 Y 3 X 4 Y 2 X -17 Y 3 X -17 Y 3 X 11 Y 2 X 1 Y 3 X -17 Y 3 X -6 Y 2 X -9 Y 3 X
 10 Y 3 X 2 Y 2 X -27 Y 3 X -6 Y 5 X -10 Y 3 X 10 Y 2 X 2 Y 6 X 1 Y 2 X 3 Y 6 X
 -37 Y 2 X -10 Y 6 X 3 Y 5 X 1 Y 3 X 1 Y 5 X -9 Y 2 X 1 Y 3 X -8 Y 3 X -2 Y 2 X
 2 Y 6 X -8 Y 2 X 4 Y 3 X -12 Y 3 X 1 Y 2 X 1 Y 3 X -3 Y 5 X 3 Y 3 X 3 Y 2 X s
 1695 310 m 13 Y 3 X -9 Y 3 X 1 Y 2 X 1 Y 6 X -13 Y 2 X 1 Y 8 X 2 Y 6 X 1 Y 10 X
 -1 Y 3 X 1 Y 2 X 1 Y 3 X 3 Y 3 X 18 Y 2 X -15 Y 3 X 1 Y 5 X 1 Y 3 X 1 Y 5 X -4
 Y 3 X -15 Y 2 X 1 Y 11 X -16 Y 8 X 2 Y 3 X 18 Y 2 X 1 Y 6 X -16 Y 2 X -19 Y 13
 X -1 Y 8 X -1 Y 6 X -1 Y 2 X -1 Y 3 X -1 Y 3 X -2 Y 2 X -2 Y 3 X -2 Y 2 X -3 Y
 3 X -28 Y s [] 0 sd 628 227 m 2 Y 10 X 2 Y 3 X -2 Y 16 X 2 Y 10 X -1 Y 6 X 1 Y
 18 X 2 Y 5 X 1 Y 3 X 2 Y 5 X 2 Y 3 X -1 Y 3 X 2 Y 2 X 1 Y 3 X 2 Y 3 X 3 Y 2 X 3
 Y 6 X 4 Y 2 X 2 Y 3 X 3 Y 2 X 2 Y 3 X 4 Y 3 X 4 Y 2 X 4 Y 3 X 5 Y 3 X 7 Y 2 X 1
 Y 3 X 7 Y 3 X 8 Y 2 X 12 Y 3 X 8 Y 3 X 6 Y 2 X -1 Y 3 X 5 Y 2 X 3 Y 3 X 5 Y 3 X
 3 Y 2 X 10 Y 3 X 13 Y 3 X 2 Y 2 X 3 Y 3 X 10 Y 3 X 6 Y 2 X 5 Y 3 X 7 Y 3 X 7 Y
 2 X 7 Y 3 X 6 Y 2 X 3 Y 3 X 4 Y 5 X 5 Y 3 X 10 Y 3 X 8 Y 2 X 7 Y 3 X 5 Y 3 X 4
 Y 2 X 25 Y 3 X 5 Y 3 X 11 Y 5 X -1 Y 2 X -2 Y 3 X -1 Y 3 X 4 Y 2 X 14 Y 3 X 2 Y
 3 X 11 Y 2 X -3 Y 3 X -7 Y 3 X -4 Y 2 X 8 Y 3 X -15 Y 3 X 22 Y 2 X 5 Y 3 X 1 Y
 2 X 4 Y 3 X 3 Y 3 X -16 Y 2 X 5 Y 3 X 5 Y 3 X s 895 538 m 13 Y 2 X -9 Y 3 X -2
 Y 5 X 4 Y 3 X -1 Y 5 X 7 Y 3 X -1 Y 2 X 5 Y 3 X 17 Y 3 X 1 Y 2 X -4 Y 3 X 6 Y 3
 X 8 Y 2 X 1 Y 3 X 12 Y 3 X 2 Y 2 X 12 Y 3 X 5 Y 3 X 4 Y 2 X 8 Y 3 X 6 Y 2 X 5 Y
 3 X 7 Y 3 X 13 Y 2 X 6 Y 3 X 3 Y 3 X 13 Y 2 X 4 Y 3 X 4 Y 3 X 10 Y 2 X 16 Y 3 X
 26 Y 3 X 15 Y 2 X 4 Y 3 X 19 Y 2 X 6 Y 3 X 6 Y 3 X 14 Y 2 X 4 Y 3 X 3 Y 3 X 12
 Y 2 X 21 Y 3 X 22 Y 3 X 8 Y 2 X 17 Y 3 X -8 Y 3 X 17 Y 2 X 14 Y 3 X 24 Y 2 X 9
 Y 3 X 23 Y 3 X 20 Y 2 X 14 Y 3 X 4 Y 3 X -6 Y 2 X 10 Y 3 X 42 Y 3 X 8 Y 2 X 13
 Y 3 X 22 Y 3 X 22 Y 2 X 2 Y 3 X 1 Y 2 X 17 Y 3 X 4 Y 3 X 7 Y 2 X 9 Y 3 X 28 Y 5
 X -3 Y 3 X 17 Y 3 X 21 Y 2 X 17 Y 3 X -10 Y 3 X -4 Y 2 X 17 Y 3 X 17 Y 2 X 10 Y
 3 X 5 Y 3 X 2 Y 2 X 22 Y 3 X 3 Y 3 X 7 Y 2 X 24 Y 3 X 10 Y 3 X 25 Y 2 X 10 Y 3
 X 2 Y 3 X -2 Y 2 X 20 Y 3 X 2 Y 2 X 3 Y 3 X 7 Y 3 X 11 Y 2 X -8 Y 3 X 24 Y 3 X
 7 Y 2 X -3 Y 3 X 21 Y 3 X s 1162 1460 m -2 Y 2 X -17 Y 6 X 19 Y 2 X 31 Y 3 X
 -12 Y 2 X -25 Y 3 X 9 Y 3 X 6 Y 2 X -22 Y 3 X 10 Y 3 X -9 Y 5 X 3 Y 3 X 15 Y 2
 X -8 Y 3 X -6 Y 3 X -2 Y 2 X -35 Y 3 X -26 Y 2 X -2 Y 3 X 26 Y 3 X 22 Y 2 X 19
 Y 6 X 6 Y 2 X -6 Y 3 X -6 Y 3 X 9 Y 2 X 16 Y 3 X -31 Y 3 X -28 Y 2 X -15 Y 3 X
 30 Y 2 X -4 Y 3 X -22 Y 3 X -19 Y 2 X -18 Y 3 X -4 Y 3 X 4 Y 2 X -7 Y 3 X -54 Y
 3 X -8 Y 2 X 33 Y 3 X 35 Y 3 X 16 Y 2 X -3 Y 3 X -11 Y 2 X -7 Y 3 X -14 Y 3 X 9
 Y 2 X -8 Y 3 X 11 Y 3 X -6 Y 2 X -14 Y 3 X -25 Y 3 X -1 Y 2 X -13 Y 3 X -15 Y 3
 X -13 Y 2 X -7 Y 3 X -13 Y 2 X -5 Y 3 X -27 Y 3 X -20 Y 5 X -8 Y 3 X -2 Y 2 X
 -4 Y 6 X 9 Y 2 X -20 Y 3 X -10 Y 3 X -17 Y 2 X 8 Y 3 X -9 Y 2 X -36 Y 3 X -35 Y
 3 X 5 Y 2 X -36 Y 3 X 46 Y 3 X -22 Y 2 X 11 Y 3 X -30 Y 3 X -9 Y 2 X 4 Y 3 X 19
 Y 3 X -14 Y 2 X -3 Y 3 X -21 Y 2 X -10 Y 3 X -23 Y 3 X -9 Y 2 X -18 Y 3 X -33 Y
 3 X 32 Y 2 X -47 Y 3 X -9 Y 3 X -6 Y 2 X -11 Y 3 X -5 Y 3 X s 1429 886 m -18 Y
 2 X -9 Y 3 X -4 Y 2 X -9 Y 3 X -8 Y 3 X -10 Y 2 X -14 Y 3 X -5 Y 3 X -14 Y 5 X
 -25 Y 3 X -5 Y 2 X -9 Y 3 X -5 Y 3 X -7 Y 2 X 4 Y 3 X -6 Y 2 X -24 Y 3 X -11 Y
 3 X -4 Y 2 X 3 Y 3 X -9 Y 3 X 3 Y 2 X -3 Y 3 X -9 Y 3 X -12 Y 2 X -10 Y 3 X -5
 Y 3 X -19 Y 2 X 7 Y 3 X -12 Y 2 X -13 Y 3 X 1 Y 3 X -8 Y 2 X -3 Y 3 X -13 Y 3 X
 -12 Y 2 X -6 Y 3 X -7 Y 8 X -13 Y 3 X -1 Y 2 X -13 Y 3 X -8 Y 2 X -4 Y 3 X -4 Y
 3 X -13 Y 2 X -14 Y 3 X 5 Y 3 X -7 Y 2 X -7 Y 3 X -2 Y 3 X 1 Y 8 X -7 Y 5 X -3
 Y 5 X -13 Y 3 X -5 Y 2 X -6 Y 3 X -7 Y 3 X -4 Y 2 X -7 Y 3 X -6 Y 3 X -6 Y 2 X
 -7 Y 3 X -4 Y 5 X -7 Y 5 X 3 Y 3 X -8 Y 3 X -7 Y 2 X 3 Y 3 X -8 Y 3 X -5 Y 5 X
 -8 Y 3 X -5 Y 2 X -8 Y 3 X 2 Y 8 X 3 Y 2 X 1 Y 3 X -6 Y 3 X -2 Y 2 X 2 Y 3 X 1
 Y 3 X 5 Y 2 X -4 Y 6 X -6 Y 2 X -10 Y 3 X -4 Y 5 X -5 Y 3 X 4 Y 2 X s 1695 352
 m 1 Y 3 X -8 Y 5 X 3 Y 8 X 2 Y 3 X 1 Y 5 X -8 Y 6 X -9 Y 2 X -1 Y 5 X 2 Y 3 X
 -2 Y 3 X 1 Y 2 X -9 Y 3 X -8 Y 3 X 3 Y 5 X 14 Y 5 X 2 Y 6 X -1 Y 2 X -5 Y 3 X
 -9 Y 2 X 1 Y 3 X 1 Y 8 X -10 Y 3 X 1 Y 5 X 4 Y 3 X -1 Y 2 X 1 Y 3 X -11 Y 3 X 4
 Y 2 X 3 Y 5 X 1 Y 3 X 1 Y 3 X 1 Y 2 X 1 Y 3 X 1 Y 3 X 1 Y 2 X 1 Y 3 X 3 Y 5 X 1
 Y 3 X 1 Y 3 X 1 Y 5 X 2 Y 2 X 15 Y 3 X -14 Y 3 X 1 Y 2 X 3 Y 3 X 1 Y 3 X 2 Y 2
 X 2 Y 3 X 3 Y 5 X 2 Y 3 X 3 Y 5 X 3 Y 5 X 3 Y 8 X 3 Y 3 X -17 Y 3 X 2 Y 2 X
 -114 Y 3 X s [12 15 4 15] 0 sd 628 227 m 26 X 2 Y 3 X 2 Y 2 X 9 Y 3 X 42 Y 3 X
 22 Y 2 X 61 Y 3 X 120 Y 3 X 111 Y 2 X 74 Y 3 X 106 Y 3 X 92 Y 2 X 101 Y 3 X 54
 Y 3 X 39 Y 2 X 73 Y 3 X 45 Y 2 X 23 Y 3 X 34 Y 3 X 33 Y 2 X 22 Y 3 X 17 Y 3 X 7
 Y 2 X 17 Y 3 X 15 Y 5 X 6 Y 3 X 7 Y 3 X -1 Y 2 X 10 Y 3 X 33 Y 2 X -14 Y 3 X 11
 Y 3 X 11 Y 2 X 1 Y 3 X 22 Y 3 X 12 Y 2 X 9 Y 6 X 16 Y 2 X 1 Y 3 X 4 Y 3 X 15 Y
 2 X 2 Y 3 X 16 Y 2 X -4 Y 3 X 1 Y 3 X 15 Y 8 X 7 Y 2 X 1 Y 3 X 1 Y 3 X 6 Y 2 X
 -5 Y 6 X 17 Y 2 X -1 Y 3 X -8 Y 2 X 6 Y 3 X 5 Y 3 X -4 Y 2 X 12 Y 3 X -9 Y 3 X
 6 Y 2 X -3 Y 3 X -1 Y 3 X 4 Y 2 X 9 Y 3 X 2 Y 3 X 1 Y 2 X -1 Y 3 X 11 Y 2 X -1
 Y 3 X -3 Y 3 X 4 Y 2 X 6 Y 3 X -13 Y 3 X -1 Y 2 X -5 Y 3 X -11 Y 3 X -2 Y 2 X 4
 Y 3 X -7 Y 3 X 4 Y 2 X -13 Y 3 X -3 Y 2 X -4 Y 3 X -3 Y 3 X -8 Y 2 X -9 Y 6 X s
 895 1512 m 1 Y 2 X -12 Y 3 X -1 Y 3 X -7 Y 2 X 4 Y 3 X 2 Y 3 X -1 Y 2 X -2 Y 3
 X 6 Y 2 X -6 Y 3 X 2 Y 3 X 4 Y 2 X 1 Y 3 X 2 Y 3 X 1 Y 2 X 13 Y 3 X 6 Y 5 X 8 Y
 3 X 9 Y 3 X 7 Y 2 X -3 Y 3 X 1 Y 2 X 8 Y 3 X 12 Y 3 X 1 Y 2 X 4 Y 3 X 8 Y 3 X 7
 Y 2 X -1 Y 3 X 9 Y 3 X 3 Y 2 X 8 Y 3 X 1 Y 3 X 3 Y 2 X 2 Y 3 X 10 Y 2 X -5 Y 3
 X 2 Y 3 X 11 Y 2 X -1 Y 3 X 7 Y 3 X 6 Y 5 X 3 Y 3 X 3 Y 2 X 5 Y 3 X 4 Y 3 X 10
 Y 2 X -3 Y 3 X 8 Y 2 X -1 Y 3 X -3 Y 3 X 3 Y 2 X 1 Y 6 X 2 Y 2 X 2 Y 6 X 4 Y 2
 X -6 Y 3 X 6 Y 3 X -3 Y 2 X 2 Y 3 X -2 Y 2 X 9 Y 3 X -5 Y 3 X 2 Y 2 X -8 Y 3 X
 5 Y 3 X -1 Y 2 X -6 Y 6 X 2 Y 2 X -5 Y 3 X 2 Y 3 X -6 Y 2 X -2 Y 3 X -7 Y 2 X
 -3 Y 3 X 4 Y 3 X -2 Y 2 X -10 Y 3 X -7 Y 5 X -5 Y 3 X -7 Y 3 X -2 Y 2 X -8 Y 3
 X 8 Y 3 X -11 Y 2 X -8 Y 3 X -2 Y 2 X -4 Y 3 X 1 Y 5 X -2 Y 3 X -5 Y 3 X -3 Y 2
 X 5 Y 3 X -4 Y 3 X s 1162 1592 m 1 Y 2 X 5 Y 3 X 5 Y 3 X -1 Y 2 X 1 Y 3 X 10 Y
 2 X -9 Y 3 X 8 Y 3 X 6 Y 2 X 8 Y 3 X 5 Y 5 X 6 Y 3 X 5 Y 5 X 3 Y 3 X 3 Y 5 X -2
 Y 3 X 7 Y 5 X 3 Y 5 X 3 Y 3 X 3 Y 3 X -3 Y 2 X 3 Y 3 X -5 Y 3 X 5 Y 5 X 2 Y 3 X
 1 Y 2 X -2 Y 3 X 7 Y 2 X -5 Y 6 X 1 Y 2 X 1 Y 3 X -1 Y 3 X 2 Y 2 X 6 Y 3 X 1 Y
 3 X -1 Y 2 X 5 Y 3 X 2 Y 3 X 6 Y 2 X -1 Y 3 X 9 Y 5 X 8 Y 5 X 6 Y 3 X -3 Y 3 X
 7 Y 2 X 3 Y 3 X 5 Y 3 X -2 Y 2 X 4 Y 3 X 9 Y 3 X 10 Y 2 X 4 Y 3 X -2 Y 2 X 7 Y
 3 X 3 Y 3 X 2 Y 5 X 8 Y 3 X -2 Y 2 X 1 Y 3 X 4 Y 3 X -3 Y 2 X 4 Y 3 X -3 Y 5 X
 5 Y 3 X 6 Y 2 X 5 Y 3 X -11 Y 3 X 5 Y 2 X 2 Y 3 X -4 Y 3 X 6 Y 2 X -1 Y 3 X -1
 Y 5 X 3 Y 3 X 1 Y 3 X -3 Y 2 X 2 Y 3 X -2 Y 2 X 7 Y 3 X -1 Y 3 X -4 Y 5 X 5 Y 3
 X 5 Y 2 X -1 Y 3 X -4 Y 5 X 2 Y 6 X s 1429 1787 m 1 Y 5 X 3 Y 5 X 1 Y 3 X -4 Y
 2 X -1 Y 3 X 5 Y 3 X -3 Y 2 X 2 Y 3 X -3 Y 3 X 5 Y 2 X -1 Y 3 X 7 Y 3 X -10 Y 2
 X 1 Y 3 X 6 Y 2 X 7 Y 3 X -4 Y 3 X -5 Y 2 X -2 Y 3 X 9 Y 3 X -9 Y 2 X 5 Y 3 X
 -5 Y 3 X 13 Y 2 X -2 Y 3 X -12 Y 3 X -5 Y 2 X 12 Y 3 X -2 Y 2 X 5 Y 3 X 5 Y 3 X
 -8 Y 2 X 3 Y 3 X 3 Y 3 X -5 Y 2 X 4 Y 3 X -2 Y 3 X 4 Y 2 X -9 Y 3 X 7 Y 3 X -1
 Y 2 X 1 Y 3 X 5 Y 2 X -4 Y 6 X 11 Y 2 X 1 Y 6 X -5 Y 2 X 1 Y 3 X 1 Y 3 X 3 Y 2
 X 1 Y 3 X 4 Y 3 X -7 Y 2 X -8 Y 3 X 6 Y 2 X -7 Y 3 X 5 Y 3 X 8 Y 2 X -11 Y 3 X
 4 Y 3 X 8 Y 2 X -4 Y 3 X 3 Y 3 X -10 Y 5 X 6 Y 3 X 5 Y 2 X -5 Y 3 X 4 Y 2 X 2 Y
 3 X -5 Y 3 X 11 Y 2 X -4 Y 3 X -2 Y 3 X 2 Y 2 X -5 Y 3 X 6 Y 3 X 2 Y 2 X 3 Y 3
 X 3 Y 3 X 8 Y 2 X -14 Y 5 X -3 Y 6 X -5 Y 2 X -1 Y 3 X -3 Y 3 X 6 Y 2 X 11 Y 3
 X 6 Y 3 X -1 Y 2 X 2 Y 3 X -14 Y 3 X 5 Y 2 X 4 Y 3 X -6 Y 2 X s 1695 1826 m -4
 Y 3 X 14 Y 3 X 5 Y 2 X -2 Y 3 X -5 Y 3 X -3 Y 2 X -3 Y 3 X -6 Y 3 X 19 Y 2 X
 -15 Y 3 X 14 Y 3 X -16 Y 2 X 13 Y 3 X -10 Y 2 X 8 Y 3 X 8 Y 3 X -17 Y 2 X 6 Y 3
 X 2 Y 3 X 5 Y 5 X -4 Y 3 X 5 Y 2 X -2 Y 3 X 5 Y 3 X -15 Y 2 X -5 Y 3 X 5 Y 5 X
 15 Y 3 X -17 Y 2 X -1 Y 3 X 1 Y 3 X 2 Y 2 X -9 Y 3 X 4 Y 3 X 6 Y 2 X -7 Y 3 X
 -2 Y 3 X 4 Y 2 X -13 Y 3 X 13 Y 2 X -13 Y 3 X -3 Y 3 X 11 Y 2 X -16 Y 3 X 16 Y
 3 X 19 Y 2 X -28 Y 3 X -5 Y 3 X 5 Y 2 X -5 Y 3 X 3 Y 3 X 10 Y 2 X -9 Y 3 X -15
 Y 2 X 2 Y 3 X 12 Y 3 X 1 Y 2 X 6 Y 3 X -10 Y 3 X 10 Y 2 X -20 Y 3 X -18 Y 3 X
 20 Y 2 X -18 Y 3 X 28 Y 3 X -24 Y 2 X -5 Y 3 X 28 Y 2 X -12 Y 3 X -16 Y 5 X -31
 Y 3 X 11 Y 3 X 2 Y 2 X -1533 Y 3 X s [4 8] 0 sd 628 227 m 26 X 1 Y 3 X 5 Y 2 X
 17 Y 3 X 32 Y 3 X 23 Y 2 X 77 Y 3 X 109 Y 3 X 137 Y 2 X 78 Y 3 X 93 Y 3 X 92 Y
 2 X 108 Y 3 X 54 Y 3 X 43 Y 2 X 78 Y 3 X 39 Y 2 X 23 Y 3 X 31 Y 3 X 37 Y 2 X 20
 Y 3 X 17 Y 3 X 9 Y 2 X 18 Y 3 X 16 Y 3 X -3 Y 2 X 8 Y 3 X 9 Y 3 X 3 Y 2 X 9 Y 3
 X 33 Y 2 X -14 Y 3 X 1 Y 3 X 11 Y 2 X -6 Y 3 X 20 Y 3 X 13 Y 2 X 2 Y 3 X 4 Y 3
 X 14 Y 2 X -4 Y 3 X 1 Y 3 X 13 Y 2 X -1 Y 3 X 14 Y 2 X -6 Y 3 X 2 Y 3 X 14 Y 8
 X 7 Y 2 X 1 Y 3 X 1 Y 3 X 6 Y 2 X -5 Y 6 X 13 Y 2 X -1 Y 3 X -5 Y 2 X 7 Y 3 X 5
 Y 3 X -4 Y 2 X 12 Y 3 X -9 Y 3 X 5 Y 2 X -3 Y 3 X -3 Y 3 X 7 Y 2 X 8 Y 3 X 2 Y
 3 X -1 Y 2 X -1 Y 3 X 14 Y 2 X -4 Y 3 X -3 Y 3 X 4 Y 2 X 3 Y 3 X -6 Y 3 X 1 Y 2
 X -6 Y 3 X -10 Y 3 X 2 Y 2 X 7 Y 3 X -5 Y 3 X 6 Y 2 X -9 Y 8 X 1 Y 3 X -2 Y 2 X
 -4 Y 6 X s 895 1552 m 6 Y 2 X -12 Y 6 X -5 Y 2 X 3 Y 3 X 1 Y 5 X -2 Y 3 X 8 Y 2
 X -6 Y 3 X 6 Y 3 X 2 Y 2 X 1 Y 6 X -3 Y 2 X 10 Y 3 X 7 Y 3 X -2 Y 2 X 8 Y 3 X 7
 Y 3 X 7 Y 2 X -3 Y 3 X -1 Y 2 X 6 Y 3 X 10 Y 3 X 1 Y 5 X 5 Y 3 X 5 Y 2 X -1 Y 3
 X 5 Y 3 X 1 Y 2 X 10 Y 3 X -1 Y 3 X 4 Y 2 X 1 Y 3 X 6 Y 2 X -3 Y 3 X -2 Y 3 X
 11 Y 2 X -1 Y 3 X 3 Y 3 X 8 Y 5 X 3 Y 3 X -1 Y 2 X 7 Y 3 X 2 Y 3 X 8 Y 2 X -3 Y
 3 X 8 Y 2 X -4 Y 3 X -2 Y 3 X 1 Y 2 X 1 Y 3 X 4 Y 3 X -2 Y 2 X 4 Y 3 X 2 Y 5 X
 -4 Y 3 X 4 Y 3 X -3 Y 2 X 2 Y 5 X 7 Y 6 X -2 Y 2 X -6 Y 3 X 5 Y 3 X -3 Y 2 X -6
 Y 8 X -1 Y 3 X 2 Y 3 X -3 Y 2 X -1 Y 3 X -4 Y 2 X -3 Y 3 X 8 Y 5 X -7 Y 3 X -3
 Y 3 X 2 Y 2 X -3 Y 3 X -2 Y 3 X -2 Y 2 X -4 Y 3 X 8 Y 3 X -4 Y 2 X -7 Y 3 X -1
 Y 2 X -2 Y 3 X 2 Y 3 X -1 Y 2 X 5 Y 3 X -5 Y 3 X -1 Y 2 X 7 Y 3 X -6 Y 3 X s
 1162 1648 m 4 Y 2 X 2 Y 3 X 4 Y 3 X -2 Y 2 X 1 Y 3 X 11 Y 2 X -12 Y 3 X 6 Y 3 X
 6 Y 2 X 6 Y 3 X 5 Y 3 X -1 Y 2 X 3 Y 3 X 1 Y 3 X -3 Y 2 X 5 Y 3 X 2 Y 5 X -6 Y
 3 X 7 Y 2 X 2 Y 3 X 6 Y 3 X -2 Y 2 X 1 Y 3 X 2 Y 3 X -3 Y 2 X 4 Y 3 X -3 Y 5 X
 1 Y 3 X 2 Y 3 X 1 Y 2 X -2 Y 3 X 5 Y 2 X -3 Y 6 X 3 Y 2 X 1 Y 6 X -1 Y 2 X 4 Y
 3 X 1 Y 3 X -3 Y 2 X 10 Y 3 X 2 Y 3 X 4 Y 2 X -1 Y 3 X 9 Y 5 X -1 Y 3 X 3 Y 2 X
 3 Y 3 X -2 Y 3 X 3 Y 2 X 3 Y 3 X 5 Y 3 X -4 Y 2 X 8 Y 3 X 3 Y 3 X 6 Y 2 X 4 Y 3
 X -6 Y 2 X 6 Y 3 X 4 Y 3 X -3 Y 2 X 1 Y 3 X 8 Y 3 X -4 Y 2 X -1 Y 3 X 4 Y 3 X
 -5 Y 2 X 1 Y 3 X -2 Y 3 X 2 Y 2 X 3 Y 3 X 8 Y 2 X 5 Y 3 X -10 Y 3 X 6 Y 2 X 2 Y
 3 X -4 Y 3 X 6 Y 2 X -1 Y 3 X -1 Y 5 X 3 Y 3 X 1 Y 3 X -3 Y 2 X 2 Y 3 X -2 Y 2
 X 7 Y 3 X -1 Y 3 X -4 Y 5 X 5 Y 3 X 5 Y 2 X -1 Y 3 X -4 Y 5 X 2 Y 6 X s 1429
 1787 m 1 Y 5 X 1 Y 2 X 2 Y 3 X -1 Y 3 X -4 Y 2 X 1 Y 3 X 2 Y 5 X 2 Y 3 X -3 Y 3
 X 5 Y 2 X -1 Y 3 X 7 Y 3 X -10 Y 2 X 1 Y 3 X 5 Y 2 X 5 Y 3 X -2 Y 3 X -4 Y 2 X
 -3 Y 3 X 9 Y 3 X -8 Y 2 X 2 Y 3 X -2 Y 3 X 13 Y 2 X -3 Y 3 X -12 Y 3 X -4 Y 2 X
 8 Y 5 X 4 Y 3 X 8 Y 3 X -8 Y 2 X 3 Y 3 X 5 Y 3 X -4 Y 2 X 5 Y 3 X -3 Y 3 X 2 Y
 2 X -7 Y 3 X 7 Y 3 X -4 Y 2 X 1 Y 3 X 6 Y 2 X -4 Y 3 X -1 Y 3 X 11 Y 2 X 1 Y 6
 X -5 Y 5 X -2 Y 3 X 2 Y 2 X 4 Y 3 X 1 Y 3 X -3 Y 2 X -7 Y 3 X 6 Y 2 X -7 Y 3 X
 3 Y 3 X 8 Y 2 X -12 Y 3 X 6 Y 3 X 9 Y 2 X -4 Y 3 X 3 Y 3 X -10 Y 5 X 6 Y 3 X 5
 Y 2 X -5 Y 3 X 4 Y 2 X 3 Y 3 X -5 Y 3 X 10 Y 2 X -4 Y 3 X -2 Y 3 X 2 Y 2 X -5 Y
 3 X 6 Y 3 X 2 Y 2 X 3 Y 3 X 3 Y 3 X 8 Y 2 X -14 Y 5 X -3 Y 6 X -5 Y 2 X -1 Y 3
 X -3 Y 3 X 6 Y 2 X 11 Y 3 X 6 Y 3 X -1 Y 2 X 2 Y 3 X -14 Y 3 X 5 Y 2 X 4 Y 3 X
 -8 Y 2 X s 1695 1824 m -4 Y 3 X 16 Y 3 X 6 Y 2 X -3 Y 3 X -5 Y 3 X -3 Y 2 X -3
 Y 3 X -6 Y 3 X 19 Y 2 X -15 Y 3 X 14 Y 3 X -16 Y 2 X 13 Y 3 X -10 Y 2 X 8 Y 3 X
 8 Y 3 X -17 Y 2 X 6 Y 3 X 2 Y 3 X 5 Y 5 X -4 Y 3 X 5 Y 5 X 5 Y 3 X -15 Y 2 X -5
 Y 3 X 5 Y 2 X 2 Y 3 X 13 Y 3 X -15 Y 2 X -1 Y 3 X 2 Y 3 X 1 Y 2 X -11 Y 3 X 4 Y
 3 X 8 Y 2 X -7 Y 3 X -4 Y 3 X 9 Y 2 X -15 Y 3 X 13 Y 2 X -11 Y 3 X -3 Y 3 X 10
 Y 2 X -16 Y 3 X 17 Y 3 X 18 Y 2 X -27 Y 3 X -4 Y 3 X 6 Y 2 X -4 Y 3 X 3 Y 3 X
 13 Y 2 X -10 Y 3 X -14 Y 2 X 4 Y 3 X 14 Y 3 X 1 Y 2 X 6 Y 3 X -12 Y 3 X 10 Y 2
 X -18 Y 3 X -18 Y 3 X 20 Y 2 X -16 Y 3 X 26 Y 3 X -22 Y 2 X -5 Y 3 X 31 Y 2 X
 -13 Y 3 X -12 Y 3 X 1 Y 2 X -30 Y 3 X 11 Y 3 X 5 Y 2 X -1563 Y 3 X s
 [12 12] 0 sd 628 227 m 26 X 3 Y 3 X 5 Y 2 X 19 Y 3 X 40 Y 3 X 50 Y 2 X 63 Y 3 X
 114 Y 3 X 131 Y 2 X 82 Y 3 X 81 Y 3 X 101 Y 2 X 116 Y 3 X 52 Y 3 X 39 Y 2 X 70
 Y 3 X 34 Y 2 X 27 Y 3 X 28 Y 3 X 37 Y 2 X 22 Y 3 X 20 Y 3 X 12 Y 2 X 18 Y 3 X
 20 Y 5 X 4 Y 3 X 13 Y 3 X -6 Y 2 X 13 Y 3 X 31 Y 2 X -19 Y 3 X 6 Y 3 X 6 Y 2 X
 -3 Y 3 X 15 Y 3 X 7 Y 2 X 2 Y 3 X -1 Y 3 X 11 Y 2 X -5 Y 3 X 3 Y 3 X 15 Y 2 X
 -5 Y 3 X 13 Y 2 X -3 Y 3 X -1 Y 3 X 14 Y 8 X 7 Y 2 X 1 Y 3 X 1 Y 3 X 6 Y 2 X -5
 Y 6 X 17 Y 2 X -1 Y 3 X -8 Y 2 X 6 Y 3 X 5 Y 3 X -4 Y 2 X 12 Y 3 X -9 Y 3 X 6 Y
 2 X -3 Y 3 X -1 Y 3 X 4 Y 2 X 9 Y 3 X 2 Y 3 X 1 Y 2 X -1 Y 3 X 11 Y 2 X -1 Y 3
 X -3 Y 3 X 4 Y 2 X 8 Y 3 X -7 Y 3 X 5 Y 2 X 1 Y 3 X -10 Y 3 X 7 Y 2 X 8 Y 6 X 6
 Y 2 X -5 Y 3 X 3 Y 2 X 4 Y 3 X 5 Y 3 X -4 Y 2 X -1 Y 3 X 4 Y 3 X s 895 1601 m 8
 Y 2 X -10 Y 3 X 3 Y 3 X -6 Y 2 X 10 Y 3 X 1 Y 8 X 6 Y 2 X -4 Y 3 X 2 Y 3 X -3 Y
 2 X 3 Y 3 X -4 Y 3 X -5 Y 2 X 10 Y 3 X 5 Y 3 X -3 Y 2 X 8 Y 3 X 9 Y 3 X 5 Y 2 X
 -7 Y 3 X -3 Y 2 X 4 Y 3 X 8 Y 3 X -1 Y 2 X -3 Y 3 X 6 Y 5 X -1 Y 3 X 5 Y 3 X -1
 Y 2 X 8 Y 3 X -4 Y 3 X 2 Y 2 X -3 Y 3 X 8 Y 2 X -5 Y 6 X 7 Y 2 X -2 Y 3 X 1 Y 3
 X 6 Y 2 X -2 Y 3 X 1 Y 3 X -2 Y 2 X 6 Y 3 X 1 Y 3 X 6 Y 5 X 8 Y 2 X -6 Y 3 X -1
 Y 3 X 2 Y 2 X 4 Y 6 X 2 Y 2 X 2 Y 6 X -2 Y 2 X -4 Y 3 X 6 Y 3 X -3 Y 2 X 2 Y 3
 X -2 Y 2 X 9 Y 3 X -2 Y 3 X 2 Y 2 X -4 Y 3 X 5 Y 3 X -1 Y 2 X -5 Y 3 X 3 Y 3 X
 3 Y 2 X 2 Y 3 X 5 Y 3 X -1 Y 2 X -1 Y 3 X -2 Y 2 X -1 Y 3 X 13 Y 3 X -2 Y 2 X
 -6 Y 3 X -7 Y 3 X 5 Y 2 X 3 Y 8 X -1 Y 3 X 8 Y 3 X -5 Y 2 X -4 Y 3 X 3 Y 5 X 2
 Y 3 X 1 Y 2 X 1 Y 3 X 1 Y 3 X -1 Y 2 X 5 Y 3 X -3 Y 3 X s 1162 1704 m 4 Y 2 X
 -1 Y 3 X 4 Y 3 X -6 Y 2 X 3 Y 3 X 6 Y 2 X -11 Y 3 X 8 Y 3 X 4 Y 2 X 8 Y 3 X 1 Y
 3 X -2 Y 2 X 2 Y 6 X -7 Y 2 X 7 Y 6 X -2 Y 2 X -4 Y 3 X 5 Y 2 X 4 Y 3 X 6 Y 3 X
 -2 Y 2 X 1 Y 3 X 2 Y 3 X -3 Y 2 X 4 Y 3 X -3 Y 3 X 2 Y 2 X 1 Y 6 X 1 Y 2 X -2 Y
 3 X 6 Y 2 X -6 Y 6 X 1 Y 2 X -1 Y 3 X 2 Y 3 X -1 Y 2 X 2 Y 3 X 3 Y 3 X -3 Y 2 X
 4 Y 3 X 2 Y 3 X 1 Y 2 X 4 Y 3 X 6 Y 2 X 1 Y 3 X -1 Y 5 X 4 Y 3 X -5 Y 3 X 3 Y 2
 X 1 Y 3 X 1 Y 3 X -4 Y 2 X 6 Y 3 X 3 Y 3 X 3 Y 2 X 2 Y 3 X -8 Y 2 X 4 Y 3 X 2 Y
 3 X 1 Y 2 X -1 Y 3 X 6 Y 5 X -3 Y 3 X 1 Y 3 X -2 Y 2 X 1 Y 3 X -4 Y 5 X 5 Y 3 X
 6 Y 2 X 5 Y 3 X -11 Y 3 X 5 Y 2 X 2 Y 3 X -4 Y 3 X 6 Y 2 X -1 Y 3 X -1 Y 5 X 3
 Y 3 X 1 Y 3 X -3 Y 2 X 2 Y 3 X -2 Y 2 X 7 Y 3 X -1 Y 3 X -4 Y 5 X 5 Y 3 X 5 Y 2
 X -1 Y 3 X -4 Y 5 X 2 Y 6 X s 1429 1787 m 1 Y 5 X 1 Y 2 X -1 Y 3 X 2 Y 3 X -4 Y
 2 X 1 Y 3 X 2 Y 3 X -2 Y 2 X 4 Y 3 X -3 Y 3 X 5 Y 2 X -1 Y 3 X 7 Y 3 X -10 Y 2
 X 1 Y 3 X 6 Y 2 X 6 Y 3 X -4 Y 3 X -4 Y 2 X -3 Y 3 X 9 Y 3 X -10 Y 2 X 4 Y 3 X
 -4 Y 3 X 12 Y 2 X 1 Y 3 X -12 Y 3 X -5 Y 2 X 13 Y 3 X -2 Y 2 X 4 Y 3 X 8 Y 3 X
 -8 Y 2 X 3 Y 3 X 3 Y 3 X -5 Y 2 X 5 Y 3 X -3 Y 3 X 5 Y 2 X -9 Y 3 X 7 Y 3 X -2
 Y 2 X -2 Y 3 X 7 Y 2 X -2 Y 3 X -4 Y 3 X 11 Y 2 X 1 Y 6 X -5 Y 2 X -2 Y 3 X -3
 Y 3 X 5 Y 2 X 2 Y 3 X 3 Y 3 X -7 Y 2 X -7 Y 3 X 8 Y 2 X -9 Y 3 X 5 Y 3 X 8 Y 2
 X -12 Y 3 X 8 Y 3 X 8 Y 2 X -5 Y 3 X 3 Y 3 X -9 Y 5 X 6 Y 3 X 5 Y 2 X -4 Y 3 X
 4 Y 2 X -1 Y 3 X -5 Y 3 X 11 Y 2 X -4 Y 3 X -2 Y 3 X 2 Y 2 X -2 Y 3 X 6 Y 3 X 2
 Y 2 X 3 Y 3 X 3 Y 3 X 8 Y 2 X -14 Y 5 X -3 Y 6 X -5 Y 2 X -1 Y 3 X -3 Y 3 X 6 Y
 2 X 11 Y 3 X 6 Y 3 X -1 Y 2 X 2 Y 3 X -14 Y 3 X 5 Y 2 X 4 Y 3 X -10 Y 2 X s
 1695 1822 m 3 X 14 Y 3 X 6 Y 2 X -3 Y 3 X -5 Y 3 X -3 Y 2 X -3 Y 3 X -6 Y 3 X
 19 Y 2 X -15 Y 3 X 14 Y 3 X -16 Y 2 X 13 Y 3 X -10 Y 2 X 8 Y 3 X 8 Y 3 X -17 Y
 2 X 6 Y 3 X 4 Y 3 X 5 Y 5 X -4 Y 3 X 5 Y 5 X 3 Y 3 X -15 Y 2 X -5 Y 3 X 5 Y 2 X
 4 Y 3 X 15 Y 3 X -14 Y 2 X -2 Y 3 X 2 Y 3 X 1 Y 2 X -8 Y 3 X 3 Y 3 X 8 Y 2 X -7
 Y 3 X -1 Y 3 X 6 Y 2 X -13 Y 3 X 13 Y 2 X -11 Y 3 X -3 Y 3 X 11 Y 2 X -17 Y 3 X
 15 Y 3 X 18 Y 2 X -25 Y 3 X -4 Y 3 X 4 Y 2 X 1 Y 3 X 1 Y 3 X 12 Y 2 X -5 Y 3 X
 -14 Y 2 X 4 Y 3 X 13 Y 3 X 6 Y 2 X 6 Y 3 X -8 Y 3 X 8 Y 2 X -16 Y 3 X -17 Y 3 X
 24 Y 2 X -17 Y 3 X 28 Y 3 X -22 Y 2 X -2 Y 3 X 30 Y 2 X -10 Y 3 X -12 Y 3 X 2 Y
 2 X -28 Y 3 X 12 Y 3 X 7 Y 2 X -1601 Y 3 X s [] 0 sd 628 227 m 24 X 1 Y 2 X 2 Y
 3 X 5 Y 2 X 19 Y 3 X 44 Y 3 X 46 Y 2 X 63 Y 3 X 114 Y 3 X 131 Y 2 X 82 Y 3 X 81
 Y 3 X 101 Y 2 X 126 Y 3 X 59 Y 3 X 35 Y 2 X 72 Y 3 X 38 Y 2 X 25 Y 3 X 34 Y 3 X
 34 Y 2 X 20 Y 3 X 18 Y 3 X 9 Y 2 X 18 Y 3 X 18 Y 3 X 1 Y 2 X 6 Y 3 X 7 Y 3 X -6
 Y 2 X 12 Y 3 X 29 Y 2 X -15 Y 3 X 2 Y 3 X 4 Y 2 X -6 Y 3 X 19 Y 3 X 7 Y 2 X -2
 Y 6 X 11 Y 2 X -6 Y 3 X 3 Y 3 X 17 Y 2 X -7 Y 3 X 13 Y 2 X -3 Y 3 X -1 Y 3 X 14
 Y 8 X 7 Y 2 X 1 Y 3 X 1 Y 3 X 6 Y 2 X -5 Y 6 X 17 Y 2 X -1 Y 3 X -8 Y 2 X 6 Y 3
 X 5 Y 3 X -4 Y 2 X 12 Y 3 X -9 Y 3 X 6 Y 2 X -3 Y 3 X -1 Y 3 X 4 Y 2 X 9 Y 3 X
 2 Y 3 X 1 Y 2 X -1 Y 3 X 11 Y 2 X -1 Y 3 X -3 Y 3 X 4 Y 2 X 8 Y 3 X -7 Y 3 X 5
 Y 2 X 1 Y 3 X -10 Y 3 X 7 Y 2 X 8 Y 6 X 6 Y 2 X -2 Y 3 X 1 Y 2 X 3 Y 3 X 6 Y 3
 X -5 Y 5 X 3 Y 3 X s 895 1601 m 10 Y 2 X -8 Y 3 X 3 Y 3 X -4 Y 2 X 8 Y 3 X 2 Y
 3 X 1 Y 2 X -2 Y 3 X 7 Y 2 X -1 Y 3 X 5 Y 3 X -1 Y 2 X 1 Y 6 X -2 Y 2 X 7 Y 3 X
 3 Y 3 X -2 Y 2 X 4 Y 3 X 7 Y 3 X 3 Y 2 X -6 Y 3 X -2 Y 2 X 4 Y 3 X 3 Y 3 X -1 Y
 5 X 6 Y 3 X 2 Y 2 X -3 Y 3 X 3 Y 3 X -1 Y 2 X 4 Y 3 X 1 Y 3 X 3 Y 2 X -2 Y 3 X
 4 Y 2 X -5 Y 3 X -1 Y 3 X 8 Y 2 X -1 Y 3 X 4 Y 3 X 4 Y 2 X -2 Y 3 X 3 Y 3 X 1 Y
 2 X 1 Y 3 X -1 Y 3 X 6 Y 5 X 6 Y 2 X -6 Y 6 X 3 Y 2 X 1 Y 6 X 2 Y 2 X 2 Y 6 X
 -2 Y 2 X 3 Y 3 X 3 Y 3 X -3 Y 2 X 5 Y 3 X -2 Y 2 X 7 Y 3 X 2 Y 5 X -6 Y 3 X 5 Y
 3 X -1 Y 2 X -2 Y 3 X 2 Y 3 X 3 Y 2 X 1 Y 3 X 2 Y 3 X -2 Y 5 X 2 Y 2 X -1 Y 3 X
 9 Y 5 X -2 Y 3 X -3 Y 3 X 5 Y 2 X 1 Y 3 X 2 Y 5 X -1 Y 3 X 8 Y 3 X -5 Y 2 X -4
 Y 3 X 5 Y 5 X 4 Y 3 X 2 Y 2 X 2 Y 3 X -2 Y 3 X -2 Y 2 X 4 Y 6 X s 1162 1721 m 4
 Y 2 X -4 Y 3 X 1 Y 3 X 1 Y 2 X -1 Y 3 X 6 Y 2 X -10 Y 3 X 5 Y 3 X 1 Y 2 X 6 Y 3
 X 1 Y 3 X 1 Y 2 X 1 Y 3 X -2 Y 5 X 2 Y 6 X 1 Y 2 X -2 Y 3 X 2 Y 5 X 4 Y 5 X 1 Y
 3 X 3 Y 3 X -3 Y 2 X 4 Y 3 X -1 Y 3 X 2 Y 2 X 1 Y 6 X 3 Y 2 X -2 Y 3 X 6 Y 2 X
 -4 Y 3 X 2 Y 3 X 1 Y 2 X -1 Y 3 X -3 Y 3 X 2 Y 2 X 4 Y 3 X -1 Y 3 X -3 Y 2 X 4
 Y 6 X 1 Y 2 X 1 Y 3 X 5 Y 2 X -2 Y 3 X 1 Y 3 X -1 Y 2 X 6 Y 3 X -5 Y 3 X 1 Y 2
 X 1 Y 3 X -2 Y 3 X -1 Y 2 X 4 Y 3 X 2 Y 3 X 2 Y 2 X 2 Y 3 X -8 Y 2 X 4 Y 3 X 2
 Y 3 X 1 Y 2 X -1 Y 3 X 6 Y 5 X -3 Y 3 X 1 Y 3 X -2 Y 2 X 1 Y 3 X -4 Y 5 X 5 Y 3
 X 6 Y 2 X 5 Y 3 X -11 Y 3 X 5 Y 2 X 2 Y 3 X -4 Y 3 X 6 Y 2 X -1 Y 3 X -1 Y 5 X
 3 Y 3 X 1 Y 3 X -3 Y 2 X 2 Y 3 X -2 Y 2 X 7 Y 3 X -1 Y 3 X -4 Y 5 X 5 Y 3 X 5 Y
 2 X -1 Y 3 X -4 Y 5 X 2 Y 6 X s 1429 1787 m 1 Y 5 X 3 Y 5 X 1 Y 3 X -4 Y 2 X -1
 Y 3 X 5 Y 3 X -3 Y 2 X 2 Y 3 X -3 Y 3 X 5 Y 2 X -1 Y 3 X 7 Y 3 X -10 Y 2 X 1 Y
 3 X 6 Y 2 X 7 Y 3 X -4 Y 3 X -5 Y 2 X -2 Y 3 X 9 Y 3 X -7 Y 2 X 3 Y 3 X -5 Y 3
 X 13 Y 2 X -2 Y 3 X -12 Y 3 X -5 Y 2 X 13 Y 3 X -2 Y 2 X 4 Y 3 X 8 Y 3 X -8 Y 2
 X 3 Y 3 X 3 Y 3 X -5 Y 2 X 5 Y 3 X -3 Y 3 X 5 Y 2 X -9 Y 3 X 7 Y 3 X -2 Y 2 X
 -2 Y 3 X 7 Y 2 X -2 Y 3 X -4 Y 3 X 11 Y 2 X 1 Y 6 X -5 Y 2 X 1 Y 3 X 2 Y 3 X 5
 Y 2 X 1 Y 3 X 2 Y 3 X -6 Y 2 X -7 Y 3 X 5 Y 2 X -7 Y 3 X 4 Y 3 X 8 Y 2 X -12 Y
 3 X 4 Y 3 X 8 Y 2 X -4 Y 3 X 3 Y 3 X -10 Y 5 X 6 Y 3 X 5 Y 2 X -5 Y 3 X 4 Y 2 X
 3 Y 3 X -5 Y 3 X 10 Y 2 X -4 Y 3 X -2 Y 3 X 2 Y 2 X -5 Y 3 X 6 Y 3 X 2 Y 2 X 3
 Y 3 X 3 Y 3 X 8 Y 2 X -14 Y 5 X -3 Y 6 X -5 Y 2 X -1 Y 3 X -3 Y 3 X 6 Y 2 X 11
 Y 3 X 6 Y 3 X -1 Y 2 X 2 Y 3 X -14 Y 3 X 5 Y 2 X 4 Y 3 X -6 Y 2 X s 1695 1826 m
 -4 Y 3 X 14 Y 3 X 6 Y 2 X -3 Y 3 X -5 Y 3 X -3 Y 2 X -3 Y 3 X -6 Y 3 X 19 Y 2 X
 -15 Y 3 X 14 Y 3 X -16 Y 2 X 13 Y 3 X -10 Y 2 X 8 Y 3 X 8 Y 3 X -17 Y 2 X 6 Y 3
 X 4 Y 3 X 5 Y 5 X -4 Y 3 X 5 Y 5 X 7 Y 3 X -15 Y 2 X -4 Y 3 X 2 Y 2 X 4 Y 3 X
 15 Y 3 X -14 Y 2 X -1 Y 3 X 1 Y 3 X 1 Y 2 X -8 Y 3 X 3 Y 3 X 9 Y 2 X -8 Y 3 X
 -1 Y 3 X 6 Y 2 X -13 Y 3 X 13 Y 2 X -11 Y 3 X -3 Y 3 X 15 Y 2 X -16 Y 3 X 17 Y
 3 X 19 Y 2 X -24 Y 3 X -3 Y 3 X 5 Y 2 X -4 Y 3 X 5 Y 3 X 11 Y 2 X -6 Y 3 X -14
 Y 2 X 6 Y 3 X 15 Y 3 X 5 Y 2 X 8 Y 3 X -10 Y 3 X 10 Y 2 X -19 Y 3 X -16 Y 3 X
 23 Y 2 X -16 Y 3 X 28 Y 3 X -22 Y 2 X -3 Y 3 X 31 Y 2 X -12 Y 3 X -13 Y 3 X 3 Y
 2 X -29 Y 3 X 12 Y 3 X 7 Y 2 X -1611 Y 3 X s 3968 2267 0 0 C 1616 1757 283 227
 C 3968 2267 0 0 C
 gsave  1369 1611
 t   0 r 0 0 m
 /Helvetica findfont   78 sf 0    0 m 
(Transmittance)
 show 
 gr
 1616 1757 283 227 C 3968 2267 0 0 C 1616 1757 283 227 C 3968 2267 0 0 C
 gsave  1422 1172
 t   0 r 0 0 m
 /Helvetica findfont   78 sf 0    0 m 
(Emission)
 show 
 gr
 1616 1757 283 227 C 3968 2267 0 0 C 1616 1757 283 227 C 3968 2267 0 0 C
 gsave  442 1646
 t   0 r 0 0 m
 /Helvetica findfont   78 sf 0    0 m 
(Excitation)
 show 
 gr
 1616 1757 283 227 C 4 lw 1502 1070 m 132 X s 3968 2267 0 0 C 1616 1757 283 227
 C 3968 2267 0 0 C
 /xs 0 def 
(0 rad)
 /Helvetica     70 stwn 
 gsave  1886 1045
 t   0 r  xs neg 0 t 0 0 m
 /Helvetica findfont   70 sf 0    0 m 
(0 rad)
 show 
 gr
 1616 1757 283 227 C [12 12] 0 sd 1502 965 m 132 X s 3968 2267 0 0 C 1616 1757
 283 227 C 3968 2267 0 0 C
 /xs 0 def 
(10 rad)
 /Helvetica     70 stwn 
 gsave  1886 939
 t   0 r  xs neg 0 t 0 0 m
 /Helvetica findfont   70 sf 0    0 m 
(10 rad)
 show 
 gr
 1616 1757 283 227 C [4 8] 0 sd 1502 859 m 132 X s 3968 2267 0 0 C 1616 1757 283
 227 C 3968 2267 0 0 C
 /xs 0 def 
(100 rad)
 /Helvetica     70 stwn 
 gsave  1886 834
 t   0 r  xs neg 0 t 0 0 m
 /Helvetica findfont   70 sf 0    0 m 
(100 rad)
 show 
 gr
 1616 1757 283 227 C [12 15 4 15] 0 sd 1502 754 m 132 X s 3968 2267 0 0 C 1616
 1757 283 227 C 3968 2267 0 0 C
 /xs 0 def 
(1 krad)
 /Helvetica     70 stwn 
 gsave  1886 728
 t   0 r  xs neg 0 t 0 0 m
 /Helvetica findfont   70 sf 0    0 m 
(1 krad)
 show 
 gr
 1616 1757 283 227 C 3968 2267 0 0 C 1616 1757 283 227 C 3968 2267 0 0 C
 gsave  416 1834
 t   0 r 0 0 m
 /Helvetica-Oblique findfont  117 sf 0    0 m 
(SIC)
 dup oshow
 gr
 1616 1757 283 227 C 3968 2267 0 0 C 1616 1757 283 227 C 3968 2267 0 0 C
 gsave  416 1834
 t   0 r 0 0 m
 /Helvetica-BoldOblique findfont  117 sf 0    0 m 
(SIC)
 dup oshow
 gr
 1616 1757 283 227 C [] 0 sd 10 lw 403 1808 m 251 X s 3968 2267 0 0 C
 /xs 0 def 
(wavelength \(nm\))
 /Helvetica     70 stwn 
 gsave  1899 48
 t   0 r  xs neg 0 t 0 0 m
 /Helvetica findfont   70 sf 0    0 m 
(wavelength \(nm\))
 show 
 gr
 /xs 0 def 
(Transmittance \(%\), Intensity)
 /Helvetica     70 stwn 
 gsave  91 1984
 t  90 r  xs neg 0 t 0 0 m
 /Helvetica findfont   70 sf 0    0 m 
(Transmittance \(%\), Intensity)
 show 
 gr
 1616 1757 283 227 C NC 1 lw 1615 1757 2126 227 bl 1615 1757 2126 227 C NC 2126
 227 m 1757 Y s 2160 227 m -34 X s [4 8] 0 sd 3741 227 m -1615 X s [] 0 sd 2143
 262 m -17 X s 2143 297 m -17 X s 2143 332 m -17 X s 2143 367 m -17 X s 2160 402
 m -34 X s [4 8] 0 sd 3741 402 m -1615 X s [] 0 sd 2143 438 m -17 X s 2143 473 m
 -17 X s 2143 508 m -17 X s 2143 543 m -17 X s 2160 578 m -34 X s [4 8] 0 sd
 3741 578 m -1615 X s [] 0 sd 2143 613 m -17 X s 2143 648 m -17 X s 2143 684 m
 -17 X s 2143 719 m -17 X s 2160 754 m -34 X s [4 8] 0 sd 3741 754 m -1615 X s
 [] 0 sd 2143 789 m -17 X s 2143 824 m -17 X s 2143 859 m -17 X s 2143 895 m -17
 X s 2160 930 m -34 X s [4 8] 0 sd 3741 930 m -1615 X s [] 0 sd 2143 965 m -17 X
 s 2143 1000 m -17 X s 2143 1035 m -17 X s 2143 1070 m -17 X s 2160 1105 m -34 X
 s [4 8] 0 sd 3741 1105 m -1615 X s [] 0 sd 2143 1141 m -17 X s 2143 1176 m -17
 X s 2143 1211 m -17 X s 2143 1246 m -17 X s 2160 1281 m -34 X s [4 8] 0 sd 3741
 1281 m -1615 X s [] 0 sd 2143 1316 m -17 X s 2143 1351 m -17 X s 2143 1387 m
 -17 X s 2143 1422 m -17 X s 2160 1457 m -34 X s [4 8] 0 sd 3741 1457 m -1615 X
 s [] 0 sd 2143 1492 m -17 X s 2143 1527 m -17 X s 2143 1562 m -17 X s 2143 1597
 m -17 X s 2160 1633 m -34 X s [4 8] 0 sd 3741 1633 m -1615 X s [] 0 sd 2143
 1668 m -17 X s 2143 1703 m -17 X s 2143 1738 m -17 X s 2143 1773 m -17 X s 2160
 1808 m -34 X s [4 8] 0 sd 3741 1808 m -1615 X s [] 0 sd 2143 1843 m -17 X s
 2143 1879 m -17 X s 2143 1914 m -17 X s 2143 1949 m -17 X s 2160 1984 m -34 X s
 [4 8] 0 sd 3741 1984 m -1615 X s
 /xs 0 def 
(0)
 /Helvetica     67 stwn 
 gsave  2080 202
 t   0 r  xs neg 0 t 0 0 m
 /Helvetica findfont   67 sf 0    0 m 
(0)
 show 
 gr
 /xs 0 def 
(10)
 /Helvetica     67 stwn 
 gsave  2080 378
 t   0 r  xs neg 0 t 0 0 m
 /Helvetica findfont   67 sf 0    0 m 
(10)
 show 
 gr
 /xs 0 def 
(20)
 /Helvetica     67 stwn 
 gsave  2080 554
 t   0 r  xs neg 0 t 0 0 m
 /Helvetica findfont   67 sf 0    0 m 
(20)
 show 
 gr
 /xs 0 def 
(30)
 /Helvetica     67 stwn 
 gsave  2080 730
 t   0 r  xs neg 0 t 0 0 m
 /Helvetica findfont   67 sf 0    0 m 
(30)
 show 
 gr
 /xs 0 def 
(40)
 /Helvetica     67 stwn 
 gsave  2080 905
 t   0 r  xs neg 0 t 0 0 m
 /Helvetica findfont   67 sf 0    0 m 
(40)
 show 
 gr
 /xs 0 def 
(50)
 /Helvetica     67 stwn 
 gsave  2080 1081
 t   0 r  xs neg 0 t 0 0 m
 /Helvetica findfont   67 sf 0    0 m 
(50)
 show 
 gr
 /xs 0 def 
(60)
 /Helvetica     67 stwn 
 gsave  2080 1257
 t   0 r  xs neg 0 t 0 0 m
 /Helvetica findfont   67 sf 0    0 m 
(60)
 show 
 gr
 /xs 0 def 
(70)
 /Helvetica     67 stwn 
 gsave  2080 1432
 t   0 r  xs neg 0 t 0 0 m
 /Helvetica findfont   67 sf 0    0 m 
(70)
 show 
 gr
 /xs 0 def 
(80)
 /Helvetica     67 stwn 
 gsave  2080 1608
 t   0 r  xs neg 0 t 0 0 m
 /Helvetica findfont   67 sf 0    0 m 
(80)
 show 
 gr
 /xs 0 def 
(90)
 /Helvetica     67 stwn 
 gsave  2080 1784
 t   0 r  xs neg 0 t 0 0 m
 /Helvetica findfont   67 sf 0    0 m 
(90)
 show 
 gr
 /xs 0 def 
(100)
 /Helvetica     67 stwn 
 gsave  2080 1960
 t   0 r  xs neg 0 t 0 0 m
 /Helvetica findfont   67 sf 0    0 m 
(100)
 show 
 gr
 [] 0 sd 2126 227 m 1615 X s 2152 261 m -34 Y s [4 8] 0 sd 2152 1984 m -1757 Y s
 [] 0 sd 2285 244 m -17 Y s 2417 244 m -17 Y s 2549 244 m -17 Y s 2682 261 m -34
 Y s [4 8] 0 sd 2682 1984 m -1757 Y s [] 0 sd 2814 244 m -17 Y s 2947 244 m -17
 Y s 3079 244 m -17 Y s 3212 261 m -34 Y s [4 8] 0 sd 3212 1984 m -1757 Y s
 [] 0 sd 3344 244 m -17 Y s 3476 244 m -17 Y s 3609 244 m -17 Y s 3741 261 m -34
 Y s [4 8] 0 sd 3741 1984 m -1757 Y s [] 0 sd 2152 261 m -34 Y s [4 8] 0 sd 2152
 1984 m -1757 Y s
 /xs 0 def 
(200)
 /Helvetica     67 stwn 
 gsave  2152 155
 t   0 r  xs 2 div neg 0 t 0 0 m
 /Helvetica findfont   67 sf 0    0 m 
(200)
 show 
 gr
 /xs 0 def 
(400)
 /Helvetica     67 stwn 
 gsave  2682 155
 t   0 r  xs 2 div neg 0 t 0 0 m
 /Helvetica findfont   67 sf 0    0 m 
(400)
 show 
 gr
 /xs 0 def 
(600)
 /Helvetica     67 stwn 
 gsave  3212 155
 t   0 r  xs 2 div neg 0 t 0 0 m
 /Helvetica findfont   67 sf 0    0 m 
(600)
 show 
 gr
 /xs 0 def 
(800)
 /Helvetica     67 stwn 
 gsave  3741 155
 t   0 r  xs 2 div neg 0 t 0 0 m
 /Helvetica findfont   67 sf 0    0 m 
(800)
 show 
 gr
 1615 1757 2126 227 C [12 15 4 15] 0 sd 2 lw 2152 227 m 4 Y 3 X 2 Y 2 X -1 Y 6 X
 -1 Y 5 X 1 Y 5 X 2 Y 6 X 1 Y 5 X 2 Y 2 X 2 Y 3 X 1 Y 3 X 4 Y 2 X 5 Y 3 X 4 Y 3
 X 3 Y 5 X 1 Y 3 X 1 Y 2 X 12 Y 3 X 9 Y 2 X 5 Y 3 X 5 Y 3 X 7 Y 2 X 6 Y 3 X 7 Y
 3 X 7 Y 2 X 10 Y 3 X 16 Y 2 X 12 Y 3 X 20 Y 3 X 14 Y 2 X 21 Y 3 X 30 Y 3 X 23 Y
 2 X 10 Y 3 X 18 Y 3 X 18 Y 2 X 10 Y 3 X 14 Y 2 X 11 Y 3 X 3 Y 3 X 15 Y 2 X 3 Y
 3 X 34 Y 3 X 10 Y 2 X 29 Y 3 X 24 Y 3 X 29 Y 2 X 19 Y 3 X 23 Y 2 X -1 Y 3 X 32
 Y 3 X 21 Y 2 X 33 Y 3 X 10 Y 3 X 18 Y 2 X 17 Y 3 X 9 Y 2 X 17 Y 3 X 17 Y 3 X 29
 Y 2 X 25 Y 3 X 8 Y 3 X 14 Y 2 X 16 Y 6 X 20 Y 2 X 11 Y 3 X 2 Y 2 X 8 Y 3 X -6 Y
 3 X 24 Y 2 X 11 Y 3 X 7 Y 3 X 19 Y 2 X 8 Y 3 X 17 Y 3 X 14 Y 2 X 7 Y 3 X 13 Y 2
 X 18 Y 3 X 7 Y 3 X 13 Y 2 X 27 Y 3 X 21 Y 3 X 11 Y 2 X 28 Y 3 X 18 Y 3 X 31 Y 2
 X 6 Y 3 X -6 Y 2 X 14 Y 3 X 24 Y 3 X 12 Y 2 X 22 Y 3 X 8 Y 3 X 21 Y 2 X s 2418
 1427 m 19 Y 3 X 20 Y 2 X -20 Y 3 X 18 Y 3 X 11 Y 2 X 21 Y 3 X 9 Y 3 X 7 Y 2 X
 -8 Y 3 X 9 Y 3 X 2 Y 2 X -9 Y 3 X 10 Y 2 X -3 Y 3 X -6 Y 3 X -6 Y 2 X -42 Y 3 X
 -57 Y 3 X -57 Y 2 X -42 Y 3 X -89 Y 3 X -83 Y 2 X -71 Y 3 X -87 Y 2 X -86 Y 3 X
 -80 Y 3 X -167 Y 2 X -41 Y 3 X -81 Y 3 X -66 Y 2 X -40 Y 3 X -47 Y 2 X -35 Y 3
 X -16 Y 3 X -9 Y 2 X -10 Y 3 X -13 Y 3 X -10 Y 2 X -10 Y 3 X -4 Y 3 X -4 Y 2 X
 -3 Y 3 X -2 Y 2 X -3 Y 3 X -2 Y 3 X -4 Y 5 X -2 Y 11 X -2 Y 2 X -2 Y 3 X -2 Y 5
 X -2 Y 3 X 2 Y 13 X -2 Y 13 X -1 Y 13 X 2 Y 3 X -2 Y 2 X 2 Y 8 X -1 Y 11 X -3 Y
 s [4 8] 0 sd 2152 227 m 8 Y 13 X -2 Y 3 X 2 Y 11 X 1 Y 2 X 1 Y 5 X 2 Y 6 X 5 Y
 2 X 4 Y 3 X 1 Y 5 X 4 Y 3 X 5 Y 3 X 8 Y 2 X 3 Y 3 X 11 Y 2 X 12 Y 3 X 7 Y 3 X 2
 Y 2 X 7 Y 3 X 11 Y 3 X 11 Y 2 X 9 Y 3 X 14 Y 2 X 18 Y 3 X 11 Y 3 X 17 Y 2 X 14
 Y 3 X 31 Y 3 X 20 Y 2 X 19 Y 3 X 11 Y 3 X 20 Y 2 X 13 Y 3 X 14 Y 2 X 20 Y 3 X
 17 Y 3 X 12 Y 2 X 17 Y 3 X 20 Y 3 X 9 Y 2 X 11 Y 3 X 12 Y 3 X 17 Y 2 X 16 Y 3 X
 28 Y 2 X 33 Y 3 X 28 Y 3 X 24 Y 2 X 16 Y 3 X 15 Y 3 X 28 Y 2 X 15 Y 3 X 11 Y 2
 X 15 Y 3 X 4 Y 3 X 13 Y 2 X 33 Y 3 X 8 Y 3 X 9 Y 2 X 7 Y 3 X 42 Y 3 X 21 Y 2 X
 12 Y 3 X 21 Y 2 X 16 Y 3 X 6 Y 3 X 6 Y 2 X 9 Y 3 X 8 Y 3 X 18 Y 2 X 10 Y 3 X 8
 Y 3 X 14 Y 2 X 11 Y 3 X 13 Y 2 X 20 Y 3 X 17 Y 3 X 3 Y 2 X 4 Y 3 X 3 Y 3 X 24 Y
 2 X 31 Y 3 X 17 Y 3 X 18 Y 2 X 9 Y 3 X 26 Y 2 X 21 Y 3 X 23 Y 3 X 25 Y 2 X 13 Y
 3 X 25 Y 3 X 11 Y 2 X s 2418 1484 m 14 Y 5 X 4 Y 3 X 2 Y 3 X 2 Y 2 X 7 Y 3 X 36
 Y 3 X 3 Y 2 X 15 Y 3 X 10 Y 3 X -12 Y 2 X -23 Y 3 X 13 Y 2 X 2 Y 3 X 4 Y 3 X
 -14 Y 2 X -8 Y 3 X -15 Y 3 X -11 Y 2 X -42 Y 3 X -105 Y 3 X -95 Y 2 X -102 Y 3
 X -102 Y 2 X -88 Y 3 X -98 Y 3 X -96 Y 2 X -74 Y 3 X -112 Y 3 X -77 Y 2 X -66 Y
 3 X -39 Y 2 X -41 Y 3 X -32 Y 3 X -24 Y 2 X -11 Y 3 X -15 Y 3 X -11 Y 2 X -5 Y
 3 X -6 Y 3 X -4 Y 2 X -5 Y 3 X -6 Y 2 X -1 Y 3 X -4 Y 3 X -1 Y 2 X -1 Y 3 X -2
 Y 3 X -2 Y 2 X -2 Y 3 X 2 Y 3 X -2 Y 2 X -1 Y 3 X -1 Y 2 X -3 Y 6 X -4 Y 2 X 2
 Y 3 X -4 Y 16 X 2 Y 2 X -2 Y 3 X 2 Y 16 X -2 Y 8 X 1 Y 2 X 1 Y 8 X -2 Y 3 X -6
 Y s [12 12] 0 sd 2152 227 m 7 Y 3 X -3 Y 2 X -3 Y 3 X 1 Y 11 X 1 Y 10 X -3 Y 3
 X 1 Y 5 X 3 Y 3 X 3 Y 5 X 7 Y 3 X -3 Y 2 X 9 Y 3 X 3 Y 3 X 4 Y 5 X 6 Y 2 X 6 Y
 3 X 12 Y 3 X 7 Y 2 X 9 Y 3 X 12 Y 3 X 6 Y 2 X 6 Y 3 X 18 Y 2 X 10 Y 3 X 6 Y 3 X
 18 Y 2 X 36 Y 3 X 16 Y 3 X 17 Y 2 X 12 Y 3 X 30 Y 3 X 16 Y 2 X 11 Y 3 X 15 Y 2
 X 8 Y 3 X 21 Y 3 X 17 Y 2 X 16 Y 3 X 19 Y 3 X 7 Y 2 X 21 Y 3 X 16 Y 3 X 40 Y 2
 X 11 Y 3 X 10 Y 2 X 11 Y 3 X 37 Y 3 X 30 Y 2 X 10 Y 3 X 6 Y 3 X 57 Y 2 X 2 Y 3
 X 13 Y 2 X 16 Y 3 X 15 Y 3 X 12 Y 2 X 24 Y 3 X 12 Y 3 X 11 Y 2 X 35 Y 3 X 32 Y
 3 X 18 Y 2 X 3 Y 3 X -11 Y 2 X 6 Y 3 X 21 Y 3 X 25 Y 5 X -21 Y 3 X 36 Y 2 X 19
 Y 3 X 2 Y 3 X 25 Y 2 X 17 Y 3 X -6 Y 2 X -2 Y 3 X 16 Y 3 X 30 Y 2 X 8 Y 3 X 31
 Y 3 X 25 Y 2 X -4 Y 3 X 40 Y 3 X 11 Y 2 X 25 Y 3 X 16 Y 2 X -4 Y 3 X -16 Y 3 X
 37 Y 2 X 19 Y 3 X 17 Y 3 X 14 Y 2 X s 2418 1429 m 21 Y 3 X 7 Y 2 X -7 Y 6 X 15
 Y 2 X 25 Y 3 X 11 Y 3 X 16 Y 10 X -8 Y 3 X -10 Y 2 X 12 Y 3 X 7 Y 5 X 10 Y 3 X
 -40 Y 3 X -35 Y 2 X -24 Y 3 X -77 Y 3 X -19 Y 2 X -182 Y 3 X -103 Y 2 X -33 Y 3
 X -189 Y 3 X -29 Y 2 X -176 Y 3 X -31 Y 3 X -74 Y 2 X -63 Y 3 X -44 Y 2 X -27 Y
 3 X -27 Y 3 X -39 Y 2 X -17 Y 3 X -18 Y 3 X -9 Y 2 X -6 Y 3 X -5 Y 3 X -3 Y 5 X
 -6 Y 2 X 3 Y 3 X -5 Y 3 X -6 Y 8 X 1 Y 5 X -3 Y 3 X -3 Y 5 X 1 Y 10 X 1 Y 3 X
 -3 Y 11 X 1 Y 10 X -5 Y 8 X -3 Y 5 X -3 Y 3 X 1 Y 8 X -3 Y 2 X 1 Y 11 X s
 [] 0 sd 2152 227 m 7 Y 3 X -7 Y 2 X -1 Y 24 X 3 Y 8 X 7 Y 3 X 3 Y 2 X 3 Y 3 X 4
 Y 5 X 3 Y 3 X 4 Y 3 X 6 Y 2 X 11 Y 3 X 6 Y 2 X 4 Y 3 X 7 Y 3 X 3 Y 2 X 3 Y 3 X
 7 Y 3 X 14 Y 2 X 14 Y 3 X 17 Y 2 X 18 Y 3 X 7 Y 3 X 10 Y 2 X 17 Y 3 X 7 Y 3 X
 21 Y 2 X 10 Y 3 X 24 Y 3 X 13 Y 2 X 8 Y 3 X 14 Y 2 X 7 Y 3 X 22 Y 3 X 41 Y 2 X
 17 Y 3 X 9 Y 3 X 7 Y 2 X 17 Y 3 X 22 Y 3 X 29 Y 2 X 12 Y 3 X 22 Y 2 X 31 Y 3 X
 17 Y 3 X 2 Y 2 X 22 Y 3 X 14 Y 3 X 41 Y 2 X 12 Y 3 X 17 Y 2 X 7 Y 3 X 17 Y 3 X
 10 Y 2 X 9 Y 3 X 12 Y 3 X 25 Y 2 X 9 Y 3 X 22 Y 3 X 9 Y 2 X 15 Y 3 X 17 Y 5 X 7
 Y 3 X 34 Y 2 X 4 Y 6 X 3 Y 2 X 7 Y 3 X 3 Y 3 X 9 Y 2 X 27 Y 3 X 16 Y 2 X 20 Y 6
 X 14 Y 2 X 29 Y 3 X 12 Y 3 X 5 Y 2 X 14 Y 3 X 36 Y 3 X -2 Y 2 X 41 Y 5 X 29 Y 3
 X 31 Y 3 X 34 Y 2 X -7 Y 3 X -8 Y 3 X 32 Y 2 X s 2418 1397 m 21 Y 5 X 3 Y 3 X 5
 Y 3 X 7 Y 2 X 5 Y 3 X 31 Y 3 X -10 Y 2 X -4 Y 3 X 12 Y 3 X 19 Y 5 X -7 Y 2 X
 -10 Y 3 X -5 Y 3 X -5 Y 2 X -14 Y 3 X -15 Y 3 X -28 Y 2 X -49 Y 3 X -74 Y 3 X
 -27 Y 2 X -115 Y 3 X -70 Y 2 X -169 Y 3 X -93 Y 3 X -63 Y 2 X -55 Y 3 X -126 Y
 3 X -98 Y 2 X -28 Y 3 X -31 Y 2 X -39 Y 3 X -21 Y 3 X -28 Y 2 X -10 Y 3 X -14 Y
 3 X -11 Y 2 X -7 Y 3 X -14 Y 5 X -7 Y 8 X -7 Y 3 X -1 Y 8 X -3 Y 5 X -4 Y 5 X
 -4 Y 11 X -4 Y 21 X 3 Y 10 X -1 Y 27 X 3 Y 5 X -8 Y s [12 15 4 15] 0 sd 2470
 227 m 2 Y 3 X -1 Y 23 X 1 Y 11 X -1 Y 26 X 1 Y 6 X 1 Y 2 X 1 Y 3 X 2 Y 3 X 1 Y
 2 X 1 Y 3 X 2 Y 3 X 2 Y 2 X 2 Y 3 X 3 Y 3 X 2 Y 2 X 3 Y 3 X 3 Y 2 X 3 Y 3 X 3 Y
 3 X 4 Y 2 X 3 Y 3 X 4 Y 3 X 3 Y 2 X 3 Y 3 X 6 Y 3 X 2 Y 2 X 4 Y 3 X 7 Y 3 X 12
 Y 2 X 5 Y 3 X 8 Y 2 X -2 Y 3 X 5 Y 3 X 8 Y 2 X 3 Y 3 X 5 Y 3 X 7 Y 2 X 17 Y 3 X
 4 Y 3 X 2 Y 2 X 7 Y 3 X 8 Y 3 X 4 Y 2 X 4 Y 5 X 7 Y 3 X 11 Y 3 X 14 Y 2 X 8 Y 3
 X 3 Y 3 X 4 Y 2 X 7 Y 3 X 2 Y 3 X 2 Y 2 X 5 Y 3 X 3 Y 3 X 25 Y 2 X 6 Y 3 X 11 Y
 2 X 4 Y 3 X 4 Y 3 X 1 Y 2 X 3 Y 3 X 5 Y 5 X 4 Y 3 X 8 Y 3 X -4 Y 2 X -1 Y 3 X 2
 Y 3 X 9 Y 2 X -16 Y 3 X 24 Y 2 X 2 Y 3 X -1 Y 3 X 2 Y 2 X 7 Y 3 X -13 Y 3 X 5 Y
 2 X 3 Y 3 X s 2737 547 m 13 Y 3 X -9 Y 2 X -3 Y 3 X -2 Y 3 X 6 Y 2 X 2 Y 3 X 2
 Y 2 X 10 Y 3 X -3 Y 3 X 2 Y 2 X 8 Y 6 X -6 Y 2 X 6 Y 3 X 7 Y 3 X 6 Y 2 X 12 Y 3
 X 6 Y 3 X 9 Y 2 X 3 Y 3 X 2 Y 2 X 9 Y 3 X 4 Y 3 X 4 Y 2 X 1 Y 3 X 12 Y 3 X 12 Y
 2 X 13 Y 3 X 13 Y 3 X 10 Y 2 X 9 Y 3 X 7 Y 3 X 10 Y 2 X 6 Y 3 X 7 Y 2 X 14 Y 3
 X 24 Y 3 X 5 Y 2 X 1 Y 3 X 15 Y 3 X 21 Y 2 X 12 Y 3 X 13 Y 3 X 15 Y 2 X 4 Y 3 X
 5 Y 3 X 28 Y 2 X 4 Y 3 X 22 Y 2 X 8 Y 3 X 16 Y 3 X 13 Y 2 X 10 Y 3 X 6 Y 3 X 20
 Y 2 X 4 Y 3 X 5 Y 3 X 4 Y 2 X 17 Y 3 X 8 Y 3 X 10 Y 2 X 31 Y 3 X 29 Y 2 X 9 Y 3
 X 7 Y 3 X 12 Y 2 X 4 Y 3 X -4 Y 3 X 10 Y 2 X 36 Y 3 X 14 Y 3 X -1 Y 2 X 8 Y 3 X
 5 Y 3 X 17 Y 2 X 16 Y 3 X 9 Y 2 X 19 Y 3 X -3 Y 3 X -9 Y 2 X 1 Y 3 X 10 Y 3 X
 26 Y 2 X 7 Y 3 X 15 Y 3 X 13 Y 5 X 26 Y 3 X 16 Y 2 X -2 Y 3 X -3 Y 2 X 19 Y 6 X
 5 Y 2 X 12 Y 3 X 11 Y 3 X 1 Y 2 X 25 Y 3 X 23 Y 3 X 5 Y 2 X 28 Y 3 X s 3004
 1486 m 3 X -13 Y 2 X -9 Y 3 X 2 Y 2 X 10 Y 3 X -22 Y 3 X -14 Y 2 X 13 Y 3 X -3
 Y 3 X -3 Y 2 X 5 Y 3 X 5 Y 3 X -6 Y 2 X -4 Y 3 X 17 Y 3 X -16 Y 2 X -12 Y 3 X
 17 Y 2 X -1 Y 3 X -9 Y 3 X -11 Y 2 X 31 Y 3 X 15 Y 3 X 8 Y 2 X -22 Y 3 X -15 Y
 3 X -6 Y 2 X -11 Y 3 X -1 Y 3 X 26 Y 2 X 1 Y 3 X -11 Y 2 X -9 Y 3 X 5 Y 3 X -7
 Y 2 X -16 Y 3 X -18 Y 3 X -20 Y 2 X -9 Y 3 X 14 Y 3 X -3 Y 2 X -3 Y 3 X 8 Y 3 X
 24 Y 2 X 22 Y 3 X -1 Y 2 X -9 Y 3 X -17 Y 3 X -9 Y 2 X -13 Y 3 X 4 Y 3 X -22 Y
 2 X 9 Y 6 X -22 Y 2 X -22 Y 3 X 5 Y 3 X 2 Y 2 X -14 Y 3 X -30 Y 2 X -17 Y 3 X
 -32 Y 3 X 7 Y 2 X -5 Y 3 X 3 Y 3 X -15 Y 2 X -11 Y 3 X 4 Y 3 X -5 Y 2 X -11 Y 3
 X -9 Y 3 X -19 Y 2 X 4 Y 3 X -5 Y 2 X 11 Y 3 X -21 Y 3 X -39 Y 2 X -37 Y 3 X -5
 Y 3 X -17 Y 2 X 38 Y 3 X -7 Y 3 X 10 Y 2 X -9 Y 3 X -23 Y 3 X -17 Y 5 X -13 Y 2
 X 5 Y 3 X 1 Y 3 X -10 Y 2 X -27 Y 3 X -12 Y 3 X -28 Y 2 X -32 Y 3 X 36 Y 3 X
 -44 Y 2 X -9 Y 3 X -3 Y 3 X -7 Y 2 X -6 Y 3 X s 3271 920 m -13 Y 2 X -9 Y 3 X
 -7 Y 3 X -16 Y 2 X -9 Y 3 X -8 Y 3 X -17 Y 2 X -3 Y 3 X -14 Y 3 X -8 Y 2 X -14
 Y 3 X -14 Y 3 X -5 Y 2 X -9 Y 3 X -10 Y 2 X -4 Y 3 X -9 Y 3 X -18 Y 2 X -8 Y 3
 X -9 Y 3 X -6 Y 2 X -7 Y 3 X 7 Y 3 X -3 Y 2 X -11 Y 3 X -1 Y 3 X -4 Y 2 X -9 Y
 3 X -16 Y 2 X 4 Y 3 X -6 Y 3 X -23 Y 2 X -1 Y 3 X -7 Y 3 X -5 Y 2 X -8 Y 3 X
 -12 Y 3 X -9 Y 2 X -4 Y 3 X -10 Y 3 X -11 Y 2 X -6 Y 3 X 1 Y 2 X -13 Y 3 X -3 Y
 3 X -2 Y 2 X -2 Y 3 X -1 Y 3 X -4 Y 2 X -1 Y 3 X -7 Y 3 X -12 Y 2 X -5 Y 3 X -5
 Y 3 X -12 Y 2 X 1 Y 3 X -4 Y 2 X -13 Y 3 X -10 Y 3 X -8 Y 2 X -5 Y 3 X -7 Y 3 X
 -4 Y 2 X -1 Y 3 X -5 Y 8 X -8 Y 3 X -14 Y 2 X 4 Y 8 X -5 Y 3 X -7 Y 2 X -6 Y 3
 X -11 Y 3 X -2 Y 2 X -7 Y 3 X -1 Y 3 X -6 Y 2 X -6 Y 3 X 3 Y 3 X -2 Y 2 X -1 Y
 8 X 2 Y 3 X -5 Y 2 X 3 Y 3 X -2 Y 3 X -4 Y 2 X -6 Y 3 X -1 Y 3 X 5 Y 5 X 2 Y 3
 X -2 Y 2 X -9 Y 5 X 1 Y 3 X 2 Y 3 X s 3538 363 m 1 Y 2 X 2 Y 3 X -7 Y 3 X 2 Y 5
 X -7 Y 3 X 3 Y 2 X -2 Y 3 X -5 Y 3 X -5 Y 2 X 7 Y 3 X -6 Y 2 X -1 Y 6 X 1 Y 2 X
 -1 Y 6 X 2 Y 2 X 4 Y 3 X 3 Y 5 X -6 Y 3 X 1 Y 3 X 1 Y 2 X 1 Y 3 X -2 Y 2 X -6 Y
 3 X -10 Y 3 X -2 Y 5 X -7 Y 5 X 2 Y 8 X 4 Y 3 X -3 Y 3 X -6 Y 2 X 1 Y 3 X 13 Y
 2 X 4 Y 8 X -6 Y 3 X -1 Y 3 X 2 Y 2 X -9 Y 3 X 1 Y 3 X -8 Y 2 X 1 Y 3 X 1 Y 5 X
 1 Y 5 X -4 Y 3 X 6 Y 3 X -6 Y 2 X 4 Y 3 X 3 Y 3 X 3 Y 2 X -10 Y 3 X 2 Y 3 X 1 Y
 2 X 2 Y 3 X -2 Y 3 X 4 Y 2 X 2 Y 3 X -5 Y 5 X 7 Y 3 X 2 Y 8 X 2 Y 5 X 1 Y 3 X
 -106 Y 2 X s [4 8] 0 sd 2470 227 m 4 Y 3 X 1 Y 5 X -1 Y 13 X -1 Y 16 X 1 Y 3 X
 -1 Y 10 X -1 Y 3 X 1 Y 13 X 1 Y 3 X 1 Y 2 X 1 Y 3 X 2 Y 3 X 3 Y 5 X 1 Y 3 X 3 Y
 2 X 3 Y 3 X 3 Y 3 X 2 Y 2 X 1 Y 3 X 3 Y 2 X 3 Y 3 X 4 Y 3 X 4 Y 2 X 3 Y 3 X 2 Y
 3 X 4 Y 2 X 8 Y 3 X 6 Y 3 X 3 Y 2 X 5 Y 3 X 8 Y 3 X 12 Y 2 X 8 Y 3 X 6 Y 2 X -1
 Y 3 X 5 Y 3 X 7 Y 2 X 4 Y 3 X 3 Y 3 X 3 Y 2 X 9 Y 3 X 2 Y 5 X 14 Y 3 X 2 Y 3 X
 6 Y 2 X 8 Y 3 X 12 Y 2 X 4 Y 3 X 9 Y 3 X 4 Y 2 X 6 Y 3 X 5 Y 3 X 6 Y 2 X 11 Y 3
 X 5 Y 3 X 2 Y 2 X 2 Y 3 X 5 Y 3 X 21 Y 2 X 4 Y 3 X 9 Y 2 X 2 Y 3 X 2 Y 3 X 4 Y
 2 X 4 Y 3 X 11 Y 8 X 6 Y 3 X -2 Y 2 X 3 Y 3 X 2 Y 3 X 6 Y 2 X -19 Y 3 X 21 Y 2
 X 2 Y 3 X 1 Y 3 X 1 Y 5 X -16 Y 3 X 5 Y 2 X 10 Y 3 X s 2737 540 m 21 Y 3 X -7 Y
 2 X -1 Y 3 X 1 Y 3 X 9 Y 5 X -1 Y 2 X 6 Y 3 X -1 Y 3 X 4 Y 2 X 10 Y 3 X 3 Y 3 X
 -8 Y 2 X 6 Y 3 X 9 Y 3 X 3 Y 2 X 13 Y 3 X 8 Y 3 X 8 Y 2 X -2 Y 3 X -3 Y 2 X 8 Y
 3 X 12 Y 3 X 5 Y 2 X 2 Y 3 X 17 Y 3 X 7 Y 2 X 14 Y 3 X 12 Y 3 X 9 Y 2 X 1 Y 3 X
 4 Y 3 X 12 Y 2 X 26 Y 3 X 12 Y 2 X 7 Y 3 X 10 Y 3 X 1 Y 2 X 6 Y 3 X 22 Y 3 X 7
 Y 2 X -2 Y 3 X 12 Y 3 X 17 Y 2 X 7 Y 3 X 9 Y 3 X 32 Y 2 X 8 Y 3 X 21 Y 2 X 11 Y
 3 X 21 Y 3 X 16 Y 2 X 5 Y 3 X 3 Y 3 X 20 Y 2 X 6 Y 3 X 5 Y 3 X 8 Y 2 X 20 Y 3 X
 4 Y 3 X 7 Y 2 X 12 Y 3 X 13 Y 2 X 29 Y 3 X 9 Y 3 X 38 Y 2 X 8 Y 3 X 3 Y 3 X -1
 Y 2 X 19 Y 3 X 5 Y 3 X 2 Y 2 X 19 Y 3 X 7 Y 3 X 2 Y 2 X 7 Y 3 X 5 Y 2 X 20 Y 3
 X 23 Y 3 X 15 Y 2 X 10 Y 3 X -4 Y 3 X 27 Y 2 X 7 Y 3 X 2 Y 3 X 25 Y 5 X 15 Y 3
 X 14 Y 5 X -2 Y 2 X 15 Y 3 X 9 Y 3 X 2 Y 2 X 22 Y 3 X 9 Y 3 X -4 Y 2 X 23 Y 3 X
 11 Y 3 X -3 Y 2 X 26 Y 3 X s 3004 1481 m 1 Y 3 X -1 Y 5 X -12 Y 2 X 10 Y 3 X
 -18 Y 3 X 2 Y 2 X 26 Y 6 X -2 Y 2 X -9 Y 3 X -6 Y 3 X -4 Y 2 X 2 Y 3 X 29 Y 3 X
 -10 Y 2 X -8 Y 3 X 19 Y 2 X -35 Y 3 X -12 Y 3 X 6 Y 2 X 28 Y 3 X 8 Y 3 X -1 Y 2
 X -13 Y 3 X -9 Y 3 X -10 Y 2 X 1 Y 3 X 6 Y 3 X 20 Y 2 X -4 Y 3 X -12 Y 2 X -11
 Y 3 X 4 Y 3 X -21 Y 2 X -19 Y 3 X -3 Y 3 X 5 Y 2 X 2 Y 3 X 9 Y 3 X -15 Y 2 X
 -10 Y 3 X 1 Y 3 X 19 Y 2 X 18 Y 3 X -1 Y 2 X -11 Y 3 X -23 Y 3 X -18 Y 2 X -15
 Y 3 X 9 Y 3 X -13 Y 2 X -11 Y 3 X -4 Y 3 X -5 Y 5 X 4 Y 3 X -25 Y 2 X -28 Y 3 X
 -9 Y 5 X -28 Y 3 X 10 Y 5 X -3 Y 3 X -23 Y 2 X -20 Y 3 X 2 Y 3 X 4 Y 2 X -11 Y
 3 X 4 Y 3 X -21 Y 2 X -22 Y 3 X -6 Y 2 X 3 Y 3 X -13 Y 3 X -37 Y 2 X -18 Y 3 X
 -12 Y 3 X -18 Y 2 X 37 Y 3 X -19 Y 3 X 1 Y 2 X -18 Y 3 X -7 Y 3 X 12 Y 2 X 13 Y
 3 X -17 Y 2 X -5 Y 3 X 2 Y 3 X -36 Y 2 X -34 Y 3 X -9 Y 3 X -23 Y 2 X -31 Y 3 X
 33 Y 3 X -46 Y 2 X -16 Y 3 X 1 Y 3 X -15 Y 2 X -1 Y 3 X s 3271 915 m -14 Y 2 X
 -10 Y 3 X -8 Y 3 X -11 Y 2 X -9 Y 3 X -7 Y 3 X -11 Y 2 X -3 Y 3 X -16 Y 3 X 3 Y
 2 X -15 Y 3 X -13 Y 3 X -9 Y 2 X -5 Y 3 X -13 Y 2 X -7 Y 3 X -14 Y 3 X -2 Y 2 X
 -7 Y 3 X -5 Y 3 X -12 Y 2 X -18 Y 3 X 2 Y 3 X 6 Y 2 X 4 Y 3 X -7 Y 3 X -9 Y 2 X
 -9 Y 3 X -25 Y 2 X 2 Y 3 X -5 Y 3 X -21 Y 2 X -2 Y 3 X -9 Y 3 X 1 Y 2 X -2 Y 3
 X -6 Y 3 X -4 Y 2 X -29 Y 3 X -19 Y 3 X -10 Y 7 X 1 Y 3 X -3 Y 3 X -7 Y 2 X -3
 Y 3 X -10 Y 3 X -6 Y 5 X -13 Y 3 X -7 Y 2 X -6 Y 3 X -7 Y 3 X -5 Y 2 X -1 Y 3 X
 -4 Y 2 X -11 Y 3 X -11 Y 3 X -11 Y 2 X -9 Y 3 X -5 Y 3 X -2 Y 2 X -6 Y 3 X -1 Y
 3 X -4 Y 2 X -4 Y 3 X 6 Y 3 X -6 Y 2 X 4 Y 3 X -6 Y 2 X -6 Y 3 X -5 Y 3 X 2 Y 2
 X -13 Y 3 X -6 Y 5 X -5 Y 3 X 2 Y 5 X -6 Y 3 X 3 Y 3 X -6 Y 2 X 1 Y 3 X -6 Y 2
 X -5 Y 3 X -1 Y 3 X -5 Y 2 X -11 Y 3 X -4 Y 3 X -3 Y 2 X -2 Y 3 X 4 Y 3 X 5 Y 2
 X -1 Y 3 X -4 Y 5 X -4 Y 3 X 6 Y 2 X -3 Y 3 X 5 Y 3 X s 3538 362 m 7 Y 2 X -5 Y
 3 X -13 Y 3 X -6 Y 2 X -1 Y 6 X -6 Y 2 X 7 Y 8 X 2 Y 3 X -2 Y 2 X -6 Y 3 X 4 Y
 3 X -1 Y 2 X 3 Y 3 X -5 Y 3 X 7 Y 2 X 3 Y 3 X 3 Y 5 X 2 Y 6 X 1 Y 2 X 1 Y 3 X
 -2 Y 2 X -7 Y 3 X -6 Y 3 X -3 Y 2 X -4 Y 3 X -8 Y 5 X 1 Y 3 X 8 Y 5 X 4 Y 3 X
 -2 Y 3 X 1 Y 2 X -3 Y 5 X 3 Y 3 X -5 Y 3 X -4 Y 5 X 1 Y 3 X 1 Y 5 X 1 Y 3 X 1 Y
 2 X 1 Y 6 X 1 Y 10 X 2 Y 3 X -9 Y 2 X 8 Y 6 X 3 Y 2 X -10 Y 3 X 1 Y 3 X 2 Y 2 X
 1 Y 6 X 1 Y 2 X 2 Y 5 X 1 Y 6 X 11 Y 2 X 2 Y 6 X 2 Y 2 X -1 Y 3 X 1 Y 3 X -126
 Y 2 X s [12 12] 0 sd 2470 227 m 2 Y 3 X -2 Y 2 X -2 Y 8 X -1 Y 3 X 1 Y 16 X 2 Y
 31 X 2 Y 6 X 3 Y 2 X 1 Y 3 X -1 Y 3 X 2 Y 2 X 2 Y 3 X 2 Y 3 X 1 Y 2 X 2 Y 3 X 2
 Y 3 X 2 Y 2 X 3 Y 8 X 17 Y 3 X 1 Y 2 X 4 Y 3 X -1 Y 3 X 8 Y 2 X 6 Y 3 X 5 Y 3 X
 9 Y 2 X 2 Y 3 X 3 Y 3 X 14 Y 2 X 4 Y 3 X 14 Y 2 X 1 Y 6 X 8 Y 2 X 10 Y 3 X 3 Y
 3 X 8 Y 2 X 15 Y 3 X 2 Y 5 X 9 Y 3 X 3 Y 3 X 2 Y 2 X 2 Y 3 X 8 Y 2 X 5 Y 3 X 5
 Y 3 X 9 Y 2 X 6 Y 3 X 11 Y 3 X 3 Y 2 X 9 Y 3 X 5 Y 3 X 2 Y 2 X 6 Y 3 X 3 Y 3 X
 21 Y 2 X 1 Y 3 X 7 Y 2 X 9 Y 3 X -1 Y 3 X -1 Y 2 X 4 Y 3 X 8 Y 3 X 4 Y 2 X 3 Y
 3 X 9 Y 3 X -2 Y 2 X 2 Y 6 X 7 Y 2 X -17 Y 3 X 24 Y 8 X -1 Y 2 X 3 Y 3 X -17 Y
 3 X 4 Y 2 X 6 Y 3 X s 2737 542 m 17 Y 3 X -7 Y 2 X 1 Y 6 X 6 Y 2 X 1 Y 3 X -4 Y
 2 X 10 Y 3 X 4 Y 3 X 5 Y 2 X 13 Y 6 X -8 Y 2 X 6 Y 3 X 10 Y 3 X 4 Y 2 X 9 Y 3 X
 4 Y 3 X 11 Y 2 X 3 Y 3 X 3 Y 2 X 9 Y 3 X 8 Y 3 X 9 Y 2 X 6 Y 3 X 10 Y 3 X 3 Y 2
 X 6 Y 3 X 15 Y 3 X 23 Y 2 X 5 Y 3 X -3 Y 3 X 22 Y 2 X 7 Y 3 X 15 Y 2 X 4 Y 3 X
 26 Y 3 X 4 Y 2 X 5 Y 3 X 34 Y 5 X 7 Y 3 X 7 Y 3 X 26 Y 2 X 19 Y 3 X 7 Y 3 X 25
 Y 2 X 1 Y 3 X 18 Y 5 X 6 Y 3 X 8 Y 2 X 5 Y 3 X 1 Y 3 X 32 Y 5 X 45 Y 3 X 2 Y 2
 X 19 Y 3 X 5 Y 3 X 5 Y 2 X 18 Y 3 X 11 Y 2 X 11 Y 3 X 3 Y 3 X -1 Y 2 X 3 Y 3 X
 6 Y 3 X 14 Y 2 X 51 Y 3 X 12 Y 3 X 15 Y 2 X 30 Y 3 X 12 Y 8 X -18 Y 2 X 16 Y 3
 X 23 Y 3 X 12 Y 2 X 6 Y 3 X 9 Y 3 X 24 Y 2 X 4 Y 3 X 6 Y 3 X 14 Y 5 X 15 Y 3 X
 11 Y 2 X 5 Y 3 X 8 Y 2 X 28 Y 3 X 1 Y 3 X -24 Y 2 X 12 Y 3 X 14 Y 3 X 1 Y 2 X
 33 Y 3 X 9 Y 3 X 2 Y 2 X 12 Y 3 X s 3004 1484 m 3 X 5 Y 2 X -7 Y 3 X -3 Y 2 X
 11 Y 3 X -32 Y 3 X -7 Y 2 X 11 Y 6 X -8 Y 2 X 10 Y 3 X -2 Y 5 X -13 Y 3 X 5 Y 3
 X -6 Y 2 X 7 Y 3 X 21 Y 5 X -20 Y 3 X -25 Y 2 X 14 Y 3 X 11 Y 3 X 11 Y 2 X -15
 Y 3 X -13 Y 3 X -6 Y 2 X -17 Y 3 X -7 Y 3 X -13 Y 2 X 8 Y 3 X 5 Y 5 X 8 Y 3 X
 -27 Y 2 X -28 Y 3 X -2 Y 5 X -5 Y 3 X -4 Y 3 X -12 Y 2 X -38 Y 3 X -2 Y 3 X 20
 Y 2 X 29 Y 3 X 3 Y 2 X 1 Y 6 X -6 Y 2 X -44 Y 3 X -21 Y 3 X -3 Y 2 X -6 Y 3 X 4
 Y 3 X -17 Y 2 X -11 Y 3 X -10 Y 3 X -1 Y 5 X 15 Y 2 X -6 Y 3 X -17 Y 3 X -34 Y
 2 X -11 Y 3 X -5 Y 3 X -49 Y 2 X 3 Y 3 X 13 Y 3 X -27 Y 5 X -13 Y 3 X -25 Y 2 X
 3 Y 3 X 6 Y 2 X 2 Y 3 X -6 Y 3 X -30 Y 2 X -42 Y 3 X -30 Y 3 X -6 Y 2 X 50 Y 3
 X -6 Y 3 X -35 Y 2 X 7 Y 3 X -24 Y 3 X -20 Y 2 X 9 Y 3 X -25 Y 2 X 2 Y 3 X -8 Y
 3 X -12 Y 2 X -16 Y 3 X -2 Y 3 X -26 Y 2 X -17 Y 3 X 22 Y 3 X -40 Y 2 X -3 Y 3
 X -4 Y 3 X 2 Y 2 X -3 Y 3 X s 3271 829 m -11 Y 2 X -6 Y 3 X -28 Y 3 X -8 Y 2 X
 -9 Y 3 X 4 Y 3 X -20 Y 2 X 2 Y 3 X -16 Y 3 X -3 Y 2 X -20 Y 3 X -12 Y 3 X -3 Y
 2 X 1 Y 3 X -22 Y 2 X 9 Y 3 X -9 Y 3 X -10 Y 2 X 4 Y 3 X -5 Y 3 X 11 Y 2 X -20
 Y 3 X 7 Y 3 X -22 Y 2 X -34 Y 6 X 14 Y 2 X 7 Y 3 X -21 Y 2 X -1 Y 3 X -15 Y 3 X
 -6 Y 2 X -23 Y 3 X -4 Y 3 X 8 Y 2 X 6 Y 3 X -15 Y 3 X -40 Y 5 X 6 Y 3 X -8 Y 5
 X 4 Y 2 X 2 Y 3 X 5 Y 3 X -6 Y 2 X -6 Y 3 X 1 Y 3 X -17 Y 2 X -4 Y 3 X -9 Y 3 X
 -17 Y 2 X -13 Y 3 X -18 Y 3 X -8 Y 5 X 9 Y 2 X -9 Y 3 X 4 Y 3 X -9 Y 2 X 10 Y 3
 X -7 Y 3 X 1 Y 2 X 1 Y 3 X -16 Y 3 X -9 Y 2 X -8 Y 3 X -8 Y 3 X 1 Y 2 X 2 Y 3 X
 1 Y 8 X 3 Y 2 X 1 Y 3 X -10 Y 3 X -8 Y 2 X -9 Y 3 X 13 Y 5 X -10 Y 3 X 2 Y 3 X
 -10 Y 2 X 2 Y 3 X -31 Y 5 X 1 Y 3 X 1 Y 2 X 2 Y 3 X -2 Y 3 X 3 Y 5 X 4 Y 3 X 4
 Y 5 X 3 Y 5 X -4 Y 5 X 4 Y 3 X 5 Y 3 X s 3538 358 m 2 Y 2 X 2 Y 6 X 2 Y 5 X 1 Y
 3 X 3 Y 2 X 14 Y 3 X -14 Y 3 X 3 Y 2 X 15 Y 3 X -12 Y 2 X -2 Y 3 X 1 Y 3 X 1 Y
 2 X -2 Y 3 X 1 Y 3 X 4 Y 2 X 4 Y 3 X 4 Y 3 X 1 Y 2 X 3 Y 3 X -15 Y 3 X 2 Y 2 X
 -15 Y 3 X -2 Y 2 X -6 Y 3 X -14 Y 3 X 2 Y 2 X -17 Y 3 X -32 Y 5 X 1 Y 8 X 3 Y 3
 X -1 Y 5 X 1 Y 3 X 3 Y 2 X 3 Y 8 X 22 Y 3 X -21 Y 3 X 1 Y 5 X 1 Y 5 X 2 Y 3 X
 -1 Y 3 X 1 Y 5 X -29 Y 2 X -2 Y 3 X 31 Y 3 X -1 Y 2 X -1 Y 3 X -1 Y 3 X 1 Y 2 X
 -3 Y 3 X -2 Y 3 X -73 Y s [] 0 sd 2470 227 m 1 Y 3 X 2 Y 2 X -2 Y 29 X -2 Y 3 X
 2 Y 24 X 2 Y 8 X 4 Y 5 X 2 Y 5 X 2 Y 3 X 2 Y 5 X 4 Y 3 X 2 Y 3 X 2 Y 2 X 4 Y 3
 X 3 Y 2 X 8 Y 3 X 4 Y 3 X 2 Y 2 X 2 Y 3 X 2 Y 3 X 3 Y 2 X 9 Y 3 X 6 Y 3 X 11 Y
 2 X 4 Y 3 X 5 Y 3 X 12 Y 2 X 3 Y 3 X 3 Y 2 X -4 Y 6 X 11 Y 2 X 5 Y 3 X 2 Y 3 X
 6 Y 2 X 25 Y 3 X -7 Y 3 X 5 Y 2 X 17 Y 3 X 5 Y 3 X 5 Y 2 X 1 Y 3 X 4 Y 2 X -4 Y
 3 X 16 Y 3 X 3 Y 2 X 7 Y 3 X 8 Y 3 X 2 Y 2 X 8 Y 3 X 10 Y 3 X 7 Y 2 X 9 Y 3 X 2
 Y 3 X 27 Y 2 X -1 Y 3 X 8 Y 2 X 4 Y 6 X 2 Y 2 X -5 Y 3 X 6 Y 3 X 3 Y 2 X 5 Y 3
 X 7 Y 3 X -3 Y 2 X -3 Y 3 X 3 Y 3 X 4 Y 2 X -17 Y 3 X 24 Y 2 X 2 Y 3 X 3 Y 3 X
 7 Y 2 X 3 Y 3 X -19 Y 3 X 1 Y 2 X 4 Y 3 X s 2737 537 m 20 Y 3 X -7 Y 5 X 3 Y 3
 X 9 Y 5 X 2 Y 2 X 5 Y 3 X -2 Y 3 X 1 Y 2 X 7 Y 3 X 10 Y 3 X -6 Y 2 X 5 Y 3 X 6
 Y 5 X 11 Y 3 X 2 Y 3 X 12 Y 2 X 5 Y 5 X 7 Y 3 X 17 Y 3 X 6 Y 2 X 19 Y 3 X 17 Y
 3 X 16 Y 5 X 4 Y 3 X 9 Y 5 X 6 Y 3 X 14 Y 2 X 19 Y 3 X 5 Y 5 X 9 Y 3 X 13 Y 2 X
 25 Y 3 X 16 Y 3 X 3 Y 2 X 2 Y 3 X 4 Y 3 X 32 Y 2 X 28 Y 3 X -2 Y 3 X 17 Y 2 X
 24 Y 3 X 9 Y 2 X 1 Y 3 X 6 Y 5 X 8 Y 6 X 59 Y 2 X 4 Y 3 X 6 Y 3 X 2 Y 2 X 26 Y
 3 X 7 Y 3 X 12 Y 2 X 21 Y 3 X 14 Y 2 X 4 Y 3 X 11 Y 3 X 31 Y 2 X 6 Y 6 X 9 Y 2
 X 21 Y 3 X 2 Y 3 X 7 Y 2 X 26 Y 3 X 18 Y 3 X 2 Y 2 X -15 Y 3 X 9 Y 2 X 41 Y 3 X
 7 Y 3 X -12 Y 2 X -4 Y 3 X 4 Y 3 X 18 Y 2 X -12 Y 3 X 7 Y 3 X 43 Y 5 X 37 Y 3 X
 10 Y 2 X -15 Y 3 X -12 Y 2 X 19 Y 3 X 13 Y 3 X 2 Y 2 X 10 Y 3 X 8 Y 3 X 3 Y 2 X
 32 Y 3 X 14 Y 3 X -8 Y 2 X 14 Y 3 X s 3004 1455 m -8 Y 3 X 3 Y 2 X 5 Y 3 X -8 Y
 2 X 14 Y 3 X -19 Y 3 X -7 Y 2 X -1 Y 3 X 5 Y 5 X 8 Y 3 X 5 Y 3 X -8 Y 2 X -5 Y
 3 X 1 Y 3 X -27 Y 5 X 23 Y 2 X 6 Y 3 X -9 Y 3 X -36 Y 2 X 6 Y 3 X 7 Y 3 X 5 Y 5
 X 20 Y 3 X 10 Y 2 X -3 Y 3 X -18 Y 3 X 15 Y 2 X -18 Y 3 X -30 Y 5 X 18 Y 3 X
 -16 Y 2 X -27 Y 3 X -3 Y 3 X -13 Y 2 X -9 Y 3 X 10 Y 3 X -16 Y 2 X -9 Y 3 X -10
 Y 3 X 23 Y 2 X 29 Y 3 X 13 Y 2 X -13 Y 3 X -17 Y 8 X -26 Y 3 X -24 Y 2 X -7 Y 3
 X 5 Y 3 X -11 Y 2 X -10 Y 3 X 13 Y 3 X -6 Y 2 X -7 Y 3 X -27 Y 2 X -6 Y 3 X -13
 Y 3 X 6 Y 2 X -19 Y 3 X -12 Y 3 X 1 Y 2 X -19 Y 3 X -2 Y 3 X -11 Y 2 X -8 Y 3 X
 2 Y 3 X -19 Y 2 X -18 Y 3 X -9 Y 2 X -16 Y 3 X -4 Y 3 X -28 Y 2 X -22 Y 3 X 1 Y
 3 X -15 Y 2 X 20 Y 3 X -4 Y 3 X -11 Y 2 X -12 Y 3 X -4 Y 3 X -9 Y 2 X 10 Y 3 X
 -5 Y 2 X -7 Y 3 X -12 Y 3 X -14 Y 2 X -40 Y 3 X -4 Y 3 X -35 Y 2 X -24 Y 3 X 30
 Y 3 X -35 Y 2 X -22 Y 3 X -7 Y 3 X -11 Y 2 X 4 Y 3 X s 3271 848 m -22 Y 5 X -8
 Y 3 X -14 Y 2 X -3 Y 3 X -11 Y 3 X -14 Y 2 X -10 Y 3 X -9 Y 3 X 9 Y 2 X -5 Y 3
 X -10 Y 3 X -14 Y 2 X 6 Y 3 X -17 Y 2 X -15 Y 3 X 4 Y 3 X -9 Y 2 X -18 Y 6 X -5
 Y 2 X -6 Y 3 X 6 Y 3 X -3 Y 2 X -6 Y 6 X -25 Y 2 X -10 Y 3 X -24 Y 2 X 7 Y 6 X
 -15 Y 2 X -2 Y 3 X -5 Y 3 X 1 Y 2 X 7 Y 3 X -19 Y 3 X -26 Y 2 X -18 Y 3 X 5 Y 8
 X -4 Y 2 X -9 Y 3 X -4 Y 3 X 3 Y 2 X -7 Y 3 X -38 Y 5 X -6 Y 8 X -5 Y 8 X -21 Y
 3 X 1 Y 2 X -10 Y 3 X -6 Y 8 X 3 Y 3 X -10 Y 2 X -31 Y 3 X 3 Y 5 X -9 Y 3 X 1 Y
 5 X -8 Y 11 X 3 Y 5 X -11 Y 3 X -8 Y 2 X -1 Y 3 X 3 Y 3 X -11 Y 5 X 2 Y 5 X -10
 Y 3 X 1 Y 5 X -11 Y 3 X 13 Y 2 X -10 Y 3 X -2 Y 3 X 2 Y 5 X 4 Y 3 X 5 Y 2 X -14
 Y 3 X -11 Y 5 X -4 Y 5 X -11 Y 3 X 19 Y 3 X s 3538 341 m 2 X 2 Y 6 X 2 Y 8 X 2
 Y 5 X -1 Y 3 X 2 Y 2 X -15 Y 3 X 2 Y 2 X -1 Y 6 X -15 Y 2 X -2 Y 3 X 1 Y 3 X 1
 Y 2 X -14 Y 3 X 2 Y 5 X -15 Y 8 X 1 Y 3 X -1 Y 2 X -4 Y 3 X 1 Y 3 X 1 Y 10 X 1
 Y 6 X -1 Y 2 X 3 Y 3 X -1 Y 5 X 1 Y 3 X 3 Y 2 X 2 Y 11 X 1 Y 8 X 1 Y 5 X 1 Y 3
 X 22 Y 3 X 1 Y 2 X 1 Y 8 X 1 Y 11 X 3 Y 5 X 1 Y 3 X -103 Y s [12 15 4 15] 0 sd
 2430 235 m 8 X 3 -1 d 29 X 3 2 d 2 -2 d 2 Y 8 X 3 2 d 3 X 2 Y 2 1 d 2 Y 3 3 d 5
 Y 2 9 d 13 Y 3 21 d 30 Y 3 19 d 23 Y 2 24 d 3 14 d 125 Y 3 42 d 49 Y 2 20 d 38
 Y 3 67 d 165 Y 3 7 d 69 Y -4 Y 2 30 d 37 Y 3 37 d 125 Y 3 24 d 46 Y 2 21 d 35 Y
 3 14 d 14 Y 3 18 d 11 Y 2 10 d 11 Y 3 8 d 14 Y 3 8 d 3 Y 2 5 d 13 Y 3 X 1 Y 2 6
 d 7 Y 3 1 d 3 4 d 5 Y 2 2 d 2 Y 3 1 d 4 Y 3 2 d 3 Y 2 2 d 3 2 d 3 2 d 1 Y 2 X 2
 Y 3 4 d -2 Y 3 3 d 5 X 2 Y 3 2 d 2 2 d 3 1 d 2 Y 2 2 d 3 X 2 Y 3 X 1 Y 2 2 d 2
 Y 3 3 d 3 2 d 2 Y 2 X 2 Y 3 1 d 2 Y 3 2 d 2 Y 2 1 d 2 Y 3 2 d 2 Y 3 2 d 3 Y 2 2
 d 3 2 d 1 Y 3 2 d 2 Y 2 2 d 1 Y 3 4 d 2 Y 3 1 d 2 Y 2 2 d 2 Y 3 3 d 2 Y 2 X 3 Y
 3 2 d 5 Y 3 2 d 2 Y 2 2 d 1 Y 3 2 d 4 Y 3 X 1 Y 2 2 d 2 Y 3 2 d 2 Y 3 1 d 2 Y 2
 X 5 Y 3 2 d 3 2 d 2 Y 2 X 3 3 d 2 Y 3 X 2 2 d 3 X 1 Y 2 2 d 2 Y 3 X 2 Y 3 X 1 Y
 2 2 d 3 X 2 Y 3 X 2 Y 2 X 1 Y 6 X 2 Y 2 X 2 Y 3 2 d 3 1 d 5 X 2 Y 5 X 3 2 d 3 2
 d 2 X 3 1 d 2 X 2 Y 3 X 3 2 d 2 X 3 2 d 2 Y 5 X 1 Y 3 2 d 5 X 2 Y 3 2 d 5 X 1 Y
 3 X 2 Y 3 -2 d 2 Y 5 X 4 Y 2 1 d 3 X 2 Y 3 X 2 2 d 2 Y 3 1 d 8 X 2 Y 5 X 2 Y 3
 X 2 Y 3 X 1 Y 2 -1 d 6 X 1 Y 2 X 3 2 d 2 X 2 Y 8 X 3 2 d 3 3 d 5 X 3 2 d 16 X 2
 Y -2 Y 2 2 d 3 X 1 Y 3 X 2 2 d -2 Y 3 -1 d 2 1 d 3 X 2 Y 21 X 2 Y 6 X 2 Y 5 X 3
 1 d 5 X 2 2 d 3 X 2 Y 8 X 2 Y 5 X 3 1 d 3 X 2 Y 2 -2 d 2 Y 3 X 3 2 d 5 X -2 Y 3
 X 2 Y 8 X 2 Y 5 X 2 -2 d 2 Y 6 X 2 Y 2 X 3 1 d 3 2 d -2 Y 2 X 2 Y 11 X -2 Y 13
 X 2 Y 3 X 2 2 d 3 X 3 2 d 2 X 3 -2 d 3 2 d 1 Y 2 -1 d 3 1 d 3 X 2 Y 2 -2 d 3 4
 d -2 Y 3 2 d 10 X 2 Y 3 X 3 -2 d 13 X 2 2 d 11 X 3 1 d 5 X 2 Y 5 X -2 Y 3 2 d 3
 2 d 13 X 2 Y 2 -2 d 2 Y 11 X -2 Y 3 X 2 Y 2 X -2 Y 6 X 2 Y 5 X 1 Y 3 -1 d 1 Y 7
 X 2 Y 3 X 3 -2 d 2 Y 2 X 3 2 d 2 Y 11 X 2 1 d 3 X -1 Y 3 1 d 2 -1 d 3 X 1 Y 11
 X -1 Y 10 X 3 1 d -1 Y 2 X 1 Y 3 X 2 Y 3 X 2 2 d 32 X 2 Y 5 X -2 Y 6 X 2 2 d 19
 X 3 -2 d 2 2 d 1 Y 3 -1 d -2 Y 3 2 d 1 Y 37 X 2 2 d -2 Y 3 X -1 Y 3 -2 d 2 2 d
 -2 Y 3 X -2 Y 2 X -2 Y 3 2 d 8 X -2 Y 5 X -1 Y 3 X 1 Y 3 X 2 2 d 3 X 2 Y 3 X 2
 2 d 6 X 1 Y -1 Y 2 1 d 3 2 d 3 2 d 2 2 d 3 X 1 Y 2 2 d 6 X 2 2 d 3 X -2 Y 2 Y
 48 X 2 Y 2 X -2 Y 29 X 3 -2 d 5 X 2 Y 8 X 2 Y 11 X 3 -2 d 2 X 3 2 d 3 X 1 Y 2 X
 2 Y 35 X 2 Y 23 X 3 2 d 19 X -2 Y 2 X 2 Y 3 -2 d 8 X 3 2 d 10 X 3 -2 d 8 X 2 Y
 2 X 3 2 d 5 X -4 Y 3 X 3 2 d 8 X s 3694 1805 m 2 2 d 13 X 1 Y 3 X -1 Y 11 X 2 1
 d 11 X 2 Y 3 X -2 Y 2 X 2 Y s [4 8] 0 sd 2430 230 m 6 -1 d 10 X 3 -2 d 21 X 1 Y
 5 X 2 Y 3 2 d 3 1 d 2 Y 2 2 d 3 1 d 2 Y 3 7 d 12 Y 2 1 d 46 Y 3 X 13 Y 2 44 d 3
 64 d 65 Y 3 30 d 63 Y -28 Y 46 Y -46 Y 176 Y 5 53 d -3 8 d 3 6 d -3 14 d 3 14 d
 -3 28 d 3 -12 d 3 73 d 46 Y 2 51 d -2 32 d 2 14 d 56 Y 3 70 d 42 Y 3 21 d -3 Y
 2 51 d 33 Y 3 20 d 14 Y 3 14 d 7 Y 2 7 d 10 Y 3 11 d 5 Y 3 11 d 7 Y 2 -2 d 14 Y
 3 11 d 7 Y 3 3 d -2 Y 2 14 d 4 Y 3 X 2 9 d 3 Y 3 2 d 3 2 d 5 Y 2 2 d 2 Y 3 1 d
 3 2 d 2 Y 2 X 2 Y 3 1 d 3 2 d 2 Y 2 X 2 Y 3 X 1 Y 3 -1 d 3 Y 2 X 4 Y 3 -2 d 2 Y
 3 1 d 2 Y 2 2 d 3 X 2 Y 2 X 1 Y 3 4 d 3 2 d 2 1 d 4 Y 3 2 d 1 Y 3 X 2 Y 5 X 3 2
 d 2 Y 2 2 d 3 1 d 2 Y 3 X 2 Y 2 2 d 1 Y 3 4 d 2 Y 3 3 d 2 Y 2 2 d 1 Y 3 2 d 2 Y
 3 2 d 1 Y 2 2 d 4 Y 3 X 1 Y 2 2 d 2 Y 3 3 d 4 Y 3 3 d 2 Y 2 2 d 3 3 d 3 2 d 4 Y
 2 2 d 3 3 d 4 Y 3 X 2 1 d 2 Y 3 2 d 2 Y 3 3 d 2 2 d 3 Y 3 2 d 2 Y 3 X 2 Y 2 1 d
 2 Y 3 X 2 Y 2 2 d 3 1 d 2 Y 3 X 2 Y 2 2 d 3 1 d 3 X 2 Y 2 X 3 2 d 3 X 2 Y 2 X 3
 Y 3 X 3 2 d 2 X 2 Y 3 X 3 2 d 2 X 3 1 d 2 Y 3 X 2 Y 2 X 3 2 d 1 Y 2 X 3 2 d 3 2
 d 8 X 2 Y 2 X 1 Y 3 X 4 Y 3 X 2 Y 5 X 1 Y 3 -1 d 2 3 d 3 X 3 -2 d 2 Y 5 X 2 2 d
 3 2 d 3 1 d 2 X 4 Y 6 X 2 Y 5 X 1 Y 3 X 2 2 d 6 X 2 2 d 3 2 d 3 X 2 1 d 3 X 2 Y
 2 X 2 Y 3 -2 d 3 2 d 2 2 d 3 X 3 1 d 5 X 3 2 d 5 X 3 2 d 8 X 2 2 d 6 X 2 1 d -1
 Y 5 X 3 -2 d 2 Y 8 X 3 1 d 10 X 2 Y 6 X 2 2 d 3 2 d 3 X 2 Y 5 X 1 Y 5 X 2 Y 5 X
 2 Y 3 2 d -2 Y 5 X -2 Y 3 2 d 2 Y 11 X 1 Y 2 -1 d 14 X 2 1 d 3 X -1 Y 2 1 d -1
 Y 3 1 d 5 X 3 2 d 2 Y 3 X -2 Y 2 X 2 Y 6 X 2 Y 2 X -2 Y 3 2 d 8 X 1 Y 3 -1 d 1
 Y 7 X 2 Y 19 X 2 Y 3 X 2 Y 2 X 1 Y 3 X -1 Y 3 X 1 Y 5 X 2 Y 11 X -2 Y 2 X 2 Y 8
 X 3 2 d 5 X 2 Y 13 X 3 1 d 2 Y 5 X -2 Y 3 2 d 18 X 2 Y 3 X 3 2 d -2 Y 5 X 2 Y 3
 X 2 1 d -1 Y 3 X 1 Y 3 -1 d 10 X 1 Y 8 X 3 -1 d 1 Y -1 Y 2 X 3 1 d 2 Y 3 X 2 -2
 d 3 X 3 2 d 8 X 2 Y 2 X 2 Y 6 X 2 1 d -1 Y 3 X 3 1 d 15 X 3 -1 d 5 X 3 1 d 3 2
 d -2 Y 2 X 3 2 d 5 X 2 Y 16 X 3 2 d 13 X -2 Y 13 X 2 Y 8 X 1 Y 3 -1 d 1 Y 3 -1
 d 1 Y 21 X 2 Y 2 X 3 -2 d 3 X 2 -1 d 11 X -2 Y 8 X -2 Y 2 X 3 2 d -2 Y 3 X 2 Y
 10 X -2 Y 2 Y 6 X 2 Y 2 X 3 1 d 3 2 d 2 Y 2 -2 d 2 Y 3 X 2 Y 3 X -2 Y 2 2 d 3 X
 2 Y 13 X 3 3 d 2 -2 d 2 Y 11 X -2 Y 3 -1 d 1 Y 2 -1 d 8 X 3 1 d 3 X -1 Y 1 Y 2
 -1 d 1 Y 3 X -1 Y 2 X 3 1 d 29 X 2 Y 3 X -2 Y 3 X 2 2 d 11 X 2 2 d 11 X 2 Y 8 X
 1 Y 3 -1 d 2 X 3 1 d 3 X 2 Y 2 -2 d 16 X 3 2 d -2 Y 5 X 3 2 d -2 Y 2 2 d 3 X 2
 Y 26 X 3 2 d 8 X 3 1 d 21 X 3 -1 d 5 X 3 -2 d 5 X 2 Y 2 -2 d 6 X 2 Y 2 X 1 Y 8
 X -1 Y 3 X 3 1 d 2 -1 d 3 1 d 3 X s 3696 1822 m 3 2 d 2 Y 8 X 2 -2 d 3 X 2 Y 19
 X 2 Y 8 X s [12 12] 0 sd 2417 234 m 5 -3 d 56 X 3 2 d 2 X 3 11 d 5 Y 3 5 d 2 5
 d 3 53 d 2 67 d 3 52 d 3 -4 d -3 72 d 3 21 d 2 104 d 3 72 d -3 37 d 3 -14 d 3
 121 d 2 11 d -2 36 d 2 37 d 3 85 d 3 70 d -3 23 d 3 -11 d 151 Y 2 13 d 3 45 d 3
 4 d 2 28 d 18 Y 3 22 d 3 15 d 2 7 d 35 Y 3 16 d 3 5 d 2 10 d 7 Y 3 7 d 2 6 d 3
 5 d 5 Y 3 4 d 2 1 d 3 4 d 2 Y 3 2 d 2 3 d 3 2 d 3 3 d 2 X 6 2 d 2 2 d 2 Y 3 X 3
 1 d 7 7 d 4 Y 3 2 d 3 X 2 5 d 3 X 3 3 d 2 Y 5 X 3 4 d 2 1 d 3 -1 d 3 3 d 2 Y 2
 3 d 3 X 4 Y 3 X 2 4 d 1 Y 3 4 d 3 5 d 2 2 d 3 5 d 2 2 d 3 3 d 6 Y 3 X 2 5 d 2 Y
 3 3 d 3 4 d 2 X 3 3 d 5 Y 3 2 d 2 4 d 5 Y 3 2 d 3 X 2 2 d 5 Y 3 3 d 3 2 d 2 4 d
 3 1 d 2 4 d 2 Y 3 X 3 1 d 4 Y 2 X 3 2 d 3 X 3 Y 2 2 d 3 X 3 3 d 2 4 d 3 2 d 3 X
 2 3 d 6 X 2 2 d 3 X 3 3 d 2 X 3 2 d 5 X 4 Y 5 X 3 -2 d 4 Y 3 X 2 1 d 6 6 d 2 X
 1 Y 3 X 3 2 d 2 X 3 4 d 3 -2 d 2 3 d 3 X 2 2 d 3 2 d 3 X 2 3 d 2 Y 3 X 3 2 d -2
 Y 2 X 3 4 d 5 X 3 1 d 3 X 2 4 d 6 X 2 2 d 1 Y 8 X 3 4 d 10 X 2 Y 3 -2 d 19 X 2
 2 d 3 X 3 1 d 2 2 d 3 -2 d 5 X 3 2 d 2 5 d 11 X 2 Y 13 X 4 Y 6 X 2 1 d 8 X 3 2
 d 2 -2 d 3 2 d 5 X 3 -2 d 3 4 d 2 X 3 2 d 3 3 d 5 X -1 Y 3 X 2 1 d 3 X 3 4 d 5
 X -2 Y 10 X 3 4 d -2 Y 5 X 3 2 d 3 Y 5 X -2 Y 6 X 2 2 d 13 X 2 Y 3 -2 d 3 X 2 2
 d 11 X 3 3 d 2 X 3 2 d -2 Y 3 2 d 10 X 3 2 d 3 -2 d 10 X 4 Y 21 X 1 Y 3 -1 d 3
 3 d 2 X -2 Y 3 2 d 8 X 2 Y 16 X -2 Y 5 X 2 Y 5 X 3 3 d 13 X -1 Y 3 1 d 8 X 2 -1
 d 3 5 d 3 X 2 -4 d 22 X 2 4 d 27 X 2 2 d 16 X 3 1 d 13 X 3 2 d 2 X -2 Y 8 X 3 4
 d 29 X 3 3 d 24 X 2 -1 d 1 Y 6 X 4 Y 2 2 d 3 -4 d 10 X 6 -2 d -1 Y 5 X 3 -2 d 2
 -2 d 6 X 2 Y 5 X 3 Y 3 X 2 -1 d 1 Y 3 X 3 4 d 2 -2 d 2 Y 3 X 3 3 d 5 X 2 2 d 3
 4 d 13 X 3 2 d 3 -2 d 8 X 2 2 d 45 X 3 1 d 3 -1 d 2 X 3 1 d 2 -1 d 1 Y 8 X -1 Y
 3 X 3 1 d 37 X 2 -1 d 3 X 3 1 d 24 X 2 4 d 3 X 3 -2 d 2 X 3 4 d 2 X 1 Y 27 X 3
 2 d 2 X 3 -2 d 5 X 2 Y 3 -2 d 5 X 3 2 d 5 X 2 Y 3 -2 d 2 2 d 6 X 2 2 d -2 Y 6 X
 2 -2 d 3 2 d 3 X 2 -2 d 3 2 d 21 X 3 2 d 13 X 3 Y 8 X 3 -3 d s [] 0 sd 2462 239
 m 3 -12 d 2 3 d 6 X 2 9 d 6 X 3 Y 2 3 d 3 6 d 3 9 d 2 30 d 3 9 d 2 37 d 3 117 d
 3 146 d -3 4 d 3 -4 d -3 37 d 3 -21 d 171 Y 5 79 d 26 Y 5 74 d 219 Y 3 23 d 3
 49 d 2 37 d 3 13 d 3 38 d 2 X 20 Y 3 40 d 3 14 d 2 21 d 3 16 d 3 12 d 2 9 d 3 9
 d 3 Y 2 6 d 3 7 d 3 5 d 4 Y 2 3 d 3 2 d 3 3 d 2 X 6 4 d 2 Y 2 1 d 6 X 2 4 d 3
 -2 d 3 4 d 2 1 d 3 X 2 4 d 3 3 d 3 X 2 4 d 3 2 d 3 X 2 7 d 3 X 3 5 d 2 4 d 3 3
 d 3 X 2 4 d 3 7 d 3 1 d 2 7 d 3 2 d 3 7 d 2 2 d 3 3 d 2 4 d 3 3 d 2 Y 3 7 d 2 4
 d 3 1 d 3 4 d 2 4 d 3 5 d 3 3 d 2 2 d 4 Y 3 3 d 3 4 d 2 1 d 3 4 d 3 3 d 2 2 d 3
 X 2 4 d 3 X 3 3 d 8 5 d 2 X 4 Y 3 X 3 3 d 2 X 3 4 d 3 X 2 4 d 6 X 1 Y 2 X 11 4
 d 2 7 d 3 X 3 2 d 2 X 3 3 d 5 X 3 4 d 3 X 2 3 d 3 X 3 -2 d 2 2 d 3 4 d 3 -2 d 2
 3 d 3 X 2 2 d 3 -2 d 3 2 d 2 X 3 2 d 3 3 d -1 Y 5 X 3 3 d 2 X 3 2 d 8 X 3 3 d 5
 X 5 4 d 11 X 2 2 d 3 X 3 3 d 18 X 3 2 d 3 -4 d 10 X 3 2 d 5 X 2 Y 8 X 5 3 d 3 2
 d 3 -2 d 8 4 d 7 X 3 2 d 3 X 2 3 d 6 X 5 2 d 3 X 2 4 d 3 1 d 5 X 3 -1 d 3 3 d 8
 X 2 4 d 3 X 2 -2 d 8 X 3 3 d 3 -1 d 2 X 3 1 d 5 X -1 Y 3 3 d 37 X -3 Y 3 X 2 5
 d 16 X 3 -2 d 8 X 2 2 d 22 X 3 Y 2 X 3 2 d 3 X 2 -2 d 3 2 d 5 X 3 2 d 16 X -2 Y
 2 X 3 2 d 5 X 3 2 d 8 X 3 Y 5 2 d 3 -2 d 5 X 3 -2 d 2 2 d 6 2 d 13 X 3 3 d 5 X
 3 -3 d 8 X 2 3 d 16 X 3 2 d 16 X 5 4 d 13 X 3 1 d 2 -1 d 32 X 1 Y 3 -1 d 3 3 d
 2 -3 d 3 3 d 2 4 d 22 X 2 -2 d 3 X 3 -4 d 2 2 d 6 X 2 -2 d 5 X 3 2 d 5 -2 d 8 X
 -1 Y 6 3 d 10 X 3 4 d 3 X -2 Y 2 3 d 3 4 d 13 X 3 2 d 8 X 2 3 d 29 X 3 -3 d 24
 X 3 3 d 2 X 3 -1 d 16 X 5 3 d 32 X 3 4 d 10 X 3 -2 d 37 X 5 2 d 16 X 3 3 d 13 X
 5 2 d 6 X 2 -2 d 8 X 2 Y 3 -2 d 10 X 3 -2 d 5 X 3 4 d 3 -4 d 2 4 d 3 2 d 10 X 3
 3 d 5 X 11 2 d 16 X 3 Y s 3968 2267 0 0 C 1615 1757 2126 227 C 3968 2267 0 0 C
 gsave  3212 1685
 t   0 r 0 0 m
 /Helvetica findfont   78 sf 0    0 m 
(Transmittance)
 show 
 gr
 1615 1757 2126 227 C 3968 2267 0 0 C 1615 1757 2126 227 C 3968 2267 0 0 C
 gsave  3265 1228
 t   0 r 0 0 m
 /Helvetica findfont   78 sf 0    0 m 
(Emission)
 show 
 gr
 1615 1757 2126 227 C 3968 2267 0 0 C 1615 1757 2126 227 C 3968 2267 0 0 C
 gsave  2285 1703
 t   0 r 0 0 m
 /Helvetica findfont   78 sf 0    0 m 
(Excitation)
 show 
 gr
 1615 1757 2126 227 C 4 lw 3344 1070 m 132 X s 3968 2267 0 0 C 1615 1757 2126
 227 C 3968 2267 0 0 C
 /xs 0 def 
(0 rad)
 /Helvetica     70 stwn 
 gsave  3728 1045
 t   0 r  xs neg 0 t 0 0 m
 /Helvetica findfont   70 sf 0    0 m 
(0 rad)
 show 
 gr
 1615 1757 2126 227 C [12 12] 0 sd 3344 965 m 132 X s 3968 2267 0 0 C 1615 1757
 2126 227 C 3968 2267 0 0 C
 /xs 0 def 
(10 rad)
 /Helvetica     70 stwn 
 gsave  3728 939
 t   0 r  xs neg 0 t 0 0 m
 /Helvetica findfont   70 sf 0    0 m 
(10 rad)
 show 
 gr
 1615 1757 2126 227 C [4 8] 0 sd 3344 859 m 132 X s 3968 2267 0 0 C 1615 1757
 2126 227 C 3968 2267 0 0 C
 /xs 0 def 
(100 rad)
 /Helvetica     70 stwn 
 gsave  3728 834
 t   0 r  xs neg 0 t 0 0 m
 /Helvetica findfont   70 sf 0    0 m 
(100 rad)
 show 
 gr
 1615 1757 2126 227 C [12 15 4 15] 0 sd 3344 754 m 132 X s 3968 2267 0 0 C 1615
 1757 2126 227 C 3968 2267 0 0 C
 /xs 0 def 
(1 krad)
 /Helvetica     70 stwn 
 gsave  3728 728
 t   0 r  xs neg 0 t 0 0 m
 /Helvetica findfont   70 sf 0    0 m 
(1 krad)
 show 
 gr
 1615 1757 2126 227 C 3968 2267 0 0 C 1615 1757 2126 227 C 3968 2267 0 0 C
 gsave  2258 1834
 t   0 r 0 0 m
 /Helvetica-Oblique findfont  117 sf 0    0 m 
(NOV)
 dup oshow
 gr
 1615 1757 2126 227 C 3968 2267 0 0 C 1615 1757 2126 227 C 3968 2267 0 0 C
 gsave  2258 1834
 t   0 r 0 0 m
 /Helvetica-BoldOblique findfont  117 sf 0    0 m 
(NOV)
 dup oshow
 gr
 1615 1757 2126 227 C [] 0 sd 10 lw 2245 1808 m 251 X s 3968 2267 0 0 C
 /xs 0 def 
(wavelength \(nm\))
 /Helvetica     70 stwn 
 gsave  3741 48
 t   0 r  xs neg 0 t 0 0 m
 /Helvetica findfont   70 sf 0    0 m 
(wavelength \(nm\))
 show 
 gr
 1615 1757 2126 227 C
gr gr showpage
end
%%EOF
