%!PS-Adobe-2.0 EPSF-2.0
%%Title: /tmp/xfig-export000189
%%Creator: fig2dev Version 2.1.8 Patchlevel 0
%%CreationDate: Wed Dec 13 10:10:45 1995
%%For: milov@vepp4sun (Alexander M.Milov)
%%Orientation: Portrait
%%BoundingBox: 0 0 684 264
%%Pages: 0
%%EndComments
/$F2psDict 200 dict def 
$F2psDict begin
$F2psDict /mtrx matrix put
/l {lineto} bind def
/m {moveto} bind def
/s {stroke} bind def
/n {newpath} bind def
/gs {gsave} bind def
/gr {grestore} bind def
/clp {closepath} bind def
/graycol {dup dup currentrgbcolor 4 -2 roll mul 4 -2 roll mul
4 -2 roll mul setrgbcolor} bind def
/col-1 {} def
/col0 {0 0 0 setrgbcolor} bind def
/col1 {0 0 1 setrgbcolor} bind def
/col2 {0 1 0 setrgbcolor} bind def
/col3 {0 1 1 setrgbcolor} bind def
/col4 {1 0 0 setrgbcolor} bind def
/col5 {1 0 1 setrgbcolor} bind def
/col6 {1 1 0 setrgbcolor} bind def
/col7 {1 1 1 setrgbcolor} bind def
/col8 {.68 .85 .9 setrgbcolor} bind def
/col9 {0 .39 0 setrgbcolor} bind def
/col10 {.65 .17 .17 setrgbcolor} bind def
/col11 {1 .51 0 setrgbcolor} bind def
/col12 {.63 .13 .94 setrgbcolor} bind def
/col13 {1 .75 .8 setrgbcolor} bind def
/col14 {.7 .13 .13 setrgbcolor} bind def
/col15 {1 .84 0 setrgbcolor} bind def
	end
/$F2psBegin {$F2psDict begin /$F2psEnteredState save def} def
/$F2psEnd {$F2psEnteredState restore end} def
%%EndProlog

$F2psBegin
0 setlinecap 0 setlinejoin
-18.0 273.0 translate 0.900 -0.900 scale
1.000 setlinewidth
% Polyline
n 204 154 m 204 194 l  189 194 l  189 154 l  204 154 l  clp gs col6 1.00 graycol fill gr gs col6 s gr
% Polyline
n 189 194 m 189 154 l  204 154 l  204 194 l  clp gs col-1 s gr
% Polyline
n 219 109 m 279 109 l  279 149 l  259 149 l  259 129 l  219 129 l 
 219 109 l  clp gs col6 1.00 graycol fill gr gs col6 s gr
% Polyline
n 219 109 m 279 109 l  279 149 l  259 149 l  259 129 l  219 129 l 
 clp gs col-1 s gr
2.000 setlinewidth
% Polyline
n 179 119 m 199 134 l gs col0 s gr
0.500 setlinewidth
% Polyline
n 568 61 m 568 50 l  564 50 l  564 61 l  clp gs col3 1.00 graycol fill gr gs col3 s gr
% Polyline
n 568 61 m 568 50 l  564 50 l  564 61 l  clp gs col0 s gr
% Polyline
n 580 69 m 580 58 l  576 58 l  576 69 l  clp gs col3 1.00 graycol fill gr gs col3 s gr
% Polyline
n 580 69 m 580 58 l  576 58 l  576 69 l  clp gs col0 s gr
% Polyline
n 510 43 m 510 32 l  506 32 l  506 43 l  clp gs col3 1.00 graycol fill gr gs col3 s gr
% Polyline
n 510 43 m 510 32 l  506 32 l  506 43 l  clp gs col0 s gr
% Polyline
n 524 51 m 524 40 l  520 40 l  520 51 l  clp gs col3 1.00 graycol fill gr gs col3 s gr
% Polyline
n 524 51 m 524 40 l  520 40 l  520 51 l  clp gs col0 s gr
1.000 setlinewidth
% Polyline
n 334 174 m 394 174 l  394 189 l  334 189 l  334 174 l  clp gs col6 1.00 graycol fill gr gs col6 s gr
% Polyline
n 394 189 m 394 174 l  334 174 l  334 189 l  clp gs col-1 s gr
% Polyline
n 384 129 m 384 119 l  324 119 l  324 129 l  clp gs col2 1.00 graycol fill gr gs col2 s gr
% Polyline
n 384 129 m 384 119 l  324 119 l  324 129 l  clp gs col-1 s gr
2.000 setlinewidth
% Polyline
n 94 89 m 94 71 l  49 71 l  49 89 l  clp gs col3 1.00 graycol fill gr gs col3 s gr
1.000 setlinewidth
% Polyline
n 94 89 m 94 71 l  49 71 l  49 89 l  clp gs col0 s gr
% Polyline
n 132 75 m 132 70 l  117 70 l  117 75 l  clp gs col3 1.00 graycol fill gr gs col3 s gr
% Polyline
n 132 75 m 132 70 l  117 70 l  117 75 l  clp gs col0 s gr
% Polyline
n 132 88 m 132 83 l  117 83 l  117 88 l  clp gs col3 1.00 graycol fill gr gs col3 s gr
% Polyline
n 132 88 m 132 83 l  117 83 l  117 88 l  clp gs col0 s gr
% Polyline
n 709 79 m 93 79 l gs col1 s gr
n 109.000 83.000 m 93.000 79.000 l 109.000 75.000 l gs 2 setlinejoin col1 s gr
2.000 setlinewidth
% Polyline
n 459 229 m 399 229 l  399 199 l  319 199 l  319 179 l  319 179 l 
 289 179 l  289 204 l  179 204 l  179 139 l  19 109 l 
 39 19 l  159 39 l  139 109 l gs col-1 s gr
1.000 setlinewidth
% Polyline
n 399 74 m 149 74 l gs col-1 s gr
% Polyline
n 399 84 m 144 84 l  144 84 l  144 84 l gs col-1 s gr
2.000 setlinewidth
% Polyline
n 139 109 m 179 119 l  179 99 l  289 99 l  289 159 l  319 159 l 
 319 114 l  439 114 l gs col-1 s gr
% Polyline
n 459 69 m 399 69 l  399 114 l gs col-1 s gr
% Polyline
n 459 199 m 479 219 l gs col0 s gr
1.000 setlinewidth
% Polyline
n 711 77 m 711 77 l gs col2 s gr
0.500 setlinewidth
% Polyline
n 587 86 m 521 92 l  521 62 l  490 57 l  444 50 l gs col0 s gr
% Polyline
n 662 83 m 656 83 l gs col0 s gr
% Polyline
n 662 75 m 656 75 l gs col0 s gr
% Polyline
n 626 83 m 621 83 l gs col0 s gr
% Polyline
n 586 73 m 582 62 l  582 72 l  574 70 l  574 59 l  569 54 l 
 569 67 l  563 63 l  563 49 l  525 47 l  525 54 l 
 519 50 l  519 42 l  512 39 l  512 46 l  503 43 l 
 503 33 l  493 33 l  445 35 l gs col0 s gr
% Polyline
n 627 75 m 621 75 l gs col0 s gr
1.000 setlinewidth
% Polyline
n 422 141 m 442 141 l  442 181 l  422 181 l  422 141 l  clp gs col6 1.00 graycol fill gr gs col6 s gr
% Polyline
n 422 141 m 442 141 l  442 181 l  422 181 l  clp gs col-1 s gr
% Polyline
n 459 131 m 469 131 l  469 189 l  514 189 l  514 199 l  459 199 l 
 459 199 l  clp gs 0.65 setgray fill gr
gs col-1 s gr
% Polyline
n 459 84 m 469 84 l  469 119 l  459 119 l  459 84 l  clp gs 0.65 setgray fill gr
gs col-1 s gr
% Polyline
n 459 59 m 459 74 l  469 74 l  469 59 l  459 59 l  clp gs 0.65 setgray fill gr
gs col-1 s gr
% Polyline
n 419 104 m 454 104 l  454 109 l  419 109 l  clp gs 0.65 setgray fill gr
gs col-1 s gr
% Polyline
n 525 110 m 535 110 l  535 145 l  525 145 l  525 110 l  clp gs 0.65 setgray fill gr
gs col-1 s gr
2.000 setlinewidth
n 319 179 m 319 179 l gs col0 s gr
% Polyline
n 319 179 m 339 164 l gs col0 s gr
1.000 setlinewidth
% Polyline
n 459 249 m 459 279 l gs col0 s gr
0.500 setlinewidth
% Polyline
n 419 263 m 419 279 l gs col0 s gr
% Polyline
n 379 259 m 379 281 l gs col0 s gr
% Polyline
n 539 278 m 539 261 l  539 263 l gs col-1 s gr
% Polyline
n 519 266 m 519 279 l gs col0 s gr
% Polyline
n 479 264 m 479 279 l gs col0 s gr
% Polyline
n 499 258 m 499 279 l gs col0 s gr
% Polyline
n 379 279 m 539 279 l gs col-1 s gr
2.000 setlinewidth
% Polyline
n 518 159 m 518 65 l  499 65 l  499 159 l  clp gs col0 s gr
1.000 setlinewidth
n 756.000 83.000 m 740.000 79.000 l 756.000 75.000 l gs 2 setlinejoin col-1 s gr
% Polyline
n 740 79 m 779 79 l gs col-1 s gr
2.000 setlinewidth
% Polyline
n 694 79 m 694 89 l  684 99 l  684 139 l  739 139 l  739 99 l 
 729 89 l  729 79 l  729 69 l  739 59 l  739 19 l 
 684 19 l  684 59 l  694 69 l  694 79 l  clp gs col-1 s gr
% Polyline
n 689 71 m 664 71 l  664 88 l  689 88 l  clp gs col-1 s gr
% Polyline
n 654 71 m 629 71 l  629 88 l  654 88 l  clp gs col-1 s gr
% Polyline
n 619 65 m 589 65 l  589 95 l  619 95 l  clp gs col-1 s gr
% Polyline
n 559 48 m 529 48 l  529 74 l  559 74 l  clp gs col-1 s gr
1.000 setlinewidth
% Polyline
n 386 124 m 508 124 l  508 77 l  711 77 l gs col-1 s gr
% Polyline
n 100 68 m 100 92 l gs col-1 s gr
/Times-Roman findfont 14.00 scalefont setfont
369 259 m 
gs 1 -1 scale (4) col0 show gr
/Times-Roman findfont 14.00 scalefont setfont
411 259 m 
gs 1 -1 scale (2) col0 show gr
/Times-Roman findfont 14.00 scalefont setfont
449 257 m 
gs 1 -1 scale (0) col0 show gr
/Times-Roman findfont 14.00 scalefont setfont
531 259 m 
gs 1 -1 scale (8) col0 show gr
/Times-Roman findfont 14.00 scalefont setfont
491 256 m 
gs 1 -1 scale (4) col0 show gr
/Times-Roman findfont 16.00 scalefont setfont
206 67 m 
gs 1 -1 scale (Gamma-beam) col-1 show gr
/Times-Roman findfont 16.00 scalefont setfont
329 153 m 
gs 1 -1 scale (Laser beam) col-1 show gr
/Times-Roman findfont 16.00 scalefont setfont
756 65 m 
gs 1 -1 scale (e) col-1 show gr
/Times-Roman findfont 16.00 scalefont setfont
765 60 m 
gs 1 -1 scale (-) col-1 show gr
/Times-Roman findfont 16.00 scalefont setfont
93 61 m 
gs 1 -1 scale (Sc) col-1 show gr
/Times-Roman findfont 16.00 scalefont setfont
217 188 m 
gs 1 -1 scale (room) col-1 show gr
/Times-Roman findfont 16.00 scalefont setfont
211 164 m 
gs 1 -1 scale (Control) col-1 show gr
/Times-Roman findfont 14.00 scalefont setfont
635 112 m 
gs 1 -1 scale (Q2) col-1 show gr
/Times-Roman findfont 14.00 scalefont setfont
661 112 m 
gs 1 -1 scale (Q1) col-1 show gr
/Times-Roman findfont 16.00 scalefont setfont
580 23 m 
gs 1 -1 scale (VEPP-4M) col-1 show gr
/Times-Roman findfont 12.00 scalefont setfont
579 54 m 
gs 1 -1 scale (TS1) col-1 show gr
/Times-Roman findfont 12.00 scalefont setfont
558 42 m 
gs 1 -1 scale (TS2) col-1 show gr
/Times-Roman findfont 12.00 scalefont setfont
516 33 m 
gs 1 -1 scale (TS3) col-1 show gr
/Times-Roman findfont 14.00 scalefont setfont
494 22 m 
gs 1 -1 scale (TS4) col-1 show gr
/Times-Roman findfont 16.00 scalefont setfont
22 143 m 
gs 1 -1 scale (Detector hall) col-1 show gr
/Times-Roman findfont 14.00 scalefont setfont
494 303 m 
gs 1 -1 scale (Scale, m) col-1 show gr
/Times-Roman findfont 16.00 scalefont setfont
260 25 m 
gs 1 -1 scale (ROKK-1M) col-1 show gr
/Times-Bold findfont 18.00 scalefont setfont
683 44 m 
gs 1 -1 scale (KEDR) col-1 show gr
/Times-Roman findfont 16.00 scalefont setfont
114 62 m 
gs 1 -1 scale (Pb) col-1 show gr
/Times-Roman findfont 14.00 scalefont setfont
533 65 m 
gs 1 -1 scale (M2) col-1 show gr
/Times-Roman findfont 14.00 scalefont setfont
598 112 m 
gs 1 -1 scale (M1) col-1 show gr
/Times-Roman findfont 16.00 scalefont setfont
53 61 m 
gs 1 -1 scale (CsI) col-1 show gr
$F2psEnd
