%!PS-Adobe-2.0 EPSF-2.0
%%BoundingBox:  0 0 567 178
%%Title: ./plots/s1/pAll_s2s0_s1.eps: rf101_basics
%%Creator: ROOT Version 6.13/01
%%CreationDate: Thu Dec 28 11:46:51 2017
%%DocumentNeededResources: ProcSet (FontSetInit)
%%EndComments
%%BeginProlog
80 dict begin
/s {stroke} def /l {lineto} def /m {moveto} def /t {translate} def
/r {rotate} def /rl {roll}  def /R {repeat} def
/d {rlineto} def /rm {rmoveto} def /gr {grestore} def /f {eofill} def
/c {setrgbcolor} def /black {0 setgray} def /sd {setdash} def
/cl {closepath} def /sf {scalefont setfont} def /lw {setlinewidth} def
/box {m dup 0 exch d exch 0 d 0 exch neg d cl} def
/NC{systemdict begin initclip end}def/C{NC box clip newpath}def
/bl {box s} def /bf {gsave box gsave f grestore 1 lw [] 0 sd s grestore} def /Y { 0 exch d} def /X { 0 d} def 
/K {{pop pop 0 moveto} exch kshow} bind def
/ita {/ang 15 def gsave [1 0 ang dup sin exch cos div 1 0 0] concat} def 
/mp {newpath /y exch def /x exch def} def
/side {[w .77 mul w .23 mul] .385 w mul sd w 0 l currentpoint t -144 r} def
/mr {mp x y w2 0 360 arc} def /m24 {mr s} def /m20 {mr f} def
/mb {mp x y w2 add m w2 neg 0 d 0 w neg d w 0 d 0 w d cl} def
/mt {mp x y w2 add m w2 neg w neg d w 0 d cl} def
/w4 {w 4 div} def
/w6 {w 6 div} def
/w8 {w 8 div} def
/m21 {mb f} def /m25 {mb s} def /m22 {mt f} def /m26{mt s} def
/m23 {mp x y w2 sub m w2 w d w neg 0 d cl f} def
/m27 {mp x y w2 add m w3 neg w2 neg d w3 w2 neg d w3 w2 d cl s} def
/m28 {mp x w2 sub y w2 sub w3 add m w3 0 d  0 w3 neg d w3 0 d 0 w3 d w3 0 d  0 w3 d w3 neg 0 d 0 w3 d w3 neg 0 d 0 w3 neg d w3 neg 0 d cl s } def
/m29 {mp gsave x w2 sub y w2 add w3 sub m currentpoint t 4 {side} repeat cl fill gr} def
/m30 {mp gsave x w2 sub y w2 add w3 sub m currentpoint t 4 {side} repeat cl s gr} def
/m31 {mp x y w2 sub m 0 w d x w2 sub y m w 0 d x w2 sub y w2 add m w w neg d x w2 sub y w2 sub m w w d s} def
/m32 {mp x y w2 sub m w2 w d w neg 0 d cl s} def
/m33 {mp x y w2 add m w3 neg w2 neg d w3 w2 neg d w3 w2 d cl f} def
/m34 {mp x w2 sub y w2 sub w3 add m w3 0 d  0 w3 neg d w3 0 d 0 w3 d w3 0 d  0 w3 d w3 neg 0 d 0 w3 d w3 neg 0 d 0 w3 neg d w3 neg 0 d cl f } def
/m35 {mp x y w2 add m w2 neg w2 neg d w2 w2 neg d w2 w2 d w2 neg w2 d x y w2 sub m 0 w d x w2 sub y m w 0 d s} def
/m36 {mb x w2 sub y w2 add m w w neg d x w2 sub y w2 sub m w w d s} def
/m37 {mp x y m w4 neg w2 d w4 neg w2 neg d w2 0 d  w4 neg w2 neg d w2 0 d w4 neg w2 d w2 0 d w4 neg w2 d w4 neg w2 neg d cl s} def
/m38 {mp x w4 sub y w2 add m w4 neg w4 neg d 0 w2 neg d w4 w4 neg d w2 0 d w4 w4 d 0 w2 d w4 neg w4 d w2 neg 0 d x y w2 sub m 0 w d x w2 sub y m w 0 d cl s} def
/m39 {mp x y m w4 neg w2 d w4 neg w2 neg d w2 0 d  w4 neg w2 neg d w2 0 d w4 neg w2 d w2 0 d w4 neg w2 d w4 neg w2 neg d cl f} def
/m40 {mp x y m w4 w2 d w4 w4 neg d w2 neg w4 neg d w2 w4 neg d w4 neg w4 neg d w4 neg w2 d w4 neg w2 neg d w4 neg w4 d w2 w4 d w2 neg w4 d w4 w4 d w4 w2 neg d cl s} def
/m41 {mp x y m w4 w2 d w4 w4 neg d w2 neg w4 neg d w2 w4 neg d w4 neg w4 neg d w4 neg w2 d w4 neg w2 neg d w4 neg w4 d w2 w4 d w2 neg w4 d w4 w4 d w4 w2 neg d cl f} def
/m42 {mp x y w2 add m w8 neg w2 -3 4 div mul d w2 -3 4 div mul w8 neg d w2 3 4 div mul w8 neg d w8 w2 -3 4 div mul d w8 w2 3 4 div mul d w2 3 4 div mul w8 d w2 -3 4 div mul w8 d w8 neg w2 3 4 div mul d cl s} def
/m43 {mp x y w2 add m w8 neg w2 -3 4 div mul d w2 -3 4 div mul w8 neg d w2 3 4 div mul w8 neg d w8 w2 -3 4 div mul d w8 w2 3 4 div mul d w2 3 4 div mul w8 d w2 -3 4 div mul w8 d w8 neg w2 3 4 div mul d cl f} def
/m44 {mp x y m w6 neg w2 d w2 2 3 div mul 0 d w6 neg w2 neg d w2 w6 d 0 w2 -2 3 div mul d w2 neg w6 d w6 w2 neg d w2 -2 3 div mul 0 d w6 w2 d w2 neg w6 neg d 0 w2 2 3 div mul d w2 w6 neg d cl s} def
/m45 {mp x y m w6 neg w2 d w2 2 3 div mul 0 d w6 neg w2 neg d w2 w6 d 0 w2 -2 3 div mul d w2 neg w6 d w6 w2 neg d w2 -2 3 div mul 0 d w6 w2 d w2 neg w6 neg d 0 w2 2 3 div mul d w2 w6 neg d cl f} def
/m46 {mp x y w4 add m w4 neg w4 d w4 neg w4 neg d  w4 w4 neg d w4 neg w4 neg d w4 w4 neg d w4 w4 d w4 w4 neg d w4 w4 d w4 neg w4 d w4 w4 d w4 neg w4 d w4 neg w4 neg d cl s} def
/m47 {mp x y w4 add m w4 neg w4 d w4 neg w4 neg d w4 w4 neg d w4 neg w4 neg d  w4 w4 neg d w4 w4 d w4 w4 neg d w4 w4 d w4 neg w4 d w4 w4 d w4 neg w4 d w4 neg w4 neg d cl f} def
/m48 {mp x y w4 add m w4 neg w4 d w4 neg w4 neg d w4 w4 neg d  w4 neg w4 neg d w4 w4 neg d w4 w4 d w4 w4 neg d w4 w4 d w4 neg w4 d w4 w4 d w4 neg w4 d w4 neg w4 neg d  w4 w4 neg d w4 neg w4 neg d w4 neg w4 d w4 w4 d cl f} def
/m49 {mp x w2 sub w3 add y w2 sub w3 add m  0 w3 neg d w3 0 d 0 w3 d w3 0 d 0 w3 d w3 neg 0 d 0 w3 d w3 neg 0 d 0 w3 neg d w3 neg 0 d 0 w3 neg d w3 0 d 0 w3 d w3 0 d 0 w3 neg d w3 neg 0 d cl f } def
/m2 {mp x y w2 sub m 0 w d x w2 sub y m w 0 d s} def
/m5 {mp x w2 sub y w2 sub m w w d x w2 sub y w2 add m w w neg d s} def
%%IncludeResource: ProcSet (FontSetInit)
%%IncludeResource: font Times-Roman
%%IncludeResource: font Times-Italic
%%IncludeResource: font Times-Bold
%%IncludeResource: font Times-BoldItalic
%%IncludeResource: font Helvetica
%%IncludeResource: font Helvetica-Oblique
%%IncludeResource: font Helvetica-Bold
%%IncludeResource: font Helvetica-BoldOblique
%%IncludeResource: font Courier
%%IncludeResource: font Courier-Oblique
%%IncludeResource: font Courier-Bold
%%IncludeResource: font Courier-BoldOblique
%%IncludeResource: font Symbol
%%IncludeResource: font ZapfDingbats
/reEncode {exch findfont dup length dict begin {1 index /FID eq  {pop pop} {def} ifelse } forall /Encoding exch def currentdict end dup /FontName get exch definefont pop } def [/Times-Bold /Times-Italic /Times-BoldItalic /Helvetica /Helvetica-Oblique
 /Helvetica-Bold /Helvetica-BoldOblique /Courier /Courier-Oblique /Courier-Bold /Courier-BoldOblique /Times-Roman /AvantGarde-Book /AvantGarde-BookOblique /AvantGarde-Demi /AvantGarde-DemiOblique /Bookman-Demi /Bookman-DemiItalic /Bookman-Light
 /Bookman-LightItalic /Helvetica-Narrow /Helvetica-Narrow-Bold /Helvetica-Narrow-BoldOblique /Helvetica-Narrow-Oblique /NewCenturySchlbk-Roman /NewCenturySchlbk-Bold /NewCenturySchlbk-BoldItalic /NewCenturySchlbk-Italic /Palatino-Bold
 /Palatino-BoldItalic /Palatino-Italic /Palatino-Roman ] {ISOLatin1Encoding reEncode } forall
%%EndProlog
%%BeginSetup
%%EndSetup
newpath  gsave  .25 .25 scale  gsave  0 0 t black[  ] 0 sd 3 lw 1 1 1 c 2268 713 0 0 bf black 1 1 1 c 710 699 23 7 bf black 1 1 1 c 533 559 129 77 bf black 533 559 129 77 bl 129 77 m 533 X s 129 93 m -16 Y s 143 85 m -8 Y s 156 85 m -8 Y s 169 85 m
 -8 Y s 183 85 m -8 Y s 196 93 m -16 Y s 209 85 m -8 Y s 223 85 m -8 Y s 236 85 m -8 Y s 249 85 m -8 Y s 262 93 m -16 Y s 276 85 m -8 Y s 289 85 m -8 Y s 302 85 m -8 Y s 316 85 m -8 Y s 329 93 m -16 Y s 342 85 m -8 Y s 356 85 m -8 Y s 369 85 m -8 Y s
 382 85 m -8 Y s 396 93 m -16 Y s 409 85 m -8 Y s 422 85 m -8 Y s 436 85 m -8 Y s 449 85 m -8 Y s 462 93 m -16 Y s 476 85 m -8 Y s 489 85 m -8 Y s 502 85 m -8 Y s 516 85 m -8 Y s 529 93 m -16 Y s 542 85 m -8 Y s 556 85 m -8 Y s 569 85 m -8 Y s 582 85
 m -8 Y s 596 93 m -16 Y s 609 85 m -8 Y s 622 85 m -8 Y s 636 85 m -8 Y s 649 85 m -8 Y s 662 93 m -16 Y s
 gsave  710 699 23 7 C 105.968 54.4979 t 0 r /Helvetica findfont 22.736 sf 0 0 m (5.25) show NC gr 
 gsave  710 699 23 7 C 166.521 54.4979 t 0 r /Helvetica findfont 22.736 sf 0 0 m (5.255) show NC gr 
 gsave  710 699 23 7 C 239.185 54.4979 t 0 r /Helvetica findfont 22.736 sf 0 0 m (5.26) show NC gr 
 gsave  710 699 23 7 C 299.738 54.4979 t 0 r /Helvetica findfont 22.736 sf 0 0 m (5.265) show NC gr 
 gsave  710 699 23 7 C 372.402 54.4979 t 0 r /Helvetica findfont 22.736 sf 0 0 m (5.27) show NC gr 
 gsave  710 699 23 7 C 432.955 54.4979 t 0 r /Helvetica findfont 22.736 sf 0 0 m (5.275) show NC gr 
 gsave  710 699 23 7 C 505.619 54.4979 t 0 r /Helvetica findfont 22.736 sf 0 0 m (5.28) show NC gr 
 gsave  710 699 23 7 C 566.172 54.4979 t 0 r /Helvetica findfont 22.736 sf 0 0 m (5.285) show NC gr 
 gsave  710 699 23 7 C 638.836 54.4979 t 0 r /Helvetica findfont 22.736 sf 0 0 m (5.29) show NC gr 
 gsave  710 699 23 7 C 499.564 31.7904 t 0 r /Helvetica findfont 22.736 sf 0 0 m (m_bc \(GeV/c^2\)) show NC gr  129 77 m 559 Y s 146 77 m -17 X s 138 89 m -9 X s 138 101 m -9 X s 138 112 m -9 X s 138 124 m -9 X s 146 136 m -17 X s 138 148 m -9 X s
 138 159 m -9 X s 138 171 m -9 X s 138 183 m -9 X s 146 195 m -17 X s 138 207 m -9 X s 138 218 m -9 X s 138 230 m -9 X s 138 242 m -9 X s 146 254 m -17 X s 138 265 m -9 X s 138 277 m -9 X s 138 289 m -9 X s 138 301 m -9 X s 146 313 m -17 X s 138 324
 m -9 X s 138 336 m -9 X s 138 348 m -9 X s 138 360 m -9 X s 146 371 m -17 X s 138 383 m -9 X s 138 395 m -9 X s 138 407 m -9 X s 138 419 m -9 X s 146 430 m -17 X s 138 442 m -9 X s 138 454 m -9 X s 138 466 m -9 X s 138 477 m -9 X s 146 489 m -17 X s
 138 501 m -9 X s 138 513 m -9 X s 138 525 m -9 X s 138 536 m -9 X s 146 548 m -17 X s 138 560 m -9 X s 138 572 m -9 X s 138 583 m -9 X s 138 595 m -9 X s 146 607 m -17 X s 146 607 m -17 X s 138 619 m -9 X s 138 631 m -9 X s
 gsave  710 699 23 7 C 113.537 68.1223 t 0 r /Helvetica findfont 22.736 sf 0 0 m (0) show NC gr 
 gsave  710 699 23 7 C 87.8021 127.162 t 0 r /Helvetica findfont 22.736 sf 0 0 m (100) show NC gr 
 gsave  710 699 23 7 C 87.8021 186.201 t 0 r /Helvetica findfont 22.736 sf 0 0 m (200) show NC gr 
 gsave  710 699 23 7 C 87.8021 245.24 t 0 r /Helvetica findfont 22.736 sf 0 0 m (300) show NC gr 
 gsave  710 699 23 7 C 87.8021 304.28 t 0 r /Helvetica findfont 22.736 sf 0 0 m (400) show NC gr 
 gsave  710 699 23 7 C 87.8021 363.319 t 0 r /Helvetica findfont 22.736 sf 0 0 m (500) show NC gr 
 gsave  710 699 23 7 C 87.8021 422.358 t 0 r /Helvetica findfont 22.736 sf 0 0 m (600) show NC gr 
 gsave  710 699 23 7 C 87.8021 481.398 t 0 r /Helvetica findfont 22.736 sf 0 0 m (700) show NC gr 
 gsave  710 699 23 7 C 87.8021 540.437 t 0 r /Helvetica findfont 22.736 sf 0 0 m (800) show NC gr 
 gsave  710 699 23 7 C 87.8021 597.963 t 0 r /Helvetica findfont 22.736 sf 0 0 m (900) show NC gr 
 gsave  710 699 23 7 C 71.15 360.291 t 90 r /Helvetica findfont 22.736 sf 0 0 m (Events / \( 0.0004 GeV/c^2 \)) show NC gr  1 1 1 c black
 gsave  710 699 23 7 C 328.501 670.626 t 0 r /Helvetica findfont 34.8619 sf 0 0 m (Signal) show NC gr  132 77 m -3 X s 129 77 m 3 Y s 132 77 m 3 X s 135 77 m 3 Y s 132 77 m 1 Y s 129 78 m 6 X s 137 77 m -2 X s 135 77 m 3 Y s 137 77 m 3 X s 140 77 m 3
 Y s 137 77 m 1 Y s 134 78 m 6 X s 143 77 m -3 X s 140 77 m 3 Y s 143 77 m 2 X s 145 77 m 3 Y s 143 77 m 1 Y s 140 78 m 6 X s 148 77 m -3 X s 145 77 m 3 Y s 148 77 m 3 X s 151 77 m 3 Y s 148 77 m 1 Y s 145 78 m 6 X s 153 77 m -2 X s 151 77 m 3 Y s
 153 77 m 3 X s 156 77 m 3 Y s 153 77 m 1 Y s 150 78 m 6 X s 159 77 m -3 X s 156 77 m 3 Y s 159 77 m 2 X s 161 77 m 3 Y s 159 77 m 1 Y s 156 78 m 6 X s 164 77 m -3 X s 161 77 m 3 Y s 164 77 m 3 X s 167 77 m 3 Y s 164 77 m 1 Y s 161 78 m 6 X s 169 77
 m -2 X s 167 77 m 3 Y s 169 77 m 3 X s 172 77 m 3 Y s 169 77 m 1 Y s 166 78 m 6 X s 175 77 m -3 X s 172 77 m 3 Y s 175 77 m 2 X s 177 77 m 3 Y s 175 77 m 1 Y s 172 78 m 6 X s 180 77 m -3 X s 177 77 m 3 Y s 180 77 m 3 X s 183 77 m 3 Y s 180 77 m 1 Y
 s 177 78 m 6 X s 185 77 m -2 X s 183 77 m 3 Y s 185 77 m 3 X s 188 77 m 3 Y s 185 77 m 1 Y s 182 78 m 6 X s 191 77 m -3 X s 188 77 m 3 Y s 191 77 m 2 X s 193 77 m 3 Y s 191 77 m 1 Y s 188 78 m 6 X s 196 77 m -3 X s 193 77 m 3 Y s 196 77 m 3 X s 199
 77 m 3 Y s 196 77 m 1 Y s 193 78 m 6 X s 201 77 m -2 X s 199 77 m 3 Y s 201 77 m 3 X s 204 77 m 3 Y s 201 77 m 1 Y s 198 78 m 6 X s 207 77 m -3 X s 204 77 m 3 Y s 207 77 m 2 X s 209 77 m 3 Y s 207 77 m 1 Y s 204 78 m 6 X s 212 77 m -3 X s 209 77 m 3
 Y s 212 77 m 3 X s 215 77 m 3 Y s 212 77 m 1 Y s 209 78 m 6 X s 217 77 m -2 X s 215 77 m 3 Y s 217 77 m 3 X s 220 77 m 3 Y s 217 77 m 1 Y s 214 78 m 6 X s 223 77 m -3 X s 220 77 m 3 Y s 223 77 m 2 X s 225 77 m 3 Y s 223 77 m 1 Y s 219 78 m 7 X s 228
 77 m -3 X s 225 77 m 3 Y s 228 77 m 3 X s 231 77 m 3 Y s 228 77 m 1 Y s 225 78 m 6 X s 233 77 m -2 X s 231 77 m 3 Y s 233 77 m 3 X s 236 77 m 3 Y s 233 77 m 1 Y s 230 78 m 6 X s 239 77 m -3 X s 236 77 m 3 Y s 239 77 m 2 X s 241 77 m 3 Y s 239 77 m 1
 Y s 235 78 m 7 X s 244 77 m -3 X s 241 77 m 3 Y s 244 77 m 3 X s 247 77 m 3 Y s 244 77 m 1 Y s 241 78 m 6 X s 249 77 m -2 X s 247 77 m 3 Y s 249 77 m 3 X s 252 77 m 3 Y s 249 77 m 1 Y s 246 78 m 6 X s 254 77 m -2 X s 252 77 m 3 Y s 254 77 m 3 X s
 257 77 m 3 Y s 254 77 m 1 Y s 251 78 m 7 X s 260 77 m -3 X s 257 77 m 3 Y s 260 77 m 2 X s 262 77 m 3 Y s 260 77 m 1 Y s 257 78 m 6 X s 265 77 m -3 X s 262 77 m 3 Y s 265 77 m 3 X s 268 77 m 3 Y s 265 77 m 1 Y s 262 78 m 6 X s 270 78 m -2 X s 268 77
 m 4 Y s 270 78 m 3 X s 273 77 m 4 Y s 270 78 m 1 Y s 267 79 m 7 X s 270 78 m -1 Y s 267 77 m 7 X s 276 77 m -3 X s 273 77 m 3 Y s 276 77 m 2 X s 278 77 m 3 Y s 276 77 m 1 Y s 273 78 m 6 X s 281 77 m -3 X s 278 77 m 3 Y s 281 77 m 3 X s 284 77 m 3 Y
 s 281 77 m 1 Y s 278 78 m 6 X s 286 77 m -2 X s 284 77 m 3 Y s 286 77 m 3 X s 289 77 m 3 Y s 286 77 m 1 Y s 283 78 m 6 X s 292 78 m -3 X s 289 77 m 4 Y s 292 78 m 2 X s 294 77 m 4 Y s 292 78 m 1 Y s 289 79 m 6 X s 292 78 m -1 Y s 289 77 m 6 X s 297
 77 m -3 X s 294 77 m 3 Y s 297 77 m 3 X s 300 77 m 3 Y s 297 77 m 1 Y s 294 78 m 6 X s 302 77 m -2 X s 300 77 m 3 Y s 302 77 m 3 X s 305 77 m 3 Y s 302 77 m 1 Y s 299 78 m 6 X s 308 77 m -3 X s 305 77 m 3 Y s 308 77 m 2 X s 310 77 m 3 Y s 308 77 m 1
 Y s 305 78 m 6 X s 313 77 m -3 X s 310 77 m 3 Y s 313 77 m 3 X s 316 77 m 3 Y s 313 77 m 1 Y s 310 78 m 6 X s 318 78 m -2 X s 316 77 m 4 Y s 318 78 m 3 X s 321 77 m 4 Y s 318 78 m 1 Y s 315 79 m 6 X s 318 78 m -1 Y s 315 77 m 6 X s 324 77 m -3 X s
 321 77 m 3 Y s 324 77 m 2 X s 326 77 m 3 Y s 324 77 m 1 Y s 321 78 m 6 X s 329 78 m -3 X s 326 77 m 4 Y s 329 78 m 3 X s 332 77 m 4 Y s 329 78 m 1 Y s 326 79 m 6 X s 329 78 m -1 Y s 326 77 m 6 X s 334 77 m -2 X s 332 77 m 3 Y s 334 77 m 3 X s 337 77
 m 3 Y s 334 77 m 1 Y s 331 78 m 6 X s 340 78 m -3 X s 337 77 m 4 Y s 340 78 m 2 X s 342 77 m 4 Y s 340 78 m 1 Y s 337 79 m 6 X s 340 78 m -1 Y s 337 77 m 6 X s 345 77 m -3 X s 342 77 m 3 Y s 345 77 m 3 X s 348 77 m 3 Y s 345 77 m 1 Y s 342 78 m 6 X
 s 350 77 m -2 X s 348 77 m 3 Y s 350 77 m 3 X s 353 77 m 3 Y s 350 77 m 1 Y s 347 78 m 6 X s 356 78 m -3 X s 353 77 m 4 Y s 356 78 m 2 X s 358 77 m 4 Y s 356 78 m 1 Y s 353 79 m 6 X s 356 78 m -1 Y s 353 77 m 6 X s 361 77 m -3 X s 358 77 m 3 Y s 361
 77 m 3 X s 364 77 m 3 Y s 361 77 m 1 Y s 358 78 m 6 X s 366 77 m -2 X s 364 77 m 3 Y s 366 77 m 3 X s 369 77 m 3 Y s 366 77 m 1 Y s 363 78 m 6 X s 372 78 m -3 X s 369 77 m 4 Y s 372 78 m 2 X s 374 77 m 4 Y s 372 78 m 1 Y s 369 79 m 6 X s 372 78 m -1
 Y s 369 77 m 6 X s 377 78 m -3 X s 374 77 m 4 Y s 377 78 m 3 X s 380 77 m 4 Y s 377 78 m 1 Y s 374 79 m 6 X s 377 78 m -1 Y s 374 77 m 6 X s 382 78 m -2 X s 380 77 m 4 Y s 382 78 m 3 X s 385 77 m 4 Y s 382 78 m 1 Y s 379 79 m 6 X s 382 78 m -1 Y s
 379 77 m 6 X s 388 78 m -3 X s 385 77 m 4 Y s 388 78 m 2 X s 390 77 m 4 Y s 388 78 m 2 Y s 385 80 m 6 X s 388 78 m -1 Y s 385 77 m 6 X s 393 78 m -3 X s 390 77 m 4 Y s 393 78 m 3 X s 396 77 m 4 Y s 393 78 m 2 Y s 390 80 m 6 X s 393 78 m -1 Y s 390
 77 m 6 X s 398 78 m -2 X s 396 77 m 4 Y s 398 78 m 3 X s 401 77 m 4 Y s 398 78 m 1 Y s 395 79 m 6 X s 398 78 m -1 Y s 395 77 m 6 X s 404 78 m -3 X s 401 77 m 4 Y s 404 78 m 2 X s 406 77 m 4 Y s 404 78 m 2 Y s 401 80 m 6 X s 404 78 m -1 Y s 401 77 m
 6 X s 409 78 m -3 X s 406 77 m 4 Y s 409 78 m 3 X s 412 77 m 4 Y s 409 78 m 1 Y s 406 79 m 6 X s 409 78 m -1 Y s 406 77 m 6 X s 414 79 m -2 X s 412 77 m 5 Y s 414 79 m 3 X s 417 77 m 5 Y s 414 79 m 1 Y s 411 80 m 6 X s 414 79 m -1 Y s 411 78 m 6 X s
 420 83 m -3 X s 417 80 m 7 Y s 420 83 m 2 X s 422 80 m 7 Y s 420 83 m 3 Y s 417 86 m 6 X s 420 83 m -1 Y s 417 82 m 6 X s 425 82 m -3 X s 422 79 m 6 Y s 425 82 m 3 X s 428 79 m 6 Y s 425 82 m 2 Y s 422 84 m 6 X s 425 82 m -2 Y s 422 80 m 6 X s 430
 86 m -2 X s 428 83 m 6 Y s 430 86 m 3 X s 433 83 m 6 Y s 430 86 m 3 Y s 427 89 m 6 X s 430 86 m -2 Y s 427 84 m 6 X s 436 88 m -3 X s 433 85 m 6 Y s 436 88 m 2 X s 438 85 m 6 Y s 436 88 m 3 Y s 433 91 m 6 X s 436 88 m -2 Y s 433 86 m 6 X s 441 99 m
 -3 X s 438 96 m 6 Y s 441 99 m 3 X s 444 96 m 6 Y s 441 99 m 4 Y s 438 103 m 6 X s 441 99 m -4 Y s 438 95 m 6 X s 446 100 m -2 X s 444 97 m 6 Y s 446 100 m 3 X s 449 97 m 6 Y s 446 100 m 4 Y s 443 104 m 6 X s 446 100 m -4 Y s 443 96 m 6 X s 452 105
 m -3 X s 449 102 m 6 Y s 452 105 m 2 X s 454 102 m 6 Y s 452 105 m 4 Y s 449 109 m 6 X s 452 105 m -4 Y s 449 101 m 6 X s 457 120 m -3 X s 454 117 m 6 Y s 457 120 m 3 X s 460 117 m 6 Y s 457 120 m 6 Y s 454 126 m 6 X s 457 120 m -5 Y s 454 115 m 6 X
 s 462 138 m -2 X s 460 135 m 6 Y s 462 138 m 3 X s 465 135 m 6 Y s 462 138 m 7 Y s 459 145 m 6 X s 462 138 m -5 Y s 459 133 m 6 X s 468 154 m -3 X s 465 151 m 6 Y s 468 154 m 2 X s 470 151 m 6 Y s 468 154 m 7 Y s 465 161 m 6 X s 468 154 m -6 Y s 465
 148 m 6 X s 473 182 m -3 X s 470 179 m 6 Y s 473 182 m 3 X s 476 179 m 6 Y s 473 182 m 9 Y s 470 191 m 6 X s 473 182 m -7 Y s 470 175 m 6 X s 478 215 m -2 X s 476 212 m 6 Y s 478 215 m 3 X s 481 212 m 6 Y s 478 215 m 10 Y s 475 225 m 6 X s 478 215 m
 -8 Y s 475 207 m 6 X s 484 242 m -3 X s 481 239 m 6 Y s 484 242 m 2 X s 486 239 m 6 Y s 484 242 m 10 Y s 481 252 m 6 X s 484 242 m -10 Y s 481 232 m 6 X s 489 287 m -3 X s 486 284 m 6 Y s 489 287 m 3 X s 492 284 m 6 Y s 489 287 m 12 Y s 486 299 m 6
 X s 489 287 m -11 Y s 486 276 m 6 X s 494 332 m -2 X s 492 329 m 6 Y s 494 332 m 3 X s 497 329 m 6 Y s 494 332 m 13 Y s 491 345 m 6 X s 494 332 m -12 Y s 491 320 m 6 X s 500 397 m -3 X s 497 394 m 6 Y s 500 397 m 2 X s 502 394 m 6 Y s 500 397 m 14 Y
 s 497 411 m 6 X s 500 397 m -14 Y s 497 383 m 6 X s 505 440 m -3 X s 502 437 m 6 Y s 505 440 m 3 X s 508 437 m 6 Y s 505 440 m 15 Y s 502 455 m 6 X s 505 440 m -15 Y s 502 425 m 6 X s 510 464 m -2 X s 508 461 m 6 Y s 510 464 m 3 X s 513 461 m 6 Y s
 510 464 m 15 Y s 507 479 m 6 X s 510 464 m -15 Y s 507 449 m 6 X s 516 556 m -3 X s 513 553 m 6 Y s 516 556 m 2 X s 518 553 m 6 Y s 516 556 m 17 Y s 513 573 m 6 X s 516 556 m -17 Y s 513 539 m 6 X s 521 583 m -3 X s 518 580 m 6 Y s 521 583 m 3 X s
 524 580 m 6 Y s 521 583 m 17 Y s 518 600 m 6 X s 521 583 m -17 Y s 518 566 m 6 X s 526 582 m -2 X s 524 579 m 6 Y s 526 582 m 3 X s 529 579 m 6 Y s 526 582 m 18 Y s 523 600 m 6 X s 526 582 m -17 Y s 523 565 m 6 X s 532 592 m -3 X s 529 589 m 6 Y s
 532 592 m 2 X s 534 589 m 6 Y s 532 592 m 17 Y s 529 609 m 6 X s 532 592 m -17 Y s 529 575 m 6 X s 537 572 m -3 X s 534 569 m 6 Y s 537 572 m 3 X s 540 569 m 6 Y s 537 572 m 18 Y s 534 590 m 6 X s 537 572 m -17 Y s 534 555 m 6 X s 542 587 m -2 X s
 540 584 m 6 Y s 542 587 m 3 X s 545 584 m 6 Y s 542 587 m 18 Y s 539 605 m 6 X s 542 587 m -17 Y s 539 570 m 6 X s 548 568 m -3 X s 545 565 m 6 Y s 548 568 m 2 X s 550 565 m 6 Y s 548 568 m 17 Y s 545 585 m 6 X s 548 568 m -17 Y s 545 551 m 6 X s
 553 546 m -3 X s 550 543 m 6 Y s 553 546 m 3 X s 556 543 m 6 Y s 553 546 m 17 Y s 550 563 m 6 X s 553 546 m -16 Y s 550 530 m 6 X s 558 499 m -2 X s 556 496 m 6 Y s 558 499 m 3 X s 561 496 m 6 Y s 558 499 m 16 Y s 555 515 m 6 X s 558 499 m -16 Y s
 555 483 m 6 X s 564 434 m -3 X s 561 431 m 6 Y s 564 434 m 2 X s 566 431 m 6 Y s 564 434 m 15 Y s 561 449 m 6 X s 564 434 m -14 Y s 561 420 m 6 X s 569 414 m -3 X s 566 411 m 6 Y s 569 414 m 3 X s 572 411 m 6 Y s 569 414 m 14 Y s 566 428 m 6 X s 569
 414 m -14 Y s 566 400 m 6 X s 574 364 m -2 X s 572 361 m 6 Y s 574 364 m 3 X s 577 361 m 6 Y s 574 364 m 14 Y s 571 378 m 6 X s 574 364 m -12 Y s 571 352 m 6 X s 580 299 m -3 X s 577 296 m 6 Y s 580 299 m 2 X s 582 296 m 6 Y s 580 299 m 12 Y s 577
 311 m 6 X s 580 299 m -11 Y s 577 288 m 6 X s 585 254 m -3 X s 582 251 m 6 Y s 585 254 m 3 X s 588 251 m 6 Y s 585 254 m 11 Y s 582 265 m 6 X s 585 254 m -10 Y s 582 244 m 6 X s 590 231 m -2 X s 588 228 m 6 Y s 590 231 m 3 X s 593 228 m 6 Y s 590
 231 m 10 Y s 587 241 m 6 X s 590 231 m -9 Y s 587 222 m 6 X s 596 194 m -3 X s 593 191 m 6 Y s 596 194 m 2 X s 598 191 m 6 Y s 596 194 m 9 Y s 593 203 m 6 X s 596 194 m -8 Y s 593 186 m 6 X s 601 159 m -3 X s 598 156 m 6 Y s 601 159 m 3 X s 604 156
 m 6 Y s 601 159 m 7 Y s 598 166 m 6 X s 601 159 m -7 Y s 598 152 m 6 X s 606 138 m -2 X s 604 135 m 6 Y s 606 138 m 3 X s 609 135 m 6 Y s 606 138 m 7 Y s 603 145 m 6 X s 606 138 m -5 Y s 603 133 m 6 X s 612 118 m -3 X s 609 115 m 6 Y s 612 118 m 2 X
 s 614 115 m 6 Y s 612 118 m 6 Y s 609 124 m 6 X s 612 118 m -5 Y s 609 113 m 6 X s 617 105 m -3 X s 614 102 m 6 Y s 617 105 m 3 X s 620 102 m 6 Y s 617 105 m 5 Y s 614 110 m 6 X s 617 105 m -4 Y s 614 101 m 6 X s 622 103 m -2 X s 620 100 m 6 Y s 622
 103 m 3 X s 625 100 m 6 Y s 622 103 m 4 Y s 619 107 m 6 X s 622 103 m -4 Y s 619 99 m 6 X s 628 88 m -3 X s 625 85 m 6 Y s 628 88 m 2 X s 630 85 m 6 Y s 628 88 m 3 Y s 625 91 m 6 X s 628 88 m -2 Y s 625 86 m 6 X s 633 86 m -3 X s 630 83 m 6 Y s 633
 86 m 3 X s 636 83 m 6 Y s 633 86 m 3 Y s 630 89 m 6 X s 633 86 m -2 Y s 630 84 m 6 X s 638 82 m -2 X s 636 79 m 6 Y s 638 82 m 3 X s 641 79 m 6 Y s 638 82 m 3 Y s 635 85 m 6 X s 638 82 m -1 Y s 635 81 m 6 X s 644 82 m -3 X s 641 79 m 6 Y s 644 82 m
 2 X s 646 79 m 6 Y s 644 82 m 3 Y s 640 85 m 7 X s 644 82 m -1 Y s 640 81 m 7 X s 649 79 m -3 X s 646 77 m 5 Y s 649 79 m 3 X s 652 77 m 5 Y s 649 79 m 1 Y s 646 80 m 6 X s 649 79 m -1 Y s 646 78 m 6 X s 654 79 m -2 X s 652 77 m 5 Y s 654 79 m 3 X s
 657 77 m 5 Y s 654 79 m 1 Y s 651 80 m 6 X s 654 79 m -1 Y s 651 78 m 6 X s 660 77 m -3 X s 657 77 m 3 Y s 660 77 m 2 X s 662 77 m 3 Y s 660 77 m 1 Y s 656 78 m 6 X s 1 1 1 c black /w 12 def /w2 {w 2 div} def /w3 {w 3 div} def 132 77 137 77 143 77
 148 77 153 77 159 77 164 77 169 77 175 77 180 77 185 77 191 77 196 77 201 77 207 77 212 77 217 77 223 77 228 77 233 77 239 77 244 77 249 77 254 77 260 77 265 77 270 78 276 77 281 77 286 77 292 78 297 77 302 77 308 77 313 77 318 78 324 77 329 78 334
 77 340 78 345 77 350 77 356 78 361 77 366 77 372 78 377 78 382 78 388 78 393 78 398 78 404 78 409 78 414 79 420 83 425 82 430 86 436 88 441 99 446 100 452 105 457 120 462 138 468 154 473 182 478 215 484 242 489 287 494 332 500 397 505 440 510 464
 516 556 521 583 526 582 532 592 537 572 542 587 548 568 553 546 558 499 564 434 569 414 574 364 580 299 585 254 590 231 596 194 601 159 606 138 612 118 617 105 622 103 628 88 633 86 638 82 644 82 649 79 654 79 660 77 100 { m20} R 0 0 1 c 9 lw 1 1 1
 c black 0 0 1 c 129 77 m cl s 129 77 m 240 X 5 1 d 32 X 6 1 d 5 X 5 1 d 6 2 d 5 3 d 5 4 d 6 5 d 5 8 d 5 11 d 6 14 d 2 9 d 3 10 d 3 12 d 2 12 d 3 14 d 3 15 d 2 17 d 3 18 d 3 20 d 2 20 d 6 45 d 5 47 d 5 49 d 6 48 d 2 23 d 3 21 d 3 20 d 2 19 d 3 16 d 3
 13 d 2 11 d 3 8 d 3 5 d 2 3 d 3 -2 d 3 -4 d 2 -7 d 3 -10 d 3 -13 d 2 -15 d 3 -18 d 3 -19 d 2 -21 d 3 -23 d 5 -47 d 6 -49 d 5 -48 d 5 -45 d 3 -21 d 3 -20 d 2 -18 d 3 -17 d 3 -16 d 2 -15 d 3 -13 d 3 -11 d 2 -11 d 3 -9 d 5 -15 d 6 -11 d 5 -9 d 5 -6 d 6
 -4 d 5 -2 d 5 -2 d 6 -1 d 5 -1 d 5 -1 d s black 3 lw 129 77 m 533 X s 129 93 m -16 Y s 143 85 m -8 Y s 156 85 m -8 Y s 169 85 m -8 Y s 183 85 m -8 Y s 196 93 m -16 Y s 209 85 m -8 Y s 223 85 m -8 Y s 236 85 m -8 Y s 249 85 m -8 Y s 262 93 m -16 Y s
 276 85 m -8 Y s 289 85 m -8 Y s 302 85 m -8 Y s 316 85 m -8 Y s 329 93 m -16 Y s 342 85 m -8 Y s 356 85 m -8 Y s 369 85 m -8 Y s 382 85 m -8 Y s 396 93 m -16 Y s 409 85 m -8 Y s 422 85 m -8 Y s 436 85 m -8 Y s 449 85 m -8 Y s 462 93 m -16 Y s 476 85
 m -8 Y s 489 85 m -8 Y s 502 85 m -8 Y s 516 85 m -8 Y s 529 93 m -16 Y s 542 85 m -8 Y s 556 85 m -8 Y s 569 85 m -8 Y s 582 85 m -8 Y s 596 93 m -16 Y s 609 85 m -8 Y s 622 85 m -8 Y s 636 85 m -8 Y s 649 85 m -8 Y s 662 93 m -16 Y s 129 77 m 559
 Y s 146 77 m -17 X s 138 89 m -9 X s 138 101 m -9 X s 138 112 m -9 X s 138 124 m -9 X s 146 136 m -17 X s 138 148 m -9 X s 138 159 m -9 X s 138 171 m -9 X s 138 183 m -9 X s 146 195 m -17 X s 138 207 m -9 X s 138 218 m -9 X s 138 230 m -9 X s 138
 242 m -9 X s 146 254 m -17 X s 138 265 m -9 X s 138 277 m -9 X s 138 289 m -9 X s 138 301 m -9 X s 146 313 m -17 X s 138 324 m -9 X s 138 336 m -9 X s 138 348 m -9 X s 138 360 m -9 X s 146 371 m -17 X s 138 383 m -9 X s 138 395 m -9 X s 138 407 m -9
 X s 138 419 m -9 X s 146 430 m -17 X s 138 442 m -9 X s 138 454 m -9 X s 138 466 m -9 X s 138 477 m -9 X s 146 489 m -17 X s 138 501 m -9 X s 138 513 m -9 X s 138 525 m -9 X s 138 536 m -9 X s 146 548 m -17 X s 138 560 m -9 X s 138 572 m -9 X s 138
 583 m -9 X s 138 595 m -9 X s 146 607 m -17 X s 146 607 m -17 X s 138 619 m -9 X s 138 631 m -9 X s 1 1 1 c black
 gsave  710 699 23 7 C 328.501 670.626 t 0 r /Helvetica findfont 34.8619 sf 0 0 m (Signal) show NC gr  1 1 1 c 710 699 779 7 bf black 1 1 1 c 533 559 885 77 bf black 533 559 885 77 bl 885 77 m 533 X s 885 93 m -16 Y s 898 85 m -8 Y s 912 85 m -8 Y s
 925 85 m -8 Y s 938 85 m -8 Y s 952 93 m -16 Y s 965 85 m -8 Y s 978 85 m -8 Y s 992 85 m -8 Y s 1005 85 m -8 Y s 1018 93 m -16 Y s 1032 85 m -8 Y s 1045 85 m -8 Y s 1058 85 m -8 Y s 1072 85 m -8 Y s 1085 93 m -16 Y s 1098 85 m -8 Y s 1112 85 m -8 Y
 s 1125 85 m -8 Y s 1138 85 m -8 Y s 1152 93 m -16 Y s 1165 85 m -8 Y s 1178 85 m -8 Y s 1192 85 m -8 Y s 1205 85 m -8 Y s 1218 93 m -16 Y s 1232 85 m -8 Y s 1245 85 m -8 Y s 1258 85 m -8 Y s 1272 85 m -8 Y s 1285 93 m -16 Y s 1298 85 m -8 Y s 1311
 85 m -8 Y s 1325 85 m -8 Y s 1338 85 m -8 Y s 1351 93 m -16 Y s 1365 85 m -8 Y s 1378 85 m -8 Y s 1391 85 m -8 Y s 1405 85 m -8 Y s 1418 93 m -16 Y s
 gsave  710 699 779 7 C 861.369 54.4979 t 0 r /Helvetica findfont 22.736 sf 0 0 m (5.25) show NC gr 
 gsave  710 699 779 7 C 921.922 54.4979 t 0 r /Helvetica findfont 22.736 sf 0 0 m (5.255) show NC gr 
 gsave  710 699 779 7 C 994.586 54.4979 t 0 r /Helvetica findfont 22.736 sf 0 0 m (5.26) show NC gr 
 gsave  710 699 779 7 C 1055.14 54.4979 t 0 r /Helvetica findfont 22.736 sf 0 0 m (5.265) show NC gr 
 gsave  710 699 779 7 C 1127.8 54.4979 t 0 r /Helvetica findfont 22.736 sf 0 0 m (5.27) show NC gr 
 gsave  710 699 779 7 C 1188.36 54.4979 t 0 r /Helvetica findfont 22.736 sf 0 0 m (5.275) show NC gr 
 gsave  710 699 779 7 C 1261.02 54.4979 t 0 r /Helvetica findfont 22.736 sf 0 0 m (5.28) show NC gr 
 gsave  710 699 779 7 C 1321.57 54.4979 t 0 r /Helvetica findfont 22.736 sf 0 0 m (5.285) show NC gr 
 gsave  710 699 779 7 C 1394.24 54.4979 t 0 r /Helvetica findfont 22.736 sf 0 0 m (5.29) show NC gr 
 gsave  710 699 779 7 C 1254.96 31.7904 t 0 r /Helvetica findfont 22.736 sf 0 0 m (m_bc \(GeV/c^2\)) show NC gr  885 77 m 559 Y s 902 77 m -17 X s 894 97 m -9 X s 894 117 m -9 X s 894 137 m -9 X s 902 157 m -17 X s 894 177 m -9 X s 894 198 m -9 X s
 894 218 m -9 X s 902 238 m -17 X s 894 258 m -9 X s 894 278 m -9 X s 894 298 m -9 X s 902 318 m -17 X s 894 338 m -9 X s 894 358 m -9 X s 894 378 m -9 X s 902 398 m -17 X s 894 419 m -9 X s 894 439 m -9 X s 894 459 m -9 X s 902 479 m -17 X s 894 499
 m -9 X s 894 519 m -9 X s 894 539 m -9 X s 902 559 m -17 X s 902 559 m -17 X s 894 579 m -9 X s 894 599 m -9 X s 894 619 m -9 X s
 gsave  710 699 779 7 C 868.938 68.1223 t 0 r /Helvetica findfont 22.736 sf 0 0 m (0) show NC gr 
 gsave  710 699 779 7 C 856.827 148.355 t 0 r /Helvetica findfont 22.736 sf 0 0 m (20) show NC gr 
 gsave  710 699 779 7 C 856.827 230.102 t 0 r /Helvetica findfont 22.736 sf 0 0 m (40) show NC gr 
 gsave  710 699 779 7 C 856.827 310.335 t 0 r /Helvetica findfont 22.736 sf 0 0 m (60) show NC gr 
 gsave  710 699 779 7 C 856.827 390.568 t 0 r /Helvetica findfont 22.736 sf 0 0 m (80) show NC gr 
 gsave  710 699 779 7 C 843.203 470.801 t 0 r /Helvetica findfont 22.736 sf 0 0 m (100) show NC gr 
 gsave  710 699 779 7 C 843.203 551.034 t 0 r /Helvetica findfont 22.736 sf 0 0 m (120) show NC gr 
 gsave  710 699 779 7 C 828.065 360.291 t 90 r /Helvetica findfont 22.736 sf 0 0 m (Events / \( 0.0004 GeV/c^2 \)) show NC gr  1 1 1 c black
 gsave  710 699 779 7 C 1041.51 672.14 t 0 r /Helvetica findfont 34.8619 sf 0 0 m (Background) show NC gr  888 113 m -3 X s 885 110 m 6 Y s 888 113 m 2 X s 890 110 m 6 Y s 888 113 m 17 Y s 885 130 m 6 X s 888 113 m -12 Y s 885 101 m 6 X s 893 141 m
 -3 X s 890 138 m 6 Y s 893 141 m 3 X s 896 138 m 6 Y s 893 141 m 21 Y s 890 162 m 6 X s 893 141 m -16 Y s 890 125 m 6 X s 898 145 m -2 X s 896 142 m 6 Y s 898 145 m 3 X s 901 142 m 6 Y s 898 145 m 21 Y s 895 166 m 7 X s 898 145 m -16 Y s 895 129 m 7
 X s 904 121 m -3 X s 901 118 m 6 Y s 904 121 m 2 X s 906 118 m 6 Y s 904 121 m 18 Y s 901 139 m 6 X s 904 121 m -13 Y s 901 108 m 6 X s 909 141 m -3 X s 906 138 m 6 Y s 909 141 m 3 X s 912 138 m 6 Y s 909 141 m 21 Y s 906 162 m 6 X s 909 141 m -16 Y
 s 906 125 m 6 X s 914 141 m -2 X s 912 138 m 6 Y s 914 141 m 3 X s 917 138 m 6 Y s 914 141 m 21 Y s 911 162 m 7 X s 914 141 m -16 Y s 911 125 m 7 X s 920 113 m -3 X s 917 110 m 6 Y s 920 113 m 2 X s 922 110 m 6 Y s 920 113 m 17 Y s 917 130 m 6 X s
 920 113 m -12 Y s 917 101 m 6 X s 925 117 m -3 X s 922 114 m 6 Y s 925 117 m 3 X s 928 114 m 6 Y s 925 117 m 17 Y s 922 134 m 6 X s 925 117 m -12 Y s 922 105 m 6 X s 930 125 m -2 X s 928 122 m 6 Y s 930 125 m 3 X s 933 122 m 6 Y s 930 125 m 19 Y s
 927 144 m 6 X s 930 125 m -14 Y s 927 111 m 6 X s 936 117 m -3 X s 933 114 m 6 Y s 936 117 m 2 X s 938 114 m 6 Y s 936 117 m 17 Y s 933 134 m 6 X s 936 117 m -12 Y s 933 105 m 6 X s 941 125 m -3 X s 938 122 m 6 Y s 941 125 m 3 X s 944 122 m 6 Y s
 941 125 m 19 Y s 938 144 m 6 X s 941 125 m -14 Y s 938 111 m 6 X s 946 145 m -2 X s 944 142 m 6 Y s 946 145 m 3 X s 949 142 m 6 Y s 946 145 m 21 Y s 943 166 m 6 X s 946 145 m -16 Y s 943 129 m 6 X s 952 125 m -3 X s 949 122 m 6 Y s 952 125 m 2 X s
 954 122 m 6 Y s 952 125 m 19 Y s 949 144 m 6 X s 952 125 m -14 Y s 949 111 m 6 X s 957 117 m -3 X s 954 114 m 6 Y s 957 117 m 3 X s 960 114 m 6 Y s 957 117 m 17 Y s 954 134 m 6 X s 957 117 m -12 Y s 954 105 m 6 X s 962 121 m -2 X s 960 118 m 6 Y s
 962 121 m 3 X s 965 118 m 6 Y s 962 121 m 18 Y s 959 139 m 6 X s 962 121 m -13 Y s 959 108 m 6 X s 968 125 m -3 X s 965 122 m 6 Y s 968 125 m 2 X s 970 122 m 6 Y s 968 125 m 19 Y s 965 144 m 6 X s 968 125 m -14 Y s 965 111 m 6 X s 973 133 m -3 X s
 970 130 m 6 Y s 973 133 m 3 X s 976 130 m 6 Y s 973 133 m 20 Y s 970 153 m 6 X s 973 133 m -15 Y s 970 118 m 6 X s 978 117 m -2 X s 976 114 m 6 Y s 978 117 m 3 X s 981 114 m 6 Y s 978 117 m 17 Y s 975 134 m 6 X s 978 117 m -12 Y s 975 105 m 6 X s
 984 105 m -3 X s 981 102 m 6 Y s 984 105 m 2 X s 986 102 m 6 Y s 984 105 m 15 Y s 981 120 m 6 X s 984 105 m -10 Y s 981 95 m 6 X s 989 149 m -3 X s 986 146 m 6 Y s 989 149 m 3 X s 992 146 m 6 Y s 989 149 m 22 Y s 986 171 m 6 X s 989 149 m -17 Y s
 986 132 m 6 X s 994 101 m -2 X s 992 98 m 6 Y s 994 101 m 3 X s 997 98 m 6 Y s 994 101 m 15 Y s 991 116 m 6 X s 994 101 m -9 Y s 991 92 m 6 X s 1000 133 m -3 X s 997 130 m 6 Y s 1000 133 m 2 X s 1002 130 m 6 Y s 1000 133 m 20 Y s 997 153 m 6 X s
 1000 133 m -15 Y s 997 118 m 6 X s 1005 137 m -3 X s 1002 134 m 6 Y s 1005 137 m 3 X s 1008 134 m 6 Y s 1005 137 m 20 Y s 1002 157 m 6 X s 1005 137 m -15 Y s 1002 122 m 6 X s 1010 121 m -2 X s 1008 118 m 6 Y s 1010 121 m 3 X s 1013 118 m 6 Y s 1010
 121 m 18 Y s 1007 139 m 6 X s 1010 121 m -13 Y s 1007 108 m 6 X s 1016 145 m -3 X s 1013 142 m 6 Y s 1016 145 m 2 X s 1018 142 m 6 Y s 1016 145 m 21 Y s 1013 166 m 6 X s 1016 145 m -16 Y s 1013 129 m 6 X s 1021 149 m -3 X s 1018 146 m 6 Y s 1021 149
 m 3 X s 1024 146 m 6 Y s 1021 149 m 22 Y s 1018 171 m 6 X s 1021 149 m -17 Y s 1018 132 m 6 X s 1026 149 m -2 X s 1024 146 m 6 Y s 1026 149 m 3 X s 1029 146 m 6 Y s 1026 149 m 22 Y s 1023 171 m 6 X s 1026 149 m -17 Y s 1023 132 m 6 X s 1032 121 m -3
 X s 1029 118 m 6 Y s 1032 121 m 2 X s 1034 118 m 6 Y s 1032 121 m 18 Y s 1029 139 m 6 X s 1032 121 m -13 Y s 1029 108 m 6 X s 1037 141 m -3 X s 1034 138 m 6 Y s 1037 141 m 3 X s 1040 138 m 6 Y s 1037 141 m 21 Y s 1034 162 m 6 X s 1037 141 m -16 Y s
 1034 125 m 6 X s 1042 137 m -2 X s 1040 134 m 6 Y s 1042 137 m 3 X s 1045 134 m 6 Y s 1042 137 m 20 Y s 1039 157 m 6 X s 1042 137 m -15 Y s 1039 122 m 6 X s 1048 117 m -3 X s 1045 114 m 6 Y s 1048 117 m 2 X s 1050 114 m 6 Y s 1048 117 m 17 Y s 1045
 134 m 6 X s 1048 117 m -12 Y s 1045 105 m 6 X s 1053 129 m -3 X s 1050 126 m 6 Y s 1053 129 m 3 X s 1056 126 m 6 Y s 1053 129 m 19 Y s 1050 148 m 6 X s 1053 129 m -14 Y s 1050 115 m 6 X s 1058 129 m -2 X s 1056 126 m 6 Y s 1058 129 m 3 X s 1061 126
 m 6 Y s 1058 129 m 19 Y s 1055 148 m 6 X s 1058 129 m -14 Y s 1055 115 m 6 X s 1064 129 m -3 X s 1061 126 m 6 Y s 1064 129 m 2 X s 1066 126 m 6 Y s 1064 129 m 19 Y s 1061 148 m 6 X s 1064 129 m -14 Y s 1061 115 m 6 X s 1069 129 m -3 X s 1066 126 m 6
 Y s 1069 129 m 3 X s 1072 126 m 6 Y s 1069 129 m 19 Y s 1066 148 m 6 X s 1069 129 m -14 Y s 1066 115 m 6 X s 1074 125 m -2 X s 1072 122 m 6 Y s 1074 125 m 3 X s 1077 122 m 6 Y s 1074 125 m 19 Y s 1071 144 m 6 X s 1074 125 m -14 Y s 1071 111 m 6 X s
 1080 157 m -3 X s 1077 154 m 6 Y s 1080 157 m 2 X s 1082 154 m 6 Y s 1080 157 m 23 Y s 1077 180 m 6 X s 1080 157 m -17 Y s 1077 140 m 6 X s 1085 129 m -3 X s 1082 126 m 6 Y s 1085 129 m 3 X s 1088 126 m 6 Y s 1085 129 m 19 Y s 1082 148 m 6 X s 1085
 129 m -14 Y s 1082 115 m 6 X s 1090 145 m -2 X s 1088 142 m 6 Y s 1090 145 m 3 X s 1093 142 m 6 Y s 1090 145 m 21 Y s 1087 166 m 6 X s 1090 145 m -16 Y s 1087 129 m 6 X s 1096 125 m -3 X s 1093 122 m 6 Y s 1096 125 m 2 X s 1098 122 m 6 Y s 1096 125
 m 19 Y s 1093 144 m 6 X s 1096 125 m -14 Y s 1093 111 m 6 X s 1101 145 m -3 X s 1098 142 m 6 Y s 1101 145 m 3 X s 1104 142 m 6 Y s 1101 145 m 21 Y s 1098 166 m 6 X s 1101 145 m -16 Y s 1098 129 m 6 X s 1106 105 m -2 X s 1104 102 m 6 Y s 1106 105 m 3
 X s 1109 102 m 6 Y s 1106 105 m 15 Y s 1103 120 m 6 X s 1106 105 m -10 Y s 1103 95 m 6 X s 1112 145 m -3 X s 1109 142 m 6 Y s 1112 145 m 2 X s 1114 142 m 6 Y s 1112 145 m 21 Y s 1109 166 m 6 X s 1112 145 m -16 Y s 1109 129 m 6 X s 1117 145 m -3 X s
 1114 142 m 6 Y s 1117 145 m 3 X s 1120 142 m 6 Y s 1117 145 m 21 Y s 1114 166 m 6 X s 1117 145 m -16 Y s 1114 129 m 6 X s 1122 133 m -2 X s 1120 130 m 6 Y s 1122 133 m 3 X s 1125 130 m 6 Y s 1122 133 m 20 Y s 1119 153 m 6 X s 1122 133 m -15 Y s 1119
 118 m 6 X s 1128 149 m -3 X s 1125 146 m 6 Y s 1128 149 m 2 X s 1130 146 m 6 Y s 1128 149 m 22 Y s 1125 171 m 6 X s 1128 149 m -17 Y s 1125 132 m 6 X s 1133 133 m -3 X s 1130 130 m 6 Y s 1133 133 m 3 X s 1136 130 m 6 Y s 1133 133 m 20 Y s 1130 153 m
 6 X s 1133 133 m -15 Y s 1130 118 m 6 X s 1138 141 m -2 X s 1136 138 m 6 Y s 1138 141 m 3 X s 1141 138 m 6 Y s 1138 141 m 21 Y s 1135 162 m 6 X s 1138 141 m -16 Y s 1135 125 m 6 X s 1144 161 m -3 X s 1141 158 m 6 Y s 1144 161 m 2 X s 1146 158 m 6 Y
 s 1144 161 m 23 Y s 1141 184 m 6 X s 1144 161 m -18 Y s 1141 143 m 6 X s 1149 145 m -3 X s 1146 142 m 6 Y s 1149 145 m 3 X s 1152 142 m 6 Y s 1149 145 m 21 Y s 1146 166 m 6 X s 1149 145 m -16 Y s 1146 129 m 6 X s 1154 145 m -2 X s 1152 142 m 6 Y s
 1154 145 m 3 X s 1157 142 m 6 Y s 1154 145 m 21 Y s 1151 166 m 6 X s 1154 145 m -16 Y s 1151 129 m 6 X s 1160 145 m -3 X s 1157 142 m 6 Y s 1160 145 m 2 X s 1162 142 m 6 Y s 1160 145 m 21 Y s 1157 166 m 6 X s 1160 145 m -16 Y s 1157 129 m 6 X s 1165
 149 m -3 X s 1162 146 m 6 Y s 1165 149 m 3 X s 1168 146 m 6 Y s 1165 149 m 22 Y s 1162 171 m 6 X s 1165 149 m -17 Y s 1162 132 m 6 X s 1170 153 m -2 X s 1168 150 m 6 Y s 1170 153 m 3 X s 1173 150 m 6 Y s 1170 153 m 22 Y s 1167 175 m 6 X s 1170 153 m
 -17 Y s 1167 136 m 6 X s 1176 161 m -3 X s 1173 158 m 6 Y s 1176 161 m 2 X s 1178 158 m 6 Y s 1176 161 m 23 Y s 1173 184 m 6 X s 1176 161 m -18 Y s 1173 143 m 6 X s 1181 185 m -3 X s 1178 182 m 7 Y s 1181 185 m 3 X s 1184 182 m 7 Y s 1181 185 m 26 Y
 s 1178 211 m 6 X s 1181 185 m -20 Y s 1178 165 m 6 X s 1186 185 m -2 X s 1184 182 m 7 Y s 1186 185 m 3 X s 1189 182 m 7 Y s 1186 185 m 26 Y s 1183 211 m 6 X s 1186 185 m -20 Y s 1183 165 m 6 X s 1192 181 m -3 X s 1189 178 m 6 Y s 1192 181 m 2 X s
 1194 178 m 6 Y s 1192 181 m 25 Y s 1189 206 m 6 X s 1192 181 m -20 Y s 1189 161 m 6 X s 1197 206 m -3 X s 1194 203 m 6 Y s 1197 206 m 3 X s 1200 203 m 6 Y s 1197 206 m 27 Y s 1194 233 m 6 X s 1197 206 m -23 Y s 1194 183 m 6 X s 1202 181 m -2 X s
 1200 178 m 6 Y s 1202 181 m 3 X s 1205 178 m 6 Y s 1202 181 m 25 Y s 1199 206 m 6 X s 1202 181 m -20 Y s 1199 161 m 6 X s 1208 270 m -3 X s 1205 267 m 6 Y s 1208 270 m 2 X s 1210 267 m 6 Y s 1208 270 m 32 Y s 1205 302 m 6 X s 1208 270 m -28 Y s 1205
 242 m 6 X s 1213 173 m -3 X s 1210 170 m 6 Y s 1213 173 m 3 X s 1216 170 m 6 Y s 1213 173 m 24 Y s 1210 197 m 6 X s 1213 173 m -19 Y s 1210 154 m 6 X s 1218 194 m -2 X s 1216 190 m 7 Y s 1218 194 m 3 X s 1221 190 m 7 Y s 1218 194 m 25 Y s 1215 219 m
 6 X s 1218 194 m -22 Y s 1215 172 m 6 X s 1224 218 m -3 X s 1221 215 m 6 Y s 1224 218 m 2 X s 1226 215 m 6 Y s 1224 218 m 28 Y s 1221 246 m 6 X s 1224 218 m -24 Y s 1221 194 m 6 X s 1229 318 m -3 X s 1226 315 m 6 Y s 1229 318 m 3 X s 1232 315 m 6 Y
 s 1229 318 m 35 Y s 1226 353 m 6 X s 1229 318 m -31 Y s 1226 287 m 6 X s 1234 326 m -2 X s 1232 323 m 6 Y s 1234 326 m 3 X s 1237 323 m 6 Y s 1234 326 m 36 Y s 1231 362 m 6 X s 1234 326 m -31 Y s 1231 295 m 6 X s 1240 282 m -3 X s 1237 279 m 6 Y s
 1240 282 m 2 X s 1242 279 m 6 Y s 1240 282 m 33 Y s 1237 315 m 6 X s 1240 282 m -29 Y s 1237 253 m 6 X s 1245 318 m -3 X s 1242 315 m 6 Y s 1245 318 m 3 X s 1248 315 m 6 Y s 1245 318 m 35 Y s 1242 353 m 6 X s 1245 318 m -31 Y s 1242 287 m 6 X s 1250
 362 m -2 X s 1248 359 m 6 Y s 1250 362 m 3 X s 1253 359 m 6 Y s 1250 362 m 38 Y s 1247 400 m 6 X s 1250 362 m -34 Y s 1247 328 m 6 X s 1256 370 m -3 X s 1253 367 m 6 Y s 1256 370 m 2 X s 1258 367 m 6 Y s 1256 370 m 39 Y s 1253 409 m 6 X s 1256 370 m
 -34 Y s 1253 336 m 6 X s 1261 467 m -3 X s 1258 464 m 6 Y s 1261 467 m 3 X s 1264 464 m 6 Y s 1261 467 m 43 Y s 1258 510 m 6 X s 1261 467 m -40 Y s 1258 427 m 6 X s 1266 479 m -2 X s 1264 476 m 6 Y s 1266 479 m 3 X s 1269 476 m 6 Y s 1266 479 m 44 Y
 s 1263 523 m 6 X s 1266 479 m -40 Y s 1263 439 m 6 X s 1272 543 m -3 X s 1269 540 m 6 Y s 1272 543 m 2 X s 1274 540 m 6 Y s 1272 543 m 45 Y s 1268 588 m 7 X s 1272 543 m -41 Y s 1268 502 m 7 X s 1277 483 m -3 X s 1274 480 m 6 Y s 1277 483 m 3 X s
 1280 480 m 6 Y s 1277 483 m 42 Y s 1274 525 m 6 X s 1277 483 m -39 Y s 1274 444 m 6 X s 1282 547 m -2 X s 1280 544 m 6 Y s 1282 547 m 3 X s 1285 544 m 6 Y s 1282 547 m 46 Y s 1279 593 m 6 X s 1282 547 m -41 Y s 1279 506 m 6 X s 1288 535 m -3 X s
 1285 532 m 6 Y s 1288 535 m 2 X s 1290 532 m 6 Y s 1288 535 m 45 Y s 1284 580 m 7 X s 1288 535 m -41 Y s 1284 494 m 7 X s 1293 555 m -3 X s 1290 552 m 6 Y s 1293 555 m 3 X s 1296 552 m 6 Y s 1293 555 m 46 Y s 1290 601 m 6 X s 1293 555 m -42 Y s 1290
 513 m 6 X s 1298 563 m -2 X s 1296 560 m 6 Y s 1298 563 m 3 X s 1301 560 m 6 Y s 1298 563 m 46 Y s 1295 609 m 6 X s 1298 563 m -42 Y s 1295 521 m 6 X s 1304 483 m -3 X s 1301 480 m 6 Y s 1304 483 m 2 X s 1306 480 m 6 Y s 1304 483 m 42 Y s 1300 525 m
 7 X s 1304 483 m -39 Y s 1300 444 m 7 X s 1309 511 m -3 X s 1306 508 m 6 Y s 1309 511 m 2 X s 1311 508 m 6 Y s 1309 511 m 44 Y s 1306 555 m 6 X s 1309 511 m -40 Y s 1306 471 m 6 X s 1314 455 m -3 X s 1311 452 m 6 Y s 1314 455 m 3 X s 1317 452 m 6 Y
 s 1314 455 m 43 Y s 1311 498 m 6 X s 1314 455 m -39 Y s 1311 416 m 6 X s 1319 531 m -2 X s 1317 528 m 6 Y s 1319 531 m 3 X s 1322 528 m 6 Y s 1319 531 m 45 Y s 1316 576 m 7 X s 1319 531 m -41 Y s 1316 490 m 7 X s 1325 451 m -3 X s 1322 448 m 6 Y s
 1325 451 m 2 X s 1327 448 m 6 Y s 1325 451 m 43 Y s 1322 494 m 6 X s 1325 451 m -39 Y s 1322 412 m 6 X s 1330 374 m -3 X s 1327 371 m 6 Y s 1330 374 m 3 X s 1333 371 m 6 Y s 1330 374 m 39 Y s 1327 413 m 6 X s 1330 374 m -34 Y s 1327 340 m 6 X s 1335
 294 m -2 X s 1333 291 m 6 Y s 1335 294 m 3 X s 1338 291 m 6 Y s 1335 294 m 34 Y s 1332 328 m 7 X s 1335 294 m -29 Y s 1332 265 m 7 X s 1341 290 m -3 X s 1338 287 m 6 Y s 1341 290 m 2 X s 1343 287 m 6 Y s 1341 290 m 33 Y s 1338 323 m 6 X s 1341 290 m
 -29 Y s 1338 261 m 6 X s 1346 278 m -3 X s 1343 275 m 6 Y s 1346 278 m 3 X s 1349 275 m 6 Y s 1346 278 m 33 Y s 1343 311 m 6 X s 1346 278 m -28 Y s 1343 250 m 6 X s 1351 238 m -2 X s 1349 235 m 6 Y s 1351 238 m 3 X s 1354 235 m 6 Y s 1351 238 m 29 Y
 s 1348 267 m 6 X s 1351 238 m -26 Y s 1348 212 m 6 X s 1357 242 m -3 X s 1354 239 m 6 Y s 1357 242 m 2 X s 1359 239 m 6 Y s 1357 242 m 30 Y s 1354 272 m 6 X s 1357 242 m -26 Y s 1354 216 m 6 X s 1362 185 m -3 X s 1359 182 m 7 Y s 1362 185 m 3 X s
 1365 182 m 7 Y s 1362 185 m 26 Y s 1359 211 m 6 X s 1362 185 m -20 Y s 1359 165 m 6 X s 1367 161 m -2 X s 1365 158 m 6 Y s 1367 161 m 3 X s 1370 158 m 6 Y s 1367 161 m 23 Y s 1364 184 m 6 X s 1367 161 m -18 Y s 1364 143 m 6 X s 1373 157 m -3 X s
 1370 154 m 6 Y s 1373 157 m 2 X s 1375 154 m 6 Y s 1373 157 m 23 Y s 1370 180 m 6 X s 1373 157 m -17 Y s 1370 140 m 6 X s 1378 125 m -3 X s 1375 122 m 6 Y s 1378 125 m 3 X s 1381 122 m 6 Y s 1378 125 m 19 Y s 1375 144 m 6 X s 1378 125 m -14 Y s 1375
 111 m 6 X s 1383 145 m -2 X s 1381 142 m 6 Y s 1383 145 m 3 X s 1386 142 m 6 Y s 1383 145 m 21 Y s 1380 166 m 6 X s 1383 145 m -16 Y s 1380 129 m 6 X s 1389 121 m -3 X s 1386 118 m 6 Y s 1389 121 m 2 X s 1391 118 m 6 Y s 1389 121 m 18 Y s 1386 139 m
 6 X s 1389 121 m -13 Y s 1386 108 m 6 X s 1394 93 m -3 X s 1391 90 m 6 Y s 1394 93 m 3 X s 1397 90 m 6 Y s 1394 93 m 13 Y s 1391 106 m 6 X s 1394 93 m -8 Y s 1391 85 m 6 X s 1399 125 m -2 X s 1397 122 m 6 Y s 1399 125 m 3 X s 1402 122 m 6 Y s 1399
 125 m 19 Y s 1396 144 m 6 X s 1399 125 m -14 Y s 1396 111 m 6 X s 1405 105 m -3 X s 1402 102 m 6 Y s 1405 105 m 2 X s 1407 102 m 6 Y s 1405 105 m 15 Y s 1402 120 m 6 X s 1405 105 m -10 Y s 1402 95 m 6 X s 1410 97 m -3 X s 1407 94 m 6 Y s 1410 97 m 3
 X s 1413 94 m 6 Y s 1410 97 m 14 Y s 1407 111 m 6 X s 1410 97 m -9 Y s 1407 88 m 6 X s 1415 97 m -2 X s 1413 94 m 6 Y s 1415 97 m 3 X s 1418 94 m 6 Y s 1415 97 m 14 Y s 1412 111 m 6 X s 1415 97 m -9 Y s 1412 88 m 6 X s 1 1 1 c black 888 113 893 141
 898 145 904 121 909 141 914 141 920 113 925 117 930 125 936 117 941 125 946 145 952 125 957 117 962 121 968 125 973 133 978 117 984 105 989 149 994 101 1000 133 1005 137 1010 121 1016 145 1021 149 1026 149 1032 121 1037 141 1042 137 1048 117 1053
 129 1058 129 1064 129 1069 129 1074 125 1080 157 1085 129 1090 145 1096 125 1101 145 1106 105 1112 145 1117 145 1122 133 1128 149 1133 133 1138 141 1144 161 1149 145 1154 145 1160 145 1165 149 1170 153 1176 161 1181 185 1186 185 1192 181 1197 206
 1202 181 1208 270 1213 173 1218 194 1224 218 1229 318 1234 326 1240 282 1245 318 1250 362 1256 370 1261 467 1266 479 1272 543 1277 483 1282 547 1288 535 1293 555 1298 563 1304 483 1309 511 1314 455 1319 531 1325 451 1330 374 1335 294 1341 290 1346
 278 1351 238 1357 242 1362 185 1367 161 1373 157 1378 125 1383 145 1389 121 1394 93 1399 125 1405 105 1410 97 1415 97 100 { m20} R 0 0 1 c 9 lw 1 1 1 c black 0 0 1 c 885 124 m cl s 885 124 m 5 1 d 11 X 5 1 d 6 X 5 1 d 11 X 5 1 d 5 X 6 1 d 10 X 6 1 d
 5 X 5 1 d 11 X 5 1 d 11 X 5 1 d 6 X 5 1 d 11 X 5 1 d 5 X 6 1 d 10 X 6 1 d 10 X 6 1 d 10 X 6 1 d 10 X 6 1 d 16 X 5 1 d 11 X 5 1 d 5 X 6 1 d 5 X 5 1 d 6 2 d 5 1 d 5 3 d 6 3 d 5 4 d 5 6 d 6 8 d 5 10 d 5 12 d 6 15 d 5 19 d 5 22 d 6 25 d 5 28 d 5 30 d 6
 32 d 5 33 d 5 33 d 6 31 d 2 14 d 3 13 d 3 13 d 2 11 d 3 9 d 3 8 d 2 7 d 3 4 d 3 3 d 2 1 d 3 -1 d 3 -2 d 2 -5 d 3 -6 d 3 -8 d 2 -10 d 3 -11 d 2 -12 d 3 -14 d 3 -15 d 5 -31 d 5 -34 d 6 -34 d 5 -33 d 5 -32 d 6 -30 d 5 -27 d 5 -24 d 6 -21 d 5 -17 d 5
 -15 d 6 -13 d 5 -11 d 5 -9 d 6 -8 d 5 -7 d 5 -8 d 6 -8 d 2 -6 d 2 -4 d -2 Y 1 -7 d s black 3 lw 885 77 m 533 X s 885 93 m -16 Y s 898 85 m -8 Y s 912 85 m -8 Y s 925 85 m -8 Y s 938 85 m -8 Y s 952 93 m -16 Y s 965 85 m -8 Y s 978 85 m -8 Y s 992 85
 m -8 Y s 1005 85 m -8 Y s 1018 93 m -16 Y s 1032 85 m -8 Y s 1045 85 m -8 Y s 1058 85 m -8 Y s 1072 85 m -8 Y s 1085 93 m -16 Y s 1098 85 m -8 Y s 1112 85 m -8 Y s 1125 85 m -8 Y s 1138 85 m -8 Y s 1152 93 m -16 Y s 1165 85 m -8 Y s 1178 85 m -8 Y s
 1192 85 m -8 Y s 1205 85 m -8 Y s 1218 93 m -16 Y s 1232 85 m -8 Y s 1245 85 m -8 Y s 1258 85 m -8 Y s 1272 85 m -8 Y s 1285 93 m -16 Y s 1298 85 m -8 Y s 1311 85 m -8 Y s 1325 85 m -8 Y s 1338 85 m -8 Y s 1351 93 m -16 Y s 1365 85 m -8 Y s 1378 85
 m -8 Y s 1391 85 m -8 Y s 1405 85 m -8 Y s 1418 93 m -16 Y s 885 77 m 559 Y s 902 77 m -17 X s 894 97 m -9 X s 894 117 m -9 X s 894 137 m -9 X s 902 157 m -17 X s 894 177 m -9 X s 894 198 m -9 X s 894 218 m -9 X s 902 238 m -17 X s 894 258 m -9 X s
 894 278 m -9 X s 894 298 m -9 X s 902 318 m -17 X s 894 338 m -9 X s 894 358 m -9 X s 894 378 m -9 X s 902 398 m -17 X s 894 419 m -9 X s 894 439 m -9 X s 894 459 m -9 X s 902 479 m -17 X s 894 499 m -9 X s 894 519 m -9 X s 894 539 m -9 X s 902 559
 m -17 X s 902 559 m -17 X s 894 579 m -9 X s 894 599 m -9 X s 894 619 m -9 X s 1 1 1 c black
 gsave  710 699 779 7 C 1041.51 672.14 t 0 r /Helvetica findfont 34.8619 sf 0 0 m (Background) show NC gr  1 1 1 c 711 699 1534 7 bf black 1 1 1 c 533 559 1641 77 bf black 533 559 1641 77 bl 1641 77 m 533 X s 1641 93 m -16 Y s 1654 85 m -8 Y s 1668
 85 m -8 Y s 1681 85 m -8 Y s 1694 85 m -8 Y s 1708 93 m -16 Y s 1721 85 m -8 Y s 1734 85 m -8 Y s 1748 85 m -8 Y s 1761 85 m -8 Y s 1774 93 m -16 Y s 1788 85 m -8 Y s 1801 85 m -8 Y s 1814 85 m -8 Y s 1828 85 m -8 Y s 1841 93 m -16 Y s 1854 85 m -8
 Y s 1868 85 m -8 Y s 1881 85 m -8 Y s 1894 85 m -8 Y s 1908 93 m -16 Y s 1921 85 m -8 Y s 1934 85 m -8 Y s 1947 85 m -8 Y s 1961 85 m -8 Y s 1974 93 m -16 Y s 1987 85 m -8 Y s 2001 85 m -8 Y s 2014 85 m -8 Y s 2027 85 m -8 Y s 2041 93 m -16 Y s 2054
 85 m -8 Y s 2067 85 m -8 Y s 2081 85 m -8 Y s 2094 85 m -8 Y s 2107 93 m -16 Y s 2121 85 m -8 Y s 2134 85 m -8 Y s 2147 85 m -8 Y s 2161 85 m -8 Y s 2174 93 m -16 Y s
 gsave  711 699 1534 7 C 1618.28 54.4979 t 0 r /Helvetica findfont 22.736 sf 0 0 m (5.25) show NC gr 
 gsave  711 699 1534 7 C 1678.84 54.4979 t 0 r /Helvetica findfont 22.736 sf 0 0 m (5.255) show NC gr 
 gsave  711 699 1534 7 C 1751.5 54.4979 t 0 r /Helvetica findfont 22.736 sf 0 0 m (5.26) show NC gr 
 gsave  711 699 1534 7 C 1812.05 54.4979 t 0 r /Helvetica findfont 22.736 sf 0 0 m (5.265) show NC gr 
 gsave  711 699 1534 7 C 1884.72 54.4979 t 0 r /Helvetica findfont 22.736 sf 0 0 m (5.27) show NC gr 
 gsave  711 699 1534 7 C 1945.27 54.4979 t 0 r /Helvetica findfont 22.736 sf 0 0 m (5.275) show NC gr 
 gsave  711 699 1534 7 C 2017.93 54.4979 t 0 r /Helvetica findfont 22.736 sf 0 0 m (5.28) show NC gr 
 gsave  711 699 1534 7 C 2078.49 54.4979 t 0 r /Helvetica findfont 22.736 sf 0 0 m (5.285) show NC gr 
 gsave  711 699 1534 7 C 2151.15 54.4979 t 0 r /Helvetica findfont 22.736 sf 0 0 m (5.29) show NC gr 
 gsave  711 699 1534 7 C 2011.88 31.7904 t 0 r /Helvetica findfont 22.736 sf 0 0 m (m_bc \(GeV/c^2\)) show NC gr  1641 77 m 559 Y s 1658 77 m -17 X s 1650 97 m -9 X s 1650 116 m -9 X s 1650 136 m -9 X s 1650 155 m -9 X s 1658 175 m -17 X s 1650 194 m
 -9 X s 1650 214 m -9 X s 1650 233 m -9 X s 1650 253 m -9 X s 1658 273 m -17 X s 1650 292 m -9 X s 1650 312 m -9 X s 1650 331 m -9 X s 1650 351 m -9 X s 1658 370 m -17 X s 1650 390 m -9 X s 1650 410 m -9 X s 1650 429 m -9 X s 1650 449 m -9 X s 1658
 468 m -17 X s 1650 488 m -9 X s 1650 507 m -9 X s 1650 527 m -9 X s 1650 546 m -9 X s 1658 566 m -17 X s 1658 566 m -17 X s 1650 586 m -9 X s 1650 605 m -9 X s 1650 625 m -9 X s
 gsave  711 699 1534 7 C 1624.34 68.1223 t 0 r /Helvetica findfont 22.736 sf 0 0 m (0) show NC gr 
 gsave  711 699 1534 7 C 1598.6 166.521 t 0 r /Helvetica findfont 22.736 sf 0 0 m (100) show NC gr 
 gsave  711 699 1534 7 C 1598.6 264.92 t 0 r /Helvetica findfont 22.736 sf 0 0 m (200) show NC gr 
 gsave  711 699 1534 7 C 1598.6 361.805 t 0 r /Helvetica findfont 22.736 sf 0 0 m (300) show NC gr 
 gsave  711 699 1534 7 C 1598.6 460.204 t 0 r /Helvetica findfont 22.736 sf 0 0 m (400) show NC gr 
 gsave  711 699 1534 7 C 1598.6 557.089 t 0 r /Helvetica findfont 22.736 sf 0 0 m (500) show NC gr 
 gsave  711 699 1534 7 C 1583.47 360.291 t 90 r /Helvetica findfont 22.736 sf 0 0 m (Events / \( 0.0004 GeV/c^2 \)) show NC gr  1 1 1 c black
 gsave  711 699 1534 7 C 1728.79 670.626 t 0 r /Helvetica findfont 34.8619 sf 0 0 m (Signal + Background) show NC gr  1644 82 m -3 X s 1641 79 m 6 Y s 1644 82 m 2 X s 1646 79 m 6 Y s 1644 82 m 3 Y s 1641 85 m 6 X s 1644 82 m -2 Y s 1641 80 m 6 X s
 1649 82 m -3 X s 1646 79 m 6 Y s 1649 82 m 3 X s 1652 79 m 6 Y s 1649 82 m 3 Y s 1646 85 m 6 X s 1649 82 m -2 Y s 1646 80 m 6 X s 1654 81 m -2 X s 1652 78 m 6 Y s 1654 81 m 3 X s 1657 78 m 6 Y s 1654 81 m 3 Y s 1651 84 m 6 X s 1654 81 m -2 Y s 1651
 79 m 6 X s 1660 87 m -3 X s 1657 84 m 6 Y s 1660 87 m 2 X s 1662 84 m 6 Y s 1660 87 m 4 Y s 1657 91 m 6 X s 1660 87 m -3 Y s 1657 84 m 6 X s 1665 85 m -3 X s 1662 82 m 6 Y s 1665 85 m 3 X s 1668 82 m 6 Y s 1665 85 m 4 Y s 1662 89 m 6 X s 1665 85 m
 -3 Y s 1662 82 m 6 X s 1670 81 m -2 X s 1668 78 m 6 Y s 1670 81 m 3 X s 1673 78 m 6 Y s 1670 81 m 3 Y s 1667 84 m 6 X s 1670 81 m -2 Y s 1667 79 m 6 X s 1676 80 m -3 X s 1673 77 m 6 Y s 1676 80 m 2 X s 1678 77 m 6 Y s 1676 80 m 3 Y s 1673 83 m 6 X s
 1676 80 m -2 Y s 1673 78 m 6 X s 1681 87 m -3 X s 1678 84 m 6 Y s 1681 87 m 3 X s 1684 84 m 6 Y s 1681 87 m 4 Y s 1678 91 m 6 X s 1681 87 m -3 Y s 1678 84 m 6 X s 1686 81 m -2 X s 1684 78 m 6 Y s 1686 81 m 3 X s 1689 78 m 6 Y s 1686 81 m 3 Y s 1683
 84 m 6 X s 1686 81 m -2 Y s 1683 79 m 6 X s 1692 92 m -3 X s 1689 89 m 6 Y s 1692 92 m 2 X s 1694 89 m 6 Y s 1692 92 m 5 Y s 1689 97 m 6 X s 1692 92 m -4 Y s 1689 88 m 6 X s 1697 82 m -3 X s 1694 79 m 6 Y s 1697 82 m 3 X s 1700 79 m 6 Y s 1697 82 m
 3 Y s 1694 85 m 6 X s 1697 82 m -2 Y s 1694 80 m 6 X s 1702 85 m -2 X s 1700 82 m 6 Y s 1702 85 m 3 X s 1705 82 m 6 Y s 1702 85 m 4 Y s 1699 89 m 6 X s 1702 85 m -3 Y s 1699 82 m 6 X s 1708 84 m -3 X s 1705 81 m 6 Y s 1708 84 m 2 X s 1710 81 m 6 Y s
 1708 84 m 4 Y s 1705 88 m 6 X s 1708 84 m -3 Y s 1705 81 m 6 X s 1713 88 m -3 X s 1710 85 m 6 Y s 1713 88 m 3 X s 1716 85 m 6 Y s 1713 88 m 4 Y s 1710 92 m 6 X s 1713 88 m -3 Y s 1710 85 m 6 X s 1718 85 m -2 X s 1716 82 m 6 Y s 1718 85 m 3 X s 1721
 82 m 6 Y s 1718 85 m 4 Y s 1715 89 m 6 X s 1718 85 m -3 Y s 1715 82 m 6 X s 1724 83 m -3 X s 1721 80 m 6 Y s 1724 83 m 2 X s 1726 80 m 6 Y s 1724 83 m 3 Y s 1721 86 m 6 X s 1724 83 m -2 Y s 1721 81 m 6 X s 1729 79 m -3 X s 1726 77 m 5 Y s 1729 79 m
 3 X s 1732 77 m 5 Y s 1729 79 m 3 Y s 1726 82 m 6 X s 1729 79 m -1 Y s 1726 78 m 6 X s 1734 86 m -2 X s 1732 83 m 6 Y s 1734 86 m 3 X s 1737 83 m 6 Y s 1734 86 m 4 Y s 1731 90 m 6 X s 1734 86 m -3 Y s 1731 83 m 6 X s 1740 87 m -3 X s 1737 84 m 6 Y s
 1740 87 m 2 X s 1742 84 m 6 Y s 1740 87 m 4 Y s 1737 91 m 6 X s 1740 87 m -3 Y s 1737 84 m 6 X s 1745 83 m -3 X s 1742 80 m 6 Y s 1745 83 m 3 X s 1748 80 m 6 Y s 1745 83 m 3 Y s 1742 86 m 6 X s 1745 83 m -2 Y s 1742 81 m 6 X s 1750 84 m -2 X s 1748
 81 m 6 Y s 1750 84 m 3 X s 1753 81 m 6 Y s 1750 84 m 4 Y s 1747 88 m 6 X s 1750 84 m -3 Y s 1747 81 m 6 X s 1756 89 m -3 X s 1753 86 m 6 Y s 1756 89 m 2 X s 1758 86 m 6 Y s 1756 89 m 4 Y s 1753 93 m 6 X s 1756 89 m -4 Y s 1753 85 m 6 X s 1761 85 m
 -3 X s 1758 82 m 6 Y s 1761 85 m 3 X s 1764 82 m 6 Y s 1761 85 m 4 Y s 1758 89 m 6 X s 1761 85 m -3 Y s 1758 82 m 6 X s 1766 80 m -2 X s 1764 77 m 6 Y s 1766 80 m 3 X s 1769 77 m 6 Y s 1766 80 m 3 Y s 1763 83 m 6 X s 1766 80 m -2 Y s 1763 78 m 6 X s
 1772 85 m -3 X s 1769 82 m 6 Y s 1772 85 m 2 X s 1774 82 m 6 Y s 1772 85 m 4 Y s 1769 89 m 6 X s 1772 85 m -3 Y s 1769 82 m 6 X s 1777 85 m -3 X s 1774 82 m 6 Y s 1777 85 m 3 X s 1780 82 m 6 Y s 1777 85 m 4 Y s 1774 89 m 6 X s 1777 85 m -3 Y s 1774
 82 m 6 X s 1782 85 m -2 X s 1780 82 m 6 Y s 1782 85 m 3 X s 1785 82 m 6 Y s 1782 85 m 4 Y s 1779 89 m 6 X s 1782 85 m -3 Y s 1779 82 m 6 X s 1788 83 m -3 X s 1785 80 m 6 Y s 1788 83 m 2 X s 1790 80 m 6 Y s 1788 83 m 3 Y s 1785 86 m 6 X s 1788 83 m
 -2 Y s 1785 81 m 6 X s 1793 83 m -3 X s 1790 80 m 6 Y s 1793 83 m 3 X s 1796 80 m 6 Y s 1793 83 m 3 Y s 1790 86 m 6 X s 1793 83 m -2 Y s 1790 81 m 6 X s 1798 85 m -2 X s 1796 82 m 6 Y s 1798 85 m 3 X s 1801 82 m 6 Y s 1798 85 m 4 Y s 1795 89 m 6 X s
 1798 85 m -3 Y s 1795 82 m 6 X s 1804 83 m -3 X s 1801 80 m 6 Y s 1804 83 m 2 X s 1806 80 m 6 Y s 1804 83 m 3 Y s 1801 86 m 6 X s 1804 83 m -2 Y s 1801 81 m 6 X s 1809 88 m -3 X s 1806 85 m 6 Y s 1809 88 m 3 X s 1812 85 m 6 Y s 1809 88 m 4 Y s 1806
 92 m 6 X s 1809 88 m -3 Y s 1806 85 m 6 X s 1814 84 m -2 X s 1812 81 m 6 Y s 1814 84 m 3 X s 1817 81 m 6 Y s 1814 84 m 4 Y s 1811 88 m 6 X s 1814 84 m -3 Y s 1811 81 m 6 X s 1820 86 m -3 X s 1817 83 m 6 Y s 1820 86 m 2 X s 1822 83 m 6 Y s 1820 86 m
 4 Y s 1817 90 m 6 X s 1820 86 m -3 Y s 1817 83 m 6 X s 1825 80 m -3 X s 1822 77 m 6 Y s 1825 80 m 3 X s 1828 77 m 6 Y s 1825 80 m 3 Y s 1822 83 m 6 X s 1825 80 m -2 Y s 1822 78 m 6 X s 1830 87 m -2 X s 1828 84 m 6 Y s 1830 87 m 3 X s 1833 84 m 6 Y s
 1830 87 m 4 Y s 1827 91 m 6 X s 1830 87 m -3 Y s 1827 84 m 6 X s 1836 85 m -3 X s 1833 82 m 6 Y s 1836 85 m 2 X s 1838 82 m 6 Y s 1836 85 m 4 Y s 1833 89 m 6 X s 1836 85 m -3 Y s 1833 82 m 6 X s 1841 88 m -3 X s 1838 85 m 6 Y s 1841 88 m 3 X s 1844
 85 m 6 Y s 1841 88 m 4 Y s 1838 92 m 6 X s 1841 88 m -3 Y s 1838 85 m 6 X s 1846 85 m -2 X s 1844 82 m 6 Y s 1846 85 m 3 X s 1849 82 m 6 Y s 1846 85 m 4 Y s 1843 89 m 6 X s 1846 85 m -3 Y s 1843 82 m 6 X s 1852 82 m -3 X s 1849 79 m 6 Y s 1852 82 m
 2 X s 1854 79 m 6 Y s 1852 82 m 3 Y s 1849 85 m 6 X s 1852 82 m -2 Y s 1849 80 m 6 X s 1857 85 m -3 X s 1854 82 m 6 Y s 1857 85 m 3 X s 1860 82 m 6 Y s 1857 85 m 4 Y s 1854 89 m 6 X s 1857 85 m -3 Y s 1854 82 m 6 X s 1862 85 m -2 X s 1860 82 m 6 Y s
 1862 85 m 3 X s 1865 82 m 6 Y s 1862 85 m 4 Y s 1859 89 m 6 X s 1862 85 m -3 Y s 1859 82 m 6 X s 1868 87 m -3 X s 1865 84 m 6 Y s 1868 87 m 2 X s 1870 84 m 6 Y s 1868 87 m 4 Y s 1865 91 m 6 X s 1868 87 m -3 Y s 1865 84 m 6 X s 1873 82 m -3 X s 1870
 79 m 6 Y s 1873 82 m 3 X s 1876 79 m 6 Y s 1873 82 m 3 Y s 1870 85 m 6 X s 1873 82 m -2 Y s 1870 80 m 6 X s 1878 89 m -2 X s 1876 86 m 6 Y s 1878 89 m 3 X s 1881 86 m 6 Y s 1878 89 m 4 Y s 1875 93 m 6 X s 1878 89 m -4 Y s 1875 85 m 6 X s 1884 84 m
 -3 X s 1881 81 m 6 Y s 1884 84 m 2 X s 1886 81 m 6 Y s 1884 84 m 4 Y s 1881 88 m 6 X s 1884 84 m -3 Y s 1881 81 m 6 X s 1889 83 m -3 X s 1886 80 m 6 Y s 1889 83 m 3 X s 1892 80 m 6 Y s 1889 83 m 3 Y s 1886 86 m 6 X s 1889 83 m -2 Y s 1886 81 m 6 X s
 1894 88 m -2 X s 1892 85 m 6 Y s 1894 88 m 3 X s 1897 85 m 6 Y s 1894 88 m 4 Y s 1891 92 m 6 X s 1894 88 m -3 Y s 1891 85 m 6 X s 1900 86 m -3 X s 1897 83 m 6 Y s 1900 86 m 2 X s 1902 83 m 6 Y s 1900 86 m 4 Y s 1897 90 m 6 X s 1900 86 m -3 Y s 1897
 83 m 6 X s 1905 84 m -3 X s 1902 81 m 6 Y s 1905 84 m 3 X s 1908 81 m 6 Y s 1905 84 m 4 Y s 1902 88 m 6 X s 1905 84 m -3 Y s 1902 81 m 6 X s 1910 84 m -2 X s 1908 81 m 6 Y s 1910 84 m 3 X s 1913 81 m 6 Y s 1910 84 m 4 Y s 1907 88 m 6 X s 1910 84 m
 -3 Y s 1907 81 m 6 X s 1916 88 m -3 X s 1913 85 m 6 Y s 1916 88 m 2 X s 1918 85 m 6 Y s 1916 88 m 4 Y s 1912 92 m 7 X s 1916 88 m -3 Y s 1912 85 m 7 X s 1921 91 m -3 X s 1918 88 m 6 Y s 1921 91 m 3 X s 1924 88 m 6 Y s 1921 91 m 4 Y s 1918 95 m 6 X s
 1921 91 m -4 Y s 1918 87 m 6 X s 1926 91 m -2 X s 1924 88 m 6 Y s 1926 91 m 3 X s 1929 88 m 6 Y s 1926 91 m 4 Y s 1923 95 m 6 X s 1926 91 m -4 Y s 1923 87 m 6 X s 1932 85 m -3 X s 1929 82 m 6 Y s 1932 85 m 2 X s 1934 82 m 6 Y s 1932 85 m 4 Y s 1928
 89 m 7 X s 1932 85 m -3 Y s 1928 82 m 7 X s 1937 94 m -3 X s 1934 91 m 6 Y s 1937 94 m 3 X s 1940 91 m 6 Y s 1937 94 m 5 Y s 1934 99 m 6 X s 1937 94 m -4 Y s 1934 90 m 6 X s 1942 107 m -2 X s 1940 104 m 6 Y s 1942 107 m 3 X s 1945 104 m 6 Y s 1942
 107 m 7 Y s 1939 114 m 6 X s 1942 107 m -5 Y s 1939 102 m 6 X s 1947 100 m -2 X s 1945 96 m 7 Y s 1947 100 m 3 X s 1950 96 m 7 Y s 1947 100 m 5 Y s 1944 105 m 7 X s 1947 100 m -5 Y s 1944 95 m 7 X s 1953 110 m -3 X s 1950 107 m 6 Y s 1953 110 m 2 X
 s 1955 107 m 6 Y s 1953 110 m 7 Y s 1950 117 m 6 X s 1953 110 m -5 Y s 1950 105 m 6 X s 1958 105 m -3 X s 1955 102 m 6 Y s 1958 105 m 3 X s 1961 102 m 6 Y s 1958 105 m 7 Y s 1955 112 m 6 X s 1958 105 m -5 Y s 1955 100 m 6 X s 1963 119 m -2 X s 1961
 116 m 6 Y s 1963 119 m 3 X s 1966 116 m 6 Y s 1963 119 m 8 Y s 1960 127 m 7 X s 1963 119 m -6 Y s 1960 113 m 7 X s 1969 138 m -3 X s 1966 135 m 6 Y s 1969 138 m 2 X s 1971 135 m 6 Y s 1969 138 m 8 Y s 1966 146 m 6 X s 1969 138 m -8 Y s 1966 130 m 6
 X s 1974 150 m -3 X s 1971 147 m 6 Y s 1974 150 m 3 X s 1977 147 m 6 Y s 1974 150 m 10 Y s 1971 160 m 6 X s 1974 150 m -8 Y s 1971 142 m 6 X s 1979 144 m -2 X s 1977 141 m 7 Y s 1979 144 m 3 X s 1982 141 m 7 Y s 1979 144 m 10 Y s 1976 154 m 6 X s
 1979 144 m -8 Y s 1976 136 m 6 X s 1985 187 m -3 X s 1982 184 m 6 Y s 1985 187 m 2 X s 1987 184 m 6 Y s 1985 187 m 10 Y s 1982 197 m 6 X s 1985 187 m -10 Y s 1982 177 m 6 X s 1990 205 m -3 X s 1987 202 m 6 Y s 1990 205 m 3 X s 1993 202 m 6 Y s 1990
 205 m 12 Y s 1987 217 m 6 X s 1990 205 m -11 Y s 1987 194 m 6 X s 1995 238 m -2 X s 1993 235 m 6 Y s 1995 238 m 3 X s 1998 235 m 6 Y s 1995 238 m 13 Y s 1992 251 m 6 X s 1995 238 m -12 Y s 1992 226 m 6 X s 2001 279 m -3 X s 1998 276 m 6 Y s 2001 279
 m 2 X s 2003 276 m 6 Y s 2001 279 m 15 Y s 1998 294 m 6 X s 2001 279 m -13 Y s 1998 266 m 6 X s 2006 292 m -3 X s 2003 289 m 6 Y s 2006 292 m 3 X s 2009 289 m 6 Y s 2006 292 m 15 Y s 2003 307 m 6 X s 2006 292 m -14 Y s 2003 278 m 6 X s 2011 353 m -2
 X s 2009 350 m 6 Y s 2011 353 m 3 X s 2014 350 m 6 Y s 2011 353 m 17 Y s 2008 370 m 6 X s 2011 353 m -16 Y s 2008 337 m 6 X s 2017 421 m -3 X s 2014 418 m 6 Y s 2017 421 m 2 X s 2019 418 m 6 Y s 2017 421 m 19 Y s 2014 440 m 6 X s 2017 421 m -18 Y s
 2014 403 m 6 X s 2022 486 m -3 X s 2019 483 m 6 Y s 2022 486 m 3 X s 2025 483 m 6 Y s 2022 486 m 20 Y s 2019 506 m 6 X s 2022 486 m -20 Y s 2019 466 m 6 X s 2027 533 m -2 X s 2025 530 m 6 Y s 2027 533 m 3 X s 2030 530 m 6 Y s 2027 533 m 21 Y s 2024
 554 m 6 X s 2027 533 m -21 Y s 2024 512 m 6 X s 2033 514 m -3 X s 2030 511 m 6 Y s 2033 514 m 2 X s 2035 511 m 6 Y s 2033 514 m 21 Y s 2030 535 m 6 X s 2033 514 m -20 Y s 2030 494 m 6 X s 2038 545 m -3 X s 2035 541 m 7 Y s 2038 545 m 3 X s 2041 541
 m 7 Y s 2038 545 m 21 Y s 2035 566 m 6 X s 2038 545 m -21 Y s 2035 524 m 6 X s 2043 587 m -2 X s 2041 584 m 6 Y s 2043 587 m 3 X s 2046 584 m 6 Y s 2043 587 m 22 Y s 2040 609 m 6 X s 2043 587 m -22 Y s 2040 565 m 6 X s 2049 568 m -3 X s 2046 565 m 6
 Y s 2049 568 m 2 X s 2051 565 m 6 Y s 2049 568 m 22 Y s 2046 590 m 6 X s 2049 568 m -21 Y s 2046 547 m 6 X s 2054 549 m -3 X s 2051 546 m 6 Y s 2054 549 m 3 X s 2057 546 m 6 Y s 2054 549 m 22 Y s 2051 571 m 6 X s 2054 549 m -21 Y s 2051 528 m 6 X s
 2059 513 m -2 X s 2057 510 m 6 Y s 2059 513 m 3 X s 2062 510 m 6 Y s 2059 513 m 21 Y s 2056 534 m 6 X s 2059 513 m -20 Y s 2056 493 m 6 X s 2065 512 m -3 X s 2062 509 m 6 Y s 2065 512 m 2 X s 2067 509 m 6 Y s 2065 512 m 21 Y s 2062 533 m 6 X s 2065
 512 m -20 Y s 2062 492 m 6 X s 2070 474 m -3 X s 2067 471 m 6 Y s 2070 474 m 3 X s 2073 471 m 6 Y s 2070 474 m 20 Y s 2067 494 m 6 X s 2070 474 m -19 Y s 2067 455 m 6 X s 2075 432 m -2 X s 2073 429 m 6 Y s 2075 432 m 3 X s 2078 429 m 6 Y s 2075 432
 m 19 Y s 2072 451 m 6 X s 2075 432 m -18 Y s 2072 414 m 6 X s 2081 378 m -3 X s 2078 375 m 6 Y s 2081 378 m 2 X s 2083 375 m 6 Y s 2081 378 m 18 Y s 2078 396 m 6 X s 2081 378 m -16 Y s 2078 362 m 6 X s 2086 342 m -3 X s 2083 339 m 6 Y s 2086 342 m 3
 X s 2089 339 m 6 Y s 2086 342 m 17 Y s 2083 359 m 6 X s 2086 342 m -16 Y s 2083 326 m 6 X s 2091 297 m -2 X s 2089 294 m 6 Y s 2091 297 m 3 X s 2094 294 m 6 Y s 2091 297 m 15 Y s 2088 312 m 6 X s 2091 297 m -14 Y s 2088 283 m 6 X s 2097 247 m -3 X s
 2094 244 m 6 Y s 2097 247 m 2 X s 2099 244 m 6 Y s 2097 247 m 14 Y s 2094 261 m 6 X s 2097 247 m -12 Y s 2094 235 m 6 X s 2102 238 m -3 X s 2099 235 m 6 Y s 2102 238 m 3 X s 2105 235 m 6 Y s 2102 238 m 13 Y s 2099 251 m 6 X s 2102 238 m -12 Y s 2099
 226 m 6 X s 2107 183 m -2 X s 2105 180 m 6 Y s 2107 183 m 3 X s 2110 180 m 6 Y s 2107 183 m 10 Y s 2104 193 m 6 X s 2107 183 m -10 Y s 2104 173 m 6 X s 2113 159 m -3 X s 2110 156 m 6 Y s 2113 159 m 2 X s 2115 156 m 6 Y s 2113 159 m 10 Y s 2110 169 m
 6 X s 2113 159 m -9 Y s 2110 150 m 6 X s 2118 134 m -3 X s 2115 131 m 6 Y s 2118 134 m 3 X s 2121 131 m 6 Y s 2118 134 m 8 Y s 2115 142 m 6 X s 2118 134 m -8 Y s 2115 126 m 6 X s 2123 123 m -2 X s 2121 120 m 6 Y s 2123 123 m 3 X s 2126 120 m 6 Y s
 2123 123 m 8 Y s 2120 131 m 6 X s 2123 123 m -7 Y s 2120 116 m 6 X s 2129 116 m -3 X s 2126 113 m 6 Y s 2129 116 m 2 X s 2131 113 m 6 Y s 2129 116 m 7 Y s 2126 123 m 6 X s 2129 116 m -6 Y s 2126 110 m 6 X s 2134 105 m -3 X s 2131 102 m 6 Y s 2134
 105 m 3 X s 2137 102 m 6 Y s 2134 105 m 7 Y s 2131 112 m 6 X s 2134 105 m -5 Y s 2131 100 m 6 X s 2139 99 m -2 X s 2137 95 m 7 Y s 2139 99 m 3 X s 2142 95 m 7 Y s 2139 99 m 5 Y s 2136 104 m 6 X s 2139 99 m -5 Y s 2136 94 m 6 X s 2145 89 m -3 X s
 2142 86 m 6 Y s 2145 89 m 2 X s 2147 86 m 6 Y s 2145 89 m 4 Y s 2142 93 m 6 X s 2145 89 m -4 Y s 2142 85 m 6 X s 2150 88 m -3 X s 2147 85 m 6 Y s 2150 88 m 3 X s 2153 85 m 6 Y s 2150 88 m 4 Y s 2147 92 m 6 X s 2150 88 m -3 Y s 2147 85 m 6 X s 2155
 87 m -2 X s 2153 84 m 6 Y s 2155 87 m 3 X s 2158 84 m 6 Y s 2155 87 m 4 Y s 2152 91 m 6 X s 2155 87 m -3 Y s 2152 84 m 6 X s 2161 79 m -3 X s 2158 77 m 5 Y s 2161 79 m 2 X s 2163 77 m 5 Y s 2161 79 m 3 Y s 2158 82 m 6 X s 2161 79 m -1 Y s 2158 78 m
 6 X s 2166 80 m -3 X s 2163 77 m 6 Y s 2166 80 m 3 X s 2169 77 m 6 Y s 2166 80 m 3 Y s 2163 83 m 6 X s 2166 80 m -2 Y s 2163 78 m 6 X s 2171 79 m -2 X s 2169 77 m 5 Y s 2171 79 m 3 X s 2174 77 m 5 Y s 2171 79 m 3 Y s 2168 82 m 6 X s 2171 79 m -1 Y s
 2168 78 m 6 X s 1 1 1 c black /w 13 def /w2 {w 2 div} def /w3 {w 3 div} def 1644 82 1649 82 1654 81 1660 87 1665 85 1670 81 1676 80 1681 87 1686 81 1692 92 1697 82 1702 85 1708 84 1713 88 1718 85 1724 83 1729 79 1734 86 1740 87 1745 83 1750 84 1756
 89 1761 85 1766 80 1772 85 1777 85 1782 85 1788 83 1793 83 1798 85 1804 83 1809 88 1814 84 1820 86 1825 80 1830 87 1836 85 1841 88 1846 85 1852 82 1857 85 1862 85 1868 87 1873 82 1878 89 1884 84 1889 83 1894 88 1900 86 1905 84 1910 84 1916 88 1921
 91 1926 91 1932 85 1937 94 1942 107 1947 100 1953 110 1958 105 1963 119 1969 138 1974 150 1979 144 1985 187 1990 205 1995 238 2001 279 2006 292 2011 353 2017 421 2022 486 2027 533 2033 514 2038 545 2043 587 2049 568 2054 549 2059 513 2065 512 2070
 474 2075 432 2081 378 2086 342 2091 297 2097 247 2102 238 2107 183 2113 159 2118 134 2123 123 2129 116 2134 105 2139 99 2145 89 2150 88 2155 87 2161 79 2166 80 2171 79 100 { m20} R 0 0 1 c 9 lw 1 1 1 c black 0 0 1 c 1641 83 m cl s 1641 83 m 32 X 5 1
 d 96 X 6 1 d 85 X 5 1 d 43 X 5 1 d 6 X 5 1 d 5 1 d 6 2 d 5 3 d 5 4 d 5 5 d 6 8 d 5 10 d 5 14 d 3 8 d 3 10 d 2 10 d 3 12 d 3 13 d 2 14 d 3 15 d 3 16 d 2 18 d 3 19 d 5 40 d 6 43 d 5 43 d 5 43 d 3 20 d 3 20 d 2 17 d 3 17 d 3 14 d 2 12 d 3 9 d 3 8 d 2 4
 d 3 2 d 3 -1 d 2 -4 d 3 -6 d 3 -9 d 2 -11 d 3 -14 d 3 -16 d 2 -17 d 3 -19 d 3 -20 d 5 -42 d 5 -44 d 6 -44 d 5 -40 d 3 -20 d 2 -18 d 3 -17 d 3 -15 d 2 -15 d 3 -13 d 3 -12 d 2 -11 d 3 -10 d 3 -9 d 5 -14 d 5 -11 d 6 -9 d 5 -6 d 5 -4 d 6 -4 d 5 -2 d 5
 -2 d 6 -2 d 5 -3 d s[ 12 12] 0 sd 1 1 1 c black 0 0 1 c 1641 83 m cl s 1641 83 m 32 X 5 1 d 102 X 5 1 d 112 X 5 1 d 32 X 6 1 d 5 X 5 1 d 5 1 d 6 2 d 5 1 d 5 2 d 6 3 d 5 2 d 5 4 d 6 3 d 5 4 d 5 4 d 6 5 d 5 4 d 5 4 d 3 2 d 3 2 d 2 1 d 3 2 d 3 1 d 2 1
 d 3 1 d 3 X 2 1 d 6 X 2 -1 d 3 X 3 -1 d 2 -1 d 3 -1 d 3 -2 d 2 -1 d 3 -2 d 3 -2 d 5 -4 d 5 -4 d 6 -5 d 5 -4 d 5 -4 d 6 -4 d 5 -4 d 5 -3 d 6 -3 d 5 -2 d 5 -2 d 6 -2 d 5 -1 d 5 -1 d 6 -1 d 5 -1 d 5 -1 d 6 -1 d 2 -1 d 2 -1 d 1 -1 d s black[  ] 0 sd 3
 lw 1641 77 m 533 X s 1641 93 m -16 Y s 1654 85 m -8 Y s 1668 85 m -8 Y s 1681 85 m -8 Y s 1694 85 m -8 Y s 1708 93 m -16 Y s 1721 85 m -8 Y s 1734 85 m -8 Y s 1748 85 m -8 Y s 1761 85 m -8 Y s 1774 93 m -16 Y s 1788 85 m -8 Y s 1801 85 m -8 Y s 1814
 85 m -8 Y s 1828 85 m -8 Y s 1841 93 m -16 Y s 1854 85 m -8 Y s 1868 85 m -8 Y s 1881 85 m -8 Y s 1894 85 m -8 Y s 1908 93 m -16 Y s 1921 85 m -8 Y s 1934 85 m -8 Y s 1947 85 m -8 Y s 1961 85 m -8 Y s 1974 93 m -16 Y s 1987 85 m -8 Y s 2001 85 m -8
 Y s 2014 85 m -8 Y s 2027 85 m -8 Y s 2041 93 m -16 Y s 2054 85 m -8 Y s 2067 85 m -8 Y s 2081 85 m -8 Y s 2094 85 m -8 Y s 2107 93 m -16 Y s 2121 85 m -8 Y s 2134 85 m -8 Y s 2147 85 m -8 Y s 2161 85 m -8 Y s 2174 93 m -16 Y s 1641 77 m 559 Y s
 1658 77 m -17 X s 1650 97 m -9 X s 1650 116 m -9 X s 1650 136 m -9 X s 1650 155 m -9 X s 1658 175 m -17 X s 1650 194 m -9 X s 1650 214 m -9 X s 1650 233 m -9 X s 1650 253 m -9 X s 1658 273 m -17 X s 1650 292 m -9 X s 1650 312 m -9 X s 1650 331 m -9
 X s 1650 351 m -9 X s 1658 370 m -17 X s 1650 390 m -9 X s 1650 410 m -9 X s 1650 429 m -9 X s 1650 449 m -9 X s 1658 468 m -17 X s 1650 488 m -9 X s 1650 507 m -9 X s 1650 527 m -9 X s 1650 546 m -9 X s 1658 566 m -17 X s 1658 566 m -17 X s 1650
 586 m -9 X s 1650 605 m -9 X s 1650 625 m -9 X s 1 1 1 c black
 gsave  711 699 1534 7 C 1728.79 670.626 t 0 r /Helvetica findfont 34.8619 sf 0 0 m (Signal + Background) show NC gr 
 gr  gr showpage
end
%%EOF
