%!PS-Adobe-2.0 EPSF-2.0
%%BoundingBox:  0 0 567 536
%%Title: ./plots/s1/pBg_s2s0.eps: Background
%%Creator: ROOT Version 6.13/01
%%CreationDate: Thu Dec 28 11:46:50 2017
%%DocumentNeededResources: ProcSet (FontSetInit)
%%EndComments
%%BeginProlog
80 dict begin
/s {stroke} def /l {lineto} def /m {moveto} def /t {translate} def
/r {rotate} def /rl {roll}  def /R {repeat} def
/d {rlineto} def /rm {rmoveto} def /gr {grestore} def /f {eofill} def
/c {setrgbcolor} def /black {0 setgray} def /sd {setdash} def
/cl {closepath} def /sf {scalefont setfont} def /lw {setlinewidth} def
/box {m dup 0 exch d exch 0 d 0 exch neg d cl} def
/NC{systemdict begin initclip end}def/C{NC box clip newpath}def
/bl {box s} def /bf {gsave box gsave f grestore 1 lw [] 0 sd s grestore} def /Y { 0 exch d} def /X { 0 d} def 
/K {{pop pop 0 moveto} exch kshow} bind def
/ita {/ang 15 def gsave [1 0 ang dup sin exch cos div 1 0 0] concat} def 
/mp {newpath /y exch def /x exch def} def
/side {[w .77 mul w .23 mul] .385 w mul sd w 0 l currentpoint t -144 r} def
/mr {mp x y w2 0 360 arc} def /m24 {mr s} def /m20 {mr f} def
/mb {mp x y w2 add m w2 neg 0 d 0 w neg d w 0 d 0 w d cl} def
/mt {mp x y w2 add m w2 neg w neg d w 0 d cl} def
/w4 {w 4 div} def
/w6 {w 6 div} def
/w8 {w 8 div} def
/m21 {mb f} def /m25 {mb s} def /m22 {mt f} def /m26{mt s} def
/m23 {mp x y w2 sub m w2 w d w neg 0 d cl f} def
/m27 {mp x y w2 add m w3 neg w2 neg d w3 w2 neg d w3 w2 d cl s} def
/m28 {mp x w2 sub y w2 sub w3 add m w3 0 d  0 w3 neg d w3 0 d 0 w3 d w3 0 d  0 w3 d w3 neg 0 d 0 w3 d w3 neg 0 d 0 w3 neg d w3 neg 0 d cl s } def
/m29 {mp gsave x w2 sub y w2 add w3 sub m currentpoint t 4 {side} repeat cl fill gr} def
/m30 {mp gsave x w2 sub y w2 add w3 sub m currentpoint t 4 {side} repeat cl s gr} def
/m31 {mp x y w2 sub m 0 w d x w2 sub y m w 0 d x w2 sub y w2 add m w w neg d x w2 sub y w2 sub m w w d s} def
/m32 {mp x y w2 sub m w2 w d w neg 0 d cl s} def
/m33 {mp x y w2 add m w3 neg w2 neg d w3 w2 neg d w3 w2 d cl f} def
/m34 {mp x w2 sub y w2 sub w3 add m w3 0 d  0 w3 neg d w3 0 d 0 w3 d w3 0 d  0 w3 d w3 neg 0 d 0 w3 d w3 neg 0 d 0 w3 neg d w3 neg 0 d cl f } def
/m35 {mp x y w2 add m w2 neg w2 neg d w2 w2 neg d w2 w2 d w2 neg w2 d x y w2 sub m 0 w d x w2 sub y m w 0 d s} def
/m36 {mb x w2 sub y w2 add m w w neg d x w2 sub y w2 sub m w w d s} def
/m37 {mp x y m w4 neg w2 d w4 neg w2 neg d w2 0 d  w4 neg w2 neg d w2 0 d w4 neg w2 d w2 0 d w4 neg w2 d w4 neg w2 neg d cl s} def
/m38 {mp x w4 sub y w2 add m w4 neg w4 neg d 0 w2 neg d w4 w4 neg d w2 0 d w4 w4 d 0 w2 d w4 neg w4 d w2 neg 0 d x y w2 sub m 0 w d x w2 sub y m w 0 d cl s} def
/m39 {mp x y m w4 neg w2 d w4 neg w2 neg d w2 0 d  w4 neg w2 neg d w2 0 d w4 neg w2 d w2 0 d w4 neg w2 d w4 neg w2 neg d cl f} def
/m40 {mp x y m w4 w2 d w4 w4 neg d w2 neg w4 neg d w2 w4 neg d w4 neg w4 neg d w4 neg w2 d w4 neg w2 neg d w4 neg w4 d w2 w4 d w2 neg w4 d w4 w4 d w4 w2 neg d cl s} def
/m41 {mp x y m w4 w2 d w4 w4 neg d w2 neg w4 neg d w2 w4 neg d w4 neg w4 neg d w4 neg w2 d w4 neg w2 neg d w4 neg w4 d w2 w4 d w2 neg w4 d w4 w4 d w4 w2 neg d cl f} def
/m42 {mp x y w2 add m w8 neg w2 -3 4 div mul d w2 -3 4 div mul w8 neg d w2 3 4 div mul w8 neg d w8 w2 -3 4 div mul d w8 w2 3 4 div mul d w2 3 4 div mul w8 d w2 -3 4 div mul w8 d w8 neg w2 3 4 div mul d cl s} def
/m43 {mp x y w2 add m w8 neg w2 -3 4 div mul d w2 -3 4 div mul w8 neg d w2 3 4 div mul w8 neg d w8 w2 -3 4 div mul d w8 w2 3 4 div mul d w2 3 4 div mul w8 d w2 -3 4 div mul w8 d w8 neg w2 3 4 div mul d cl f} def
/m44 {mp x y m w6 neg w2 d w2 2 3 div mul 0 d w6 neg w2 neg d w2 w6 d 0 w2 -2 3 div mul d w2 neg w6 d w6 w2 neg d w2 -2 3 div mul 0 d w6 w2 d w2 neg w6 neg d 0 w2 2 3 div mul d w2 w6 neg d cl s} def
/m45 {mp x y m w6 neg w2 d w2 2 3 div mul 0 d w6 neg w2 neg d w2 w6 d 0 w2 -2 3 div mul d w2 neg w6 d w6 w2 neg d w2 -2 3 div mul 0 d w6 w2 d w2 neg w6 neg d 0 w2 2 3 div mul d w2 w6 neg d cl f} def
/m46 {mp x y w4 add m w4 neg w4 d w4 neg w4 neg d  w4 w4 neg d w4 neg w4 neg d w4 w4 neg d w4 w4 d w4 w4 neg d w4 w4 d w4 neg w4 d w4 w4 d w4 neg w4 d w4 neg w4 neg d cl s} def
/m47 {mp x y w4 add m w4 neg w4 d w4 neg w4 neg d w4 w4 neg d w4 neg w4 neg d  w4 w4 neg d w4 w4 d w4 w4 neg d w4 w4 d w4 neg w4 d w4 w4 d w4 neg w4 d w4 neg w4 neg d cl f} def
/m48 {mp x y w4 add m w4 neg w4 d w4 neg w4 neg d w4 w4 neg d  w4 neg w4 neg d w4 w4 neg d w4 w4 d w4 w4 neg d w4 w4 d w4 neg w4 d w4 w4 d w4 neg w4 d w4 neg w4 neg d  w4 w4 neg d w4 neg w4 neg d w4 neg w4 d w4 w4 d cl f} def
/m49 {mp x w2 sub w3 add y w2 sub w3 add m  0 w3 neg d w3 0 d 0 w3 d w3 0 d 0 w3 d w3 neg 0 d 0 w3 d w3 neg 0 d 0 w3 neg d w3 neg 0 d 0 w3 neg d w3 0 d 0 w3 d w3 0 d 0 w3 neg d w3 neg 0 d cl f } def
/m2 {mp x y w2 sub m 0 w d x w2 sub y m w 0 d s} def
/m5 {mp x w2 sub y w2 sub m w w d x w2 sub y w2 add m w w neg d s} def
%%IncludeResource: ProcSet (FontSetInit)
%%IncludeResource: font Times-Roman
%%IncludeResource: font Times-Italic
%%IncludeResource: font Times-Bold
%%IncludeResource: font Times-BoldItalic
%%IncludeResource: font Helvetica
%%IncludeResource: font Helvetica-Oblique
%%IncludeResource: font Helvetica-Bold
%%IncludeResource: font Helvetica-BoldOblique
%%IncludeResource: font Courier
%%IncludeResource: font Courier-Oblique
%%IncludeResource: font Courier-Bold
%%IncludeResource: font Courier-BoldOblique
%%IncludeResource: font Symbol
%%IncludeResource: font ZapfDingbats
/reEncode {exch findfont dup length dict begin {1 index /FID eq  {pop pop} {def} ifelse } forall /Encoding exch def currentdict end dup /FontName get exch definefont pop } def [/Times-Bold /Times-Italic /Times-BoldItalic /Helvetica /Helvetica-Oblique
 /Helvetica-Bold /Helvetica-BoldOblique /Courier /Courier-Oblique /Courier-Bold /Courier-BoldOblique /Times-Roman /AvantGarde-Book /AvantGarde-BookOblique /AvantGarde-Demi /AvantGarde-DemiOblique /Bookman-Demi /Bookman-DemiItalic /Bookman-Light
 /Bookman-LightItalic /Helvetica-Narrow /Helvetica-Narrow-Bold /Helvetica-Narrow-BoldOblique /Helvetica-Narrow-Oblique /NewCenturySchlbk-Roman /NewCenturySchlbk-Bold /NewCenturySchlbk-BoldItalic /NewCenturySchlbk-Italic /Palatino-Bold
 /Palatino-BoldItalic /Palatino-Italic /Palatino-Roman ] {ISOLatin1Encoding reEncode } forall
%%EndProlog
%%BeginSetup
%%EndSetup
newpath  gsave  .25 .25 scale  gsave  0 0 t black[  ] 0 sd 3 lw 1 1 1 c 2268 2145 0 0 bf black 1 1 1 c 1814 1716 227 214 bf black 1814 1716 227 214 bl 227 214 m 1814 X s 227 266 m -52 Y s 272 240 m -26 Y s 317 240 m -26 Y s 363 240 m -26 Y s 408 240
 m -26 Y s 454 266 m -52 Y s 499 240 m -26 Y s 544 240 m -26 Y s 590 240 m -26 Y s 635 240 m -26 Y s 680 266 m -52 Y s 726 240 m -26 Y s 771 240 m -26 Y s 816 240 m -26 Y s 862 240 m -26 Y s 907 266 m -52 Y s 952 240 m -26 Y s 998 240 m -26 Y s 1043
 240 m -26 Y s 1089 240 m -26 Y s 1134 266 m -52 Y s 1179 240 m -26 Y s 1225 240 m -26 Y s 1270 240 m -26 Y s 1315 240 m -26 Y s 1361 266 m -52 Y s 1406 240 m -26 Y s 1451 240 m -26 Y s 1497 240 m -26 Y s 1542 240 m -26 Y s 1587 266 m -52 Y s 1633
 240 m -26 Y s 1678 240 m -26 Y s 1723 240 m -26 Y s 1769 240 m -26 Y s 1814 266 m -52 Y s 1860 240 m -26 Y s 1905 240 m -26 Y s 1950 240 m -26 Y s 1996 240 m -26 Y s 2041 266 m -52 Y s
 gsave  2268 2145 0 0 C 154.824 145.717 t 0 r /Helvetica findfont 68.3047 sf 0 0 m (5.25) show NC gr 
 gsave  2268 2145 0 0 C 364.292 145.717 t 0 r /Helvetica findfont 68.3047 sf 0 0 m (5.255) show NC gr 
 gsave  2268 2145 0 0 C 610.189 145.717 t 0 r /Helvetica findfont 68.3047 sf 0 0 m (5.26) show NC gr 
 gsave  2268 2145 0 0 C 819.657 145.717 t 0 r /Helvetica findfont 68.3047 sf 0 0 m (5.265) show NC gr 
 gsave  2268 2145 0 0 C 1065.55 145.717 t 0 r /Helvetica findfont 68.3047 sf 0 0 m (5.27) show NC gr 
 gsave  2268 2145 0 0 C 1270.47 145.717 t 0 r /Helvetica findfont 68.3047 sf 0 0 m (5.275) show NC gr 
 gsave  2268 2145 0 0 C 1516.36 145.717 t 0 r /Helvetica findfont 68.3047 sf 0 0 m (5.28) show NC gr 
 gsave  2268 2145 0 0 C 1725.83 145.717 t 0 r /Helvetica findfont 68.3047 sf 0 0 m (5.285) show NC gr 
 gsave  2268 2145 0 0 C 1971.73 145.717 t 0 r /Helvetica findfont 68.3047 sf 0 0 m (5.29) show NC gr 
 gsave  2268 2145 0 0 C 1552.79 72.8584 t 0 r /Helvetica findfont 68.3047 sf 0 0 m (m_bc \(GeV/c^2\)) show NC gr  227 214 m 1716 Y s 281 214 m -54 X s 254 276 m -27 X s 254 338 m -27 X s 254 399 m -27 X s 281 461 m -54 X s 254 523 m -27 X s 254 584 m
 -27 X s 254 646 m -27 X s 281 708 m -54 X s 254 769 m -27 X s 254 831 m -27 X s 254 893 m -27 X s 281 954 m -54 X s 254 1016 m -27 X s 254 1078 m -27 X s 254 1139 m -27 X s 281 1201 m -54 X s 254 1263 m -27 X s 254 1324 m -27 X s 254 1386 m -27 X s
 281 1448 m -54 X s 254 1509 m -27 X s 254 1571 m -27 X s 254 1633 m -27 X s 281 1694 m -54 X s 281 1694 m -54 X s 254 1756 m -27 X s 254 1818 m -27 X s 254 1879 m -27 X s
 gsave  2268 2145 0 0 C 177.592 191.253 t 0 r /Helvetica findfont 68.3047 sf 0 0 m (0) show NC gr 
 gsave  2268 2145 0 0 C 141.163 437.15 t 0 r /Helvetica findfont 68.3047 sf 0 0 m (20) show NC gr 
 gsave  2268 2145 0 0 C 141.163 683.047 t 0 r /Helvetica findfont 68.3047 sf 0 0 m (40) show NC gr 
 gsave  2268 2145 0 0 C 141.163 928.944 t 0 r /Helvetica findfont 68.3047 sf 0 0 m (60) show NC gr 
 gsave  2268 2145 0 0 C 141.163 1174.84 t 0 r /Helvetica findfont 68.3047 sf 0 0 m (80) show NC gr 
 gsave  2268 2145 0 0 C 100.18 1420.74 t 0 r /Helvetica findfont 68.3047 sf 0 0 m (100) show NC gr 
 gsave  2268 2145 0 0 C 100.18 1671.19 t 0 r /Helvetica findfont 68.3047 sf 0 0 m (120) show NC gr 
 gsave  2268 2145 0 0 C 50.0901 1097.43 t 90 r /Helvetica findfont 68.3047 sf 0 0 m (Events / \( 0.0004 GeV/c^2 \)) show NC gr  1 1 1 c black
 gsave  2268 2145 0 0 C 856.086 2044.59 t 0 r /Helvetica findfont 104.734 sf 0 0 m (Background) show NC gr  236 325 m -9 X s 227 316 m 19 Y s 236 325 m 9 X s 245 316 m 19 Y s 236 325 m 51 Y s 227 376 m 18 X s 236 325 m -36 Y s 227 289 m 18 X s 254
 412 m -9 X s 245 403 m 18 Y s 254 412 m 9 X s 263 403 m 18 Y s 254 412 m 62 Y s 245 474 m 18 X s 254 412 m -49 Y s 245 363 m 18 X s 272 424 m -9 X s 263 415 m 18 Y s 272 424 m 9 X s 281 415 m 18 Y s 272 424 m 64 Y s 263 488 m 18 X s 272 424 m -50 Y
 s 263 374 m 18 X s 290 350 m -9 X s 281 341 m 18 Y s 290 350 m 9 X s 299 341 m 18 Y s 290 350 m 55 Y s 281 405 m 18 X s 290 350 m -40 Y s 281 310 m 18 X s 308 412 m -9 X s 299 403 m 18 Y s 308 412 m 9 X s 317 403 m 18 Y s 308 412 m 62 Y s 299 474 m
 19 X s 308 412 m -49 Y s 299 363 m 19 X s 327 412 m -10 X s 317 403 m 18 Y s 327 412 m 9 X s 336 403 m 18 Y s 327 412 m 62 Y s 317 474 m 19 X s 327 412 m -49 Y s 317 363 m 19 X s 345 325 m -9 X s 336 316 m 19 Y s 345 325 m 9 X s 354 316 m 19 Y s 345
 325 m 51 Y s 336 376 m 18 X s 345 325 m -36 Y s 336 289 m 18 X s 363 338 m -9 X s 354 329 m 18 Y s 363 338 m 9 X s 372 329 m 18 Y s 363 338 m 52 Y s 354 390 m 18 X s 363 338 m -39 Y s 354 299 m 18 X s 381 362 m -9 X s 372 353 m 19 Y s 381 362 m 9 X
 s 390 353 m 19 Y s 381 362 m 57 Y s 372 419 m 18 X s 381 362 m -42 Y s 372 320 m 18 X s 399 338 m -9 X s 390 329 m 18 Y s 399 338 m 9 X s 408 329 m 18 Y s 399 338 m 52 Y s 390 390 m 18 X s 399 338 m -39 Y s 390 299 m 18 X s 417 362 m -9 X s 408 353
 m 19 Y s 417 362 m 9 X s 426 353 m 19 Y s 417 362 m 57 Y s 408 419 m 18 X s 417 362 m -42 Y s 408 320 m 18 X s 435 424 m -9 X s 426 415 m 18 Y s 435 424 m 9 X s 444 415 m 18 Y s 435 424 m 64 Y s 426 488 m 19 X s 435 424 m -50 Y s 426 374 m 19 X s
 454 362 m -10 X s 444 353 m 19 Y s 454 362 m 9 X s 463 353 m 19 Y s 454 362 m 57 Y s 444 419 m 19 X s 454 362 m -42 Y s 444 320 m 19 X s 472 338 m -9 X s 463 329 m 18 Y s 472 338 m 9 X s 481 329 m 18 Y s 472 338 m 52 Y s 463 390 m 18 X s 472 338 m
 -39 Y s 463 299 m 18 X s 490 350 m -9 X s 481 341 m 18 Y s 490 350 m 9 X s 499 341 m 18 Y s 490 350 m 55 Y s 481 405 m 18 X s 490 350 m -40 Y s 481 310 m 18 X s 508 362 m -9 X s 499 353 m 19 Y s 508 362 m 9 X s 517 353 m 19 Y s 508 362 m 57 Y s 499
 419 m 18 X s 508 362 m -42 Y s 499 320 m 18 X s 526 387 m -9 X s 517 378 m 18 Y s 526 387 m 9 X s 535 378 m 18 Y s 526 387 m 60 Y s 517 447 m 18 X s 526 387 m -45 Y s 517 342 m 18 X s 544 338 m -9 X s 535 329 m 18 Y s 544 338 m 9 X s 553 329 m 18 Y
 s 544 338 m 52 Y s 535 390 m 18 X s 544 338 m -39 Y s 535 299 m 18 X s 562 301 m -9 X s 553 292 m 18 Y s 562 301 m 9 X s 571 292 m 18 Y s 562 301 m 46 Y s 553 347 m 19 X s 562 301 m -32 Y s 553 269 m 19 X s 581 436 m -10 X s 571 427 m 19 Y s 581 436
 m 9 X s 590 427 m 19 Y s 581 436 m 66 Y s 571 502 m 19 X s 581 436 m -51 Y s 571 385 m 19 X s 599 288 m -9 X s 590 279 m 19 Y s 599 288 m 9 X s 608 279 m 19 Y s 599 288 m 45 Y s 590 333 m 18 X s 599 288 m -29 Y s 590 259 m 18 X s 617 387 m -9 X s
 608 378 m 18 Y s 617 387 m 9 X s 626 378 m 18 Y s 617 387 m 60 Y s 608 447 m 18 X s 617 387 m -45 Y s 608 342 m 18 X s 635 399 m -9 X s 626 390 m 19 Y s 635 399 m 9 X s 644 390 m 19 Y s 635 399 m 62 Y s 626 461 m 18 X s 635 399 m -47 Y s 626 352 m
 18 X s 653 350 m -9 X s 644 341 m 18 Y s 653 350 m 9 X s 662 341 m 18 Y s 653 350 m 55 Y s 644 405 m 18 X s 653 350 m -40 Y s 644 310 m 18 X s 671 424 m -9 X s 662 415 m 18 Y s 671 424 m 9 X s 680 415 m 18 Y s 671 424 m 64 Y s 662 488 m 18 X s 671
 424 m -50 Y s 662 374 m 18 X s 689 436 m -9 X s 680 427 m 19 Y s 689 436 m 9 X s 698 427 m 19 Y s 689 436 m 66 Y s 680 502 m 18 X s 689 436 m -51 Y s 680 385 m 18 X s 708 436 m -10 X s 698 427 m 19 Y s 708 436 m 9 X s 717 427 m 19 Y s 708 436 m 66 Y
 s 698 502 m 19 X s 708 436 m -51 Y s 698 385 m 19 X s 726 350 m -9 X s 717 341 m 18 Y s 726 350 m 9 X s 735 341 m 18 Y s 726 350 m 55 Y s 717 405 m 18 X s 726 350 m -40 Y s 717 310 m 18 X s 744 412 m -9 X s 735 403 m 18 Y s 744 412 m 9 X s 753 403 m
 18 Y s 744 412 m 62 Y s 735 474 m 18 X s 744 412 m -49 Y s 735 363 m 18 X s 762 399 m -9 X s 753 390 m 19 Y s 762 399 m 9 X s 771 390 m 19 Y s 762 399 m 62 Y s 753 461 m 18 X s 762 399 m -47 Y s 753 352 m 18 X s 780 338 m -9 X s 771 329 m 18 Y s 780
 338 m 9 X s 789 329 m 18 Y s 780 338 m 52 Y s 771 390 m 18 X s 780 338 m -39 Y s 771 299 m 18 X s 798 375 m -9 X s 789 366 m 18 Y s 798 375 m 9 X s 807 366 m 18 Y s 798 375 m 58 Y s 789 433 m 18 X s 798 375 m -44 Y s 789 331 m 18 X s 816 375 m -9 X
 s 807 366 m 18 Y s 816 375 m 9 X s 825 366 m 18 Y s 816 375 m 58 Y s 807 433 m 18 X s 816 375 m -44 Y s 807 331 m 18 X s 835 375 m -10 X s 825 366 m 18 Y s 835 375 m 9 X s 844 366 m 18 Y s 835 375 m 58 Y s 825 433 m 19 X s 835 375 m -44 Y s 825 331
 m 19 X s 853 375 m -9 X s 844 366 m 18 Y s 853 375 m 9 X s 862 366 m 18 Y s 853 375 m 58 Y s 844 433 m 18 X s 853 375 m -44 Y s 844 331 m 18 X s 871 362 m -9 X s 862 353 m 19 Y s 871 362 m 9 X s 880 353 m 19 Y s 871 362 m 57 Y s 862 419 m 18 X s 871
 362 m -42 Y s 862 320 m 18 X s 889 461 m -9 X s 880 452 m 18 Y s 889 461 m 9 X s 898 452 m 18 Y s 889 461 m 69 Y s 880 530 m 18 X s 889 461 m -55 Y s 880 406 m 18 X s 907 375 m -9 X s 898 366 m 18 Y s 907 375 m 9 X s 916 366 m 18 Y s 907 375 m 58 Y
 s 898 433 m 18 X s 907 375 m -44 Y s 898 331 m 18 X s 925 424 m -9 X s 916 415 m 18 Y s 925 424 m 9 X s 934 415 m 18 Y s 925 424 m 64 Y s 916 488 m 18 X s 925 424 m -50 Y s 916 374 m 18 X s 943 362 m -9 X s 934 353 m 19 Y s 943 362 m 9 X s 952 353 m
 19 Y s 943 362 m 57 Y s 934 419 m 18 X s 943 362 m -42 Y s 934 320 m 18 X s 962 424 m -10 X s 952 415 m 18 Y s 962 424 m 9 X s 971 415 m 18 Y s 962 424 m 64 Y s 952 488 m 19 X s 962 424 m -50 Y s 952 374 m 19 X s 980 301 m -9 X s 971 292 m 18 Y s
 980 301 m 9 X s 989 292 m 18 Y s 980 301 m 46 Y s 971 347 m 18 X s 980 301 m -32 Y s 971 269 m 18 X s 998 424 m -9 X s 989 415 m 18 Y s 998 424 m 9 X s 1007 415 m 18 Y s 998 424 m 64 Y s 989 488 m 18 X s 998 424 m -50 Y s 989 374 m 18 X s 1016 424 m
 -9 X s 1007 415 m 18 Y s 1016 424 m 9 X s 1025 415 m 18 Y s 1016 424 m 64 Y s 1007 488 m 18 X s 1016 424 m -50 Y s 1007 374 m 18 X s 1034 387 m -9 X s 1025 378 m 18 Y s 1034 387 m 9 X s 1043 378 m 18 Y s 1034 387 m 60 Y s 1025 447 m 18 X s 1034 387
 m -45 Y s 1025 342 m 18 X s 1052 436 m -9 X s 1043 427 m 19 Y s 1052 436 m 9 X s 1061 427 m 19 Y s 1052 436 m 66 Y s 1043 502 m 18 X s 1052 436 m -51 Y s 1043 385 m 18 X s 1070 387 m -9 X s 1061 378 m 18 Y s 1070 387 m 9 X s 1079 378 m 18 Y s 1070
 387 m 60 Y s 1061 447 m 18 X s 1070 387 m -45 Y s 1061 342 m 18 X s 1089 412 m -10 X s 1079 403 m 18 Y s 1089 412 m 9 X s 1098 403 m 18 Y s 1089 412 m 62 Y s 1079 474 m 19 X s 1089 412 m -49 Y s 1079 363 m 19 X s 1107 473 m -9 X s 1098 464 m 19 Y s
 1107 473 m 9 X s 1116 464 m 19 Y s 1107 473 m 70 Y s 1098 543 m 18 X s 1107 473 m -56 Y s 1098 417 m 18 X s 1125 424 m -9 X s 1116 415 m 18 Y s 1125 424 m 9 X s 1134 415 m 18 Y s 1125 424 m 64 Y s 1116 488 m 18 X s 1125 424 m -50 Y s 1116 374 m 18 X
 s 1143 424 m -9 X s 1134 415 m 18 Y s 1143 424 m 9 X s 1152 415 m 18 Y s 1143 424 m 64 Y s 1134 488 m 18 X s 1143 424 m -50 Y s 1134 374 m 18 X s 1161 424 m -9 X s 1152 415 m 18 Y s 1161 424 m 9 X s 1170 415 m 18 Y s 1161 424 m 64 Y s 1152 488 m 18
 X s 1161 424 m -50 Y s 1152 374 m 18 X s 1179 436 m -9 X s 1170 427 m 19 Y s 1179 436 m 9 X s 1188 427 m 19 Y s 1179 436 m 66 Y s 1170 502 m 18 X s 1179 436 m -51 Y s 1170 385 m 18 X s 1197 449 m -9 X s 1188 440 m 18 Y s 1197 449 m 9 X s 1206 440 m
 18 Y s 1197 449 m 67 Y s 1188 516 m 18 X s 1197 449 m -53 Y s 1188 396 m 18 X s 1215 473 m -9 X s 1206 464 m 19 Y s 1215 473 m 10 X s 1225 464 m 19 Y s 1215 473 m 70 Y s 1206 543 m 19 X s 1215 473 m -56 Y s 1206 417 m 19 X s 1234 547 m -9 X s 1225
 538 m 19 Y s 1234 547 m 9 X s 1243 538 m 19 Y s 1234 547 m 78 Y s 1225 625 m 18 X s 1234 547 m -63 Y s 1225 484 m 18 X s 1252 547 m -9 X s 1243 538 m 19 Y s 1252 547 m 9 X s 1261 538 m 19 Y s 1252 547 m 78 Y s 1243 625 m 18 X s 1252 547 m -63 Y s
 1243 484 m 18 X s 1270 535 m -9 X s 1261 526 m 18 Y s 1270 535 m 9 X s 1279 526 m 18 Y s 1270 535 m 76 Y s 1261 611 m 18 X s 1270 535 m -62 Y s 1261 473 m 18 X s 1288 609 m -9 X s 1279 600 m 18 Y s 1288 609 m 9 X s 1297 600 m 18 Y s 1288 609 m 83 Y
 s 1279 692 m 18 X s 1288 609 m -69 Y s 1279 540 m 18 X s 1306 535 m -9 X s 1297 526 m 18 Y s 1306 535 m 9 X s 1315 526 m 18 Y s 1306 535 m 76 Y s 1297 611 m 18 X s 1306 535 m -62 Y s 1297 473 m 18 X s 1324 806 m -9 X s 1315 797 m 19 Y s 1324 806 m 9
 X s 1333 797 m 19 Y s 1324 806 m 99 Y s 1315 905 m 18 X s 1324 806 m -85 Y s 1315 721 m 18 X s 1342 510 m -9 X s 1333 501 m 19 Y s 1342 510 m 10 X s 1352 501 m 19 Y s 1342 510 m 74 Y s 1333 584 m 19 X s 1342 510 m -60 Y s 1333 450 m 19 X s 1361 572
 m -9 X s 1352 563 m 18 Y s 1361 572 m 9 X s 1370 563 m 18 Y s 1361 572 m 80 Y s 1352 652 m 18 X s 1361 572 m -66 Y s 1352 506 m 18 X s 1379 646 m -9 X s 1370 637 m 18 Y s 1379 646 m 9 X s 1388 637 m 18 Y s 1379 646 m 86 Y s 1370 732 m 18 X s 1379
 646 m -73 Y s 1370 573 m 18 X s 1397 954 m -9 X s 1388 945 m 18 Y s 1397 954 m 9 X s 1406 945 m 18 Y s 1397 954 m 109 Y s 1388 1063 m 18 X s 1397 954 m -95 Y s 1388 859 m 18 X s 1415 979 m -9 X s 1406 970 m 18 Y s 1415 979 m 9 X s 1424 970 m 18 Y s
 1415 979 m 110 Y s 1406 1089 m 18 X s 1415 979 m -97 Y s 1406 882 m 18 X s 1433 843 m -9 X s 1424 834 m 19 Y s 1433 843 m 9 X s 1442 834 m 19 Y s 1433 843 m 101 Y s 1424 944 m 18 X s 1433 843 m -87 Y s 1424 756 m 18 X s 1451 954 m -9 X s 1442 945 m
 18 Y s 1451 954 m 9 X s 1460 945 m 18 Y s 1451 954 m 109 Y s 1442 1063 m 18 X s 1451 954 m -95 Y s 1442 859 m 18 X s 1469 1090 m -9 X s 1460 1081 m 18 Y s 1469 1090 m 10 X s 1479 1081 m 18 Y s 1469 1090 m 117 Y s 1460 1207 m 19 X s 1469 1090 m -104
 Y s 1460 986 m 19 X s 1488 1115 m -9 X s 1479 1106 m 18 Y s 1488 1115 m 9 X s 1497 1106 m 18 Y s 1488 1115 m 118 Y s 1479 1233 m 18 X s 1488 1115 m -105 Y s 1479 1010 m 18 X s 1506 1411 m -9 X s 1497 1402 m 18 Y s 1506 1411 m 9 X s 1515 1402 m 18 Y
 s 1506 1411 m 134 Y s 1497 1545 m 18 X s 1506 1411 m -122 Y s 1497 1289 m 18 X s 1524 1448 m -9 X s 1515 1439 m 18 Y s 1524 1448 m 9 X s 1533 1439 m 18 Y s 1524 1448 m 136 Y s 1515 1584 m 18 X s 1524 1448 m -123 Y s 1515 1325 m 18 X s 1542 1645 m -9
 X s 1533 1636 m 18 Y s 1542 1645 m 9 X s 1551 1636 m 18 Y s 1542 1645 m 139 Y s 1533 1784 m 18 X s 1542 1645 m -127 Y s 1533 1518 m 18 X s 1560 1460 m -9 X s 1551 1451 m 18 Y s 1560 1460 m 9 X s 1569 1451 m 18 Y s 1560 1460 m 130 Y s 1551 1590 m 18
 X s 1560 1460 m -118 Y s 1551 1342 m 18 X s 1578 1657 m -9 X s 1569 1648 m 18 Y s 1578 1657 m 9 X s 1587 1648 m 18 Y s 1578 1657 m 140 Y s 1569 1797 m 18 X s 1578 1657 m -127 Y s 1569 1530 m 18 X s 1596 1620 m -9 X s 1587 1611 m 18 Y s 1596 1620 m
 10 X s 1606 1611 m 18 Y s 1596 1620 m 138 Y s 1587 1758 m 19 X s 1596 1620 m -125 Y s 1587 1495 m 19 X s 1615 1682 m -9 X s 1606 1673 m 18 Y s 1615 1682 m 9 X s 1624 1673 m 18 Y s 1615 1682 m 141 Y s 1606 1823 m 18 X s 1615 1682 m -129 Y s 1606 1553
 m 18 X s 1633 1707 m -9 X s 1624 1698 m 18 Y s 1633 1707 m 9 X s 1642 1698 m 18 Y s 1633 1707 m 142 Y s 1624 1849 m 18 X s 1633 1707 m -130 Y s 1624 1577 m 18 X s 1651 1460 m -9 X s 1642 1451 m 18 Y s 1651 1460 m 9 X s 1660 1451 m 18 Y s 1651 1460 m
 130 Y s 1642 1590 m 18 X s 1651 1460 m -118 Y s 1642 1342 m 18 X s 1669 1546 m -9 X s 1660 1537 m 18 Y s 1669 1546 m 9 X s 1678 1537 m 18 Y s 1669 1546 m 135 Y s 1660 1681 m 18 X s 1669 1546 m -122 Y s 1660 1424 m 18 X s 1687 1374 m -9 X s 1678 1365
 m 18 Y s 1687 1374 m 9 X s 1696 1365 m 18 Y s 1687 1374 m 132 Y s 1678 1506 m 18 X s 1687 1374 m -120 Y s 1678 1254 m 18 X s 1705 1608 m -9 X s 1696 1599 m 18 Y s 1705 1608 m 9 X s 1714 1599 m 18 Y s 1705 1608 m 137 Y s 1696 1745 m 18 X s 1705 1608
 m -125 Y s 1696 1483 m 18 X s 1723 1361 m -9 X s 1714 1352 m 18 Y s 1723 1361 m 10 X s 1733 1352 m 18 Y s 1723 1361 m 132 Y s 1714 1493 m 19 X s 1723 1361 m -118 Y s 1714 1243 m 19 X s 1742 1127 m -9 X s 1733 1118 m 18 Y s 1742 1127 m 9 X s 1751
 1118 m 18 Y s 1742 1127 m 119 Y s 1732 1246 m 19 X s 1742 1127 m -106 Y s 1732 1021 m 19 X s 1760 880 m -9 X s 1751 871 m 19 Y s 1760 880 m 9 X s 1769 871 m 19 Y s 1760 880 m 104 Y s 1751 984 m 18 X s 1760 880 m -90 Y s 1751 790 m 18 X s 1778 868 m
 -9 X s 1769 859 m 18 Y s 1778 868 m 9 X s 1787 859 m 18 Y s 1778 868 m 103 Y s 1769 971 m 18 X s 1778 868 m -89 Y s 1769 779 m 18 X s 1796 831 m -9 X s 1787 822 m 18 Y s 1796 831 m 9 X s 1805 822 m 18 Y s 1796 831 m 100 Y s 1787 931 m 18 X s 1796
 831 m -87 Y s 1787 744 m 18 X s 1814 708 m -9 X s 1805 699 m 18 Y s 1814 708 m 9 X s 1823 699 m 18 Y s 1814 708 m 91 Y s 1805 799 m 18 X s 1814 708 m -78 Y s 1805 630 m 18 X s 1832 720 m -9 X s 1823 711 m 18 Y s 1832 720 m 9 X s 1841 711 m 18 Y s
 1832 720 m 92 Y s 1823 812 m 18 X s 1832 720 m -79 Y s 1823 641 m 18 X s 1850 547 m -9 X s 1841 538 m 19 Y s 1850 547 m 10 X s 1860 538 m 19 Y s 1850 547 m 78 Y s 1841 625 m 19 X s 1850 547 m -63 Y s 1841 484 m 19 X s 1869 473 m -9 X s 1860 464 m 19
 Y s 1869 473 m 9 X s 1878 464 m 19 Y s 1869 473 m 70 Y s 1859 543 m 19 X s 1869 473 m -56 Y s 1859 417 m 19 X s 1887 461 m -9 X s 1878 452 m 18 Y s 1887 461 m 9 X s 1896 452 m 18 Y s 1887 461 m 69 Y s 1878 530 m 18 X s 1887 461 m -55 Y s 1878 406 m
 18 X s 1905 362 m -9 X s 1896 353 m 19 Y s 1905 362 m 9 X s 1914 353 m 19 Y s 1905 362 m 57 Y s 1896 419 m 18 X s 1905 362 m -42 Y s 1896 320 m 18 X s 1923 424 m -9 X s 1914 415 m 18 Y s 1923 424 m 9 X s 1932 415 m 18 Y s 1923 424 m 64 Y s 1914 488
 m 18 X s 1923 424 m -50 Y s 1914 374 m 18 X s 1941 350 m -9 X s 1932 341 m 18 Y s 1941 350 m 9 X s 1950 341 m 18 Y s 1941 350 m 55 Y s 1932 405 m 18 X s 1941 350 m -40 Y s 1932 310 m 18 X s 1959 264 m -9 X s 1950 255 m 18 Y s 1959 264 m 9 X s 1968
 255 m 18 Y s 1959 264 m 39 Y s 1950 303 m 18 X s 1959 264 m -24 Y s 1950 240 m 18 X s 1977 362 m -9 X s 1968 353 m 19 Y s 1977 362 m 10 X s 1987 353 m 19 Y s 1977 362 m 57 Y s 1968 419 m 19 X s 1977 362 m -42 Y s 1968 320 m 19 X s 1996 301 m -9 X s
 1987 292 m 18 Y s 1996 301 m 9 X s 2005 292 m 18 Y s 1996 301 m 46 Y s 1986 347 m 19 X s 1996 301 m -32 Y s 1986 269 m 19 X s 2014 276 m -9 X s 2005 267 m 18 Y s 2014 276 m 9 X s 2023 267 m 18 Y s 2014 276 m 42 Y s 2005 318 m 18 X s 2014 276 m -26 Y
 s 2005 250 m 18 X s 2032 276 m -9 X s 2023 267 m 18 Y s 2032 276 m 9 X s 2041 267 m 18 Y s 2032 276 m 42 Y s 2023 318 m 18 X s 2032 276 m -26 Y s 2023 250 m 18 X s 1 1 1 c black /w 36 def /w2 {w 2 div} def /w3 {w 3 div} def 236 325 254 412 272 424
 290 350 308 412 327 412 345 325 363 338 381 362 399 338 417 362 435 424 454 362 472 338 490 350 508 362 526 387 544 338 562 301 581 436 599 288 617 387 635 399 653 350 671 424 689 436 708 436 726 350 744 412 762 399 780 338 798 375 816 375 835 375
 853 375 871 362 889 461 907 375 925 424 943 362 962 424 980 301 998 424 1016 424 1034 387 1052 436 1070 387 1089 412 1107 473 1125 424 1143 424 1161 424 1179 436 1197 449 1215 473 1234 547 1252 547 1270 535 1288 609 1306 535 1324 806 1342 510 1361
 572 1379 646 1397 954 1415 979 1433 843 1451 954 1469 1090 1488 1115 1506 1411 1524 1448 1542 1645 1560 1460 1578 1657 1596 1620 1615 1682 1633 1707 1651 1460 1669 1546 1687 1374 1705 1608 1723 1361 1742 1127 1760 880 1778 868 1796 831 1814 708 1832
 720 1850 547 1869 473 1887 461 1905 362 1923 424 1941 350 1959 264 1977 362 1996 301 2014 276 2032 276 100 { m20} R 0 0 1 c 9 lw 1 1 1 c black 0 0 1 c 227 359 m cl s 227 359 m 18 2 d 18 1 d 18 1 d 18 1 d 18 1 d 19 2 d 18 1 d 18 1 d 18 1 d 18 2 d 18
 1 d 18 1 d 19 1 d 18 1 d 18 2 d 18 1 d 18 1 d 18 1 d 18 1 d 19 2 d 18 1 d 18 1 d 18 1 d 18 1 d 18 1 d 18 2 d 19 1 d 18 1 d 18 1 d 18 1 d 18 1 d 18 1 d 18 1 d 19 2 d 18 1 d 18 1 d 18 1 d 18 1 d 18 1 d 18 1 d 19 1 d 18 X 18 1 d 18 1 d 18 1 d 18 1 d 18
 1 d 19 1 d 18 2 d 18 1 d 18 2 d 18 3 d 18 4 d 18 5 d 19 7 d 18 10 d 18 14 d 18 18 d 18 23 d 18 31 d 18 38 d 19 47 d 18 56 d 18 67 d 18 77 d 18 86 d 18 93 d 18 99 d 19 101 d 18 100 d 18 95 d 9 44 d 9 41 d 9 38 d 9 33 d 9 30 d 9 25 d 9 19 d 9 15 d 9 8
 d 10 3 d 9 -2 d 9 -9 d 9 -14 d 9 -19 d 9 -25 d 9 -29 d 9 -34 d 9 -38 d 9 -42 d 9 -45 d 18 -96 d 19 -103 d 18 -105 d 18 -103 d 18 -99 d 18 -91 d 18 -83 d 18 -73 d 19 -64 d 18 -54 d 18 -46 d 18 -39 d 18 -32 d 18 -28 d 18 -24 d 19 -23 d 18 -23 d 18 -27
 d 9 -17 d 4 -12 d 3 -8 d 2 -20 d s black 3 lw 227 214 m 1814 X s 227 266 m -52 Y s 272 240 m -26 Y s 317 240 m -26 Y s 363 240 m -26 Y s 408 240 m -26 Y s 454 266 m -52 Y s 499 240 m -26 Y s 544 240 m -26 Y s 590 240 m -26 Y s 635 240 m -26 Y s 680
 266 m -52 Y s 726 240 m -26 Y s 771 240 m -26 Y s 816 240 m -26 Y s 862 240 m -26 Y s 907 266 m -52 Y s 952 240 m -26 Y s 998 240 m -26 Y s 1043 240 m -26 Y s 1089 240 m -26 Y s 1134 266 m -52 Y s 1179 240 m -26 Y s 1225 240 m -26 Y s 1270 240 m -26
 Y s 1315 240 m -26 Y s 1361 266 m -52 Y s 1406 240 m -26 Y s 1451 240 m -26 Y s 1497 240 m -26 Y s 1542 240 m -26 Y s 1587 266 m -52 Y s 1633 240 m -26 Y s 1678 240 m -26 Y s 1723 240 m -26 Y s 1769 240 m -26 Y s 1814 266 m -52 Y s 1860 240 m -26 Y
 s 1905 240 m -26 Y s 1950 240 m -26 Y s 1996 240 m -26 Y s 2041 266 m -52 Y s 227 214 m 1716 Y s 281 214 m -54 X s 254 276 m -27 X s 254 338 m -27 X s 254 399 m -27 X s 281 461 m -54 X s 254 523 m -27 X s 254 584 m -27 X s 254 646 m -27 X s 281 708
 m -54 X s 254 769 m -27 X s 254 831 m -27 X s 254 893 m -27 X s 281 954 m -54 X s 254 1016 m -27 X s 254 1078 m -27 X s 254 1139 m -27 X s 281 1201 m -54 X s 254 1263 m -27 X s 254 1324 m -27 X s 254 1386 m -27 X s 281 1448 m -54 X s 254 1509 m -27
 X s 254 1571 m -27 X s 254 1633 m -27 X s 281 1694 m -54 X s 281 1694 m -54 X s 254 1756 m -27 X s 254 1818 m -27 X s 254 1879 m -27 X s 1 1 1 c black
 gsave  2268 2145 0 0 C 856.086 2044.59 t 0 r /Helvetica findfont 104.734 sf 0 0 m (Background) show NC gr 
 gr  gr showpage
end
%%EOF
