%!PS-Adobe-2.0 EPSF-2.0
%%BoundingBox:  0 0 567 536
%%Title: ./plots/s1/pBgSig_s1.eps: Signal + Background
%%Creator: ROOT Version 6.13/01
%%CreationDate: Thu Dec 28 11:46:50 2017
%%DocumentNeededResources: ProcSet (FontSetInit)
%%EndComments
%%BeginProlog
80 dict begin
/s {stroke} def /l {lineto} def /m {moveto} def /t {translate} def
/r {rotate} def /rl {roll}  def /R {repeat} def
/d {rlineto} def /rm {rmoveto} def /gr {grestore} def /f {eofill} def
/c {setrgbcolor} def /black {0 setgray} def /sd {setdash} def
/cl {closepath} def /sf {scalefont setfont} def /lw {setlinewidth} def
/box {m dup 0 exch d exch 0 d 0 exch neg d cl} def
/NC{systemdict begin initclip end}def/C{NC box clip newpath}def
/bl {box s} def /bf {gsave box gsave f grestore 1 lw [] 0 sd s grestore} def /Y { 0 exch d} def /X { 0 d} def 
/K {{pop pop 0 moveto} exch kshow} bind def
/ita {/ang 15 def gsave [1 0 ang dup sin exch cos div 1 0 0] concat} def 
/mp {newpath /y exch def /x exch def} def
/side {[w .77 mul w .23 mul] .385 w mul sd w 0 l currentpoint t -144 r} def
/mr {mp x y w2 0 360 arc} def /m24 {mr s} def /m20 {mr f} def
/mb {mp x y w2 add m w2 neg 0 d 0 w neg d w 0 d 0 w d cl} def
/mt {mp x y w2 add m w2 neg w neg d w 0 d cl} def
/w4 {w 4 div} def
/w6 {w 6 div} def
/w8 {w 8 div} def
/m21 {mb f} def /m25 {mb s} def /m22 {mt f} def /m26{mt s} def
/m23 {mp x y w2 sub m w2 w d w neg 0 d cl f} def
/m27 {mp x y w2 add m w3 neg w2 neg d w3 w2 neg d w3 w2 d cl s} def
/m28 {mp x w2 sub y w2 sub w3 add m w3 0 d  0 w3 neg d w3 0 d 0 w3 d w3 0 d  0 w3 d w3 neg 0 d 0 w3 d w3 neg 0 d 0 w3 neg d w3 neg 0 d cl s } def
/m29 {mp gsave x w2 sub y w2 add w3 sub m currentpoint t 4 {side} repeat cl fill gr} def
/m30 {mp gsave x w2 sub y w2 add w3 sub m currentpoint t 4 {side} repeat cl s gr} def
/m31 {mp x y w2 sub m 0 w d x w2 sub y m w 0 d x w2 sub y w2 add m w w neg d x w2 sub y w2 sub m w w d s} def
/m32 {mp x y w2 sub m w2 w d w neg 0 d cl s} def
/m33 {mp x y w2 add m w3 neg w2 neg d w3 w2 neg d w3 w2 d cl f} def
/m34 {mp x w2 sub y w2 sub w3 add m w3 0 d  0 w3 neg d w3 0 d 0 w3 d w3 0 d  0 w3 d w3 neg 0 d 0 w3 d w3 neg 0 d 0 w3 neg d w3 neg 0 d cl f } def
/m35 {mp x y w2 add m w2 neg w2 neg d w2 w2 neg d w2 w2 d w2 neg w2 d x y w2 sub m 0 w d x w2 sub y m w 0 d s} def
/m36 {mb x w2 sub y w2 add m w w neg d x w2 sub y w2 sub m w w d s} def
/m37 {mp x y m w4 neg w2 d w4 neg w2 neg d w2 0 d  w4 neg w2 neg d w2 0 d w4 neg w2 d w2 0 d w4 neg w2 d w4 neg w2 neg d cl s} def
/m38 {mp x w4 sub y w2 add m w4 neg w4 neg d 0 w2 neg d w4 w4 neg d w2 0 d w4 w4 d 0 w2 d w4 neg w4 d w2 neg 0 d x y w2 sub m 0 w d x w2 sub y m w 0 d cl s} def
/m39 {mp x y m w4 neg w2 d w4 neg w2 neg d w2 0 d  w4 neg w2 neg d w2 0 d w4 neg w2 d w2 0 d w4 neg w2 d w4 neg w2 neg d cl f} def
/m40 {mp x y m w4 w2 d w4 w4 neg d w2 neg w4 neg d w2 w4 neg d w4 neg w4 neg d w4 neg w2 d w4 neg w2 neg d w4 neg w4 d w2 w4 d w2 neg w4 d w4 w4 d w4 w2 neg d cl s} def
/m41 {mp x y m w4 w2 d w4 w4 neg d w2 neg w4 neg d w2 w4 neg d w4 neg w4 neg d w4 neg w2 d w4 neg w2 neg d w4 neg w4 d w2 w4 d w2 neg w4 d w4 w4 d w4 w2 neg d cl f} def
/m42 {mp x y w2 add m w8 neg w2 -3 4 div mul d w2 -3 4 div mul w8 neg d w2 3 4 div mul w8 neg d w8 w2 -3 4 div mul d w8 w2 3 4 div mul d w2 3 4 div mul w8 d w2 -3 4 div mul w8 d w8 neg w2 3 4 div mul d cl s} def
/m43 {mp x y w2 add m w8 neg w2 -3 4 div mul d w2 -3 4 div mul w8 neg d w2 3 4 div mul w8 neg d w8 w2 -3 4 div mul d w8 w2 3 4 div mul d w2 3 4 div mul w8 d w2 -3 4 div mul w8 d w8 neg w2 3 4 div mul d cl f} def
/m44 {mp x y m w6 neg w2 d w2 2 3 div mul 0 d w6 neg w2 neg d w2 w6 d 0 w2 -2 3 div mul d w2 neg w6 d w6 w2 neg d w2 -2 3 div mul 0 d w6 w2 d w2 neg w6 neg d 0 w2 2 3 div mul d w2 w6 neg d cl s} def
/m45 {mp x y m w6 neg w2 d w2 2 3 div mul 0 d w6 neg w2 neg d w2 w6 d 0 w2 -2 3 div mul d w2 neg w6 d w6 w2 neg d w2 -2 3 div mul 0 d w6 w2 d w2 neg w6 neg d 0 w2 2 3 div mul d w2 w6 neg d cl f} def
/m46 {mp x y w4 add m w4 neg w4 d w4 neg w4 neg d  w4 w4 neg d w4 neg w4 neg d w4 w4 neg d w4 w4 d w4 w4 neg d w4 w4 d w4 neg w4 d w4 w4 d w4 neg w4 d w4 neg w4 neg d cl s} def
/m47 {mp x y w4 add m w4 neg w4 d w4 neg w4 neg d w4 w4 neg d w4 neg w4 neg d  w4 w4 neg d w4 w4 d w4 w4 neg d w4 w4 d w4 neg w4 d w4 w4 d w4 neg w4 d w4 neg w4 neg d cl f} def
/m48 {mp x y w4 add m w4 neg w4 d w4 neg w4 neg d w4 w4 neg d  w4 neg w4 neg d w4 w4 neg d w4 w4 d w4 w4 neg d w4 w4 d w4 neg w4 d w4 w4 d w4 neg w4 d w4 neg w4 neg d  w4 w4 neg d w4 neg w4 neg d w4 neg w4 d w4 w4 d cl f} def
/m49 {mp x w2 sub w3 add y w2 sub w3 add m  0 w3 neg d w3 0 d 0 w3 d w3 0 d 0 w3 d w3 neg 0 d 0 w3 d w3 neg 0 d 0 w3 neg d w3 neg 0 d 0 w3 neg d w3 0 d 0 w3 d w3 0 d 0 w3 neg d w3 neg 0 d cl f } def
/m2 {mp x y w2 sub m 0 w d x w2 sub y m w 0 d s} def
/m5 {mp x w2 sub y w2 sub m w w d x w2 sub y w2 add m w w neg d s} def
%%IncludeResource: ProcSet (FontSetInit)
%%IncludeResource: font Times-Roman
%%IncludeResource: font Times-Italic
%%IncludeResource: font Times-Bold
%%IncludeResource: font Times-BoldItalic
%%IncludeResource: font Helvetica
%%IncludeResource: font Helvetica-Oblique
%%IncludeResource: font Helvetica-Bold
%%IncludeResource: font Helvetica-BoldOblique
%%IncludeResource: font Courier
%%IncludeResource: font Courier-Oblique
%%IncludeResource: font Courier-Bold
%%IncludeResource: font Courier-BoldOblique
%%IncludeResource: font Symbol
%%IncludeResource: font ZapfDingbats
/reEncode {exch findfont dup length dict begin {1 index /FID eq  {pop pop} {def} ifelse } forall /Encoding exch def currentdict end dup /FontName get exch definefont pop } def [/Times-Bold /Times-Italic /Times-BoldItalic /Helvetica /Helvetica-Oblique
 /Helvetica-Bold /Helvetica-BoldOblique /Courier /Courier-Oblique /Courier-Bold /Courier-BoldOblique /Times-Roman /AvantGarde-Book /AvantGarde-BookOblique /AvantGarde-Demi /AvantGarde-DemiOblique /Bookman-Demi /Bookman-DemiItalic /Bookman-Light
 /Bookman-LightItalic /Helvetica-Narrow /Helvetica-Narrow-Bold /Helvetica-Narrow-BoldOblique /Helvetica-Narrow-Oblique /NewCenturySchlbk-Roman /NewCenturySchlbk-Bold /NewCenturySchlbk-BoldItalic /NewCenturySchlbk-Italic /Palatino-Bold
 /Palatino-BoldItalic /Palatino-Italic /Palatino-Roman ] {ISOLatin1Encoding reEncode } forall
%%EndProlog
%%BeginSetup
%%EndSetup
newpath  gsave  .25 .25 scale  gsave  0 0 t black[  ] 0 sd 3 lw 1 1 1 c 2268 2145 0 0 bf black 1 1 1 c 1814 1716 227 214 bf black 1814 1716 227 214 bl 227 214 m 1814 X s 227 266 m -52 Y s 272 240 m -26 Y s 317 240 m -26 Y s 363 240 m -26 Y s 408 240
 m -26 Y s 454 266 m -52 Y s 499 240 m -26 Y s 544 240 m -26 Y s 590 240 m -26 Y s 635 240 m -26 Y s 680 266 m -52 Y s 726 240 m -26 Y s 771 240 m -26 Y s 816 240 m -26 Y s 862 240 m -26 Y s 907 266 m -52 Y s 952 240 m -26 Y s 998 240 m -26 Y s 1043
 240 m -26 Y s 1089 240 m -26 Y s 1134 266 m -52 Y s 1179 240 m -26 Y s 1225 240 m -26 Y s 1270 240 m -26 Y s 1315 240 m -26 Y s 1361 266 m -52 Y s 1406 240 m -26 Y s 1451 240 m -26 Y s 1497 240 m -26 Y s 1542 240 m -26 Y s 1587 266 m -52 Y s 1633
 240 m -26 Y s 1678 240 m -26 Y s 1723 240 m -26 Y s 1769 240 m -26 Y s 1814 266 m -52 Y s 1860 240 m -26 Y s 1905 240 m -26 Y s 1950 240 m -26 Y s 1996 240 m -26 Y s 2041 266 m -52 Y s
 gsave  2268 2145 0 0 C 154.824 145.717 t 0 r /Helvetica findfont 68.3047 sf 0 0 m (5.25) show NC gr 
 gsave  2268 2145 0 0 C 364.292 145.717 t 0 r /Helvetica findfont 68.3047 sf 0 0 m (5.255) show NC gr 
 gsave  2268 2145 0 0 C 610.189 145.717 t 0 r /Helvetica findfont 68.3047 sf 0 0 m (5.26) show NC gr 
 gsave  2268 2145 0 0 C 819.657 145.717 t 0 r /Helvetica findfont 68.3047 sf 0 0 m (5.265) show NC gr 
 gsave  2268 2145 0 0 C 1065.55 145.717 t 0 r /Helvetica findfont 68.3047 sf 0 0 m (5.27) show NC gr 
 gsave  2268 2145 0 0 C 1270.47 145.717 t 0 r /Helvetica findfont 68.3047 sf 0 0 m (5.275) show NC gr 
 gsave  2268 2145 0 0 C 1516.36 145.717 t 0 r /Helvetica findfont 68.3047 sf 0 0 m (5.28) show NC gr 
 gsave  2268 2145 0 0 C 1725.83 145.717 t 0 r /Helvetica findfont 68.3047 sf 0 0 m (5.285) show NC gr 
 gsave  2268 2145 0 0 C 1971.73 145.717 t 0 r /Helvetica findfont 68.3047 sf 0 0 m (5.29) show NC gr 
 gsave  2268 2145 0 0 C 1552.79 72.8584 t 0 r /Helvetica findfont 68.3047 sf 0 0 m (m_bc \(GeV/c^2\)) show NC gr  227 214 m 1716 Y s 281 214 m -54 X s 254 275 m -27 X s 254 335 m -27 X s 254 395 m -27 X s 254 455 m -27 X s 281 515 m -54 X s 254 575 m
 -27 X s 254 635 m -27 X s 254 695 m -27 X s 254 755 m -27 X s 281 815 m -54 X s 254 875 m -27 X s 254 935 m -27 X s 254 995 m -27 X s 254 1055 m -27 X s 281 1115 m -54 X s 254 1175 m -27 X s 254 1235 m -27 X s 254 1295 m -27 X s 254 1355 m -27 X s
 281 1415 m -54 X s 254 1475 m -27 X s 254 1535 m -27 X s 254 1595 m -27 X s 254 1655 m -27 X s 281 1716 m -54 X s 281 1716 m -54 X s 254 1776 m -27 X s 254 1836 m -27 X s 254 1896 m -27 X s
 gsave  2268 2145 0 0 C 177.592 191.253 t 0 r /Helvetica findfont 68.3047 sf 0 0 m (0) show NC gr 
 gsave  2268 2145 0 0 C 100.18 491.794 t 0 r /Helvetica findfont 68.3047 sf 0 0 m (100) show NC gr 
 gsave  2268 2145 0 0 C 100.18 787.781 t 0 r /Helvetica findfont 68.3047 sf 0 0 m (200) show NC gr 
 gsave  2268 2145 0 0 C 100.18 1088.32 t 0 r /Helvetica findfont 68.3047 sf 0 0 m (300) show NC gr 
 gsave  2268 2145 0 0 C 100.18 1388.86 t 0 r /Helvetica findfont 68.3047 sf 0 0 m (400) show NC gr 
 gsave  2268 2145 0 0 C 100.18 1689.4 t 0 r /Helvetica findfont 68.3047 sf 0 0 m (500) show NC gr 
 gsave  2268 2145 0 0 C 50.0901 1097.43 t 90 r /Helvetica findfont 68.3047 sf 0 0 m (Events / \( 0.0004 GeV/c^2 \)) show NC gr  1 1 1 c black
 gsave  2268 2145 0 0 C 651.172 2040.03 t 0 r /Helvetica findfont 104.734 sf 0 0 m (Signal + Background) show NC gr  236 229 m -9 X s 227 220 m 19 Y s 236 229 m 9 X s 245 220 m 19 Y s 236 229 m 11 Y s 227 240 m 18 X s 236 229 m -6 Y s 227 223 m 18 X
 s 254 229 m -9 X s 245 220 m 19 Y s 254 229 m 9 X s 263 220 m 19 Y s 254 229 m 11 Y s 245 240 m 18 X s 254 229 m -6 Y s 245 223 m 18 X s 272 226 m -9 X s 263 217 m 19 Y s 272 226 m 9 X s 281 217 m 19 Y s 272 226 m 10 Y s 263 236 m 18 X s 272 226 m
 -5 Y s 263 221 m 18 X s 290 244 m -9 X s 281 235 m 19 Y s 290 244 m 9 X s 299 235 m 19 Y s 290 244 m 13 Y s 281 257 m 18 X s 290 244 m -9 Y s 281 235 m 18 X s 308 238 m -9 X s 299 229 m 19 Y s 308 238 m 9 X s 317 229 m 19 Y s 308 238 m 12 Y s 299
 250 m 19 X s 308 238 m -8 Y s 299 230 m 19 X s 327 226 m -10 X s 317 217 m 19 Y s 327 226 m 9 X s 336 217 m 19 Y s 327 226 m 10 Y s 317 236 m 19 X s 327 226 m -5 Y s 317 221 m 19 X s 345 223 m -9 X s 336 214 m 19 Y s 345 223 m 9 X s 354 214 m 19 Y s
 345 223 m 9 Y s 336 232 m 18 X s 345 223 m -4 Y s 336 219 m 18 X s 363 244 m -9 X s 354 235 m 19 Y s 363 244 m 9 X s 372 235 m 19 Y s 363 244 m 13 Y s 354 257 m 18 X s 363 244 m -9 Y s 354 235 m 18 X s 381 226 m -9 X s 372 217 m 19 Y s 381 226 m 9 X
 s 390 217 m 19 Y s 381 226 m 10 Y s 372 236 m 18 X s 381 226 m -5 Y s 372 221 m 18 X s 399 260 m -9 X s 390 250 m 19 Y s 399 260 m 9 X s 408 250 m 19 Y s 399 260 m 14 Y s 390 274 m 18 X s 399 260 m -12 Y s 390 248 m 18 X s 417 229 m -9 X s 408 220 m
 19 Y s 417 229 m 9 X s 426 220 m 19 Y s 417 229 m 11 Y s 408 240 m 18 X s 417 229 m -6 Y s 408 223 m 18 X s 435 238 m -9 X s 426 229 m 19 Y s 435 238 m 9 X s 444 229 m 19 Y s 435 238 m 12 Y s 426 250 m 19 X s 435 238 m -8 Y s 426 230 m 19 X s 454
 235 m -10 X s 444 226 m 19 Y s 454 235 m 9 X s 463 226 m 19 Y s 454 235 m 12 Y s 444 247 m 19 X s 454 235 m -7 Y s 444 228 m 19 X s 472 247 m -9 X s 463 238 m 19 Y s 472 247 m 9 X s 481 238 m 19 Y s 472 247 m 14 Y s 463 261 m 18 X s 472 247 m -9 Y s
 463 238 m 18 X s 490 238 m -9 X s 481 229 m 19 Y s 490 238 m 9 X s 499 229 m 19 Y s 490 238 m 12 Y s 481 250 m 18 X s 490 238 m -8 Y s 481 230 m 18 X s 508 232 m -9 X s 499 223 m 19 Y s 508 232 m 9 X s 517 223 m 19 Y s 508 232 m 11 Y s 499 243 m 18
 X s 508 232 m -7 Y s 499 225 m 18 X s 526 220 m -9 X s 517 214 m 16 Y s 526 220 m 9 X s 535 214 m 16 Y s 526 220 m 8 Y s 517 228 m 18 X s 526 220 m -3 Y s 517 217 m 18 X s 544 241 m -9 X s 535 232 m 19 Y s 544 241 m 9 X s 553 232 m 19 Y s 544 241 m
 13 Y s 535 254 m 18 X s 544 241 m -8 Y s 535 233 m 18 X s 562 244 m -9 X s 553 235 m 19 Y s 562 244 m 9 X s 571 235 m 19 Y s 562 244 m 13 Y s 553 257 m 19 X s 562 244 m -9 Y s 553 235 m 19 X s 581 232 m -10 X s 571 223 m 19 Y s 581 232 m 9 X s 590
 223 m 19 Y s 581 232 m 11 Y s 571 243 m 19 X s 581 232 m -7 Y s 571 225 m 19 X s 599 235 m -9 X s 590 226 m 19 Y s 599 235 m 9 X s 608 226 m 19 Y s 599 235 m 12 Y s 590 247 m 18 X s 599 235 m -7 Y s 590 228 m 18 X s 617 251 m -9 X s 608 241 m 19 Y s
 617 251 m 9 X s 626 241 m 19 Y s 617 251 m 13 Y s 608 264 m 18 X s 617 251 m -11 Y s 608 240 m 18 X s 635 238 m -9 X s 626 229 m 19 Y s 635 238 m 9 X s 644 229 m 19 Y s 635 238 m 12 Y s 626 250 m 18 X s 635 238 m -8 Y s 626 230 m 18 X s 653 223 m -9
 X s 644 214 m 19 Y s 653 223 m 9 X s 662 214 m 19 Y s 653 223 m 9 Y s 644 232 m 18 X s 653 223 m -4 Y s 644 219 m 18 X s 671 238 m -9 X s 662 229 m 19 Y s 671 238 m 9 X s 680 229 m 19 Y s 671 238 m 12 Y s 662 250 m 18 X s 671 238 m -8 Y s 662 230 m
 18 X s 689 238 m -9 X s 680 229 m 19 Y s 689 238 m 9 X s 698 229 m 19 Y s 689 238 m 12 Y s 680 250 m 18 X s 689 238 m -8 Y s 680 230 m 18 X s 708 238 m -10 X s 698 229 m 19 Y s 708 238 m 9 X s 717 229 m 19 Y s 708 238 m 12 Y s 698 250 m 19 X s 708
 238 m -8 Y s 698 230 m 19 X s 726 232 m -9 X s 717 223 m 19 Y s 726 232 m 9 X s 735 223 m 19 Y s 726 232 m 11 Y s 717 243 m 18 X s 726 232 m -7 Y s 717 225 m 18 X s 744 232 m -9 X s 735 223 m 19 Y s 744 232 m 9 X s 753 223 m 19 Y s 744 232 m 11 Y s
 735 243 m 18 X s 744 232 m -7 Y s 735 225 m 18 X s 762 238 m -9 X s 753 229 m 19 Y s 762 238 m 9 X s 771 229 m 19 Y s 762 238 m 12 Y s 753 250 m 18 X s 762 238 m -8 Y s 753 230 m 18 X s 780 232 m -9 X s 771 223 m 19 Y s 780 232 m 9 X s 789 223 m 19
 Y s 780 232 m 11 Y s 771 243 m 18 X s 780 232 m -7 Y s 771 225 m 18 X s 798 247 m -9 X s 789 238 m 19 Y s 798 247 m 9 X s 807 238 m 19 Y s 798 247 m 14 Y s 789 261 m 18 X s 798 247 m -9 Y s 789 238 m 18 X s 816 235 m -9 X s 807 226 m 19 Y s 816 235
 m 9 X s 825 226 m 19 Y s 816 235 m 12 Y s 807 247 m 18 X s 816 235 m -7 Y s 807 228 m 18 X s 835 241 m -10 X s 825 232 m 19 Y s 835 241 m 9 X s 844 232 m 19 Y s 835 241 m 13 Y s 825 254 m 19 X s 835 241 m -8 Y s 825 233 m 19 X s 853 223 m -9 X s 844
 214 m 19 Y s 853 223 m 9 X s 862 214 m 19 Y s 853 223 m 9 Y s 844 232 m 18 X s 853 223 m -4 Y s 844 219 m 18 X s 871 244 m -9 X s 862 235 m 19 Y s 871 244 m 9 X s 880 235 m 19 Y s 871 244 m 13 Y s 862 257 m 18 X s 871 244 m -9 Y s 862 235 m 18 X s
 889 238 m -9 X s 880 229 m 19 Y s 889 238 m 9 X s 898 229 m 19 Y s 889 238 m 12 Y s 880 250 m 18 X s 889 238 m -8 Y s 880 230 m 18 X s 907 247 m -9 X s 898 238 m 19 Y s 907 247 m 9 X s 916 238 m 19 Y s 907 247 m 14 Y s 898 261 m 18 X s 907 247 m -9
 Y s 898 238 m 18 X s 925 238 m -9 X s 916 229 m 19 Y s 925 238 m 9 X s 934 229 m 19 Y s 925 238 m 12 Y s 916 250 m 18 X s 925 238 m -8 Y s 916 230 m 18 X s 943 229 m -9 X s 934 220 m 19 Y s 943 229 m 9 X s 952 220 m 19 Y s 943 229 m 11 Y s 934 240 m
 18 X s 943 229 m -6 Y s 934 223 m 18 X s 962 238 m -10 X s 952 229 m 19 Y s 962 238 m 9 X s 971 229 m 19 Y s 962 238 m 12 Y s 952 250 m 19 X s 962 238 m -8 Y s 952 230 m 19 X s 980 238 m -9 X s 971 229 m 19 Y s 980 238 m 9 X s 989 229 m 19 Y s 980
 238 m 12 Y s 971 250 m 18 X s 980 238 m -8 Y s 971 230 m 18 X s 998 244 m -9 X s 989 235 m 19 Y s 998 244 m 9 X s 1007 235 m 19 Y s 998 244 m 13 Y s 989 257 m 18 X s 998 244 m -9 Y s 989 235 m 18 X s 1016 229 m -9 X s 1007 220 m 19 Y s 1016 229 m 9
 X s 1025 220 m 19 Y s 1016 229 m 11 Y s 1007 240 m 18 X s 1016 229 m -6 Y s 1007 223 m 18 X s 1034 251 m -9 X s 1025 241 m 19 Y s 1034 251 m 9 X s 1043 241 m 19 Y s 1034 251 m 13 Y s 1025 264 m 18 X s 1034 251 m -11 Y s 1025 240 m 18 X s 1052 235 m
 -9 X s 1043 226 m 19 Y s 1052 235 m 9 X s 1061 226 m 19 Y s 1052 235 m 12 Y s 1043 247 m 18 X s 1052 235 m -7 Y s 1043 228 m 18 X s 1070 232 m -9 X s 1061 223 m 19 Y s 1070 232 m 9 X s 1079 223 m 19 Y s 1070 232 m 11 Y s 1061 243 m 18 X s 1070 232 m
 -7 Y s 1061 225 m 18 X s 1089 247 m -10 X s 1079 238 m 19 Y s 1089 247 m 9 X s 1098 238 m 19 Y s 1089 247 m 14 Y s 1079 261 m 19 X s 1089 247 m -9 Y s 1079 238 m 19 X s 1107 241 m -9 X s 1098 232 m 19 Y s 1107 241 m 9 X s 1116 232 m 19 Y s 1107 241
 m 13 Y s 1098 254 m 18 X s 1107 241 m -8 Y s 1098 233 m 18 X s 1125 235 m -9 X s 1116 226 m 19 Y s 1125 235 m 9 X s 1134 226 m 19 Y s 1125 235 m 12 Y s 1116 247 m 18 X s 1125 235 m -7 Y s 1116 228 m 18 X s 1143 235 m -9 X s 1134 226 m 19 Y s 1143
 235 m 9 X s 1152 226 m 19 Y s 1143 235 m 12 Y s 1134 247 m 18 X s 1143 235 m -7 Y s 1134 228 m 18 X s 1161 247 m -9 X s 1152 238 m 19 Y s 1161 247 m 9 X s 1170 238 m 19 Y s 1161 247 m 14 Y s 1152 261 m 18 X s 1161 247 m -9 Y s 1152 238 m 18 X s 1179
 257 m -9 X s 1170 247 m 19 Y s 1179 257 m 9 X s 1188 247 m 19 Y s 1179 257 m 14 Y s 1170 271 m 18 X s 1179 257 m -12 Y s 1170 245 m 18 X s 1197 257 m -9 X s 1188 247 m 19 Y s 1197 257 m 9 X s 1206 247 m 19 Y s 1197 257 m 14 Y s 1188 271 m 18 X s
 1197 257 m -12 Y s 1188 245 m 18 X s 1215 238 m -9 X s 1206 229 m 19 Y s 1215 238 m 10 X s 1225 229 m 19 Y s 1215 238 m 12 Y s 1206 250 m 19 X s 1215 238 m -8 Y s 1206 230 m 19 X s 1234 266 m -9 X s 1225 256 m 19 Y s 1234 266 m 9 X s 1243 256 m 19 Y
 s 1234 266 m 15 Y s 1225 281 m 18 X s 1234 266 m -13 Y s 1225 253 m 18 X s 1252 308 m -9 X s 1243 298 m 19 Y s 1252 308 m 9 X s 1261 298 m 19 Y s 1252 308 m 19 Y s 1243 327 m 18 X s 1252 308 m -17 Y s 1243 291 m 18 X s 1270 284 m -9 X s 1261 274 m
 19 Y s 1270 284 m 9 X s 1279 274 m 19 Y s 1270 284 m 17 Y s 1261 301 m 18 X s 1270 284 m -15 Y s 1261 269 m 18 X s 1288 317 m -9 X s 1279 307 m 19 Y s 1288 317 m 9 X s 1297 307 m 19 Y s 1288 317 m 20 Y s 1279 337 m 18 X s 1288 317 m -18 Y s 1279 299
 m 18 X s 1306 302 m -9 X s 1297 292 m 19 Y s 1306 302 m 9 X s 1315 292 m 19 Y s 1306 302 m 19 Y s 1297 321 m 18 X s 1306 302 m -17 Y s 1297 285 m 18 X s 1324 344 m -9 X s 1315 334 m 19 Y s 1324 344 m 9 X s 1333 334 m 19 Y s 1324 344 m 22 Y s 1315
 366 m 18 X s 1324 344 m -20 Y s 1315 324 m 18 X s 1342 401 m -9 X s 1333 391 m 19 Y s 1342 401 m 10 X s 1352 391 m 19 Y s 1342 401 m 26 Y s 1333 427 m 19 X s 1342 401 m -24 Y s 1333 377 m 19 X s 1361 440 m -9 X s 1352 431 m 18 Y s 1361 440 m 9 X s
 1370 431 m 18 Y s 1361 440 m 29 Y s 1352 469 m 18 X s 1361 440 m -26 Y s 1352 414 m 18 X s 1379 422 m -9 X s 1370 413 m 18 Y s 1379 422 m 9 X s 1388 413 m 18 Y s 1379 422 m 28 Y s 1370 450 m 18 X s 1379 422 m -25 Y s 1370 397 m 18 X s 1397 551 m -9
 X s 1388 542 m 18 Y s 1397 551 m 9 X s 1406 542 m 18 Y s 1397 551 m 33 Y s 1388 584 m 18 X s 1397 551 m -31 Y s 1388 520 m 18 X s 1415 608 m -9 X s 1406 599 m 18 Y s 1415 608 m 9 X s 1424 599 m 18 Y s 1415 608 m 36 Y s 1406 644 m 18 X s 1415 608 m
 -33 Y s 1406 575 m 18 X s 1433 710 m -9 X s 1424 701 m 18 Y s 1433 710 m 9 X s 1442 701 m 18 Y s 1433 710 m 40 Y s 1424 750 m 18 X s 1433 710 m -37 Y s 1424 673 m 18 X s 1451 836 m -9 X s 1442 827 m 18 Y s 1451 836 m 9 X s 1460 827 m 18 Y s 1451 836
 m 45 Y s 1442 881 m 18 X s 1451 836 m -42 Y s 1442 794 m 18 X s 1469 875 m -9 X s 1460 866 m 18 Y s 1469 875 m 10 X s 1479 866 m 18 Y s 1469 875 m 46 Y s 1460 921 m 19 X s 1469 875 m -43 Y s 1460 832 m 19 X s 1488 1061 m -9 X s 1479 1052 m 18 Y s
 1488 1061 m 9 X s 1497 1052 m 18 Y s 1488 1061 m 52 Y s 1479 1113 m 18 X s 1488 1061 m -49 Y s 1479 1012 m 18 X s 1506 1271 m -9 X s 1497 1262 m 18 Y s 1506 1271 m 9 X s 1515 1262 m 18 Y s 1506 1271 m 58 Y s 1497 1329 m 18 X s 1506 1271 m -55 Y s
 1497 1216 m 18 X s 1524 1469 m -9 X s 1515 1460 m 18 Y s 1524 1469 m 9 X s 1533 1460 m 18 Y s 1524 1469 m 63 Y s 1515 1532 m 18 X s 1524 1469 m -60 Y s 1515 1409 m 18 X s 1542 1613 m -9 X s 1533 1604 m 19 Y s 1542 1613 m 9 X s 1551 1604 m 19 Y s
 1542 1613 m 67 Y s 1533 1680 m 18 X s 1542 1613 m -63 Y s 1533 1550 m 18 X s 1560 1556 m -9 X s 1551 1547 m 19 Y s 1560 1556 m 9 X s 1569 1547 m 19 Y s 1560 1556 m 65 Y s 1551 1621 m 18 X s 1560 1556 m -62 Y s 1551 1494 m 18 X s 1578 1649 m -9 X s
 1569 1640 m 19 Y s 1578 1649 m 9 X s 1587 1640 m 19 Y s 1578 1649 m 68 Y s 1569 1717 m 18 X s 1578 1649 m -64 Y s 1569 1585 m 18 X s 1596 1779 m -9 X s 1587 1769 m 19 Y s 1596 1779 m 10 X s 1606 1769 m 19 Y s 1596 1779 m 70 Y s 1587 1849 m 19 X s
 1596 1779 m -67 Y s 1587 1712 m 19 X s 1615 1722 m -9 X s 1606 1712 m 19 Y s 1615 1722 m 9 X s 1624 1712 m 19 Y s 1615 1722 m 68 Y s 1606 1790 m 18 X s 1615 1722 m -66 Y s 1606 1656 m 18 X s 1633 1664 m -9 X s 1624 1655 m 19 Y s 1633 1664 m 9 X s
 1642 1655 m 19 Y s 1633 1664 m 68 Y s 1624 1732 m 18 X s 1633 1664 m -64 Y s 1624 1600 m 18 X s 1651 1553 m -9 X s 1642 1544 m 18 Y s 1651 1553 m 9 X s 1660 1544 m 18 Y s 1651 1553 m 65 Y s 1642 1618 m 18 X s 1651 1553 m -62 Y s 1642 1491 m 18 X s
 1669 1550 m -9 X s 1660 1541 m 18 Y s 1669 1550 m 9 X s 1678 1541 m 18 Y s 1669 1550 m 65 Y s 1660 1615 m 18 X s 1669 1550 m -61 Y s 1660 1489 m 18 X s 1687 1433 m -9 X s 1678 1424 m 18 Y s 1687 1433 m 9 X s 1696 1424 m 18 Y s 1687 1433 m 62 Y s
 1678 1495 m 18 X s 1687 1433 m -59 Y s 1678 1374 m 18 X s 1705 1304 m -9 X s 1696 1295 m 18 Y s 1705 1304 m 9 X s 1714 1295 m 18 Y s 1705 1304 m 59 Y s 1696 1363 m 18 X s 1705 1304 m -55 Y s 1696 1249 m 18 X s 1723 1139 m -9 X s 1714 1130 m 18 Y s
 1723 1139 m 10 X s 1733 1130 m 18 Y s 1723 1139 m 54 Y s 1714 1193 m 19 X s 1723 1139 m -51 Y s 1714 1088 m 19 X s 1742 1028 m -9 X s 1733 1019 m 18 Y s 1742 1028 m 9 X s 1751 1019 m 18 Y s 1742 1028 m 51 Y s 1732 1079 m 19 X s 1742 1028 m -48 Y s
 1732 980 m 19 X s 1760 890 m -9 X s 1751 881 m 18 Y s 1760 890 m 9 X s 1769 881 m 18 Y s 1760 890 m 46 Y s 1751 936 m 18 X s 1760 890 m -44 Y s 1751 846 m 18 X s 1778 737 m -9 X s 1769 728 m 18 Y s 1778 737 m 9 X s 1787 728 m 18 Y s 1778 737 m 41 Y
 s 1769 778 m 18 X s 1778 737 m -38 Y s 1769 699 m 18 X s 1796 710 m -9 X s 1787 701 m 18 Y s 1796 710 m 9 X s 1805 701 m 18 Y s 1796 710 m 40 Y s 1787 750 m 18 X s 1796 710 m -37 Y s 1787 673 m 18 X s 1814 539 m -9 X s 1805 530 m 18 Y s 1814 539 m 9
 X s 1823 530 m 18 Y s 1814 539 m 32 Y s 1805 571 m 18 X s 1814 539 m -30 Y s 1805 509 m 18 X s 1832 467 m -9 X s 1823 458 m 18 Y s 1832 467 m 9 X s 1841 458 m 18 Y s 1832 467 m 30 Y s 1823 497 m 18 X s 1832 467 m -28 Y s 1823 439 m 18 X s 1850 389 m
 -9 X s 1841 379 m 19 Y s 1850 389 m 10 X s 1860 379 m 19 Y s 1850 389 m 26 Y s 1841 415 m 19 X s 1850 389 m -23 Y s 1841 366 m 19 X s 1869 356 m -9 X s 1860 346 m 19 Y s 1869 356 m 9 X s 1878 346 m 19 Y s 1869 356 m 23 Y s 1859 379 m 19 X s 1869 356
 m -21 Y s 1859 335 m 19 X s 1887 335 m -9 X s 1878 325 m 19 Y s 1887 335 m 9 X s 1896 325 m 19 Y s 1887 335 m 22 Y s 1878 357 m 18 X s 1887 335 m -19 Y s 1878 316 m 18 X s 1905 302 m -9 X s 1896 292 m 19 Y s 1905 302 m 9 X s 1914 292 m 19 Y s 1905
 302 m 19 Y s 1896 321 m 18 X s 1905 302 m -17 Y s 1896 285 m 18 X s 1923 281 m -9 X s 1914 271 m 19 Y s 1923 281 m 9 X s 1932 271 m 19 Y s 1923 281 m 17 Y s 1914 298 m 18 X s 1923 281 m -14 Y s 1914 267 m 18 X s 1941 251 m -9 X s 1932 241 m 19 Y s
 1941 251 m 9 X s 1950 241 m 19 Y s 1941 251 m 13 Y s 1932 264 m 18 X s 1941 251 m -11 Y s 1932 240 m 18 X s 1959 247 m -9 X s 1950 238 m 19 Y s 1959 247 m 9 X s 1968 238 m 19 Y s 1959 247 m 14 Y s 1950 261 m 18 X s 1959 247 m -9 Y s 1950 238 m 18 X
 s 1977 244 m -9 X s 1968 235 m 19 Y s 1977 244 m 10 X s 1987 235 m 19 Y s 1977 244 m 13 Y s 1968 257 m 19 X s 1977 244 m -9 Y s 1968 235 m 19 X s 1996 220 m -9 X s 1987 214 m 16 Y s 1996 220 m 9 X s 2005 214 m 16 Y s 1996 220 m 8 Y s 1986 228 m 19 X
 s 1996 220 m -3 Y s 1986 217 m 19 X s 2014 223 m -9 X s 2005 214 m 19 Y s 2014 223 m 9 X s 2023 214 m 19 Y s 2014 223 m 9 Y s 2005 232 m 18 X s 2014 223 m -4 Y s 2005 219 m 18 X s 2032 220 m -9 X s 2023 214 m 16 Y s 2032 220 m 9 X s 2041 214 m 16 Y
 s 2032 220 m 8 Y s 2023 228 m 18 X s 2032 220 m -3 Y s 2023 217 m 18 X s 1 1 1 c black /w 36 def /w2 {w 2 div} def /w3 {w 3 div} def 236 229 254 229 272 226 290 244 308 238 327 226 345 223 363 244 381 226 399 260 417 229 435 238 454 235 472 247 490
 238 508 232 526 220 544 241 562 244 581 232 599 235 617 251 635 238 653 223 671 238 689 238 708 238 726 232 744 232 762 238 780 232 798 247 816 235 835 241 853 223 871 244 889 238 907 247 925 238 943 229 962 238 980 238 998 244 1016 229 1034 251
 1052 235 1070 232 1089 247 1107 241 1125 235 1143 235 1161 247 1179 257 1197 257 1215 238 1234 266 1252 308 1270 284 1288 317 1306 302 1324 344 1342 401 1361 440 1379 422 1397 551 1415 608 1433 710 1451 836 1469 875 1488 1061 1506 1271 1524 1469
 1542 1613 1560 1556 1578 1649 1596 1779 1615 1722 1633 1664 1651 1553 1669 1550 1687 1433 1705 1304 1723 1139 1742 1028 1760 890 1778 737 1796 710 1814 539 1832 467 1850 389 1869 356 1887 335 1905 302 1923 281 1941 251 1959 247 1977 244 1996 220
 2014 223 2032 220 100 { m20} R 0 0 1 c 9 lw 1 1 1 c black 0 0 1 c 227 233 m cl s 227 233 m 18 1 d 91 X 18 1 d 109 X 18 1 d 90 X 19 1 d 90 X 18 1 d 73 X 18 1 d 91 X 18 1 d 73 X 18 1 d 72 X 18 1 d 37 X 18 1 d 18 X 18 1 d 18 2 d 18 2 d 19 4 d 18 6 d 18
 8 d 18 12 d 18 17 d 18 23 d 18 32 d 19 42 d 9 26 d 9 28 d 9 32 d 9 36 d 9 40 d 9 43 d 9 47 d 9 50 d 9 54 d 9 58 d 18 123 d 19 131 d 18 135 d 18 131 d 9 62 d 9 59 d 9 55 d 9 49 d 9 44 d 9 37 d 9 30 d 9 22 d 9 13 d 10 6 d 9 -3 d 9 -11 d 9 -20 d 9 -28
 d 9 -35 d 9 -41 d 9 -48 d 9 -53 d 9 -58 d 9 -62 d 18 -130 d 19 -135 d 18 -133 d 18 -125 d 9 -59 d 9 -55 d 9 -52 d 9 -48 d 9 -45 d 9 -41 d 9 -37 d 9 -34 d 9 -30 d 10 -27 d 18 -45 d 18 -34 d 18 -25 d 18 -19 d 18 -14 d 18 -10 d 19 -8 d 18 -5 d 18 -6 d
 18 -8 d s[ 12 12] 0 sd 1 1 1 c black 0 0 1 c 227 233 m cl s 227 233 m 18 1 d 109 X 18 1 d 91 X 18 1 d 90 X 19 1 d 108 X 19 1 d 108 X 19 1 d 108 X 19 1 d 127 X 18 1 d 54 X 18 1 d 18 1 d 19 1 d 18 1 d 18 2 d 18 2 d 18 3 d 18 4 d 18 5 d 19 6 d 18 7 d
 18 9 d 18 10 d 18 11 d 18 13 d 18 12 d 19 14 d 18 13 d 18 12 d 9 6 d 9 5 d 9 5 d 9 5 d 9 3 d 9 4 d 9 2 d 9 2 d 9 1 d 10 1 d 9 -1 d 9 -1 d 9 -2 d 9 -2 d 9 -3 d 9 -4 d 9 -5 d 9 -5 d 9 -5 d 9 -6 d 18 -13 d 19 -13 d 18 -14 d 18 -13 d 18 -13 d 18 -12 d
 18 -11 d 18 -9 d 19 -9 d 18 -7 d 18 -6 d 18 -5 d 18 -4 d 18 -4 d 18 -3 d 19 -3 d 18 -3 d 18 -3 d 9 -2 d 4 -2 d 3 -1 d 2 -3 d s black[  ] 0 sd 3 lw 227 214 m 1814 X s 227 266 m -52 Y s 272 240 m -26 Y s 317 240 m -26 Y s 363 240 m -26 Y s 408 240 m
 -26 Y s 454 266 m -52 Y s 499 240 m -26 Y s 544 240 m -26 Y s 590 240 m -26 Y s 635 240 m -26 Y s 680 266 m -52 Y s 726 240 m -26 Y s 771 240 m -26 Y s 816 240 m -26 Y s 862 240 m -26 Y s 907 266 m -52 Y s 952 240 m -26 Y s 998 240 m -26 Y s 1043
 240 m -26 Y s 1089 240 m -26 Y s 1134 266 m -52 Y s 1179 240 m -26 Y s 1225 240 m -26 Y s 1270 240 m -26 Y s 1315 240 m -26 Y s 1361 266 m -52 Y s 1406 240 m -26 Y s 1451 240 m -26 Y s 1497 240 m -26 Y s 1542 240 m -26 Y s 1587 266 m -52 Y s 1633
 240 m -26 Y s 1678 240 m -26 Y s 1723 240 m -26 Y s 1769 240 m -26 Y s 1814 266 m -52 Y s 1860 240 m -26 Y s 1905 240 m -26 Y s 1950 240 m -26 Y s 1996 240 m -26 Y s 2041 266 m -52 Y s 227 214 m 1716 Y s 281 214 m -54 X s 254 275 m -27 X s 254 335 m
 -27 X s 254 395 m -27 X s 254 455 m -27 X s 281 515 m -54 X s 254 575 m -27 X s 254 635 m -27 X s 254 695 m -27 X s 254 755 m -27 X s 281 815 m -54 X s 254 875 m -27 X s 254 935 m -27 X s 254 995 m -27 X s 254 1055 m -27 X s 281 1115 m -54 X s 254
 1175 m -27 X s 254 1235 m -27 X s 254 1295 m -27 X s 254 1355 m -27 X s 281 1415 m -54 X s 254 1475 m -27 X s 254 1535 m -27 X s 254 1595 m -27 X s 254 1655 m -27 X s 281 1716 m -54 X s 281 1716 m -54 X s 254 1776 m -27 X s 254 1836 m -27 X s 254
 1896 m -27 X s 1 1 1 c black
 gsave  2268 2145 0 0 C 651.172 2040.03 t 0 r /Helvetica findfont 104.734 sf 0 0 m (Signal + Background) show NC gr 
 gr  gr showpage
end
%%EOF
