%!PS-Adobe-2.0 EPSF-2.0
%%BoundingBox:  0 0 567 536
%%Title: ./plots/s1/pSig_s2s0.eps: Signal
%%Creator: ROOT Version 6.13/01
%%CreationDate: Thu Dec 28 11:46:50 2017
%%DocumentNeededResources: ProcSet (FontSetInit)
%%EndComments
%%BeginProlog
80 dict begin
/s {stroke} def /l {lineto} def /m {moveto} def /t {translate} def
/r {rotate} def /rl {roll}  def /R {repeat} def
/d {rlineto} def /rm {rmoveto} def /gr {grestore} def /f {eofill} def
/c {setrgbcolor} def /black {0 setgray} def /sd {setdash} def
/cl {closepath} def /sf {scalefont setfont} def /lw {setlinewidth} def
/box {m dup 0 exch d exch 0 d 0 exch neg d cl} def
/NC{systemdict begin initclip end}def/C{NC box clip newpath}def
/bl {box s} def /bf {gsave box gsave f grestore 1 lw [] 0 sd s grestore} def /Y { 0 exch d} def /X { 0 d} def 
/K {{pop pop 0 moveto} exch kshow} bind def
/ita {/ang 15 def gsave [1 0 ang dup sin exch cos div 1 0 0] concat} def 
/mp {newpath /y exch def /x exch def} def
/side {[w .77 mul w .23 mul] .385 w mul sd w 0 l currentpoint t -144 r} def
/mr {mp x y w2 0 360 arc} def /m24 {mr s} def /m20 {mr f} def
/mb {mp x y w2 add m w2 neg 0 d 0 w neg d w 0 d 0 w d cl} def
/mt {mp x y w2 add m w2 neg w neg d w 0 d cl} def
/w4 {w 4 div} def
/w6 {w 6 div} def
/w8 {w 8 div} def
/m21 {mb f} def /m25 {mb s} def /m22 {mt f} def /m26{mt s} def
/m23 {mp x y w2 sub m w2 w d w neg 0 d cl f} def
/m27 {mp x y w2 add m w3 neg w2 neg d w3 w2 neg d w3 w2 d cl s} def
/m28 {mp x w2 sub y w2 sub w3 add m w3 0 d  0 w3 neg d w3 0 d 0 w3 d w3 0 d  0 w3 d w3 neg 0 d 0 w3 d w3 neg 0 d 0 w3 neg d w3 neg 0 d cl s } def
/m29 {mp gsave x w2 sub y w2 add w3 sub m currentpoint t 4 {side} repeat cl fill gr} def
/m30 {mp gsave x w2 sub y w2 add w3 sub m currentpoint t 4 {side} repeat cl s gr} def
/m31 {mp x y w2 sub m 0 w d x w2 sub y m w 0 d x w2 sub y w2 add m w w neg d x w2 sub y w2 sub m w w d s} def
/m32 {mp x y w2 sub m w2 w d w neg 0 d cl s} def
/m33 {mp x y w2 add m w3 neg w2 neg d w3 w2 neg d w3 w2 d cl f} def
/m34 {mp x w2 sub y w2 sub w3 add m w3 0 d  0 w3 neg d w3 0 d 0 w3 d w3 0 d  0 w3 d w3 neg 0 d 0 w3 d w3 neg 0 d 0 w3 neg d w3 neg 0 d cl f } def
/m35 {mp x y w2 add m w2 neg w2 neg d w2 w2 neg d w2 w2 d w2 neg w2 d x y w2 sub m 0 w d x w2 sub y m w 0 d s} def
/m36 {mb x w2 sub y w2 add m w w neg d x w2 sub y w2 sub m w w d s} def
/m37 {mp x y m w4 neg w2 d w4 neg w2 neg d w2 0 d  w4 neg w2 neg d w2 0 d w4 neg w2 d w2 0 d w4 neg w2 d w4 neg w2 neg d cl s} def
/m38 {mp x w4 sub y w2 add m w4 neg w4 neg d 0 w2 neg d w4 w4 neg d w2 0 d w4 w4 d 0 w2 d w4 neg w4 d w2 neg 0 d x y w2 sub m 0 w d x w2 sub y m w 0 d cl s} def
/m39 {mp x y m w4 neg w2 d w4 neg w2 neg d w2 0 d  w4 neg w2 neg d w2 0 d w4 neg w2 d w2 0 d w4 neg w2 d w4 neg w2 neg d cl f} def
/m40 {mp x y m w4 w2 d w4 w4 neg d w2 neg w4 neg d w2 w4 neg d w4 neg w4 neg d w4 neg w2 d w4 neg w2 neg d w4 neg w4 d w2 w4 d w2 neg w4 d w4 w4 d w4 w2 neg d cl s} def
/m41 {mp x y m w4 w2 d w4 w4 neg d w2 neg w4 neg d w2 w4 neg d w4 neg w4 neg d w4 neg w2 d w4 neg w2 neg d w4 neg w4 d w2 w4 d w2 neg w4 d w4 w4 d w4 w2 neg d cl f} def
/m42 {mp x y w2 add m w8 neg w2 -3 4 div mul d w2 -3 4 div mul w8 neg d w2 3 4 div mul w8 neg d w8 w2 -3 4 div mul d w8 w2 3 4 div mul d w2 3 4 div mul w8 d w2 -3 4 div mul w8 d w8 neg w2 3 4 div mul d cl s} def
/m43 {mp x y w2 add m w8 neg w2 -3 4 div mul d w2 -3 4 div mul w8 neg d w2 3 4 div mul w8 neg d w8 w2 -3 4 div mul d w8 w2 3 4 div mul d w2 3 4 div mul w8 d w2 -3 4 div mul w8 d w8 neg w2 3 4 div mul d cl f} def
/m44 {mp x y m w6 neg w2 d w2 2 3 div mul 0 d w6 neg w2 neg d w2 w6 d 0 w2 -2 3 div mul d w2 neg w6 d w6 w2 neg d w2 -2 3 div mul 0 d w6 w2 d w2 neg w6 neg d 0 w2 2 3 div mul d w2 w6 neg d cl s} def
/m45 {mp x y m w6 neg w2 d w2 2 3 div mul 0 d w6 neg w2 neg d w2 w6 d 0 w2 -2 3 div mul d w2 neg w6 d w6 w2 neg d w2 -2 3 div mul 0 d w6 w2 d w2 neg w6 neg d 0 w2 2 3 div mul d w2 w6 neg d cl f} def
/m46 {mp x y w4 add m w4 neg w4 d w4 neg w4 neg d  w4 w4 neg d w4 neg w4 neg d w4 w4 neg d w4 w4 d w4 w4 neg d w4 w4 d w4 neg w4 d w4 w4 d w4 neg w4 d w4 neg w4 neg d cl s} def
/m47 {mp x y w4 add m w4 neg w4 d w4 neg w4 neg d w4 w4 neg d w4 neg w4 neg d  w4 w4 neg d w4 w4 d w4 w4 neg d w4 w4 d w4 neg w4 d w4 w4 d w4 neg w4 d w4 neg w4 neg d cl f} def
/m48 {mp x y w4 add m w4 neg w4 d w4 neg w4 neg d w4 w4 neg d  w4 neg w4 neg d w4 w4 neg d w4 w4 d w4 w4 neg d w4 w4 d w4 neg w4 d w4 w4 d w4 neg w4 d w4 neg w4 neg d  w4 w4 neg d w4 neg w4 neg d w4 neg w4 d w4 w4 d cl f} def
/m49 {mp x w2 sub w3 add y w2 sub w3 add m  0 w3 neg d w3 0 d 0 w3 d w3 0 d 0 w3 d w3 neg 0 d 0 w3 d w3 neg 0 d 0 w3 neg d w3 neg 0 d 0 w3 neg d w3 0 d 0 w3 d w3 0 d 0 w3 neg d w3 neg 0 d cl f } def
/m2 {mp x y w2 sub m 0 w d x w2 sub y m w 0 d s} def
/m5 {mp x w2 sub y w2 sub m w w d x w2 sub y w2 add m w w neg d s} def
%%IncludeResource: ProcSet (FontSetInit)
%%IncludeResource: font Times-Roman
%%IncludeResource: font Times-Italic
%%IncludeResource: font Times-Bold
%%IncludeResource: font Times-BoldItalic
%%IncludeResource: font Helvetica
%%IncludeResource: font Helvetica-Oblique
%%IncludeResource: font Helvetica-Bold
%%IncludeResource: font Helvetica-BoldOblique
%%IncludeResource: font Courier
%%IncludeResource: font Courier-Oblique
%%IncludeResource: font Courier-Bold
%%IncludeResource: font Courier-BoldOblique
%%IncludeResource: font Symbol
%%IncludeResource: font ZapfDingbats
/reEncode {exch findfont dup length dict begin {1 index /FID eq  {pop pop} {def} ifelse } forall /Encoding exch def currentdict end dup /FontName get exch definefont pop } def [/Times-Bold /Times-Italic /Times-BoldItalic /Helvetica /Helvetica-Oblique
 /Helvetica-Bold /Helvetica-BoldOblique /Courier /Courier-Oblique /Courier-Bold /Courier-BoldOblique /Times-Roman /AvantGarde-Book /AvantGarde-BookOblique /AvantGarde-Demi /AvantGarde-DemiOblique /Bookman-Demi /Bookman-DemiItalic /Bookman-Light
 /Bookman-LightItalic /Helvetica-Narrow /Helvetica-Narrow-Bold /Helvetica-Narrow-BoldOblique /Helvetica-Narrow-Oblique /NewCenturySchlbk-Roman /NewCenturySchlbk-Bold /NewCenturySchlbk-BoldItalic /NewCenturySchlbk-Italic /Palatino-Bold
 /Palatino-BoldItalic /Palatino-Italic /Palatino-Roman ] {ISOLatin1Encoding reEncode } forall
%%EndProlog
%%BeginSetup
%%EndSetup
newpath  gsave  .25 .25 scale  gsave  0 0 t black[  ] 0 sd 3 lw 1 1 1 c 2268 2145 0 0 bf black 1 1 1 c 1814 1716 227 214 bf black 1814 1716 227 214 bl 227 214 m 1814 X s 227 266 m -52 Y s 272 240 m -26 Y s 317 240 m -26 Y s 363 240 m -26 Y s 408 240
 m -26 Y s 454 266 m -52 Y s 499 240 m -26 Y s 544 240 m -26 Y s 590 240 m -26 Y s 635 240 m -26 Y s 680 266 m -52 Y s 726 240 m -26 Y s 771 240 m -26 Y s 816 240 m -26 Y s 862 240 m -26 Y s 907 266 m -52 Y s 952 240 m -26 Y s 998 240 m -26 Y s 1043
 240 m -26 Y s 1089 240 m -26 Y s 1134 266 m -52 Y s 1179 240 m -26 Y s 1225 240 m -26 Y s 1270 240 m -26 Y s 1315 240 m -26 Y s 1361 266 m -52 Y s 1406 240 m -26 Y s 1451 240 m -26 Y s 1497 240 m -26 Y s 1542 240 m -26 Y s 1587 266 m -52 Y s 1633
 240 m -26 Y s 1678 240 m -26 Y s 1723 240 m -26 Y s 1769 240 m -26 Y s 1814 266 m -52 Y s 1860 240 m -26 Y s 1905 240 m -26 Y s 1950 240 m -26 Y s 1996 240 m -26 Y s 2041 266 m -52 Y s
 gsave  2268 2145 0 0 C 154.824 145.717 t 0 r /Helvetica findfont 68.3047 sf 0 0 m (5.25) show NC gr 
 gsave  2268 2145 0 0 C 364.292 145.717 t 0 r /Helvetica findfont 68.3047 sf 0 0 m (5.255) show NC gr 
 gsave  2268 2145 0 0 C 610.189 145.717 t 0 r /Helvetica findfont 68.3047 sf 0 0 m (5.26) show NC gr 
 gsave  2268 2145 0 0 C 819.657 145.717 t 0 r /Helvetica findfont 68.3047 sf 0 0 m (5.265) show NC gr 
 gsave  2268 2145 0 0 C 1065.55 145.717 t 0 r /Helvetica findfont 68.3047 sf 0 0 m (5.27) show NC gr 
 gsave  2268 2145 0 0 C 1270.47 145.717 t 0 r /Helvetica findfont 68.3047 sf 0 0 m (5.275) show NC gr 
 gsave  2268 2145 0 0 C 1516.36 145.717 t 0 r /Helvetica findfont 68.3047 sf 0 0 m (5.28) show NC gr 
 gsave  2268 2145 0 0 C 1725.83 145.717 t 0 r /Helvetica findfont 68.3047 sf 0 0 m (5.285) show NC gr 
 gsave  2268 2145 0 0 C 1971.73 145.717 t 0 r /Helvetica findfont 68.3047 sf 0 0 m (5.29) show NC gr 
 gsave  2268 2145 0 0 C 1552.79 72.8584 t 0 r /Helvetica findfont 68.3047 sf 0 0 m (m_bc \(GeV/c^2\)) show NC gr  227 214 m 1716 Y s 281 214 m -54 X s 254 251 m -27 X s 254 287 m -27 X s 254 323 m -27 X s 254 359 m -27 X s 281 395 m -54 X s 254 431 m
 -27 X s 254 468 m -27 X s 254 504 m -27 X s 254 540 m -27 X s 281 576 m -54 X s 254 612 m -27 X s 254 648 m -27 X s 254 684 m -27 X s 254 721 m -27 X s 281 757 m -54 X s 254 793 m -27 X s 254 829 m -27 X s 254 865 m -27 X s 254 901 m -27 X s 281 937
 m -54 X s 254 974 m -27 X s 254 1010 m -27 X s 254 1046 m -27 X s 254 1082 m -27 X s 281 1118 m -54 X s 254 1154 m -27 X s 254 1191 m -27 X s 254 1227 m -27 X s 254 1263 m -27 X s 281 1299 m -54 X s 254 1335 m -27 X s 254 1371 m -27 X s 254 1407 m
 -27 X s 254 1444 m -27 X s 281 1480 m -54 X s 254 1516 m -27 X s 254 1552 m -27 X s 254 1588 m -27 X s 254 1624 m -27 X s 281 1660 m -54 X s 254 1697 m -27 X s 254 1733 m -27 X s 254 1769 m -27 X s 254 1805 m -27 X s 281 1841 m -54 X s 281 1841 m
 -54 X s 254 1877 m -27 X s 254 1914 m -27 X s
 gsave  2268 2145 0 0 C 177.592 191.253 t 0 r /Helvetica findfont 68.3047 sf 0 0 m (0) show NC gr 
 gsave  2268 2145 0 0 C 100.18 368.845 t 0 r /Helvetica findfont 68.3047 sf 0 0 m (100) show NC gr 
 gsave  2268 2145 0 0 C 100.18 550.991 t 0 r /Helvetica findfont 68.3047 sf 0 0 m (200) show NC gr 
 gsave  2268 2145 0 0 C 100.18 733.137 t 0 r /Helvetica findfont 68.3047 sf 0 0 m (300) show NC gr 
 gsave  2268 2145 0 0 C 100.18 910.73 t 0 r /Helvetica findfont 68.3047 sf 0 0 m (400) show NC gr 
 gsave  2268 2145 0 0 C 100.18 1092.88 t 0 r /Helvetica findfont 68.3047 sf 0 0 m (500) show NC gr 
 gsave  2268 2145 0 0 C 100.18 1275.02 t 0 r /Helvetica findfont 68.3047 sf 0 0 m (600) show NC gr 
 gsave  2268 2145 0 0 C 100.18 1452.61 t 0 r /Helvetica findfont 68.3047 sf 0 0 m (700) show NC gr 
 gsave  2268 2145 0 0 C 100.18 1634.76 t 0 r /Helvetica findfont 68.3047 sf 0 0 m (800) show NC gr 
 gsave  2268 2145 0 0 C 100.18 1816.91 t 0 r /Helvetica findfont 68.3047 sf 0 0 m (900) show NC gr 
 gsave  2268 2145 0 0 C 50.0901 1097.43 t 90 r /Helvetica findfont 68.3047 sf 0 0 m (Events / \( 0.0004 GeV/c^2 \)) show NC gr  1 1 1 c black
 gsave  2268 2145 0 0 C 988.142 2040.03 t 0 r /Helvetica findfont 104.734 sf 0 0 m (Signal) show NC gr  236 214 m -9 X s 227 214 m 10 Y s 236 214 m 9 X s 245 214 m 10 Y s 236 214 m 3 Y s 227 217 m 18 X s 254 214 m -9 X s 245 214 m 10 Y s 254 214 m 9
 X s 263 214 m 10 Y s 254 214 m 3 Y s 245 217 m 18 X s 272 214 m -9 X s 263 214 m 10 Y s 272 214 m 9 X s 281 214 m 10 Y s 272 214 m 3 Y s 263 217 m 18 X s 290 214 m -9 X s 281 214 m 10 Y s 290 214 m 9 X s 299 214 m 10 Y s 290 214 m 3 Y s 281 217 m 18
 X s 308 214 m -9 X s 299 214 m 10 Y s 308 214 m 9 X s 317 214 m 10 Y s 308 214 m 3 Y s 299 217 m 19 X s 327 214 m -10 X s 317 214 m 10 Y s 327 214 m 9 X s 336 214 m 10 Y s 327 214 m 3 Y s 317 217 m 19 X s 345 214 m -9 X s 336 214 m 10 Y s 345 214 m
 9 X s 354 214 m 10 Y s 345 214 m 3 Y s 336 217 m 18 X s 363 214 m -9 X s 354 214 m 10 Y s 363 214 m 9 X s 372 214 m 10 Y s 363 214 m 3 Y s 354 217 m 18 X s 381 214 m -9 X s 372 214 m 10 Y s 381 214 m 9 X s 390 214 m 10 Y s 381 214 m 3 Y s 372 217 m
 18 X s 399 214 m -9 X s 390 214 m 10 Y s 399 214 m 9 X s 408 214 m 10 Y s 399 214 m 3 Y s 390 217 m 18 X s 417 214 m -9 X s 408 214 m 10 Y s 417 214 m 9 X s 426 214 m 10 Y s 417 214 m 3 Y s 408 217 m 18 X s 435 214 m -9 X s 426 214 m 10 Y s 435 214
 m 9 X s 444 214 m 10 Y s 435 214 m 3 Y s 426 217 m 19 X s 454 214 m -10 X s 444 214 m 10 Y s 454 214 m 9 X s 463 214 m 10 Y s 454 214 m 3 Y s 444 217 m 19 X s 472 214 m -9 X s 463 214 m 10 Y s 472 214 m 9 X s 481 214 m 10 Y s 472 214 m 3 Y s 463 217
 m 18 X s 490 214 m -9 X s 481 214 m 10 Y s 490 214 m 9 X s 499 214 m 10 Y s 490 214 m 3 Y s 481 217 m 18 X s 508 214 m -9 X s 499 214 m 10 Y s 508 214 m 9 X s 517 214 m 10 Y s 508 214 m 3 Y s 499 217 m 18 X s 526 214 m -9 X s 517 214 m 10 Y s 526
 214 m 9 X s 535 214 m 10 Y s 526 214 m 3 Y s 517 217 m 18 X s 544 214 m -9 X s 535 214 m 10 Y s 544 214 m 9 X s 553 214 m 10 Y s 544 214 m 3 Y s 535 217 m 18 X s 562 214 m -9 X s 553 214 m 10 Y s 562 214 m 9 X s 571 214 m 10 Y s 562 214 m 3 Y s 553
 217 m 19 X s 581 214 m -10 X s 571 214 m 10 Y s 581 214 m 9 X s 590 214 m 10 Y s 581 214 m 3 Y s 571 217 m 19 X s 599 214 m -9 X s 590 214 m 10 Y s 599 214 m 9 X s 608 214 m 10 Y s 599 214 m 3 Y s 590 217 m 18 X s 617 214 m -9 X s 608 214 m 10 Y s
 617 214 m 9 X s 626 214 m 10 Y s 617 214 m 3 Y s 608 217 m 18 X s 635 214 m -9 X s 626 214 m 10 Y s 635 214 m 9 X s 644 214 m 10 Y s 635 214 m 3 Y s 626 217 m 18 X s 653 214 m -9 X s 644 214 m 10 Y s 653 214 m 9 X s 662 214 m 10 Y s 653 214 m 3 Y s
 644 217 m 18 X s 671 214 m -9 X s 662 214 m 10 Y s 671 214 m 9 X s 680 214 m 10 Y s 671 214 m 3 Y s 662 217 m 18 X s 689 214 m -9 X s 680 214 m 10 Y s 689 214 m 9 X s 698 214 m 10 Y s 689 214 m 3 Y s 680 217 m 18 X s 708 216 m -10 X s 698 214 m 11 Y
 s 708 216 m 9 X s 717 214 m 11 Y s 708 216 m 4 Y s 698 220 m 19 X s 708 216 m -1 Y s 698 215 m 19 X s 726 214 m -9 X s 717 214 m 10 Y s 726 214 m 9 X s 735 214 m 10 Y s 726 214 m 3 Y s 717 217 m 18 X s 744 214 m -9 X s 735 214 m 10 Y s 744 214 m 9 X
 s 753 214 m 10 Y s 744 214 m 3 Y s 735 217 m 18 X s 762 214 m -9 X s 753 214 m 10 Y s 762 214 m 9 X s 771 214 m 10 Y s 762 214 m 3 Y s 753 217 m 18 X s 780 216 m -9 X s 771 214 m 11 Y s 780 216 m 9 X s 789 214 m 11 Y s 780 216 m 4 Y s 771 220 m 18 X
 s 780 216 m -1 Y s 771 215 m 18 X s 798 214 m -9 X s 789 214 m 10 Y s 798 214 m 9 X s 807 214 m 10 Y s 798 214 m 3 Y s 789 217 m 18 X s 816 214 m -9 X s 807 214 m 10 Y s 816 214 m 9 X s 825 214 m 10 Y s 816 214 m 3 Y s 807 217 m 18 X s 835 214 m -10
 X s 825 214 m 10 Y s 835 214 m 9 X s 844 214 m 10 Y s 835 214 m 3 Y s 825 217 m 19 X s 853 214 m -9 X s 844 214 m 10 Y s 853 214 m 9 X s 862 214 m 10 Y s 853 214 m 3 Y s 844 217 m 18 X s 871 216 m -9 X s 862 214 m 11 Y s 871 216 m 9 X s 880 214 m 11
 Y s 871 216 m 4 Y s 862 220 m 18 X s 871 216 m -1 Y s 862 215 m 18 X s 889 214 m -9 X s 880 214 m 10 Y s 889 214 m 9 X s 898 214 m 10 Y s 889 214 m 3 Y s 880 217 m 18 X s 907 216 m -9 X s 898 214 m 11 Y s 907 216 m 9 X s 916 214 m 11 Y s 907 216 m 4
 Y s 898 220 m 18 X s 907 216 m -1 Y s 898 215 m 18 X s 925 214 m -9 X s 916 214 m 10 Y s 925 214 m 9 X s 934 214 m 10 Y s 925 214 m 3 Y s 916 217 m 18 X s 943 216 m -9 X s 934 214 m 11 Y s 943 216 m 9 X s 952 214 m 11 Y s 943 216 m 4 Y s 934 220 m
 18 X s 943 216 m -1 Y s 934 215 m 18 X s 962 214 m -10 X s 952 214 m 10 Y s 962 214 m 9 X s 971 214 m 10 Y s 962 214 m 3 Y s 952 217 m 19 X s 980 214 m -9 X s 971 214 m 10 Y s 980 214 m 9 X s 989 214 m 10 Y s 980 214 m 3 Y s 971 217 m 18 X s 998 216
 m -9 X s 989 214 m 11 Y s 998 216 m 9 X s 1007 214 m 11 Y s 998 216 m 4 Y s 989 220 m 18 X s 998 216 m -1 Y s 989 215 m 18 X s 1016 214 m -9 X s 1007 214 m 10 Y s 1016 214 m 9 X s 1025 214 m 10 Y s 1016 214 m 3 Y s 1007 217 m 18 X s 1034 214 m -9 X
 s 1025 214 m 10 Y s 1034 214 m 9 X s 1043 214 m 10 Y s 1034 214 m 3 Y s 1025 217 m 18 X s 1052 216 m -9 X s 1043 214 m 11 Y s 1052 216 m 9 X s 1061 214 m 11 Y s 1052 216 m 4 Y s 1043 220 m 18 X s 1052 216 m -1 Y s 1043 215 m 18 X s 1070 216 m -9 X s
 1061 214 m 11 Y s 1070 216 m 9 X s 1079 214 m 11 Y s 1070 216 m 4 Y s 1061 220 m 18 X s 1070 216 m -1 Y s 1061 215 m 18 X s 1089 216 m -10 X s 1079 214 m 11 Y s 1089 216 m 9 X s 1098 214 m 11 Y s 1089 216 m 4 Y s 1079 220 m 19 X s 1089 216 m -1 Y s
 1079 215 m 19 X s 1107 218 m -9 X s 1098 214 m 13 Y s 1107 218 m 9 X s 1116 214 m 13 Y s 1107 218 m 5 Y s 1098 223 m 18 X s 1107 218 m -2 Y s 1098 216 m 18 X s 1125 218 m -9 X s 1116 214 m 13 Y s 1125 218 m 9 X s 1134 214 m 13 Y s 1125 218 m 5 Y s
 1116 223 m 18 X s 1125 218 m -2 Y s 1116 216 m 18 X s 1143 216 m -9 X s 1134 214 m 11 Y s 1143 216 m 9 X s 1152 214 m 11 Y s 1143 216 m 4 Y s 1134 220 m 18 X s 1143 216 m -1 Y s 1134 215 m 18 X s 1161 218 m -9 X s 1152 214 m 13 Y s 1161 218 m 9 X s
 1170 214 m 13 Y s 1161 218 m 5 Y s 1152 223 m 18 X s 1161 218 m -2 Y s 1152 216 m 18 X s 1179 216 m -9 X s 1170 214 m 11 Y s 1179 216 m 9 X s 1188 214 m 11 Y s 1179 216 m 4 Y s 1170 220 m 18 X s 1179 216 m -1 Y s 1170 215 m 18 X s 1197 220 m -9 X s
 1188 214 m 15 Y s 1197 220 m 9 X s 1206 214 m 15 Y s 1197 220 m 5 Y s 1188 225 m 18 X s 1197 220 m -3 Y s 1188 217 m 18 X s 1215 234 m -9 X s 1206 225 m 18 Y s 1215 234 m 10 X s 1225 225 m 18 Y s 1215 234 m 8 Y s 1206 242 m 19 X s 1215 234 m -6 Y s
 1206 228 m 19 X s 1234 229 m -9 X s 1225 220 m 18 Y s 1234 229 m 9 X s 1243 220 m 18 Y s 1234 229 m 7 Y s 1225 236 m 18 X s 1234 229 m -5 Y s 1225 224 m 18 X s 1252 243 m -9 X s 1243 234 m 19 Y s 1252 243 m 9 X s 1261 234 m 19 Y s 1252 243 m 10 Y s
 1243 253 m 18 X s 1252 243 m -7 Y s 1243 236 m 18 X s 1270 249 m -9 X s 1261 240 m 18 Y s 1270 249 m 9 X s 1279 240 m 18 Y s 1270 249 m 10 Y s 1261 259 m 18 X s 1270 249 m -8 Y s 1261 241 m 18 X s 1288 281 m -9 X s 1279 272 m 18 Y s 1288 281 m 9 X s
 1297 272 m 18 Y s 1288 281 m 13 Y s 1279 294 m 18 X s 1288 281 m -11 Y s 1279 270 m 18 X s 1306 285 m -9 X s 1297 276 m 18 Y s 1306 285 m 9 X s 1315 276 m 18 Y s 1306 285 m 13 Y s 1297 298 m 18 X s 1306 285 m -11 Y s 1297 274 m 18 X s 1324 299 m -9
 X s 1315 290 m 19 Y s 1324 299 m 9 X s 1333 290 m 19 Y s 1324 299 m 15 Y s 1315 314 m 18 X s 1324 299 m -12 Y s 1315 287 m 18 X s 1342 346 m -9 X s 1333 337 m 19 Y s 1342 346 m 10 X s 1352 337 m 19 Y s 1342 346 m 18 Y s 1333 364 m 19 X s 1342 346 m
 -15 Y s 1333 331 m 19 X s 1361 402 m -9 X s 1352 393 m 19 Y s 1361 402 m 9 X s 1370 393 m 19 Y s 1361 402 m 20 Y s 1352 422 m 18 X s 1361 402 m -17 Y s 1352 385 m 18 X s 1379 451 m -9 X s 1370 442 m 18 Y s 1379 451 m 9 X s 1388 442 m 18 Y s 1379 451
 m 22 Y s 1370 473 m 18 X s 1379 451 m -20 Y s 1370 431 m 18 X s 1397 538 m -9 X s 1388 529 m 18 Y s 1397 538 m 9 X s 1406 529 m 18 Y s 1397 538 m 25 Y s 1388 563 m 18 X s 1397 538 m -23 Y s 1388 515 m 18 X s 1415 639 m -9 X s 1406 630 m 18 Y s 1415
 639 m 9 X s 1424 630 m 18 Y s 1415 639 m 29 Y s 1406 668 m 18 X s 1415 639 m -27 Y s 1406 612 m 18 X s 1433 721 m -9 X s 1424 711 m 19 Y s 1433 721 m 9 X s 1442 711 m 19 Y s 1433 721 m 31 Y s 1424 752 m 18 X s 1433 721 m -30 Y s 1424 691 m 18 X s
 1451 860 m -9 X s 1442 851 m 18 Y s 1451 860 m 9 X s 1460 851 m 18 Y s 1451 860 m 35 Y s 1442 895 m 18 X s 1451 860 m -34 Y s 1442 826 m 18 X s 1469 997 m -9 X s 1460 988 m 18 Y s 1469 997 m 10 X s 1479 988 m 18 Y s 1469 997 m 39 Y s 1460 1036 m 19
 X s 1469 997 m -37 Y s 1460 960 m 19 X s 1488 1196 m -9 X s 1479 1187 m 18 Y s 1488 1196 m 9 X s 1497 1187 m 18 Y s 1488 1196 m 43 Y s 1479 1239 m 18 X s 1488 1196 m -41 Y s 1479 1155 m 18 X s 1506 1328 m -9 X s 1497 1319 m 18 Y s 1506 1328 m 9 X s
 1515 1319 m 18 Y s 1506 1328 m 46 Y s 1497 1374 m 18 X s 1506 1328 m -44 Y s 1497 1284 m 18 X s 1524 1402 m -9 X s 1515 1393 m 18 Y s 1524 1402 m 9 X s 1533 1393 m 18 Y s 1524 1402 m 47 Y s 1515 1449 m 18 X s 1524 1402 m -45 Y s 1515 1357 m 18 X s
 1542 1684 m -9 X s 1533 1675 m 18 Y s 1542 1684 m 9 X s 1551 1675 m 18 Y s 1542 1684 m 52 Y s 1533 1736 m 18 X s 1542 1684 m -51 Y s 1533 1633 m 18 X s 1560 1767 m -9 X s 1551 1758 m 18 Y s 1560 1767 m 9 X s 1569 1758 m 18 Y s 1560 1767 m 54 Y s
 1551 1821 m 18 X s 1560 1767 m -52 Y s 1551 1715 m 18 X s 1578 1765 m -9 X s 1569 1756 m 18 Y s 1578 1765 m 9 X s 1587 1756 m 18 Y s 1578 1765 m 54 Y s 1569 1819 m 18 X s 1578 1765 m -52 Y s 1569 1713 m 18 X s 1596 1794 m -9 X s 1587 1785 m 18 Y s
 1596 1794 m 10 X s 1606 1785 m 18 Y s 1596 1794 m 55 Y s 1587 1849 m 19 X s 1596 1794 m -52 Y s 1587 1742 m 19 X s 1615 1735 m -9 X s 1606 1725 m 19 Y s 1615 1735 m 9 X s 1624 1725 m 19 Y s 1615 1735 m 53 Y s 1606 1788 m 18 X s 1615 1735 m -52 Y s
 1606 1683 m 18 X s 1633 1780 m -9 X s 1624 1771 m 18 Y s 1633 1780 m 9 X s 1642 1771 m 18 Y s 1633 1780 m 54 Y s 1624 1834 m 18 X s 1633 1780 m -53 Y s 1624 1727 m 18 X s 1651 1722 m -9 X s 1642 1713 m 18 Y s 1651 1722 m 9 X s 1660 1713 m 18 Y s
 1651 1722 m 53 Y s 1642 1775 m 18 X s 1651 1722 m -51 Y s 1642 1671 m 18 X s 1669 1655 m -9 X s 1660 1646 m 18 Y s 1669 1655 m 9 X s 1678 1646 m 18 Y s 1669 1655 m 52 Y s 1660 1707 m 18 X s 1669 1655 m -50 Y s 1660 1605 m 18 X s 1687 1509 m -9 X s
 1678 1500 m 18 Y s 1687 1509 m 9 X s 1696 1500 m 18 Y s 1687 1509 m 49 Y s 1678 1558 m 18 X s 1687 1509 m -48 Y s 1678 1461 m 18 X s 1705 1312 m -9 X s 1696 1303 m 18 Y s 1705 1312 m 9 X s 1714 1303 m 18 Y s 1705 1312 m 45 Y s 1696 1357 m 18 X s
 1705 1312 m -44 Y s 1696 1268 m 18 X s 1723 1248 m -9 X s 1714 1239 m 18 Y s 1723 1248 m 10 X s 1733 1239 m 18 Y s 1723 1248 m 45 Y s 1714 1293 m 19 X s 1723 1248 m -42 Y s 1714 1206 m 19 X s 1742 1097 m -9 X s 1733 1087 m 19 Y s 1742 1097 m 9 X s
 1751 1087 m 19 Y s 1742 1097 m 40 Y s 1732 1137 m 19 X s 1742 1097 m -39 Y s 1732 1058 m 19 X s 1760 896 m -9 X s 1751 887 m 18 Y s 1760 896 m 9 X s 1769 887 m 18 Y s 1760 896 m 36 Y s 1751 932 m 18 X s 1760 896 m -34 Y s 1751 862 m 18 X s 1778 759
 m -9 X s 1769 749 m 19 Y s 1778 759 m 9 X s 1787 749 m 19 Y s 1778 759 m 32 Y s 1769 791 m 18 X s 1778 759 m -31 Y s 1769 728 m 18 X s 1796 688 m -9 X s 1787 679 m 18 Y s 1796 688 m 9 X s 1805 679 m 18 Y s 1796 688 m 30 Y s 1787 718 m 18 X s 1796
 688 m -28 Y s 1787 660 m 18 X s 1814 574 m -9 X s 1805 565 m 18 Y s 1814 574 m 9 X s 1823 565 m 18 Y s 1814 574 m 27 Y s 1805 601 m 18 X s 1814 574 m -24 Y s 1805 550 m 18 X s 1832 466 m -9 X s 1823 457 m 18 Y s 1832 466 m 9 X s 1841 457 m 18 Y s
 1832 466 m 22 Y s 1823 488 m 18 X s 1832 466 m -21 Y s 1823 445 m 18 X s 1850 402 m -9 X s 1841 393 m 19 Y s 1850 402 m 10 X s 1860 393 m 19 Y s 1850 402 m 20 Y s 1841 422 m 19 X s 1850 402 m -17 Y s 1841 385 m 19 X s 1869 341 m -9 X s 1860 332 m 18
 Y s 1869 341 m 9 X s 1878 332 m 18 Y s 1869 341 m 17 Y s 1859 358 m 19 X s 1869 341 m -15 Y s 1859 326 m 19 X s 1887 301 m -9 X s 1878 292 m 18 Y s 1887 301 m 9 X s 1896 292 m 18 Y s 1887 301 m 15 Y s 1878 316 m 18 X s 1887 301 m -12 Y s 1878 289 m
 18 X s 1905 294 m -9 X s 1896 285 m 18 Y s 1905 294 m 9 X s 1914 285 m 18 Y s 1905 294 m 14 Y s 1896 308 m 18 X s 1905 294 m -12 Y s 1896 282 m 18 X s 1923 249 m -9 X s 1914 240 m 18 Y s 1923 249 m 9 X s 1932 240 m 18 Y s 1923 249 m 10 Y s 1914 259
 m 18 X s 1923 249 m -8 Y s 1914 241 m 18 X s 1941 242 m -9 X s 1932 232 m 19 Y s 1941 242 m 9 X s 1950 232 m 19 Y s 1941 242 m 9 Y s 1932 251 m 18 X s 1941 242 m -7 Y s 1932 235 m 18 X s 1959 231 m -9 X s 1950 222 m 18 Y s 1959 231 m 9 X s 1968 222
 m 18 Y s 1959 231 m 7 Y s 1950 238 m 18 X s 1959 231 m -6 Y s 1950 225 m 18 X s 1977 231 m -9 X s 1968 222 m 18 Y s 1977 231 m 10 X s 1987 222 m 18 Y s 1977 231 m 7 Y s 1968 238 m 19 X s 1977 231 m -6 Y s 1968 225 m 19 X s 1996 220 m -9 X s 1987 214
 m 15 Y s 1996 220 m 9 X s 2005 214 m 15 Y s 1996 220 m 5 Y s 1986 225 m 19 X s 1996 220 m -3 Y s 1986 217 m 19 X s 2014 220 m -9 X s 2005 214 m 15 Y s 2014 220 m 9 X s 2023 214 m 15 Y s 2014 220 m 5 Y s 2005 225 m 18 X s 2014 220 m -3 Y s 2005 217 m
 18 X s 2032 214 m -9 X s 2023 214 m 10 Y s 2032 214 m 9 X s 2041 214 m 10 Y s 2032 214 m 3 Y s 2023 217 m 18 X s 1 1 1 c black /w 36 def /w2 {w 2 div} def /w3 {w 3 div} def 236 214 254 214 272 214 290 214 308 214 327 214 345 214 363 214 381 214 399
 214 417 214 435 214 454 214 472 214 490 214 508 214 526 214 544 214 562 214 581 214 599 214 617 214 635 214 653 214 671 214 689 214 708 216 726 214 744 214 762 214 780 216 798 214 816 214 835 214 853 214 871 216 889 214 907 216 925 214 943 216 962
 214 980 214 998 216 1016 214 1034 214 1052 216 1070 216 1089 216 1107 218 1125 218 1143 216 1161 218 1179 216 1197 220 1215 234 1234 229 1252 243 1270 249 1288 281 1306 285 1324 299 1342 346 1361 402 1379 451 1397 538 1415 639 1433 721 1451 860 1469
 997 1488 1196 1506 1328 1524 1402 1542 1684 1560 1767 1578 1765 1596 1794 1615 1735 1633 1780 1651 1722 1669 1655 1687 1509 1705 1312 1723 1248 1742 1097 1760 896 1778 759 1796 688 1814 574 1832 466 1850 402 1869 341 1887 301 1905 294 1923 249 1941
 242 1959 231 1977 231 1996 220 2014 220 2032 214 100 { m20} R 0 0 1 c 9 lw 1 1 1 c black 0 0 1 c 227 214 m cl s 227 214 m 417 X 18 1 d 309 X 18 1 d 109 X 18 1 d 36 X 18 1 d 18 2 d 18 2 d 19 3 d 18 5 d 18 8 d 18 12 d 18 17 d 18 24 d 18 34 d 19 44 d 9
 27 d 9 31 d 9 35 d 9 38 d 9 43 d 9 47 d 9 51 d 9 56 d 9 59 d 9 64 d 18 136 d 19 146 d 18 150 d 18 147 d 9 70 d 9 67 d 9 61 d 9 56 d 9 49 d 9 42 d 9 34 d 9 24 d 9 16 d 10 7 d 9 -4 d 9 -12 d 9 -23 d 9 -30 d 9 -40 d 9 -47 d 9 -53 d 9 -60 d 9 -65 d 9
 -69 d 18 -146 d 19 -150 d 18 -147 d 18 -138 d 9 -65 d 9 -61 d 9 -56 d 9 -53 d 9 -48 d 9 -45 d 9 -39 d 9 -36 d 9 -32 d 10 -29 d 18 -46 d 18 -35 d 18 -25 d 18 -19 d 18 -12 d 18 -9 d 19 -5 d 18 -4 d 18 -2 d 18 -2 d s black 3 lw 227 214 m 1814 X s 227
 266 m -52 Y s 272 240 m -26 Y s 317 240 m -26 Y s 363 240 m -26 Y s 408 240 m -26 Y s 454 266 m -52 Y s 499 240 m -26 Y s 544 240 m -26 Y s 590 240 m -26 Y s 635 240 m -26 Y s 680 266 m -52 Y s 726 240 m -26 Y s 771 240 m -26 Y s 816 240 m -26 Y s
 862 240 m -26 Y s 907 266 m -52 Y s 952 240 m -26 Y s 998 240 m -26 Y s 1043 240 m -26 Y s 1089 240 m -26 Y s 1134 266 m -52 Y s 1179 240 m -26 Y s 1225 240 m -26 Y s 1270 240 m -26 Y s 1315 240 m -26 Y s 1361 266 m -52 Y s 1406 240 m -26 Y s 1451
 240 m -26 Y s 1497 240 m -26 Y s 1542 240 m -26 Y s 1587 266 m -52 Y s 1633 240 m -26 Y s 1678 240 m -26 Y s 1723 240 m -26 Y s 1769 240 m -26 Y s 1814 266 m -52 Y s 1860 240 m -26 Y s 1905 240 m -26 Y s 1950 240 m -26 Y s 1996 240 m -26 Y s 2041
 266 m -52 Y s 227 214 m 1716 Y s 281 214 m -54 X s 254 251 m -27 X s 254 287 m -27 X s 254 323 m -27 X s 254 359 m -27 X s 281 395 m -54 X s 254 431 m -27 X s 254 468 m -27 X s 254 504 m -27 X s 254 540 m -27 X s 281 576 m -54 X s 254 612 m -27 X s
 254 648 m -27 X s 254 684 m -27 X s 254 721 m -27 X s 281 757 m -54 X s 254 793 m -27 X s 254 829 m -27 X s 254 865 m -27 X s 254 901 m -27 X s 281 937 m -54 X s 254 974 m -27 X s 254 1010 m -27 X s 254 1046 m -27 X s 254 1082 m -27 X s 281 1118 m
 -54 X s 254 1154 m -27 X s 254 1191 m -27 X s 254 1227 m -27 X s 254 1263 m -27 X s 281 1299 m -54 X s 254 1335 m -27 X s 254 1371 m -27 X s 254 1407 m -27 X s 254 1444 m -27 X s 281 1480 m -54 X s 254 1516 m -27 X s 254 1552 m -27 X s 254 1588 m
 -27 X s 254 1624 m -27 X s 281 1660 m -54 X s 254 1697 m -27 X s 254 1733 m -27 X s 254 1769 m -27 X s 254 1805 m -27 X s 281 1841 m -54 X s 281 1841 m -54 X s 254 1877 m -27 X s 254 1914 m -27 X s 1 1 1 c black
 gsave  2268 2145 0 0 C 988.142 2040.03 t 0 r /Helvetica findfont 104.734 sf 0 0 m (Signal) show NC gr 
 gr  gr showpage
end
%%EOF
