%!PS-Adobe-2.0 EPSF-2.0
%%Title: /.../b.kek.jp/fs/users/acc/iijima/public/tex/belle_nima/accgain.eps
%%Creator: IslandDraw for iijima
%%CreationDate: Sat Aug 26 00:59:46 2000
%%Pages: 1
%%BoundingBox: 282 220 500 403 
%%DocumentNeededResources: (atend)
%%DocumentSuppliedResources: (atend)
%%EndComments
%%BeginPreview: 223 186 1 186
% 00000000000000000000000000000000000000000000000000000000
% 00000000000000000000000000000000000000000000000000000000
% 00008801000000000000000000000000000000000000000000000000
% 00004c02000000000000000000000000000000000000000000000000
% 00004802000000000000000000000000000000000000000000000000
% 00004802ffffffffffffffffffffffffffffffffffffffffffff0000
% 00004802ffffffffffffffffffffffffffffffffffffffffffff0000
% 00008801ffffffffffffffffffffffffffffffffffffffffffff0000
% 00000000ffffffffffffffffffffffffffffffffffffffffffff0000
% 00000000030000000010000000008000000000000800000000c00000
% 00000000ffffffffffffffffffffffffffffffffffffffffffff0000
% 00000000030000000010000000008000000000000800000000c00000
% 00000000ffffffffffffffffffffffffffffffffffffffffffff0000
% 00000000030000000010000000008000000000000800000000c00000
% 00000000ffffffffffffffffffffffffffffffffffffffffffff0000
% 00000000ffffffffffffffffffffffffffffffffffffffffffff0000
% 00000000030000000010000000008000000000000800000000c00000
% 00000000ffffffffffffffffffffffffffffffffffffffffffff0000
% 00000000030000000010000000008000000000000800000000c00000
% 00000000030000000010000000008000000000000800000000c00000
% 00000000030000000010000000008000000000000800000000c00000
% 00000000ffffffffffffffffffffffffffffffffffffffffffff0000
% 00000000ffffffffffffffffffffffff07000000000000f8ffff0000
% 00000000030000000010000000008000000000000000000000c00000
% 00000000030000000010000000008000000000000000000000c00000
% 00000000030000000010000000008000000000000000000000c00000
% 0000000003000000001000000000800008000000086f7f0000c00000
% 00000000ffffffffffffffffffffff7fe83bb6640e6913c0ffff0000
% 00000000030000000010000000008000a84a4af3096f130000c00000
% 00000000030000000010000000008000a84a4ab309a1120000c00000
% 00000000030000000010000000008000a83a32630ea1120000c00000
% 00000000030000000010000000008000000800000000000000c00000
% 00004000030000000010000000008000000000000000000000c00000
% 00006000030000000010000000008000000000000000000000c00000
% 00004000030000000010000000008000000000000000000000c00000
% 00004080ffffe7000010000000008000000000000800000000c00000
% 00004080feffbfffffffffffffffffffffffffffffffffffffff0000
% 00004080ffffffffffffffffffffffffffffffffffffffffffff0000
% 00000000ffffffffffffffffffffffffffffffffffffffffffff0000
% 00000000ffffffffffffffffffffffffffffffffffffffffffff0000
% 00000000ffffbfffffffffffffffffffffffffffffffffffffff0000
% 00000000ffffffffffffffffffffffffffffffffffffffffffff0000
% 00000000ffffffffffffffffffffffffffffffffffffffffffff0000
% 00000000ffffffffffffffffffffffffffffffffffffffffffff0000
% 0000000003007c00f87fe0070000800000b801000800000000c00000
% 00000000ffffffffffffffffffffffffffffffffffffffffffff0000
% 000000000300007f00fc03fc00008000008e00000800000000c00000
% 000000000300007c00f803e00700800000c600000800000000c00080
% 00000000ffffffffffffffffffffffffffffffffffffffffffff0000
% 00000000030000007e903f00fc008000804100000800000000c00000
% f001000003000000fe107e00e0078000c06000000800000000c00000
% 10000000ffffffffffefffffffffffffffffffffffffffffffff0000
% 10000000ffffffffffc7ffffffffffffffffffffffffffffffff0000
% f0010000030000000002e00100e08700182000000800000000c00000
% 00000000030000000060c00f00809f000d3000000800000000c00000
% 000000000300000000f0001f0000fc01073000000800000000c00000
% f40100000300000000f0017e0000e083071000000800000000c00000
% 00000000ffffffffffffffffffffffffffff1f000000000000fc0000
% 0000000003000000001000f0000080be001800000000000000c00000
% f00100000300000000100ec0030080f8001800000000000000c00000
% 500100000300000000101e800f0080e00308c005008063c001800000
% 500100000300000000103c001f0080800f0c400b02c0524f05800000
% e001000003000000001078003c0080003e0c808b8b23238709800000
% 00008000030000000010780078008000f804404b5ea2525108000000
% f003c0000300000000103000e0018000e007c0c5dfa77bcf09800000
% 100580000300000000100001c0038000800f0000c041000004800000
% 10058000ffffffffffffffffffffffffffff01000000000000800000
% 10058000ffffffffffffffffffffffffffff03000000000000c00000
% e0029000ffffffffffffffffffffffffffff07000000000000e00000
% 00000000ffffffffffffffffffffffffffffffffffffffffffff0000
% 00000000ffffffffffffffffffffffffffffffffffffffffffff0000
% 00000000ffffffffffffffffffffffffffffffffffffffffffff0000
% 6001000003000000001000e000808f008001f0010800000000c00000
% 70010000ffffffffffffffffffffffffffffffffffffffffffff0000
% 5001000003000000001000e00300fc018000001f0800000000c00000
% f0010000ffffffffffffffffffffffffffffffffffffffffffff0000
% e000000003000000001000800700e003c00000f00900000000c00000
% 1000000003000000001000000300c00fc00000c00f00000000c00000
% f0000000ffffffffffffffffffffffffffffffffffffffffffff0000
% 8001000003000000001000003800807f600000001e00000000c00000
% f00000000300000000100000780080fe710000000c00000000c00000
% 100000000300000000100000f00080fcf30000000800000000c00000
% 00000000ffffffffffffffffffffffffffffffffffffffffffff0000
% f40100000300000000100000c00180c07f0000000800000000c00000
% 000000000300000000100000800080c07f0000000800000000c00000
% 10010000030000000010000000068080ff0000000000000000c00000
% f80100000300000000100000000e8000de0300000000000000c00000
% 10000000ffffffffffffffffffffffffffff3f000000000000c00080
% 000000000300000000100000003c8000c01e0008008083c001c00000
% f0010000030000000010000000788000e03d001404c0c04f05c00000
% 50010000030000000010000000308000c0f3001497a3a18709800000
% 5001000003000000001000000000810080ef01947c22e25109800000
% e0010000030000000010000000808300008f0788ffa78bcf09c00000
% 0000180203000000001000000080870000270f00c041000004c00080
% fc012403030000000010000000008f0080773c000000000000c00080
% 00002402030000000010000000009e0080f339000000000000c00000
% 60012402ffffffffffffffffffffffffffffff010000000000f80000
% 70012402ffffffffffffffffffffffffffffffffffffffffffff0000
% 50011a02ffffffffffffffffffffffffffffffffffffffffffff0000
% f0010000ffffffffffffffffffffffffffffffffffffffffffff0000
% e000000003000000001000000000e001600078780800000000c00000
% fc010000ffffffffffffffffffffffffffffffffffffffffffff0000
% 340000000300000000100000000080071800e0c10b00000000c00000
% 24000000ffffffffffffffffffffffffffffffffffffffffffff0000
% 2400000003000000001000000000801e0c0080011e00000000c00000
% fc010000ffffffffffffffffffffffffffffffffffffffffffff0000
% 00000000ffffffffffffffffffffffffffffffffffffffffffff0000
% 000000000300000000100000000080e0030000f80800000000c00000
% 00000000ffffffffffffffffffffffffffffffffffffffffffff0000
% 000000000300000000100000000080c0070000e00800000000c00000
% 00000000030000000010000000008080070000c00c00000000c00000
% 000000000300000000100000000080c0060000001e00000000c00000
% 00000000fffffffffffffffffffffffffffffffff7ffffffffff0000
% 00000000030000000010000000008060700000001c00000000c00000
% 00000000030000000010000000008030f00000000000000000c00000
% 00000000030000000010000000008030fc0100000000000000c00000
% 00006308030000000010000000008018fc0300000000000000c00000
% 0080940cffffffffffffffffffffffffffffcf05008043c001f80000
% 00809408ffffffffffffffffffffffffffff4f0b04c0a24f05f00000
% 008094080300000000100000000080e6013c800b9723a38709c00000
% 0080940803000000000000000000807e007c408b7ca2a25109c00000
% 0040630803000000000000000000801f00f8c085ffa74bcf09c00000
% 0000000003000000000000000000800700f00000c041000004c00000
% 0000000003000000000000000000800300c000000000000000c00000
% 00000000030000000000000000008000000006000000000000c00000
% 000000000307000090008078fb03800000000e000000000000c00000
% 000000009fcc5c1abfc69f489b0080ffffffffffffffffffffff0000
% 000000009f20953d954999789b0080ffffffffffffffffffffff0000
% 000000009f2c952d95499708950080ffffffffffffffffffffff0000
% 000000001fc79419b5469f08950080ffffffffffffffffffffff0000
% 000000003f000000000000000000c0ffffffffffffffffffffff0000
% 000000003f000000000000000000c0ffffffffffffffffffffff0000
% 000000000300000000000000000080000000800f0800000000c00000
% 00000000ff000000000000000000f0ffffffffffffffffffffff0000
% 000000000300000000000000000080000000001e0800000000c00000
% 00000000ffffffffffffffffffffffffffffffffffffffffffff0000
% 00000000ffffffffffffffffffffffffffffffffffffffffffff0000
% 00000000030000000010000000008000000000c00900000000c00000
% 00000000ffffffffffffffffffffffffffffffffffffffffffff0000
% 00000000ffffffffffffffffffffffffffffffffffffffffffff0000
% 00000000030000000010000000008000000000001f00000000c00000
% 00000000030000000010000000008000000000001e00000000c00080
% 00000000ffffffffffffffffffffffffffffff030000000000fe0080
% 00000000ffffffffffffffffffffffffffffff000000000000f80000
% 00000000030000000010000000008000000000000000000000c00000
% 00000000030000000010000000008000000000000000000000c00080
% 00000000030000000010000000008000000000000000000000c00000
% 00000000030000000010000000008000000000080000e70002c00000
% 00000000ffffffffffffffffffffffffffff3f140480a50f07e00000
% 00000000030000000010000000008000000000149743c6870ac00000
% 00000000030000000010000000008000000000947c42a5a10fc00000
% 0000000003000000001000000000800000000088ff47ef0f0ac00000
% 0000000003000000001000000000800000000000c081000004c00000
% 00000000030000000010000000008000000000000000000000c00000
% 00608c11030000000010000000008000000000000000000000c00000
% 0090521a030000000010000000008000000000000000000000c00000
% 00905212ffffffffffffffffffffffffffffffffffffffffffff0000
% 00905212ffffffffffffffffffffffffffffffffffffffffffff0000
% 00905212000000000000000000000000000000000000000000000000
% 00688c11000000000000000000000000000000000000000000000000
% 00000000000000000000000000000000000000000000000000000000
% 00000000000000000000000000000000000000000000000000000000
% 00000000000000000000000000000000000000000000000000000000
% 0000006000000000c0e000000000100c000000008403000000000000
% 00000090000000002011000000001812000000004600000000000000
% 0000009000000000207100000000101200000000c401000000000000
% 00000090000000002081000000001012000000000402000000000000
% 000000900000000020b100000000101200000000c402000000000000
% 0000006000000000c06800000000100d00000000a401000000000000
% 00000000000000000000000000000000000000000000000000000000
% 00000000000000000000000000000000000000000000000000000000
% 00000000000000000000000000000000000000000000000000000000
% 00000000000000000000000000000000000000000000000000000000
% 00000000000000000000000000000000000000000000000000000000
% 00000000000000000000000000000000000000000000000000000000
% 0000000000000000000000007cc80780200000000000000000000000
% 00000000000000000000000044080180200000000000000000000000
% 0000000000000000000000004404718e4e0000000000000000000000
% 0000000000000000000000003c04d991490000000000000000000000
% 0000000000000000000000004404f99f4f0000000000000000000000
% 00000000000000000000000044049991490000000000000000000000
% 0000000000000000000000007c04718f4f0000000000000000000000
% 00000000000000000000000000080000200000000000000000000000
% 00000000000000000000000000080000200000000000000000000000
% 00000000000000000000000000000000000000000000000000000000
% 00000000000000000000000000000000000000000000000000000000
%%EndPreview
save

userdict /IslandDrawDict 300 dict dup begin put

/bdef	{bind def} bind def
/E	{exch} bdef
/FF	{findfont} bdef
/MF	{makefont} bdef
/RO	{rotate} bdef
/SC	{scale} bdef
/SF	{setfont} bdef
/SG	{setgray} bdef
/TR	{translate} bdef
/bp	{lj lw rgb} bdef
/bpbw	{lj lw setgray} bdef
/c	{curveto} bdef
/cr	{currentpoint} bdef
/cl	{closepath} bdef
/fi	{eofill} bdef
/g	{setgray} bdef
/gr	{grestore} bdef
/gs	{gsave} bdef
/l	{lineto} bdef
/lj	{setlinejoin} bdef
/lw	{setlinewidth} bdef
/m	{moveto} bdef
/n	{newpath} bdef
/nx	{/x E def} bdef
/r	{rmoveto} bdef
/rl	{rlineto} bdef
/rgb	{setrgbcolor} bdef
/s	{show} bdef
/sd	{setdash} bdef
/sp	{x 0 rmoveto} bdef
/ss	{currentpoint pop E m} bdef
/st	{stroke} bdef
%% pattern stuff
/BPSIDE	32 def	%% pixels per pattern side
/PATFREQ 3.0 def	%% pattern pixels per mm
/dp_mat [PATFREQ 0 0 PATFREQ 0 0] def
/dp_pw	BPSIDE def	%% pattern pixel width
/dp_ph	BPSIDE def	%% pattern pixel height
/dp_w	dp_pw PATFREQ div def	%% pattern mm width
/dp_h	dp_ph PATFREQ div def	%% pattern mm height
/savemat matrix def
/topmat matrix def
/patmat matrix def

%%	catch nocurrentpoint error for:		pathbbox
/ncpoint errordict /nocurrentpoint get def
errordict begin
/nocurrentpoint	{
	dup /pathbbox load eq
	{pop 0 0 1 1}
	{ncpoint}
	ifelse
} bdef
end
/ar	{ %% sa ea sx sy rot tx ty
	matrix currentmatrix 8 1 roll TR RO SC
	n 0 0 1 5 3 roll arc setmatrix
} bdef
/arn	{ %% sa ea sx sy rot tx ty
 TR RO SC
	matrix currentmatrix 8 1 roll
	n 0 0 1 5 3 roll arcn setmatrix
} bdef
/el	{ %% sx sy rot tx ty
	matrix currentmatrix 6 1 roll TR RO SC
	n 0 0 1 0 360 arc setmatrix cl
} bdef
/image_raster	{ %% sw sh sdd dw dh xs ys
	TR SC /sdd E def /sh E def /sw E def
	/imagebuf sw sdd mul 7 add 8 idiv string def
	sw sh sdd [sw 0 0 sh 0 0] { currentfile imagebuf readhexstring pop}
	image
} bdef
/imagemask_raster	{
	TR SC /sh E def /sw E def
	/imagebuf sw 7 add 8 idiv string def
	sw sh false [sw 0 0 sh 0 0]
	{currentfile imagebuf readhexstring pop}
	imagemask
} bdef
/dither_color_raster    { % bool sw sh sdd dw dh xs ys
	TR SC /sdd E def /sh E def /sw E def
	sdd 8 eq and
	{
	  /imagebuf 3 string def
	  /grayval 1 string def
	  sw sh sdd [sw 0 0 sh 0 0]
	  {
	    currentfile imagebuf readhexstring pop pop
	    imagebuf 0 get 0.299 mul
	    imagebuf 1 get 0.587 mul add
	    imagebuf 2 get 0.114 mul add cvi grayval exch 0 exch put grayval
	  }
	  image
	}
	{
	  /imagebuf sw 3 mul sdd mul 7 add 8 idiv string def
	  sh { currentfile imagebuf readhexstring pop pop } repeat
	} ifelse
} bdef
/image_color_raster	{ % bool sw sh sdd dw dh xs ys
	/colorimage where not
	{ dither_color_raster }
	{
	  pop
	  TR SC /sdd E def /sh E def /sw E def pop
	  /imagebuf sw 3 mul sdd mul 7 add 8 idiv string def
	  sw sh sdd [sw 0 0 sh 0 0] { currentfile imagebuf readhexstring pop}
	  false 3 colorimage
	} ifelse
} bdef
/patpath	{
	/inv E def
	topmat setmatrix
	pathbbox	%% get lo - hi indecies
	/hy E dp_h div floor cvi def
	/hx E dp_w div floor cvi def
	/ly E dp_h div floor cvi def
	/lx E dp_w div floor cvi def
	lx 1 hx	{
	    dp_w mul
	    ly 1 hy {
		dp_h mul
		E dup 3 1 roll E
		patmat currentmatrix pop
		TR
		dp_pw dp_ph inv
		dp_mat dp_proc imagemask
		patmat setmatrix
	    } for
	    pop
	} for
} bdef
% setpattern brush of patterns instead of gray
/setpattern	{
	/blue E def /green E def /red E def
	/freq E def /bwidth E def /bpside E def
	/bstring E def
	/onbits 0 def /offbits 0 def
	freq 0 {/y E def /x E def
		/xindex x 1 add 2 div bpside mul cvi def
		/yindex y 1 add 2 div bpside mul cvi def
		bstring yindex bwidth mul xindex 8 idiv add get not
		1 7 xindex 8 mod sub bitshift and 0 ne
		{/onbits onbits 1 add def 1}
		{/offbits offbits 1 add def 0}
		ifelse
	} setscreen {} settransfer
	systemdict /setcmykcolor known
	{ /fact 1 onbits offbits onbits add div sub def
	1 red sub fact mul 1 green sub fact mul 1 blue sub fact mul 0
		setcmykcolor
	}
	{ offbits offbits onbits add div setgray}
	ifelse
} bdef
/dmatrix matrix def
/dpi 72 0 dmatrix defaultmatrix dtransform
	dup mul E dup mul add sqrt
def

/B	{gs bp st gr} bdef %% brush: gr lw lj
/Bbw	{gs bpbw st gr} bdef %% brush: gr lw lj
/F	{gs rgb eofill gr} bdef %% fill: gr
/Fbw	{gs setgray eofill gr} bdef %% fill: gr
/PB	{gs lj lw setpattern st gr} bdef
/PF	{gs eoclip patpath gr} bdef
/BB	{gs rgb lj lw strokepath clip patpath gr} bdef
/xdef {exch def} bdef
/clip_region {
  /ht xdef
  /wd xdef
  /bm xdef
  /lm xdef
  newpath
      lm bm moveto
      0 ht rlineto
      wd 0 rlineto
      0 ht neg rlineto
  closepath clip
} bdef
%! Island text prolog Version 3.1
%%
/reencode_small_dict 12 dict def
/ReencodeSmall {
reencode_small_dict begin
/new_codes_and_names exch def
/new_font_name exch def
/base_font_name exch def
/base_font_dict base_font_name findfont def
/newfont base_font_dict maxlength dict def
base_font_dict {
exch dup /FID ne
{ dup /Encoding eq
{ exch dup length array copy newfont 3 1 roll put }
{ exch newfont 3 1 roll put }
ifelse
}
{ pop pop }
ifelse
} forall
newfont /FontName new_font_name put
base_font_dict /Encoding get StandardEncoding eq
new_codes_and_names extended_Standard ne or
{
new_codes_and_names aload pop
new_codes_and_names length 2 idiv
{ newfont /Encoding get 3 1 roll put }
repeat
}
if
new_font_name newfont definefont pop
end     %reencode_small_dict
} def
/extended_Zapf [
8#223 /a89
8#224 /a90
8#225 /a93
8#226 /a94
8#227 /a91
8#230 /a92
8#231 /a205
8#232 /a85
8#233 /a206
8#234 /a86
8#235 /a87
8#236 /a88
8#237 /a95
8#240 /a96
] def
/extended_Standard [
29 /thorn
30 /yacute
31 /divide
128 /Acircumflex
129 /Adieresis
130 /Agrave
131 /Aring
132 /Atilde
133 /Ccedilla
134 /Eacute
135 /Ecircumflex
136 /Edieresis
137 /Egrave
138 /Iacute
139 /Icircumflex
140 /Idieresis
141 /Igrave
142 /Ntilde
143 /Oacute
144 /Ocircumflex
145 /Odieresis
146 /Ograve
147 /Otilde
148 /Scaron
149 /Uacute
150 /Ucircumflex
151 /Udieresis
152 /Ugrave
153 /Ydieresis
154 /Zcaron
155 /aacute
156 /acircumflex
157 /adieresis
158 /agrave
159 /aring
160 /atilde
161 /exclamdown
162 /cent
163 /sterling
164 /fraction
165 /yen
166 /florin
167 /section
168 /currency
169 /quotesingle
170 /quotedblleft
171 /guillemotleft
172 /guilsinglleft
173 /guilsinglright
174 /fi
175 /fl
176 /plusminus
177 /endash
178 /dagger
179 /daggerdbl
180 /periodcentered
181 /twosuperior
182 /paragraph
183 /bullet
184 /quotesinglbase
185 /quotedblbase
186 /quotedblright
187 /guillemotright
188 /ellipsis
189 /perthousand
190 /threesuperior
191 /questiondown
192 /mu
193 /grave
194 /acute
195 /circumflex
196 /tilde
197 /macron
198 /breve
199 /dotaccent
200 /dieresis
201 /onesuperior
202 /ring
203 /cedilla
204 /onequarter
205 /hungarumlaut
206 /ogonek
207 /caron
208 /emdash
209 /ccedilla
210 /copyright
211 /eacute
212 /ecircumflex
213 /edieresis
214 /egrave
215 /iacute
216 /icircumflex
217 /idieresis
218 /igrave
219 /logicalnot
220 /minus
221 /ntilde
222 /oacute
223 /ocircumflex
224 /odieresis
225 /AE
226 /onehalf
227 /ordfeminine
228 /ograve
229 /otilde
230 /registered
231 /scaron
232 /Lslash
233 /Oslash
234 /OE
235 /ordmasculine
236 /trademark
237 /uacute
238 /ucircumflex
239 /udieresis
240 /ugrave
241 /ae
242 /ydieresis
243 /zcaron
244 /Aacute
245 /dotlessi
246 /threequarters
247 /Eth
248 /lslash
249 /oslash
250 /oe
251 /germandbls
252 /multiply
253 /Yacute
254 /Thorn
255 /eth
] def
/extended_Symbol [
] def
/extend_font {  % stack: fontname newfontname
exch dup (ZapfDingbats) eq
{ cvn exch cvn extended_Zapf ReencodeSmall }
{ dup (Symbol) eq
{ cvn exch cvn extended_Symbol ReencodeSmall }
{ cvn exch cvn extended_Standard ReencodeSmall }
ifelse
}
ifelse
} bind def
/extend_font_name { % stack: font_name_string
dup length 1 add string /extended_font_name exch def
extended_font_name 0 (_) putinterval
extended_font_name 1 3 -1 roll putinterval
extended_font_name
} bind def
/findjpnfont {
  userdict /JFontSubs known {JFontSubs}{false} ifelse {
   dup JFontSubsDict
   dup 4 -1 roll known {exch get}{pop}ifelse findfont
  }{
   findfont
  } ifelse
} bind def
/gf {
  /f E def f cvn currentdict E known
  { currentdict begin f cvn load exec SF end }
  {
    f dup dup length 1 sub 1 getinterval (I) eq
    {
     f dup length 1 sub 0 E getinterval /f E def
     /ita 0.21256 def
    }{
     /ita 0 def
    } ifelse
    f dup length 5 sub 1 getinterval (0) ne
    {
	 /xsz f f length 5 sub 5 getinterval cvi def
	 /ysz f f length 10 sub 5 getinterval cvi def
	 f dup length 2 sub 0 E getinterval /f E def
    }{
	 /xsz f f length 4 sub 4 getinterval cvi def
	 /ysz f f length 8 sub 4 getinterval cvi def
    } ifelse
    f 0 f

    length 8 sub getinterval
    false [(-H)(-V)(.Hankaku)]{
     dup length dup 8 add f length exch sub dup 0 gt
     {f exch 3 -1 roll getinterval eq {pop true exit} if}
     {pop pop pop} ifelse
    } forall
    {
            cvn findjpnfont
    }{
            (LocalFont) extend_font /LocalFont FF
    } ifelse
    /ita xsz ita mul def
    [ xsz 0 ita ysz neg 0 0 ] MF dup
    SF E cvn E def
  } ifelse
}bind def
/ul { % space drop thickness
gs currentpoint currentlinewidth 
currentpoint n m 6 -3 roll 
lw 0 exch r
0 rl st lw m
gr 
} bind def
/nxtab { currentpoint pop 1000.0 mul cvi tab mod
	tab exch sub 1000.0 div 0 rmoveto } bind def
/nx { /x exch def } bind def
0. nx
%%EndFixedProlog
[ statusdict /product get (Grime) search not
true and
 userdict begin /JFontSubs exch def end cleartomark
userdict begin
/JFontSubsDict 19 dict dup begin
 /HiraginoMin-W3-H /Ryumin-Light-H def
 /HiraginoMin-W3-V /Ryumin-Light-V def
 /HiraginoMin-W3.Hankaku /Ryumin-Light.Hankaku def
 /HiraginoMin-W5-H /FutoMinA101-Bold-H def
 /HiraginoMin-W5-V /FutoMinA101-Bold-V def
 /HiraginoMin-W5.Hankaku /FutoMinA101-Bold.Hankaku def
 /HiraginoMin-W8-H /FutoMinA101-Bold-H def
 /HiraginoMin-W8-V /FutoMinA101-Bold-V def
 /HiraginoMin-W8.Hankaku /FutoMinA101-Bold.Hankaku def
 /KyogokuKaku-W3-H /GothicBBB-Medium-H def
 /KyogokuKaku-W3-V /GothicBBB-Medium-V def
 /KyogokuKaku-W3.Hankaku /GothicBBB-Medium.Hankaku def
 /KyogokuKaku-W5-H /FutoGoB101-Bold-H def
 /KyogokuKaku-W5-V /FutoGoB101-Bold-V def
 /KyogokuKaku-W5.Hankaku /FutoGoB101-Bold.Hankaku def
 /FunaokaMaru-W3-H /Jun101-Light-H def
 /FunaokaMaru-W3-V /Jun101-Light-V def
 /FunaokaMaru-W3.Hankaku /Jun101-Light.Hankaku def
end def end
gsave
2.83465 -2.83465 scale 0 -210 translate
topmat currentmatrix pop
gsave
n 41.397 296.21 m 41.397 11.91 l
238.7 11.91 l
238.7 296.21 l
41.397 296.21 l
cl eoclip
n 162.86 126.16 m 175.58 126.16 l
175.58 131.25 l
162.86 131.25 l
162.86 126.16 l
cl gsave
1 1 1 0.136 0 B
grestore
n 111.22 70.343 m 111.32 70.343 l
111.32 70.449 l
111.32 70.875 l
111.22 70.875 l
111.22 70.769 l
0.5686 0.5686 0.5686 F
n 111.22 70.343 m 111.32 70.343 l
111.32 70.449 l
111.32 70.875 l
111.22 70.875 l
111.22 70.769 l
gsave
0 0 0 0 0 B
grestore
n 114.19 70.343 m 114.3 70.343 l
114.3 70.449 l
114.3 70.662 l
114.19 70.662 l
114.19 70.556 l
0.5686 0.5686 0.5686 F
n 114.19 70.343 m 114.3 70.343 l
114.3 70.449 l
114.3 70.662 l
114.19 70.662 l
114.19 70.556 l
gsave
0 0 0 0 0 B
grestore
n 117.16 70.343 m 117.27 70.343 l
117.27 70.449 l
117.27 70.662 l
117.16 70.662 l
117.16 70.556 l
0.5686 0.5686 0.5686 F
n 117.16 70.343 m 117.27 70.343 l
117.27 70.449 l
117.27 70.662 l
117.16 70.662 l
117.16 70.556 l
gsave
0 0 0 0 0 B
grestore
n 120.04 70.343 m 120.14 70.343 l
120.14 70.449 l
120.14 70.662 l
120.04 70.662 l
120.04 70.556 l
0.5686 0.5686 0.5686 F
n 120.04 70.343 m 120.14 70.343 l
120.14 70.449 l
120.14 70.662 l
120.04 70.662 l
120.04 70.556 l
gsave
0 0 0 0 0 B
grestore
n 123.01 70.343 m 123.11 70.343 l
123.11 70.449 l
123.11 70.662 l
123.01 70.662 l
123.01 70.556 l
0.5686 0.5686 0.5686 F
n 123.01 70.343 m 123.11 70.343 l
123.11 70.449 l
123.11 70.662 l
123.01 70.662 l
123.01 70.556 l
gsave
0 0 0 0 0 B
grestore
n 125.98 121.23 m 126.08 121.23 l
126.08 121.33 l
126.08 121.75 l
125.98 121.75 l
125.98 121.64 l
0.5686 0.5686 0.5686 F
n 125.98 121.23 m 126.08 121.23 l
126.08 121.33 l
126.08 121.75 l
125.98 121.75 l
125.98 121.64 l
gsave
0 0 0 0 0 B
grestore
n 125.98 70.343 m 126.08 70.343 l
126.08 70.449 l
126.08 70.875 l
125.98 70.875 l
125.98 70.769 l
0.5686 0.5686 0.5686 F
n 125.98 70.343 m 126.08 70.343 l
126.08 70.449 l
126.08 70.875 l
125.98 70.875 l
125.98 70.769 l
gsave
0 0 0 0 0 B
grestore
n 125.98 70.343 m 126.08 70.343 l
126.08 70.449 l
126.08 121.75 l
125.98 121.75 l
125.98 121.64 l
0.7686 0.7686 0.7686 F
n 125.98 70.343 m 126.08 70.343 l
126.08 70.449 l
126.08 121.75 l
125.98 121.75 l
125.98 121.64 l
gsave
0 0 0 0 0 B
grestore
n 128.96 70.343 m 129.06 70.343 l
129.06 70.449 l
129.06 70.662 l
128.96 70.662 l
128.96 70.556 l
0.5686 0.5686 0.5686 F
n 128.96 70.343 m 129.06 70.343 l
129.06 70.449 l
129.06 70.662 l
128.96 70.662 l
128.96 70.556 l
gsave
0 0 0 0 0 B
grestore
n 131.93 70.343 m 132.03 70.343 l
132.03 70.449 l
132.03 70.662 l
131.93 70.662 l
131.93 70.556 l
0.5686 0.5686 0.5686 F
n 131.93 70.343 m 132.03 70.343 l
132.03 70.449 l
132.03 70.662 l
131.93 70.662 l
131.93 70.556 l
gsave
0 0 0 0 0 B
grestore
n 134.8 70.343 m 134.9 70.343 l
134.9 70.449 l
134.9 70.662 l
134.8 70.662 l
134.8 70.556 l
0.5686 0.5686 0.5686 F
n 134.8 70.343 m 134.9 70.343 l
134.9 70.449 l
134.9 70.662 l
134.8 70.662 l
134.8 70.556 l
gsave
0 0 0 0 0 B
grestore
n 137.78 70.343 m 137.88 70.343 l
137.88 70.449 l
137.88 70.662 l
137.78 70.662 l
137.78 70.556 l
0.5686 0.5686 0.5686 F
n 137.78 70.343 m 137.88 70.343 l
137.88 70.449 l
137.88 70.662 l
137.78 70.662 l
137.78 70.556 l
gsave
0 0 0 0 0 B
grestore
n 140.74 121.23 m 140.85 121.23 l
140.85 121.33 l
140.85 121.75 l
140.74 121.75 l
140.74 121.64 l
0.5686 0.5686 0.5686 F
n 140.74 121.23 m 140.85 121.23 l
140.85 121.33 l
140.85 121.75 l
140.74 121.75 l
140.74 121.64 l
gsave
0 0 0 0 0 B
grestore
n 140.74 70.343 m 140.85 70.343 l
140.85 70.449 l
140.85 70.875 l
140.74 70.875 l
140.74 70.769 l
0.5686 0.5686 0.5686 F
n 140.74 70.343 m 140.85 70.343 l
140.85 70.449 l
140.85 70.875 l
140.74 70.875 l
140.74 70.769 l
gsave
0 0 0 0 0 B
grestore
n 140.74 70.343 m 140.85 70.343 l
140.85 70.449 l
140.85 121.75 l
140.74 121.75 l
140.74 121.64 l
0.7686 0.7686 0.7686 F
n 140.74 70.343 m 140.85 70.343 l
140.85 70.449 l
140.85 121.75 l
140.74 121.75 l
140.74 121.64 l
gsave
0 0 0 0 0 B
grestore
n 143.73 70.343 m 143.83 70.343 l
143.83 70.449 l
143.83 70.662 l
143.73 70.662 l
143.73 70.556 l
0.5686 0.5686 0.5686 F
n 143.73 70.343 m 143.83 70.343 l
143.83 70.449 l
143.83 70.662 l
143.73 70.662 l
143.73 70.556 l
gsave
0 0 0 0 0 B
grestore
n 146.7 70.343 m 146.8 70.343 l
146.8 70.449 l
146.8 70.662 l
146.7 70.662 l
146.7 70.556 l
0.5686 0.5686 0.5686 F
n 146.7 70.343 m 146.8 70.343 l
146.8 70.449 l
146.8 70.662 l
146.7 70.662 l
146.7 70.556 l
gsave
0 0 0 0 0 B
grestore
n 149.57 70.343 m 149.67 70.343 l
149.67 70.449 l
149.67 70.662 l
149.57 70.662 l
149.57 70.556 l
0.5686 0.5686 0.5686 F
n 149.57 70.343 m 149.67 70.343 l
149.67 70.449 l
149.67 70.662 l
149.57 70.662 l
149.57 70.556 l
gsave
0 0 0 0 0 B
grestore
n 152.55 70.343 m 152.65 70.343 l
152.65 70.449 l
152.65 70.662 l
152.55 70.662 l
152.55 70.556 l
0.5686 0.5686 0.5686 F
n 152.55 70.343 m 152.65 70.343 l
152.65 70.449 l
152.65 70.662 l
152.55 70.662 l
152.55 70.556 l
gsave
0 0 0 0 0 B
grestore
n 155.52 121.23 m 155.62 121.23 l
155.62 121.33 l
155.62 121.75 l
155.52 121.75 l
155.52 121.64 l
0.5686 0.5686 0.5686 F
n 155.52 121.23 m 155.62 121.23 l
155.62 121.33 l
155.62 121.75 l
155.52 121.75 l
155.52 121.64 l
gsave
0 0 0 0 0 B
grestore
n 155.52 70.343 m 155.62 70.343 l
155.62 70.449 l
155.62 70.875 l
155.52 70.875 l
155.52 70.769 l
0.5686 0.5686 0.5686 F
n 155.52 70.343 m 155.62 70.343 l
155.62 70.449 l
155.62 70.875 l
155.52 70.875 l
155.52 70.769 l
gsave
0 0 0 0 0 B
grestore
n 155.52 70.343 m 155.62 70.343 l
155.62 70.449 l
155.62 121.75 l
155.52 121.75 l
155.52 121.64 l
0.7686 0.7686 0.7686 F
n 155.52 70.343 m 155.62 70.343 l
155.62 70.449 l
155.62 121.75 l
155.52 121.75 l
155.52 121.64 l
gsave
0 0 0 0 0 B
grestore
n 158.5 70.343 m 158.6 70.343 l
158.6 70.449 l
158.6 70.662 l
158.5 70.662 l
158.5 70.556 l
0.5686 0.5686 0.5686 F
n 158.5 70.343 m 158.6 70.343 l
158.6 70.449 l
158.6 70.662 l
158.5 70.662 l
158.5 70.556 l
gsave
0 0 0 0 0 B
grestore
n 161.47 70.343 m 161.57 70.343 l
161.57 70.449 l
161.57 70.662 l
161.47 70.662 l
161.47 70.556 l
0.5686 0.5686 0.5686 F
n 161.47 70.343 m 161.57 70.343 l
161.57 70.449 l
161.57 70.662 l
161.47 70.662 l
161.47 70.556 l
gsave
0 0 0 0 0 B
grestore
n 164.33 70.343 m 164.43 70.343 l
164.43 70.449 l
164.43 70.662 l
164.33 70.662 l
164.33 70.556 l
0.5686 0.5686 0.5686 F
n 164.33 70.343 m 164.43 70.343 l
164.43 70.449 l
164.43 70.662 l
164.33 70.662 l
164.33 70.556 l
gsave
0 0 0 0 0 B
grestore
n 167.32 70.343 m 167.42 70.343 l
167.42 70.449 l
167.42 70.662 l
167.32 70.662 l
167.32 70.556 l
0.5686 0.5686 0.5686 F
n 167.32 70.343 m 167.42 70.343 l
167.42 70.449 l
167.42 70.662 l
167.32 70.662 l
167.32 70.556 l
gsave
0 0 0 0 0 B
grestore
n 170.28 70.343 m 170.39 70.343 l
170.39 70.449 l
170.39 70.875 l
170.28 70.875 l
170.28 70.769 l
0.5686 0.5686 0.5686 F
n 170.28 70.343 m 170.39 70.343 l
170.39 70.449 l
170.39 70.875 l
170.28 70.875 l
170.28 70.769 l
gsave
0 0 0 0 0 B
grestore
n 111.22 70.343 m 111.32 70.343 l
111.32 70.449 l
111.22 70.449 l
111.22 70.343 l
0.5686 0.5686 0.5686 F
n 111.22 70.343 m 111.32 70.343 l
111.32 70.449 l
111.22 70.449 l
111.22 70.343 l
gsave
0 0 0 0 0 B
grestore
n 111.22 70.343 m 111.32 70.343 l
170.39 70.343 l
170.39 70.449 l
170.28 70.449 l
111.22 70.449 l
0.5686 0.5686 0.5686 F
n 111.22 70.343 m 111.32 70.343 l
170.39 70.343 l
170.39 70.449 l
170.28 70.449 l
111.22 70.449 l
gsave
0 0 0 0 0 B
grestore
n 107.92 100.72 m 111 100.72 l
111 102.63 l
107.92 102.63 l
107.92 100.72 l
cl 1 1 1 F
n 108.98 90.418 m 111 90.418 l
111 92.336 l
108.98 92.336 l
108.98 90.418 l
cl 1 1 1 F
n 109.42 80.222 m 110.9 80.222 l
110.9 82.139 l
109.42 82.139 l
109.42 80.222 l
cl 1 1 1 F
n 108.34 69.919 m 110.9 69.919 l
110.9 71.831 l
108.34 71.831 l
108.34 69.919 l
cl 1 1 1 F
n 111.22 118.57 m 111.32 118.57 l
111.53 118.57 l
111.53 118.67 l
111.43 118.67 l
111.22 118.67 l
0.5686 0.5686 0.5686 F
n 111.22 118.57 m 111.32 118.57 l
111.53 118.57 l
111.53 118.67 l
111.43 118.67 l
111.22 118.67 l
gsave
0 0 0 0 0 B
grestore
n 111.22 118.57 m 111.32 118.57 l
111.32 118.67 l
111.22 118.67 l
111.22 118.57 l
0.5686 0.5686 0.5686 F
n 111.22 118.57 m 111.32 118.57 l
111.32 118.67 l
111.22 118.67 l
111.22 118.57 l
gsave
0 0 0 0 0 B
grestore
n 111.22 118.57 m 111.32 118.57 l
170.39 118.57 l
170.39 118.67 l
170.28 118.67 l
111.22 118.67 l
0.7686 0.7686 0.7686 F
n 111.22 118.57 m 111.32 118.57 l
170.39 118.57 l
170.39 118.67 l
170.28 118.67 l
111.22 118.67 l
gsave
0 0 0 0 0 B
grestore
n 111.22 116.76 m 111.32 116.76 l
111.53 116.76 l
111.53 116.87 l
111.43 116.87 l
111.22 116.87 l
0.5686 0.5686 0.5686 F
n 111.22 116.76 m 111.32 116.76 l
111.53 116.76 l
111.53 116.87 l
111.43 116.87 l
111.22 116.87 l
gsave
0 0 0 0 0 B
grestore
n 111.22 116.76 m 111.32 116.76 l
111.32 116.87 l
111.22 116.87 l
111.22 116.76 l
0.5686 0.5686 0.5686 F
n 111.22 116.76 m 111.32 116.76 l
111.32 116.87 l
111.22 116.87 l
111.22 116.76 l
gsave
0 0 0 0 0 B
grestore
n 111.22 116.76 m 111.32 116.76 l
170.39 116.76 l
170.39 116.87 l
170.28 116.87 l
111.22 116.87 l
0.7686 0.7686 0.7686 F
n 111.22 116.76 m 111.32 116.76 l
170.39 116.76 l
170.39 116.87 l
170.28 116.87 l
111.22 116.87 l
gsave
0 0 0 0 0 B
grestore
n 111.22 115.48 m 111.32 115.48 l
111.53 115.48 l
111.53 115.6 l
111.43 115.6 l
111.22 115.6 l
0.5686 0.5686 0.5686 F
n 111.22 115.48 m 111.32 115.48 l
111.53 115.48 l
111.53 115.6 l
111.43 115.6 l
111.22 115.6 l
gsave
0 0 0 0 0 B
grestore
n 111.22 115.48 m 111.32 115.48 l
111.32 115.6 l
111.22 115.6 l
111.22 115.48 l
0.5686 0.5686 0.5686 F
n 111.22 115.48 m 111.32 115.48 l
111.32 115.6 l
111.22 115.6 l
111.22 115.48 l
gsave
0 0 0 0 0 B
grestore
n 111.22 115.48 m 111.32 115.48 l
170.39 115.48 l
170.39 115.6 l
170.28 115.6 l
111.22 115.6 l
0.7686 0.7686 0.7686 F
n 111.22 115.48 m 111.32 115.48 l
170.39 115.48 l
170.39 115.6 l
170.28 115.6 l
111.22 115.6 l
gsave
0 0 0 0 0 B
grestore
n 111.22 114.43 m 111.32 114.43 l
170.39 114.43 l
170.39 114.53 l
170.28 114.53 l
111.22 114.53 l
0.7686 0.7686 0.7686 F
n 111.22 114.43 m 111.32 114.43 l
170.39 114.43 l
170.39 114.53 l
170.28 114.53 l
111.22 114.53 l
gsave
0 0 0 0 0 B
grestore
n 111.22 113.68 m 111.32 113.68 l
170.39 113.68 l
170.39 113.79 l
170.28 113.79 l
111.22 113.79 l
0.7686 0.7686 0.7686 F
n 111.22 113.68 m 111.32 113.68 l
170.39 113.68 l
170.39 113.79 l
170.28 113.79 l
111.22 113.79 l
gsave
0 0 0 0 0 B
grestore
n 111.22 112.94 m 111.32 112.94 l
170.39 112.94 l
170.39 113.06 l
170.28 113.06 l
111.22 113.06 l
0.7686 0.7686 0.7686 F
n 111.22 112.94 m 111.32 112.94 l
170.39 112.94 l
170.39 113.06 l
170.28 113.06 l
111.22 113.06 l
gsave
0 0 0 0 0 B
grestore
n 111.22 112.41 m 111.32 112.41 l
170.39 112.41 l
170.39 112.52 l
170.28 112.52 l
111.22 112.52 l
0.7686 0.7686 0.7686 F
n 111.22 112.41 m 111.32 112.41 l
170.39 112.41 l
170.39 112.52 l
170.28 112.52 l
111.22 112.52 l
gsave
0 0 0 0 0 B
grestore
n 111.22 111.87 m 111.32 111.87 l
170.39 111.87 l
170.39 111.98 l
170.28 111.98 l
111.22 111.98 l
0.7686 0.7686 0.7686 F
n 111.22 111.87 m 111.32 111.87 l
170.39 111.87 l
170.39 111.98 l
170.28 111.98 l
111.22 111.98 l
gsave
0 0 0 0 0 B
grestore
n 111.22 111.35 m 111.32 111.35 l
170.39 111.35 l
170.39 111.45 l
170.28 111.45 l
111.22 111.45 l
0.7686 0.7686 0.7686 F
n 111.22 111.35 m 111.32 111.35 l
170.39 111.35 l
170.39 111.45 l
170.28 111.45 l
111.22 111.45 l
gsave
0 0 0 0 0 B
grestore
n 111.22 108.27 m 111.32 108.27 l
111.53 108.27 l
111.53 108.38 l
111.43 108.38 l
111.22 108.38 l
0.5686 0.5686 0.5686 F
n 111.22 108.27 m 111.32 108.27 l
111.53 108.27 l
111.53 108.38 l
111.43 108.38 l
111.22 108.38 l
gsave
0 0 0 0 0 B
grestore
n 111.22 108.27 m 111.32 108.27 l
111.32 108.38 l
111.22 108.38 l
111.22 108.27 l
0.5686 0.5686 0.5686 F
n 111.22 108.27 m 111.32 108.27 l
111.32 108.38 l
111.22 108.38 l
111.22 108.27 l
gsave
0 0 0 0 0 B
grestore
n 111.22 108.27 m 111.32 108.27 l
170.39 108.27 l
170.39 108.38 l
170.28 108.38 l
111.22 108.38 l
0.7686 0.7686 0.7686 F
n 111.22 108.27 m 111.32 108.27 l
170.39 108.27 l
170.39 108.38 l
170.28 108.38 l
111.22 108.38 l
gsave
0 0 0 0 0 B
grestore
n 111.22 106.46 m 111.32 106.46 l
111.53 106.46 l
111.53 106.57 l
111.43 106.57 l
111.22 106.57 l
0.5686 0.5686 0.5686 F
n 111.22 106.46 m 111.32 106.46 l
111.53 106.46 l
111.53 106.57 l
111.43 106.57 l
111.22 106.57 l
gsave
0 0 0 0 0 B
grestore
n 111.22 106.46 m 111.32 106.46 l
111.32 106.57 l
111.22 106.57 l
111.22 106.46 l
0.5686 0.5686 0.5686 F
n 111.22 106.46 m 111.32 106.46 l
111.32 106.57 l
111.22 106.57 l
111.22 106.46 l
gsave
0 0 0 0 0 B
grestore
n 111.22 106.46 m 111.32 106.46 l
170.39 106.46 l
170.39 106.57 l
170.28 106.57 l
111.22 106.57 l
0.7686 0.7686 0.7686 F
n 111.22 106.46 m 111.32 106.46 l
170.39 106.46 l
170.39 106.57 l
170.28 106.57 l
111.22 106.57 l
gsave
0 0 0 0 0 B
grestore
n 111.22 105.19 m 111.32 105.19 l
111.53 105.19 l
111.53 105.29 l
111.43 105.29 l
111.22 105.29 l
0.5686 0.5686 0.5686 F
n 111.22 105.19 m 111.32 105.19 l
111.53 105.19 l
111.53 105.29 l
111.43 105.29 l
111.22 105.29 l
gsave
0 0 0 0 0 B
grestore
n 111.22 105.19 m 111.32 105.19 l
111.32 105.29 l
111.22 105.29 l
111.22 105.19 l
0.5686 0.5686 0.5686 F
n 111.22 105.19 m 111.32 105.19 l
111.32 105.29 l
111.22 105.29 l
111.22 105.19 l
gsave
0 0 0 0 0 B
grestore
n 111.22 105.19 m 111.32 105.19 l
170.39 105.19 l
170.39 105.29 l
170.28 105.29 l
111.22 105.29 l
0.7686 0.7686 0.7686 F
n 111.22 105.19 m 111.32 105.19 l
170.39 105.19 l
170.39 105.29 l
170.28 105.29 l
111.22 105.29 l
gsave
0 0 0 0 0 B
grestore
n 111.22 104.23 m 111.32 104.23 l
111.53 104.23 l
111.53 104.34 l
111.43 104.34 l
111.22 104.34 l
0.5686 0.5686 0.5686 F
n 111.22 104.23 m 111.32 104.23 l
111.53 104.23 l
111.53 104.34 l
111.43 104.34 l
111.22 104.34 l
gsave
0 0 0 0 0 B
grestore
n 111.22 104.23 m 111.32 104.23 l
111.32 104.34 l
111.22 104.34 l
111.22 104.23 l
0.5686 0.5686 0.5686 F
n 111.22 104.23 m 111.32 104.23 l
111.32 104.34 l
111.22 104.34 l
111.22 104.23 l
gsave
0 0 0 0 0 B
grestore
n 111.22 104.23 m 111.32 104.23 l
170.39 104.23 l
170.39 104.34 l
170.28 104.34 l
111.22 104.34 l
0.7686 0.7686 0.7686 F
n 111.22 104.23 m 111.32 104.23 l
170.39 104.23 l
170.39 104.34 l
170.28 104.34 l
111.22 104.34 l
gsave
0 0 0 0 0 B
grestore
n 111.22 103.38 m 111.32 103.38 l
111.53 103.38 l
111.53 103.49 l
111.43 103.49 l
111.22 103.49 l
0.5686 0.5686 0.5686 F
n 111.22 103.38 m 111.32 103.38 l
111.53 103.38 l
111.53 103.49 l
111.43 103.49 l
111.22 103.49 l
gsave
0 0 0 0 0 B
grestore
n 111.22 103.38 m 111.32 103.38 l
111.32 103.49 l
111.22 103.49 l
111.22 103.38 l
0.5686 0.5686 0.5686 F
n 111.22 103.38 m 111.32 103.38 l
111.32 103.49 l
111.22 103.49 l
111.22 103.38 l
gsave
0 0 0 0 0 B
grestore
n 111.22 103.38 m 111.32 103.38 l
170.39 103.38 l
170.39 103.49 l
170.28 103.49 l
111.22 103.49 l
0.7686 0.7686 0.7686 F
n 111.22 103.38 m 111.32 103.38 l
170.39 103.38 l
170.39 103.49 l
170.28 103.49 l
111.22 103.49 l
gsave
0 0 0 0 0 B
grestore
n 111.22 102.74 m 111.32 102.74 l
111.53 102.74 l
111.53 102.85 l
111.43 102.85 l
111.22 102.85 l
0.5686 0.5686 0.5686 F
n 111.22 102.74 m 111.32 102.74 l
111.53 102.74 l
111.53 102.85 l
111.43 102.85 l
111.22 102.85 l
gsave
0 0 0 0 0 B
grestore
n 111.22 102.74 m 111.32 102.74 l
111.32 102.85 l
111.22 102.85 l
111.22 102.74 l
0.5686 0.5686 0.5686 F
n 111.22 102.74 m 111.32 102.74 l
111.32 102.85 l
111.22 102.85 l
111.22 102.74 l
gsave
0 0 0 0 0 B
grestore
n 111.22 102.74 m 111.32 102.74 l
170.39 102.74 l
170.39 102.85 l
170.28 102.85 l
111.22 102.85 l
0.7686 0.7686 0.7686 F
n 111.22 102.74 m 111.32 102.74 l
170.39 102.74 l
170.39 102.85 l
170.28 102.85 l
111.22 102.85 l
gsave
0 0 0 0 0 B
grestore
n 111.22 102.1 m 111.32 102.1 l
111.53 102.1 l
111.53 102.22 l
111.43 102.22 l
111.22 102.22 l
0.5686 0.5686 0.5686 F
n 111.22 102.1 m 111.32 102.1 l
111.53 102.1 l
111.53 102.22 l
111.43 102.22 l
111.22 102.22 l
gsave
0 0 0 0 0 B
grestore
n 111.22 102.1 m 111.32 102.1 l
111.32 102.22 l
111.22 102.22 l
111.22 102.1 l
0.5686 0.5686 0.5686 F
n 111.22 102.1 m 111.32 102.1 l
111.32 102.22 l
111.22 102.22 l
111.22 102.1 l
gsave
0 0 0 0 0 B
grestore
n 111.22 102.1 m 111.32 102.1 l
170.39 102.1 l
170.39 102.22 l
170.28 102.22 l
111.22 102.22 l
0.7686 0.7686 0.7686 F
n 111.22 102.1 m 111.32 102.1 l
170.39 102.1 l
170.39 102.22 l
170.28 102.22 l
111.22 102.22 l
gsave
0 0 0 0 0 B
grestore
n 111.22 101.58 m 111.32 101.58 l
111.53 101.58 l
111.53 101.68 l
111.43 101.68 l
111.22 101.68 l
0.5686 0.5686 0.5686 F
n 111.22 101.58 m 111.32 101.58 l
111.53 101.58 l
111.53 101.68 l
111.43 101.68 l
111.22 101.68 l
gsave
0 0 0 0 0 B
grestore
n 111.22 101.58 m 111.32 101.58 l
111.32 101.68 l
111.22 101.68 l
111.22 101.58 l
0.5686 0.5686 0.5686 F
n 111.22 101.58 m 111.32 101.58 l
111.32 101.68 l
111.22 101.68 l
111.22 101.58 l
gsave
0 0 0 0 0 B
grestore
n 111.22 101.58 m 111.32 101.58 l
170.39 101.58 l
170.39 101.68 l
170.28 101.68 l
111.22 101.68 l
0.7686 0.7686 0.7686 F
n 111.22 101.58 m 111.32 101.58 l
170.39 101.58 l
170.39 101.68 l
170.28 101.68 l
111.22 101.68 l
gsave
0 0 0 0 0 B
grestore
n 111.22 101.15 m 111.32 101.15 l
111.75 101.15 l
111.75 101.25 l
111.64 101.25 l
111.22 101.25 l
0.5686 0.5686 0.5686 F
n 111.22 101.15 m 111.32 101.15 l
111.75 101.15 l
111.75 101.25 l
111.64 101.25 l
111.22 101.25 l
gsave
0 0 0 0 0 B
grestore
n 111.22 101.15 m 111.32 101.15 l
111.32 101.25 l
111.22 101.25 l
111.22 101.15 l
0.5686 0.5686 0.5686 F
n 111.22 101.15 m 111.32 101.15 l
111.32 101.25 l
111.22 101.25 l
111.22 101.15 l
gsave
0 0 0 0 0 B
grestore
n 111.22 101.15 m 111.32 101.15 l
170.39 101.15 l
170.39 101.25 l
170.28 101.25 l
111.22 101.25 l
0.7686 0.7686 0.7686 F
n 111.22 101.15 m 111.32 101.15 l
170.39 101.15 l
170.39 101.25 l
170.28 101.25 l
111.22 101.25 l
gsave
0 0 0 0 0 B
grestore
n 111.22 98.065 m 111.32 98.065 l
111.53 98.065 l
111.53 98.181 l
111.43 98.181 l
111.22 98.181 l
0.5686 0.5686 0.5686 F
n 111.22 98.065 m 111.32 98.065 l
111.53 98.065 l
111.53 98.181 l
111.43 98.181 l
111.22 98.181 l
gsave
0 0 0 0 0 B
grestore
n 111.22 98.065 m 111.32 98.065 l
111.32 98.181 l
111.22 98.181 l
111.22 98.065 l
0.5686 0.5686 0.5686 F
n 111.22 98.065 m 111.32 98.065 l
111.32 98.181 l
111.22 98.181 l
111.22 98.065 l
gsave
0 0 0 0 0 B
grestore
n 111.22 98.065 m 111.32 98.065 l
170.39 98.065 l
170.39 98.181 l
170.28 98.181 l
111.22 98.181 l
0.7686 0.7686 0.7686 F
n 111.22 98.065 m 111.32 98.065 l
170.39 98.065 l
170.39 98.181 l
170.28 98.181 l
111.22 98.181 l
gsave
0 0 0 0 0 B
grestore
n 111.22 96.263 m 111.32 96.263 l
111.53 96.263 l
111.53 96.371 l
111.43 96.371 l
111.22 96.371 l
0.5686 0.5686 0.5686 F
n 111.22 96.263 m 111.32 96.263 l
111.53 96.263 l
111.53 96.371 l
111.43 96.371 l
111.22 96.371 l
gsave
0 0 0 0 0 B
grestore
n 111.22 96.263 m 111.32 96.263 l
111.32 96.371 l
111.22 96.371 l
111.22 96.263 l
0.5686 0.5686 0.5686 F
n 111.22 96.263 m 111.32 96.263 l
111.32 96.371 l
111.22 96.371 l
111.22 96.263 l
gsave
0 0 0 0 0 B
grestore
n 111.22 96.263 m 111.32 96.263 l
170.39 96.263 l
170.39 96.371 l
170.28 96.371 l
111.22 96.371 l
0.7686 0.7686 0.7686 F
n 111.22 96.263 m 111.32 96.263 l
170.39 96.263 l
170.39 96.371 l
170.28 96.371 l
111.22 96.371 l
gsave
0 0 0 0 0 B
grestore
n 111.22 94.993 m 111.32 94.993 l
111.53 94.993 l
111.53 95.092 l
111.43 95.092 l
111.22 95.092 l
0.5686 0.5686 0.5686 F
n 111.22 94.993 m 111.32 94.993 l
111.53 94.993 l
111.53 95.092 l
111.43 95.092 l
111.22 95.092 l
gsave
0 0 0 0 0 B
grestore
n 111.22 94.993 m 111.32 94.993 l
111.32 95.092 l
111.22 95.092 l
111.22 94.993 l
0.5686 0.5686 0.5686 F
n 111.22 94.993 m 111.32 94.993 l
111.32 95.092 l
111.22 95.092 l
111.22 94.993 l
gsave
0 0 0 0 0 B
grestore
n 111.22 94.993 m 111.32 94.993 l
170.39 94.993 l
170.39 95.092 l
170.28 95.092 l
111.22 95.092 l
0.7686 0.7686 0.7686 F
n 111.22 94.993 m 111.32 94.993 l
170.39 94.993 l
170.39 95.092 l
170.28 95.092 l
111.22 95.092 l
gsave
0 0 0 0 0 B
grestore
n 111.22 93.922 m 111.32 93.922 l
111.53 93.922 l
111.53 94.029 l
111.43 94.029 l
111.22 94.029 l
0.5686 0.5686 0.5686 F
n 111.22 93.922 m 111.32 93.922 l
111.53 93.922 l
111.53 94.029 l
111.43 94.029 l
111.22 94.029 l
gsave
0 0 0 0 0 B
grestore
n 111.22 93.922 m 111.32 93.922 l
111.32 94.029 l
111.22 94.029 l
111.22 93.922 l
0.5686 0.5686 0.5686 F
n 111.22 93.922 m 111.32 93.922 l
111.32 94.029 l
111.22 94.029 l
111.22 93.922 l
gsave
0 0 0 0 0 B
grestore
n 111.22 93.922 m 111.32 93.922 l
170.39 93.922 l
170.39 94.029 l
170.28 94.029 l
111.22 94.029 l
0.7686 0.7686 0.7686 F
n 111.22 93.922 m 111.32 93.922 l
170.39 93.922 l
170.39 94.029 l
170.28 94.029 l
111.22 94.029 l
gsave
0 0 0 0 0 B
grestore
n 111.22 93.183 m 111.32 93.183 l
111.53 93.183 l
111.53 93.283 l
111.43 93.283 l
111.22 93.283 l
0.5686 0.5686 0.5686 F
n 111.22 93.183 m 111.32 93.183 l
111.53 93.183 l
111.53 93.283 l
111.43 93.283 l
111.22 93.283 l
gsave
0 0 0 0 0 B
grestore
n 111.22 93.183 m 111.32 93.183 l
111.32 93.283 l
111.22 93.283 l
111.22 93.183 l
0.5686 0.5686 0.5686 F
n 111.22 93.183 m 111.32 93.183 l
111.32 93.283 l
111.22 93.283 l
111.22 93.183 l
gsave
0 0 0 0 0 B
grestore
n 111.22 93.183 m 111.32 93.183 l
170.39 93.183 l
170.39 93.283 l
170.28 93.283 l
111.22 93.283 l
0.7686 0.7686 0.7686 F
n 111.22 93.183 m 111.32 93.183 l
170.39 93.183 l
170.39 93.283 l
170.28 93.283 l
111.22 93.283 l
gsave
0 0 0 0 0 B
grestore
n 111.22 92.436 m 111.32 92.436 l
111.53 92.436 l
111.53 92.543 l
111.43 92.543 l
111.22 92.543 l
0.5686 0.5686 0.5686 F
n 111.22 92.436 m 111.32 92.436 l
111.53 92.436 l
111.53 92.543 l
111.43 92.543 l
111.22 92.543 l
gsave
0 0 0 0 0 B
grestore
n 111.22 92.436 m 111.32 92.436 l
111.32 92.543 l
111.22 92.543 l
111.22 92.436 l
0.5686 0.5686 0.5686 F
n 111.22 92.436 m 111.32 92.436 l
111.32 92.543 l
111.22 92.543 l
111.22 92.436 l
gsave
0 0 0 0 0 B
grestore
n 111.22 92.436 m 111.32 92.436 l
170.39 92.436 l
170.39 92.543 l
170.28 92.543 l
111.22 92.543 l
0.7686 0.7686 0.7686 F
n 111.22 92.436 m 111.32 92.436 l
170.39 92.436 l
170.39 92.543 l
170.28 92.543 l
111.22 92.543 l
gsave
0 0 0 0 0 B
grestore
n 111.22 91.904 m 111.32 91.904 l
111.53 91.904 l
111.53 92.012 l
111.43 92.012 l
111.22 92.012 l
0.5686 0.5686 0.5686 F
n 111.22 91.904 m 111.32 91.904 l
111.53 91.904 l
111.53 92.012 l
111.43 92.012 l
111.22 92.012 l
gsave
0 0 0 0 0 B
grestore
n 111.22 91.904 m 111.32 91.904 l
111.32 92.012 l
111.22 92.012 l
111.22 91.904 l
0.5686 0.5686 0.5686 F
n 111.22 91.904 m 111.32 91.904 l
111.32 92.012 l
111.22 92.012 l
111.22 91.904 l
gsave
0 0 0 0 0 B
grestore
n 111.22 91.904 m 111.32 91.904 l
170.39 91.904 l
170.39 92.012 l
170.28 92.012 l
111.22 92.012 l
0.7686 0.7686 0.7686 F
n 111.22 91.904 m 111.32 91.904 l
170.39 91.904 l
170.39 92.012 l
170.28 92.012 l
111.22 92.012 l
gsave
0 0 0 0 0 B
grestore
n 111.22 91.373 m 111.32 91.373 l
111.53 91.373 l
111.53 91.488 l
111.43 91.488 l
111.22 91.488 l
0.5686 0.5686 0.5686 F
n 111.22 91.373 m 111.32 91.373 l
111.53 91.373 l
111.53 91.488 l
111.43 91.488 l
111.22 91.488 l
gsave
0 0 0 0 0 B
grestore
n 111.22 91.373 m 111.32 91.373 l
111.32 91.488 l
111.22 91.488 l
111.22 91.373 l
0.5686 0.5686 0.5686 F
n 111.22 91.373 m 111.32 91.373 l
111.32 91.488 l
111.22 91.488 l
111.22 91.373 l
gsave
0 0 0 0 0 B
grestore
n 111.22 91.373 m 111.32 91.373 l
170.39 91.373 l
170.39 91.488 l
170.28 91.488 l
111.22 91.488 l
0.7686 0.7686 0.7686 F
n 111.22 91.373 m 111.32 91.373 l
170.39 91.373 l
170.39 91.488 l
170.28 91.488 l
111.22 91.488 l
gsave
0 0 0 0 0 B
grestore
n 111.22 90.85 m 111.32 90.85 l
111.75 90.85 l
111.75 90.949 l
111.64 90.949 l
111.22 90.949 l
0.5686 0.5686 0.5686 F
n 111.22 90.85 m 111.32 90.85 l
111.75 90.85 l
111.75 90.949 l
111.64 90.949 l
111.22 90.949 l
gsave
0 0 0 0 0 B
grestore
n 111.22 90.85 m 111.32 90.85 l
111.32 90.949 l
111.22 90.949 l
111.22 90.85 l
0.5686 0.5686 0.5686 F
n 111.22 90.85 m 111.32 90.85 l
111.32 90.949 l
111.22 90.949 l
111.22 90.85 l
gsave
0 0 0 0 0 B
grestore
n 111.22 90.85 m 111.32 90.85 l
170.39 90.85 l
170.39 90.949 l
170.28 90.949 l
111.22 90.949 l
0.7686 0.7686 0.7686 F
n 111.22 90.85 m 111.32 90.85 l
170.39 90.85 l
170.39 90.949 l
170.28 90.949 l
111.22 90.949 l
gsave
0 0 0 0 0 B
grestore
n 111.22 87.761 m 111.32 87.761 l
111.53 87.761 l
111.53 87.869 l
111.43 87.869 l
111.22 87.869 l
0.5686 0.5686 0.5686 F
n 111.22 87.761 m 111.32 87.761 l
111.53 87.761 l
111.53 87.869 l
111.43 87.869 l
111.22 87.869 l
gsave
0 0 0 0 0 B
grestore
n 111.22 87.761 m 111.32 87.761 l
111.32 87.869 l
111.22 87.869 l
111.22 87.761 l
0.5686 0.5686 0.5686 F
n 111.22 87.761 m 111.32 87.761 l
111.32 87.869 l
111.22 87.869 l
111.22 87.761 l
gsave
0 0 0 0 0 B
grestore
n 111.22 87.761 m 111.32 87.761 l
170.39 87.761 l
170.39 87.869 l
170.28 87.869 l
111.22 87.869 l
0.7686 0.7686 0.7686 F
n 111.22 87.761 m 111.32 87.761 l
170.39 87.761 l
170.39 87.869 l
170.28 87.869 l
111.22 87.869 l
gsave
0 0 0 0 0 B
grestore
n 111.22 85.96 m 111.32 85.96 l
111.53 85.96 l
111.53 86.067 l
111.43 86.067 l
111.22 86.067 l
0.5686 0.5686 0.5686 F
n 111.22 85.96 m 111.32 85.96 l
111.53 85.96 l
111.53 86.067 l
111.43 86.067 l
111.22 86.067 l
gsave
0 0 0 0 0 B
grestore
n 170.07 85.96 m 170.17 85.96 l
170.39 85.96 l
170.39 86.067 l
170.28 86.067 l
170.07 86.067 l
0.5686 0.5686 0.5686 F
n 170.07 85.96 m 170.17 85.96 l
170.39 85.96 l
170.39 86.067 l
170.28 86.067 l
170.07 86.067 l
gsave
0 0 0 0 0 B
grestore
n 111.22 85.96 m 111.32 85.96 l
111.32 86.067 l
111.22 86.067 l
111.22 85.96 l
0.5686 0.5686 0.5686 F
n 111.22 85.96 m 111.32 85.96 l
111.32 86.067 l
111.22 86.067 l
111.22 85.96 l
gsave
0 0 0 0 0 B
grestore
n 111.22 85.96 m 111.32 85.96 l
170.39 85.96 l
170.39 86.067 l
170.28 86.067 l
111.22 86.067 l
0.7686 0.7686 0.7686 F
n 111.22 85.96 m 111.32 85.96 l
170.39 85.96 l
170.39 86.067 l
170.28 86.067 l
111.22 86.067 l
gsave
0 0 0 0 0 B
grestore
n 111.22 84.688 m 111.32 84.688 l
111.53 84.688 l
111.53 84.796 l
111.43 84.796 l
111.22 84.796 l
0.5686 0.5686 0.5686 F
n 111.22 84.688 m 111.32 84.688 l
111.53 84.688 l
111.53 84.796 l
111.43 84.796 l
111.22 84.796 l
gsave
0 0 0 0 0 B
grestore
n 170.07 84.688 m 170.17 84.688 l
170.39 84.688 l
170.39 84.796 l
170.28 84.796 l
170.07 84.796 l
0.5686 0.5686 0.5686 F
n 170.07 84.688 m 170.17 84.688 l
170.39 84.688 l
170.39 84.796 l
170.28 84.796 l
170.07 84.796 l
gsave
0 0 0 0 0 B
grestore
n 111.22 84.688 m 111.32 84.688 l
111.32 84.796 l
111.22 84.796 l
111.22 84.688 l
0.5686 0.5686 0.5686 F
n 111.22 84.688 m 111.32 84.688 l
111.32 84.796 l
111.22 84.796 l
111.22 84.688 l
gsave
0 0 0 0 0 B
grestore
n 111.22 84.688 m 111.32 84.688 l
170.39 84.688 l
170.39 84.796 l
170.28 84.796 l
111.22 84.796 l
0.7686 0.7686 0.7686 F
n 111.22 84.688 m 111.32 84.688 l
170.39 84.688 l
170.39 84.796 l
170.28 84.796 l
111.22 84.796 l
gsave
0 0 0 0 0 B
grestore
n 111.22 83.726 m 111.32 83.726 l
111.53 83.726 l
111.53 83.834 l
111.43 83.834 l
111.22 83.834 l
0.5686 0.5686 0.5686 F
n 111.22 83.726 m 111.32 83.726 l
111.53 83.726 l
111.53 83.834 l
111.43 83.834 l
111.22 83.834 l
gsave
0 0 0 0 0 B
grestore
n 170.07 83.726 m 170.17 83.726 l
170.39 83.726 l
170.39 83.834 l
170.28 83.834 l
170.07 83.834 l
0.5686 0.5686 0.5686 F
n 170.07 83.726 m 170.17 83.726 l
170.39 83.726 l
170.39 83.834 l
170.28 83.834 l
170.07 83.834 l
gsave
0 0 0 0 0 B
grestore
n 111.22 83.726 m 111.32 83.726 l
111.32 83.834 l
111.22 83.834 l
111.22 83.726 l
0.5686 0.5686 0.5686 F
n 111.22 83.726 m 111.32 83.726 l
111.32 83.834 l
111.22 83.834 l
111.22 83.726 l
gsave
0 0 0 0 0 B
grestore
n 111.22 83.726 m 111.32 83.726 l
170.39 83.726 l
170.39 83.834 l
170.28 83.834 l
111.22 83.834 l
0.7686 0.7686 0.7686 F
n 111.22 83.726 m 111.32 83.726 l
170.39 83.726 l
170.39 83.834 l
170.28 83.834 l
111.22 83.834 l
gsave
0 0 0 0 0 B
grestore
n 111.22 82.879 m 111.32 82.879 l
111.53 82.879 l
111.53 82.986 l
111.43 82.986 l
111.22 82.986 l
0.5686 0.5686 0.5686 F
n 111.22 82.879 m 111.32 82.879 l
111.53 82.879 l
111.53 82.986 l
111.43 82.986 l
111.22 82.986 l
gsave
0 0 0 0 0 B
grestore
n 170.07 82.879 m 170.17 82.879 l
170.39 82.879 l
170.39 82.986 l
170.28 82.986 l
170.07 82.986 l
0.5686 0.5686 0.5686 F
n 170.07 82.879 m 170.17 82.879 l
170.39 82.879 l
170.39 82.986 l
170.28 82.986 l
170.07 82.986 l
gsave
0 0 0 0 0 B
grestore
n 111.22 82.879 m 111.32 82.879 l
111.32 82.986 l
111.22 82.986 l
111.22 82.879 l
0.5686 0.5686 0.5686 F
n 111.22 82.879 m 111.32 82.879 l
111.32 82.986 l
111.22 82.986 l
111.22 82.879 l
gsave
0 0 0 0 0 B
grestore
n 111.22 82.879 m 111.32 82.879 l
170.39 82.879 l
170.39 82.986 l
170.28 82.986 l
111.22 82.986 l
0.7686 0.7686 0.7686 F
n 111.22 82.879 m 111.32 82.879 l
170.39 82.879 l
170.39 82.986 l
170.28 82.986 l
111.22 82.986 l
gsave
0 0 0 0 0 B
grestore
n 111.22 82.239 m 111.32 82.239 l
111.53 82.239 l
111.53 82.348 l
111.43 82.348 l
111.22 82.348 l
0.5686 0.5686 0.5686 F
n 111.22 82.239 m 111.32 82.239 l
111.53 82.239 l
111.53 82.348 l
111.43 82.348 l
111.22 82.348 l
gsave
0 0 0 0 0 B
grestore
n 170.07 82.239 m 170.17 82.239 l
170.39 82.239 l
170.39 82.348 l
170.28 82.348 l
170.07 82.348 l
0.5686 0.5686 0.5686 F
n 170.07 82.239 m 170.17 82.239 l
170.39 82.239 l
170.39 82.348 l
170.28 82.348 l
170.07 82.348 l
gsave
0 0 0 0 0 B
grestore
n 111.22 82.239 m 111.32 82.239 l
111.32 82.348 l
111.22 82.348 l
111.22 82.239 l
0.5686 0.5686 0.5686 F
n 111.22 82.239 m 111.32 82.239 l
111.32 82.348 l
111.22 82.348 l
111.22 82.239 l
gsave
0 0 0 0 0 B
grestore
n 111.22 82.239 m 111.32 82.239 l
170.39 82.239 l
170.39 82.348 l
170.28 82.348 l
111.22 82.348 l
0.7686 0.7686 0.7686 F
n 111.22 82.239 m 111.32 82.239 l
170.39 82.239 l
170.39 82.348 l
170.28 82.348 l
111.22 82.348 l
gsave
0 0 0 0 0 B
grestore
n 111.22 81.6 m 111.32 81.6 l
111.53 81.6 l
111.53 81.708 l
111.43 81.708 l
111.22 81.708 l
0.5686 0.5686 0.5686 F
n 111.22 81.6 m 111.32 81.6 l
111.53 81.6 l
111.53 81.708 l
111.43 81.708 l
111.22 81.708 l
gsave
0 0 0 0 0 B
grestore
n 170.07 81.6 m 170.17 81.6 l
170.39 81.6 l
170.39 81.708 l
170.28 81.708 l
170.07 81.708 l
0.5686 0.5686 0.5686 F
n 170.07 81.6 m 170.17 81.6 l
170.39 81.6 l
170.39 81.708 l
170.28 81.708 l
170.07 81.708 l
gsave
0 0 0 0 0 B
grestore
n 111.22 81.6 m 111.32 81.6 l
111.32 81.708 l
111.22 81.708 l
111.22 81.6 l
0.5686 0.5686 0.5686 F
n 111.22 81.6 m 111.32 81.6 l
111.32 81.708 l
111.22 81.708 l
111.22 81.6 l
gsave
0 0 0 0 0 B
grestore
n 111.22 81.6 m 111.32 81.6 l
170.39 81.6 l
170.39 81.708 l
170.28 81.708 l
111.22 81.708 l
0.7686 0.7686 0.7686 F
n 111.22 81.6 m 111.32 81.6 l
170.39 81.6 l
170.39 81.708 l
170.28 81.708 l
111.22 81.708 l
gsave
0 0 0 0 0 B
grestore
n 111.22 81.069 m 111.32 81.069 l
111.53 81.069 l
111.53 81.177 l
111.43 81.177 l
111.22 81.177 l
0.5686 0.5686 0.5686 F
n 111.22 81.069 m 111.32 81.069 l
111.53 81.069 l
111.53 81.177 l
111.43 81.177 l
111.22 81.177 l
gsave
0 0 0 0 0 B
grestore
n 170.07 81.069 m 170.17 81.069 l
170.39 81.069 l
170.39 81.177 l
170.28 81.177 l
170.07 81.177 l
0.5686 0.5686 0.5686 F
n 170.07 81.069 m 170.17 81.069 l
170.39 81.069 l
170.39 81.177 l
170.28 81.177 l
170.07 81.177 l
gsave
0 0 0 0 0 B
grestore
n 111.22 81.069 m 111.32 81.069 l
111.32 81.177 l
111.22 81.177 l
111.22 81.069 l
0.5686 0.5686 0.5686 F
n 111.22 81.069 m 111.32 81.069 l
111.32 81.177 l
111.22 81.177 l
111.22 81.069 l
gsave
0 0 0 0 0 B
grestore
n 111.22 81.069 m 111.32 81.069 l
170.39 81.069 l
170.39 81.177 l
170.28 81.177 l
111.22 81.177 l
0.7686 0.7686 0.7686 F
n 111.22 81.069 m 111.32 81.069 l
170.39 81.069 l
170.39 81.177 l
170.28 81.177 l
111.22 81.177 l
gsave
0 0 0 0 0 B
grestore
n 111.22 80.653 m 111.32 80.653 l
111.75 80.653 l
111.75 80.753 l
111.64 80.753 l
111.22 80.753 l
0.5686 0.5686 0.5686 F
n 111.22 80.653 m 111.32 80.653 l
111.75 80.653 l
111.75 80.753 l
111.64 80.753 l
111.22 80.753 l
gsave
0 0 0 0 0 B
grestore
n 111.22 80.653 m 111.32 80.653 l
111.32 80.753 l
111.22 80.753 l
111.22 80.653 l
0.5686 0.5686 0.5686 F
n 111.22 80.653 m 111.32 80.653 l
111.32 80.753 l
111.22 80.753 l
111.22 80.653 l
gsave
0 0 0 0 0 B
grestore
n 111.22 80.653 m 111.32 80.653 l
170.39 80.653 l
170.39 80.753 l
170.28 80.753 l
111.22 80.753 l
0.7686 0.7686 0.7686 F
n 111.22 80.653 m 111.32 80.653 l
170.39 80.653 l
170.39 80.753 l
170.28 80.753 l
111.22 80.753 l
gsave
0 0 0 0 0 B
grestore
n 111.22 77.565 m 111.32 77.565 l
111.53 77.565 l
111.53 77.672 l
111.43 77.672 l
111.22 77.672 l
0.5686 0.5686 0.5686 F
n 111.22 77.565 m 111.32 77.565 l
111.53 77.565 l
111.53 77.672 l
111.43 77.672 l
111.22 77.672 l
gsave
0 0 0 0 0 B
grestore
n 111.22 77.565 m 111.32 77.565 l
111.32 77.672 l
111.22 77.672 l
111.22 77.565 l
0.5686 0.5686 0.5686 F
n 111.22 77.565 m 111.32 77.565 l
111.32 77.672 l
111.22 77.672 l
111.22 77.565 l
gsave
0 0 0 0 0 B
grestore
n 111.22 77.565 m 111.32 77.565 l
170.39 77.565 l
170.39 77.672 l
170.28 77.672 l
111.22 77.672 l
0.7686 0.7686 0.7686 F
n 111.22 77.565 m 111.32 77.565 l
170.39 77.565 l
170.39 77.672 l
170.28 77.672 l
111.22 77.672 l
gsave
0 0 0 0 0 B
grestore
n 111.22 75.759 m 111.32 75.759 l
111.53 75.759 l
111.53 75.864 l
111.43 75.864 l
111.22 75.864 l
0.5686 0.5686 0.5686 F
n 111.22 75.759 m 111.32 75.759 l
111.53 75.759 l
111.53 75.864 l
111.43 75.864 l
111.22 75.864 l
gsave
0 0 0 0 0 B
grestore
n 170.07 75.759 m 170.17 75.759 l
170.39 75.759 l
170.39 75.864 l
170.28 75.864 l
170.07 75.864 l
0.5686 0.5686 0.5686 F
n 170.07 75.759 m 170.17 75.759 l
170.39 75.759 l
170.39 75.864 l
170.28 75.864 l
170.07 75.864 l
gsave
0 0 0 0 0 B
grestore
n 111.22 75.759 m 111.32 75.759 l
111.32 75.864 l
111.22 75.864 l
111.22 75.759 l
0.5686 0.5686 0.5686 F
n 111.22 75.759 m 111.32 75.759 l
111.32 75.864 l
111.22 75.864 l
111.22 75.759 l
gsave
0 0 0 0 0 B
grestore
n 111.22 75.759 m 111.32 75.759 l
170.39 75.759 l
170.39 75.864 l
170.28 75.864 l
111.22 75.864 l
0.7686 0.7686 0.7686 F
n 111.22 75.759 m 111.32 75.759 l
170.39 75.759 l
170.39 75.864 l
170.28 75.864 l
111.22 75.864 l
gsave
0 0 0 0 0 B
grestore
n 111.22 74.378 m 111.32 74.378 l
111.53 74.378 l
111.53 74.483 l
111.43 74.483 l
111.22 74.483 l
0.5686 0.5686 0.5686 F
n 111.22 74.378 m 111.32 74.378 l
111.53 74.378 l
111.53 74.483 l
111.43 74.483 l
111.22 74.483 l
gsave
0 0 0 0 0 B
grestore
n 170.07 74.378 m 170.17 74.378 l
170.39 74.378 l
170.39 74.483 l
170.28 74.483 l
170.07 74.483 l
0.5686 0.5686 0.5686 F
n 170.07 74.378 m 170.17 74.378 l
170.39 74.378 l
170.39 74.483 l
170.28 74.483 l
170.07 74.483 l
gsave
0 0 0 0 0 B
grestore
n 111.22 74.378 m 111.32 74.378 l
111.32 74.483 l
111.22 74.483 l
111.22 74.378 l
0.5686 0.5686 0.5686 F
n 111.22 74.378 m 111.32 74.378 l
111.32 74.483 l
111.22 74.483 l
111.22 74.378 l
gsave
0 0 0 0 0 B
grestore
n 111.22 74.378 m 111.32 74.378 l
170.39 74.378 l
170.39 74.483 l
170.28 74.483 l
111.22 74.483 l
0.7686 0.7686 0.7686 F
n 111.22 74.378 m 111.32 74.378 l
170.39 74.378 l
170.39 74.483 l
170.28 74.483 l
111.22 74.483 l
gsave
0 0 0 0 0 B
grestore
n 111.22 73.424 m 111.32 73.424 l
111.53 73.424 l
111.53 73.53 l
111.43 73.53 l
111.22 73.53 l
0.5686 0.5686 0.5686 F
n 111.22 73.424 m 111.32 73.424 l
111.53 73.424 l
111.53 73.53 l
111.43 73.53 l
111.22 73.53 l
gsave
0 0 0 0 0 B
grestore
n 170.07 73.424 m 170.17 73.424 l
170.39 73.424 l
170.39 73.53 l
170.28 73.53 l
170.07 73.53 l
0.5686 0.5686 0.5686 F
n 170.07 73.424 m 170.17 73.424 l
170.39 73.424 l
170.39 73.53 l
170.28 73.53 l
170.07 73.53 l
gsave
0 0 0 0 0 B
grestore
n 111.22 73.424 m 111.32 73.424 l
111.32 73.53 l
111.22 73.53 l
111.22 73.424 l
0.5686 0.5686 0.5686 F
n 111.22 73.424 m 111.32 73.424 l
111.32 73.53 l
111.22 73.53 l
111.22 73.424 l
gsave
0 0 0 0 0 B
grestore
n 111.22 73.424 m 111.32 73.424 l
170.39 73.424 l
170.39 73.53 l
170.28 73.53 l
111.22 73.53 l
0.7686 0.7686 0.7686 F
n 111.22 73.424 m 111.32 73.424 l
170.39 73.424 l
170.39 73.53 l
170.28 73.53 l
111.22 73.53 l
gsave
0 0 0 0 0 B
grestore
n 111.22 72.575 m 111.32 72.575 l
111.53 72.575 l
111.53 72.68 l
111.43 72.68 l
111.22 72.68 l
0.5686 0.5686 0.5686 F
n 111.22 72.575 m 111.32 72.575 l
111.53 72.575 l
111.53 72.68 l
111.43 72.68 l
111.22 72.68 l
gsave
0 0 0 0 0 B
grestore
n 170.07 72.575 m 170.17 72.575 l
170.39 72.575 l
170.39 72.68 l
170.28 72.68 l
170.07 72.68 l
0.5686 0.5686 0.5686 F
n 170.07 72.575 m 170.17 72.575 l
170.39 72.575 l
170.39 72.68 l
170.28 72.68 l
170.07 72.68 l
gsave
0 0 0 0 0 B
grestore
n 111.22 72.575 m 111.32 72.575 l
111.32 72.68 l
111.22 72.68 l
111.22 72.575 l
0.5686 0.5686 0.5686 F
n 111.22 72.575 m 111.32 72.575 l
111.32 72.68 l
111.22 72.68 l
111.22 72.575 l
gsave
0 0 0 0 0 B
grestore
n 111.22 72.575 m 111.32 72.575 l
170.39 72.575 l
170.39 72.68 l
170.28 72.68 l
111.22 72.68 l
0.7686 0.7686 0.7686 F
n 111.22 72.575 m 111.32 72.575 l
170.39 72.575 l
170.39 72.68 l
170.28 72.68 l
111.22 72.68 l
gsave
0 0 0 0 0 B
grestore
n 111.22 71.937 m 111.32 71.937 l
111.53 71.937 l
111.53 72.044 l
111.43 72.044 l
111.22 72.044 l
0.5686 0.5686 0.5686 F
n 111.22 71.937 m 111.32 71.937 l
111.53 71.937 l
111.53 72.044 l
111.43 72.044 l
111.22 72.044 l
gsave
0 0 0 0 0 B
grestore
n 170.07 71.937 m 170.17 71.937 l
170.39 71.937 l
170.39 72.044 l
170.28 72.044 l
170.07 72.044 l
0.5686 0.5686 0.5686 F
n 170.07 71.937 m 170.17 71.937 l
170.39 71.937 l
170.39 72.044 l
170.28 72.044 l
170.07 72.044 l
gsave
0 0 0 0 0 B
grestore
n 111.22 71.937 m 111.32 71.937 l
111.32 72.044 l
111.22 72.044 l
111.22 71.937 l
0.5686 0.5686 0.5686 F
n 111.22 71.937 m 111.32 71.937 l
111.32 72.044 l
111.22 72.044 l
111.22 71.937 l
gsave
0 0 0 0 0 B
grestore
n 111.22 71.937 m 111.32 71.937 l
170.39 71.937 l
170.39 72.044 l
170.28 72.044 l
111.22 72.044 l
0.7686 0.7686 0.7686 F
n 111.22 71.937 m 111.32 71.937 l
170.39 71.937 l
170.39 72.044 l
170.28 72.044 l
111.22 72.044 l
gsave
0 0 0 0 0 B
grestore
n 111.22 71.301 m 111.32 71.301 l
111.53 71.301 l
111.53 71.406 l
111.43 71.406 l
111.22 71.406 l
0.5686 0.5686 0.5686 F
n 111.22 71.301 m 111.32 71.301 l
111.53 71.301 l
111.53 71.406 l
111.43 71.406 l
111.22 71.406 l
gsave
0 0 0 0 0 B
grestore
n 170.07 71.301 m 170.17 71.301 l
170.39 71.301 l
170.39 71.406 l
170.28 71.406 l
170.07 71.406 l
0.5686 0.5686 0.5686 F
n 170.07 71.301 m 170.17 71.301 l
170.39 71.301 l
170.39 71.406 l
170.28 71.406 l
170.07 71.406 l
gsave
0 0 0 0 0 B
grestore
n 111.22 71.301 m 111.32 71.301 l
111.32 71.406 l
111.22 71.406 l
111.22 71.301 l
0.5686 0.5686 0.5686 F
n 111.22 71.301 m 111.32 71.301 l
111.32 71.406 l
111.22 71.406 l
111.22 71.301 l
gsave
0 0 0 0 0 B
grestore
n 111.22 71.301 m 111.32 71.301 l
170.39 71.301 l
170.39 71.406 l
170.28 71.406 l
111.22 71.406 l
0.7686 0.7686 0.7686 F
n 111.22 71.301 m 111.32 71.301 l
170.39 71.301 l
170.39 71.406 l
170.28 71.406 l
111.22 71.406 l
gsave
0 0 0 0 0 B
grestore
n 111.22 70.769 m 111.32 70.769 l
111.53 70.769 l
111.53 70.875 l
111.43 70.875 l
111.22 70.875 l
0.5686 0.5686 0.5686 F
n 111.22 70.769 m 111.32 70.769 l
111.53 70.769 l
111.53 70.875 l
111.43 70.875 l
111.22 70.875 l
gsave
0 0 0 0 0 B
grestore
n 170.07 70.769 m 170.17 70.769 l
170.39 70.769 l
170.39 70.875 l
170.28 70.875 l
170.07 70.875 l
0.5686 0.5686 0.5686 F
n 170.07 70.769 m 170.17 70.769 l
170.39 70.769 l
170.39 70.875 l
170.28 70.875 l
170.07 70.875 l
gsave
0 0 0 0 0 B
grestore
n 111.22 70.769 m 111.32 70.769 l
111.32 70.875 l
111.22 70.875 l
111.22 70.769 l
0.5686 0.5686 0.5686 F
n 111.22 70.769 m 111.32 70.769 l
111.32 70.875 l
111.22 70.875 l
111.22 70.769 l
gsave
0 0 0 0 0 B
grestore
n 111.22 70.769 m 111.32 70.769 l
170.39 70.769 l
170.39 70.875 l
170.28 70.875 l
111.22 70.875 l
0.7686 0.7686 0.7686 F
n 111.22 70.769 m 111.32 70.769 l
170.39 70.769 l
170.39 70.875 l
170.28 70.875 l
111.22 70.875 l
gsave
0 0 0 0 0 B
grestore
n 111.22 70.343 m 111.32 70.343 l
111.75 70.343 l
111.75 70.449 l
111.64 70.449 l
111.22 70.449 l
0.5686 0.5686 0.5686 F
n 111.22 70.343 m 111.32 70.343 l
111.75 70.343 l
111.75 70.449 l
111.64 70.449 l
111.22 70.449 l
gsave
0 0 0 0 0 B
grestore
n 169.86 70.343 m 169.97 70.343 l
170.39 70.343 l
170.39 70.449 l
170.28 70.449 l
169.86 70.449 l
0.5686 0.5686 0.5686 F
n 169.86 70.343 m 169.97 70.343 l
170.39 70.343 l
170.39 70.449 l
170.28 70.449 l
169.86 70.449 l
gsave
0 0 0 0 0 B
grestore
n 111.22 70.343 m 111.32 70.343 l
111.32 70.449 l
111.32 121.75 l
111.22 121.75 l
111.22 121.64 l
0.5686 0.5686 0.5686 F
n 111.22 70.343 m 111.32 70.343 l
111.32 70.449 l
111.32 121.75 l
111.22 121.75 l
111.22 121.64 l
gsave
0 0 0 0 0 B
grestore
n 111.27 70.397 m 170.34 70.397 l
170.34 121.71 l
111.27 121.71 l
111.27 70.397 l
cl gsave
0 0 0 0.3 0 B
grestore
n 111.22 80.653 m 121.06 84.473 125.98 86.383 125.98 86.383 c
gsave
    [2 1 2 1] 0 setdash
0 0 0 0.544 0 B
grestore
n 111.75 80.699 m 111.75 80.968 111.53 81.177 111.27 81.177 c
111 81.177 110.79 80.968 110.79 80.699 c
110.79 80.437 111 80.222 111.27 80.222 c
111.53 80.222 111.75 80.437 111.75 80.699 c
0.1059 0.1059 0.1059 F
n 111.75 80.699 m 111.75 80.968 111.53 81.177 111.27 81.177 c
111 81.177 110.79 80.968 110.79 80.699 c
110.79 80.437 111 80.222 111.27 80.222 c
111.53 80.222 111.75 80.437 111.75 80.699 c
gsave
0 0 0 0 0 B
grestore
n 111.69 80.699 m 111.69 80.938 111.5 81.13 111.27 81.13 c
111.03 81.13 110.84 80.938 110.84 80.699 c
110.84 80.468 111.03 80.283 111.27 80.283 c
111.5 80.283 111.69 80.468 111.69 80.699 c
cl gsave
0 0 0 0 0 B
grestore
n 125.98 86.383 m 135.83 97.218 140.74 102.63 140.74 102.63 c
gsave
    [2 1 2 1] 0 setdash
0 0 0 0.544 0 B
grestore
n 126.51 86.437 m 126.51 86.698 126.3 86.914 126.04 86.914 c
125.77 86.914 125.56 86.698 125.56 86.437 c
125.56 86.174 125.77 85.96 126.04 85.96 c
126.3 85.96 126.51 86.174 126.51 86.437 c
0.1059 0.1059 0.1059 F
n 126.51 86.437 m 126.51 86.698 126.3 86.914 126.04 86.914 c
125.77 86.914 125.56 86.698 125.56 86.437 c
125.56 86.174 125.77 85.96 126.04 85.96 c
126.3 85.96 126.51 86.174 126.51 86.437 c
gsave
0 0 0 0 0 B
grestore
n 126.46 86.437 m 126.46 86.667 126.27 86.86 126.04 86.86 c
125.8 86.86 125.61 86.667 125.61 86.437 c
125.61 86.198 125.8 86.013 126.04 86.013 c
126.27 86.013 126.46 86.198 126.46 86.437 c
cl 1 1 1 F
n 126.46 86.437 m 126.46 86.667 126.27 86.86 126.04 86.86 c
125.8 86.86 125.61 86.667 125.61 86.437 c
125.61 86.198 125.8 86.013 126.04 86.013 c
126.27 86.013 126.46 86.198 126.46 86.437 c
cl gsave
1 1 1 0 0 B
grestore
n 140.74 102.63 m 150.6 111.77 155.52 116.33 155.52 116.33 c
gsave
    [2 1 2 1] 0 setdash
0 0 0 0.544 0 B
grestore
n 141.28 102.69 m 141.28 102.95 141.06 103.17 140.81 103.17 c
140.54 103.17 140.32 102.95 140.32 102.69 c
140.32 102.42 140.54 102.22 140.81 102.22 c
141.06 102.22 141.28 102.42 141.28 102.69 c
0.1059 0.1059 0.1059 F
n 141.28 102.69 m 141.28 102.95 141.06 103.17 140.81 103.17 c
140.54 103.17 140.32 102.95 140.32 102.69 c
140.32 102.42 140.54 102.22 140.81 102.22 c
141.06 102.22 141.28 102.42 141.28 102.69 c
gsave
0 0 0 0 0 B
grestore
n 141.22 102.69 m 141.22 102.92 141.03 103.11 140.81 103.11 c
140.56 103.11 140.37 102.92 140.37 102.69 c
140.37 102.45 140.56 102.26 140.81 102.26 c
141.03 102.26 141.22 102.45 141.22 102.69 c
cl gsave
0 0 0 0 0 B
grestore
n 156.05 116.39 m 156.05 116.66 155.83 116.87 155.57 116.87 c
155.31 116.87 155.09 116.66 155.09 116.39 c
155.09 116.13 155.31 115.91 155.57 115.91 c
155.83 115.91 156.05 116.13 156.05 116.39 c
0.1059 0.1059 0.1059 F
n 156.05 116.39 m 156.05 116.66 155.83 116.87 155.57 116.87 c
155.31 116.87 155.09 116.66 155.09 116.39 c
155.09 116.13 155.31 115.91 155.57 115.91 c
155.83 115.91 156.05 116.13 156.05 116.39 c
gsave
0 0 0 0 0 B
grestore
n 155.99 116.39 m 155.99 116.64 155.8 116.82 155.57 116.82 c
155.33 116.82 155.14 116.64 155.14 116.39 c
155.14 116.16 155.33 115.97 155.57 115.97 c
155.8 115.97 155.99 116.16 155.99 116.39 c
cl 1 1 1 F
n 155.99 116.39 m 155.99 116.64 155.8 116.82 155.57 116.82 c
155.33 116.82 155.14 116.64 155.14 116.39 c
155.14 116.16 155.33 115.97 155.57 115.97 c
155.8 115.97 155.99 116.16 155.99 116.39 c
cl gsave
0 0 0 0 0 B
grestore
n 111.22 80.653 m 121.06 82.209 125.98 82.986 125.98 82.986 c
gsave
    [2 1 2 1] 0 setdash
0 0 0 0.3 0 B
grestore
n 111.75 80.699 m 111.75 80.968 111.53 81.177 111.27 81.177 c
111 81.177 110.79 80.968 110.79 80.699 c
110.79 80.437 111 80.222 111.27 80.222 c
111.53 80.222 111.75 80.437 111.75 80.699 c
1 1 1 F
n 111.75 80.699 m 111.75 80.968 111.53 81.177 111.27 81.177 c
111 81.177 110.79 80.968 110.79 80.699 c
110.79 80.437 111 80.222 111.27 80.222 c
111.53 80.222 111.75 80.437 111.75 80.699 c
gsave
0 0 0 0 0 B
grestore
n 111.69 80.699 m 111.69 80.938 111.5 81.13 111.27 81.13 c
111.03 81.13 110.84 80.938 110.84 80.699 c
110.84 80.468 111.03 80.283 111.27 80.283 c
111.5 80.283 111.69 80.468 111.69 80.699 c
cl gsave
0 0 0 0 0 B
grestore
n 126.13 83.23 m 135.97 90.946 140.89 94.805 140.89 94.805 c
gsave
    [2 1 2 1] 0 setdash
0 0 0 0.3 0 B
grestore
n 126.51 83.04 m 126.51 83.302 126.3 83.517 126.04 83.517 c
125.77 83.517 125.56 83.302 125.56 83.04 c
125.56 82.771 125.77 82.555 126.04 82.555 c
126.3 82.555 126.51 82.771 126.51 83.04 c
1 1 1 F
n 126.51 83.04 m 126.51 83.302 126.3 83.517 126.04 83.517 c
125.77 83.517 125.56 83.302 125.56 83.04 c
125.56 82.771 125.77 82.555 126.04 82.555 c
126.3 82.555 126.51 82.771 126.51 83.04 c
gsave
0 0 0 0 0 B
grestore
n 126.46 83.04 m 126.46 83.272 126.27 83.464 126.04 83.464 c
125.8 83.464 125.61 83.272 125.61 83.04 c
125.61 82.801 125.8 82.616 126.04 82.616 c
126.27 82.616 126.46 82.801 126.46 83.04 c
cl gsave
0 0 0 0 0 B
grestore
n 141.04 94.805 m 150.88 102.74 155.81 106.7 155.81 106.7 c
gsave
    [2 1 2 1] 0 setdash
0 0 0 0.544 0 B
grestore
n 141.28 94.615 m 141.28 94.876 141.06 95.092 140.81 95.092 c
140.54 95.092 140.32 94.876 140.32 94.615 c
140.32 94.354 140.54 94.138 140.81 94.138 c
141.06 94.138 141.28 94.354 141.28 94.615 c
1 1 1 F
n 141.28 94.615 m 141.28 94.876 141.06 95.092 140.81 95.092 c
140.54 95.092 140.32 94.876 140.32 94.615 c
140.32 94.354 140.54 94.138 140.81 94.138 c
141.06 94.138 141.28 94.354 141.28 94.615 c
gsave
0 0 0 0 0 B
grestore
n 141.22 94.615 m 141.22 94.847 141.03 95.039 140.81 95.039 c
140.56 95.039 140.37 94.847 140.37 94.615 c
140.37 94.377 140.56 94.192 140.81 94.192 c
141.03 94.192 141.22 94.377 141.22 94.615 c
cl gsave
0 0 0 0 0 B
grestore
n 156.05 106.51 m 156.05 106.78 155.83 106.99 155.57 106.99 c
155.31 106.99 155.09 106.78 155.09 106.51 c
155.09 106.25 155.31 106.04 155.57 106.04 c
155.83 106.04 156.05 106.25 156.05 106.51 c
1 1 1 F
n 156.05 106.51 m 156.05 106.78 155.83 106.99 155.57 106.99 c
155.31 106.99 155.09 106.78 155.09 106.51 c
155.09 106.25 155.31 106.04 155.57 106.04 c
155.83 106.04 156.05 106.25 156.05 106.51 c
gsave
0 0 0 0 0 B
grestore
n 155.99 106.51 m 155.99 106.75 155.8 106.94 155.57 106.94 c
155.33 106.94 155.14 106.75 155.14 106.51 c
155.14 106.28 155.33 106.09 155.57 106.09 c
155.8 106.09 155.99 106.28 155.99 106.51 c
cl gsave
0 0 0 0 0 B
grestore
n 111.22 80.653 m 116.18 81.569 118.65 82.031 118.65 82.031 c
gsave
0 0 0 0.3 0 B
grestore
n 111.75 80.699 m 111.75 80.968 111.53 81.177 111.27 81.177 c
111 81.177 110.79 80.968 110.79 80.699 c
110.79 80.437 111 80.222 111.27 80.222 c
111.53 80.222 111.75 80.437 111.75 80.699 c
0.1059 0.1059 0.1059 F
n 111.75 80.699 m 111.75 80.968 111.53 81.177 111.27 81.177 c
111 81.177 110.79 80.968 110.79 80.699 c
110.79 80.437 111 80.222 111.27 80.222 c
111.53 80.222 111.75 80.437 111.75 80.699 c
gsave
0 0 0 0 0 B
grestore
n 111.69 80.699 m 111.69 80.938 111.5 81.13 111.27 81.13 c
111.03 81.13 110.84 80.938 110.84 80.699 c
110.84 80.468 111.03 80.283 111.27 80.283 c
111.5 80.283 111.69 80.468 111.69 80.699 c
cl gsave
0 0 0 0 0 B
grestore
n 118.65 82.031 m 123.54 83.302 125.98 83.941 125.98 83.941 c
gsave
0 0 0 0.3 0 B
grestore
n 119.18 82.077 m 119.18 82.348 118.97 82.555 118.71 82.555 c
118.44 82.555 118.23 82.348 118.23 82.077 c
118.23 81.816 118.44 81.6 118.71 81.6 c
118.97 81.6 119.18 81.816 119.18 82.077 c
0.1059 0.1059 0.1059 F
n 119.18 82.077 m 119.18 82.348 118.97 82.555 118.71 82.555 c
118.44 82.555 118.23 82.348 118.23 82.077 c
118.23 81.816 118.44 81.6 118.71 81.6 c
118.97 81.6 119.18 81.816 119.18 82.077 c
gsave
0 0 0 0 0 B
grestore
n 119.13 82.077 m 119.13 82.316 118.94 82.509 118.71 82.509 c
118.47 82.509 118.28 82.316 118.28 82.077 c
118.28 81.846 118.47 81.662 118.71 81.662 c
118.94 81.662 119.13 81.846 119.13 82.077 c
cl 1 1 1 F
n 119.13 82.077 m 119.13 82.316 118.94 82.509 118.71 82.509 c
118.47 82.509 118.28 82.316 118.28 82.077 c
118.28 81.846 118.47 81.662 118.71 81.662 c
118.94 81.662 119.13 81.846 119.13 82.077 c
cl gsave
0 0 0 0 0 B
grestore
n 126.13 84.088 m 135.97 90.88 140.89 94.284 140.89 94.284 c
gsave
0 0 0 0.3 0 B
grestore
n 126.51 83.995 m 126.51 84.258 126.3 84.473 126.04 84.473 c
125.77 84.473 125.56 84.258 125.56 83.995 c
125.56 83.726 125.77 83.517 126.04 83.517 c
126.3 83.517 126.51 83.726 126.51 83.995 c
0.1059 0.1059 0.1059 F
n 126.51 83.995 m 126.51 84.258 126.3 84.473 126.04 84.473 c
125.77 84.473 125.56 84.258 125.56 83.995 c
125.56 83.726 125.77 83.517 126.04 83.517 c
126.3 83.517 126.51 83.726 126.51 83.995 c
gsave
0 0 0 0 0 B
grestore
n 126.46 83.995 m 126.46 84.226 126.27 84.419 126.04 84.419 c
125.8 84.419 125.61 84.226 125.61 83.995 c
125.61 83.764 125.8 83.564 126.04 83.564 c
126.27 83.564 126.46 83.764 126.46 83.995 c
cl 1 1 1 F
n 126.46 83.995 m 126.46 84.226 126.27 84.419 126.04 84.419 c
125.8 84.419 125.61 84.226 125.61 83.995 c
125.61 83.764 125.8 83.564 126.04 83.564 c
126.27 83.564 126.46 83.764 126.46 83.995 c
cl gsave
0 0 0 0 0 B
grestore
n 140.74 94.138 m 150.6 100.58 155.52 103.8 155.52 103.8 c
0.1059 0.1059 0.1059 F
n 140.74 94.138 m 150.6 100.58 155.52 103.8 155.52 103.8 c
gsave
0 0 0 0 0 B
grestore
n 140.74 94.138 m 150.6 100.58 155.52 103.8 155.52 103.8 c
gsave
0 0 0 0.3 0 B
grestore
n 141.28 94.192 m 141.28 94.453 141.06 94.669 140.81 94.669 c
140.54 94.669 140.32 94.453 140.32 94.192 c
140.32 93.93 140.54 93.714 140.81 93.714 c
141.06 93.714 141.28 93.93 141.28 94.192 c
0.1059 0.1059 0.1059 F
n 141.28 94.192 m 141.28 94.453 141.06 94.669 140.81 94.669 c
140.54 94.669 140.32 94.453 140.32 94.192 c
140.32 93.93 140.54 93.714 140.81 93.714 c
141.06 93.714 141.28 93.93 141.28 94.192 c
gsave
0 0 0 0 0 B
grestore
n 141.22 94.192 m 141.22 94.431 141.03 94.615 140.81 94.615 c
140.56 94.615 140.37 94.431 140.37 94.192 c
140.37 93.961 140.56 93.768 140.81 93.768 c
141.03 93.768 141.22 93.961 141.22 94.192 c
cl 1 1 1 F
n 141.22 94.192 m 141.22 94.431 141.03 94.615 140.81 94.615 c
140.56 94.615 140.37 94.431 140.37 94.192 c
140.37 93.961 140.56 93.768 140.81 93.768 c
141.03 93.768 141.22 93.961 141.22 94.192 c
cl gsave
0 0 0 0 0 B
grestore
n 156.05 103.86 m 156.05 104.12 155.83 104.34 155.57 104.34 c
155.31 104.34 155.09 104.12 155.09 103.86 c
155.09 103.59 155.31 103.38 155.57 103.38 c
155.83 103.38 156.05 103.59 156.05 103.86 c
0.1059 0.1059 0.1059 F
n 156.05 103.86 m 156.05 104.12 155.83 104.34 155.57 104.34 c
155.31 104.34 155.09 104.12 155.09 103.86 c
155.09 103.59 155.31 103.38 155.57 103.38 c
155.83 103.38 156.05 103.59 156.05 103.86 c
gsave
0 0 0 0 0 B
grestore
n 155.99 103.86 m 155.99 104.1 155.8 104.28 155.57 104.28 c
155.33 104.28 155.14 104.1 155.14 103.86 c
155.14 103.63 155.33 103.43 155.57 103.43 c
155.8 103.43 155.99 103.63 155.99 103.86 c
cl 1 1 1 F
n 155.99 103.86 m 155.99 104.1 155.8 104.28 155.57 104.28 c
155.33 104.28 155.14 104.1 155.14 103.86 c
155.14 103.63 155.33 103.43 155.57 103.43 c
155.8 103.43 155.99 103.63 155.99 103.86 c
cl gsave
0 0 0 0 0 B
grestore
n 111.22 80.653 m 116.18 80.723 118.65 80.753 118.65 80.753 c
0.1059 0.1059 0.1059 F
n 111.22 80.653 m 116.18 80.723 118.65 80.753 118.65 80.753 c
gsave
0 0 0 0 0 B
grestore
n 111.22 80.653 m 116.18 80.723 118.65 80.753 118.65 80.753 c
gsave
0 0 0 0 0 B
grestore
n 111.75 80.699 m 111.75 80.968 111.53 81.177 111.27 81.177 c
111 81.177 110.79 80.968 110.79 80.699 c
110.79 80.437 111 80.222 111.27 80.222 c
111.53 80.222 111.75 80.437 111.75 80.699 c
1 1 1 F
n 111.75 80.699 m 111.75 80.968 111.53 81.177 111.27 81.177 c
111 81.177 110.79 80.968 110.79 80.699 c
110.79 80.437 111 80.222 111.27 80.222 c
111.53 80.222 111.75 80.437 111.75 80.699 c
gsave
0 0 0 0 0 B
grestore
n 111.69 80.699 m 111.69 80.938 111.5 81.13 111.27 81.13 c
111.03 81.13 110.84 80.938 110.84 80.699 c
110.84 80.468 111.03 80.283 111.27 80.283 c
111.5 80.283 111.69 80.468 111.69 80.699 c
cl gsave
0 0 0 0 0 B
grestore
n 118.65 80.753 m 123.54 81.531 125.98 81.916 125.98 81.916 c
0.2784 0.2784 0.2784 F
n 118.65 80.753 m 123.54 81.531 125.98 81.916 125.98 81.916 c
gsave
0 0 0 0 0 B
grestore
n 118.65 80.753 m 123.54 81.531 125.98 81.916 125.98 81.916 c
1 1 1 F
n 118.65 80.753 m 123.54 81.531 125.98 81.916 125.98 81.916 c
gsave
0 0 0 0.3 0 B
grestore
n 119.18 80.807 m 119.18 81.069 118.97 81.292 118.71 81.292 c
118.44 81.292 118.23 81.069 118.23 80.807 c
118.23 80.544 118.44 80.329 118.71 80.329 c
118.97 80.329 119.18 80.544 119.18 80.807 c
1 1 1 F
n 119.18 80.807 m 119.18 81.069 118.97 81.292 118.71 81.292 c
118.44 81.292 118.23 81.069 118.23 80.807 c
118.23 80.544 118.44 80.329 118.71 80.329 c
118.97 80.329 119.18 80.544 119.18 80.807 c
gsave
0 0 0 0 0 B
grestore
n 119.13 80.807 m 119.13 81.046 118.94 81.231 118.71 81.231 c
118.47 81.231 118.28 81.046 118.28 80.807 c
118.28 80.576 118.47 80.383 118.71 80.383 c
118.94 80.383 119.13 80.576 119.13 80.807 c
cl gsave
0 0 0 0 0 B
grestore
n 125.98 81.916 m 135.83 85.674 140.74 87.553 140.74 87.553 c
0.2784 0.2784 0.2784 F
n 125.98 81.916 m 135.83 85.674 140.74 87.553 140.74 87.553 c
gsave
0 0 0 0 0 B
grestore
n 125.98 81.916 m 135.83 85.674 140.74 87.553 140.74 87.553 c
gsave
0 0 0 0.3 0 B
grestore
n 126.51 81.977 m 126.51 82.239 126.3 82.454 126.04 82.454 c
125.77 82.454 125.56 82.239 125.56 81.977 c
125.56 81.708 125.77 81.5 126.04 81.5 c
126.3 81.5 126.51 81.708 126.51 81.977 c
1 1 1 F
n 126.51 81.977 m 126.51 82.239 126.3 82.454 126.04 82.454 c
125.77 82.454 125.56 82.239 125.56 81.977 c
125.56 81.708 125.77 81.5 126.04 81.5 c
126.3 81.5 126.51 81.708 126.51 81.977 c
gsave
0 0 0 0 0 B
grestore
n 126.46 81.977 m 126.46 82.209 126.27 82.401 126.04 82.401 c
125.8 82.401 125.61 82.209 125.61 81.977 c
125.61 81.747 125.8 81.546 126.04 81.546 c
126.27 81.546 126.46 81.747 126.46 81.977 c
cl gsave
0 0 0 0 0 B
grestore
n 140.74 87.553 m 150.6 92.582 155.52 95.092 155.52 95.092 c
gsave
0 0 0 0.3 0 B
grestore
n 141.28 87.599 m 141.28 87.869 141.06 88.085 140.81 88.085 c
140.54 88.085 140.32 87.869 140.32 87.599 c
140.32 87.345 140.54 87.13 140.81 87.13 c
141.06 87.13 141.28 87.345 141.28 87.599 c
1 1 1 F
n 141.28 87.599 m 141.28 87.869 141.06 88.085 140.81 88.085 c
140.54 88.085 140.32 87.869 140.32 87.599 c
140.32 87.345 140.54 87.13 140.81 87.13 c
141.06 87.13 141.28 87.345 141.28 87.599 c
gsave
0 0 0 0 0 B
grestore
n 141.22 87.599 m 141.22 87.838 141.03 88.031 140.81 88.031 c
140.56 88.031 140.37 87.838 140.37 87.599 c
140.37 87.369 140.56 87.184 140.81 87.184 c
141.03 87.184 141.22 87.369 141.22 87.599 c
cl gsave
0 0 0 0 0 B
grestore
n 156.05 95.155 m 156.05 95.408 155.83 95.624 155.57 95.624 c
155.31 95.624 155.09 95.408 155.09 95.155 c
155.09 94.885 155.31 94.669 155.57 94.669 c
155.83 94.669 156.05 94.885 156.05 95.155 c
1 1 1 F
n 156.05 95.155 m 156.05 95.408 155.83 95.624 155.57 95.624 c
155.31 95.624 155.09 95.408 155.09 95.155 c
155.09 94.885 155.31 94.669 155.57 94.669 c
155.83 94.669 156.05 94.885 156.05 95.155 c
gsave
0 0 0 0 0 B
grestore
n 155.99 95.155 m 155.99 95.385 155.8 95.57 155.57 95.57 c
155.33 95.57 155.14 95.385 155.14 95.155 c
155.14 94.916 155.33 94.723 155.57 94.723 c
155.8 94.723 155.99 94.916 155.99 95.155 c
cl gsave
0 0 0 0 0 B
grestore
n 157.22 106.46 m 162.53 106.46 165.18 106.46 165.18 106.46 c
gsave
0 0 0 0 0 B
grestore
n 156.58 95.092 m 162.17 95.092 164.97 95.092 164.97 95.092 c
gsave
0 0 0 0 0 B
grestore
n 149.25 82.031 m 149.36 82.031 l
149.36 82.139 l
143.51 88.085 l
143.41 88.085 l
143.41 87.977 l
0 0 0 F
n 149.25 82.031 m 149.36 82.031 l
149.36 82.139 l
143.51 88.085 l
143.41 88.085 l
143.41 87.977 l
gsave
0 0 0 0 0 B
grestore
n 143.73 87.022 m 143.83 87.022 l
143.83 87.13 l
143.51 88.085 l
143.41 88.085 l
143.41 87.977 l
0 0 0 F
n 143.73 87.022 m 143.83 87.022 l
143.83 87.13 l
143.51 88.085 l
143.41 88.085 l
143.41 87.977 l
gsave
0 0 0 0 0 B
grestore
n 144.36 87.662 m 144.48 87.662 l
144.48 87.761 l
143.51 88.085 l
143.41 88.085 l
143.41 87.977 l
0 0 0 F
n 144.36 87.662 m 144.48 87.662 l
144.48 87.761 l
143.51 88.085 l
143.41 88.085 l
143.41 87.977 l
gsave
0 0 0 0 0 B
grestore
n 149.36 81.916 m 149.46 81.916 l
149.46 82.031 l
145.32 96.903 l
145.22 96.903 l
145.22 96.794 l
0 0 0 F
n 149.36 81.916 m 149.46 81.916 l
149.46 82.031 l
145.32 96.903 l
145.22 96.903 l
145.22 96.794 l
gsave
0 0 0 0 0 B
grestore
n 145.01 95.732 m 145.11 95.732 l
145.32 96.794 l
145.32 96.903 l
145.22 96.903 l
145.01 95.84 l
0 0 0 F
n 145.01 95.732 m 145.11 95.732 l
145.32 96.794 l
145.32 96.903 l
145.22 96.903 l
145.01 95.84 l
gsave
0 0 0 0 0 B
grestore
n 145.95 95.939 m 146.07 95.939 l
146.07 96.048 l
145.32 96.903 l
145.22 96.903 l
145.22 96.794 l
0 0 0 F
n 145.95 95.939 m 146.07 95.939 l
146.07 96.048 l
145.32 96.903 l
145.22 96.903 l
145.22 96.794 l
gsave
0 0 0 0 0 B
grestore
n 146.91 99.983 m 147.02 99.983 l
147.02 100.08 l
140.96 110.18 l
140.85 110.18 l
140.85 110.07 l
0 0 0 F
n 146.91 99.983 m 147.02 99.983 l
147.02 100.08 l
140.96 110.18 l
140.85 110.18 l
140.85 110.07 l
gsave
0 0 0 0 0 B
grestore
n 146.91 99.983 m 147.02 99.983 l
147.02 100.08 l
146.91 101.15 l
146.8 101.15 l
146.8 101.05 l
0 0 0 F
n 146.91 99.983 m 147.02 99.983 l
147.02 100.08 l
146.91 101.15 l
146.8 101.15 l
146.8 101.05 l
gsave
0 0 0 0 0 B
grestore
n 146.91 99.983 m 147.02 99.983 l
147.02 100.08 l
146.17 100.72 l
146.07 100.72 l
146.07 100.61 l
0 0 0 F
n 146.91 99.983 m 147.02 99.983 l
147.02 100.08 l
146.17 100.72 l
146.07 100.72 l
146.07 100.61 l
gsave
0 0 0 0 0 B
grestore
n 145.63 107.52 m 145.74 107.52 l
145.74 107.63 l
140.85 110.28 l
140.74 110.28 l
140.74 110.18 l
0 0 0 F
n 145.63 107.52 m 145.74 107.52 l
145.74 107.63 l
140.85 110.28 l
140.74 110.28 l
140.74 110.18 l
gsave
0 0 0 0 0 B
grestore
n 145.63 107.52 m 145.74 107.52 l
145.74 107.63 l
145.11 108.48 l
145.01 108.48 l
145.01 108.38 l
0 0 0 F
n 145.63 107.52 m 145.74 107.52 l
145.74 107.63 l
145.11 108.48 l
145.01 108.48 l
145.01 108.38 l
gsave
0 0 0 0 0 B
grestore
n 145.63 107.52 m 145.74 107.52 l
145.74 107.63 l
144.68 107.74 l
144.58 107.74 l
144.58 107.63 l
0 0 0 F
n 145.63 107.52 m 145.74 107.52 l
145.74 107.63 l
144.68 107.74 l
144.58 107.74 l
144.58 107.63 l
gsave
0 0 0 0 0 B
grestore
n savemat currentmatrix pop [1 0 0 1 105.794 102.106] concat
25.4 1440 div 1.000000 mul dup scale 0 0 m
/tab 283.00 1000.0 mul cvi def

0 0 m 0 ss  (Helvetica-Bold01600160) gf 
0.00 0.00 0.00 rgb  (.01) s 
savemat setmatrix
n savemat currentmatrix pop [1 0 0 1 106.856 91.8008] concat
25.4 1440 div 1.000000 mul dup scale 0 0 m
/tab 283.00 1000.0 mul cvi def

0 0 m 0 ss  (Helvetica-Bold01600160) gf 
0.00 0.00 0.00 rgb  (.1) s 
savemat setmatrix
n savemat currentmatrix pop [1 0 0 1 107.282 81.6038] concat
25.4 1440 div 1.000000 mul dup scale 0 0 m
/tab 283.00 1000.0 mul cvi def

0 0 m 0 ss  (Helvetica-Bold01600160) gf 
0.00 0.00 0.00 rgb  (1) s 
savemat setmatrix
n savemat currentmatrix pop [1 0 0 1 106.219 71.3008] concat
25.4 1440 div 1.000000 mul dup scale 0 0 m
/tab 283.00 1000.0 mul cvi def

0 0 m 0 ss  (Helvetica-Bold01600160) gf 
0.00 0.00 0.00 rgb  (10) s 
savemat setmatrix
n savemat currentmatrix pop [1 0 0 1 110.054 125.983] concat
25.4 1440 div 1.000000 mul dup scale 0 0 m
/tab 283.00 1000.0 mul cvi def

0 0 m 0 ss  (Helvetica-Bold01600160) gf 
0.00 0.00 0.00 rgb  (0) s 
savemat setmatrix
n savemat currentmatrix pop [1 0 0 1 123.938 125.983] concat
25.4 1440 div 1.000000 mul dup scale 0 0 m
/tab 283.00 1000.0 mul cvi def

0 0 m 0 ss  (Helvetica-Bold01600160) gf 
0.00 0.00 0.00 rgb  (0.5) s 
savemat setmatrix
n savemat currentmatrix pop [1 0 0 1 138.995 125.983] concat
25.4 1440 div 1.000000 mul dup scale 0 0 m
/tab 283.00 1000.0 mul cvi def

0 0 m 0 ss  (Helvetica-Bold01600160) gf 
0.00 0.00 0.00 rgb  (1.0) s 
savemat setmatrix
n savemat currentmatrix pop [1 0 0 1 154.443 125.983] concat
25.4 1440 div 1.000000 mul dup scale 0 0 m
/tab 283.00 1000.0 mul cvi def

0 0 m 0 ss  (Helvetica-Bold01600160) gf 
0.00 0.00 0.00 rgb  (1.5) s 
savemat setmatrix
n savemat currentmatrix pop [1 0 0 1 104.805 110.005] concat
25.4 1440 div 1.000000 mul dup scale 0 0 m
/tab 283.00 1000.0 mul cvi def

0 0 m 0 ss  (Helvetica-Bold01600160) gf 
0.00 0.00 0.00 rgb  (.001) s 
savemat setmatrix
n savemat currentmatrix pop [1 0 0 1 103.815 122.7] concat
25.4 1440 div 1.000000 mul dup scale 0 0 m
/tab 283.00 1000.0 mul cvi def

0 0 m 0 ss  (Helvetica-Bold01600160) gf 
0.00 0.00 0.00 rgb  (.0001) s 
savemat setmatrix
n 111.87 80.557 m 118.32 80.799 l
gsave
0 0 0 0.3 0 B
grestore
n 140.36 111.61 m 140.36 112.17 140.13 112.73 139.73 113.13 c
139.33 113.53 138.77 113.76 138.21 113.76 c
115.22 113.76 l
114.66 113.76 114.1 113.53 113.7 113.13 c
113.3 112.73 113.07 112.17 113.07 111.61 c
113.07 111.05 113.3 110.49 113.7 110.09 c
114.1 109.69 114.66 109.46 115.22 109.46 c
138.21 109.46 l
138.77 109.46 139.33 109.69 139.73 110.09 c
140.13 110.49 140.36 111.05 140.36 111.61 c
cl 1 1 1 F
n 140.36 111.61 m 140.36 112.17 140.13 112.73 139.73 113.13 c
139.33 113.53 138.77 113.76 138.21 113.76 c
115.22 113.76 l
114.66 113.76 114.1 113.53 113.7 113.13 c
113.3 112.73 113.07 112.17 113.07 111.61 c
113.07 111.05 113.3 110.49 113.7 110.09 c
114.1 109.69 114.66 109.46 115.22 109.46 c
138.21 109.46 l
138.77 109.46 139.33 109.69 139.73 110.09 c
140.13 110.49 140.36 111.05 140.36 111.61 c
cl gsave
1 1 1 0.3 0 B
grestore
n savemat currentmatrix pop [1.051 0 0 1 113.702 112.702] concat
25.4 1440 div 1.000000 mul dup scale 0 0 m
/tab 283.00 1000.0 mul cvi def

0 0 m 0 ss  (Helvetica-Bold01400140) gf 
0.00 0.00 0.00 rgb  (Conventional PMT) s 
savemat setmatrix
n 164.43 78.024 m 164.43 78.548 164.22 79.069 163.85 79.438 c
163.48 79.81 162.96 80.026 162.43 80.024 c
145.58 80.024 l
145.06 80.026 144.54 79.81 144.17 79.438 c
143.8 79.069 143.58 78.548 143.58 78.024 c
143.58 77.499 143.8 76.979 144.17 76.609 c
144.54 76.237 145.06 76.022 145.58 76.024 c
162.43 76.024 l
162.96 76.022 163.48 76.237 163.85 76.609 c
164.22 76.979 164.43 77.499 164.43 78.024 c
cl 1 1 1 F
n 164.43 78.024 m 164.43 78.548 164.22 79.069 163.85 79.438 c
163.48 79.81 162.96 80.026 162.43 80.024 c
145.58 80.024 l
145.06 80.026 144.54 79.81 144.17 79.438 c
143.8 79.069 143.58 78.548 143.58 78.024 c
143.58 77.499 143.8 76.979 144.17 76.609 c
144.54 76.237 145.06 76.022 145.58 76.024 c
162.43 76.024 l
162.96 76.022 163.48 76.237 163.85 76.609 c
164.22 76.979 164.43 77.499 164.43 78.024 c
cl gsave
1 1 1 0.3 0 B
grestore
n savemat currentmatrix pop [1.051 0 0 1 144.512 79.0488] concat
25.4 1440 div 1.000000 mul dup scale 0 0 m
/tab 283.00 1000.0 mul cvi def

0 0 m 0 ss  (Helvetica-Bold01400140) gf 
0.00 0.00 0.00 rgb  (Improved PMT) s 
savemat setmatrix
n 170.23 89.908 m 170.24 90.359 170.05 90.807 169.73 91.124 c
169.41 91.444 168.96 91.63 168.52 91.628 c
151.11 91.628 l
150.66 91.63 150.21 91.444 149.89 91.124 c
149.57 90.807 149.39 90.359 149.39 89.908 c
149.39 89.458 149.57 89.01 149.89 88.693 c
150.21 88.373 150.66 88.188 151.11 88.19 c
168.52 88.19 l
168.96 88.188 169.41 88.373 169.73 88.693 c
170.05 89.01 170.24 89.458 170.23 89.908 c
cl 1 1 1 F
n 170.23 89.908 m 170.24 90.359 170.05 90.807 169.73 91.124 c
169.41 91.444 168.96 91.63 168.52 91.628 c
151.11 91.628 l
150.66 91.63 150.21 91.444 149.89 91.124 c
149.57 90.807 149.39 90.359 149.39 89.908 c
149.39 89.458 149.57 89.01 149.89 88.693 c
150.21 88.373 150.66 88.188 151.11 88.19 c
168.52 88.19 l
168.96 88.188 169.41 88.373 169.73 88.693 c
170.05 89.01 170.24 89.458 170.23 89.908 c
cl gsave
1 1 1 0.3 0 B
grestore
n savemat currentmatrix pop [1 0 0 1 151.14 90.6908] concat
25.4 1440 div 1.000000 mul dup scale 0 0 m
/tab 283.00 1000.0 mul cvi def

0 0 m 0 ss  (Helvetica-Bold01200120) gf 
0.00 0.00 0.00 rgb  (30 deg. \(3.8E-2\)) s 
savemat setmatrix
n 169.97 99.18 m 169.98 99.658 169.77 100.13 169.44 100.47 c
169.1 100.81 168.62 101.01 168.14 101.01 c
152.67 101.01 l
152.2 101.01 151.72 100.81 151.38 100.47 c
151.04 100.13 150.85 99.658 150.85 99.18 c
150.85 98.701 151.04 98.224 151.38 97.888 c
151.72 97.547 152.2 97.35 152.67 97.353 c
168.14 97.353 l
168.62 97.35 169.1 97.547 169.44 97.888 c
169.77 98.224 169.98 98.701 169.97 99.18 c
cl 1 1 1 F
n 169.97 99.18 m 169.98 99.658 169.77 100.13 169.44 100.47 c
169.1 100.81 168.62 101.01 168.14 101.01 c
152.67 101.01 l
152.2 101.01 151.72 100.81 151.38 100.47 c
151.04 100.13 150.85 99.658 150.85 99.18 c
150.85 98.701 151.04 98.224 151.38 97.888 c
151.72 97.547 152.2 97.35 152.67 97.353 c
168.14 97.353 l
168.62 97.35 169.1 97.547 169.44 97.888 c
169.77 98.224 169.98 98.701 169.97 99.18 c
cl gsave
1 1 1 0.3 0 B
grestore
n savemat currentmatrix pop [1 0 0 1 152.402 99.9758] concat
25.4 1440 div 1.000000 mul dup scale 0 0 m
/tab 283.00 1000.0 mul cvi def

0 0 m 0 ss  (Helvetica-Bold01200120) gf 
0.00 0.00 0.00 rgb  (0 deg. \(5.4E-3\)) s 
savemat setmatrix
n 169 109 m 169.01 109.42 168.83 109.84 168.54 110.14 c
168.24 110.44 167.81 110.62 167.39 110.61 c
152.14 110.61 l
151.71 110.62 151.29 110.44 151 110.14 c
150.7 109.84 150.52 109.42 150.52 109 c
150.52 108.58 150.7 108.16 151 107.86 c
151.29 107.56 151.71 107.39 152.14 107.39 c
167.39 107.39 l
167.81 107.39 168.24 107.56 168.54 107.86 c
168.83 108.16 169.01 108.58 169 109 c
cl 1 1 1 F
n 169 109 m 169.01 109.42 168.83 109.84 168.54 110.14 c
168.24 110.44 167.81 110.62 167.39 110.61 c
152.14 110.61 l
151.71 110.62 151.29 110.44 151 110.14 c
150.7 109.84 150.52 109.42 150.52 109 c
150.52 108.58 150.7 108.16 151 107.86 c
151.29 107.56 151.71 107.39 152.14 107.39 c
167.39 107.39 l
167.81 107.39 168.24 107.56 168.54 107.86 c
168.83 108.16 169.01 108.58 169 109 c
cl gsave
1 1 1 0.3 0 B
grestore
n savemat currentmatrix pop [1 0 0 1 151.218 110.029] concat
25.4 1440 div 1.000000 mul dup scale 0 0 m
/tab 283.00 1000.0 mul cvi def

0 0 m 0 ss  (Helvetica-Bold01200120) gf 
0.00 0.00 0.00 rgb  (30 deg. \(3.0E-3\)) s 
savemat setmatrix
n 169.44 118.73 m 169.44 119.27 169.21 119.8 168.83 120.18 c
168.46 120.56 167.93 120.78 167.39 120.78 c
153.42 120.78 l
152.89 120.78 152.36 120.56 151.98 120.18 c
151.6 119.8 151.38 119.27 151.39 118.73 c
151.38 118.2 151.6 117.67 151.98 117.29 c
152.36 116.91 152.89 116.69 153.42 116.69 c
167.39 116.69 l
167.93 116.69 168.46 116.91 168.83 117.29 c
169.21 117.67 169.44 118.2 169.44 118.73 c
cl 1 1 1 F
n 169.44 118.73 m 169.44 119.27 169.21 119.8 168.83 120.18 c
168.46 120.56 167.93 120.78 167.39 120.78 c
153.42 120.78 l
152.89 120.78 152.36 120.56 151.98 120.18 c
151.6 119.8 151.38 119.27 151.39 118.73 c
151.38 118.2 151.6 117.67 151.98 117.29 c
152.36 116.91 152.89 116.69 153.42 116.69 c
167.39 116.69 l
167.93 116.69 168.46 116.91 168.83 117.29 c
169.21 117.67 169.44 118.2 169.44 118.73 c
cl gsave
1 1 1 0.3 0 B
grestore
n savemat currentmatrix pop [1 0 0 1 152.497 119.915] concat
25.4 1440 div 1.000000 mul dup scale 0 0 m
/tab 283.00 1000.0 mul cvi def

0 0 m 0 ss  (Helvetica-Bold01200120) gf 
0.00 0.00 0.00 rgb  (0 deg. \(3.3E-4\)) s 
savemat setmatrix
n savemat currentmatrix pop [1 0 0 1 133.269 130.306] concat
25.4 1440 div 1.000000 mul dup scale 0 0 m
/tab 283.00 1000.0 mul cvi def

0 0 m 0 ss  (Helvetica-Bold01800180) gf 
0.00 0.00 0.00 rgb  (B \(Tesla\)) s 
savemat setmatrix
n savemat currentmatrix pop [0 -1 1 0 103.551 104.983] concat
25.4 1440 div 1.000000 mul dup scale 0 0 m
/tab 283.00 1000.0 mul cvi def

0 0 m 0 ss  (Helvetica-Bold01800180) gf 
0.00 0.00 0.00 rgb  (Relative gain) s 
savemat setmatrix
grestore
userdict /#copies 1 put
grestore

%%Trailer
%%DocumentNeededResources: font Helvetica Helvetica-Bold
%%DocumentSuppliedResources: 
end
restore

%%EOF

