%!PS-Adobe-2.0 EPSF-2.0
%%Title: /.../b.kek.jp/fs/users/acc/iijima/doc/instr99/material/npeavg.eps
%%Creator: IslandDraw for iijima
%%CreationDate: Sat Apr  1 17:41:18 2000
%%Pages: 1
%%BoundingBox: 155 185 670 448 
%%DocumentNeededResources: (atend)
%%DocumentSuppliedResources: (atend)
%%EndComments
%%BeginPreview: 526 264 1 528
% 000000000000000000000000000000000000000000000000000000000000000000000000000000
% 000000000000000000000000000000000000000000000000000000
% 000000000000000000000000000000000000000000000000000000000000000000000000000000
% 000000000000000000000000000000000000000000000000000000
% 000000000000000000000000000000000000000000000000000000000000000000000000000000
% 000000000000000000000000000000000000000000000000000000
% 000000000000000000000000000000000000000000000000000000000000000000000000000000
% 000000000000000000000000000000000000000000000000000000
% 000000008f1f00000000000000000000000000000000000000000000000000000000000080871f
% 000000000000000000000000000000000000000000000000000000
% 000000809900000000000000000000000000000000000000000000000000000000000000c08c00
% 000000000000000000000000000000000000000000000000000000
% 000000809000000000000000000000000000000000000000000000000000000000000000408800
% 000000000000000000000000000000000000000000000000000000
% 000000009000000000000000000000000000000000000000000000000000000000000000008800
% 000000000000000000000000000000000000000000000000000000
% 000000008e0f00000000000000000000000000000000000000000000000000000000000000870f
% 000000000000000000000000000000000000000000000000000000
% 000000009018000000000000000000000000000000000000000000000000000000000000008818
% 000000000000000000000000000000000000000000000000000000
% 000000001010f0ffffffffffffffffffffffffffffffffffffffffffffffffff01000000000810
% feffffffffffffffffffffffffffffffffffffffffffffffff3f00
% 000000805010f0ffffffffffffffffffffffffffffffffffffffffffffffffff01000000404810
% feffffffffffffffffffffffffffffffffffffffffffffffff3f00
% 000000809018300000000000000000000000000000000000000000000000008001000000408818
% 060000000000000000000000000000000000000000000000003000
% 001800008f0f30000000000000000000000000000000000000000000000000800100000080870f
% 060000000000000000000000000000000000000000000000003000
% 001800000000300000000000000000000000000000000000000000000000008001000000000000
% 060000000000000000000000000000000000000000000000003000
% 001400000000300000000000000000000000000000000000000000000000008001000000000000
% 060000000000000000000000000000000000000000000000003000
% 002400000000f00700000600000000000000000000000000000000000000008001008001000000
% 7e0000000000000000000000000000000000000000000000003000
% 002600000000f00700000400000000000000000000000000000000000000008001008001000000
% 7e0000000000000000000000000000000000000000000000003000
% 006200000000300000000c00000000000000000000000000000000000000008001004001000000
% 060000033000000000000000000000000000000000000000003000
% 004300000000300000000800000000000000000000000000000000000000008001004002000000
% 060000032000000000000000000000000000000000000000003000
% 00c1000000003000001e1800000000000000000000000000000000000000008001006002000000
% 060000036000000000000000000000000000000000000000003000
% 0000000000003000803f1800000000000000000000000000000000000000008001002006000000
% 060000034000000000000000000000000000000000000000003000
% 000000000000f00780713000000000000000000000000000000000000000008001003004000000
% 7e00007bc000000000000000000000000000000000000000003000
% 002e00000000f0078060300000000000000000000000000000000000000000800100100c000000
% 7e0000ffc000000000000000000000000000000000000000003000
% 006f00000000300000703000000000000000007f00000000027080077800008001000000000000
% 060000878101000000000000000000000000000000000000003000
% 80c9000000003000807f300000000000000000c100000000027060188601008001000000000000
% 060000838301000000000000000000000000000000000000003000
% 8088000000003000c061300000000000000000810000000002503010030100800100e002000000
% 060000038301000000000000000000000000000000000000003000
% 8088000000003000c06030000000000000000081f0d0341e02d81030010300800100f006000000
% 060000038301000000000000000000000000000000000000003000
% 80c900000000f007c070100000000000000000c118310c3302d81000010000800100980c000000
% 7e0000038301000000000000000000000000000000000000003000
% 007f000000003000c0ff1800000000000000007f08118461028811000100008001008808000000
% 060000838301000000000000000000000000000000000000003000
% 003e00000000300000cf180000000000000000c180118461028c11000100008001008808000000
% 060000878100000000000000000000000000000000000000003000
% 0000000000003000000008000000000000000081f011847f02fc1100010000800100980c000000
% 060000ffc000000000000000000000000000000000000000003000
% 000000000000300000000c0000000000000000811911840102061330010300800100f007000000
% 0600007bc000000000000000000000000000000000000000003000
% 003e00000f0630000000040000000000000000810811846102063310030100800100e003800706
% 060000004000000000000000000000000000000000000000003000
% 804100801909f00700000600000000000000008188110423020262188601008001000000c00c09
% 7e0000006000000000000000000000000000000000000000003000
% 808000809010300000000000000000000000007f7813041e0203c6077c00008001000000408810
% 060000002000000000000000000000000000000000000000003000
% 80800000901030000000000000000000000000000000000000000000000000800100e003008810
% 060000003000000000000000000000000000000000000000003000
% 808000008e10300000000000000000000000000000000000000000000000008001001804008710
% 060000000000000000000000000000000000000000000000003000
% 004100009010300000000000000000000000000000000000000000000000008001000808008810
% 0600000000000000000000000000000000000000003f0000003000
% 80ff07009010300000000000000000000000000000000000000000000000008001000808008810
% 0600000000000000000000000000000000000000c0ff0000003000
% 000000809010f07f00000000000000000000000000000000000000000000008001000808408810
% fe07000000000000000000000000000000000000c0ff0000003000
% 000000801009300000000000000000000000000000000000000000000000008001001004400809
% 0600000000000000000000000000000000000000e0ff0100003000
% 000000000f0f30000000000000000000000000000000000000000000000000800100f87f80070f
% 0600000000000000000000000000000000000000e0ff0100003000
% f0ff00000000300000000000000000000000000000000000000000000000008001000000000000
% 0600000000000000000000000000000000000000e0ff0100003000
% 00e000000000300000000000000000000000000000000000000000000000008001000000000000
% 0600000000000000000000000000000000000000e0ff0100003000
% 003800000000300000000000000000000000000000000000000000000000008001000000000000
% 060000000000000000000000e003000000000000e0ff0100003000
% 001c00000000f0070000000000000000000000000000000000000000000000800100ff0f000000
% 7e0000000000000000000000f80f000000000000c0ff0000003000
% 000f0000000030000000000000000000000000000000000000000000000000800100000e000000
% 060000000000000000000000f81f000000000000c0ff0000003000
% 800300000000300000000000000000000000000000000000000000000000008001008003000000
% 060000000000000000000000fc1f000000000000c0ff0000003000
% c0010000000030000000000000000000000000000000000000000000000000800100c001000000
% 060000000000000000000000fc1f000000030000001e0000003000
% 70000000000030000000000000000000000000000000000000000000000000800100f000000000
% 060000000000000000000000fe3f0000c01f000000000000003000
% f0ff00000000f00700000000000000000000000000000000000000000000008001003800000000
% 7e0000000000000000000000fe3f0000f03f000000000000003000
% 000000000000f00700000000000000000000000000000000000000000000008001001c00000000
% 7e0000000000000000000000fc3f0000f03f000000000000003000
% 00000000000030000000000020388e030000000000000000000000000000008001000700000000
% 060000000000000000000000fc1f0000f87f000000000000003000
% 00c100000000300000000000382cd204000000000000000000000000000000800100ff0f000000
% 060000000000000000000000fc1f0000f87f000000000000003000
% 004300000000300000000000204451040000000000000000000000000000008001000000000000
% 060000000000000000000000f80f0000f8ff000000000000003000
% 0062000000003000000080032044d0040000000000000000000000000000008001000000000000
% 060000000000000000000000e0030000f87f000000000000003000
% 002600000000f007000080f421448c03000000000000000000000000000000800100100c000000
% 7e000000000000000000000080000000f87f000000000000003000
% 002400000000300000008004204442040000000000000000000000000000008001003004000000
% 06000000000000000000000000000000f07f000000000000003000
% 0014000000003000000080f4212c41040000000000000000000000000000008001002006000000
% 06000000000000000000000000000000f03f000000000000003000
% 001800000000300000008004203a9f030000000000000000000000000000008001006002000000
% 06000000000000000000000000000000e01f000000000000003000
% 001800000000300000001800000000000000000000000000000000000000008001004002000000
% 060000000000000070000000000000000007000000000000003000
% 000000008f1f30000000180000000000000000000000000000000000000000800100400180871f
% 0600000000000000fc010000000000000000000000000000003000
% 000000809900f00700000c00000000000000000000000000000000000000008001008001c08c00
% 7e00000018000000fe070000000000000000000000000000003000
% 000000809000300000000c00000000000000000000000000000000000000008001008001408800
% 060000007f000000ff070000000000000000000000000000003000
% 000000809000300000000600000000000000000000000000000000000000008001000000408800
% 06000080ff010000ff070000000000000000000000000000003000
% 00000000980f300000000600000000000000000000000000000000000000008001000000008c0f
% 06000080ff010000ff0f0000000000000000000000000000003000
% 000000008c18300000000300000000000000000000000000000000000000008001000000008618
% 060000c0ff030080ff0f0000000000000000000000000000003000
% 000000000310f07f00800300000000000000000000000000000000000000008001000000800110
% fe0700c0ff030000ff0f0000000000000000000000000000003000
% 000000804110f07f00800100000000000000000000000000000000000000008001000000c04010
% fe0700c0ff030000ff070000000000000000000000000000003000
% 000000808018300000c00000000000000000000000000000000000000000008001000000408018
% 060000c0ff030000ff070000000000000000000000000000003000
% 000000c09f0f300000c00000000000000000000000000000000000000000008001000000e08f0f
% 060000c0ff030000fe070000000000000000000000000000003000
% 000000000000300000600000000000000000000000000000000000000000008001000000000000
% 060000c0ff010000fc030000000000000000000000000000003000
% 000000000000300000600000000000000000000000000000000000000000008001000000000000
% 06000080ff01000070000000000000000000000000000000003000
% 000000000000f00700300000000000000000000000000000000000000000008001000000000000
% 7e000000ff00000000000000000000000000000000000000003000
% 000000000000f00700380000000000000000000000000000000000000000008001000000000000
% 7e0000003c00000000000000000000000000000000000000003000
% 000000000000300000180000000000000000000000000000000000000000008001000000000000
% 060000000000000000000000000000000000000000000000003000
% 0000000000003000000c0000000000000000000000000000000000000000008001000000000000
% 060000000000000000000000000000000000000000000000003000
% 0000000000003000000c0000000000000000000000000000000000000000008001000000000000
% 0600000000000000000000000000000000000000000000000030c0
% 000000000000300000060000000000000000000000000000000000000000008001000000000000
% 060000000000000000000000000000000000000000000000003080
% 000000000000f00700060000000000000000000000000000000000000000008001000000000000
% 7e0000000000000000000000000000000000000000000000003000
% 000000000000300000030000000000000000000000000000000000000000008001000000000000
% 060000000000000000000000000000000000000000000000003000
% 0000000000003000b0030000000000000000000000000000000000000000008001000000000000
% 060000000000000000000000000000000000000000000000003000
% 0000000000003000f0010000000000000000000000000000000000000000008001000000000000
% 060000000000000000000000000000000000000000000000003000
% 0000000000003000f0010000000000000000000000000000000000000000008001000000000000
% 060000000000000000000000000000000000000000000000003000
% 0000000000003000f0070000000000000000000000000000000000000000008001000000000000
% 060000000000000000000000000000000000000000000000003040
% 000000000000f007f0030000000000000000000000000000000000000000008001000000000000
% 7e0000000000000000000000000000000000000000000000003000
% 0000000000003000f8010000000000000000000000000000000000000000008001000000000000
% 060000000000000000000000000000000000000000000000003000
% 0000000000003000f80000000000000000000000000000000040e0200e00008001000000000000
% 060000000000000000000000000000000000000000000000003000
% 0000000000003000780000000000000000000000000000000070b0381200008001000000000000
% 0600000000000000000000000000000000000000000000000030c0
% 000000000000300038000000000000000000000000000000004010211100008001000000000000
% 0600000000000000000000000000000000000000000000000030c0
% 000000000f06300018000000000000000000000000000000074010211000008001000000800706
% 060000000000000000000000000000000000000000000000003000
% 000000801909f0070800000000800f000000000000000000e94310210c00008001000000c00c09
% 7e0000000000000000000000000000000000000000000000003000
% 00000080901030000000000000e03f000000000000000000094010211000008001000000408810
% 060000000000000000000000000000000000000000000000003000
% 00000080901030000000000000f03f000000000000000000e943b0201100008001000000408810
% 060000000000000000000000000000000000000000000000003000
% 00000000981030000000000000f07f0000000000000000000940e4200e00008001000000008c10
% 060000000000000000000000000000000000000000000000003000
% 000000008c1030000200000000f87f000000000000000000000000000000008001000000008610
% 060000000000000000000000000000000000000000000000003000
% 00000000831030c01f00000000f8ff000000380000000000000000000000008001000000808110
% 060000000000000000000000000000000000000000000000003000
% 000000808110f0ff3f00000000f8ff000000fe0100000000000000000000008001000000c08010
% fe0700000000000000000000000000000000000000000000003000
% 00000080000930f07f00000000f87f000000ff0300000000000000000000008001000000400009
% 060000000000000000000000000000000000000000000000003040
% 000000c01f0f30f07f00000000f07f000000ff0300000000000000000000008001000000e00f0f
% 060000000000000000000000000000000000000000000000003000
% 00000000000030f0ff00000000f03f000080ff0700000000000000000000008001000000000000
% 0600000000000000000000000000000000000000000000000030c0
% 00000000000030f8ff00000000e03f000080ff07000000c0000000000000008001000000000000
% 060000000000000000000000000000000000000000000000003000
% 000000000000f0ffff00000000800f000080ff07000000c0000000000000008001000000000000
% 7e0000000000000000000000000000000000000000000000003000
% 000000000000f0f77f000000000000000080ff0700000060000000000000008001000000000000
% 7e0000000000000000000000000000000000000000000000003000
% 00000000000030f07f000000000000000080ff0700000060000000000000008001000000000000
% 060000000000000000000000000000000000000000000000003000
% 00000000000030e07f000000000000000000ff0300000060000000000000008001000000000000
% 060000000000000000000000000000000000000000000000003000
% 00000000000030e03f000000000000000000ff0300000030000000000000008001000000000000
% 060000000000000000000000000000000000000000000000003000
% 000000000000300007000000000000000000fe0100000030000000000000008001000000000000
% 060000000000000000000000000000000000000000000000003000
% 000000000000f00700000000000000000000300000000018000000000000008001000000000000
% 7e0000000000000000000000000000000000000000000000003000
% 000000000000300000000000000000000000000000000018000000000000008001000000000000
% 060000000000000000000000000000000000000000000000003000
% 00000000000030000000000000000000000000000000000c000000000000008001000000000000
% 060000000000000000000000000000000000000000000000003000
% 00000000000030000000000000000000000000000000000c000000000000008001000000000000
% 060000000000000000000000000000000000000000000000003000
% 00000000000030000000000000000000000000000000000c000000000000008001000000000000
% 060000000000000000000000000000000000000000000000003000
% 000000000000300000000000000000000000000000000006000000000000008001000000000000
% 060000000000000000000000000000000000000000000000003000
% 000000000000f00700000000000000000007000000000006000000000000008001000000000000
% 7e00000000000000000000000000000000000000000000000030c0
% 00000000000030000000000000000000e01f000000000003000000000000008001000000000000
% 060000000000000000000000000000000000000000000000003040
% 00000000000030000000000000000000f03f000000000003000000000000008001000000000000
% 060000000000000000000000000000000000000000000000003000
% 00000000000030000000000000000000f07f000000008001000000000000008001000000000000
% 060000000000000000000000000000000000000000000000003000
% 00000000040030000000000000000000f87f000000008001000000000000008001000000000200
% 060000000000000000000000000000000000000000000000003000
% 00000000841f30000000000000000000f87f00000000800100000000000000800100000000821f
% 060000000000000000000000000000000000000000000000003000
% 000000808700f0070000000000000000f8ff00000000c000000000000000008001000000c08300
% 7e0000000000000000000000000000000000000000000000003000
% 00000000840030000000000000000000f87f00000000c000000000000000008001000000008200
% 060000000000000000000000000000000000000000000000003000
% 00000000840030000000000000000000f87f000000006000000000000000008001000000008200
% 060000000000000000000000000000000000000000000000003000
% 00000000840f30000000000000000000f03f00000000600000000000000000800100000000820f
% 060000000000000000000000000000000000000000000000003000
% 00000000841830000000000000000030f03f000000006000000000000000008001000000008218
% 060000000000000000000000000000000000000000000000003000
% 000000000410300000000000000000fcc11f000000003000000000000000008001000000000210
% 060000000000000000000000000000000000000000000000003000
% 000000004410f07f00000000000000ff0303000000003000000000000000008001000000004210
% fe0700000000000000000000000000000000000000000000003000
% 000000008418300000000000000000ff0300000000001800000000000000008001000000008218
% 060000000000000000000000000000000000000000000000003000
% 00000000840f300000000000000000ff070000000000180000000000000000800100000000820f
% 060000000000000000000000000000000000000000000000003000
% 000000000000300000000000000080ff0700000000000c00000000000000008001000000000000
% 060000000000000000000000000000000000000000000000003000
% 000000000000300000000000000080ff0f00000000000c00000000000000008001000000000000
% 060000000000000000000000000000000000000000000000003000
% 000000000000f00700000000300080ff0700000000000c00000000000000008001000000000000
% 7e0000000000000000000000000000000000000000000000003000
% 000000000000f00700000000fc0180ff0700000000000600000000000000008001000000000000
% 7e0000000000000000000000000000000000000000000000003000
% 000000000000300000000000ff0300ff0700000000000600000000000000008001000000000000
% 060000000000000000000000000000000000000000000000003000
% 000000000000300000000000ff0300ff0300000000000300000000000000008001000000000000
% 060000000000000000000000000000000000000000000000003000
% 000000000000300000000000ff0700fe0100000000000300000000000000008001000000000000
% 060000000000000000000000000000000000000000000000003000
% 000000000000300000000080ff0700700000000000e00100000000000000008001000000000000
% 060000000000000000000000000000000000000000000000003000
% 000000000000f00700000080ff0f00000000000000e00300000000000000008001000000000000
% 7e0000000000000000000000000000000000000000000000003000
% 000000000000300000000080ff0700000000000000e00700000000000000008001000000000000
% 060000000000000000000000000000000000000000000000003000
% 000000000000300000000080ff0700000000000000e00700000000000000008001000000000000
% 060000000000000000000000000000000000000000000000003000
% 000000000000300000000000ff0700000000008007f00300000000000000008001000000000000
% 060000000000000000000000000000000000000000000000003000
% 000000000000300000000000ff030000000000f01ff00100000000000000008001000000000000
% 060000000000000000000000000000000000000000000000003000
% 000000000000300000000000fe010000000000f03ff00003000000000000008001000000000000
% 060000000000000000000000000000000000000000000000003000
% 000000000000f0070070000070000000000000f83f70e00f780000000000008001000000000000
% 7e0000000000000000000000000000000000000000000000003000
% 000000000000300000fe030700000000000000f87f30f03fff0100000000008001000000000000
% 060000000000000000000000000000000000000000000000003000
% 000000000000300000fee73f00000000000000f87f30f03fff0300000000008001000000000000
% 060000000000000000000000000000000000000000000000003000
% 000000000400300000ffe73f00000000000000f87f00f8ffff83077c0000008001000000000200
% 060000000000000000000000000000000000000000000000003000
% 000000000406300000fff77f00000000000000f87f00f8fffff71fffc107008001000000000206
% 06000000000000000000e01f000001000000c0011ee00100003000
% 000000800709300080ffff7f00000000000000f87f00fcfffff7bffff31f008001000000c00309
% 060000000000000000002000000001000000c08161180600003000
% 000000008410f00780ffffff00000000000000f03f00f8ffffffbffffb3f008001000000008210
% 7e000000000000000000200000000100000040c1400c0400003000
% 000000008410300080ffffff00000000000000f03f00f8ffffffbffffb3f7c8001000000008210
% 0600000000000000000020003d78e1f0a0036043c0040c00003000
% 000000008410300000ffffff00000000000000c00ffcf8bfffffffffff3fff8101000000008210
% 060000000000000000002000638811196104604300040000003000
% 000000008410300000fff77f000000000000000003fff33fffffffffffffff8301000000008210
% 0600000000000000000020004104090b2108204600040000003000
% 000000008410300000fef37f000000000000000000ffe31ffffbffffffffff8301000000008210
% 06000000000000000000e01f410409802108304600040000003000
% 000000008410f07f00fce13f000000000000000080ff8303fcf8bffffbbfff8301000000008210
% fe0700000000000000002000410409f02108f04700040000003000
% 000000000409f07f0060c01f000000000000000080ff070000f8bffffbffff8701000000000209
% fe0700000000000000002000410409182108184cc0040c00003000
% 00000000040f300000000007000000000000000080ff070000f01ffff9ffff870100000000020f
% 0600000000000000000020004104090b210818cc400c0400003000
% 000000000000300000000000000000000000000080ff070000e00f7cf0dfff8301000000000000
% 060000000000000000002000418811896104088861180600003000
% 000000000000300000000000000000000000000080ff070000000100c087ff8301000000000000
% 06000000000000000000e01f41f8f178e3070c181ff00100003000
% 000000000000300000000000000000000000000080ff0300000000000080ff8301000000000000
% 060000000000000000000000000000002000000000000000003000
% 000000000000f00700000000000000000000000000ff0300000000000000ff8101000000000000
% 7e0000000000000000000000000000002000000000000000003000
% 000000000000300000000000000000000000000000ff03000000000000007c8001000000000000
% 060000000000000000000000000000002000000000000000003000
% 0000000000003000000000000000000000000000007c0000000000000000108001000000000000
% 060000000000000000000000000000000000000000000000003000
% 000000000000300000000000000000000000000000000000000000000000008001000000000000
% 060000000000000000000000000000000000000000000000003000
% 000000000000300000000000000000000000000000000000000000000000008001000000000000
% 060000000000000000000000000000000000000000000000003000
% 000000000000300000000000000000000000000000000000000000000000008001000000000000
% 060000000000000000000000000000000000000000000000003000
% 000000000000f00700000000000000000000000000000000000000000000008001000000000000
% 7e0000000000000000000000000000000000000000000000003000
% 000000000000300000000000000000000000000000000000000000000000008001000000000000
% 060000000000000000000000000000000000000000000000003000
% 000000000000300000000000000000000000000000000000000000000000008001000000000000
% 060000000000000000000000000000000000000000000000003000
% 000000000000300000000000000000000000000000000000000000000000008001000000000000
% 060000000000000000000000000000000000000000000000003000
% 000000000000300000000000000000000000000000000000000000000000008001000000000000
% 060000000000000000000000000800000000000000000000003000
% 000000000000300000000000000000000000000000000000000000000000008001000000000000
% 060000000000000000000000000c00073c38000000000000003000
% 000000000000f00700000000000000000000000000000000000000000000008001000000000000
% 7e0000000000000000000000000f80086244000000000000003000
% 000000000000300000000000000000000000000000000000000000000000008001000000000000
% 06000000000000000000a0070008401843c2000000000000003000
% 000000000000300000000000000000000000000000000000000000000000008001000000000000
% 06000000000000000000600c000840104382000000000000003000
% 000000000000300000000000000000000000000000000000000000000000008001000000000000
% 060000000000000000002008000840106082000000000000003000
% 00000000f80130000000000000000000000000000000000000000000000000800100000000f801
% 0600000000000000000020887f0840103882000000000000003000
% 000000000800300000800100003800300000001800000000000000000000008001000000000800
% 060000000000000000002008000840104082000000000000003000
% 000000000800f00700f0010000f8013e000000f8000000380000000000000e8001000000000800
% 7e0000000000000000002008000840104082000000000000003000
% 000000000800300000fe010000f8cf3f000000f80700003f0000000000007e8001000000000800
% 0600000000000000000020887f08401841c2000000000000003000
% 00000000f800300080ffffffffffffffffffffff1f00e03f000000000000fe830100000000f800
% 060000000000000000002008000880084344000000000000003000
% 000000008801300000ff010000f8cf3f000000f80700f0ffffffffffffffff8701000000008801
% 060000000000000000002008000884073e3c000000000000003000
% 000000000001300000f8010000f8013e000000f80000c03f000000000000fe8101000000000001
% 060000000000000000000000000000000000000000000000003000
% 000000000401f07f00c0010000380030000000180000003e0000000000003e8001000000000401
% fe0700000000000000000000000000000000000000000000003000
% 000000008801f07f00000000000000000000000000000030000000000000068001000000008801
% fe0700000000000000000000000000000000000000000000003000
% 00000000f80030000000000000000000000000000000000000000000000000800100000000f800
% 060000000000000000000000000000000000000000000000003000
% 000000000000300000000000000000000000000000000000000000000000008001000000000000
% 060000000000000000000000000000000000000000000000003000
% 0000000000003000000000c1711c000080c04100000000000000c1411c00008001000000000000
% 060000000000000000000000000000000000000000000000003000
% 00000000000030000000c06191160000e060713c0000000000c061711600008001000000000000
% 060000000000000000000000000000000000000000000000003000
% 000000000000f007000000218a2200008020420400000000000021422200008001000000000000
% 7e0000000000000000000000000000000000000000000000003000
% 0000000000003000001c00218222000e8020421e000000001c0021422200008001000000000000
% 060000000000000000000000000000000000000000000000003000
% 000000000000300000e40721622200d28720422200000000e40721422200008001000000000000
% 060000000000000000000000000000000000000000000000003000
% 000000000000300000240021122200128020422000000000240021422200008001000000000000
% 060000000000000000000000000000000000000000000000003000
% 000000000000300000e40761091600d28760412200000000e40761411600008001000000000000
% 060000000000000000000000000000000000000000000000003000
% 0000000000003000002400c9f91c001280c8411c000000002400c9411c00008001000000000000
% 060000000000000000000000000000000000000000000000003000
% 000000000000f00700000000000000000000000000000000000000000000008001000000000000
% 7e0000000000000000000000000000000000000000000000003000
% 000000000000300000000000000000000000000000000000000000000000008001000000000000
% 060000000000000000000000000000000000000000000000003000
% 000000000000300000000000000000000000000000000000000000000000008001000000000000
% 0600000000000000000000000000000000000000000000000030c0
% 000000000000300000000000000000000000000000000000000000000000008001000000000000
% 060000000000000000000000000000000000000000000000003080
% 000000000000300000000000000000000000000000000000000000000000008001000000000000
% 060000000000000000000000000000000000000000000000003000
% 000000000000300000000000000000000000000000000000000000000000008001000000000000
% 060000000000000000000000000000000000000000000000003000
% 000000000000f00700000000000000000000000000000000000000000000008001000000000000
% 7e0000000000000000000000000000000000000000000000003000
% 000000000000300000000000000000000000000000000000000000000000008001000000000000
% 060000000000000000000000000000000000000000000000003000
% 000000000000300000000000000000000000000000000000000000000000008001000000000000
% 060000000000000000000000000000000000000000000000003000
% 000000000000300002000000000000200000000000000001000000000000108001000000000000
% 060000000000000020000000000000000002000000000000003040
% 000000006000300002000000000000200000000000000001000000000000108001000000006000
% 060000000000000020000000000000000002000000000000003000
% 000000009000300002000000000000200000000000000001000000000000108001000000009000
% 060000000000000020000000000000000002000000000000003000
% 000000000801f00702000000000000200000000000000001000000000000108001000000000801
% 7e0000000000000020000000000000000002000000000000003000
% 000000000801300002200002200002200002300003300001100001100001108001000000000801
% 0600080018001000200040008000000100020006000c00180030c0
% 000000000801300002200002200002200002300003300001100001100001108001000000000801
% 0600080018001000200040008000000100020006000c00180030c0
% 000000000801300002200002200002200002300003300001100001100001108001000000000801
% 0600080018001000200040008000000100020006000c0018003000
% 000000000801300002200002200002200002300003300001100001100001108001000000000801
% 0600080018001000200040008000000100020006000c0018003000
% 000000000801f0ffffffffffffffffffffffffffffffffffffffffffffffffff01000000000801
% feffffffffffffffffffffffffffffffffffffffffffffffff3f00
% 000000009000e0ffffffffffffffffffffffffffffffffffffffffffffffffff01000000009000
% fcffffffffffffffffffffffffffffffffffffffffffffffff1f00
% 00000000f00000000000000000000000000000000000000000000000000000000000000000f000
% 000000000000000000000000000000000000000000000000000000
% 000000000000000000000000000000000000000000000000000000000000000000000000000000
% 000000000000000000000000000000000000000000000000000000
% 000000000000000000000000000000000000000000000000000000000000000000000000000000
% 000000000000000000000000000000000000000000000000000000
% 000000000000000000000000000000000000000000000000000000000000000000000000000000
% 000000000000000000000000000000000000000000000000000000
% 000000000000000000000000000000000000000000000001000000000000100000000000000000
% 000000000000000000000000000000000010000000000000000040
% 00000000000000000c000000000000f00300000000000081010000000000107e00000000000000
% 1800000000000000e001000000000000001800000000000000e000
% 00000000000000001200000000000010000000000000e0410200000000001e0200000000000000
% 2400000000000000300300000000000000180000000000000090c0
% 000000000000000021000000000000100000000000000021040000000000100200000000000000
% 420000000000000010020000000000000014000000000000000801
% 000000000000000021000000000000100000000000000021040000000000100200000000000000
% 420000000000000010020000000000000012000000000000000800
% 000000000000000021000000000000f00100000000000021040000000000103e00000000000000
% 42000000000000000003000000000000001200000000000000e800
% 000000000000000021000000000000100300000000000021040000000000106200000000000000
% 420000000000000080010000000000000011000000000000009801
% 000000000000000021000000000000000200000000000021040000000000104000000000000000
% 42000000000000006000000000000000807f000000000000000801
% 000000000000000021000000000000080200000000000021040000000000104100000000000000
% 420000000000000030000000000000000010000000000000000801
% 000000000000000012000000000000100300000000000041020000000000106200000000000000
% 240000000000000010000000000000000010000000000000009801
% 00000000000000001e000000000000f001000000000000c1030000000000103e00000000000000
% 3c00000000000000f803000000000000001000000000000000f000
% 000000000000000000000000000000000000000000000000000000000000000000000000000000
% 000000000000000000000000000000000000000000000000000000
% 000000000000000000000000000000000000000000000000000000000000000000000000000000
% 000000000000000000000000000000000000000000000000000000
% 000000000000000000000000000000000000000000000000000000000000000000000000000000
% 000000000000000000000000000000000000000000000000000000
% 000000000000000000000000000000000000000000000000000000000000000000000000000000
% 000000000000000000000000000000000000000000000000000000
% 000000000000000000000000000000000000000000000000000000000000000000000000000000
% 000000000000000000000000000000000000000000000000000000
% 000000000000000000000000000000000000000000000000000000000000000000000000000000
% 0000000000000000000000000000000000000000000000000000c0
% 000000000000000000000000000000000000000000000000000000000020fe0100000000000000
% 000000000000000000000000000000000000000000000000000040
% 000000000000000000000000000000000000000000000000000000000020020300000000000000
% 000000000000000000000000000000000000000000000000000000
% 000000000000000000000000000000000000000000000000000000000020020200000000000000
% 000000000000000000000000000000000000000000000000000000
% 00000000000000000000000000000000000000000000000000a0718c3120020600000000000000
% 000000000000000000000000000000000000000000000000000000
% 0000000000000000000000000000000000000000000000000060888c3120020400000000000000
% 000000000000000000000000000000000000000000000000000000
% 000000000000000000000000000000000000000000000000002004c91320020400000000000000
% 000000000000000000000000000000000000000000000000000000
% 000000000000000000000000000000000000000000000000002004d91b20020400000000000000
% 000000000000000000000000000000000000400000000000f10f00
% 000000000000000000000000000000000000000000000000002004591a20020400000000000000
% 000000000000000000000000000000000000400000000000111800
% 000000000000000000000000000000000000000000000000002004510a20020600000000000000
% 000000000000000000000000000000000000400000000000111000
% 000000000000000000000000000000000000000000000000002004710e20020200000000000000
% 00000000000000000000000000000000000040780cc3a301113000
% 000000000000000000000000000000000000000000000000002088700e20020300000000000000
% 000000000000000000000000000000000000408c08616600112000
% 000000000000000000000000000000000000000000000000002070300c20fe0100000000000000
% 000000000000000000000000000000000000408408312c00112000
% 000000000000000000000000000000000000000000000000000000000000000000000000000000
% 00000000000000000000000000000000000040c098312c00112000
% 000000000000000000000000000000000000000000000000000000000000000000000000000000
% 00000000000000000000000000000000000040f890f02f00112000
% 000000000000000000000000000000000000000000000000000000000000000000000000000000
% 000000000000000000000000000000000000408c90302000113000
% 000000000000000000000000000000000000000000000000000000000000000000000000000000
% 0000000000000000000000000000000000004084f0302c00111000
% 000000000000000000000000000000000000000000000000000000000000000000000000000000
% 00000000000000000000000000000000000040c460602400111800
% 000000000000000000000000000000000000000000000000000000000000000000000000000000
% 00000000000000000000000000000000000040bc61c02300f10f00
% 000000000000000000000000000000000000000000000000000000000000000000000000000000
% 000000000000000000000000000000000000000060000000000000
% 000000000000000000000000000000000000000000000000000000000000000000000000000000
% 000000000000000000000000000000000000000030000000000000
% 000000000000000000000000000000000000000000000000000000000000000000000000000000
% 000000000000000000000000000000000000000018000000000000
% 000000000000000000000000000000000000000000000000000000000000000000000000000000
% 000000000000000000000000000000000000000000000000000000
% 000000000000000000000000000000000000000000000000000000000000000000000000000000
% 000000000000000000000000000000000000000000000000000000
% 000000000000000000000000000000000000000000000000000000000000000000000000000000
% 000000000000000000000000000000000000000000000000000000
% 000000000000000000000000000000000000000000000000000000000000000000000000000000
% 000000000000000000000000000000000000000000000000000000
% 000000000000000000000000000000000000000000000000000000000000000000000000000000
% 000000000000000000000000000000000000000000000000000000
% 000000000000000000000000000000000000000000000000000000000000000000000000000000
% 000000000000000000000000000000000000000000000000000000
% 000000000000000000000000000000000000000000000000000000000000000000000000000000
% 000000000000000000000000000000000000000000000000000000
%%EndPreview
save

userdict /IslandDrawDict 300 dict dup begin put

/bdef	{bind def} bind def
/E	{exch} bdef
/FF	{findfont} bdef
/MF	{makefont} bdef
/RO	{rotate} bdef
/SC	{scale} bdef
/SF	{setfont} bdef
/SG	{setgray} bdef
/TR	{translate} bdef
/bp	{lj lw rgb} bdef
/bpbw	{lj lw setgray} bdef
/c	{curveto} bdef
/cr	{currentpoint} bdef
/cl	{closepath} bdef
/fi	{eofill} bdef
/g	{setgray} bdef
/gr	{grestore} bdef
/gs	{gsave} bdef
/l	{lineto} bdef
/lj	{setlinejoin} bdef
/lw	{setlinewidth} bdef
/m	{moveto} bdef
/n	{newpath} bdef
/nx	{/x E def} bdef
/r	{rmoveto} bdef
/rl	{rlineto} bdef
/rgb	{setrgbcolor} bdef
/s	{show} bdef
/sd	{setdash} bdef
/sp	{x 0 rmoveto} bdef
/ss	{currentpoint pop E m} bdef
/st	{stroke} bdef
%% pattern stuff
/BPSIDE	32 def	%% pixels per pattern side
/PATFREQ 3.0 def	%% pattern pixels per mm
/dp_mat [PATFREQ 0 0 PATFREQ 0 0] def
/dp_pw	BPSIDE def	%% pattern pixel width
/dp_ph	BPSIDE def	%% pattern pixel height
/dp_w	dp_pw PATFREQ div def	%% pattern mm width
/dp_h	dp_ph PATFREQ div def	%% pattern mm height
/savemat matrix def
/topmat matrix def
/patmat matrix def

%%	catch nocurrentpoint error for:		pathbbox
/ncpoint errordict /nocurrentpoint get def
errordict begin
/nocurrentpoint	{
	dup /pathbbox load eq
	{pop 0 0 1 1}
	{ncpoint}
	ifelse
} bdef
end
/ar	{ %% sa ea sx sy rot tx ty
	matrix currentmatrix 8 1 roll TR RO SC
	n 0 0 1 5 3 roll arc setmatrix
} bdef
/arn	{ %% sa ea sx sy rot tx ty
 TR RO SC
	matrix currentmatrix 8 1 roll
	n 0 0 1 5 3 roll arcn setmatrix
} bdef
/el	{ %% sx sy rot tx ty
	matrix currentmatrix 6 1 roll TR RO SC
	n 0 0 1 0 360 arc setmatrix cl
} bdef
/image_raster	{ %% sw sh sdd dw dh xs ys
	TR SC /sdd E def /sh E def /sw E def
	/imagebuf sw sdd mul 7 add 8 idiv string def
	sw sh sdd [sw 0 0 sh 0 0] { currentfile imagebuf readhexstring pop}
	image
} bdef
/imagemask_raster	{
	TR SC /sh E def /sw E def
	/imagebuf sw 7 add 8 idiv string def
	sw sh false [sw 0 0 sh 0 0]
	{currentfile imagebuf readhexstring pop}
	imagemask
} bdef
/dither_color_raster    { % bool sw sh sdd dw dh xs ys
	TR SC /sdd E def /sh E def /sw E def
	sdd 8 eq and
	{
	  /imagebuf 3 string def
	  /grayval 1 string def
	  sw sh sdd [sw 0 0 sh 0 0]
	  {
	    currentfile imagebuf readhexstring pop pop
	    imagebuf 0 get 0.299 mul
	    imagebuf 1 get 0.587 mul add
	    imagebuf 2 get 0.114 mul add cvi grayval exch 0 exch put grayval
	  }
	  image
	}
	{
	  /imagebuf sw 3 mul sdd mul 7 add 8 idiv string def
	  sh { currentfile imagebuf readhexstring pop pop } repeat
	} ifelse
} bdef
/image_color_raster	{ % bool sw sh sdd dw dh xs ys
	/colorimage where not
	{ dither_color_raster }
	{
	  pop
	  TR SC /sdd E def /sh E def /sw E def pop
	  /imagebuf sw 3 mul sdd mul 7 add 8 idiv string def
	  sw sh sdd [sw 0 0 sh 0 0] { currentfile imagebuf readhexstring pop}
	  false 3 colorimage
	} ifelse
} bdef
/patpath	{
	/inv E def
	topmat setmatrix
	pathbbox	%% get lo - hi indecies
	/hy E dp_h div floor cvi def
	/hx E dp_w div floor cvi def
	/ly E dp_h div floor cvi def
	/lx E dp_w div floor cvi def
	lx 1 hx	{
	    dp_w mul
	    ly 1 hy {
		dp_h mul
		E dup 3 1 roll E
		patmat currentmatrix pop
		TR
		dp_pw dp_ph inv
		dp_mat dp_proc imagemask
		patmat setmatrix
	    } for
	    pop
	} for
} bdef
% setpattern brush of patterns instead of gray
/setpattern	{
	/blue E def /green E def /red E def
	/freq E def /bwidth E def /bpside E def
	/bstring E def
	/onbits 0 def /offbits 0 def
	freq 0 {/y E def /x E def
		/xindex x 1 add 2 div bpside mul cvi def
		/yindex y 1 add 2 div bpside mul cvi def
		bstring yindex bwidth mul xindex 8 idiv add get not
		1 7 xindex 8 mod sub bitshift and 0 ne
		{/onbits onbits 1 add def 1}
		{/offbits offbits 1 add def 0}
		ifelse
	} setscreen {} settransfer
	systemdict /setcmykcolor known
	{ /fact 1 onbits offbits onbits add div sub def
	1 red sub fact mul 1 green sub fact mul 1 blue sub fact mul 0
		setcmykcolor
	}
	{ offbits offbits onbits add div setgray}
	ifelse
} bdef
/dmatrix matrix def
/dpi 72 0 dmatrix defaultmatrix dtransform
	dup mul E dup mul add sqrt
def

/B	{gs bp st gr} bdef %% brush: gr lw lj
/Bbw	{gs bpbw st gr} bdef %% brush: gr lw lj
/F	{gs rgb eofill gr} bdef %% fill: gr
/Fbw	{gs setgray eofill gr} bdef %% fill: gr
/PB	{gs lj lw setpattern st gr} bdef
/PF	{gs eoclip patpath gr} bdef
/BB	{gs rgb lj lw strokepath clip patpath gr} bdef
/xdef {exch def} bdef
/clip_region {
  /ht xdef
  /wd xdef
  /bm xdef
  /lm xdef
  newpath
      lm bm moveto
      0 ht rlineto
      wd 0 rlineto
      0 ht neg rlineto
  closepath clip
} bdef
%! Island text prolog Version 3.1
%%
/reencode_small_dict 12 dict def
/ReencodeSmall {
reencode_small_dict begin
/new_codes_and_names exch def
/new_font_name exch def
/base_font_name exch def
/base_font_dict base_font_name findfont def
/newfont base_font_dict maxlength dict def
base_font_dict {
exch dup /FID ne
{ dup /Encoding eq
{ exch dup length array copy newfont 3 1 roll put }
{ exch newfont 3 1 roll put }
ifelse
}
{ pop pop }
ifelse
} forall
newfont /FontName new_font_name put
base_font_dict /Encoding get StandardEncoding eq
new_codes_and_names extended_Standard ne or
{
new_codes_and_names aload pop
new_codes_and_names length 2 idiv
{ newfont /Encoding get 3 1 roll put }
repeat
}
if
new_font_name newfont definefont pop
end     %reencode_small_dict
} def
/extended_Zapf [
8#223 /a89
8#224 /a90
8#225 /a93
8#226 /a94
8#227 /a91
8#230 /a92
8#231 /a205
8#232 /a85
8#233 /a206
8#234 /a86
8#235 /a87
8#236 /a88
8#237 /a95
8#240 /a96
] def
/extended_Standard [
29 /thorn
30 /yacute
31 /divide
128 /Acircumflex
129 /Adieresis
130 /Agrave
131 /Aring
132 /Atilde
133 /Ccedilla
134 /Eacute
135 /Ecircumflex
136 /Edieresis
137 /Egrave
138 /Iacute
139 /Icircumflex
140 /Idieresis
141 /Igrave
142 /Ntilde
143 /Oacute
144 /Ocircumflex
145 /Odieresis
146 /Ograve
147 /Otilde
148 /Scaron
149 /Uacute
150 /Ucircumflex
151 /Udieresis
152 /Ugrave
153 /Ydieresis
154 /Zcaron
155 /aacute
156 /acircumflex
157 /adieresis
158 /agrave
159 /aring
160 /atilde
161 /exclamdown
162 /cent
163 /sterling
164 /fraction
165 /yen
166 /florin
167 /section
168 /currency
169 /quotesingle
170 /quotedblleft
171 /guillemotleft
172 /guilsinglleft
173 /guilsinglright
174 /fi
175 /fl
176 /plusminus
177 /endash
178 /dagger
179 /daggerdbl
180 /periodcentered
181 /twosuperior
182 /paragraph
183 /bullet
184 /quotesinglbase
185 /quotedblbase
186 /quotedblright
187 /guillemotright
188 /ellipsis
189 /perthousand
190 /threesuperior
191 /questiondown
192 /mu
193 /grave
194 /acute
195 /circumflex
196 /tilde
197 /macron
198 /breve
199 /dotaccent
200 /dieresis
201 /onesuperior
202 /ring
203 /cedilla
204 /onequarter
205 /hungarumlaut
206 /ogonek
207 /caron
208 /emdash
209 /ccedilla
210 /copyright
211 /eacute
212 /ecircumflex
213 /edieresis
214 /egrave
215 /iacute
216 /icircumflex
217 /idieresis
218 /igrave
219 /logicalnot
220 /minus
221 /ntilde
222 /oacute
223 /ocircumflex
224 /odieresis
225 /AE
226 /onehalf
227 /ordfeminine
228 /ograve
229 /otilde
230 /registered
231 /scaron
232 /Lslash
233 /Oslash
234 /OE
235 /ordmasculine
236 /trademark
237 /uacute
238 /ucircumflex
239 /udieresis
240 /ugrave
241 /ae
242 /ydieresis
243 /zcaron
244 /Aacute
245 /dotlessi
246 /threequarters
247 /Eth
248 /lslash
249 /oslash
250 /oe
251 /germandbls
252 /multiply
253 /Yacute
254 /Thorn
255 /eth
] def
/extended_Symbol [
] def
/extend_font {  % stack: fontname newfontname
exch dup (ZapfDingbats) eq
{ cvn exch cvn extended_Zapf ReencodeSmall }
{ dup (Symbol) eq
{ cvn exch cvn extended_Symbol ReencodeSmall }
{ cvn exch cvn extended_Standard ReencodeSmall }
ifelse
}
ifelse
} bind def
/extend_font_name { % stack: font_name_string
dup length 1 add string /extended_font_name exch def
extended_font_name 0 (_) putinterval
extended_font_name 1 3 -1 roll putinterval
extended_font_name
} bind def
/findjpnfont {
  userdict /JFontSubs known {JFontSubs}{false} ifelse {
   dup JFontSubsDict
   dup 4 -1 roll known {exch get}{pop}ifelse findfont
  }{
   findfont
  } ifelse
} bind def
/gf {
  /f E def f cvn currentdict E known
  { currentdict begin f cvn load exec SF end }
  {
    f dup dup length 1 sub 1 getinterval (I) eq
    {
     f dup length 1 sub 0 E getinterval /f E def
     /ita 0.21256 def
    }{
     /ita 0 def
    } ifelse
    f dup length 5 sub 1 getinterval (0) ne
    {
	 /xsz f f length 5 sub 5 getinterval cvi def
	 /ysz f f length 10 sub 5 getinterval cvi def
	 f dup length 2 sub 0 E getinterval /f E def
    }{
	 /xsz f f length 4 sub 4 getinterval cvi def
	 /ysz f f length 8 sub 4 getinterval cvi def
    } ifelse
    f 0 f

    length 8 sub getinterval
    false [(-H)(-V)(.Hankaku)]{
     dup length dup 8 add f length exch sub dup 0 gt
     {f exch 3 -1 roll getinterval eq {pop true exit} if}
     {pop pop pop} ifelse
    } forall
    {
            cvn findjpnfont
    }{
            (LocalFont) extend_font /LocalFont FF
    } ifelse
    /ita xsz ita mul def
    [ xsz 0 ita ysz neg 0 0 ] MF dup
    SF E cvn E def
  } ifelse
}bind def
/ul { % space drop thickness
gs currentpoint currentlinewidth 
currentpoint n m 6 -3 roll 
lw 0 exch r
0 rl st lw m
gr 
} bind def
/nxtab { currentpoint pop 1000.0 mul cvi tab mod
	tab exch sub 1000.0 div 0 rmoveto } bind def
/nx { /x exch def } bind def
0. nx
%%EndFixedProlog
[ statusdict /product get (Grime) search not
true and
 userdict begin /JFontSubs exch def end cleartomark
userdict begin
/JFontSubsDict 19 dict dup begin
 /HiraginoMin-W3-H /Ryumin-Light-H def
 /HiraginoMin-W3-V /Ryumin-Light-V def
 /HiraginoMin-W3.Hankaku /Ryumin-Light.Hankaku def
 /HiraginoMin-W5-H /FutoMinA101-Bold-H def
 /HiraginoMin-W5-V /FutoMinA101-Bold-V def
 /HiraginoMin-W5.Hankaku /FutoMinA101-Bold.Hankaku def
 /HiraginoMin-W8-H /FutoMinA101-Bold-H def
 /HiraginoMin-W8-V /FutoMinA101-Bold-V def
 /HiraginoMin-W8.Hankaku /FutoMinA101-Bold.Hankaku def
 /KyogokuKaku-W3-H /GothicBBB-Medium-H def
 /KyogokuKaku-W3-V /GothicBBB-Medium-V def
 /KyogokuKaku-W3.Hankaku /GothicBBB-Medium.Hankaku def
 /KyogokuKaku-W5-H /FutoGoB101-Bold-H def
 /KyogokuKaku-W5-V /FutoGoB101-Bold-V def
 /KyogokuKaku-W5.Hankaku /FutoGoB101-Bold.Hankaku def
 /FunaokaMaru-W3-H /Jun101-Light-H def
 /FunaokaMaru-W3-V /Jun101-Light-V def
 /FunaokaMaru-W3.Hankaku /Jun101-Light.Hankaku def
end def end
gsave
2.83465 -2.83465 scale 0 -210 translate
topmat currentmatrix pop
gsave
n 162.99 37.762 m 162.99 -30.853 l
231.61 -30.853 l
231.61 37.762 l
162.99 37.762 l
cl eoclip
n 74.712 125.96 m 74.712 57.341 l
143.33 57.341 l
143.33 125.96 l
74.712 125.96 l
cl gsave
0 0 0 0.088 0 B
grestore
grestore
gsave
n 74.712 125.96 m 74.712 57.341 l
143.33 57.341 l
143.33 125.96 l
74.712 125.96 l
cl eoclip
n 74.712 125.96 m 74.712 57.341 l
gsave
0 0 0 0.088 0 B
grestore
grestore
n 77.71 125.96 m 74.712 125.96 l
gsave
0 0 0 0.088 0 B
grestore
n 76.211 124.02 m 74.712 124.02 l
gsave
0 0 0 0.088 0 B
grestore
n 76.211 122.08 m 74.712 122.08 l
gsave
0 0 0 0.088 0 B
grestore
n 76.211 120.14 m 74.712 120.14 l
gsave
0 0 0 0.088 0 B
grestore
n 76.211 118.11 m 74.712 118.11 l
gsave
0 0 0 0.088 0 B
grestore
n 77.71 116.17 m 74.712 116.17 l
gsave
0 0 0 0.088 0 B
grestore
n 76.211 114.23 m 74.712 114.23 l
gsave
0 0 0 0.088 0 B
grestore
n 76.211 112.29 m 74.712 112.29 l
gsave
0 0 0 0.088 0 B
grestore
n 76.211 110.26 m 74.712 110.26 l
gsave
0 0 0 0.088 0 B
grestore
n 76.211 108.32 m 74.712 108.32 l
gsave
0 0 0 0.088 0 B
grestore
n 77.71 106.38 m 74.712 106.38 l
gsave
0 0 0 0.088 0 B
grestore
n 76.211 104.44 m 74.712 104.44 l
gsave
0 0 0 0.088 0 B
grestore
n 76.211 102.41 m 74.712 102.41 l
gsave
0 0 0 0.088 0 B
grestore
n 76.211 100.47 m 74.712 100.47 l
gsave
0 0 0 0.088 0 B
grestore
n 76.211 98.528 m 74.712 98.528 l
gsave
0 0 0 0.088 0 B
grestore
n 77.71 96.588 m 74.712 96.588 l
gsave
0 0 0 0.088 0 B
grestore
n 76.211 94.648 m 74.712 94.648 l
gsave
0 0 0 0.088 0 B
grestore
n 76.211 92.619 m 74.712 92.619 l
gsave
0 0 0 0.088 0 B
grestore
n 76.211 90.679 m 74.712 90.679 l
gsave
0 0 0 0.088 0 B
grestore
n 76.211 88.739 m 74.712 88.739 l
gsave
0 0 0 0.088 0 B
grestore
n 77.71 86.798 m 74.712 86.798 l
gsave
0 0 0 0.088 0 B
grestore
n 76.211 84.77 m 74.712 84.77 l
gsave
0 0 0 0.088 0 B
grestore
n 76.211 82.83 m 74.712 82.83 l
gsave
0 0 0 0.088 0 B
grestore
n 76.211 80.889 m 74.712 80.889 l
gsave
0 0 0 0.088 0 B
grestore
n 76.211 78.949 m 74.712 78.949 l
gsave
0 0 0 0.088 0 B
grestore
n 77.71 76.92 m 74.712 76.92 l
gsave
0 0 0 0.088 0 B
grestore
n 76.211 74.98 m 74.712 74.98 l
gsave
0 0 0 0.088 0 B
grestore
n 76.211 73.04 m 74.712 73.04 l
gsave
0 0 0 0.088 0 B
grestore
n 76.211 71.1 m 74.712 71.1 l
gsave
0 0 0 0.088 0 B
grestore
n 76.211 69.159 m 74.712 69.159 l
gsave
0 0 0 0.088 0 B
grestore
n 77.71 67.131 m 74.712 67.131 l
gsave
0 0 0 0.088 0 B
grestore
n 76.211 65.191 m 74.712 65.191 l
gsave
0 0 0 0.088 0 B
grestore
n 76.211 63.25 m 74.712 63.25 l
gsave
0 0 0 0.088 0 B
grestore
n 76.211 61.31 m 74.712 61.31 l
gsave
0 0 0 0.088 0 B
grestore
n 76.211 59.282 m 74.712 59.282 l
gsave
0 0 0 0.088 0 B
grestore
n 77.71 57.341 m 74.712 57.341 l
gsave
0 0 0 0.088 0 B
grestore
n savemat currentmatrix pop [1 0 0 1 68.253 126.927] concat
25.4 1440 div 1.000000 mul dup scale 0 0 m
/tab 283.00 1000.0 mul cvi def

0 0 m 0 ss  (Helvetica02800280) gf 
0.00 0.00 0.00 rgb  (0) s 
savemat setmatrix
n savemat currentmatrix pop [1 0 0 1 68.253 117.137] concat
25.4 1440 div 1.000000 mul dup scale 0 0 m
/tab 283.00 1000.0 mul cvi def

0 0 m 0 ss  (Helvetica02800280) gf 
0.00 0.00 0.00 rgb  (5) s 
savemat setmatrix
n savemat currentmatrix pop [1 0 0 1 66.798 107.348] concat
25.4 1440 div 1.000000 mul dup scale 0 0 m
/tab 283.00 1000.0 mul cvi def

0 0 m 0 ss  (Helvetica02800280) gf 
0.00 0.00 0.00 rgb  (10) s 
savemat setmatrix
n savemat currentmatrix pop [1 0 0 1 66.798 97.558] concat
25.4 1440 div 1.000000 mul dup scale 0 0 m
/tab 283.00 1000.0 mul cvi def

0 0 m 0 ss  (Helvetica02800280) gf 
0.00 0.00 0.00 rgb  (15) s 
savemat setmatrix
n savemat currentmatrix pop [1 0 0 1 66.798 87.768] concat
25.4 1440 div 1.000000 mul dup scale 0 0 m
/tab 283.00 1000.0 mul cvi def

0 0 m 0 ss  (Helvetica02800280) gf 
0.00 0.00 0.00 rgb  (20) s 
savemat setmatrix
n savemat currentmatrix pop [1 0 0 1 66.798 77.979] concat
25.4 1440 div 1.000000 mul dup scale 0 0 m
/tab 283.00 1000.0 mul cvi def

0 0 m 0 ss  (Helvetica02800280) gf 
0.00 0.00 0.00 rgb  (25) s 
savemat setmatrix
n savemat currentmatrix pop [1 0 0 1 66.798 68.101] concat
25.4 1440 div 1.000000 mul dup scale 0 0 m
/tab 283.00 1000.0 mul cvi def

0 0 m 0 ss  (Helvetica02800280) gf 
0.00 0.00 0.00 rgb  (30) s 
savemat setmatrix
n savemat currentmatrix pop [1 0 0 1 66.798 58.311] concat
25.4 1440 div 1.000000 mul dup scale 0 0 m
/tab 283.00 1000.0 mul cvi def

0 0 m 0 ss  (Helvetica02800280) gf 
0.00 0.00 0.00 rgb  (35) s 
savemat setmatrix
n 74.712 125.96 m 143.33 125.96 l
gsave
0 0 0 0.088 0 B
grestore
n 78.769 123.05 m 78.769 125.96 l
gsave
0 0 0 0.088 0 B
grestore
n 82.826 124.55 m 82.826 125.96 l
gsave
0 0 0 0.088 0 B
grestore
n 86.882 124.55 m 86.882 125.96 l
gsave
0 0 0 0.088 0 B
grestore
n 90.851 124.55 m 90.851 125.96 l
gsave
0 0 0 0.088 0 B
grestore
n 94.908 124.55 m 94.908 125.96 l
gsave
0 0 0 0.088 0 B
grestore
n 98.965 123.05 m 98.965 125.96 l
gsave
0 0 0 0.088 0 B
grestore
n 103.02 124.55 m 103.02 125.96 l
gsave
0 0 0 0.088 0 B
grestore
n 106.99 124.55 m 106.99 125.96 l
gsave
0 0 0 0.088 0 B
grestore
n 111.05 124.55 m 111.05 125.96 l
gsave
0 0 0 0.088 0 B
grestore
n 115.1 124.55 m 115.1 125.96 l
gsave
0 0 0 0.088 0 B
grestore
n 119.16 123.05 m 119.16 125.96 l
gsave
0 0 0 0.088 0 B
grestore
n 123.22 124.55 m 123.22 125.96 l
gsave
0 0 0 0.088 0 B
grestore
n 127.19 124.55 m 127.19 125.96 l
gsave
0 0 0 0.088 0 B
grestore
n 131.24 124.55 m 131.24 125.96 l
gsave
0 0 0 0.088 0 B
grestore
n 135.3 124.55 m 135.3 125.96 l
gsave
0 0 0 0.088 0 B
grestore
n 139.36 123.05 m 139.36 125.96 l
gsave
0 0 0 0.088 0 B
grestore
n 78.769 123.05 m 78.769 125.96 l
gsave
0 0 0 0.088 0 B
grestore
n 139.36 123.05 m 139.36 125.96 l
gsave
0 0 0 0.088 0 B
grestore
n 143.33 124.55 m 143.33 125.96 l
gsave
0 0 0 0.088 0 B
grestore
n savemat currentmatrix pop [1 0 0 1 78.041 131.722] concat
25.4 1440 div 1.000000 mul dup scale 0 0 m
/tab 283.00 1000.0 mul cvi def

0 0 m 0 ss  (Helvetica02800280) gf 
0.00 0.00 0.00 rgb  (0) s 
savemat setmatrix
n savemat currentmatrix pop [1 0 0 1 98.238 131.722] concat
25.4 1440 div 1.000000 mul dup scale 0 0 m
/tab 283.00 1000.0 mul cvi def

0 0 m 0 ss  (Helvetica02800280) gf 
0.00 0.00 0.00 rgb  (5) s 
savemat setmatrix
n savemat currentmatrix pop [1 0 0 1 117.706 131.722] concat
25.4 1440 div 1.000000 mul dup scale 0 0 m
/tab 283.00 1000.0 mul cvi def

0 0 m 0 ss  (Helvetica02800280) gf 
0.00 0.00 0.00 rgb  (10) s 
savemat setmatrix
n savemat currentmatrix pop [1 0 0 1 137.903 131.722] concat
25.4 1440 div 1.000000 mul dup scale 0 0 m
/tab 283.00 1000.0 mul cvi def

0 0 m 0 ss  (Helvetica02800280) gf 
0.00 0.00 0.00 rgb  (15) s 
savemat setmatrix
gsave
n 55.133 145.62 m 55.133 -50.52 l
251.19 -50.52 l
251.19 145.62 l
55.133 145.62 l
cl eoclip
gsave
n 74.712 125.96 m 74.712 57.341 l
143.33 57.341 l
143.33 125.96 l
74.712 125.96 l
cl eoclip
n savemat currentmatrix pop [1 0 0 1 100.937 141.655] concat
25.4 1440 div 1.000000 mul dup scale 0 0 m
/tab 283.00 1000.0 mul cvi def

0 0 m 0 ss  (Times-Bold03200320) gf 
0.00 0.00 0.00 rgb  (Barrel) s 
savemat setmatrix
grestore
grestore
gsave
n 74.712 125.96 m 74.712 57.341 l
143.33 57.341 l
143.33 125.96 l
74.712 125.96 l
cl eoclip
n 80.753 88.298 m 80.753 87.202 79.865 86.313 78.769 86.313 c
77.673 86.313 76.784 87.202 76.784 88.298 c
76.784 89.393 77.673 90.282 78.769 90.282 c
79.865 90.282 80.753 89.393 80.753 88.298 c
0 0 0 F
gsave
0 0 0 0 0 B
grestore
n 84.81 104.44 m 84.81 103.34 83.921 102.45 82.826 102.45 c
81.73 102.45 80.841 103.34 80.841 104.44 c
80.841 105.53 81.73 106.42 82.826 106.42 c
83.921 106.42 84.81 105.53 84.81 104.44 c
0 0 0 F
gsave
0 0 0 0 0 B
grestore
n 88.867 104.79 m 88.867 103.69 87.978 102.81 86.882 102.81 c
85.787 102.81 84.898 103.69 84.898 104.79 c
84.898 105.89 85.787 106.77 86.882 106.77 c
87.978 106.77 88.867 105.89 88.867 104.79 c
0 0 0 F
gsave
0 0 0 0 0 B
grestore
n 92.836 100.47 m 92.836 99.372 91.947 98.484 90.851 98.484 c
89.755 98.484 88.867 99.372 88.867 100.47 c
88.867 101.56 89.755 102.45 90.851 102.45 c
91.947 102.45 92.836 101.56 92.836 100.47 c
0 0 0 F
gsave
0 0 0 0 0 B
grestore
n 96.893 86.71 m 96.893 85.614 96.004 84.726 94.908 84.726 c
93.812 84.726 92.924 85.614 92.924 86.71 c
92.924 87.806 93.812 88.694 94.908 88.694 c
96.004 88.694 96.893 87.806 96.893 86.71 c
0 0 0 F
gsave
0 0 0 0 0 B
grestore
n 100.95 98.087 m 100.95 96.991 100.06 96.103 98.965 96.103 c
97.869 96.103 96.981 96.991 96.981 98.087 c
96.981 99.183 97.869 100.07 98.965 100.07 c
100.06 100.07 100.95 99.183 100.95 98.087 c
0 0 0 F
gsave
0 0 0 0 0 B
grestore
n 105.01 94.648 m 105.01 93.552 104.12 92.663 103.02 92.663 c
101.93 92.663 101.04 93.552 101.04 94.648 c
101.04 95.743 101.93 96.632 103.02 96.632 c
104.12 96.632 105.01 95.743 105.01 94.648 c
0 0 0 F
gsave
0 0 0 0 0 B
grestore
n 108.98 88.562 m 108.98 87.466 108.09 86.578 106.99 86.578 c
105.9 86.578 105.01 87.466 105.01 88.562 c
105.01 89.658 105.9 90.547 106.99 90.547 c
108.09 90.547 108.98 89.658 108.98 88.562 c
0 0 0 F
gsave
0 0 0 0 0 B
grestore
n 113.03 103.38 m 113.03 102.28 112.14 101.39 111.05 101.39 c
109.95 101.39 109.06 102.28 109.06 103.38 c
109.06 104.48 109.95 105.36 111.05 105.36 c
112.14 105.36 113.03 104.48 113.03 103.38 c
0 0 0 F
gsave
0 0 0 0 0 B
grestore
n 117.09 106.99 m 117.09 105.9 116.2 105.01 115.1 105.01 c
114.01 105.01 113.12 105.9 113.12 106.99 c
113.12 108.09 114.01 108.98 115.1 108.98 c
116.2 108.98 117.09 108.09 117.09 106.99 c
0 0 0 F
gsave
0 0 0 0 0 B
grestore
n 121.15 104.17 m 121.15 103.08 120.26 102.19 119.16 102.19 c
118.07 102.19 117.18 103.08 117.18 104.17 c
117.18 105.27 118.07 106.16 119.16 106.16 c
120.26 106.16 121.15 105.27 121.15 104.17 c
0 0 0 F
gsave
0 0 0 0 0 B
grestore
n 125.2 104.35 m 125.2 103.25 124.31 102.36 123.22 102.36 c
122.12 102.36 121.23 103.25 121.23 104.35 c
121.23 105.44 122.12 106.33 123.22 106.33 c
124.31 106.33 125.2 105.44 125.2 104.35 c
0 0 0 F
gsave
0 0 0 0 0 B
grestore
n 129.17 105.41 m 129.17 104.31 128.28 103.42 127.19 103.42 c
126.09 103.42 125.2 104.31 125.2 105.41 c
125.2 106.5 126.09 107.39 127.19 107.39 c
128.28 107.39 129.17 106.5 129.17 105.41 c
0 0 0 F
gsave
0 0 0 0 0 B
grestore
n 133.23 105.32 m 133.23 104.22 132.34 103.33 131.24 103.33 c
130.15 103.33 129.26 104.22 129.26 105.32 c
129.26 106.42 130.15 107.3 131.24 107.3 c
132.34 107.3 133.23 106.42 133.23 105.32 c
0 0 0 F
gsave
0 0 0 0 0 B
grestore
n 137.29 105.67 m 137.29 104.58 136.4 103.69 135.3 103.69 c
134.2 103.69 133.32 104.58 133.32 105.67 c
133.32 106.77 134.2 107.66 135.3 107.66 c
136.4 107.66 137.29 106.77 137.29 105.67 c
0 0 0 F
gsave
0 0 0 0 0 B
grestore
n 141.34 106.73 m 141.34 105.63 140.45 104.75 139.36 104.75 c
138.26 104.75 137.37 105.63 137.37 106.73 c
137.37 107.83 138.26 108.72 139.36 108.72 c
140.45 108.72 141.34 107.83 141.34 106.73 c
0 0 0 F
gsave
0 0 0 0 0 B
grestore
grestore
n savemat currentmatrix pop [1 0 0 1 125.707 137.775] concat
25.4 1440 div 1.000000 mul dup scale 0 0 m
/tab 283.00 1000.0 mul cvi def

0 0 m 0 ss  (Helvetica03200320) gf 
0.00 0.00 0.00 rgb  (row ID) s 
savemat setmatrix
n 74.587 125.81 m
143.33 125.81 l
143.33 57.288 l
74.587 57.288 l
cl
gsave
0 0 0 0.176 0 B
grestore
n 117.72 115.25 m
120.75 114.24 l
120.75 116.26 l
cl
0 0 0 F
n 141.31 115.25 m
138.28 116.26 l
138.28 114.24 l
cl
0 0 0 F
n 120.75 115.25 m
138.28 115.25 l
gsave
0 0 0 0.176 0 B
grestore
n 112.11 115.03 m
109.08 116.04 l
109.08 114.02 l
cl
0 0 0 F
n 96.154 115.03 m
99.182 114.02 l
99.182 116.04 l
cl
0 0 0 F
n 109.08 115.03 m
99.182 115.03 l
gsave
0 0 0 0.176 0 B
grestore
n 96.154 115.03 m
93.126 116.04 l
93.126 114.02 l
cl
0 0 0 F
n 80.877 115.03 m
83.905 114.02 l
83.905 116.04 l
cl
0 0 0 F
n 93.126 115.03 m
83.905 115.03 l
gsave
0 0 0 0.176 0 B
grestore
n 79.305 84.697 m
79.916 81.564 l
81.674 82.557 l
cl
0 0 0 F
n 80.795 82.061 m
85.146 74.362 l
gsave
0 0 0 0.176 0 B
grestore
n 115.03 103.12 m
115.28 99.937 l
117.14 100.73 l
cl
0 0 0 F
n 116.21 100.33 m
121.32 88.291 l
gsave
0 0 0 0.176 0 B
grestore
n savemat currentmatrix pop [1 0 0 1 85.82 74.362] concat
25.4 1440 div 1.000000 mul dup scale 0 0 m
/tab 283.00 1000.0 mul cvi def

0 0 m 0 ss  (Helvetica02000200) gf 
0.00 0.00 0.00 rgb  (n=1.028) s 
savemat setmatrix
n savemat currentmatrix pop [1 0 0 1 121.541 86.269] concat
25.4 1440 div 1.000000 mul dup scale 0 0 m
/tab 283.00 1000.0 mul cvi def

0 0 m 0 ss  (Helvetica02000200) gf 
0.00 0.00 0.00 rgb  (n=1.013) s 
savemat setmatrix
n savemat currentmatrix pop [1 0 0 1 121.99 119.968] concat
25.4 1440 div 1.000000 mul dup scale 0 0 m
/tab 283.00 1000.0 mul cvi def

0 0 m 0 ss  (Helvetica02000200) gf 
0.00 0.00 0.00 rgb  (n=1.010) s 
savemat setmatrix
n savemat currentmatrix pop [1 0 0 1 97.502 119.968] concat
25.4 1440 div 1.000000 mul dup scale 0 0 m
/tab 283.00 1000.0 mul cvi def

0 0 m 0 ss  (Helvetica02000200) gf 
0.00 0.00 0.00 rgb  (n=1.015) s 
savemat setmatrix
n savemat currentmatrix pop [1 0 0 1 81.327 120.193] concat
25.4 1440 div 1.000000 mul dup scale 0 0 m
/tab 283.00 1000.0 mul cvi def

0 0 m 0 ss  (Helvetica02000200) gf 
0.00 0.00 0.00 rgb  (n=1.020) s 
savemat setmatrix
n savemat currentmatrix pop [1 0 0 1 107.837 65.825] concat
25.4 1440 div 1.000000 mul dup scale 0 0 m
/tab 283.00 1000.0 mul cvi def

0 0 m 0 ss  (Helvetica03200320) gf 
0.00 0.00 0.00 rgb  (Barrel ACC) s 
savemat setmatrix
n savemat currentmatrix pop [0 -1 1 0 62.244 74.894] concat
25.4 1440 div 1.000000 mul dup scale 0 0 m
/tab 283.00 1000.0 mul cvi def

0 0 m 0 ss  (Helvetica03200320) gf 
0.00 0.00 0.00 rgb  (<Npe>) s 
savemat setmatrix
gsave
n 74.712 125.96 m 74.712 57.341 l
143.33 57.341 l
143.33 125.96 l
74.712 125.96 l
cl eoclip
n 162.99 125.96 m 162.99 57.341 l
231.61 57.341 l
231.61 125.96 l
162.99 125.96 l
cl gsave
0 0 0 0.088 0 B
grestore
grestore
gsave
n 162.99 125.96 m 162.99 57.341 l
231.61 57.341 l
231.61 125.96 l
162.99 125.96 l
cl eoclip
n 162.99 125.96 m 162.99 57.341 l
gsave
0 0 0 0.088 0 B
grestore
grestore
n 165.91 125.96 m 162.99 125.96 l
gsave
0 0 0 0.088 0 B
grestore
n 164.41 124.02 m 162.99 124.02 l
gsave
0 0 0 0.088 0 B
grestore
n 164.41 122.08 m 162.99 122.08 l
gsave
0 0 0 0.088 0 B
grestore
n 164.41 120.14 m 162.99 120.14 l
gsave
0 0 0 0.088 0 B
grestore
n 164.41 118.11 m 162.99 118.11 l
gsave
0 0 0 0.088 0 B
grestore
n 165.91 116.17 m 162.99 116.17 l
gsave
0 0 0 0.088 0 B
grestore
n 164.41 114.23 m 162.99 114.23 l
gsave
0 0 0 0.088 0 B
grestore
n 164.41 112.29 m 162.99 112.29 l
gsave
0 0 0 0.088 0 B
grestore
n 164.41 110.26 m 162.99 110.26 l
gsave
0 0 0 0.088 0 B
grestore
n 164.41 108.32 m 162.99 108.32 l
gsave
0 0 0 0.088 0 B
grestore
n 165.91 106.38 m 162.99 106.38 l
gsave
0 0 0 0.088 0 B
grestore
n 164.41 104.44 m 162.99 104.44 l
gsave
0 0 0 0.088 0 B
grestore
n 164.41 102.41 m 162.99 102.41 l
gsave
0 0 0 0.088 0 B
grestore
n 164.41 100.47 m 162.99 100.47 l
gsave
0 0 0 0.088 0 B
grestore
n 164.41 98.528 m 162.99 98.528 l
gsave
0 0 0 0.088 0 B
grestore
n 165.91 96.588 m 162.99 96.588 l
gsave
0 0 0 0.088 0 B
grestore
n 164.41 94.648 m 162.99 94.648 l
gsave
0 0 0 0.088 0 B
grestore
n 164.41 92.619 m 162.99 92.619 l
gsave
0 0 0 0.088 0 B
grestore
n 164.41 90.679 m 162.99 90.679 l
gsave
0 0 0 0.088 0 B
grestore
n 164.41 88.739 m 162.99 88.739 l
gsave
0 0 0 0.088 0 B
grestore
n 165.91 86.798 m 162.99 86.798 l
gsave
0 0 0 0.088 0 B
grestore
n 164.41 84.77 m 162.99 84.77 l
gsave
0 0 0 0.088 0 B
grestore
n 164.41 82.83 m 162.99 82.83 l
gsave
0 0 0 0.088 0 B
grestore
n 164.41 80.889 m 162.99 80.889 l
gsave
0 0 0 0.088 0 B
grestore
n 164.41 78.949 m 162.99 78.949 l
gsave
0 0 0 0.088 0 B
grestore
n 165.91 76.92 m 162.99 76.92 l
gsave
0 0 0 0.088 0 B
grestore
n 164.41 74.98 m 162.99 74.98 l
gsave
0 0 0 0.088 0 B
grestore
n 164.41 73.04 m 162.99 73.04 l
gsave
0 0 0 0.088 0 B
grestore
n 164.41 71.1 m 162.99 71.1 l
gsave
0 0 0 0.088 0 B
grestore
n 164.41 69.159 m 162.99 69.159 l
gsave
0 0 0 0.088 0 B
grestore
n 165.91 67.131 m 162.99 67.131 l
gsave
0 0 0 0.088 0 B
grestore
n 164.41 65.191 m 162.99 65.191 l
gsave
0 0 0 0.088 0 B
grestore
n 164.41 63.25 m 162.99 63.25 l
gsave
0 0 0 0.088 0 B
grestore
n 164.41 61.31 m 162.99 61.31 l
gsave
0 0 0 0.088 0 B
grestore
n 164.41 59.282 m 162.99 59.282 l
gsave
0 0 0 0.088 0 B
grestore
n 165.91 57.341 m 162.99 57.341 l
gsave
0 0 0 0.088 0 B
grestore
n savemat currentmatrix pop [1 0 0 1 157.57 126.927] concat
25.4 1440 div 1.000000 mul dup scale 0 0 m
/tab 283.00 1000.0 mul cvi def

0 0 m 0 ss  (Helvetica02800280) gf 
0.00 0.00 0.00 rgb  (0) s 
savemat setmatrix
n savemat currentmatrix pop [1 0 0 1 157.57 117.137] concat
25.4 1440 div 1.000000 mul dup scale 0 0 m
/tab 283.00 1000.0 mul cvi def

0 0 m 0 ss  (Helvetica02800280) gf 
0.00 0.00 0.00 rgb  (5) s 
savemat setmatrix
n savemat currentmatrix pop [1 0 0 1 156.115 107.348] concat
25.4 1440 div 1.000000 mul dup scale 0 0 m
/tab 283.00 1000.0 mul cvi def

0 0 m 0 ss  (Helvetica02800280) gf 
0.00 0.00 0.00 rgb  (10) s 
savemat setmatrix
n savemat currentmatrix pop [1 0 0 1 156.115 97.558] concat
25.4 1440 div 1.000000 mul dup scale 0 0 m
/tab 283.00 1000.0 mul cvi def

0 0 m 0 ss  (Helvetica02800280) gf 
0.00 0.00 0.00 rgb  (15) s 
savemat setmatrix
n savemat currentmatrix pop [1 0 0 1 156.115 87.768] concat
25.4 1440 div 1.000000 mul dup scale 0 0 m
/tab 283.00 1000.0 mul cvi def

0 0 m 0 ss  (Helvetica02800280) gf 
0.00 0.00 0.00 rgb  (20) s 
savemat setmatrix
n savemat currentmatrix pop [1 0 0 1 156.115 77.979] concat
25.4 1440 div 1.000000 mul dup scale 0 0 m
/tab 283.00 1000.0 mul cvi def

0 0 m 0 ss  (Helvetica02800280) gf 
0.00 0.00 0.00 rgb  (25) s 
savemat setmatrix
n savemat currentmatrix pop [1 0 0 1 156.115 68.101] concat
25.4 1440 div 1.000000 mul dup scale 0 0 m
/tab 283.00 1000.0 mul cvi def

0 0 m 0 ss  (Helvetica02800280) gf 
0.00 0.00 0.00 rgb  (30) s 
savemat setmatrix
n savemat currentmatrix pop [1 0 0 1 156.115 58.311] concat
25.4 1440 div 1.000000 mul dup scale 0 0 m
/tab 283.00 1000.0 mul cvi def

0 0 m 0 ss  (Helvetica02800280) gf 
0.00 0.00 0.00 rgb  (35) s 
savemat setmatrix
n 162.99 125.96 m 231.61 125.96 l
gsave
0 0 0 0.088 0 B
grestore
n 162.99 123.05 m 162.99 125.96 l
gsave
0 0 0 0.088 0 B
grestore
n 168.73 124.55 m 168.73 125.96 l
gsave
0 0 0 0.088 0 B
grestore
n 174.37 124.55 m 174.37 125.96 l
gsave
0 0 0 0.088 0 B
grestore
n 180.1 124.55 m 180.1 125.96 l
gsave
0 0 0 0.088 0 B
grestore
n 185.84 123.05 m 185.84 125.96 l
gsave
0 0 0 0.088 0 B
grestore
n 191.57 124.55 m 191.57 125.96 l
gsave
0 0 0 0.088 0 B
grestore
n 197.3 124.55 m 197.3 125.96 l
gsave
0 0 0 0.088 0 B
grestore
n 203.03 124.55 m 203.03 125.96 l
gsave
0 0 0 0.088 0 B
grestore
n 208.68 123.05 m 208.68 125.96 l
gsave
0 0 0 0.088 0 B
grestore
n 214.41 124.55 m 214.41 125.96 l
gsave
0 0 0 0.088 0 B
grestore
n 220.14 124.55 m 220.14 125.96 l
gsave
0 0 0 0.088 0 B
grestore
n 225.88 124.55 m 225.88 125.96 l
gsave
0 0 0 0.088 0 B
grestore
n 231.61 123.05 m 231.61 125.96 l
gsave
0 0 0 0.088 0 B
grestore
n savemat currentmatrix pop [1 0 0 1 162.267 131.722] concat
25.4 1440 div 1.000000 mul dup scale 0 0 m
/tab 283.00 1000.0 mul cvi def

0 0 m 0 ss  (Helvetica02800280) gf 
0.00 0.00 0.00 rgb  (0) s 
savemat setmatrix
n savemat currentmatrix pop [1 0 0 1 185.109 131.722] concat
25.4 1440 div 1.000000 mul dup scale 0 0 m
/tab 283.00 1000.0 mul cvi def

0 0 m 0 ss  (Helvetica02800280) gf 
0.00 0.00 0.00 rgb  (2) s 
savemat setmatrix
n savemat currentmatrix pop [1 0 0 1 207.951 131.722] concat
25.4 1440 div 1.000000 mul dup scale 0 0 m
/tab 283.00 1000.0 mul cvi def

0 0 m 0 ss  (Helvetica02800280) gf 
0.00 0.00 0.00 rgb  (4) s 
savemat setmatrix
n savemat currentmatrix pop [1 0 0 1 230.882 131.722] concat
25.4 1440 div 1.000000 mul dup scale 0 0 m
/tab 283.00 1000.0 mul cvi def

0 0 m 0 ss  (Helvetica02800280) gf 
0.00 0.00 0.00 rgb  (6) s 
savemat setmatrix
gsave
n 55.133 145.62 m 55.133 -50.52 l
251.19 -50.52 l
251.19 145.62 l
55.133 145.62 l
cl eoclip
gsave
n 162.99 125.96 m 162.99 57.341 l
231.61 57.341 l
231.61 125.96 l
162.99 125.96 l
cl eoclip
n savemat currentmatrix pop [1 0 0 1 187.759 141.655] concat
25.4 1440 div 1.000000 mul dup scale 0 0 m
/tab 283.00 1000.0 mul cvi def

0 0 m 0 ss  (Times-Bold03200320) gf 
0.00 0.00 0.00 rgb  (Endcap) s 
savemat setmatrix
grestore
grestore
gsave
n 162.99 125.96 m 162.99 57.341 l
231.61 57.341 l
231.61 125.96 l
162.99 125.96 l
cl eoclip
n 176.36 77.097 m 176.36 76.001 175.47 75.113 174.37 75.113 c
173.27 75.113 172.39 76.001 172.39 77.097 c
172.39 78.193 173.27 79.081 174.37 79.081 c
175.47 79.081 176.36 78.193 176.36 77.097 c
0 0 0 F
gsave
0 0 0 0 0 B
grestore
n 187.82 76.391 m 187.82 75.295 186.93 74.407 185.84 74.407 c
184.74 74.407 183.85 75.295 183.85 76.391 c
183.85 77.487 184.74 78.376 185.84 78.376 c
186.93 78.376 187.82 77.487 187.82 76.391 c
0 0 0 F
gsave
0 0 0 0 0 B
grestore
n 199.29 70.835 m 199.29 69.739 198.4 68.851 197.3 68.851 c
196.21 68.851 195.32 69.739 195.32 70.835 c
195.32 71.931 196.21 72.819 197.3 72.819 c
198.4 72.819 199.29 71.931 199.29 70.835 c
0 0 0 F
gsave
0 0 0 0 0 B
grestore
n 210.66 72.334 m 210.66 71.238 209.77 70.35 208.68 70.35 c
207.58 70.35 206.69 71.238 206.69 72.334 c
206.69 73.43 207.58 74.319 208.68 74.319 c
209.77 74.319 210.66 73.43 210.66 72.334 c
0 0 0 F
gsave
0 0 0 0 0 B
grestore
n 222.13 68.366 m 222.13 67.27 221.24 66.381 220.14 66.381 c
219.05 66.381 218.16 67.27 218.16 68.366 c
218.16 69.462 219.05 70.35 220.14 70.35 c
221.24 70.35 222.13 69.462 222.13 68.366 c
0 0 0 F
gsave
0 0 0 0 0 B
grestore
grestore
n 162.88 125.81 m
231.62 125.81 l
231.62 57.288 l
162.88 57.288 l
cl
gsave
0 0 0 0.176 0 B
grestore
n savemat currentmatrix pop [1 0 0 1 190.961 107.837] concat
25.4 1440 div 1.000000 mul dup scale 0 0 m
/tab 283.00 1000.0 mul cvi def

0 0 m 0 ss  (Helvetica03200320) gf 
0.00 0.00 0.00 rgb  (Endcap ACC) s 
0 0 m 447 ss  (Helvetica03200320) gf 
0.00 0.00 0.00 rgb  (n=1.030) s 
savemat setmatrix
n savemat currentmatrix pop [0 -1 1 0 152.897 75.907] concat
25.4 1440 div 1.000000 mul dup scale 0 0 m
/tab 283.00 1000.0 mul cvi def

0 0 m 0 ss  (Helvetica03200320) gf 
0.00 0.00 0.00 rgb  (<Npe>) s 
savemat setmatrix
n savemat currentmatrix pop [1 0 0 1 212.99 139.687] concat
25.4 1440 div 1.000000 mul dup scale 0 0 m
/tab 283.00 1000.0 mul cvi def

0 0 m 0 ss  (Helvetica03200320) gf 
0.00 0.00 0.00 rgb  (layer ID) s 
savemat setmatrix
n savemat currentmatrix pop [1 0 0 1 79.9788 64.2526] concat
25.4 1440 div 1.000000 mul dup scale 0 0 m
/tab 283.00 1000.0 mul cvi def

0 0 m 0 ss  (Helvetica04000400) gf 
0.00 0.00 0.00 rgb  (a\)) s 
savemat setmatrix
n savemat currentmatrix pop [1 0 0 1 170.292 64.702] concat
25.4 1440 div 1.000000 mul dup scale 0 0 m
/tab 283.00 1000.0 mul cvi def

0 0 m 0 ss  (Helvetica04000400) gf 
0.00 0.00 0.00 rgb  (b\)) s 
savemat setmatrix
userdict /#copies 1 put
grestore

%%Trailer
%%DocumentNeededResources: font Helvetica Times-Bold
%%DocumentSuppliedResources: 
end
restore

%%EOF

