%!PS-Adobe-2.0 EPSF-2.0
%%BoundingBox: 0 0 567 567
%%Title: dstar_momdep.eps
%%Creator: HIGZ Version 1.23/07
%%CreationDate: :0/11/20   21.12
%%EndComments
%%BeginProlog
80 dict begin
/s {stroke} def /l {lineto} def /m {moveto} def /t {translate} def
/sw {stringwidth} def /r {rotate} def /rl {roll}  def /R {repeat} def
/d {rlineto} def /rm {rmoveto} def /gr {grestore} def /f {eofill} def
/c {setrgbcolor} def /lw {setlinewidth} def /sd {setdash} def
/cl {closepath} def /sf {scalefont setfont} def /black {0 setgray} def
/box {m dup 0 exch d exch 0 d 0 exch neg d cl} def
/NC{systemdict begin initclip end}def/C{NC box clip newpath}def
/bl {box s} def /bf {box f} def /Y { 0 exch d} def /X { 0 d} def 
/mp {newpath /y exch def /x exch def} def
/side {[w .77 mul w .23 mul] .385 w mul sd w 0 l currentpoint t -144 r} def
/mr {mp x y w2 0 360 arc} def /m24 {mr s} def /m20 {mr f} def
/mb {mp x y w2 add m w2 neg 0 d 0 w neg d w 0 d 0 w d cl} def
/mt {mp x y w2 add m w2 neg w neg d w 0 d cl} def
/m21 {mb f} def /m25 {mb s} def /m22 {mt f} def /m26 {mt s} def
/m23 {mp x y w2 sub m w2 w d w neg 0 d cl f} def
/m27 {mp x y w2 add m w3 neg w2 neg d w3 w2 neg d w3  w2 d cl s} def
/m28 {mp x w2 sub y w2 sub w3 add m w3 0 d 0 w3 neg d w3 0 d 0 w3 d w3 0 d
 0 w3 d w3 neg 0 d 0 w3 d w3 neg 0 d
 0 w3 neg d w3 neg 0 d cl s } def
/m29 {mp gsave x w2 sub y w2 add w3 sub m currentpoint t
 4 {side} repeat cl fill gr} def
/m30 {mp gsave x w2 sub y w2 add w3 sub m currentpoint t
 5 {side} repeat s gr} def
/m31 {mp x y w2 sub m 0 w d x w2 sub y m w 0 d
 x w2 sub y w2 add m w w neg d x w2 sub y w2
 sub m w w d s} def
/m2 {mp x y w2 sub m 0 w d x w2 sub y m w 0 d s} def
/m5 {mp x w2 sub y w2 sub m w w d x w2 sub y w2 add m w w neg d s} def
/DP {/PT exch def gsave 47.2 47.2 scale PT 1  eq { 16 16 1 [ 16 0 0 16 neg 0 16
] { < AA AA 55 55 AA AA 55 55 AA AA 55 55 AA AA 55 55 AA AA 55 55 AA AA 55 55
AA AA 55 55 AA AA 55 55 > } image } if PT 2 eq { 16 16 1 [ 16 0 0 16 neg 0 16
] { < BB BB EE EE BB BB EE EE BB BB EE EE BB BB EE EE BB BB EE EE BB BB EE EE
BB BB EE EE BB BB EE EE > } image } if PT 3 eq { 16 16 1 [ 16 0 0 16 neg 0 16
] { < FF FF BB BB FF FF EE EE FF FF BB BB FF FF EE EE FF FF BB BB FF FF EE EE
FF FF BB BB FF FF EE EE > } image } if PT 4 eq { 16 16 1 [ 16 0 0 16 neg 0 16
] { < DF DF BF BF 7F 7F FE FE FD FD FB FB F7 F7 EF EF DF DF BF BF 7F 7F FE FE
FD FD FB FB F7 F7 EF EF > } image } if PT 5 eq { 16 16 1 [ 16 0 0 16 neg 0 16
] { < 7F 7F BF B F DF DF EF EF F7 F7 FB FB FD FD FE FE 7F 7F BF BF DF DF EF
EF F7 F7 FB FB FD FD FE FE > } image } if PT 6 eq { 16 16 1 [ 16 0 0 16 neg 0
16 ] { < BB BB BB BB BB BB BB BB BB BB BB BB BB BB BB BB BB BB BB BB BB BB BB
BB BB BB BB BB BB BB BB BB > } image } if PT 7 eq { 16 16 1 [ 16 0 0 16 neg 0
16 ] { < FF FF FF FF FF FF 00 00 FF FF FF FF FF FF 00 00 FF FF FF FF FF FF 00
00 FF FF FF FF FF FF 00 00 > } image } if PT 8 eq { 16 16 1 [ 16 0 0 16 neg 0
16 ] { < EE EE 47 47 83 83 C5 C5 EE EE 5C 5C 38 38 74 74 EE EE 47 47 83 83 C5
C5 EE EE 5C 5C 38 38 74 74 > } image } if PT 9 eq { 16 16 1 [ 16 0 0 16 neg 0
16 ] { < EF EF EF EF D7 D7 38 38 FE FE FE FE 7D 7D 83 83 EF EF EF EF D7 D7 38
38  FE FE FE FE 7D 7D 83 83 > } image } if PT 10 eq { 16 16 1 [ 16 0 0 16 neg
0 16 ] { <  EF EF EF EF EF EF 00 00 FE FE FE FE FE FE 00 00 EF EF EF EF EF EF
00 00 FE FE FE FE FE FE 00 00 > } image } if PT 11 eq { 16 16 1 [ 16 0 0 16
neg 0 16 ] { < F7 F7 B6 B6 D5 D5 E3 E3 D5 D5 B6 B6 F7 F7 FF FF 7F 7F 6B 6B 5D
5D 3E 3E 5D 5D 6B 6B 7F 7F FF FF > } image } if PT 12 eq { 16 16 1 [ 16 0 0
16 neg 0 16 ] { < E3 E3 DD DD BE BE BE BE BE BE DD DD E3 E3 FF FF 3E 3E DD DD
EB EB EB EB EB EB DD DD 3E 3E FF FF > } image } if PT 13 eq { 16 16 1 [ 16 0
0 16 neg 0 16 ] { <  FE FE 7D 7D BB BB D7 D7 EF EF D7 D7 BB BB 7D 7D FE FE 7D
7D BB BB D7 D7 EF EF D7 D7 BB BB 7D 7D > } image } if PT 14 eq { 16 16 1 [ 16
0 0 16 neg 0 16 ] { < 00 00 EE EF EE EF EE EF 0E E0 EE EE EE EE EE EE 00 EE
FE EE FE EE FE EE 00 00 FE EF FE EF FE EF > } image } if PT 15 eq { 16 16 1 [
16 0 0 16 neg 0 16 ] { < DD DD AA AA DD DD FF FF 77 77 AA AA 77 77 FF FF DD
DD AA AA DD DD FF FF 77 77 AA AA 77 77 FF FF > } image } if PT 16 eq { 16 16
1 [ 16 0 0 16 neg 0 16 ] { <  F1 F1 EE EE 1F 1F FF FF F1 F1 EE EE 1F 1F FF FF
F1 F1 EE EE 1F 1F FF FF F1 F1 EE EE 1F 1F FF FF > } image } if PT 17 eq { 16
16 1 [ 16 0 0 16 neg 0 16 ] { <  EE EE DD DD BB BB FF FF EE EE DD DD BB BB FF
 FF EE EE DD DD BB BB FF FF EE EE DD DD BB BB FF FF > } image } if PT 18 eq {
16 16 1 [ 16 0 0 16 neg 0 16 ] { <  BB BB DD DD EE EE FF FF BB BB DD DD EE EE
FF FF BB BB DD DD EE EE FF FF BB BB DD DD EE EE FF FF > } image } if PT 19 eq
{ 16 16 1 [ 16 0 0 16 neg 0 16 ] { < 1F FC 67 F3 7B EF BD DE BD DE DE BD E6
B3 F8 0F E6 B3 DE BD BD DE BD DE 7B EF 67 F3 1F FC 7F FF > } image } if PT
20 eq { 16 16 1 [ 16 0 0 16 neg 0 16 ] { < DD DD EE EE EE EE EE EE DD DD BB
BB BB BB BB BB DD DD EE EE EE EE EE EE DD DD BB BB BB BB BB BB > } image }
if PT 21 eq { 16 16 1 [ 16 0 0 16 neg 0 16 ] { < 0E 0E EF EF EF EF EF EF E0
E0 FE FE FE FE FE FE 0E 0E EF EF EF EF EF EF E0 E0 FE FE FE FE FE FE > }
image }  if PT 22 eq { 16 16 1 [ 16 0 0 16 neg 0 16 ] { < 70 70 F7 F7 F7 F7 F7
F7 07 07 7F 7F 7F 7F 7F 7F 70 70 F7 F7 F7 F7 F7 F7 07 07 7F 7F 7F 7F 7F 7F >
} image } if PT 23 eq  { 16 16 1 [ 16 0 0 16 neg 0 16 ] { < AA AA 55 55 A9 A9
D1 D1 E1 E1 D1 D1 A9 A9 55 55 AA AA 55 55 A9 A9 D1 D1 E1 E1 D1 D1 A9 A9 55 55
> } image } if PT 24 eq { 16 16 1 [ 16 0 0 16 neg 0 16 ] { < FF FE FF FC EA
A8 D5 54 EA A8 D5 54 E8 28 D4 54 E8 E8 D4 D4 E8 EA 54 D5 A8 EA 54 D5 00 C0 00
80 > } image } if PT 25 eq {  16 16 1 [ 16 0 0 16 neg 0 16 ] { < FF FE FF FC
FF F8 FF F0 F0 00 F0 00 F0 20 F0 60 F0 E0 F1 E0 F3 E0 F0 00 E0 00 C0 00 80 00
00 00 > } image } if gr } def /FA { /PT exch def gsave clip 0 0 translate 1 1
54 { 1 sub 47.2 mul /Xcurr exch def 1 1 74 { 1 sub 47.2 mul /Ycurr exch def
gsave Xcurr Ycurr translate PT DP gr } for } for gr newpath } def
/reencdict 24 dict def /ReEncode {reencdict begin /nco&na exch def
/nfnam exch def /basefontname exch def /basefontdict basefontname findfont def
/newfont basefontdict maxlength dict def basefontdict {exch dup /FID ne
{dup /Encoding eq {exch dup length array copy newfont 3 1 roll put} {exch
newfont 3 1 roll put} ifelse} {pop pop} ifelse } forall newfont
/FontName nfnam put nco&na aload pop nco&na length 2 idiv {newfont
/Encoding get 3 1 roll put} repeat nfnam newfont definefont pop end } def
/accvec [ 176 /agrave 181 /Agrave 190 /acircumflex 192 /Acircumflex
201 /adieresis 204 /Adieresis 209 /ccedilla 210 /Ccedilla 211 /eacute
212 /Eacute 213 /egrave 214 /Egrave 215 /ecircumflex 216 /Ecircumflex
217 /edieresis 218 /Edieresis 219 /icircumflex 220 /Icircumflex
221 /idieresis 222 /Idieresis 223 /ntilde 224 /Ntilde 226 /ocircumflex
228 /Ocircumflex 229 /odieresis 230 /Odieresis 231 /ucircumflex 236 /Ucircumflex
237 /udieresis 238 /Udieresis 239 /aring 242 /Aring 243 /ydieresis
244 /Ydieresis 246 /aacute 247 /Aacute 252 /ugrave 253 /Ugrave] def
/Times-Roman /Times-Roman accvec ReEncode
/Times-Italic /Times-Italic accvec ReEncode
/Times-Bold /Times-Bold accvec ReEncode
/Times-BoldItalic /Times-BoldItalic accvec ReEncode
/Helvetica /Helvetica accvec ReEncode
/Helvetica-Oblique /Helvetica-Oblique accvec ReEncode
/Helvetica-Bold /Helvetica-Bold accvec ReEncode
/Helvetica-BoldOblique /Helvetica-BoldOblique  accvec ReEncode
/Courier /Courier accvec ReEncode
/Courier-Oblique /Courier-Oblique accvec ReEncode
/Courier-Bold /Courier-Bold accvec ReEncode
/Courier-BoldOblique /Courier-BoldOblique accvec ReEncode
/oshow {gsave [] 0 sd true charpath stroke gr} def
/stwn { /fs exch def /fn exch def /text exch def fn findfont fs sf
 text sw pop xs add /xs exch def} def
/stwb { /fs exch def /fn exch def /nbas exch def /textf exch def
textf length /tlen exch def nbas tlen gt {/nbas tlen def} if
fn findfont fs sf textf dup length nbas sub nbas getinterval sw
pop neg xs add /xs exch def} def
/accspe [ 65 /plusminus 66 /bar 67 /existential 68 /universal
69 /exclam 70 /numbersign 71 /greater 72 /question 73 /integral
74 /colon 75 /semicolon 76 /less 77 /bracketleft 78 /bracketright
79 /greaterequal 80 /braceleft 81 /braceright 82 /radical
83 /spade 84 /heart 85 /diamond 86 /club 87 /lessequal
88 /multiply 89 /percent 90 /infinity 48 /circlemultiply 49 /circleplus
50 /emptyset 51 /lozenge 52 /bullet 53 /arrowright 54 /arrowup
55 /arrowleft 56 /arrowdown 57 /arrowboth 48 /degree 44 /comma 43 /plus
 45 /angle 42 /angleleft 47 /divide 61 /notequal 40 /equivalence 41 /second
 97 /approxequal 98 /congruent 99 /perpendicular 100 /partialdiff 101 /florin
 102 /intersection 103 /union 104 /propersuperset 105 /reflexsuperset
 106 /notsubset 107 /propersubset 108 /reflexsubset 109 /element 110 /notelement
 111 /gradient 112 /logicaland 113 /logicalor 114 /arrowdblboth
 115 /arrowdblleft 116 /arrowdblup 117 /arrowdblright 118 /arrowdbldown
 119 /ampersand 120 /omega1 121 /similar 122 /aleph ] def
/Symbol /Special accspe ReEncode
%%EndProlog
 gsave  .25 .25 scale  gsave 0 0 t black [] 0 sd 1 lw 1588 1588 340 340 bl 1588
 1588 340 340 C NC 340 340 m 1588 Y s 374 340 m -34 X s 357 372 m -17 X s 357
 404 m -17 X s 357 435 m -17 X s 357 467 m -17 X s 374 499 m -34 X s 357 531 m
 -17 X s 357 562 m -17 X s 357 594 m -17 X s 357 626 m -17 X s 374 658 m -34 X s
 357 689 m -17 X s 357 721 m -17 X s 357 753 m -17 X s 357 785 m -17 X s 374 816
 m -34 X s 357 848 m -17 X s 357 880 m -17 X s 357 912 m -17 X s 357 943 m -17 X
 s 374 975 m -34 X s 357 1007 m -17 X s 357 1039 m -17 X s 357 1070 m -17 X s
 357 1102 m -17 X s 374 1134 m -34 X s 357 1166 m -17 X s 357 1198 m -17 X s 357
 1229 m -17 X s 357 1261 m -17 X s 374 1293 m -34 X s 357 1325 m -17 X s 357
 1356 m -17 X s 357 1388 m -17 X s 357 1420 m -17 X s 374 1452 m -34 X s 357
 1483 m -17 X s 357 1515 m -17 X s 357 1547 m -17 X s 357 1579 m -17 X s 374
 1610 m -34 X s 357 1642 m -17 X s 357 1674 m -17 X s 357 1706 m -17 X s 357
 1737 m -17 X s 374 1769 m -34 X s 357 1801 m -17 X s 357 1833 m -17 X s 357
 1864 m -17 X s 357 1896 m -17 X s 374 1928 m -34 X s
 /xs 0 def 
(0)
 /Times-Italic     69 stwn 
 gsave  295 318
 t   0 r  xs neg 0 t 0 0 m
 /Times-Italic findfont   69 sf 0    0 m 
(0)
 show 
 gr 
 /xs 0 def 
(0.1)
 /Times-Italic     69 stwn 
 gsave  295 476
 t   0 r  xs neg 0 t 0 0 m
 /Times-Italic findfont   69 sf 0    0 m 
(0.1)
 show 
 gr 
 /xs 0 def 
(0.2)
 /Times-Italic     69 stwn 
 gsave  295 635
 t   0 r  xs neg 0 t 0 0 m
 /Times-Italic findfont   69 sf 0    0 m 
(0.2)
 show 
 gr 
 /xs 0 def 
(0.3)
 /Times-Italic     69 stwn 
 gsave  295 794
 t   0 r  xs neg 0 t 0 0 m
 /Times-Italic findfont   69 sf 0    0 m 
(0.3)
 show 
 gr 
 /xs 0 def 
(0.4)
 /Times-Italic     69 stwn 
 gsave  295 953
 t   0 r  xs neg 0 t 0 0 m
 /Times-Italic findfont   69 sf 0    0 m 
(0.4)
 show 
 gr 
 /xs 0 def 
(0.5)
 /Times-Italic     69 stwn 
 gsave  295 1111
 t   0 r  xs neg 0 t 0 0 m
 /Times-Italic findfont   69 sf 0    0 m 
(0.5)
 show 
 gr 
 /xs 0 def 
(0.6)
 /Times-Italic     69 stwn 
 gsave  295 1270
 t   0 r  xs neg 0 t 0 0 m
 /Times-Italic findfont   69 sf 0    0 m 
(0.6)
 show 
 gr 
 /xs 0 def 
(0.7)
 /Times-Italic     69 stwn 
 gsave  295 1429
 t   0 r  xs neg 0 t 0 0 m
 /Times-Italic findfont   69 sf 0    0 m 
(0.7)
 show 
 gr 
 /xs 0 def 
(0.8)
 /Times-Italic     69 stwn 
 gsave  295 1588
 t   0 r  xs neg 0 t 0 0 m
 /Times-Italic findfont   69 sf 0    0 m 
(0.8)
 show 
 gr 
 /xs 0 def 
(0.9)
 /Times-Italic     69 stwn 
 gsave  295 1746
 t   0 r  xs neg 0 t 0 0 m
 /Times-Italic findfont   69 sf 0    0 m 
(0.9)
 show 
 gr 
 /xs 0 def 
(1)
 /Times-Italic     69 stwn 
 gsave  295 1905
 t   0 r  xs neg 0 t 0 0 m
 /Times-Italic findfont   69 sf 0    0 m 
(1)
 show 
 gr  340 340 m 1588 X s 340 374 m -34 Y s 380 357 m -17 Y s 420 357 m -17 Y s
 459 357 m -17 Y s 499 357 m -17 Y s 539 374 m -34 Y s 578 357 m -17 Y s 618 357
 m -17 Y s 658 357 m -17 Y s 697 357 m -17 Y s 737 374 m -34 Y s 777 357 m -17 Y
 s 816 357 m -17 Y s 856 357 m -17 Y s 896 357 m -17 Y s 936 374 m -34 Y s 975
 357 m -17 Y s 1015 357 m -17 Y s 1055 357 m -17 Y s 1094 357 m -17 Y s 1134 374
 m -34 Y s 1174 357 m -17 Y s 1213 357 m -17 Y s 1253 357 m -17 Y s 1293 357 m
 -17 Y s 1332 374 m -34 Y s 1372 357 m -17 Y s 1412 357 m -17 Y s 1452 357 m -17
 Y s 1491 357 m -17 Y s 1531 374 m -34 Y s 1571 357 m -17 Y s 1610 357 m -17 Y s
 1650 357 m -17 Y s 1690 357 m -17 Y s 1729 374 m -34 Y s 1769 357 m -17 Y s
 1809 357 m -17 Y s 1848 357 m -17 Y s 1888 357 m -17 Y s 1928 374 m -34 Y s
 /xs 0 def 
(0)
 /Times-Italic     69 stwn 
 gsave  340 272
 t   0 r  xs 2 div neg 0 t 0 0 m
 /Times-Italic findfont   69 sf 0    0 m 
(0)
 show 
 gr 
 /xs 0 def 
(0.5)
 /Times-Italic     69 stwn 
 gsave  539 272
 t   0 r  xs 2 div neg 0 t 0 0 m
 /Times-Italic findfont   69 sf 0    0 m 
(0.5)
 show 
 gr 
 /xs 0 def 
(1)
 /Times-Italic     69 stwn 
 gsave  737 272
 t   0 r  xs 2 div neg 0 t 0 0 m
 /Times-Italic findfont   69 sf 0    0 m 
(1)
 show 
 gr 
 /xs 0 def 
(1.5)
 /Times-Italic     69 stwn 
 gsave  936 272
 t   0 r  xs 2 div neg 0 t 0 0 m
 /Times-Italic findfont   69 sf 0    0 m 
(1.5)
 show 
 gr 
 /xs 0 def 
(2)
 /Times-Italic     69 stwn 
 gsave  1134 272
 t   0 r  xs 2 div neg 0 t 0 0 m
 /Times-Italic findfont   69 sf 0    0 m 
(2)
 show 
 gr 
 /xs 0 def 
(2.5)
 /Times-Italic     69 stwn 
 gsave  1332 272
 t   0 r  xs 2 div neg 0 t 0 0 m
 /Times-Italic findfont   69 sf 0    0 m 
(2.5)
 show 
 gr 
 /xs 0 def 
(3)
 /Times-Italic     69 stwn 
 gsave  1531 272
 t   0 r  xs 2 div neg 0 t 0 0 m
 /Times-Italic findfont   69 sf 0    0 m 
(3)
 show 
 gr 
 /xs 0 def 
(3.5)
 /Times-Italic     69 stwn 
 gsave  1729 272
 t   0 r  xs 2 div neg 0 t 0 0 m
 /Times-Italic findfont   69 sf 0    0 m 
(3.5)
 show 
 gr 
 /xs 0 def 
(4)
 /Times-Italic     69 stwn 
 gsave  1928 272
 t   0 r  xs 2 div neg 0 t 0 0 m
 /Times-Italic findfont   69 sf 0    0 m 
(4)
 show 
 gr  1588 1588 340 340 C 558 1743 m 32 Y s 558 1797 m 32 Y s 1 0 0 c /w 23
 def /w2 {w 2 div} def /w3 {w 3 div} def 558 1786 m20 black 598 1734 m 24 Y s
 598 1780 m 25 Y s 1 0 0 c 598 1769 m20 black 638 1753 m 18 Y s 638 1794 m 18 Y
 s 1 0 0 c 638 1782 m20 black 678 1771 m 14 Y s 678 1807 m 14 Y s 1 0 0 c 678
 1796 m20 black 717 1709 m 16 Y s 717 1747 m 16 Y s 1 0 0 c 717 1736 m20 black
 757 1644 m 20 Y s 757 1687 m 20 Y s 1 0 0 c 757 1675 m20 black 797 1682 m 17 Y
 s 797 1722 m 18 Y s 1 0 0 c 797 1711 m20 black 836 1715 m 18 Y s 836 1755 m 18
 Y s 1 0 0 c 836 1744 m20 black 876 1605 m 27 Y s 876 1655 m 28 Y s 1 0 0 c 876
 1644 m20 black 916 1643 m 25 Y s 916 1691 m 26 Y s 1 0 0 c 916 1680 m20 black
 955 1675 m 25 Y s 955 1722 m 25 Y s 1 0 0 c 955 1711 m20 black 995 1617 m 28 Y
 s 995 1668 m 28 Y s 1 0 0 c 995 1656 m20 black 1035 1659 m 28 Y s 1035 1710 m
 28 Y s 1 0 0 c 1035 1699 m20 black 1074 1670 m 26 Y s 1074 1719 m 26 Y s 1 0 0
 c 1074 1707 m20 black 1114 1673 m 26 Y s 1114 1722 m 26 Y s 1 0 0 c 1114 1711
 m20 black 1154 1693 m 22 Y s 1154 1738 m 21 Y s 1 0 0 c 1154 1726 m20 black
 1194 1595 m 30 Y s 1194 1647 m 30 Y s 1 0 0 c 1194 1636 m20 black 1233 1636 m
 26 Y s 1233 1684 m 26 Y s 1 0 0 c 1233 1673 m20 black 1273 1548 m 31 Y s 1273
 1601 m 31 Y s 1 0 0 c 1273 1590 m20 black 1313 1697 m 20 Y s 1313 1740 m 21 Y s
 1 0 0 c 1313 1729 m20 black 1352 1607 m 27 Y s 1352 1657 m 28 Y s 1 0 0 c 1352
 1646 m20 black 1392 1691 m 24 Y s 1392 1737 m 24 Y s 1 0 0 c 1392 1726 m20
 black 1432 1658 m 26 Y s 1432 1707 m 27 Y s 1 0 0 c 1432 1696 m20 black 1471
 1578 m 31 Y s 1471 1632 m 31 Y s 1 0 0 c 1471 1621 m20 black 1511 1658 m 27 Y s
 1511 1708 m 27 Y s 1 0 0 c 1511 1697 m20 black 1551 1653 m 29 Y s 1551 1705 m
 30 Y s 1 0 0 c 1551 1694 m20 black 1590 1581 m 36 Y s 1590 1640 m 35 Y s 1 0 0
 c 1590 1628 m20 black 1630 1594 m 38 Y s 1630 1654 m 38 Y s 1 0 0 c 1630 1643
 m20 black 1670 1534 m 39 Y s 1670 1596 m 38 Y s 1 0 0 c 1670 1584 m20 black
 1710 1487 m 48 Y s 1710 1558 m 48 Y s 1 0 0 c 1710 1546 m20 black 1749 1673 m
 37 Y s 1749 1733 m 36 Y s 1 0 0 c 1749 1721 m20 black 1789 1556 m 49 Y s 1789
 1627 m 49 Y s 1 0 0 c 1789 1616 m20 black 1829 1549 m 53 Y s 1829 1625 m 53 Y s
 1 0 0 c 1829 1614 m20 black 1868 1373 m 77 Y s 1868 1472 m 77 Y s 1 0 0 c 1868
 1461 m20 black 1908 1485 m 73 Y s 1908 1581 m 73 Y s 1 0 0 c 1908 1569 m20
 black 1948 1337 m 99 Y s 1948 1459 m 100 Y s 1 0 0 c 1948 1448 m20 black 1987
 1503 m 96 Y s 1987 1622 m 96 Y s 1 0 0 c 1987 1610 m20 black 2027 1637 m 81 Y s
 2027 1741 m 81 Y s 1 0 0 c 2027 1729 m20 black 2067 1557 m 105 Y s 2067 1685 m
 105 Y s 1 0 0 c 2067 1674 m20 black 2106 1557 m 105 Y s 2106 1685 m 105 Y s 1 0
 0 c 2106 1674 m20 black 2146 1542 m 110 Y s 2146 1675 m 109 Y s 1 0 0 c 2146
 1663 m20 black 2186 1446 m 153 Y s 2186 1622 m 152 Y s 1 0 0 c 2186 1610 m20
 black 2225 1544 m 174 Y s 2225 1741 m 174 Y s 1 0 0 c 2225 1729 m20 black 2265
 1544 m 174 Y s 2265 1741 m 174 Y s 1 0 0 c 2265 1729 m20 black 2305 1187 m 333
 Y s 2305 1542 m 333 Y s 1 0 0 c 2305 1531 m20 0 0 1 c 558 356 m5 black 598 357
 m 2 Y s 598 382 m 2 Y s 0 0 1 c 598 371 m5 black 638 389 m 6 Y s 638 418 m 5 Y
 s 0 0 1 c 638 406 m5 black 678 428 m 9 Y s 678 459 m 9 Y s 0 0 1 c 678 448 m5
 black 717 437 m 11 Y s 717 471 m 10 Y s 0 0 1 c 717 459 m5 black 757 484 m 13 Y
 s 757 520 m 14 Y s 0 0 1 c 757 509 m5 black 797 435 m 10 Y s 797 467 m 11 Y s 0
 0 1 c 797 456 m5 black 836 468 m 13 Y s 836 504 m 13 Y s 0 0 1 c 836 492 m5
 black 876 433 m 11 Y s 876 467 m 12 Y s 0 0 1 c 876 456 m5 black 916 487 m 20 Y
 s 916 530 m 20 Y s 0 0 1 c 916 519 m5 black 955 435 m 17 Y s 955 475 m 17 Y s 0
 0 1 c 955 463 m5 black 995 413 m 14 Y s 995 450 m 14 Y s 0 0 1 c 995 439 m5
 black 1035 411 m 13 Y s 1035 447 m 13 Y s 0 0 1 c 1035 436 m5 black 1074 448 m
 20 Y s 1074 491 m 20 Y s 0 0 1 c 1074 480 m5 black 1114 450 m 19 Y s 1114 492 m
 19 Y s 0 0 1 c 1114 480 m5 black 1154 436 m 17 Y s 1154 476 m 17 Y s 0 0 1 c
 1154 464 m5 black 1194 420 m 15 Y s 1194 458 m 15 Y s 0 0 1 c 1194 447 m5 black
 1233 422 m 15 Y s 1233 460 m 14 Y s 0 0 1 c 1233 448 m5 black 1273 386 m 9 Y s
 1273 417 m 9 Y s 0 0 1 c 1273 406 m5 black 1313 455 m 18 Y s 1313 495 m 18 Y s
 0 0 1 c 1313 484 m5 black 1352 432 m 17 Y s 1352 471 m 17 Y s 0 0 1 c 1352 460
 m5 black 1392 443 m 17 Y s 1392 483 m 17 Y s 0 0 1 c 1392 471 m5 black 1432 432
 m 18 Y s 1432 473 m 17 Y s 0 0 1 c 1432 461 m5 black 1471 398 m 12 Y s 1471 433
 m 13 Y s 0 0 1 c 1471 422 m5 black 1511 412 m 21 Y s 1511 455 m 21 Y s 0 0 1 c
 1511 444 m5 black 1551 390 m 18 Y s 1551 430 m 18 Y s 0 0 1 c 1551 419 m5 black
 1590 398 m 19 Y s 1590 440 m 19 Y s 0 0 1 c 1590 428 m5 black 1630 414 m 26 Y s
 1630 463 m 27 Y s 0 0 1 c 1630 452 m5 black 1670 429 m 34 Y s 1670 485 m 34 Y s
 0 0 1 c 1670 474 m5 black 1710 411 m 29 Y s 1710 463 m 29 Y s 0 0 1 c 1710 451
 m5 black 1749 378 m 26 Y s 1749 426 m 25 Y s 0 0 1 c 1749 415 m5 black 1789 416
 m 45 Y s 1789 484 m 45 Y s 0 0 1 c 1789 473 m5 black 1829 376 m 35 Y s 1829 434
 m 34 Y s 0 0 1 c 1829 422 m5 black 1868 365 m 43 Y s 1868 431 m 43 Y s 0 0 1 c
 1868 420 m5 black 1908 415 m 78 Y s 1908 516 m 78 Y s 0 0 1 c 1908 504 m5 black
 1948 415 m 78 Y s 1948 516 m 78 Y s 0 0 1 c 1948 504 m5 black 1987 403 m 113 Y
 s 1987 538 m 113 Y s 0 0 1 c 1987 527 m5 black 2067 434 m 159 Y s 2067 616 m
 160 Y s 0 0 1 c 2067 605 m5 2268 2268 0 0 C 1588 1588 340 340 C 2268 2268 0 0 C
 black 587 1338 m -45 Y s 587 1338 m 19 X 7 -2 d 2 -2 d 2 -5 d -6 Y -2 -4 d -2
 -2 d -7 -3 d -19 X s 632 1338 m -45 Y s 650 1338 m -45 Y s 650 1338 m 15 X 6 -2
 d 5 -4 d 2 -5 d 2 -6 d -11 Y -2 -6 d -2 -5 d -5 -4 d -6 -2 d -15 X s 710 1347 m
 -4 -5 d -5 -6 d -4 -9 d -2 -10 d -9 Y 2 -11 d 4 -9 d 5 -6 d 4 -4 d s 725 1338 m
 -45 Y s 755 1338 m -30 -30 d s 736 1319 m 19 -26 d s 768 1347 m 5 -5 d 4 -6 d 4
 -9 d 3 -10 d -9 Y -3 -11 d -4 -9 d -4 -6 d -5 -4 d s 824 1338 m 40 -23 d -40
 -22 d s 915 1338 m -6 -2 d -4 -7 d -3 -10 d -7 Y 3 -11 d 4 -6 d 6 -2 d 5 X 6 2
 d 4 6 d 3 11 d 7 Y -3 10 d -4 7 d -6 2 d -5 X cl s 950 1297 m -2 -2 d 2 -2 d 2
 2 d -2 2 d cl s 995 1332 m -2 4 d -6 2 d -5 X -6 -2 d -5 -7 d -2 -10 d -11 Y 2
 -9 d 5 -4 d 6 -2 d 2 X 7 2 d 4 4 d 2 7 d 2 Y -2 6 d -4 5 d -7 2 d -2 X -6 -2 d
 -5 -5 d -2 -6 d s 1588 1588 340 340 C 2268 2268 0 0 C 1588 1588 340 340 C 2268
 2268 0 0 C 1 0 0 c /w 34 def /w2 {w 2 div} def /w3 {w 3 div} def 618 1134 m20
 black 695 1157 m -46 Y s 725 1157 m -30 -31 d s 706 1137 m 19 -26 d s 760 1129
 m 25 X 4 Y -2 4 d -2 2 d -4 3 d -7 X -4 -3 d -4 -4 d -2 -6 d -5 Y 2 -6 d 4 -5 d
 4 -2 d 7 X 4 2 d 4 5 d s 814 1157 m -5 X -4 -2 d -2 -7 d -37 Y s 796 1142 m 15
 X s 839 1157 m -4 X -4 -2 d -2 -7 d -37 Y s 822 1142 m 15 X s 850 1157 m 2 -2 d
 3 2 d -3 2 d -2 -2 d cl s 852 1142 m -31 Y s 893 1135 m -4 4 d -4 3 d -7 X -4
 -3 d -4 -4 d -2 -6 d -5 Y 2 -6 d 4 -5 d 4 -2 d 7 X 4 2 d 4 5 d s 906 1157 m 3
 -2 d 2 2 d -2 2 d -3 -2 d cl s 909 1142 m -31 Y s 924 1129 m 26 X 4 Y -3 4 d -2
 2 d -4 3 d -7 X -4 -3 d -4 -4 d -2 -6 d -5 Y 2 -6 d 4 -5 d 4 -2 d 7 X 4 2 d 5 5
 d s 965 1142 m -31 Y s 965 1133 m 6 6 d 5 3 d 6 X 4 -3 d 2 -6 d -22 Y s 1030
 1135 m -5 4 d -4 3 d -7 X -4 -3 d -4 -4 d -2 -6 d -5 Y 2 -6 d 4 -5 d 4 -2 d 7 X
 4 2 d 5 5 d s 1040 1142 m 13 -31 d s 1066 1142 m -13 -31 d -4 -8 d -4 -5 d -5
 -2 d -2 X s 1588 1588 340 340 C 2268 2268 0 0 C 1588 1588 340 340 C 2268 2268 0
 0 C 0 0 1 c 618 975 m5 black 706 983 m -9 -30 d s 716 983 m 2 -13 d 3 -11 d 2
 -6 d s 690 976 m 5 5 d 6 2 d 28 X s 777 998 m -5 X -4 -2 d -2 -7 d -36 Y s 760
 983 m 15 X s 814 983 m -30 Y s 814 976 m -5 5 d -4 2 d -7 X -4 -2 d -4 -5 d -2
 -6 d -4 Y 2 -7 d 4 -4 d 4 -2 d 7 X 4 2 d 5 4 d s 831 998 m -45 Y s 852 983 m
 -21 -22 d s 839 970 m 16 -17 d s 865 970 m 26 X 4 Y -2 4 d -2 3 d -4 2 d -7 X
 -4 -2 d -4 -5 d -3 -6 d -4 Y 3 -7 d 4 -4 d 4 -2 d 7 X 4 2 d 4 4 d s 928 983 m
 -30 Y s 928 970 m 2 6 d 4 5 d 5 2 d 6 X s 980 983 m -30 Y s 980 976 m -4 5 d -5
 2 d -6 X -5 -2 d -4 -5 d -2 -6 d -4 Y 2 -7 d 4 -4 d 5 -2 d 6 X 5 2 d 4 4 d s
 999 998 m -37 Y 2 -6 d 5 -2 d 4 X s 993 983 m 15 X s 1021 970 m 26 X 4 Y -2 4 d
 -3 3 d -4 2 d -6 X -5 -2 d -4 -5 d -2 -6 d -4 Y 2 -7 d 4 -4 d 5 -2 d 6 X 4 2 d
 5 4 d s 1588 1588 340 340 C 2268 2268 0 0 C
 /xs 0 def 
(P \(GeV/c\))
 /Times-Italic     69 stwn 
 gsave  1928 181
 t   0 r  xs neg 0 t 0 0 m
 /Times-Italic findfont   69 sf 0    0 m 
(P \(GeV/c\))
 show 
 gr 
 /xs 0 def 
(Efficiency)
 /Times-Italic     69 stwn 
 gsave  113 1928
 t  90 r  xs neg 0 t 0 0 m
 /Times-Italic findfont   69 sf 0    0 m 
(Efficiency)
 show 
 gr  1588 1588 340 340 C
 gr  gr 
showpage
end
%%EOF

