%!PS-Adobe-2.0 EPSF-2.0
%%BoundingBox: 0 0 567 567
%%Title: dstar_2d.eps
%%Creator: HIGZ Version 1.23/07
%%CreationDate: :0/11/20   20.58
%%EndComments
%%BeginProlog
80 dict begin
/s {stroke} def /l {lineto} def /m {moveto} def /t {translate} def
/sw {stringwidth} def /r {rotate} def /rl {roll}  def /R {repeat} def
/d {rlineto} def /rm {rmoveto} def /gr {grestore} def /f {eofill} def
/c {setrgbcolor} def /lw {setlinewidth} def /sd {setdash} def
/cl {closepath} def /sf {scalefont setfont} def /black {0 setgray} def
/box {m dup 0 exch d exch 0 d 0 exch neg d cl} def
/NC{systemdict begin initclip end}def/C{NC box clip newpath}def
/bl {box s} def /bf {box f} def /Y { 0 exch d} def /X { 0 d} def 
/mp {newpath /y exch def /x exch def} def
/side {[w .77 mul w .23 mul] .385 w mul sd w 0 l currentpoint t -144 r} def
/mr {mp x y w2 0 360 arc} def /m24 {mr s} def /m20 {mr f} def
/mb {mp x y w2 add m w2 neg 0 d 0 w neg d w 0 d 0 w d cl} def
/mt {mp x y w2 add m w2 neg w neg d w 0 d cl} def
/m21 {mb f} def /m25 {mb s} def /m22 {mt f} def /m26 {mt s} def
/m23 {mp x y w2 sub m w2 w d w neg 0 d cl f} def
/m27 {mp x y w2 add m w3 neg w2 neg d w3 w2 neg d w3  w2 d cl s} def
/m28 {mp x w2 sub y w2 sub w3 add m w3 0 d 0 w3 neg d w3 0 d 0 w3 d w3 0 d
 0 w3 d w3 neg 0 d 0 w3 d w3 neg 0 d
 0 w3 neg d w3 neg 0 d cl s } def
/m29 {mp gsave x w2 sub y w2 add w3 sub m currentpoint t
 4 {side} repeat cl fill gr} def
/m30 {mp gsave x w2 sub y w2 add w3 sub m currentpoint t
 5 {side} repeat s gr} def
/m31 {mp x y w2 sub m 0 w d x w2 sub y m w 0 d
 x w2 sub y w2 add m w w neg d x w2 sub y w2
 sub m w w d s} def
/m2 {mp x y w2 sub m 0 w d x w2 sub y m w 0 d s} def
/m5 {mp x w2 sub y w2 sub m w w d x w2 sub y w2 add m w w neg d s} def
/DP {/PT exch def gsave 47.2 47.2 scale PT 1  eq { 16 16 1 [ 16 0 0 16 neg 0 16
] { < AA AA 55 55 AA AA 55 55 AA AA 55 55 AA AA 55 55 AA AA 55 55 AA AA 55 55
AA AA 55 55 AA AA 55 55 > } image } if PT 2 eq { 16 16 1 [ 16 0 0 16 neg 0 16
] { < BB BB EE EE BB BB EE EE BB BB EE EE BB BB EE EE BB BB EE EE BB BB EE EE
BB BB EE EE BB BB EE EE > } image } if PT 3 eq { 16 16 1 [ 16 0 0 16 neg 0 16
] { < FF FF BB BB FF FF EE EE FF FF BB BB FF FF EE EE FF FF BB BB FF FF EE EE
FF FF BB BB FF FF EE EE > } image } if PT 4 eq { 16 16 1 [ 16 0 0 16 neg 0 16
] { < DF DF BF BF 7F 7F FE FE FD FD FB FB F7 F7 EF EF DF DF BF BF 7F 7F FE FE
FD FD FB FB F7 F7 EF EF > } image } if PT 5 eq { 16 16 1 [ 16 0 0 16 neg 0 16
] { < 7F 7F BF B F DF DF EF EF F7 F7 FB FB FD FD FE FE 7F 7F BF BF DF DF EF
EF F7 F7 FB FB FD FD FE FE > } image } if PT 6 eq { 16 16 1 [ 16 0 0 16 neg 0
16 ] { < BB BB BB BB BB BB BB BB BB BB BB BB BB BB BB BB BB BB BB BB BB BB BB
BB BB BB BB BB BB BB BB BB > } image } if PT 7 eq { 16 16 1 [ 16 0 0 16 neg 0
16 ] { < FF FF FF FF FF FF 00 00 FF FF FF FF FF FF 00 00 FF FF FF FF FF FF 00
00 FF FF FF FF FF FF 00 00 > } image } if PT 8 eq { 16 16 1 [ 16 0 0 16 neg 0
16 ] { < EE EE 47 47 83 83 C5 C5 EE EE 5C 5C 38 38 74 74 EE EE 47 47 83 83 C5
C5 EE EE 5C 5C 38 38 74 74 > } image } if PT 9 eq { 16 16 1 [ 16 0 0 16 neg 0
16 ] { < EF EF EF EF D7 D7 38 38 FE FE FE FE 7D 7D 83 83 EF EF EF EF D7 D7 38
38  FE FE FE FE 7D 7D 83 83 > } image } if PT 10 eq { 16 16 1 [ 16 0 0 16 neg
0 16 ] { <  EF EF EF EF EF EF 00 00 FE FE FE FE FE FE 00 00 EF EF EF EF EF EF
00 00 FE FE FE FE FE FE 00 00 > } image } if PT 11 eq { 16 16 1 [ 16 0 0 16
neg 0 16 ] { < F7 F7 B6 B6 D5 D5 E3 E3 D5 D5 B6 B6 F7 F7 FF FF 7F 7F 6B 6B 5D
5D 3E 3E 5D 5D 6B 6B 7F 7F FF FF > } image } if PT 12 eq { 16 16 1 [ 16 0 0
16 neg 0 16 ] { < E3 E3 DD DD BE BE BE BE BE BE DD DD E3 E3 FF FF 3E 3E DD DD
EB EB EB EB EB EB DD DD 3E 3E FF FF > } image } if PT 13 eq { 16 16 1 [ 16 0
0 16 neg 0 16 ] { <  FE FE 7D 7D BB BB D7 D7 EF EF D7 D7 BB BB 7D 7D FE FE 7D
7D BB BB D7 D7 EF EF D7 D7 BB BB 7D 7D > } image } if PT 14 eq { 16 16 1 [ 16
0 0 16 neg 0 16 ] { < 00 00 EE EF EE EF EE EF 0E E0 EE EE EE EE EE EE 00 EE
FE EE FE EE FE EE 00 00 FE EF FE EF FE EF > } image } if PT 15 eq { 16 16 1 [
16 0 0 16 neg 0 16 ] { < DD DD AA AA DD DD FF FF 77 77 AA AA 77 77 FF FF DD
DD AA AA DD DD FF FF 77 77 AA AA 77 77 FF FF > } image } if PT 16 eq { 16 16
1 [ 16 0 0 16 neg 0 16 ] { <  F1 F1 EE EE 1F 1F FF FF F1 F1 EE EE 1F 1F FF FF
F1 F1 EE EE 1F 1F FF FF F1 F1 EE EE 1F 1F FF FF > } image } if PT 17 eq { 16
16 1 [ 16 0 0 16 neg 0 16 ] { <  EE EE DD DD BB BB FF FF EE EE DD DD BB BB FF
 FF EE EE DD DD BB BB FF FF EE EE DD DD BB BB FF FF > } image } if PT 18 eq {
16 16 1 [ 16 0 0 16 neg 0 16 ] { <  BB BB DD DD EE EE FF FF BB BB DD DD EE EE
FF FF BB BB DD DD EE EE FF FF BB BB DD DD EE EE FF FF > } image } if PT 19 eq
{ 16 16 1 [ 16 0 0 16 neg 0 16 ] { < 1F FC 67 F3 7B EF BD DE BD DE DE BD E6
B3 F8 0F E6 B3 DE BD BD DE BD DE 7B EF 67 F3 1F FC 7F FF > } image } if PT
20 eq { 16 16 1 [ 16 0 0 16 neg 0 16 ] { < DD DD EE EE EE EE EE EE DD DD BB
BB BB BB BB BB DD DD EE EE EE EE EE EE DD DD BB BB BB BB BB BB > } image }
if PT 21 eq { 16 16 1 [ 16 0 0 16 neg 0 16 ] { < 0E 0E EF EF EF EF EF EF E0
E0 FE FE FE FE FE FE 0E 0E EF EF EF EF EF EF E0 E0 FE FE FE FE FE FE > }
image }  if PT 22 eq { 16 16 1 [ 16 0 0 16 neg 0 16 ] { < 70 70 F7 F7 F7 F7 F7
F7 07 07 7F 7F 7F 7F 7F 7F 70 70 F7 F7 F7 F7 F7 F7 07 07 7F 7F 7F 7F 7F 7F >
} image } if PT 23 eq  { 16 16 1 [ 16 0 0 16 neg 0 16 ] { < AA AA 55 55 A9 A9
D1 D1 E1 E1 D1 D1 A9 A9 55 55 AA AA 55 55 A9 A9 D1 D1 E1 E1 D1 D1 A9 A9 55 55
> } image } if PT 24 eq { 16 16 1 [ 16 0 0 16 neg 0 16 ] { < FF FE FF FC EA
A8 D5 54 EA A8 D5 54 E8 28 D4 54 E8 E8 D4 D4 E8 EA 54 D5 A8 EA 54 D5 00 C0 00
80 > } image } if PT 25 eq {  16 16 1 [ 16 0 0 16 neg 0 16 ] { < FF FE FF FC
FF F8 FF F0 F0 00 F0 00 F0 20 F0 60 F0 E0 F1 E0 F3 E0 F0 00 E0 00 C0 00 80 00
00 00 > } image } if gr } def /FA { /PT exch def gsave clip 0 0 translate 1 1
54 { 1 sub 47.2 mul /Xcurr exch def 1 1 74 { 1 sub 47.2 mul /Ycurr exch def
gsave Xcurr Ycurr translate PT DP gr } for } for gr newpath } def
/reencdict 24 dict def /ReEncode {reencdict begin /nco&na exch def
/nfnam exch def /basefontname exch def /basefontdict basefontname findfont def
/newfont basefontdict maxlength dict def basefontdict {exch dup /FID ne
{dup /Encoding eq {exch dup length array copy newfont 3 1 roll put} {exch
newfont 3 1 roll put} ifelse} {pop pop} ifelse } forall newfont
/FontName nfnam put nco&na aload pop nco&na length 2 idiv {newfont
/Encoding get 3 1 roll put} repeat nfnam newfont definefont pop end } def
/accvec [ 176 /agrave 181 /Agrave 190 /acircumflex 192 /Acircumflex
201 /adieresis 204 /Adieresis 209 /ccedilla 210 /Ccedilla 211 /eacute
212 /Eacute 213 /egrave 214 /Egrave 215 /ecircumflex 216 /Ecircumflex
217 /edieresis 218 /Edieresis 219 /icircumflex 220 /Icircumflex
221 /idieresis 222 /Idieresis 223 /ntilde 224 /Ntilde 226 /ocircumflex
228 /Ocircumflex 229 /odieresis 230 /Odieresis 231 /ucircumflex 236 /Ucircumflex
237 /udieresis 238 /Udieresis 239 /aring 242 /Aring 243 /ydieresis
244 /Ydieresis 246 /aacute 247 /Aacute 252 /ugrave 253 /Ugrave] def
/Times-Roman /Times-Roman accvec ReEncode
/Times-Italic /Times-Italic accvec ReEncode
/Times-Bold /Times-Bold accvec ReEncode
/Times-BoldItalic /Times-BoldItalic accvec ReEncode
/Helvetica /Helvetica accvec ReEncode
/Helvetica-Oblique /Helvetica-Oblique accvec ReEncode
/Helvetica-Bold /Helvetica-Bold accvec ReEncode
/Helvetica-BoldOblique /Helvetica-BoldOblique  accvec ReEncode
/Courier /Courier accvec ReEncode
/Courier-Oblique /Courier-Oblique accvec ReEncode
/Courier-Bold /Courier-Bold accvec ReEncode
/Courier-BoldOblique /Courier-BoldOblique accvec ReEncode
/oshow {gsave [] 0 sd true charpath stroke gr} def
/stwn { /fs exch def /fn exch def /text exch def fn findfont fs sf
 text sw pop xs add /xs exch def} def
/stwb { /fs exch def /fn exch def /nbas exch def /textf exch def
textf length /tlen exch def nbas tlen gt {/nbas tlen def} if
fn findfont fs sf textf dup length nbas sub nbas getinterval sw
pop neg xs add /xs exch def} def
/accspe [ 65 /plusminus 66 /bar 67 /existential 68 /universal
69 /exclam 70 /numbersign 71 /greater 72 /question 73 /integral
74 /colon 75 /semicolon 76 /less 77 /bracketleft 78 /bracketright
79 /greaterequal 80 /braceleft 81 /braceright 82 /radical
83 /spade 84 /heart 85 /diamond 86 /club 87 /lessequal
88 /multiply 89 /percent 90 /infinity 48 /circlemultiply 49 /circleplus
50 /emptyset 51 /lozenge 52 /bullet 53 /arrowright 54 /arrowup
55 /arrowleft 56 /arrowdown 57 /arrowboth 48 /degree 44 /comma 43 /plus
 45 /angle 42 /angleleft 47 /divide 61 /notequal 40 /equivalence 41 /second
 97 /approxequal 98 /congruent 99 /perpendicular 100 /partialdiff 101 /florin
 102 /intersection 103 /union 104 /propersuperset 105 /reflexsuperset
 106 /notsubset 107 /propersubset 108 /reflexsubset 109 /element 110 /notelement
 111 /gradient 112 /logicaland 113 /logicalor 114 /arrowdblboth
 115 /arrowdblleft 116 /arrowdblup 117 /arrowdblright 118 /arrowdbldown
 119 /ampersand 120 /omega1 121 /similar 122 /aleph ] def
/Symbol /Special accspe ReEncode
%%EndProlog
 gsave  .25 .25 scale  gsave 0 0 t black [] 0 sd 1 lw 1588 1588 340 340 bl 1588
 1588 340 340 C 1 0 0 c /w 31 def /w2 {w 2 div} def /w3 {w 3 div} def 347 496
 1106 486 1109 469 1914 494 1901 492 357 513 1924 522 1906 504 1926 518 1914 503
 1900 515 1897 516 1918 528 1922 524 1920 509 1903 502 1903 514 356 560 352 544
 343 554 1916 544 1909 556 1917 549 1910 549 1905 552 1918 533 1898 552 1919 562
 1924 549 1908 559 1907 539 1908 547 1927 551 1907 561 1923 556 1914 538 358 590
 365 592 1661 588 1826 572 1803 563 1907 574 1896 572 1905 590 1909 573 1899 575
 1913 587 1898 565 1912 570 1910 564 1922 590 1921 573 1924 586 1905 583 1925
 563 1910 592 1915 579 1914 582 1921 583 1911 593 1910 589 1898 571 348 595 539
 601 1651 601 1807 598 1827 606 1848 613 1891 616 1875 602 1870 595 1872 617
 1878 597 1907 596 1915 622 1925 613 1906 620 1901 600 1919 604 1918 623 1896
 611 1927 616 1918 597 1900 600 1926 609 1904 613 1907 613 1924 605 1909 618
 1906 607 1924 606 1926 616 1920 625 1898 601 1912 626 1897 617 1918 600 1925
 620 1912 621 562 650 100 { m24} R 1010 654 1169 631 1217 645 1351 633 1349 643
 1359 628 1435 642 1509 647 1698 632 1745 631 1816 640 1852 649 1919 635 1927
 628 1920 645 1902 643 1910 650 1922 655 1912 656 1911 631 1927 646 1927 653
 1911 649 1911 644 1919 638 1896 634 1923 630 1918 646 1919 657 1923 647 1902
 635 1918 637 1912 628 1898 640 1922 648 1924 647 1924 631 344 667 380 675 461
 659 505 671 704 669 850 675 889 677 1123 674 1203 668 1321 689 1297 676 1579
 682 1780 685 1825 685 1833 681 1883 670 1882 670 1915 674 1910 663 1902 670
 1914 687 1927 668 1904 674 1923 663 1906 669 1904 681 1901 663 1902 686 1898
 686 1921 675 1915 687 1913 679 1898 680 1912 666 1922 679 1927 668 1898 685
 1917 661 1903 678 1923 666 1909 677 1926 683 1898 676 1907 675 1906 682 1917
 687 346 701 355 700 346 701 446 706 600 717 693 702 831 713 962 707 1664 720
 1661 697 1754 706 1768 699 1771 718 1810 720 1803 699 1847 699 1839 715 100 {
 m24} R 1879 715 1876 694 1889 721 1916 708 1912 715 1901 710 1911 706 1925 720
 1906 706 1911 692 1918 708 1899 713 1898 699 1900 717 1914 719 1921 704 1925
 710 1923 697 1922 707 1898 696 1907 715 1906 697 1909 714 1927 710 1913 710 400
 748 522 722 593 730 721 750 1071 735 1475 727 1577 727 1784 733 1790 739 1823
 723 1870 744 1870 744 1926 746 1919 729 1921 741 1899 730 1902 750 1896 752
 1906 730 1921 725 1902 737 1896 737 1912 733 1902 742 1916 735 1898 736 1911
 742 1921 752 1922 753 1900 750 1899 724 1901 752 1916 752 1922 752 1913 722
 1909 733 1923 724 1918 732 1898 750 1906 725 1911 748 1922 746 1905 724 1908
 752 1915 730 1915 745 1909 745 346 769 350 761 363 769 844 766 886 758 1228 781
 1751 763 1867 765 1914 770 1915 763 1903 755 1920 774 1907 762 1917 769 1911
 781 1899 781 1926 774 1899 770 1914 759 1907 780 1918 784 1909 755 1902 754 366
 811 365 809 350 814 364 800 1034 804 100 { m24} R 1309 799 1651 790 1811 799
 1840 798 1883 794 1917 792 1916 807 1922 796 1924 801 1923 796 1904 789 1905
 813 1905 804 1920 795 1906 790 1905 806 1925 788 1912 795 1900 806 1924 807
 1911 793 1914 793 1907 810 1896 800 1927 797 363 820 379 829 416 841 1122 819
 1445 839 1802 830 1886 825 1927 848 1903 833 1899 841 1920 840 1907 834 1898
 819 1915 823 1907 828 1913 827 1905 823 1927 836 1922 824 1918 820 1901 844
 1910 835 1910 824 352 875 564 879 779 854 832 851 1269 856 1843 872 1848 874
 1869 869 1878 853 1917 850 1919 868 1899 867 1916 874 1910 851 1905 848 1918
 850 1901 864 1913 860 1900 855 1911 874 1912 860 1905 877 1910 865 1913 868
 1922 872 1918 870 1897 862 1911 872 1927 858 1290 890 1283 884 1405 904 1662
 906 1704 880 1872 891 1893 900 1920 884 1918 903 1905 890 1908 883 1902 911
 1900 901 1918 910 1899 885 1913 903 1921 880 1899 895 1919 909 355 938 354 935
 1471 917 1510 935 100 { m24} R 1738 934 1805 940 1801 919 1816 924 1875 939
 1912 915 1924 921 1925 937 1910 924 1896 916 1901 932 1926 935 1915 928 1924
 942 1899 917 1900 942 1914 924 1928 936 1898 924 1906 928 352 958 376 966 500
 960 616 952 1551 962 1591 954 1674 950 1758 971 1873 972 1866 963 1921 946 1908
 963 1927 961 1910 950 1900 973 1905 971 1919 970 1900 967 1927 971 1926 966
 1907 965 1913 967 1925 971 1899 964 1900 950 1913 954 344 993 344 996 345 993
 356 994 347 978 422 995 567 982 769 975 1221 993 1263 1002 1426 979 1827 976
 1915 990 1906 1002 1896 994 1916 979 1922 988 1914 992 1907 1005 1927 1006 1916
 980 1900 985 1917 1000 1896 1003 1921 1003 1904 1003 1928 988 1912 990 1897 998
 1904 1005 1900 985 1914 997 1927 989 1923 985 1898 980 356 1034 627 1022 745
 1011 774 1035 1490 1017 1635 1014 87 { m24} R 1912 1028 1911 1010 1916 1037
 1912 1025 1915 1034 1897 1030 1905 1014 1926 1025 1924 1025 1902 1034 1913 1019
 1907 1022 1898 1035 1921 1034 1914 1032 1920 1007 1916 1026 1916 1033 1896 1032
 1915 1037 1924 1011 356 1046 361 1056 353 1063 606 1055 1224 1059 1271 1045
 1288 1058 1911 1065 1897 1042 1903 1052 1899 1062 1903 1058 1920 1047 1907 1039
 1905 1067 1908 1065 1919 1046 1903 1070 1907 1039 1923 1066 1911 1048 370 1088
 407 1085 411 1097 998 1075 1204 1095 1654 1101 1729 1078 1816 1077 1867 1074
 1887 1083 1872 1091 1869 1080 1879 1085 1899 1085 1916 1099 1925 1088 1904 1079
 1928 1089 1908 1082 1910 1086 1908 1074 1915 1079 1911 1087 1921 1083 1913 1076
 1911 1092 1911 1095 1913 1102 1916 1085 1905 1077 1924 1086 1904 1080 1927 1093
 681 1123 1062 1115 1424 1127 1496 1106 1517 1115 1591 1107 1734 1126 1889 1129
 1910 1130 1921 1134 1927 1132 1919 1133 1921 1118 1915 1104 1925 1115 1915 1127
 1922 1116 1897 1119 1897 1124 1918 1108 1906 1103 1911 1111 1908 1109 1919 1112
 1919 1111 100 { m24} R 1921 1122 1922 1129 361 1154 400 1152 993 1151 1025 1161
 1307 1165 1295 1155 1378 1160 1568 1164 1690 1138 1746 1134 1843 1155 1836 1158
 1868 1146 1891 1141 1923 1154 1922 1150 1898 1153 1901 1159 1906 1151 1905 1155
 1917 1145 1916 1142 1898 1165 1925 1144 1896 1147 1901 1140 1911 1155 1904 1150
 1912 1145 1915 1135 1901 1147 1928 1156 355 1184 703 1183 699 1170 1622 1195
 1710 1182 1894 1167 1871 1174 1894 1188 1865 1167 1912 1182 1903 1170 1907 1181
 1903 1169 1898 1172 1920 1166 1917 1177 1901 1193 1924 1176 1919 1166 1914 1192
 1919 1186 1920 1168 1899 1181 1904 1166 1906 1184 344 1228 362 1215 633 1228
 829 1202 1504 1205 1688 1199 1783 1211 1873 1207 1898 1216 1916 1209 1920 1216
 1925 1213 1902 1209 1909 1229 1916 1204 1907 1202 1902 1217 1923 1227 1927 1203
 1898 1213 1899 1219 1925 1218 1906 1227 362 1239 364 1260 367 1230 381 1243 407
 1240 486 1229 712 1252 727 1241 1499 1244 1487 1246 1560 1255 1548 1243 1800
 1251 1816 1235 1882 1246 1881 1258 1871 1257 1897 1233 100 { m24} R 1897 1239
 1918 1254 1912 1231 1916 1235 1909 1236 1907 1249 1924 1254 428 1291 593 1273
 758 1264 871 1290 1074 1275 1187 1292 1410 1279 1653 1277 1782 1284 1821 1266
 1862 1293 1899 1263 1908 1264 1915 1276 1924 1264 1912 1289 1901 1263 1923 1270
 1910 1280 1920 1288 1917 1267 1906 1288 1918 1262 1912 1271 1914 1280 1927 1264
 1903 1279 1919 1272 1900 1262 1905 1265 1921 1262 1899 1266 1919 1269 380 1319
 507 1307 793 1317 1075 1303 1083 1309 1507 1313 1763 1323 1819 1310 1836 1295
 1867 1324 1865 1309 1881 1305 1873 1306 1910 1316 1904 1312 1901 1318 1903 1319
 1904 1300 1906 1309 1921 1313 518 1354 604 1346 762 1345 1096 1339 1228 1349
 1495 1353 1528 1343 1562 1342 1648 1325 1659 1342 1813 1345 1848 1330 1912 1345
 1911 1342 1920 1340 1905 1328 1910 1346 1905 1341 1919 1331 1926 1334 1903 1335
 1903 1354 1901 1334 477 1388 1878 1365 1866 1386 1917 1369 1898 1385 1921 1364
 1902 1359 1903 1377 1910 1381 1904 1382 1921 1378 1920 1386 1928 1360 355 1403
 376 1413 478 1417 738 1396 100 { m24} R 983 1390 1111 1400 1361 1403 1532 1403
 1720 1393 1804 1408 1870 1404 1915 1409 1902 1419 1905 1408 1922 1412 1904 1419
 1896 1405 1923 1397 1922 1393 343 1449 488 1445 716 1432 1156 1422 1193 1437
 1254 1433 1232 1449 1863 1424 1871 1449 1901 1433 1912 1450 1899 1426 1907 1422
 1896 1430 1913 1428 1906 1434 471 1474 611 1467 646 1470 1575 1481 1621 1476
 1763 1474 1846 1481 1885 1457 1870 1476 1927 1479 1914 1462 1918 1458 1903 1468
 1910 1460 1913 1471 1905 1473 1902 1461 1913 1474 1926 1472 347 1495 388 1513
 481 1489 647 1499 631 1511 710 1497 1616 1506 1638 1496 1720 1497 1771 1505
 1802 1495 1820 1494 1836 1495 1899 1499 1901 1500 1905 1493 1927 1493 1906 1509
 1907 1504 1917 1506 1902 1513 1900 1492 441 1542 724 1546 1454 1516 1562 1543
 1625 1519 1825 1528 1829 1533 1926 1520 1918 1537 1912 1526 1902 1519 1926 1524
 1896 1528 457 1565 509 1571 1432 1566 1616 1569 1746 1574 1833 1570 1875 1562
 1899 1569 1908 1577 1914 1574 1903 1553 793 1591 1859 1600 1922 1607 1926 1587
 100 { m24} R 1920 1589 1615 1618 1860 1617 1912 1640 1901 1622 1919 1641 1916
 1636 1732 1673 1773 1666 1898 1647 1925 1656 1918 1660 1921 1690 1918 1679 1914
 1678 1710 1730 1919 1734 1926 1733 404 1761 1831 1761 1833 1749 1835 1776 1896
 1773 1909 1796 1915 1784 1922 1775 577 1803 1845 1812 1927 1811 1862 1859 1734
 1895 31 { m24} R NC black 340 340 m 1588 Y s 374 340 m -34 X s 357 372 m -17 X
 s 357 404 m -17 X s 357 435 m -17 X s 357 467 m -17 X s 374 499 m -34 X s 357
 531 m -17 X s 357 562 m -17 X s 357 594 m -17 X s 357 626 m -17 X s 374 658 m
 -34 X s 357 689 m -17 X s 357 721 m -17 X s 357 753 m -17 X s 357 785 m -17 X s
 374 816 m -34 X s 357 848 m -17 X s 357 880 m -17 X s 357 912 m -17 X s 357 943
 m -17 X s 374 975 m -34 X s 357 1007 m -17 X s 357 1039 m -17 X s 357 1070 m
 -17 X s 357 1102 m -17 X s 374 1134 m -34 X s 357 1166 m -17 X s 357 1198 m -17
 X s 357 1229 m -17 X s 357 1261 m -17 X s 374 1293 m -34 X s 357 1325 m -17 X s
 357 1356 m -17 X s 357 1388 m -17 X s 357 1420 m -17 X s 374 1452 m -34 X s 357
 1483 m -17 X s 357 1515 m -17 X s 357 1547 m -17 X s 357 1579 m -17 X s 374
 1610 m -34 X s 357 1642 m -17 X s 357 1674 m -17 X s 357 1706 m -17 X s 357
 1737 m -17 X s 374 1769 m -34 X s 357 1801 m -17 X s 357 1833 m -17 X s 357
 1864 m -17 X s 357 1896 m -17 X s 374 1928 m -34 X s
 /xs 0 def 
(0)
 /Times-Italic     69 stwn 
 gsave  295 318
 t   0 r  xs neg 0 t 0 0 m
 /Times-Italic findfont   69 sf 0    0 m 
(0)
 show 
 gr 
 /xs 0 def 
(0.5)
 /Times-Italic     69 stwn 
 gsave  295 476
 t   0 r  xs neg 0 t 0 0 m
 /Times-Italic findfont   69 sf 0    0 m 
(0.5)
 show 
 gr 
 /xs 0 def 
(1)
 /Times-Italic     69 stwn 
 gsave  295 635
 t   0 r  xs neg 0 t 0 0 m
 /Times-Italic findfont   69 sf 0    0 m 
(1)
 show 
 gr 
 /xs 0 def 
(1.5)
 /Times-Italic     69 stwn 
 gsave  295 794
 t   0 r  xs neg 0 t 0 0 m
 /Times-Italic findfont   69 sf 0    0 m 
(1.5)
 show 
 gr 
 /xs 0 def 
(2)
 /Times-Italic     69 stwn 
 gsave  295 953
 t   0 r  xs neg 0 t 0 0 m
 /Times-Italic findfont   69 sf 0    0 m 
(2)
 show 
 gr 
 /xs 0 def 
(2.5)
 /Times-Italic     69 stwn 
 gsave  295 1111
 t   0 r  xs neg 0 t 0 0 m
 /Times-Italic findfont   69 sf 0    0 m 
(2.5)
 show 
 gr 
 /xs 0 def 
(3)
 /Times-Italic     69 stwn 
 gsave  295 1270
 t   0 r  xs neg 0 t 0 0 m
 /Times-Italic findfont   69 sf 0    0 m 
(3)
 show 
 gr 
 /xs 0 def 
(3.5)
 /Times-Italic     69 stwn 
 gsave  295 1429
 t   0 r  xs neg 0 t 0 0 m
 /Times-Italic findfont   69 sf 0    0 m 
(3.5)
 show 
 gr 
 /xs 0 def 
(4)
 /Times-Italic     69 stwn 
 gsave  295 1588
 t   0 r  xs neg 0 t 0 0 m
 /Times-Italic findfont   69 sf 0    0 m 
(4)
 show 
 gr 
 /xs 0 def 
(4.5)
 /Times-Italic     69 stwn 
 gsave  295 1746
 t   0 r  xs neg 0 t 0 0 m
 /Times-Italic findfont   69 sf 0    0 m 
(4.5)
 show 
 gr 
 /xs 0 def 
(5)
 /Times-Italic     69 stwn 
 gsave  295 1905
 t   0 r  xs neg 0 t 0 0 m
 /Times-Italic findfont   69 sf 0    0 m 
(5)
 show 
 gr  340 340 m 1588 X s 340 374 m -34 Y s 372 357 m -17 Y s 404 357 m -17 Y s
 435 357 m -17 Y s 467 357 m -17 Y s 499 374 m -34 Y s 531 357 m -17 Y s 562 357
 m -17 Y s 594 357 m -17 Y s 626 357 m -17 Y s 658 374 m -34 Y s 689 357 m -17 Y
 s 721 357 m -17 Y s 753 357 m -17 Y s 785 357 m -17 Y s 816 374 m -34 Y s 848
 357 m -17 Y s 880 357 m -17 Y s 912 357 m -17 Y s 943 357 m -17 Y s 975 374 m
 -34 Y s 1007 357 m -17 Y s 1039 357 m -17 Y s 1070 357 m -17 Y s 1102 357 m -17
 Y s 1134 374 m -34 Y s 1166 357 m -17 Y s 1198 357 m -17 Y s 1229 357 m -17 Y s
 1261 357 m -17 Y s 1293 374 m -34 Y s 1325 357 m -17 Y s 1356 357 m -17 Y s
 1388 357 m -17 Y s 1420 357 m -17 Y s 1452 374 m -34 Y s 1483 357 m -17 Y s
 1515 357 m -17 Y s 1547 357 m -17 Y s 1579 357 m -17 Y s 1610 374 m -34 Y s
 1642 357 m -17 Y s 1674 357 m -17 Y s 1706 357 m -17 Y s 1737 357 m -17 Y s
 1769 374 m -34 Y s 1801 357 m -17 Y s 1833 357 m -17 Y s 1864 357 m -17 Y s
 1896 357 m -17 Y s 1928 374 m -34 Y s
 /xs 0 def 
(0)
 /Times-Italic     69 stwn 
 gsave  340 272
 t   0 r  xs 2 div neg 0 t 0 0 m
 /Times-Italic findfont   69 sf 0    0 m 
(0)
 show 
 gr 
 /xs 0 def 
(0.1)
 /Times-Italic     69 stwn 
 gsave  499 272
 t   0 r  xs 2 div neg 0 t 0 0 m
 /Times-Italic findfont   69 sf 0    0 m 
(0.1)
 show 
 gr 
 /xs 0 def 
(0.2)
 /Times-Italic     69 stwn 
 gsave  658 272
 t   0 r  xs 2 div neg 0 t 0 0 m
 /Times-Italic findfont   69 sf 0    0 m 
(0.2)
 show 
 gr 
 /xs 0 def 
(0.3)
 /Times-Italic     69 stwn 
 gsave  816 272
 t   0 r  xs 2 div neg 0 t 0 0 m
 /Times-Italic findfont   69 sf 0    0 m 
(0.3)
 show 
 gr 
 /xs 0 def 
(0.4)
 /Times-Italic     69 stwn 
 gsave  975 272
 t   0 r  xs 2 div neg 0 t 0 0 m
 /Times-Italic findfont   69 sf 0    0 m 
(0.4)
 show 
 gr 
 /xs 0 def 
(0.5)
 /Times-Italic     69 stwn 
 gsave  1134 272
 t   0 r  xs 2 div neg 0 t 0 0 m
 /Times-Italic findfont   69 sf 0    0 m 
(0.5)
 show 
 gr 
 /xs 0 def 
(0.6)
 /Times-Italic     69 stwn 
 gsave  1293 272
 t   0 r  xs 2 div neg 0 t 0 0 m
 /Times-Italic findfont   69 sf 0    0 m 
(0.6)
 show 
 gr 
 /xs 0 def 
(0.7)
 /Times-Italic     69 stwn 
 gsave  1452 272
 t   0 r  xs 2 div neg 0 t 0 0 m
 /Times-Italic findfont   69 sf 0    0 m 
(0.7)
 show 
 gr 
 /xs 0 def 
(0.8)
 /Times-Italic     69 stwn 
 gsave  1610 272
 t   0 r  xs 2 div neg 0 t 0 0 m
 /Times-Italic findfont   69 sf 0    0 m 
(0.8)
 show 
 gr 
 /xs 0 def 
(0.9)
 /Times-Italic     69 stwn 
 gsave  1769 272
 t   0 r  xs 2 div neg 0 t 0 0 m
 /Times-Italic findfont   69 sf 0    0 m 
(0.9)
 show 
 gr 
 /xs 0 def 
(1)
 /Times-Italic     69 stwn 
 gsave  1928 272
 t   0 r  xs 2 div neg 0 t 0 0 m
 /Times-Italic findfont   69 sf 0    0 m 
(1)
 show 
 gr  1588 1588 340 340 C 2268 2268 0 0 C
 /xs 0 def 
(PID\(K\))
 /Times-Italic     69 stwn 
 gsave  1134 181
 t   0 r  xs 2 div neg 0 t 0 0 m
 /Times-Italic findfont   69 sf 0    0 m 
(PID\(K\))
 show 
 gr  1588 1588 340 340 C 0 0 1 c 362 493 366 471 345 491 363 480 353 487 350 495
 351 488 341 469 369 491 353 489 370 478 360 468 364 487 352 494 361 489 347 471
 342 485 366 516 347 504 365 522 370 505 357 519 363 511 356 518 354 507 344 523
 341 531 360 504 354 516 352 516 348 527 359 525 340 504 348 510 368 515 365 528
 369 504 370 528 367 514 371 509 355 503 348 517 370 547 353 559 355 541 343 546
 355 549 343 560 360 558 356 537 348 538 346 550 371 539 360 547 359 537 364 538
 362 535 342 551 370 543 366 539 346 540 358 539 353 531 352 555 351 562 365 542
 361 555 345 535 343 541 355 559 345 555 343 534 600 534 1409 562 358 568 355
 587 346 588 358 565 352 577 343 572 367 591 343 583 366 587 364 572 359 570 345
 594 342 580 370 565 350 591 371 569 361 575 367 581 354 570 362 584 342 571 360
 563 345 562 346 578 363 588 367 579 100 { m5} R 341 592 346 572 345 591 343 593
 364 580 362 579 351 587 346 572 346 566 352 575 354 592 347 563 360 588 364 588
 362 580 342 585 352 577 370 594 358 573 346 566 357 564 382 581 471 563 675 570
 1262 591 367 596 367 621 366 624 369 622 346 598 352 620 369 608 366 621 357
 615 363 603 361 608 370 609 348 619 365 622 366 599 367 603 346 598 367 614 350
 624 370 620 364 609 361 606 361 618 370 602 369 610 354 607 363 607 359 625 359
 622 353 601 362 608 367 622 346 613 353 621 350 618 342 604 388 612 430 598 511
 605 548 621 684 605 999 603 989 596 1051 619 1367 605 353 656 361 657 356 639
 357 627 364 632 351 650 365 630 350 643 355 656 342 637 367 654 368 642 344 646
 361 657 361 631 348 631 356 627 343 635 361 648 364 643 353 639 359 651 342 626
 368 632 353 655 352 645 349 649 355 655 346 634 343 637 100 { m5} R 367 639 403
 653 395 642 373 639 704 644 724 651 888 634 918 635 1231 654 1632 652 1829 628
 1860 638 1917 649 364 689 371 688 348 686 370 689 367 674 354 672 357 689 350
 688 363 660 355 678 342 667 351 678 342 668 352 673 368 678 343 669 365 683 367
 677 352 685 341 668 344 685 350 660 348 662 342 683 355 663 357 672 368 669 364
 668 344 663 362 671 359 683 372 661 351 686 354 664 359 663 392 688 398 660 507
 674 1096 679 1124 664 1171 673 1809 680 1901 676 1909 687 1921 669 1927 661 371
 717 343 706 344 705 362 713 368 694 359 704 365 721 359 693 359 716 360 696 349
 717 363 702 348 712 366 708 367 704 362 716 366 704 353 698 358 697 368 698 370
 715 372 704 361 719 370 695 364 706 358 721 347 718 352 711 349 719 363 706 366
 709 356 720 363 712 351 691 401 703 390 720 382 712 445 713 592 716 568 694 923
 694 100 { m5} R 1245 715 1582 709 1736 712 1840 693 1902 719 343 737 358 753
 342 732 356 740 348 751 362 722 353 750 347 753 368 727 357 736 345 743 365 751
 371 741 357 745 368 741 362 725 367 734 347 733 344 739 369 745 354 725 353 744
 352 724 366 725 359 753 357 743 367 743 341 744 359 726 353 723 365 734 368 737
 343 726 345 744 369 730 367 733 443 753 1174 733 1204 736 1593 752 1831 750
 1897 734 1922 731 1901 739 1914 749 350 785 351 783 365 767 361 757 353 771 349
 780 369 767 345 754 342 764 363 779 367 769 363 755 346 760 352 759 356 783 350
 757 347 754 366 764 365 769 344 762 347 775 368 760 341 783 386 765 403 757 896
 769 1006 779 1876 759 355 815 357 804 359 799 343 811 353 803 345 791 355 790
 370 789 349 811 347 815 354 815 351 805 355 793 372 799 344 814 350 805 361 794
 347 794 350 804 370 796 356 793 348 807 100 { m5} R 368 789 352 808 356 808 358
 788 360 803 363 787 476 793 481 788 910 816 1757 791 1924 789 1899 806 1923 789
 362 840 354 837 363 837 347 848 355 840 346 827 371 826 357 818 352 829 356 842
 369 832 352 824 351 826 356 828 363 837 363 841 342 833 353 829 341 826 344 834
 375 827 429 835 418 842 506 837 560 817 611 835 729 825 1915 846 346 878 348
 879 351 870 365 856 355 874 341 857 354 866 356 867 370 857 350 862 361 858 349
 868 362 874 343 860 345 865 348 861 366 870 346 878 344 877 344 863 380 858 661
 850 1516 876 1912 880 1913 878 368 910 344 887 354 893 368 887 344 911 343 880
 345 882 358 898 360 894 341 907 347 890 356 889 368 899 364 888 363 901 345 885
 340 889 348 892 365 894 358 890 342 891 352 881 483 892 489 891 507 898 587 903
 652 905 1901 896 94 { m5} R 364 939 348 920 370 932 370 924 356 932 345 921 365
 919 356 932 355 924 343 925 365 940 348 918 341 929 371 920 372 940 402 924 390
 937 375 943 510 941 715 933 1562 919 1701 941 1773 922 1908 924 351 947 348 962
 366 947 341 972 347 966 371 969 345 968 353 969 354 958 359 950 353 964 357 961
 354 956 343 972 367 956 361 952 370 962 388 959 426 968 457 971 609 954 1863
 948 1926 962 369 985 365 1006 368 978 368 976 361 981 342 990 355 987 352 979
 357 992 367 976 354 997 368 992 364 1006 360 1003 371 999 354 992 360 1005 383
 990 402 991 621 983 771 983 862 1005 1148 1007 1175 983 1711 977 1831 993 1910
 984 344 1013 354 1030 370 1031 366 1026 369 1036 356 1016 345 1014 358 1032 363
 1028 354 1008 371 1016 347 1010 359 1026 352 1013 355 1022 520 1036 609 1025
 653 1011 688 1025 694 1015 786 1010 1050 1026 1915 1024 349 1069 347 1058 349
 1050 100 { m5} R 350 1040 365 1053 360 1041 369 1069 368 1042 344 1065 348 1057
 369 1065 356 1066 351 1065 363 1054 366 1057 351 1062 357 1052 352 1056 368
 1058 355 1067 342 1055 369 1058 349 1066 342 1066 359 1063 347 1045 351 1070
 364 1048 363 1070 348 1056 380 1056 574 1046 1657 1049 1912 1069 368 1093 365
 1086 362 1077 354 1077 365 1102 344 1075 362 1075 350 1083 361 1080 345 1089
 351 1101 346 1097 371 1082 371 1089 347 1078 349 1082 363 1077 368 1089 344
 1072 353 1101 358 1102 358 1087 367 1096 367 1080 347 1074 389 1088 405 1089
 417 1100 466 1086 460 1079 483 1083 519 1084 582 1075 583 1102 806 1075 986
 1102 1089 1073 1327 1088 351 1111 355 1104 344 1110 370 1103 358 1108 345 1119
 343 1130 362 1131 342 1120 368 1128 362 1109 353 1121 354 1106 344 1117 360
 1104 366 1130 346 1120 343 1130 353 1106 397 1130 385 1124 432 1113 437 1107
 530 1109 539 1134 1120 1111 1349 1119 1664 1113 1684 1108 1892 1124 1904 1110
 100 { m5} R 345 1140 348 1142 371 1135 367 1157 367 1137 368 1154 354 1139 350
 1145 345 1162 355 1154 360 1152 358 1164 352 1140 341 1138 345 1164 366 1151
 365 1143 347 1151 361 1161 371 1154 343 1158 344 1134 403 1161 376 1141 407
 1157 521 1161 666 1154 770 1157 1885 1142 1869 1142 1917 1154 359 1179 363 1196
 358 1170 341 1189 348 1194 369 1194 342 1181 369 1175 362 1166 340 1184 368
 1189 341 1177 341 1190 341 1186 371 1180 359 1172 357 1195 382 1170 423 1175
 443 1171 495 1172 528 1187 545 1172 1039 1181 1638 1181 351 1210 363 1223 363
 1220 345 1214 351 1214 363 1205 349 1203 355 1217 347 1221 356 1226 366 1217
 368 1222 345 1208 369 1226 352 1212 352 1199 368 1203 364 1204 451 1223 495
 1198 1885 1202 1906 1215 356 1232 343 1250 351 1254 344 1241 357 1253 343 1244
 366 1234 364 1257 352 1240 366 1249 365 1258 349 1248 366 1252 368 1255 355
 1256 359 1231 350 1247 365 1254 371 1241 347 1250 357 1234 346 1246 100 { m5} R
 358 1243 378 1230 393 1238 419 1252 513 1253 704 1238 1689 1250 1921 1231 356
 1293 344 1287 340 1272 368 1268 362 1281 351 1271 348 1278 360 1292 381 1282
 444 1285 604 1276 645 1273 708 1288 729 1262 803 1288 1926 1275 367 1294 350
 1312 350 1299 353 1320 353 1317 368 1305 354 1315 362 1301 347 1301 365 1294
 360 1301 345 1300 381 1308 513 1301 641 1311 1056 1300 1224 1307 353 1346 345
 1353 348 1328 351 1326 371 1344 344 1340 354 1337 367 1349 351 1338 347 1355
 368 1339 369 1352 359 1353 369 1333 359 1332 347 1350 385 1351 399 1335 376
 1353 434 1350 488 1330 1886 1350 367 1388 343 1381 353 1359 342 1356 353 1382
 344 1370 344 1370 369 1366 368 1384 434 1380 474 1372 563 1371 803 1380 883
 1370 363 1415 367 1406 358 1396 341 1418 348 1408 385 1415 696 1407 1258 1407
 1554 1418 366 1425 342 1422 352 1449 356 1439 358 1429 368 1445 371 1431 365
 1451 357 1446 345 1448 347 1451 369 1430 367 1422 355 1441 100 { m5} R 389 1446
 434 1423 444 1434 738 1430 725 1424 996 1442 1474 1449 347 1473 434 1455 443
 1468 438 1472 1831 1458 352 1505 350 1514 347 1491 347 1499 362 1504 343 1484
 347 1508 390 1507 438 1489 500 1511 912 1497 1119 1501 1827 1493 352 1544 345
 1522 344 1516 359 1543 343 1545 396 1516 1019 1517 347 1569 351 1563 403 1572
 506 1578 1184 1575 459 1602 509 1580 1818 1588 363 1627 346 1648 614 1666 359
 1699 351 1689 429 1678 371 1711 389 1735 480 1726 344 1765 565 1872 51 { m5} R
 2268 2268 0 0 C black
 /xs 0 def 
(P\(GeV/c\))
 /Times-Italic     69 stwn 
 gsave  113 1928
 t  90 r  xs neg 0 t 0 0 m
 /Times-Italic findfont   69 sf 0    0 m 
(P\(GeV/c\))
 show 
 gr  1588 1588 340 340 C
 gr  gr 
showpage
end
%%EOF

