%!PS-Adobe-2.0 EPSF-2.0
%%BoundingBox: 0 0 567 709
%%Title: eff_fake.eps
%%Creator: HIGZ Version 1.23/07
%%CreationDate: :0/11/17   16.17
%%EndComments
%%BeginProlog
80 dict begin
/s {stroke} def /l {lineto} def /m {moveto} def /t {translate} def
/sw {stringwidth} def /r {rotate} def /rl {roll}  def /R {repeat} def
/d {rlineto} def /rm {rmoveto} def /gr {grestore} def /f {eofill} def
/c {setrgbcolor} def /lw {setlinewidth} def /sd {setdash} def
/cl {closepath} def /sf {scalefont setfont} def /black {0 setgray} def
/box {m dup 0 exch d exch 0 d 0 exch neg d cl} def
/NC{systemdict begin initclip end}def/C{NC box clip newpath}def
/bl {box s} def /bf {box f} def /Y { 0 exch d} def /X { 0 d} def 
/mp {newpath /y exch def /x exch def} def
/side {[w .77 mul w .23 mul] .385 w mul sd w 0 l currentpoint t -144 r} def
/mr {mp x y w2 0 360 arc} def /m24 {mr s} def /m20 {mr f} def
/mb {mp x y w2 add m w2 neg 0 d 0 w neg d w 0 d 0 w d cl} def
/mt {mp x y w2 add m w2 neg w neg d w 0 d cl} def
/m21 {mb f} def /m25 {mb s} def /m22 {mt f} def /m26 {mt s} def
/m23 {mp x y w2 sub m w2 w d w neg 0 d cl f} def
/m27 {mp x y w2 add m w3 neg w2 neg d w3 w2 neg d w3  w2 d cl s} def
/m28 {mp x w2 sub y w2 sub w3 add m w3 0 d 0 w3 neg d w3 0 d 0 w3 d w3 0 d
 0 w3 d w3 neg 0 d 0 w3 d w3 neg 0 d
 0 w3 neg d w3 neg 0 d cl s } def
/m29 {mp gsave x w2 sub y w2 add w3 sub m currentpoint t
 4 {side} repeat cl fill gr} def
/m30 {mp gsave x w2 sub y w2 add w3 sub m currentpoint t
 5 {side} repeat s gr} def
/m31 {mp x y w2 sub m 0 w d x w2 sub y m w 0 d
 x w2 sub y w2 add m w w neg d x w2 sub y w2
 sub m w w d s} def
/m2 {mp x y w2 sub m 0 w d x w2 sub y m w 0 d s} def
/m5 {mp x w2 sub y w2 sub m w w d x w2 sub y w2 add m w w neg d s} def
/DP {/PT exch def gsave 47.2 47.2 scale PT 1  eq { 16 16 1 [ 16 0 0 16 neg 0 16
] { < AA AA 55 55 AA AA 55 55 AA AA 55 55 AA AA 55 55 AA AA 55 55 AA AA 55 55
AA AA 55 55 AA AA 55 55 > } image } if PT 2 eq { 16 16 1 [ 16 0 0 16 neg 0 16
] { < BB BB EE EE BB BB EE EE BB BB EE EE BB BB EE EE BB BB EE EE BB BB EE EE
BB BB EE EE BB BB EE EE > } image } if PT 3 eq { 16 16 1 [ 16 0 0 16 neg 0 16
] { < FF FF BB BB FF FF EE EE FF FF BB BB FF FF EE EE FF FF BB BB FF FF EE EE
FF FF BB BB FF FF EE EE > } image } if PT 4 eq { 16 16 1 [ 16 0 0 16 neg 0 16
] { < DF DF BF BF 7F 7F FE FE FD FD FB FB F7 F7 EF EF DF DF BF BF 7F 7F FE FE
FD FD FB FB F7 F7 EF EF > } image } if PT 5 eq { 16 16 1 [ 16 0 0 16 neg 0 16
] { < 7F 7F BF B F DF DF EF EF F7 F7 FB FB FD FD FE FE 7F 7F BF BF DF DF EF
EF F7 F7 FB FB FD FD FE FE > } image } if PT 6 eq { 16 16 1 [ 16 0 0 16 neg 0
16 ] { < BB BB BB BB BB BB BB BB BB BB BB BB BB BB BB BB BB BB BB BB BB BB BB
BB BB BB BB BB BB BB BB BB > } image } if PT 7 eq { 16 16 1 [ 16 0 0 16 neg 0
16 ] { < FF FF FF FF FF FF 00 00 FF FF FF FF FF FF 00 00 FF FF FF FF FF FF 00
00 FF FF FF FF FF FF 00 00 > } image } if PT 8 eq { 16 16 1 [ 16 0 0 16 neg 0
16 ] { < EE EE 47 47 83 83 C5 C5 EE EE 5C 5C 38 38 74 74 EE EE 47 47 83 83 C5
C5 EE EE 5C 5C 38 38 74 74 > } image } if PT 9 eq { 16 16 1 [ 16 0 0 16 neg 0
16 ] { < EF EF EF EF D7 D7 38 38 FE FE FE FE 7D 7D 83 83 EF EF EF EF D7 D7 38
38  FE FE FE FE 7D 7D 83 83 > } image } if PT 10 eq { 16 16 1 [ 16 0 0 16 neg
0 16 ] { <  EF EF EF EF EF EF 00 00 FE FE FE FE FE FE 00 00 EF EF EF EF EF EF
00 00 FE FE FE FE FE FE 00 00 > } image } if PT 11 eq { 16 16 1 [ 16 0 0 16
neg 0 16 ] { < F7 F7 B6 B6 D5 D5 E3 E3 D5 D5 B6 B6 F7 F7 FF FF 7F 7F 6B 6B 5D
5D 3E 3E 5D 5D 6B 6B 7F 7F FF FF > } image } if PT 12 eq { 16 16 1 [ 16 0 0
16 neg 0 16 ] { < E3 E3 DD DD BE BE BE BE BE BE DD DD E3 E3 FF FF 3E 3E DD DD
EB EB EB EB EB EB DD DD 3E 3E FF FF > } image } if PT 13 eq { 16 16 1 [ 16 0
0 16 neg 0 16 ] { <  FE FE 7D 7D BB BB D7 D7 EF EF D7 D7 BB BB 7D 7D FE FE 7D
7D BB BB D7 D7 EF EF D7 D7 BB BB 7D 7D > } image } if PT 14 eq { 16 16 1 [ 16
0 0 16 neg 0 16 ] { < 00 00 EE EF EE EF EE EF 0E E0 EE EE EE EE EE EE 00 EE
FE EE FE EE FE EE 00 00 FE EF FE EF FE EF > } image } if PT 15 eq { 16 16 1 [
16 0 0 16 neg 0 16 ] { < DD DD AA AA DD DD FF FF 77 77 AA AA 77 77 FF FF DD
DD AA AA DD DD FF FF 77 77 AA AA 77 77 FF FF > } image } if PT 16 eq { 16 16
1 [ 16 0 0 16 neg 0 16 ] { <  F1 F1 EE EE 1F 1F FF FF F1 F1 EE EE 1F 1F FF FF
F1 F1 EE EE 1F 1F FF FF F1 F1 EE EE 1F 1F FF FF > } image } if PT 17 eq { 16
16 1 [ 16 0 0 16 neg 0 16 ] { <  EE EE DD DD BB BB FF FF EE EE DD DD BB BB FF
 FF EE EE DD DD BB BB FF FF EE EE DD DD BB BB FF FF > } image } if PT 18 eq {
16 16 1 [ 16 0 0 16 neg 0 16 ] { <  BB BB DD DD EE EE FF FF BB BB DD DD EE EE
FF FF BB BB DD DD EE EE FF FF BB BB DD DD EE EE FF FF > } image } if PT 19 eq
{ 16 16 1 [ 16 0 0 16 neg 0 16 ] { < 1F FC 67 F3 7B EF BD DE BD DE DE BD E6
B3 F8 0F E6 B3 DE BD BD DE BD DE 7B EF 67 F3 1F FC 7F FF > } image } if PT
20 eq { 16 16 1 [ 16 0 0 16 neg 0 16 ] { < DD DD EE EE EE EE EE EE DD DD BB
BB BB BB BB BB DD DD EE EE EE EE EE EE DD DD BB BB BB BB BB BB > } image }
if PT 21 eq { 16 16 1 [ 16 0 0 16 neg 0 16 ] { < 0E 0E EF EF EF EF EF EF E0
E0 FE FE FE FE FE FE 0E 0E EF EF EF EF EF EF E0 E0 FE FE FE FE FE FE > }
image }  if PT 22 eq { 16 16 1 [ 16 0 0 16 neg 0 16 ] { < 70 70 F7 F7 F7 F7 F7
F7 07 07 7F 7F 7F 7F 7F 7F 70 70 F7 F7 F7 F7 F7 F7 07 07 7F 7F 7F 7F 7F 7F >
} image } if PT 23 eq  { 16 16 1 [ 16 0 0 16 neg 0 16 ] { < AA AA 55 55 A9 A9
D1 D1 E1 E1 D1 D1 A9 A9 55 55 AA AA 55 55 A9 A9 D1 D1 E1 E1 D1 D1 A9 A9 55 55
> } image } if PT 24 eq { 16 16 1 [ 16 0 0 16 neg 0 16 ] { < FF FE FF FC EA
A8 D5 54 EA A8 D5 54 E8 28 D4 54 E8 E8 D4 D4 E8 EA 54 D5 A8 EA 54 D5 00 C0 00
80 > } image } if PT 25 eq {  16 16 1 [ 16 0 0 16 neg 0 16 ] { < FF FE FF FC
FF F8 FF F0 F0 00 F0 00 F0 20 F0 60 F0 E0 F1 E0 F3 E0 F0 00 E0 00 C0 00 80 00
00 00 > } image } if gr } def /FA { /PT exch def gsave clip 0 0 translate 1 1
54 { 1 sub 47.2 mul /Xcurr exch def 1 1 74 { 1 sub 47.2 mul /Ycurr exch def
gsave Xcurr Ycurr translate PT DP gr } for } for gr } def
/reencdict 24 dict def /ReEncode {reencdict begin /nco&na exch def
/nfnam exch def /basefontname exch def /basefontdict basefontname findfont def
/newfont basefontdict maxlength dict def basefontdict {exch dup /FID ne
{dup /Encoding eq {exch dup length array copy newfont 3 1 roll put} {exch
newfont 3 1 roll put} ifelse} {pop pop} ifelse } forall newfont
/FontName nfnam put nco&na aload pop nco&na length 2 idiv {newfont
/Encoding get 3 1 roll put} repeat nfnam newfont definefont pop end } def
/accvec [ 176 /agrave 181 /Agrave 190 /acircumflex 192 /Acircumflex
201 /adieresis 204 /Adieresis 209 /ccedilla 210 /Ccedilla 211 /eacute
212 /Eacute 213 /egrave 214 /Egrave 215 /ecircumflex 216 /Ecircumflex
217 /edieresis 218 /Edieresis 219 /icircumflex 220 /Icircumflex
221 /idieresis 222 /Idieresis 223 /ntilde 224 /Ntilde 226 /ocircumflex
228 /Ocircumflex 229 /odieresis 230 /Odieresis 231 /ucircumflex 236 /Ucircumflex
237 /udieresis 238 /Udieresis 239 /aring 242 /Aring 243 /ydieresis
244 /Ydieresis 246 /aacute 247 /Aacute 252 /ugrave 253 /Ugrave] def
/Times-Roman /Times-Roman accvec ReEncode
/Times-Italic /Times-Italic accvec ReEncode
/Times-Bold /Times-Bold accvec ReEncode
/Times-BoldItalic /Times-BoldItalic accvec ReEncode
/Helvetica /Helvetica accvec ReEncode
/Helvetica-Oblique /Helvetica-Oblique accvec ReEncode
/Helvetica-Bold /Helvetica-Bold accvec ReEncode
/Helvetica-BoldOblique /Helvetica-BoldOblique  accvec ReEncode
/Courier /Courier accvec ReEncode
/Courier-Oblique /Courier-Oblique accvec ReEncode
/Courier-Bold /Courier-Bold accvec ReEncode
/Courier-BoldOblique /Courier-BoldOblique accvec ReEncode
/oshow {gsave [] 0 sd true charpath stroke gr} def
/stwn { /fs exch def /fn exch def /text exch def fn findfont fs sf
 text sw pop xs add /xs exch def} def
/stwb { /fs exch def /fn exch def /nbas exch def /textf exch def
textf length /tlen exch def nbas tlen gt {/nbas tlen def} if
fn findfont fs sf textf dup length nbas sub nbas getinterval sw
pop neg xs add /xs exch def} def
/accspe [ 65 /plusminus 66 /bar 67 /existential 68 /universal
69 /exclam 70 /numbersign 71 /greater 72 /question 73 /integral
74 /colon 75 /semicolon 76 /less 77 /bracketleft 78 /bracketright
79 /greaterequal 80 /braceleft 81 /braceright 82 /radical
83 /spade 84 /heart 85 /diamond 86 /club 87 /lessequal
88 /multiply 89 /percent 90 /infinity 48 /circlemultiply 49 /circleplus
50 /emptyset 51 /lozenge 52 /bullet 53 /arrowright 54 /arrowup
55 /arrowleft 56 /arrowdown 57 /arrowboth 48 /degree 44 /comma 43 /plus
 45 /angle 42 /angleleft 47 /divide 61 /notequal 40 /equivalence 41 /second
 97 /approxequal 98 /congruent 99 /perpendicular 100 /partialdiff 101 /florin
 102 /intersection 103 /union 104 /propersuperset 105 /reflexsuperset
 106 /notsubset 107 /propersubset 108 /reflexsubset 109 /element 110 /notelement
 111 /gradient 112 /logicaland 113 /logicalor 114 /arrowdblboth
 115 /arrowdblleft 116 /arrowdblup 117 /arrowdblright 118 /arrowdbldown
 119 /ampersand 120 /omega1 121 /similar 122 /aleph ] def
/Symbol /Special accspe ReEncode
%%EndProlog
 gsave  .25 .25 scale  gsave 0 0 t black [] 0 sd 1 lw 1610 2382 318 227 bl 1610
 2382 318 227 C NC 318 227 m 2382 Y s 352 227 m -34 X s [4 8] 0 sd 1928 227 m
 -1610 X s [] 0 sd 335 275 m -17 X s 335 322 m -17 X s 335 370 m -17 X s 335 417
 m -17 X s 352 465 m -34 X s [4 8] 0 sd 1928 465 m -1610 X s [] 0 sd 335 513 m
 -17 X s 335 560 m -17 X s 335 608 m -17 X s 335 656 m -17 X s 352 703 m -34 X s
 [4 8] 0 sd 1928 703 m -1610 X s [] 0 sd 335 751 m -17 X s 335 799 m -17 X s 335
 846 m -17 X s 335 894 m -17 X s 352 942 m -34 X s [4 8] 0 sd 1928 942 m -1610 X
 s [] 0 sd 335 989 m -17 X s 335 1037 m -17 X s 335 1084 m -17 X s 335 1132 m
 -17 X s 352 1180 m -34 X s [4 8] 0 sd 1928 1180 m -1610 X s [] 0 sd 335 1227 m
 -17 X s 335 1275 m -17 X s 335 1323 m -17 X s 335 1370 m -17 X s 352 1418 m -34
 X s [4 8] 0 sd 1928 1418 m -1610 X s [] 0 sd 335 1466 m -17 X s 335 1513 m -17
 X s 335 1561 m -17 X s 335 1609 m -17 X s 352 1656 m -34 X s [4 8] 0 sd 1928
 1656 m -1610 X s [] 0 sd 335 1704 m -17 X s 335 1752 m -17 X s 335 1799 m -17 X
 s 335 1847 m -17 X s 352 1894 m -34 X s [4 8] 0 sd 1928 1894 m -1610 X s
 [] 0 sd 335 1942 m -17 X s 335 1990 m -17 X s 335 2037 m -17 X s 335 2085 m -17
 X s 352 2133 m -34 X s [4 8] 0 sd 1928 2133 m -1610 X s [] 0 sd 335 2180 m -17
 X s 335 2228 m -17 X s 335 2276 m -17 X s 335 2323 m -17 X s 352 2371 m -34 X s
 [4 8] 0 sd 1928 2371 m -1610 X s [] 0 sd 335 2419 m -17 X s 335 2466 m -17 X s
 335 2514 m -17 X s 335 2561 m -17 X s 352 2609 m -34 X s [4 8] 0 sd 1928 2609 m
 -1610 X s
 /xs 0 def 
(0)
 /Times-Italic     69 stwn 
 gsave  272 204
 t   0 r  xs neg 0 t 0 0 m
 /Times-Italic findfont   69 sf 0    0 m 
(0)
 show 
 gr 
 /xs 0 def 
(0.1)
 /Times-Italic     69 stwn 
 gsave  272 442
 t   0 r  xs neg 0 t 0 0 m
 /Times-Italic findfont   69 sf 0    0 m 
(0.1)
 show 
 gr 
 /xs 0 def 
(0.2)
 /Times-Italic     69 stwn 
 gsave  272 681
 t   0 r  xs neg 0 t 0 0 m
 /Times-Italic findfont   69 sf 0    0 m 
(0.2)
 show 
 gr 
 /xs 0 def 
(0.3)
 /Times-Italic     69 stwn 
 gsave  272 919
 t   0 r  xs neg 0 t 0 0 m
 /Times-Italic findfont   69 sf 0    0 m 
(0.3)
 show 
 gr 
 /xs 0 def 
(0.4)
 /Times-Italic     69 stwn 
 gsave  272 1157
 t   0 r  xs neg 0 t 0 0 m
 /Times-Italic findfont   69 sf 0    0 m 
(0.4)
 show 
 gr 
 /xs 0 def 
(0.5)
 /Times-Italic     69 stwn 
 gsave  272 1395
 t   0 r  xs neg 0 t 0 0 m
 /Times-Italic findfont   69 sf 0    0 m 
(0.5)
 show 
 gr 
 /xs 0 def 
(0.6)
 /Times-Italic     69 stwn 
 gsave  272 1634
 t   0 r  xs neg 0 t 0 0 m
 /Times-Italic findfont   69 sf 0    0 m 
(0.6)
 show 
 gr 
 /xs 0 def 
(0.7)
 /Times-Italic     69 stwn 
 gsave  272 1872
 t   0 r  xs neg 0 t 0 0 m
 /Times-Italic findfont   69 sf 0    0 m 
(0.7)
 show 
 gr 
 /xs 0 def 
(0.8)
 /Times-Italic     69 stwn 
 gsave  272 2110
 t   0 r  xs neg 0 t 0 0 m
 /Times-Italic findfont   69 sf 0    0 m 
(0.8)
 show 
 gr 
 /xs 0 def 
(0.9)
 /Times-Italic     69 stwn 
 gsave  272 2348
 t   0 r  xs neg 0 t 0 0 m
 /Times-Italic findfont   69 sf 0    0 m 
(0.9)
 show 
 gr 
 /xs 0 def 
(1)
 /Times-Italic     69 stwn 
 gsave  272 2586
 t   0 r  xs neg 0 t 0 0 m
 /Times-Italic findfont   69 sf 0    0 m 
(1)
 show 
 gr  [] 0 sd 318 227 m 1610 X s 318 261 m -34 Y s [4 8] 0 sd 318 2609 m -2382 Y
 s [] 0 sd 350 244 m -17 Y s 382 244 m -17 Y s 414 244 m -17 Y s 446 244 m -17 Y
 s 479 261 m -34 Y s [4 8] 0 sd 479 2609 m -2382 Y s [] 0 sd 511 244 m -17 Y s
 543 244 m -17 Y s 575 244 m -17 Y s 608 244 m -17 Y s 640 261 m -34 Y s
 [4 8] 0 sd 640 2609 m -2382 Y s [] 0 sd 672 244 m -17 Y s 704 244 m -17 Y s 736
 244 m -17 Y s 769 244 m -17 Y s 801 261 m -34 Y s [4 8] 0 sd 801 2609 m -2382 Y
 s [] 0 sd 833 244 m -17 Y s 865 244 m -17 Y s 898 244 m -17 Y s 930 244 m -17 Y
 s 962 261 m -34 Y s [4 8] 0 sd 962 2609 m -2382 Y s [] 0 sd 994 244 m -17 Y s
 1026 244 m -17 Y s 1059 244 m -17 Y s 1091 244 m -17 Y s 1123 261 m -34 Y s
 [4 8] 0 sd 1123 2609 m -2382 Y s [] 0 sd 1155 244 m -17 Y s 1187 244 m -17 Y s
 1220 244 m -17 Y s 1252 244 m -17 Y s 1284 261 m -34 Y s [4 8] 0 sd 1284 2609 m
 -2382 Y s [] 0 sd 1316 244 m -17 Y s 1349 244 m -17 Y s 1381 244 m -17 Y s 1413
 244 m -17 Y s 1445 261 m -34 Y s [4 8] 0 sd 1445 2609 m -2382 Y s [] 0 sd 1477
 244 m -17 Y s 1510 244 m -17 Y s 1542 244 m -17 Y s 1574 244 m -17 Y s 1606 261
 m -34 Y s [4 8] 0 sd 1606 2609 m -2382 Y s [] 0 sd 1639 244 m -17 Y s 1671 244
 m -17 Y s 1703 244 m -17 Y s 1735 244 m -17 Y s 1767 261 m -34 Y s [4 8] 0 sd
 1767 2609 m -2382 Y s [] 0 sd 1800 244 m -17 Y s 1832 244 m -17 Y s 1864 244 m
 -17 Y s 1896 244 m -17 Y s 1928 261 m -34 Y s [4 8] 0 sd 1928 2609 m -2382 Y s
 /xs 0 def 
(0)
 /Times-Italic     69 stwn 
 gsave  318 159
 t   0 r  xs 2 div neg 0 t 0 0 m
 /Times-Italic findfont   69 sf 0    0 m 
(0)
 show 
 gr 
 /xs 0 def 
(0.25)
 /Times-Italic     69 stwn 
 gsave  479 159
 t   0 r  xs 2 div neg 0 t 0 0 m
 /Times-Italic findfont   69 sf 0    0 m 
(0.25)
 show 
 gr 
 /xs 0 def 
(0.5)
 /Times-Italic     69 stwn 
 gsave  640 159
 t   0 r  xs 2 div neg 0 t 0 0 m
 /Times-Italic findfont   69 sf 0    0 m 
(0.5)
 show 
 gr 
 /xs 0 def 
(0.75)
 /Times-Italic     69 stwn 
 gsave  801 159
 t   0 r  xs 2 div neg 0 t 0 0 m
 /Times-Italic findfont   69 sf 0    0 m 
(0.75)
 show 
 gr 
 /xs 0 def 
(1)
 /Times-Italic     69 stwn 
 gsave  962 159
 t   0 r  xs 2 div neg 0 t 0 0 m
 /Times-Italic findfont   69 sf 0    0 m 
(1)
 show 
 gr 
 /xs 0 def 
(1.25)
 /Times-Italic     69 stwn 
 gsave  1123 159
 t   0 r  xs 2 div neg 0 t 0 0 m
 /Times-Italic findfont   69 sf 0    0 m 
(1.25)
 show 
 gr 
 /xs 0 def 
(1.5)
 /Times-Italic     69 stwn 
 gsave  1284 159
 t   0 r  xs 2 div neg 0 t 0 0 m
 /Times-Italic findfont   69 sf 0    0 m 
(1.5)
 show 
 gr 
 /xs 0 def 
(1.75)
 /Times-Italic     69 stwn 
 gsave  1445 159
 t   0 r  xs 2 div neg 0 t 0 0 m
 /Times-Italic findfont   69 sf 0    0 m 
(1.75)
 show 
 gr 
 /xs 0 def 
(2)
 /Times-Italic     69 stwn 
 gsave  1606 159
 t   0 r  xs 2 div neg 0 t 0 0 m
 /Times-Italic findfont   69 sf 0    0 m 
(2)
 show 
 gr 
 /xs 0 def 
(2.25)
 /Times-Italic     69 stwn 
 gsave  1767 159
 t   0 r  xs 2 div neg 0 t 0 0 m
 /Times-Italic findfont   69 sf 0    0 m 
(2.25)
 show 
 gr 
 /xs 0 def 
(2.5)
 /Times-Italic     69 stwn 
 gsave  1928 159
 t   0 r  xs 2 div neg 0 t 0 0 m
 /Times-Italic findfont   69 sf 0    0 m 
(2.5)
 show 
 gr  1610 2382 318 227 C [] 0 sd 5 lw 318 227 m 16 X s 334 227 m 16 X s 350 227
 m 16 X s 366 227 m 16 X s 382 227 m 16 X s 398 227 m 16 X s 414 227 m 16 X s
 430 227 m 16 X s 446 227 m 17 X s 463 227 m 16 X s 479 2609 m 16 X s 495 2609 m
 16 X s 527 1703 m 7 Y s 527 1744 m 6 Y s /w 34
 def /w2 {w 2 div} def /w3 {w 3 div} def 527 1727 m20 559 1991 m20 591 2057 m20
 624 2084 m20 656 2091 m20 688 2132 m20 720 2124 m20 753 2172 m20 785 2241 m20
 817 2286 m20 849 2342 m20 881 2359 m20 914 2366 m20 946 2380 m20 978 2388 m20
 1010 2393 m20 1043 2404 m20 1075 2398 m20 1107 2438 m20 1139 2445 m20 1171 2471
 m20 1204 2459 m20 1236 2473 m20 1268 2512 m20 1300 2466 m20 1332 2477 m20 1365
 2483 m20 1397 2514 m20 1429 2446 m 1 Y s 1429 2481 m 1 Y s 1429 2464 m20 1461
 2483 m s 1461 2517 m s 1461 2500 m20 1494 2478 m 1 Y s 1494 2513 m 1 Y s 1494
 2496 m20 1526 2469 m 2 Y s 1526 2505 m 1 Y s 1526 2488 m20 1558 2450 m 4 Y s
 1558 2488 m 5 Y s 1558 2471 m20 1590 2478 m 3 Y s 1590 2516 m 3 Y s 1590 2499
 m20 1622 2465 m 5 Y s 1622 2504 m 4 Y s 1622 2487 m20 1655 2468 m 6 Y s 1655
 2508 m 6 Y s 1655 2491 m20 1687 2420 m 12 Y s 1687 2466 m 11 Y s 1687 2449 m20
 1719 2479 m 7 Y s 1719 2521 m 7 Y s 1719 2504 m20 1751 2460 m 10 Y s 1751 2504
 m 9 Y s 1751 2487 m20 1784 2425 m 16 Y s 1784 2475 m 17 Y s 1784 2458 m20 1816
 2434 m 17 Y s 1816 2485 m 17 Y s 1816 2468 m20 1848 2472 m 14 Y s 1848 2520 m
 15 Y s 1848 2503 m20 1880 2481 m 13 Y s 1880 2529 m 13 Y s 1880 2511 m20 1912
 2426 m 37 Y s 1912 2463 m 38 Y s 1896 2463 m 16 X s 1912 2463 m 16 X s 2269
 2836 0 0 C 1610 2382 318 227 C 2269 2836 0 0 C 1 lw 1284 1537 m20
 gsave  1352 1509
 t   0 r 0 0 m
 /Times-Italic findfont   86 sf 0    0 m 
(electron)
 show 
 gr  1610 2382 318 227 C 5 lw 1 0 0 c 318 227 m 16 X s 334 227 m 16 X s 366 1480
 m 154 Y s 366 1668 m 155 Y s 366 1651 m25 398 1256 m 40 Y s 398 1330 m 40 Y s
 398 1313 m25 430 474 m 4 Y s 430 512 m 4 Y s 430 495 m25 463 1368 m 19 Y s 463
 1421 m 20 Y s 463 1404 m25 495 1124 m 14 Y s 495 1172 m 13 Y s 495 1155 m25 527
 629 m 4 Y s 527 667 m 3 Y s 527 650 m25 559 445 m25 591 362 m25 624 335 m25 656
 310 m25 688 298 m25 720 264 m25 753 254 m25 785 273 m25 817 270 m25 849 261 m25
 881 270 m25 914 269 m25 946 268 m25 978 303 m25 1010 296 m25 1043 287 m25 1075
 270 m25 1107 268 m 1 Y s 1107 303 m s 1107 286 m25 1139 278 m 4 Y s 1139 316 m
 4 Y s 1139 299 m25 1171 322 m 11 Y s 1171 367 m 11 Y s 1171 350 m25 1204 301 m
 10 Y s 1204 345 m 10 Y s 1204 328 m25 1236 282 m 8 Y s 1236 324 m 8 Y s 1236
 307 m25 1268 273 m 9 Y s 1268 316 m 8 Y s 1268 299 m25 1300 271 m 9 Y s 1300
 314 m 9 Y s 1300 297 m25 1332 256 m 7 Y s 1332 297 m 6 Y s 1332 280 m25 1365
 279 m 15 Y s 1365 328 m 14 Y s 1365 311 m25 1397 305 m 23 Y s 1397 362 m 22 Y s
 1397 345 m25 1429 391 m 40 Y s 1429 465 m 40 Y s 1429 448 m25 1461 285 m 23 Y s
 1461 342 m 23 Y s 1461 325 m25 1494 237 m 7 Y s 1494 278 m 8 Y s 1494 261 m25
 1526 252 m 17 Y s 1526 303 m 17 Y s 1526 286 m25 1558 285 m 31 Y s 1558 350 m
 30 Y s 1558 333 m25 1590 274 m 30 Y s 1590 338 m 31 Y s 1590 321 m25 1622 261 m
 29 Y s 1622 324 m 28 Y s 1622 307 m25 1655 335 m 58 Y s 1655 427 m 57 Y s 1655
 410 m25 1687 339 m 59 Y s 1687 432 m 60 Y s 1687 415 m25 1719 247 m 31 Y s 1719
 312 m 31 Y s 1719 295 m25 1751 227 m 23 Y s 1751 284 m 24 Y s 1751 267 m25 1784
 282 m 58 Y s 1784 374 m 58 Y s 1784 357 m25 1816 254 m 48 Y s 1816 336 m 49 Y s
 1816 319 m25 1848 258 m 56 Y s 1848 348 m 56 Y s 1848 331 m25 1880 261 m 65 Y s
 1880 360 m 64 Y s 1880 343 m25 1912 343 m 115 Y s 1912 458 m 115 Y s 1896 458 m
 16 X s 1912 458 m 16 X s 2269 2836 0 0 C 1610 2382 318 227 C 2269 2836 0 0 C 1
 lw 1284 1299 m25
 gsave  1352 1271
 t   0 r 0 0 m
 /Times-Italic findfont   86 sf 0    0 m 
(pion)
 show 
 gr  1610 2382 318 227 C 2269 2836 0 0 C 1610 2382 318 227 C 2269 2836 0 0 C
 gsave  1961 203
 t   0 r 0 0 m
 /Times-Italic findfont   69 sf 0    0 m 
(0)
 show 
 gr  1610 2382 318 227 C 2269 2836 0 0 C 1610 2382 318 227 C 2269 2836 0 0 C
 gsave  1961 441
 t   0 r 0 0 m
 /Times-Italic findfont   69 sf 0    0 m 
(0.01)
 show 
 gr  1610 2382 318 227 C 2269 2836 0 0 C 1610 2382 318 227 C 2269 2836 0 0 C
 gsave  1961 680
 t   0 r 0 0 m
 /Times-Italic findfont   69 sf 0    0 m 
(0.02)
 show 
 gr  1610 2382 318 227 C 2269 2836 0 0 C 1610 2382 318 227 C 2269 2836 0 0 C
 gsave  1961 918
 t   0 r 0 0 m
 /Times-Italic findfont   69 sf 0    0 m 
(0.03)
 show 
 gr  1610 2382 318 227 C 2269 2836 0 0 C 1610 2382 318 227 C 2269 2836 0 0 C
 gsave  1961 1156
 t   0 r 0 0 m
 /Times-Italic findfont   69 sf 0    0 m 
(0.04)
 show 
 gr  1610 2382 318 227 C 2269 2836 0 0 C 1610 2382 318 227 C 2269 2836 0 0 C
 gsave  1961 1394
 t   0 r 0 0 m
 /Times-Italic findfont   69 sf 0    0 m 
(0.05)
 show 
 gr  1610 2382 318 227 C 2269 2836 0 0 C 1610 2382 318 227 C 2269 2836 0 0 C
 gsave  1961 1632
 t   0 r 0 0 m
 /Times-Italic findfont   69 sf 0    0 m 
(0.06)
 show 
 gr  1610 2382 318 227 C 2269 2836 0 0 C 1610 2382 318 227 C 2269 2836 0 0 C
 gsave  1961 1871
 t   0 r 0 0 m
 /Times-Italic findfont   69 sf 0    0 m 
(0.07)
 show 
 gr  1610 2382 318 227 C 2269 2836 0 0 C 1610 2382 318 227 C 2269 2836 0 0 C
 gsave  1961 2109
 t   0 r 0 0 m
 /Times-Italic findfont   69 sf 0    0 m 
(0.08)
 show 
 gr  1610 2382 318 227 C 2269 2836 0 0 C 1610 2382 318 227 C 2269 2836 0 0 C
 gsave  1961 2347
 t   0 r 0 0 m
 /Times-Italic findfont   69 sf 0    0 m 
(0.09)
 show 
 gr  1610 2382 318 227 C 2269 2836 0 0 C 1610 2382 318 227 C 2269 2836 0 0 C
 gsave  1961 2585
 t   0 r 0 0 m
 /Times-Italic findfont   69 sf 0    0 m 
(0.10)
 show 
 gr  1610 2382 318 227 C 2269 2836 0 0 C
 /xs 0 def 
(fake rate)
 /Times-Italic     86 stwn 
 gsave  2189 2609
 t  90 r  xs neg 0 t 0 0 m
 /Times-Italic findfont   86 sf 0    0 m 
(fake rate)
 show 
 gr  1610 2382 318 227 C 2269 2836 0 0 C black
 /xs 0 def 
(P)
 /Times-Italic     86 stwn 
(lab)
 /Times-Italic     60 stwn 
(\(GeV/c\))
 /Times-Italic     86 stwn 
 gsave  1928 59
 t   0 r  xs neg 0 t 0 0 m
 /Times-Italic findfont   86 sf 0    0 m 
(P)
 show 
 currentpoint pop 0 t 
 /Times-Italic findfont   60 sf 0  -29 m 
(lab)
 show 
 currentpoint pop 0 t 
 /Times-Italic findfont   86 sf 0    0 m 
(\(GeV/c\))
 show 
 gr 
 /xs 0 def 
(efficiency)
 /Times-Italic     86 stwn 
 gsave  159 2609
 t  90 r  xs neg 0 t 0 0 m
 /Times-Italic findfont   86 sf 0    0 m 
(efficiency)
 show 
 gr  1610 2382 318 227 C
 gr  gr 
showpage
end
%%EOF

