%!PS-Adobe-2.0 EPSF-2.0
%%BoundingBox: 0 0 567 709
%%Title: leid.eps
%%Creator: HIGZ Version 1.23/07
%%CreationDate: :0/11/17   16.17
%%EndComments
%%BeginProlog
80 dict begin
/s {stroke} def /l {lineto} def /m {moveto} def /t {translate} def
/sw {stringwidth} def /r {rotate} def /rl {roll}  def /R {repeat} def
/d {rlineto} def /rm {rmoveto} def /gr {grestore} def /f {eofill} def
/c {setrgbcolor} def /lw {setlinewidth} def /sd {setdash} def
/cl {closepath} def /sf {scalefont setfont} def /black {0 setgray} def
/box {m dup 0 exch d exch 0 d 0 exch neg d cl} def
/NC{systemdict begin initclip end}def/C{NC box clip newpath}def
/bl {box s} def /bf {box f} def /Y { 0 exch d} def /X { 0 d} def 
/mp {newpath /y exch def /x exch def} def
/side {[w .77 mul w .23 mul] .385 w mul sd w 0 l currentpoint t -144 r} def
/mr {mp x y w2 0 360 arc} def /m24 {mr s} def /m20 {mr f} def
/mb {mp x y w2 add m w2 neg 0 d 0 w neg d w 0 d 0 w d cl} def
/mt {mp x y w2 add m w2 neg w neg d w 0 d cl} def
/m21 {mb f} def /m25 {mb s} def /m22 {mt f} def /m26 {mt s} def
/m23 {mp x y w2 sub m w2 w d w neg 0 d cl f} def
/m27 {mp x y w2 add m w3 neg w2 neg d w3 w2 neg d w3  w2 d cl s} def
/m28 {mp x w2 sub y w2 sub w3 add m w3 0 d 0 w3 neg d w3 0 d 0 w3 d w3 0 d
 0 w3 d w3 neg 0 d 0 w3 d w3 neg 0 d
 0 w3 neg d w3 neg 0 d cl s } def
/m29 {mp gsave x w2 sub y w2 add w3 sub m currentpoint t
 4 {side} repeat cl fill gr} def
/m30 {mp gsave x w2 sub y w2 add w3 sub m currentpoint t
 5 {side} repeat s gr} def
/m31 {mp x y w2 sub m 0 w d x w2 sub y m w 0 d
 x w2 sub y w2 add m w w neg d x w2 sub y w2
 sub m w w d s} def
/m2 {mp x y w2 sub m 0 w d x w2 sub y m w 0 d s} def
/m5 {mp x w2 sub y w2 sub m w w d x w2 sub y w2 add m w w neg d s} def
/DP {/PT exch def gsave 47.2 47.2 scale PT 1  eq { 16 16 1 [ 16 0 0 16 neg 0 16
] { < AA AA 55 55 AA AA 55 55 AA AA 55 55 AA AA 55 55 AA AA 55 55 AA AA 55 55
AA AA 55 55 AA AA 55 55 > } image } if PT 2 eq { 16 16 1 [ 16 0 0 16 neg 0 16
] { < BB BB EE EE BB BB EE EE BB BB EE EE BB BB EE EE BB BB EE EE BB BB EE EE
BB BB EE EE BB BB EE EE > } image } if PT 3 eq { 16 16 1 [ 16 0 0 16 neg 0 16
] { < FF FF BB BB FF FF EE EE FF FF BB BB FF FF EE EE FF FF BB BB FF FF EE EE
FF FF BB BB FF FF EE EE > } image } if PT 4 eq { 16 16 1 [ 16 0 0 16 neg 0 16
] { < DF DF BF BF 7F 7F FE FE FD FD FB FB F7 F7 EF EF DF DF BF BF 7F 7F FE FE
FD FD FB FB F7 F7 EF EF > } image } if PT 5 eq { 16 16 1 [ 16 0 0 16 neg 0 16
] { < 7F 7F BF B F DF DF EF EF F7 F7 FB FB FD FD FE FE 7F 7F BF BF DF DF EF
EF F7 F7 FB FB FD FD FE FE > } image } if PT 6 eq { 16 16 1 [ 16 0 0 16 neg 0
16 ] { < BB BB BB BB BB BB BB BB BB BB BB BB BB BB BB BB BB BB BB BB BB BB BB
BB BB BB BB BB BB BB BB BB > } image } if PT 7 eq { 16 16 1 [ 16 0 0 16 neg 0
16 ] { < FF FF FF FF FF FF 00 00 FF FF FF FF FF FF 00 00 FF FF FF FF FF FF 00
00 FF FF FF FF FF FF 00 00 > } image } if PT 8 eq { 16 16 1 [ 16 0 0 16 neg 0
16 ] { < EE EE 47 47 83 83 C5 C5 EE EE 5C 5C 38 38 74 74 EE EE 47 47 83 83 C5
C5 EE EE 5C 5C 38 38 74 74 > } image } if PT 9 eq { 16 16 1 [ 16 0 0 16 neg 0
16 ] { < EF EF EF EF D7 D7 38 38 FE FE FE FE 7D 7D 83 83 EF EF EF EF D7 D7 38
38  FE FE FE FE 7D 7D 83 83 > } image } if PT 10 eq { 16 16 1 [ 16 0 0 16 neg
0 16 ] { <  EF EF EF EF EF EF 00 00 FE FE FE FE FE FE 00 00 EF EF EF EF EF EF
00 00 FE FE FE FE FE FE 00 00 > } image } if PT 11 eq { 16 16 1 [ 16 0 0 16
neg 0 16 ] { < F7 F7 B6 B6 D5 D5 E3 E3 D5 D5 B6 B6 F7 F7 FF FF 7F 7F 6B 6B 5D
5D 3E 3E 5D 5D 6B 6B 7F 7F FF FF > } image } if PT 12 eq { 16 16 1 [ 16 0 0
16 neg 0 16 ] { < E3 E3 DD DD BE BE BE BE BE BE DD DD E3 E3 FF FF 3E 3E DD DD
EB EB EB EB EB EB DD DD 3E 3E FF FF > } image } if PT 13 eq { 16 16 1 [ 16 0
0 16 neg 0 16 ] { <  FE FE 7D 7D BB BB D7 D7 EF EF D7 D7 BB BB 7D 7D FE FE 7D
7D BB BB D7 D7 EF EF D7 D7 BB BB 7D 7D > } image } if PT 14 eq { 16 16 1 [ 16
0 0 16 neg 0 16 ] { < 00 00 EE EF EE EF EE EF 0E E0 EE EE EE EE EE EE 00 EE
FE EE FE EE FE EE 00 00 FE EF FE EF FE EF > } image } if PT 15 eq { 16 16 1 [
16 0 0 16 neg 0 16 ] { < DD DD AA AA DD DD FF FF 77 77 AA AA 77 77 FF FF DD
DD AA AA DD DD FF FF 77 77 AA AA 77 77 FF FF > } image } if PT 16 eq { 16 16
1 [ 16 0 0 16 neg 0 16 ] { <  F1 F1 EE EE 1F 1F FF FF F1 F1 EE EE 1F 1F FF FF
F1 F1 EE EE 1F 1F FF FF F1 F1 EE EE 1F 1F FF FF > } image } if PT 17 eq { 16
16 1 [ 16 0 0 16 neg 0 16 ] { <  EE EE DD DD BB BB FF FF EE EE DD DD BB BB FF
 FF EE EE DD DD BB BB FF FF EE EE DD DD BB BB FF FF > } image } if PT 18 eq {
16 16 1 [ 16 0 0 16 neg 0 16 ] { <  BB BB DD DD EE EE FF FF BB BB DD DD EE EE
FF FF BB BB DD DD EE EE FF FF BB BB DD DD EE EE FF FF > } image } if PT 19 eq
{ 16 16 1 [ 16 0 0 16 neg 0 16 ] { < 1F FC 67 F3 7B EF BD DE BD DE DE BD E6
B3 F8 0F E6 B3 DE BD BD DE BD DE 7B EF 67 F3 1F FC 7F FF > } image } if PT
20 eq { 16 16 1 [ 16 0 0 16 neg 0 16 ] { < DD DD EE EE EE EE EE EE DD DD BB
BB BB BB BB BB DD DD EE EE EE EE EE EE DD DD BB BB BB BB BB BB > } image }
if PT 21 eq { 16 16 1 [ 16 0 0 16 neg 0 16 ] { < 0E 0E EF EF EF EF EF EF E0
E0 FE FE FE FE FE FE 0E 0E EF EF EF EF EF EF E0 E0 FE FE FE FE FE FE > }
image }  if PT 22 eq { 16 16 1 [ 16 0 0 16 neg 0 16 ] { < 70 70 F7 F7 F7 F7 F7
F7 07 07 7F 7F 7F 7F 7F 7F 70 70 F7 F7 F7 F7 F7 F7 07 07 7F 7F 7F 7F 7F 7F >
} image } if PT 23 eq  { 16 16 1 [ 16 0 0 16 neg 0 16 ] { < AA AA 55 55 A9 A9
D1 D1 E1 E1 D1 D1 A9 A9 55 55 AA AA 55 55 A9 A9 D1 D1 E1 E1 D1 D1 A9 A9 55 55
> } image } if PT 24 eq { 16 16 1 [ 16 0 0 16 neg 0 16 ] { < FF FE FF FC EA
A8 D5 54 EA A8 D5 54 E8 28 D4 54 E8 E8 D4 D4 E8 EA 54 D5 A8 EA 54 D5 00 C0 00
80 > } image } if PT 25 eq {  16 16 1 [ 16 0 0 16 neg 0 16 ] { < FF FE FF FC
FF F8 FF F0 F0 00 F0 00 F0 20 F0 60 F0 E0 F1 E0 F3 E0 F0 00 E0 00 C0 00 80 00
00 00 > } image } if gr } def /FA { /PT exch def gsave clip 0 0 translate 1 1
54 { 1 sub 47.2 mul /Xcurr exch def 1 1 74 { 1 sub 47.2 mul /Ycurr exch def
gsave Xcurr Ycurr translate PT DP gr } for } for gr } def
/reencdict 24 dict def /ReEncode {reencdict begin /nco&na exch def
/nfnam exch def /basefontname exch def /basefontdict basefontname findfont def
/newfont basefontdict maxlength dict def basefontdict {exch dup /FID ne
{dup /Encoding eq {exch dup length array copy newfont 3 1 roll put} {exch
newfont 3 1 roll put} ifelse} {pop pop} ifelse } forall newfont
/FontName nfnam put nco&na aload pop nco&na length 2 idiv {newfont
/Encoding get 3 1 roll put} repeat nfnam newfont definefont pop end } def
/accvec [ 176 /agrave 181 /Agrave 190 /acircumflex 192 /Acircumflex
201 /adieresis 204 /Adieresis 209 /ccedilla 210 /Ccedilla 211 /eacute
212 /Eacute 213 /egrave 214 /Egrave 215 /ecircumflex 216 /Ecircumflex
217 /edieresis 218 /Edieresis 219 /icircumflex 220 /Icircumflex
221 /idieresis 222 /Idieresis 223 /ntilde 224 /Ntilde 226 /ocircumflex
228 /Ocircumflex 229 /odieresis 230 /Odieresis 231 /ucircumflex 236 /Ucircumflex
237 /udieresis 238 /Udieresis 239 /aring 242 /Aring 243 /ydieresis
244 /Ydieresis 246 /aacute 247 /Aacute 252 /ugrave 253 /Ugrave] def
/Times-Roman /Times-Roman accvec ReEncode
/Times-Italic /Times-Italic accvec ReEncode
/Times-Bold /Times-Bold accvec ReEncode
/Times-BoldItalic /Times-BoldItalic accvec ReEncode
/Helvetica /Helvetica accvec ReEncode
/Helvetica-Oblique /Helvetica-Oblique accvec ReEncode
/Helvetica-Bold /Helvetica-Bold accvec ReEncode
/Helvetica-BoldOblique /Helvetica-BoldOblique  accvec ReEncode
/Courier /Courier accvec ReEncode
/Courier-Oblique /Courier-Oblique accvec ReEncode
/Courier-Bold /Courier-Bold accvec ReEncode
/Courier-BoldOblique /Courier-BoldOblique accvec ReEncode
/oshow {gsave [] 0 sd true charpath stroke gr} def
/stwn { /fs exch def /fn exch def /text exch def fn findfont fs sf
 text sw pop xs add /xs exch def} def
/stwb { /fs exch def /fn exch def /nbas exch def /textf exch def
textf length /tlen exch def nbas tlen gt {/nbas tlen def} if
fn findfont fs sf textf dup length nbas sub nbas getinterval sw
pop neg xs add /xs exch def} def
/accspe [ 65 /plusminus 66 /bar 67 /existential 68 /universal
69 /exclam 70 /numbersign 71 /greater 72 /question 73 /integral
74 /colon 75 /semicolon 76 /less 77 /bracketleft 78 /bracketright
79 /greaterequal 80 /braceleft 81 /braceright 82 /radical
83 /spade 84 /heart 85 /diamond 86 /club 87 /lessequal
88 /multiply 89 /percent 90 /infinity 48 /circlemultiply 49 /circleplus
50 /emptyset 51 /lozenge 52 /bullet 53 /arrowright 54 /arrowup
55 /arrowleft 56 /arrowdown 57 /arrowboth 48 /degree 44 /comma 43 /plus
 45 /angle 42 /angleleft 47 /divide 61 /notequal 40 /equivalence 41 /second
 97 /approxequal 98 /congruent 99 /perpendicular 100 /partialdiff 101 /florin
 102 /intersection 103 /union 104 /propersuperset 105 /reflexsuperset
 106 /notsubset 107 /propersubset 108 /reflexsubset 109 /element 110 /notelement
 111 /gradient 112 /logicaland 113 /logicalor 114 /arrowdblboth
 115 /arrowdblleft 116 /arrowdblup 117 /arrowdblright 118 /arrowdbldown
 119 /ampersand 120 /omega1 121 /similar 122 /aleph ] def
/Symbol /Special accspe ReEncode
%%EndProlog
 gsave  .25 .25 scale  gsave 0 0 t black [] 0 sd 1 lw 1610 2382 318 227 bl 2269
 2836 0 0 C 1610 2382 318 227 C [12 12] 0 sd 5 lw 1 0 0 c 318 2474 m -19 Y 16 X
 -879 Y 16 X -140 Y 15 X -41 Y 16 X 28 Y 16 X -136 Y 16 X -85 Y 16 X -75 Y 16 X
 -46 Y 16 X -70 Y 16 X -25 Y 16 X -2 Y 16 X -45 Y 16 X -39 Y 16 X -55 Y 16 X -14
 Y 16 X 4 Y 16 X -23 Y 16 X -8 Y 16 X -71 Y 16 X 34 Y 16 X -68 Y 16 X 31 Y 15 X
 -42 Y 16 X 22 Y 16 X -77 Y 16 X -2 Y 16 X 41 Y 16 X -18 Y 16 X 22 Y 16 X -66 Y
 16 X 23 Y 16 X -21 Y 16 X -41 Y 16 X 81 Y 16 X -54 Y 16 X -34 Y 16 X 10 Y 48 X
 -81 Y 16 X 35 Y 15 X -13 Y 16 X 39 Y 16 X -56 Y 16 X 26 Y 16 X 33 Y 16 X -64 Y
 16 X 42 Y 16 X -20 Y 16 X -22 Y 16 X -14 Y 16 X -10 Y 16 X 38 Y 16 X -49 Y 16 X
 44 Y 16 X 22 Y 16 X -143 Y 16 X 15 Y 16 X 62 Y 16 X 26 Y 16 X -37 Y 15 X -12 Y
 16 X 34 Y 16 X 29 Y 16 X -24 Y 32 X 19 Y 16 X -29 Y 16 X 20 Y 16 X 18 Y 16 X
 -67 Y 16 X -6 Y 16 X 55 Y 16 X -5 Y 16 X 40 Y 16 X -55 Y 16 X 34 Y 16 X -63 Y
 16 X 49 Y 32 X -26 Y 15 X 40 Y 16 X 21 Y 16 X -45 Y 16 X 41 Y 16 X 4 Y 16 X 5 Y
 16 X 30 Y 16 X -47 Y 16 X 103 Y 16 X -60 Y 16 X 45 Y 16 X -38 Y 16 X 88 Y 16 X
 -35 Y 16 X 53 Y 16 X 13 Y 16 X 91 Y 16 X 125 Y 16 X 250 Y 15 X 1332 Y s NC
 [] 0 sd 1 lw black 318 227 m 2382 Y s 335 271 m -17 X s 335 311 m -17 X s 335
 345 m -17 X s 335 375 m -17 X s 335 401 m -17 X s 352 425 m -34 X s [4 8] 0 sd
 1928 425 m -1610 X s
 /xs 0 def 
(10)
 /Times-Italic     69 stwn 
 gsave  250 402
 t   0 r  xs neg 0 t 0 0 m
 /Times-Italic findfont   69 sf 0    0 m 
(10)
 show 
 gr 
 /xs 0 def 
(-4)
 /Times-Italic     55 stwn 
 gsave  318 458
 t   0 r  xs neg 0 t 0 0 m
 /Times-Italic findfont   55 sf 0    0 m 
(-4)
 show 
 gr  [] 0 sd 335 579 m -17 X s 335 669 m -17 X s 335 733 m -17 X s 335 783 m -17
 X s 335 823 m -17 X s 335 858 m -17 X s 335 887 m -17 X s 335 914 m -17 X s 352
 937 m -34 X s [4 8] 0 sd 1928 937 m -1610 X s
 /xs 0 def 
(10)
 /Times-Italic     69 stwn 
 gsave  250 914
 t   0 r  xs neg 0 t 0 0 m
 /Times-Italic findfont   69 sf 0    0 m 
(10)
 show 
 gr 
 /xs 0 def 
(-3)
 /Times-Italic     55 stwn 
 gsave  318 970
 t   0 r  xs neg 0 t 0 0 m
 /Times-Italic findfont   55 sf 0    0 m 
(-3)
 show 
 gr  [] 0 sd 335 1091 m -17 X s 335 1182 m -17 X s 335 1246 m -17 X s 335 1295 m
 -17 X s 335 1336 m -17 X s 335 1370 m -17 X s 335 1400 m -17 X s 335 1426 m -17
 X s 352 1449 m -34 X s [4 8] 0 sd 1928 1449 m -1610 X s
 /xs 0 def 
(10)
 /Times-Italic     69 stwn 
 gsave  250 1427
 t   0 r  xs neg 0 t 0 0 m
 /Times-Italic findfont   69 sf 0    0 m 
(10)
 show 
 gr 
 /xs 0 def 
(-2)
 /Times-Italic     55 stwn 
 gsave  318 1482
 t   0 r  xs neg 0 t 0 0 m
 /Times-Italic findfont   55 sf 0    0 m 
(-2)
 show 
 gr  [] 0 sd 335 1604 m -17 X s 335 1694 m -17 X s 335 1758 m -17 X s 335 1808 m
 -17 X s 335 1848 m -17 X s 335 1882 m -17 X s 335 1912 m -17 X s 335 1938 m -17
 X s 352 1962 m -34 X s [4 8] 0 sd 1928 1962 m -1610 X s
 /xs 0 def 
(10)
 /Times-Italic     69 stwn 
 gsave  250 1939
 t   0 r  xs neg 0 t 0 0 m
 /Times-Italic findfont   69 sf 0    0 m 
(10)
 show 
 gr 
 /xs 0 def 
(-1)
 /Times-Italic     55 stwn 
 gsave  318 1995
 t   0 r  xs neg 0 t 0 0 m
 /Times-Italic findfont   55 sf 0    0 m 
(-1)
 show 
 gr  [] 0 sd 335 2116 m -17 X s 335 2206 m -17 X s 335 2270 m -17 X s 335 2320 m
 -17 X s 335 2361 m -17 X s 335 2395 m -17 X s 335 2425 m -17 X s 335 2451 m -17
 X s 352 2474 m -34 X s [4 8] 0 sd 1928 2474 m -1610 X s
 /xs 0 def 
(1)
 /Times-Italic     69 stwn 
 gsave  272 2452
 t   0 r  xs neg 0 t 0 0 m
 /Times-Italic findfont   69 sf 0    0 m 
(1)
 show 
 gr  [] 0 sd 318 227 m 1610 X s 326 261 m -34 Y s [4 8] 0 sd 326 2609 m -2382 Y
 s [] 0 sd 405 244 m -17 Y s 485 244 m -17 Y s 565 244 m -17 Y s 645 261 m -34 Y
 s [4 8] 0 sd 645 2609 m -2382 Y s [] 0 sd 724 244 m -17 Y s 804 244 m -17 Y s
 884 244 m -17 Y s 964 261 m -34 Y s [4 8] 0 sd 964 2609 m -2382 Y s [] 0 sd
 1043 244 m -17 Y s 1123 244 m -17 Y s 1203 244 m -17 Y s 1283 261 m -34 Y s
 [4 8] 0 sd 1283 2609 m -2382 Y s [] 0 sd 1362 244 m -17 Y s 1442 244 m -17 Y s
 1522 244 m -17 Y s 1602 261 m -34 Y s [4 8] 0 sd 1602 2609 m -2382 Y s [] 0 sd
 1681 244 m -17 Y s 1761 244 m -17 Y s 1841 244 m -17 Y s 1921 261 m -34 Y s
 [4 8] 0 sd 1921 2609 m -2382 Y s [] 0 sd 326 261 m -34 Y s [4 8] 0 sd 326 2609
 m -2382 Y s [] 0 sd 1921 261 m -34 Y s [4 8] 0 sd 1921 2609 m -2382 Y s
 /xs 0 def 
(0)
 /Times-Italic     69 stwn 
 gsave  326 159
 t   0 r  xs 2 div neg 0 t 0 0 m
 /Times-Italic findfont   69 sf 0    0 m 
(0)
 show 
 gr 
 /xs 0 def 
(0.2)
 /Times-Italic     69 stwn 
 gsave  645 159
 t   0 r  xs 2 div neg 0 t 0 0 m
 /Times-Italic findfont   69 sf 0    0 m 
(0.2)
 show 
 gr 
 /xs 0 def 
(0.4)
 /Times-Italic     69 stwn 
 gsave  964 159
 t   0 r  xs 2 div neg 0 t 0 0 m
 /Times-Italic findfont   69 sf 0    0 m 
(0.4)
 show 
 gr 
 /xs 0 def 
(0.6)
 /Times-Italic     69 stwn 
 gsave  1283 159
 t   0 r  xs 2 div neg 0 t 0 0 m
 /Times-Italic findfont   69 sf 0    0 m 
(0.6)
 show 
 gr 
 /xs 0 def 
(0.8)
 /Times-Italic     69 stwn 
 gsave  1602 159
 t   0 r  xs 2 div neg 0 t 0 0 m
 /Times-Italic findfont   69 sf 0    0 m 
(0.8)
 show 
 gr 
 /xs 0 def 
(1)
 /Times-Italic     69 stwn 
 gsave  1921 159
 t   0 r  xs 2 div neg 0 t 0 0 m
 /Times-Italic findfont   69 sf 0    0 m 
(1)
 show 
 gr  1610 2382 318 227 C 2269 2836 0 0 C 1610 2382 318 227 C 2269 2836 0 0 C
 [12 12] 0 sd 7 lw 1 0 0 c 1123 1449 m -227 X s
 gsave  1191 1415
 t   0 r 0 0 m
 /Times-Italic findfont  103 sf 0    0 m 
(pion)
 show 
 gr  1610 2382 318 227 C [] 0 sd 5 lw black 318 2474 m -443 Y 16 X -1084 Y 16 X
 -76 Y 15 X -56 Y 16 X -2 Y 16 X -35 Y 32 X -61 Y 16 X -65 Y 16 X 88 Y 16 X -45
 Y 16 X -48 Y 16 X 5 Y 16 X 4 Y 16 X 22 Y 16 X -36 Y 16 X -32 Y 16 X 17 Y 16 X
 -11 Y 16 X 36 Y 16 X -60 Y 16 X -26 Y 16 X 50 Y 15 X 36 Y 16 X -15 Y 16 X 5 Y
 16 X -15 Y 16 X -23 Y 32 X 33 Y 16 X -10 Y 16 X -35 Y 16 X 64 Y 16 X 31 Y 16 X
 -66 Y 16 X -29 Y 16 X 40 Y 16 X 5 Y 16 X -21 Y 16 X -24 Y 16 X -56 Y 16 X 62 Y
 15 X -6 Y 16 X 18 Y 16 X 51 Y 16 X -81 Y 16 X 81 Y 16 X -29 Y 16 X 5 Y 16 X -33
 Y 16 X -24 Y 16 X 118 Y 16 X -94 Y 16 X 66 Y 16 X 28 Y 16 X -56 Y 16 X 32 Y 16
 X -18 Y 16 X 9 Y 16 X 55 Y 16 X -18 Y 16 X -37 Y 15 X 5 Y 16 X 64 Y 16 X -7 Y
 16 X -36 Y 32 X 46 Y 16 X -17 Y 16 X 36 Y 16 X -25 Y 16 X 58 Y 16 X -46 Y 16 X
 46 Y 16 X 10 Y 16 X -21 Y 16 X -3 Y 16 X 28 Y 16 X 32 Y 16 X 6 Y 16 X -17 Y 16
 X 62 Y 15 X -10 Y 16 X 55 Y 16 X -21 Y 16 X 33 Y 16 X 15 Y 16 X 22 Y 16 X 44 Y
 16 X 4 Y 16 X 24 Y 16 X 53 Y 16 X 25 Y 16 X 4 Y 16 X 89 Y 16 X 21 Y 16 X 76 Y
 16 X 97 Y 16 X 102 Y 16 X 219 Y 16 X 671 Y 15 X 65 Y s 2269 2836 0 0 C 1610
 2382 318 227 C 2269 2836 0 0 C 7 lw 1123 1808 m -227 X s
 gsave  1191 1774
 t   0 r 0 0 m
 /Times-Italic findfont  103 sf 0    0 m 
(electron)
 show 
 gr  1610 2382 318 227 C 2269 2836 0 0 C
 /xs 0 def 
(eid likelihood)
 /Times-Italic     86 stwn 
 gsave  1928 59
 t   0 r  xs neg 0 t 0 0 m
 /Times-Italic findfont   86 sf 0    0 m 
(eid likelihood)
 show 
 gr 
 /xs 0 def 
(arbitrary unit)
 /Times-Italic     86 stwn 
 gsave  159 2609
 t  90 r  xs neg 0 t 0 0 m
 /Times-Italic findfont   86 sf 0    0 m 
(arbitrary unit)
 show 
 gr  1610 2382 318 227 C
 gr  gr 
showpage
end
%%EOF

