%!PS-Adobe-2.0 EPSF-2.0
%%Title: mqt301.eps
%%Creator: fig2dev Version 3.2 Patchlevel 0-beta2
%%CreationDate: Fri Jun  6 11:29:11 1997
%%For: marlow@viper.princeton.edu (Daniel R. Marlow,381 Jadwin Hall,258-4383)
%%Orientation: Portrait
%%BoundingBox: 0 0 688 478
%%Pages: 0
%%BeginSetup
%%IncludeFeature: *PageSize Letter
%%EndSetup
%%Magnification: 0.60
%%EndComments
/$F2psDict 200 dict def
$F2psDict begin
$F2psDict /mtrx matrix put
/col-1 {0 setgray} bind def
/col0 {0.000 0.000 0.000 srgb} bind def
/col1 {0.000 0.000 1.000 srgb} bind def
/col2 {0.000 1.000 0.000 srgb} bind def
/col3 {0.000 1.000 1.000 srgb} bind def
/col4 {1.000 0.000 0.000 srgb} bind def
/col5 {1.000 0.000 1.000 srgb} bind def
/col6 {1.000 1.000 0.000 srgb} bind def
/col7 {1.000 1.000 1.000 srgb} bind def
/col8 {0.000 0.000 0.560 srgb} bind def
/col9 {0.000 0.000 0.690 srgb} bind def
/col10 {0.000 0.000 0.820 srgb} bind def
/col11 {0.530 0.810 1.000 srgb} bind def
/col12 {0.000 0.560 0.000 srgb} bind def
/col13 {0.000 0.690 0.000 srgb} bind def
/col14 {0.000 0.820 0.000 srgb} bind def
/col15 {0.000 0.560 0.560 srgb} bind def
/col16 {0.000 0.690 0.690 srgb} bind def
/col17 {0.000 0.820 0.820 srgb} bind def
/col18 {0.560 0.000 0.000 srgb} bind def
/col19 {0.690 0.000 0.000 srgb} bind def
/col20 {0.820 0.000 0.000 srgb} bind def
/col21 {0.560 0.000 0.560 srgb} bind def
/col22 {0.690 0.000 0.690 srgb} bind def
/col23 {0.820 0.000 0.820 srgb} bind def
/col24 {0.500 0.190 0.000 srgb} bind def
/col25 {0.630 0.250 0.000 srgb} bind def
/col26 {0.750 0.380 0.000 srgb} bind def
/col27 {1.000 0.500 0.500 srgb} bind def
/col28 {1.000 0.630 0.630 srgb} bind def
/col29 {1.000 0.750 0.750 srgb} bind def
/col30 {1.000 0.880 0.880 srgb} bind def
/col31 {1.000 0.840 0.000 srgb} bind def

end
save
-4.0 550.0 translate
1 -1 scale

/cp {closepath} bind def
/ef {eofill} bind def
/gr {grestore} bind def
/gs {gsave} bind def
/sa {save} bind def
/rs {restore} bind def
/l {lineto} bind def
/m {moveto} bind def
/rm {rmoveto} bind def
/n {newpath} bind def
/s {stroke} bind def
/sh {show} bind def
/slc {setlinecap} bind def
/slj {setlinejoin} bind def
/slw {setlinewidth} bind def
/srgb {setrgbcolor} bind def
/rot {rotate} bind def
/sc {scale} bind def
/sd {setdash} bind def
/ff {findfont} bind def
/sf {setfont} bind def
/scf {scalefont} bind def
/sw {stringwidth} bind def
/tr {translate} bind def
/tnt {dup dup currentrgbcolor
  4 -2 roll dup 1 exch sub 3 -1 roll mul add
  4 -2 roll dup 1 exch sub 3 -1 roll mul add
  4 -2 roll dup 1 exch sub 3 -1 roll mul add srgb}
  bind def
/shd {dup dup currentrgbcolor 4 -2 roll mul 4 -2 roll mul
  4 -2 roll mul srgb} bind def
 /DrawEllipse {
	/endangle exch def
	/startangle exch def
	/yrad exch def
	/xrad exch def
	/y exch def
	/x exch def
	/savematrix mtrx currentmatrix def
	x y tr xrad yrad sc 0 0 1 startangle endangle arc
	closepath
	savematrix setmatrix
	} def

/$F2psBegin {$F2psDict begin /$F2psEnteredState save def} def
/$F2psEnd {$F2psEnteredState restore end} def
%%EndProlog

$F2psBegin
10 setmiterlimit
n 0 15314 m 0 0 l 19241 0 l 19241 15314 l cp clip
 0.03600 0.03600 sc
% Polyline
15.000 slw
n 14101 10126 m 12901 10126 l gs col-1 s gr 
% Polyline
n 15451 9826 m 14401 9826 l 14101 10126 l 14401 10426 l 15451 10426 l 15451 9826 l  cp gs col-1 s gr 
% Polyline
n 16350 10125 m 15450 10125 l gs col-1 s gr 
% Polyline
n 15450 10350 m 15750 10350 l 15750 12150 l 15450 12150 l gs col0 s gr 
% Polyline
n 13355 11030 m 13355 11405 l gs col-1 s gr 
% Polyline
n 13052 10577 m 13877 10577 l gs col-1 s gr 
% Polyline
n 13880 11780 m 13880 11180 l 13955 11105 l 13805 11030 l 13955 10955 l 13805 10880 l
 13880 10805 l 13880 10580 l gs col-1 s gr 
% Polyline
n 13355 10580 m 13355 10880 l gs col-1 s gr 
% Polyline
n 13130 10880 m 13580 10880 l gs col-1 s gr 
% Polyline
n 13130 11030 m 13580 11030 l gs col-1 s gr 
% Polyline
n 13805 11705 m 13880 11780 l 13955 11705 l gs col-1 s gr 
/Helvetica-Bold ff 240.00 scf sf
8478 2703 m
gs 1 -1 sc (Delay) col-1 sh gr
/Helvetica-Bold ff 240.00 scf sf
11029 3079 m
gs 1 -1 sc (MQT301) col-1 sh gr
/Helvetica-Bold ff 240.00 scf sf
13750 6305 m
gs 1 -1 sc (D) col-1 sh gr
/Helvetica-Bold ff 240.00 scf sf
14500 6305 m
gs 1 -1 sc (Q) col-1 sh gr
/Helvetica-Bold ff 240.00 scf sf
14500 7205 m
gs 1 -1 sc (Q) col-1 sh gr
% Polyline
n 8178 3078 m 8181 3078 l 8188 3078 l 8200 3078 l 8215 3078 l 8233 3078 l
 8252 3078 l 8270 3078 l 8287 3078 l 8302 3078 l 8315 3078 l
 8328 3078 l 8341 3078 l 8353 3079 l 8366 3080 l 8378 3081 l
 8391 3083 l 8403 3085 l 8416 3087 l 8428 3088 l 8441 3088 l
 8453 3086 l 8466 3083 l 8478 3078 l 8489 3072 l 8500 3064 l
 8512 3055 l 8524 3044 l 8537 3032 l 8550 3020 l 8564 3007 l
 8577 2993 l 8589 2980 l 8600 2968 l 8610 2956 l 8618 2946 l
 8624 2936 l 8628 2928 l 8630 2919 l 8628 2911 l 8624 2903 l
 8618 2895 l 8610 2887 l 8601 2880 l 8592 2873 l 8583 2867 l
 8574 2861 l 8566 2857 l 8559 2854 l 8553 2853 l 8547 2854 l
 8540 2857 l 8532 2861 l 8523 2867 l 8514 2873 l 8505 2880 l
 8496 2887 l 8488 2895 l 8482 2903 l 8478 2911 l 8476 2919 l
 8478 2928 l 8482 2937 l 8488 2946 l 8496 2957 l 8506 2970 l
 8517 2984 l 8529 2999 l 8542 3014 l 8556 3028 l 8569 3042 l
 8582 3054 l 8594 3064 l 8606 3072 l 8617 3076 l 8628 3078 l
 8639 3076 l 8650 3072 l 8662 3064 l 8674 3054 l 8687 3042 l
 8700 3028 l 8714 3014 l 8727 2999 l 8739 2984 l 8750 2970 l
 8760 2957 l 8768 2946 l 8774 2937 l 8778 2928 l 8780 2919 l
 8778 2911 l 8774 2903 l 8768 2895 l 8760 2887 l 8751 2880 l
 8742 2873 l 8733 2867 l 8724 2861 l 8716 2857 l 8709 2854 l
 8703 2853 l 8697 2854 l 8690 2857 l 8682 2861 l 8673 2867 l
 8664 2873 l 8655 2880 l 8646 2887 l 8638 2895 l 8632 2903 l
 8628 2911 l 8626 2919 l 8628 2928 l 8632 2937 l 8638 2946 l
 8646 2957 l 8656 2970 l 8667 2984 l 8679 2999 l 8692 3014 l
 8706 3028 l 8719 3042 l 8732 3054 l 8744 3064 l 8756 3072 l
 8767 3076 l 8778 3078 l 8789 3076 l 8800 3072 l 8812 3064 l
 8824 3054 l 8837 3042 l 8850 3028 l 8864 3014 l 8877 2999 l
 8889 2984 l 8900 2970 l 8910 2957 l 8918 2946 l 8924 2937 l
 8928 2928 l 8930 2919 l 8928 2911 l 8924 2903 l 8918 2895 l
 8910 2887 l 8901 2880 l 8892 2873 l 8883 2867 l 8874 2861 l
 8866 2857 l 8859 2854 l 8853 2853 l 8847 2854 l 8840 2857 l
 8832 2861 l 8823 2867 l 8814 2873 l 8805 2880 l 8796 2887 l
 8788 2895 l 8782 2903 l 8778 2911 l 8776 2919 l 8778 2928 l
 8782 2937 l 8788 2946 l 8796 2957 l 8806 2970 l 8817 2984 l
 8829 2999 l 8842 3014 l 8856 3028 l 8869 3042 l 8882 3054 l
 8894 3064 l 8906 3072 l 8917 3076 l 8928 3078 l 8939 3076 l
 8950 3072 l 8962 3064 l 8974 3054 l 8987 3042 l 9000 3028 l
 9014 3014 l 9027 2999 l 9039 2984 l 9050 2970 l 9060 2957 l
 9068 2946 l 9074 2937 l 9078 2928 l 9080 2919 l 9078 2911 l
 9074 2903 l 9068 2895 l 9060 2887 l 9051 2880 l 9042 2873 l
 9033 2867 l 9024 2861 l 9016 2857 l 9009 2854 l 9003 2853 l
 8997 2854 l 8990 2857 l 8982 2861 l 8973 2867 l 8964 2873 l
 8955 2880 l 8946 2887 l 8938 2895 l 8932 2903 l 8928 2911 l
 8926 2919 l 8928 2928 l 8932 2936 l 8938 2946 l 8946 2956 l
 8956 2968 l 8967 2980 l 8979 2993 l 8992 3007 l 9006 3020 l
 9019 3032 l 9032 3044 l 9044 3055 l 9056 3064 l 9067 3072 l
 9078 3078 l 9090 3083 l 9103 3086 l 9115 3088 l 9126 3088 l
 9138 3087 l 9149 3085 l 9161 3083 l 9173 3081 l 9186 3080 l
 9199 3079 l 9213 3078 l 9228 3078 l 9242 3078 l 9257 3078 l
 9275 3078 l 9295 3078 l 9318 3078 l 9342 3078 l 9367 3078 l
 9391 3078 l 9412 3078 l 9430 3078 l 9442 3078 l 9450 3078 l
 9453 3078 l gs col-1 s gr 
% Polyline
n 13205 11405 m 13505 11405 l gs col-1 s gr 
% Polyline
n 13205 11405 m 13130 11555 l gs col-1 s gr 
% Polyline
n 13355 11405 m 13280 11555 l gs col-1 s gr 
% Polyline
n 13505 11405 m 13430 11555 l gs col-1 s gr 
% Polyline
n 12300 8925 m 12300 9225 l 12750 9225 l gs col0 s gr 
% Polyline
n 12899 9907 m 12899 10807 l 12149 10357 l 12899 9907 l  cp gs col-1 s gr 
% Polyline
n 1807 5107 m 1807 6007 l 2557 5557 l 1807 5107 l  cp gs col-1 s gr 
% Polyline
n 2550 5550 m 3225 5550 l gs col-1 s gr 
% Polyline
n 4597 5132 m 4597 6032 l 5347 5582 l 4597 5132 l  cp gs col-1 s gr 
% Polyline
n 3975 5550 m 4575 5550 l gs col0 s gr 
% Polyline
n 15601 14701 m 15751 14551 l 15901 14701 l gs col-1 s gr 
% Polyline
n 3233 5108 m 3233 6008 l 3983 5558 l 3233 5108 l  cp gs col-1 s gr 
% Polyline
n 607 5182 m 1432 5182 l 1432 5257 l 1432 5332 l 1807 5332 l gs col-1 s gr 
% Polyline
n 1282 5932 m 1432 5932 l 1432 5782 l 1657 5782 l gs col-1 s gr 
% Polyline
n 532 5932 m 1282 5932 l gs col-1 s gr 
% Polyline
n 982 5182 m 982 5332 l 907 5407 l 1057 5482 l 907 5557 l 1057 5632 l
 982 5707 l 982 5932 l gs col-1 s gr 
% Polyline
n 532 5332 m 532 5932 l gs col-1 s gr 
% Polyline
n 17401 14701 m 17551 14551 l 17701 14701 l gs col-1 s gr 
% Polyline
n 16350 13500 m 15450 13500 l gs col0 s gr 
% Polyline
n 15451 13201 m 14401 13201 l 14100 13500 l 14401 13801 l 15451 13801 l 15451 13201 l  cp gs col-1 s gr 
% Polyline
n 15451 12001 m 14401 12001 l 14100 12300 l 14401 12601 l 15451 12601 l 15451 12001 l  cp gs col-1 s gr 
% Polyline
n 12000 7125 m 12300 7125 l 12300 8925 l 12750 8925 l gs col0 s gr 
% Polyline
n 13425 9075 m 13875 9075 l 13875 10650 l gs col0 s gr 
% Polyline
n 15450 12525 m 15750 12525 l 15750 13275 l 15450 13275 l gs col0 s gr 
% Polyline
n 16200 14700 m 16350 14550 l 16500 14700 l gs col-1 s gr 
% Polyline
n 16800 14700 m 16950 14550 l 17100 14700 l gs col-1 s gr 
% Polyline
n 18000 14700 m 18150 14550 l 18300 14700 l gs col-1 s gr 
% Polyline
n 16350 12300 m 15451 12301 l gs col-1 s gr 
% Polyline
n 15750 14550 m 15750 13725 l 15450 13725 l gs col0 s gr 
/Helvetica-Bold ff 240.00 scf sf
14101 6226 m
gs 1 -1 sc (S) col-1 sh gr
/Helvetica-Bold ff 240.00 scf sf
16800 15000 m
gs 1 -1 sc (Ext) col-1 sh gr
/Helvetica-Bold ff 240.00 scf sf
16725 15225 m
gs 1 -1 sc (Gate) col-1 sh gr
/Helvetica-Bold ff 240.00 scf sf
15526 15226 m
gs 1 -1 sc (Data) col-1 sh gr
/Helvetica-Bold ff 240.00 scf sf
18000 15225 m
gs 1 -1 sc (Wid) col0 sh gr
/Helvetica-Bold ff 240.00 scf sf
16200 15225 m
gs 1 -1 sc (Clk) col-1 sh gr
/Helvetica-Bold ff 240.00 scf sf
4725 4800 m
gs 1 -1 sc (Filter) col0 sh gr
/Helvetica-Bold ff 240.00 scf sf
15526 15001 m
gs 1 -1 sc (DAC) col-1 sh gr
/Helvetica-Bold ff 240.00 scf sf
17401 15226 m
gs 1 -1 sc (Trig) col-1 sh gr
/Helvetica-Bold ff 240.00 scf sf
17401 15001 m
gs 1 -1 sc (Ped) col-1 sh gr
/Helvetica-Bold ff 240.00 scf sf
16125 15000 m
gs 1 -1 sc (DAC) col-1 sh gr
/Helvetica-Bold ff 240.00 scf sf
18000 15000 m
gs 1 -1 sc (Gate) col0 sh gr
/Helvetica-Bold ff 240.00 scf sf
14566 10096 m
gs 1 -1 sc (Width) col-1 sh gr
/Helvetica-Bold ff 240.00 scf sf
14626 10351 m
gs 1 -1 sc (DAC) col-1 sh gr
/Helvetica-Bold ff 240.00 scf sf
10875 10875 m
gs 1 -1 sc (1/2 AD96687) col0 sh gr
/Helvetica-Bold ff 240.00 scf sf
14025 11625 m
gs 1 -1 sc (-5.2v) col-1 sh gr
/Helvetica-Bold ff 240.00 scf sf
13500 8925 m
gs 1 -1 sc ('104) col-1 sh gr
/Helvetica-Bold ff 240.00 scf sf
14325 10800 m
gs 1 -1 sc (1/8 MAX529) col-1 sh gr
/Helvetica-Bold ff 240.00 scf sf
14626 12526 m
gs 1 -1 sc (DAC) col-1 sh gr
/Helvetica-Bold ff 240.00 scf sf
14625 13725 m
gs 1 -1 sc (DAC) col-1 sh gr
/Helvetica-Bold ff 240.00 scf sf
14551 12256 m
gs 1 -1 sc (Thres) col-1 sh gr
/Helvetica-Bold ff 240.00 scf sf
14625 13455 m
gs 1 -1 sc (Gain) col0 sh gr
/Helvetica-Bold ff 240.00 scf sf
9300 11775 m
gs 1 -1 sc (Ext Gate \(optional\)) col-1 sh gr
/Helvetica-Bold ff 240.00 scf sf
900 4425 m
gs 1 -1 sc (Differential) col-1 sh gr
/Helvetica-Bold ff 240.00 scf sf
14175 7350 m
gs 1 -1 sc (R) col-1 sh gr
/Helvetica-Bold ff 240.00 scf sf
13800 7125 m
gs 1 -1 sc ('131) col-1 sh gr
/Helvetica-Bold ff 240.00 scf sf
11475 6675 m
gs 1 -1 sc (FF1) col-1 sh gr
/Helvetica-Bold ff 240.00 scf sf
14175 6675 m
gs 1 -1 sc (FF2) col-1 sh gr
/Helvetica-Bold ff 240.00 scf sf
9525 6150 m
gs 1 -1 sc ('104) col-1 sh gr
/Helvetica-Bold ff 240.00 scf sf
11250 7125 m
gs 1 -1 sc ('131) col-1 sh gr
/Helvetica-Bold ff 240.00 scf sf
11049 6304 m
gs 1 -1 sc (D) col-1 sh gr
/Helvetica-Bold ff 240.00 scf sf
11799 7204 m
gs 1 -1 sc (Q) col-1 sh gr
/Helvetica-Bold ff 240.00 scf sf
11401 7351 m
gs 1 -1 sc (R) col-1 sh gr
/Helvetica-Bold ff 240.00 scf sf
11401 6226 m
gs 1 -1 sc (S) col-1 sh gr
/Helvetica-Bold ff 240.00 scf sf
11776 6301 m
gs 1 -1 sc (Q) col-1 sh gr
/Helvetica-Bold ff 240.00 scf sf
6450 5625 m
gs 1 -1 sc (x10) col-1 sh gr
/Helvetica-Bold ff 240.00 scf sf
1132 5632 m
gs 1 -1 sc (50) col-1 sh gr
/Helvetica-Bold ff 240.00 scf sf
825 4800 m
gs 1 -1 sc (Line Receiver) col-1 sh gr
/Helvetica-Bold ff 240.00 scf sf
3150 4425 m
gs 1 -1 sc (Variable ) col0 sh gr
/Helvetica-Bold ff 240.00 scf sf
3375 4725 m
gs 1 -1 sc (Gain) col0 sh gr
/Helvetica-Bold ff 240.00 scf sf
3375 5025 m
gs 1 -1 sc (Amp) col0 sh gr
/Helvetica-Bold ff 240.00 scf sf
7950 5100 m
gs 1 -1 sc (1/2 AD96687) col0 sh gr
/Helvetica-Bold ff 240.00 scf sf
12975 7350 m
gs 1 -1 sc ('104) col-1 sh gr
/Helvetica-Bold ff 240.00 scf sf
9677 2852 m
gs 1 -1 sc (100) col-1 sh gr
/Helvetica-Bold ff 240.00 scf sf
6375 4950 m
gs 1 -1 sc (Amp) col0 sh gr
/Helvetica-Bold ff 240.00 scf sf
10575 4350 m
gs 1 -1 sc ('104) col-1 sh gr
/Helvetica-Bold ff 240.00 scf sf
6225 4650 m
gs 1 -1 sc (Current) col0 sh gr
% Polyline
n 532 5182 m 607 5182 l gs col-1 s gr 
% Ellipse
n 5850 5550 38 38 0 360 DrawEllipse gs col7 0.00 shd ef gr gs col-1 s gr

% Ellipse
n 12300 7725 38 38 0 360 DrawEllipse gs col7 0.00 shd ef gr gs col-1 s gr

% Ellipse
n 18150 8400 38 38 0 360 DrawEllipse gs col7 0.00 shd ef gr gs col-1 s gr

% Ellipse
n 982 5932 38 38 0 360 DrawEllipse gs col7 0.00 shd ef gr gs col-1 s gr

% Ellipse
n 13275 5100 38 38 0 360 DrawEllipse gs col7 0.00 shd ef gr gs col-1 s gr

% Ellipse
n 12603 3228 75 75 0 360 DrawEllipse gs col-1 s gr

% Ellipse
n 12451 5626 38 38 0 360 DrawEllipse gs col7 0.00 shd ef gr gs col-1 s gr

% Ellipse
n 11329 3904 75 75 0 360 DrawEllipse gs col-1 s gr

% Ellipse
n 11701 4876 38 38 0 360 DrawEllipse gs col7 0.00 shd ef gr gs col-1 s gr

% Ellipse
n 17551 5326 38 38 0 360 DrawEllipse gs col7 0.00 shd ef gr gs col-1 s gr

% Ellipse
n 982 5182 38 38 0 360 DrawEllipse gs col7 0.00 shd ef gr gs col-1 s gr

% Ellipse
n 12977 10577 75 75 0 360 DrawEllipse gs col-1 s gr

% Ellipse
n 13355 10580 38 38 0 360 DrawEllipse gs col7 0.00 shd ef gr gs col-1 s gr

% Ellipse
n 16350 10125 38 38 0 360 DrawEllipse gs col7 0.00 shd ef gr gs col-1 s gr

% Ellipse
n 13875 10575 38 38 0 360 DrawEllipse gs col7 0.00 shd ef gr gs col-1 s gr

% Ellipse
n 12300 8925 38 38 0 360 DrawEllipse gs col7 0.00 shd ef gr gs col-1 s gr

% Ellipse
n 16350 13500 38 38 0 360 DrawEllipse gs col7 0.00 shd ef gr gs col-1 s gr

% Ellipse
n 532 5332 38 38 0 360 DrawEllipse gs col7 0.00 shd ef gr gs col-1 s gr

% Ellipse
n 532 5182 75 150 0 360 DrawEllipse gs col-1 s gr

% Ellipse
n 1732 5782 75 75 0 360 DrawEllipse gs col-1 s gr

% Ellipse
n 16950 11850 38 38 0 360 DrawEllipse gs col7 0.00 shd ef gr gs col-1 s gr

% Ellipse
n 16350 12300 38 38 0 360 DrawEllipse gs col7 0.00 shd ef gr gs col-1 s gr

% Polyline
n 12751 8776 m 12751 9376 l gs col-1 s gr 
% Arc
gs n 13501.0 7876.0 300.0 -90.0 90.0 arc
gs col-1 s gr
 gr

% Polyline
n 13126 7576 m 13501 7576 l gs col-1 s gr 
% Polyline
n 13126 8176 m 13501 8176 l gs col-1 s gr 
% Polyline
n 13126 7576 m 13126 8176 l gs col-1 s gr 
% Polyline
n 18377 6302 m 18527 6452 l 18377 6602 l gs col-1 s gr 
% Polyline
n 7830 5353 m 7830 6253 l 8551 5776 l 7830 5353 l  cp gs col-1 s gr 
% Arc
gs n 9901.0 6676.0 300.0 -90.0 90.0 arc
gs col-1 s gr
 gr

% Polyline
n 9526 6376 m 9901 6376 l gs col-1 s gr 
% Polyline
n 9526 6976 m 9901 6976 l gs col-1 s gr 
% Polyline
n 9526 6376 m 9526 6976 l gs col-1 s gr 
% Ellipse
n 7726 5551 75 75 0 360 DrawEllipse gs col-1 s gr

% Polyline
n 18377 6752 m 18527 6902 l 18377 7052 l gs col-1 s gr 
% Polyline
n 233 5183 m 458 5183 l gs col-1 s gr 
% Polyline
n 158 5108 m 233 5183 l 158 5258 l gs col-1 s gr 
% Arc
gs n 13126.0 9076.0 300.0 -90.0 90.0 arc
gs col-1 s gr
 gr

% Polyline
n 12751 8776 m 13126 8776 l gs col-1 s gr 
% Polyline
n 12751 9376 m 13126 9376 l gs col-1 s gr 
% Polyline
n 11251 4574 m 11851 4574 l gs col-1 s gr 
/Helvetica-Bold ff 300.00 scf sf
18752 6602 m
gs 1 -1 sc (to) col-1 sh gr
/Helvetica-Bold ff 300.00 scf sf
18602 6902 m
gs 1 -1 sc (TDC) col-1 sh gr
% Arc
gs n 11551.0 4199.0 300.0 180.0 0.0 arc
gs col-1 s gr
 gr

% Polyline
n 11251 4574 m 11251 4199 l gs col-1 s gr 
% Polyline
n 11851 4574 m 11851 4199 l gs col-1 s gr 
% Polyline
n 10503 3078 m 10053 3078 l 9978 3003 l 9903 3153 l 9828 3003 l 9753 3153 l
 9678 3078 l 9453 3078 l gs col-1 s gr 
% Polyline
n 16950 2027 m 16950 14550 l gs col-1 s gr 
% Polyline
n 7125 5550 m 7650 5550 l gs col-1 s gr 
% Polyline
n 6378 5103 m 6378 6003 l 7128 5553 l 6378 5103 l  cp gs col-1 s gr 
% Polyline
n 5325 5550 m 6375 5550 l gs col-1 s gr 
% Polyline
n 13275 5100 m 10575 5100 l 10575 6225 l 10950 6225 l gs col-1 s gr 
% Polyline
n 7800 6000 m 7425 6000 l 7425 12300 l 14100 12300 l gs col-1 s gr 
% Polyline
n 11799 6901 m 11949 6901 l gs col-1 s gr 
% Polyline
n 14476 6901 m 14626 6901 l gs col-1 s gr 
% Polyline
n 10200 6675 m 10950 6675 l gs col7 0.00 shd ef gr gs col-1 s gr 
% Polyline
n 14701 7125 m 15526 7125 l 15526 6900 l 18525 6900 l gs col-1 s gr 
% Polyline
n 7875 3075 m 5850 3075 l 5850 5550 l gs col-1 s gr 
% Polyline
n 18151 2028 m 18150 14550 l gs col-1 s gr 
% Polyline
n 16950 11850 m 9075 11850 l 9075 6825 l 9525 6825 l gs col-1 s gr 
% Polyline
n 16350 2103 m 16350 14550 l gs col-1 s gr 
% Polyline
gs  clippath
3540 6144 m 3600 5904 l 3660 6144 l 3660 5820 l 3540 5820 l cp
clip
n 14100 13500 m 3600 13500 l 3600 5850 l gs col0 s gr gr

% arrowhead
n 3540 6144 m 3600 5904 l 3660 6144 l  col0 s
% Polyline
n 18000 2175 m 18150 2025 l 18300 2175 l gs col-1 s gr 
% Polyline
n 13125 8025 m 12825 8025 l 12825 8400 l 18150 8400 l gs col0 s gr 
% Polyline
n 8550 5775 m 9075 5775 l 9075 6525 l 9525 6525 l gs col-1 s gr 
% Polyline
n 16200 2175 m 16350 2025 l 16500 2175 l gs col-1 s gr 
% Polyline
n 16800 2175 m 16950 2025 l 17100 2175 l gs col-1 s gr 
% Polyline
n 13800 7875 m 14250 7875 l 14250 7425 l gs col0 s gr 
% Polyline
n 12300 7725 m 13125 7725 l gs col0 s gr 
% Polyline
n 17401 2176 m 17551 2026 l 17701 2176 l gs col-1 s gr 
% Polyline
n 13751 6681 m 13826 6606 l 13901 6681 l gs col-1 s gr 
% Polyline
n 12451 5626 m 14176 5626 l 14176 5926 l gs col-1 s gr 
% Polyline
n 14701 6226 m 15526 6226 l 15526 6451 l 18450 6450 l gs col-1 s gr 
% Polyline
n 12976 2776 m 12526 2776 l gs col-1 s gr 
% Polyline
n 12676 3226 m 13276 3226 l 13276 6676 l 13651 6676 l gs col-1 s gr 
% Polyline
n 13826 6831 m 13826 6606 l gs col-1 s gr 
% Polyline
n 12529 2479 m 12529 3529 l 10504 3529 l 10504 2479 l cp gs col-1 s gr 
% Polyline
n 11478 5928 m 11476 5326 l 17551 5326 l gs col-1 s gr 
% Polyline
n 7802 3077 m 8402 3077 l gs col-1 s gr 
% Polyline
n 12150 10350 m 11475 10350 l 11476 7426 l gs col-1 s gr 
% Polyline
n 13675 5930 m 14725 5930 l 14725 7430 l 13675 7430 l cp gs col-1 s gr 
% Polyline
n 13651 6151 m 12976 6151 l 12976 6526 l gs col-1 s gr 
% Polyline
n 11401 4576 m 11401 4876 l 12451 4876 l 12451 6226 l 12001 6226 l gs col-1 s gr 
% Polyline
n 11701 4876 m 11701 4576 l gs col-1 s gr 
% Polyline
n 17551 2028 m 17550 14550 l gs col-1 s gr 
% Polyline
n 15450 9900 m 15750 9900 l 15751 2026 l gs col-1 s gr 
% Polyline
n 15602 2177 m 15752 2027 l 15902 2177 l gs col-1 s gr 
% Polyline
n 11786 4041 m 11779 3529 l 11854 3529 l gs col-1 s gr 
% Polyline
n 12901 6451 m 12976 6526 l 13051 6451 l gs col-1 s gr 
% Polyline
n 10974 5929 m 12024 5929 l 12024 7429 l 10974 7429 l cp gs col-1 s gr 
% Polyline
n 11125 6830 m 11125 6605 l gs col-1 s gr 
% Polyline
n 11050 6680 m 11125 6605 l 11200 6680 l gs col-1 s gr 
% Polyline
n 11329 3829 m 11329 3529 l gs col-1 s gr 
$F2psEnd
rs
