%!PS-Adobe-2.0
%%Title: /.../b.kek.jp/fs/users/acc/sumiyosh/pulse_height.ps
%%Creator: IslandDraw for sumiyosh
%%CreationDate: Thu Oct 19 11:56:50 2000
%%Pages: 1
%%BoundingBox: 17 17 577 823 
%%DocumentNeededResources: (atend)
%%DocumentSuppliedResources: (atend)
%%EndComments
save

userdict /IslandDrawDict 300 dict dup begin put

/bdef	{bind def} bind def
/E	{exch} bdef
/FF	{findfont} bdef
/MF	{makefont} bdef
/RO	{rotate} bdef
/SC	{scale} bdef
/SF	{setfont} bdef
/SG	{setgray} bdef
/TR	{translate} bdef
/bp	{lj lw rgb} bdef
/bpbw	{lj lw setgray} bdef
/c	{curveto} bdef
/cr	{currentpoint} bdef
/cl	{closepath} bdef
/fi	{eofill} bdef
/g	{setgray} bdef
/gr	{grestore} bdef
/gs	{gsave} bdef
/l	{lineto} bdef
/lj	{setlinejoin} bdef
/lw	{setlinewidth} bdef
/m	{moveto} bdef
/n	{newpath} bdef
/nx	{/x E def} bdef
/r	{rmoveto} bdef
/rl	{rlineto} bdef
/rgb	{setrgbcolor} bdef
/s	{show} bdef
/sd	{setdash} bdef
/sp	{x 0 rmoveto} bdef
/ss	{currentpoint pop E m} bdef
/st	{stroke} bdef
%% pattern stuff
/BPSIDE	32 def	%% pixels per pattern side
/PATFREQ 3.0 def	%% pattern pixels per mm
/dp_mat [PATFREQ 0 0 PATFREQ 0 0] def
/dp_pw	BPSIDE def	%% pattern pixel width
/dp_ph	BPSIDE def	%% pattern pixel height
/dp_w	dp_pw PATFREQ div def	%% pattern mm width
/dp_h	dp_ph PATFREQ div def	%% pattern mm height
/savemat matrix def
/topmat matrix def
/patmat matrix def

%%	catch nocurrentpoint error for:		pathbbox
/ncpoint errordict /nocurrentpoint get def
errordict begin
/nocurrentpoint	{
	dup /pathbbox load eq
	{pop 0 0 1 1}
	{ncpoint}
	ifelse
} bdef
end
/ar	{ %% sa ea sx sy rot tx ty
	matrix currentmatrix 8 1 roll TR RO SC
	n 0 0 1 5 3 roll arc setmatrix
} bdef
/arn	{ %% sa ea sx sy rot tx ty
 TR RO SC
	matrix currentmatrix 8 1 roll
	n 0 0 1 5 3 roll arcn setmatrix
} bdef
/el	{ %% sx sy rot tx ty
	matrix currentmatrix 6 1 roll TR RO SC
	n 0 0 1 0 360 arc setmatrix cl
} bdef
/image_raster	{ %% sw sh sdd dw dh xs ys
	TR SC /sdd E def /sh E def /sw E def
	/imagebuf sw sdd mul 7 add 8 idiv string def
	sw sh sdd [sw 0 0 sh 0 0] { currentfile imagebuf readhexstring pop}
	image
} bdef
/imagemask_raster	{
	TR SC /sh E def /sw E def
	/imagebuf sw 7 add 8 idiv string def
	sw sh false [sw 0 0 sh 0 0]
	{currentfile imagebuf readhexstring pop}
	imagemask
} bdef
/dither_color_raster    { % bool sw sh sdd dw dh xs ys
	TR SC /sdd E def /sh E def /sw E def
	sdd 8 eq and
	{
	  /imagebuf 3 string def
	  /grayval 1 string def
	  sw sh sdd [sw 0 0 sh 0 0]
	  {
	    currentfile imagebuf readhexstring pop pop
	    imagebuf 0 get 0.299 mul
	    imagebuf 1 get 0.587 mul add
	    imagebuf 2 get 0.114 mul add cvi grayval exch 0 exch put grayval
	  }
	  image
	}
	{
	  /imagebuf sw 3 mul sdd mul 7 add 8 idiv string def
	  sh { currentfile imagebuf readhexstring pop pop } repeat
	} ifelse
} bdef
/image_color_raster	{ % bool sw sh sdd dw dh xs ys
	/colorimage where not
	{ dither_color_raster }
	{
	  pop
	  TR SC /sdd E def /sh E def /sw E def pop
	  /imagebuf sw 3 mul sdd mul 7 add 8 idiv string def
	  sw sh sdd [sw 0 0 sh 0 0] { currentfile imagebuf readhexstring pop}
	  false 3 colorimage
	} ifelse
} bdef
/patpath	{
	/inv E def
	topmat setmatrix
	pathbbox	%% get lo - hi indecies
	/hy E dp_h div floor cvi def
	/hx E dp_w div floor cvi def
	/ly E dp_h div floor cvi def
	/lx E dp_w div floor cvi def
	lx 1 hx	{
	    dp_w mul
	    ly 1 hy {
		dp_h mul
		E dup 3 1 roll E
		patmat currentmatrix pop
		TR
		dp_pw dp_ph inv
		dp_mat dp_proc imagemask
		patmat setmatrix
	    } for
	    pop
	} for
} bdef
% setpattern brush of patterns instead of gray
/setpattern	{
	/blue E def /green E def /red E def
	/freq E def /bwidth E def /bpside E def
	/bstring E def
	/onbits 0 def /offbits 0 def
	freq 0 {/y E def /x E def
		/xindex x 1 add 2 div bpside mul cvi def
		/yindex y 1 add 2 div bpside mul cvi def
		bstring yindex bwidth mul xindex 8 idiv add get not
		1 7 xindex 8 mod sub bitshift and 0 ne
		{/onbits onbits 1 add def 1}
		{/offbits offbits 1 add def 0}
		ifelse
	} setscreen {} settransfer
	systemdict /setcmykcolor known
	{ /fact 1 onbits offbits onbits add div sub def
	1 red sub fact mul 1 green sub fact mul 1 blue sub fact mul 0
		setcmykcolor
	}
	{ offbits offbits onbits add div setgray}
	ifelse
} bdef
/dmatrix matrix def
/dpi 72 0 dmatrix defaultmatrix dtransform
	dup mul E dup mul add sqrt
def

/B	{gs bp st gr} bdef %% brush: gr lw lj
/Bbw	{gs bpbw st gr} bdef %% brush: gr lw lj
/F	{gs rgb eofill gr} bdef %% fill: gr
/Fbw	{gs setgray eofill gr} bdef %% fill: gr
/PB	{gs lj lw setpattern st gr} bdef
/PF	{gs eoclip patpath gr} bdef
/BB	{gs rgb lj lw strokepath clip patpath gr} bdef
/xdef {exch def} bdef
/clip_region {
  /ht xdef
  /wd xdef
  /bm xdef
  /lm xdef
  newpath
      lm bm moveto
      0 ht rlineto
      wd 0 rlineto
      0 ht neg rlineto
  closepath clip
} bdef
%! Island text prolog Version 3.1
%%
/reencode_small_dict 12 dict def
/ReencodeSmall {
reencode_small_dict begin
/new_codes_and_names exch def
/new_font_name exch def
/base_font_name exch def
/base_font_dict base_font_name findfont def
/newfont base_font_dict maxlength dict def
base_font_dict {
exch dup /FID ne
{ dup /Encoding eq
{ exch dup length array copy newfont 3 1 roll put }
{ exch newfont 3 1 roll put }
ifelse
}
{ pop pop }
ifelse
} forall
newfont /FontName new_font_name put
base_font_dict /Encoding get StandardEncoding eq
new_codes_and_names extended_Standard ne or
{
new_codes_and_names aload pop
new_codes_and_names length 2 idiv
{ newfont /Encoding get 3 1 roll put }
repeat
}
if
new_font_name newfont definefont pop
end     %reencode_small_dict
} def
/extended_Zapf [
8#223 /a89
8#224 /a90
8#225 /a93
8#226 /a94
8#227 /a91
8#230 /a92
8#231 /a205
8#232 /a85
8#233 /a206
8#234 /a86
8#235 /a87
8#236 /a88
8#237 /a95
8#240 /a96
] def
/extended_Standard [
29 /thorn
30 /yacute
31 /divide
128 /Acircumflex
129 /Adieresis
130 /Agrave
131 /Aring
132 /Atilde
133 /Ccedilla
134 /Eacute
135 /Ecircumflex
136 /Edieresis
137 /Egrave
138 /Iacute
139 /Icircumflex
140 /Idieresis
141 /Igrave
142 /Ntilde
143 /Oacute
144 /Ocircumflex
145 /Odieresis
146 /Ograve
147 /Otilde
148 /Scaron
149 /Uacute
150 /Ucircumflex
151 /Udieresis
152 /Ugrave
153 /Ydieresis
154 /Zcaron
155 /aacute
156 /acircumflex
157 /adieresis
158 /agrave
159 /aring
160 /atilde
161 /exclamdown
162 /cent
163 /sterling
164 /fraction
165 /yen
166 /florin
167 /section
168 /currency
169 /quotesingle
170 /quotedblleft
171 /guillemotleft
172 /guilsinglleft
173 /guilsinglright
174 /fi
175 /fl
176 /plusminus
177 /endash
178 /dagger
179 /daggerdbl
180 /periodcentered
181 /twosuperior
182 /paragraph
183 /bullet
184 /quotesinglbase
185 /quotedblbase
186 /quotedblright
187 /guillemotright
188 /ellipsis
189 /perthousand
190 /threesuperior
191 /questiondown
192 /mu
193 /grave
194 /acute
195 /circumflex
196 /tilde
197 /macron
198 /breve
199 /dotaccent
200 /dieresis
201 /onesuperior
202 /ring
203 /cedilla
204 /onequarter
205 /hungarumlaut
206 /ogonek
207 /caron
208 /emdash
209 /ccedilla
210 /copyright
211 /eacute
212 /ecircumflex
213 /edieresis
214 /egrave
215 /iacute
216 /icircumflex
217 /idieresis
218 /igrave
219 /logicalnot
220 /minus
221 /ntilde
222 /oacute
223 /ocircumflex
224 /odieresis
225 /AE
226 /onehalf
227 /ordfeminine
228 /ograve
229 /otilde
230 /registered
231 /scaron
232 /Lslash
233 /Oslash
234 /OE
235 /ordmasculine
236 /trademark
237 /uacute
238 /ucircumflex
239 /udieresis
240 /ugrave
241 /ae
242 /ydieresis
243 /zcaron
244 /Aacute
245 /dotlessi
246 /threequarters
247 /Eth
248 /lslash
249 /oslash
250 /oe
251 /germandbls
252 /multiply
253 /Yacute
254 /Thorn
255 /eth
] def
/extended_Symbol [
] def
/extend_font {  % stack: fontname newfontname
exch dup (ZapfDingbats) eq
{ cvn exch cvn extended_Zapf ReencodeSmall }
{ dup (Symbol) eq
{ cvn exch cvn extended_Symbol ReencodeSmall }
{ cvn exch cvn extended_Standard ReencodeSmall }
ifelse
}
ifelse
} bind def
/extend_font_name { % stack: font_name_string
dup length 1 add string /extended_font_name exch def
extended_font_name 0 (_) putinterval
extended_font_name 1 3 -1 roll putinterval
extended_font_name
} bind def
/findjpnfont {
  userdict /JFontSubs known {JFontSubs}{false} ifelse {
   dup JFontSubsDict
   dup 4 -1 roll known {exch get}{pop}ifelse findfont
  }{
   findfont
  } ifelse
} bind def
/gf {
  /f E def f cvn currentdict E known
  { currentdict begin f cvn load exec SF end }
  {
    f dup dup length 1 sub 1 getinterval (I) eq
    {
     f dup length 1 sub 0 E getinterval /f E def
     /ita 0.21256 def
    }{
     /ita 0 def
    } ifelse
    f dup length 5 sub 1 getinterval (0) ne
    {
	 /xsz f f length 5 sub 5 getinterval cvi def
	 /ysz f f length 10 sub 5 getinterval cvi def
	 f dup length 2 sub 0 E getinterval /f E def
    }{
	 /xsz f f length 4 sub 4 getinterval cvi def
	 /ysz f f length 8 sub 4 getinterval cvi def
    } ifelse
    f 0 f

    length 8 sub getinterval
    false [(-H)(-V)(.Hankaku)]{
     dup length dup 8 add f length exch sub dup 0 gt
     {f exch 3 -1 roll getinterval eq {pop true exit} if}
     {pop pop pop} ifelse
    } forall
    {
            cvn findjpnfont
    }{
            (LocalFont) extend_font /LocalFont FF
    } ifelse
    /ita xsz ita mul def
    [ xsz 0 ita ysz neg 0 0 ] MF dup
    SF E cvn E def
  } ifelse
}bind def
/ul { % space drop thickness
gs currentpoint currentlinewidth 
currentpoint n m 6 -3 roll 
lw 0 exch r
0 rl st lw m
gr 
} bind def
/nxtab { currentpoint pop 1000.0 mul cvi tab mod
	tab exch sub 1000.0 div 0 rmoveto } bind def
/nx { /x exch def } bind def
0. nx
%%EndFixedProlog
[ statusdict /product get (Grime) search not
true and
 userdict begin /JFontSubs exch def end cleartomark
userdict begin
/JFontSubsDict 19 dict dup begin
 /HiraginoMin-W3-H /Ryumin-Light-H def
 /HiraginoMin-W3-V /Ryumin-Light-V def
 /HiraginoMin-W3.Hankaku /Ryumin-Light.Hankaku def
 /HiraginoMin-W5-H /FutoMinA101-Bold-H def
 /HiraginoMin-W5-V /FutoMinA101-Bold-V def
 /HiraginoMin-W5.Hankaku /FutoMinA101-Bold.Hankaku def
 /HiraginoMin-W8-H /FutoMinA101-Bold-H def
 /HiraginoMin-W8-V /FutoMinA101-Bold-V def
 /HiraginoMin-W8.Hankaku /FutoMinA101-Bold.Hankaku def
 /KyogokuKaku-W3-H /GothicBBB-Medium-H def
 /KyogokuKaku-W3-V /GothicBBB-Medium-V def
 /KyogokuKaku-W3.Hankaku /GothicBBB-Medium.Hankaku def
 /KyogokuKaku-W5-H /FutoGoB101-Bold-H def
 /KyogokuKaku-W5-V /FutoGoB101-Bold-V def
 /KyogokuKaku-W5.Hankaku /FutoGoB101-Bold.Hankaku def
 /FunaokaMaru-W3-H /Jun101-Light-H def
 /FunaokaMaru-W3-V /Jun101-Light-V def
 /FunaokaMaru-W3.Hankaku /Jun101-Light.Hankaku def
end def end
%%Page: 1 1
gsave
18 18 559.276 805.89 clip_region
2.83465 -2.83465 scale 6.35 -290.65 translate
topmat currentmatrix pop
n savemat currentmatrix pop [1 2.34052e-08 -2.34052e-08 1 46.4485 93.3022] concat
25.4 1440 div 1.000000 mul dup scale 0 0 m
/tab 283.00 1000.0 mul cvi def

0 0 m 0 ss  (Times-Italic02800280) gf 
0.00 SG  (ADC) s 
savemat setmatrix
n 26.176 84.424 m 26.176 32.737 l
77.906 32.737 l
77.906 84.424 l
26.176 84.424 l
cl gsave
0 0 0 Bbw
grestore
n 26.176 84.424 m 26.176 32.737 l
77.906 32.737 l
77.906 84.424 l
26.176 84.424 l
cl gsave
0 0.082 0 Bbw
grestore
n 26.176 84.424 m 26.176 32.737 l
77.906 32.737 l
77.906 84.424 l
26.176 84.424 l
cl gsave
0 0 0 Bbw
grestore
n 26.176 84.424 m 27.076 84.424 l
27.076 84.391 l
27.376 84.391 l
27.376 83.893 l
27.976 83.893 l
27.976 82.266 l
28.236 82.266 l
28.236 39.447 l
28.536 39.447 l
28.536 68.28 l
28.836 68.28 l
28.836 81.269 l
29.136 81.269 l
29.136 82.066 l
29.436 82.066 l
29.436 82.199 l
29.736 82.199 l
29.736 82.398 l
30.006 82.398 l
30.006 82.963 l
30.296 82.963 l
30.296 83.494 l
30.596 83.494 l
30.596 83.86 l
30.896 83.86 l
30.896 84.059 l
31.196 84.059 l
31.196 84.192 l
31.496 84.192 l
31.496 84.225 l
31.766 84.225 l
31.766 84.291 l
32.356 84.291 l
32.356 84.358 l
32.956 84.358 l
32.956 84.391 l
33.256 84.391 l
33.256 84.358 l
33.526 84.358 l
33.526 84.391 l
34.416 84.391 l
34.416 84.358 l
34.716 84.358 l
34.716 84.391 l
39.106 84.391 l
39.106 84.424 l
39.406 84.424 l
39.406 84.391 l
39.996 84.391 l
39.996 84.424 l
40.596 84.424 l
40.596 84.391 l
41.166 84.391 l
41.166 84.424 l
41.466 84.424 l
41.466 84.391 l
41.756 84.391 l
41.756 84.424 l
43.226 84.424 l
43.226 84.391 l
43.516 84.391 l
43.516 84.424 l
44.116 84.424 l
44.116 84.391 l
44.416 84.391 l
44.416 84.424 l
45.286 84.424 l
45.286 84.391 l
45.876 84.391 l
45.876 84.424 l
47.046 84.424 l
47.046 84.391 l
47.336 84.391 l
47.336 84.424 l
55.846 84.424 l
gsave
0.701 0.492 0 Bbw
grestore
n 55.846 84.424 m 60.856 84.424 l
60.856 84.391 l
61.156 84.391 l
61.156 84.424 l
77.906 84.424 l
gsave
0.701 0.492 0 Bbw
grestore
n 26.176 84.424 m 26.176 32.737 l
77.906 32.737 l
77.906 84.424 l
26.176 84.424 l
cl gsave
0 0 0 Bbw
grestore
n 26.176 84.424 m 26.176 32.737 l
gsave
0 0.082 0 Bbw
grestore
n 27.306 84.424 m 26.176 84.424 l
gsave
0 0.082 0 Bbw
grestore
n 26.746 82.697 m 26.176 82.697 l
gsave
0 0.082 0 Bbw
grestore
n 26.746 80.969 m 26.176 80.969 l
gsave
0 0.082 0 Bbw
grestore
n 26.746 79.242 m 26.176 79.242 l
gsave
0 0.082 0 Bbw
grestore
n 27.306 77.548 m 26.176 77.548 l
gsave
0 0.082 0 Bbw
grestore
n 26.746 75.821 m 26.176 75.821 l
gsave
0 0.082 0 Bbw
grestore
n 26.746 74.094 m 26.176 74.094 l
gsave
0 0.082 0 Bbw
grestore
n 26.746 72.366 m 26.176 72.366 l
gsave
0 0.082 0 Bbw
grestore
n 27.306 70.639 m 26.176 70.639 l
gsave
0 0.082 0 Bbw
grestore
n 26.746 68.912 m 26.176 68.912 l
gsave
0 0.082 0 Bbw
grestore
n 26.746 67.184 m 26.176 67.184 l
gsave
0 0.082 0 Bbw
grestore
n 26.746 65.457 m 26.176 65.457 l
gsave
0 0.082 0 Bbw
grestore
n 27.306 63.762 m 26.176 63.762 l
gsave
0 0.082 0 Bbw
grestore
n 26.746 62.035 m 26.176 62.035 l
gsave
0 0.082 0 Bbw
grestore
n 26.746 60.308 m 26.176 60.308 l
gsave
0 0.082 0 Bbw
grestore
n 26.746 58.58 m 26.176 58.58 l
gsave
0 0.082 0 Bbw
grestore
n 27.306 56.853 m 26.176 56.853 l
gsave
0 0.082 0 Bbw
grestore
n 26.746 55.126 m 26.176 55.126 l
gsave
0 0.082 0 Bbw
grestore
n 26.746 53.398 m 26.176 53.398 l
gsave
0 0.082 0 Bbw
grestore
n 26.746 51.705 m 26.176 51.705 l
gsave
0 0.082 0 Bbw
grestore
n 27.306 49.976 m 26.176 49.976 l
gsave
0 0.082 0 Bbw
grestore
n 26.746 48.249 m 26.176 48.249 l
gsave
0 0.082 0 Bbw
grestore
n 26.746 46.522 m 26.176 46.522 l
gsave
0 0.082 0 Bbw
grestore
n 26.746 44.794 m 26.176 44.794 l
gsave
0 0.082 0 Bbw
grestore
n 27.306 43.067 m 26.176 43.067 l
gsave
0 0.082 0 Bbw
grestore
n 26.746 41.34 m 26.176 41.34 l
gsave
0 0.082 0 Bbw
grestore
n 26.746 39.613 m 26.176 39.613 l
gsave
0 0.082 0 Bbw
grestore
n 26.746 37.919 m 26.176 37.919 l
gsave
0 0.082 0 Bbw
grestore
n 27.306 36.191 m 26.176 36.191 l
gsave
0 0.082 0 Bbw
grestore
n 27.306 36.191 m 26.176 36.191 l
gsave
0 0.082 0 Bbw
grestore
n 26.746 34.464 m 26.176 34.464 l
gsave
0 0.082 0 Bbw
grestore
n savemat currentmatrix pop [1 2.34052e-08 -2.34052e-08 1 23.3073 85.5418] concat
25.4 1440 div 1.000000 mul dup scale 0 0 m
/tab 283.00 1000.0 mul cvi def

0 0 m 0 ss  (Times-Italic01800180) gf 
0.00 SG  (0) s 
savemat setmatrix
n savemat currentmatrix pop [1 2.34052e-08 -2.34052e-08 1 20.4843 78.6658] concat
25.4 1440 div 1.000000 mul dup scale 0 0 m
/tab 283.00 1000.0 mul cvi def

0 0 m 0 ss  (Times-Italic01800180) gf 
0.00 SG  (200) s 
savemat setmatrix
n savemat currentmatrix pop [1 2.34052e-08 -2.34052e-08 1 20.4843 71.7558] concat
25.4 1440 div 1.000000 mul dup scale 0 0 m
/tab 283.00 1000.0 mul cvi def

0 0 m 0 ss  (Times-Italic01800180) gf 
0.00 SG  (400) s 
savemat setmatrix
n savemat currentmatrix pop [1 2.34052e-08 -2.34052e-08 1 20.4843 64.8808] concat
25.4 1440 div 1.000000 mul dup scale 0 0 m
/tab 283.00 1000.0 mul cvi def

0 0 m 0 ss  (Times-Italic01800180) gf 
0.00 SG  (600) s 
savemat setmatrix
n savemat currentmatrix pop [1 2.34052e-08 -2.34052e-08 1 20.4843 57.9708] concat
25.4 1440 div 1.000000 mul dup scale 0 0 m
/tab 283.00 1000.0 mul cvi def

0 0 m 0 ss  (Times-Italic01800180) gf 
0.00 SG  (800) s 
savemat setmatrix
n savemat currentmatrix pop [1 2.34052e-08 -2.34052e-08 1 19.0723 51.0948] concat
25.4 1440 div 1.000000 mul dup scale 0 0 m
/tab 283.00 1000.0 mul cvi def

0 0 m 0 ss  (Times-Italic01800180) gf 
0.00 SG  (1000) s 
savemat setmatrix
n savemat currentmatrix pop [1 2.34052e-08 -2.34052e-08 1 19.0723 44.1838] concat
25.4 1440 div 1.000000 mul dup scale 0 0 m
/tab 283.00 1000.0 mul cvi def

0 0 m 0 ss  (Times-Italic01800180) gf 
0.00 SG  (1200) s 
savemat setmatrix
n savemat currentmatrix pop [1 2.34052e-08 -2.34052e-08 1 19.0723 37.3208] concat
25.4 1440 div 1.000000 mul dup scale 0 0 m
/tab 283.00 1000.0 mul cvi def

0 0 m 0 ss  (Times-Italic01800180) gf 
0.00 SG  (1400) s 
savemat setmatrix
n 26.176 84.424 m 77.906 84.424 l
gsave
0 0.082 0 Bbw
grestore
n 28.536 83.328 m 28.536 84.424 l
gsave
0 0.082 0 Bbw
grestore
n 30.006 83.86 m 30.006 84.424 l
gsave
0 0.082 0 Bbw
grestore
n 31.496 83.86 m 31.496 84.424 l
gsave
0 0.082 0 Bbw
grestore
n 32.956 83.86 m 32.956 84.424 l
gsave
0 0.082 0 Bbw
grestore
n 34.416 83.328 m 34.416 84.424 l
gsave
0 0.082 0 Bbw
grestore
n 35.876 83.86 m 35.876 84.424 l
gsave
0 0.082 0 Bbw
grestore
n 37.346 83.86 m 37.346 84.424 l
gsave
0 0.082 0 Bbw
grestore
n 38.836 83.86 m 38.836 84.424 l
gsave
0 0.082 0 Bbw
grestore
n 40.296 83.328 m 40.296 84.424 l
gsave
0 0.082 0 Bbw
grestore
n 41.756 83.86 m 41.756 84.424 l
gsave
0 0.082 0 Bbw
grestore
n 43.226 83.86 m 43.226 84.424 l
gsave
0 0.082 0 Bbw
grestore
n 44.686 83.86 m 44.686 84.424 l
gsave
0 0.082 0 Bbw
grestore
n 46.176 83.328 m 46.176 84.424 l
gsave
0 0.082 0 Bbw
grestore
n 47.636 83.86 m 47.636 84.424 l
gsave
0 0.082 0 Bbw
grestore
n 49.106 83.86 m 49.106 84.424 l
gsave
0 0.082 0 Bbw
grestore
n 50.566 83.86 m 50.566 84.424 l
gsave
0 0.082 0 Bbw
grestore
n 52.056 83.328 m 52.056 84.424 l
gsave
0 0.082 0 Bbw
grestore
n 53.516 83.86 m 53.516 84.424 l
gsave
0 0.082 0 Bbw
grestore
n 54.976 83.86 m 54.976 84.424 l
gsave
0 0.082 0 Bbw
grestore
n 56.446 83.86 m 56.446 84.424 l
gsave
0 0.082 0 Bbw
grestore
n 57.906 83.328 m 57.906 84.424 l
gsave
0 0.082 0 Bbw
grestore
n 59.396 83.86 m 59.396 84.424 l
gsave
0 0.082 0 Bbw
grestore
n 60.856 83.86 m 60.856 84.424 l
gsave
0 0.082 0 Bbw
grestore
n 62.326 83.86 m 62.326 84.424 l
gsave
0 0.082 0 Bbw
grestore
n 63.786 83.328 m 63.786 84.424 l
gsave
0 0.082 0 Bbw
grestore
n 65.246 83.86 m 65.246 84.424 l
gsave
0 0.082 0 Bbw
grestore
n 66.736 83.86 m 66.736 84.424 l
gsave
0 0.082 0 Bbw
grestore
n 68.206 83.86 m 68.206 84.424 l
gsave
0 0.082 0 Bbw
grestore
n 69.666 83.328 m 69.666 84.424 l
gsave
0 0.082 0 Bbw
grestore
n 71.126 83.86 m 71.126 84.424 l
gsave
0 0.082 0 Bbw
grestore
n 72.586 83.86 m 72.586 84.424 l
gsave
0 0.082 0 Bbw
grestore
n 74.086 83.86 m 74.086 84.424 l
gsave
0 0.082 0 Bbw
grestore
n 75.546 83.328 m 75.546 84.424 l
gsave
0 0.082 0 Bbw
grestore
n 28.536 83.328 m 28.536 84.424 l
gsave
0 0.082 0 Bbw
grestore
n 27.076 83.86 m 27.076 84.424 l
gsave
0 0.082 0 Bbw
grestore
n 75.546 83.328 m 75.546 84.424 l
gsave
0 0.082 0 Bbw
grestore
n 77.006 83.86 m 77.006 84.424 l
gsave
0 0.082 0 Bbw
grestore
n savemat currentmatrix pop [1 2.34052e-08 -2.34052e-08 1 27.6923 87.9348] concat
25.4 1440 div 1.000000 mul dup scale 0 0 m
/tab 283.00 1000.0 mul cvi def

0 0 m 0 ss  (Times-Italic01800180) gf 
0.00 SG  (0) s 
savemat setmatrix
n savemat currentmatrix pop [1 2.34052e-08 -2.34052e-08 1 37.7573 87.9348] concat
25.4 1440 div 1.000000 mul dup scale 0 0 m
/tab 283.00 1000.0 mul cvi def

0 0 m 0 ss  (Times-Italic01800180) gf 
0.00 SG  (400) s 
savemat setmatrix
n savemat currentmatrix pop [1 2.34052e-08 -2.34052e-08 1 49.5173 87.9348] concat
25.4 1440 div 1.000000 mul dup scale 0 0 m
/tab 283.00 1000.0 mul cvi def

0 0 m 0 ss  (Times-Italic01800180) gf 
0.00 SG  (800) s 
savemat setmatrix
n savemat currentmatrix pop [1 2.34052e-08 -2.34052e-08 1 60.3953 87.9348] concat
25.4 1440 div 1.000000 mul dup scale 0 0 m
/tab 283.00 1000.0 mul cvi def

0 0 m 0 ss  (Times-Italic01800180) gf 
0.00 SG  (1200) s 
savemat setmatrix
n savemat currentmatrix pop [1 2.34052e-08 -2.34052e-08 1 72.1553 87.9348] concat
25.4 1440 div 1.000000 mul dup scale 0 0 m
/tab 283.00 1000.0 mul cvi def

0 0 m 0 ss  (Times-Italic01800180) gf 
0.00 SG  (1600) s 
savemat setmatrix
n 26.176 84.424 m 28.236 84.424 l
28.236 84.158 l
28.836 84.158 l
28.836 84.391 l
29.136 84.391 l
29.136 84.424 l
29.436 84.424 l
29.436 84.358 l
29.736 84.358 l
29.736 84.391 l
30.006 84.391 l
30.006 84.424 l
30.296 84.424 l
30.296 84.291 l
30.596 84.291 l
30.596 84.225 l
30.896 84.225 l
30.896 84.325 l
31.196 84.325 l
31.196 84.192 l
31.496 84.192 l
31.496 84.259 l
31.766 84.259 l
31.766 84.192 l
32.356 84.192 l
32.356 84.092 l
32.656 84.092 l
32.656 84.025 l
32.956 84.025 l
32.956 84.158 l
33.256 84.158 l
33.256 83.993 l
33.526 83.993 l
33.526 83.793 l
33.816 83.793 l
33.816 83.361 l
34.116 83.361 l
34.116 83.693 l
34.416 83.693 l
34.416 83.295 l
34.716 83.295 l
34.716 83.395 l
35.016 83.395 l
35.016 82.963 l
35.316 82.963 l
35.316 82.797 l
35.586 82.797 l
35.586 82.63 l
35.876 82.63 l
35.876 82.73 l
36.176 82.73 l
36.176 82.332 l
36.476 82.332 l
36.476 81.867 l
36.776 81.867 l
36.776 81.434 l
37.076 81.434 l
37.076 81.235 l
37.346 81.235 l
37.346 80.804 l
37.646 80.804 l
37.646 79.242 l
37.936 79.242 l
37.936 80.305 l
38.236 80.305 l
38.236 79.542 l
38.536 79.542 l
38.536 78.611 l
38.836 78.611 l
38.836 77.416 l
39.106 77.416 l
39.106 76.884 l
39.406 76.884 l
39.406 76.286 l
39.696 76.286 l
39.696 74.891 l
39.996 74.891 l
39.996 74.923 l
40.296 74.923 l
40.296 73.728 l
40.596 73.728 l
40.596 73.031 l
40.896 73.031 l
40.896 72.234 l
41.466 72.234 l
41.466 71.402 l
41.756 71.402 l
41.756 69.642 l
42.056 69.642 l
42.056 69.675 l
42.356 69.675 l
42.356 68.978 l
42.656 68.978 l
42.656 69.941 l
42.926 69.941 l
42.926 67.45 l
43.226 67.45 l
43.226 67.017 l
43.516 67.017 l
43.516 65.257 l
43.816 65.257 l
43.816 64.693 l
44.116 64.693 l
44.116 63.43 l
44.416 63.43 l
44.416 63.464 l
44.686 63.464 l
44.686 62.632 l
44.986 62.632 l
44.986 64.028 l
45.286 64.028 l
45.286 61.603 l
45.576 61.603 l
45.576 61.304 l
45.876 61.304 l
45.876 62.301 l
46.176 62.301 l
46.176 60.374 l
46.476 60.374 l
46.476 60.009 l
46.746 60.009 l
46.746 59.709 l
47.046 59.709 l
47.046 59.211 l
47.336 59.211 l
47.336 58.414 l
47.636 58.414 l
47.636 60.341 l
47.936 60.341 l
47.936 61.338 l
48.236 61.338 l
48.236 59.51 l
48.506 59.51 l
48.506 60.673 l
48.806 60.673 l
48.806 59.345 l
49.106 59.345 l
49.106 61.371 l
49.396 61.371 l
49.396 60.905 l
49.696 60.905 l
49.696 62.201 l
49.996 62.201 l
49.996 61.869 l
50.266 61.869 l
50.266 63.596 l
50.566 63.596 l
50.566 63.762 l
50.866 63.762 l
50.866 63.364 l
51.166 63.364 l
51.166 65.191 l
51.456 65.191 l
51.456 64.293 l
51.756 64.293 l
51.756 67.217 l
52.056 67.217 l
52.056 66.054 l
52.326 66.054 l
52.326 67.051 l
52.626 67.051 l
52.626 67.483 l
52.916 67.483 l
52.916 69.044 l
53.216 69.044 l
53.216 68.048 l
53.516 68.048 l
53.516 69.576 l
53.816 69.576 l
53.816 70.307 l
54.086 70.307 l
54.086 71.37 l
54.386 71.37 l
54.386 71.768 l
54.686 71.768 l
54.686 70.938 l
54.976 70.938 l
54.976 72.067 l
55.276 72.067 l
55.276 73.263 l
55.576 73.263 l
55.576 73.828 l
55.846 73.828 l
gsave
0.299 0.492 0 Bbw
grestore
n 55.846 73.828 m 55.846 74.891 l
56.146 74.891 l
56.146 74.558 l
56.446 74.558 l
56.446 75.455 l
56.746 75.455 l
56.746 76.12 l
57.036 76.12 l
57.036 76.917 l
57.336 76.917 l
57.336 76.485 l
57.636 76.485 l
57.636 76.784 l
57.906 76.784 l
57.906 77.781 l
58.206 77.781 l
58.206 78.047 l
58.506 78.047 l
58.506 78.013 l
58.806 78.013 l
58.806 78.611 l
59.096 78.611 l
59.096 78.777 l
59.396 78.777 l
59.396 80.106 l
59.666 80.106 l
59.666 80.272 l
59.966 80.272 l
59.966 80.106 l
60.266 80.106 l
60.266 80.405 l
60.556 80.405 l
60.556 80.438 l
60.856 80.438 l
60.856 80.339 l
61.156 80.339 l
61.156 81.368 l
61.426 81.368 l
61.426 81.401 l
61.726 81.401 l
61.726 80.903 l
62.026 80.903 l
62.026 81.9 l
62.326 81.9 l
62.326 81.667 l
62.616 81.667 l
62.616 81.368 l
62.916 81.368 l
62.916 82.032 l
63.186 82.032 l
63.186 82.464 l
63.486 82.464 l
63.486 82.697 l
63.786 82.697 l
63.786 81.966 l
64.086 81.966 l
64.086 81.9 l
64.386 81.9 l
64.386 81.933 l
64.676 81.933 l
64.676 82.697 l
64.976 82.697 l
64.976 82.864 l
65.246 82.864 l
65.246 82.598 l
65.546 82.598 l
65.546 82.431 l
65.846 82.431 l
65.846 82.896 l
66.146 82.896 l
66.146 82.531 l
66.446 82.531 l
66.446 82.166 l
66.736 82.166 l
66.736 82.298 l
67.006 82.298 l
67.006 82.93 l
67.306 82.93 l
67.306 82.864 l
67.606 82.864 l
67.606 82.93 l
67.906 82.93 l
67.906 83.162 l
68.206 83.162 l
68.206 82.63 l
68.506 82.63 l
68.506 83.395 l
68.766 83.395 l
68.766 83.196 l
69.066 83.196 l
69.066 83.395 l
69.366 83.395 l
69.366 83.196 l
69.666 83.196 l
69.666 83.361 l
69.966 83.361 l
69.966 83.162 l
70.266 83.162 l
70.266 83.062 l
70.556 83.062 l
70.556 83.594 l
70.826 83.594 l
70.826 83.262 l
71.126 83.262 l
71.126 83.295 l
71.426 83.295 l
71.426 83.494 l
71.726 83.494 l
71.726 83.395 l
72.026 83.395 l
72.026 83.162 l
72.316 83.162 l
72.316 83.295 l
72.586 83.295 l
72.586 83.627 l
72.886 83.627 l
72.886 83.461 l
73.186 83.461 l
73.186 83.427 l
73.486 83.427 l
73.486 83.727 l
73.786 83.727 l
73.786 83.395 l
74.086 83.395 l
74.086 83.893 l
74.346 83.893 l
74.346 83.76 l
74.646 83.76 l
74.646 83.627 l
74.946 83.627 l
74.946 83.461 l
75.246 83.461 l
75.246 83.893 l
75.546 83.893 l
75.546 83.594 l
75.846 83.594 l
75.846 83.893 l
76.146 83.893 l
76.146 83.993 l
76.406 83.993 l
76.406 83.727 l
76.706 83.727 l
76.706 83.86 l
77.006 83.86 l
77.006 84.025 l
77.306 84.025 l
77.306 84.092 l
77.606 84.092 l
77.606 84.125 l
77.906 84.125 l
77.906 84.424 l
gsave
0.299 0.492 0 Bbw
grestore
n 26.176 84.424 m 26.176 32.737 l
77.906 32.737 l
77.906 84.424 l
26.176 84.424 l
cl gsave
0 0 0 Bbw
grestore
n savemat currentmatrix pop [1 2.34052e-08 -2.34052e-08 1 75.763 91.6477] concat
25.4 1440 div 1.000000 mul dup scale 0 0 m
/tab 283.00 1000.0 mul cvi def

0 0 m 0 ss  (Times-Italic01800180) gf 
0.00 SG  (ch) s 
savemat setmatrix
n savemat currentmatrix pop [0.967 2.26328e-08 -2.34052e-08 1 32.3373 44.1318] concat
25.4 1440 div 1.000000 mul dup scale 0 0 m
/tab 283.00 1000.0 mul cvi def

0 0 m 0 ss  (Helvetica-Bold02900290) gf 
0.50 SG  (3.5 GeV/c p) s 
savemat setmatrix
n savemat currentmatrix pop [1 2.34052e-08 -2.34052e-08 1 43.6683 55.4318] concat
25.4 1440 div 1.000000 mul dup scale 0 0 m
/tab 283.00 1000.0 mul cvi def

0 0 m 0 ss  (Helvetica-Bold02900290) gf 
0.50 SG  (3.5 GeV/c ) s 
savemat setmatrix
n savemat currentmatrix pop [1 2.34052e-08 -2.34052e-08 1 69.0733 55.4318] concat
25.4 1440 div 1.000000 mul dup scale 0 0 m
/tab 283.00 1000.0 mul cvi def

0 0 m 0 ss  (Symbol02900290) gf 
0.50 SG  () s (Symbol02900290) gf 
0 0 m 0 ss  (p) s 
savemat setmatrix
n 95.051 85.011 m 95.051 33.321 l
146.78 33.321 l
146.78 85.011 l
95.051 85.011 l
cl gsave
0 0.082 0 Bbw
grestore
n 95.051 85.011 m 95.051 33.321 l
146.78 33.321 l
146.78 85.011 l
95.051 85.011 l
cl gsave
0 0 0 Bbw
grestore
n 95.051 85.011 m 95.051 84.451 l
95.691 84.451 l
95.691 83.551 l
96.281 83.551 l
96.281 79.591 l
96.881 79.591 l
96.881 55.611 l
97.511 55.611 l
97.511 50.791 l
98.111 50.791 l
98.111 78.961 l
98.711 78.961 l
98.711 82.281 l
99.341 82.281 l
99.341 83.351 l
99.941 83.351 l
99.941 83.981 l
100.54 83.981 l
100.54 84.481 l
101.17 84.481 l
101.17 84.581 l
101.76 84.581 l
101.76 84.741 l
102.36 84.741 l
102.36 84.811 l
102.96 84.811 l
102.96 84.881 l
103.59 84.881 l
103.59 84.911 l
104.79 84.911 l
104.79 84.981 l
105.42 84.981 l
105.42 85.011 l
106.02 85.011 l
106.02 84.941 l
106.61 84.941 l
106.61 84.911 l
107.25 84.911 l
107.25 84.981 l
112.1 84.981 l
112.1 85.011 l
112.69 85.011 l
112.69 84.981 l
113.92 84.981 l
113.92 85.011 l
114.52 85.011 l
114.52 84.981 l
115.15 84.981 l
115.15 85.011 l
115.75 85.011 l
115.75 84.981 l
116.35 84.981 l
116.35 85.011 l
121.83 85.011 l
121.83 84.981 l
122.43 84.981 l
122.43 85.011 l
126.08 85.011 l
126.08 84.981 l
126.68 84.981 l
126.68 85.011 l
146.78 85.011 l
gsave
0.701 0.492 0 Bbw
grestore
n 95.051 85.011 m 95.051 33.321 l
146.78 33.321 l
146.78 85.011 l
95.051 85.011 l
cl gsave
0 0 0 Bbw
grestore
n 95.051 85.011 m 95.051 33.321 l
gsave
0 0.082 0 Bbw
grestore
n 96.181 85.011 m 95.051 85.011 l
gsave
0 0.082 0 Bbw
grestore
n 95.621 83.281 m 95.051 83.281 l
gsave
0 0.082 0 Bbw
grestore
n 95.621 81.551 m 95.051 81.551 l
gsave
0 0.082 0 Bbw
grestore
n 95.621 79.831 m 95.051 79.831 l
gsave
0 0.082 0 Bbw
grestore
n 95.621 78.131 m 95.051 78.131 l
gsave
0 0.082 0 Bbw
grestore
n 96.181 76.411 m 95.051 76.411 l
gsave
0 0.082 0 Bbw
grestore
n 95.621 74.681 m 95.051 74.681 l
gsave
0 0.082 0 Bbw
grestore
n 95.621 72.951 m 95.051 72.951 l
gsave
0 0.082 0 Bbw
grestore
n 95.621 71.221 m 95.051 71.221 l
gsave
0 0.082 0 Bbw
grestore
n 95.621 69.501 m 95.051 69.501 l
gsave
0 0.082 0 Bbw
grestore
n 96.181 67.771 m 95.051 67.771 l
gsave
0 0.082 0 Bbw
grestore
n 95.621 66.041 m 95.051 66.041 l
gsave
0 0.082 0 Bbw
grestore
n 95.621 64.351 m 95.051 64.351 l
gsave
0 0.082 0 Bbw
grestore
n 95.621 62.621 m 95.051 62.621 l
gsave
0 0.082 0 Bbw
grestore
n 95.621 60.891 m 95.051 60.891 l
gsave
0 0.082 0 Bbw
grestore
n 96.181 59.171 m 95.051 59.171 l
gsave
0 0.082 0 Bbw
grestore
n 95.621 57.441 m 95.051 57.441 l
gsave
0 0.082 0 Bbw
grestore
n 95.621 55.711 m 95.051 55.711 l
gsave
0 0.082 0 Bbw
grestore
n 95.621 53.981 m 95.051 53.981 l
gsave
0 0.082 0 Bbw
grestore
n 95.621 52.291 m 95.051 52.291 l
gsave
0 0.082 0 Bbw
grestore
n 96.181 50.561 m 95.051 50.561 l
gsave
0 0.082 0 Bbw
grestore
n 95.621 48.831 m 95.051 48.831 l
gsave
0 0.082 0 Bbw
grestore
n 95.621 47.111 m 95.051 47.111 l
gsave
0 0.082 0 Bbw
grestore
n 95.621 45.381 m 95.051 45.381 l
gsave
0 0.082 0 Bbw
grestore
n 95.621 43.651 m 95.051 43.651 l
gsave
0 0.082 0 Bbw
grestore
n 96.181 41.921 m 95.051 41.921 l
gsave
0 0.082 0 Bbw
grestore
n 95.621 40.201 m 95.051 40.201 l
gsave
0 0.082 0 Bbw
grestore
n 95.621 38.501 m 95.051 38.501 l
gsave
0 0.082 0 Bbw
grestore
n 95.621 36.781 m 95.051 36.781 l
gsave
0 0.082 0 Bbw
grestore
n 95.621 35.051 m 95.051 35.051 l
gsave
0 0.082 0 Bbw
grestore
n 96.181 33.321 m 95.051 33.321 l
gsave
0 0.082 0 Bbw
grestore
n savemat currentmatrix pop [1 2.34052e-08 -2.34052e-08 1 92.1823 86.1281] concat
25.4 1440 div 1.000000 mul dup scale 0 0 m
/tab 283.00 1000.0 mul cvi def

0 0 m 0 ss  (Times-Italic01800180) gf 
0.00 SG  (0) s 
savemat setmatrix
n savemat currentmatrix pop [1 2.34052e-08 -2.34052e-08 1 89.3593 77.5241] concat
25.4 1440 div 1.000000 mul dup scale 0 0 m
/tab 283.00 1000.0 mul cvi def

0 0 m 0 ss  (Times-Italic01800180) gf 
0.00 SG  (500) s 
savemat setmatrix
n savemat currentmatrix pop [1 2.34052e-08 -2.34052e-08 1 87.9473 68.9211] concat
25.4 1440 div 1.000000 mul dup scale 0 0 m
/tab 283.00 1000.0 mul cvi def

0 0 m 0 ss  (Times-Italic01800180) gf 
0.00 SG  (1000) s 
savemat setmatrix
n savemat currentmatrix pop [1 2.34052e-08 -2.34052e-08 1 87.9473 60.2841] concat
25.4 1440 div 1.000000 mul dup scale 0 0 m
/tab 283.00 1000.0 mul cvi def

0 0 m 0 ss  (Times-Italic01800180) gf 
0.00 SG  (1500) s 
savemat setmatrix
n savemat currentmatrix pop [1 2.34052e-08 -2.34052e-08 1 87.9473 51.6801] concat
25.4 1440 div 1.000000 mul dup scale 0 0 m
/tab 283.00 1000.0 mul cvi def

0 0 m 0 ss  (Times-Italic01800180) gf 
0.00 SG  (2000) s 
savemat setmatrix
n savemat currentmatrix pop [1 2.34052e-08 -2.34052e-08 1 87.9473 43.0761] concat
25.4 1440 div 1.000000 mul dup scale 0 0 m
/tab 283.00 1000.0 mul cvi def

0 0 m 0 ss  (Times-Italic01800180) gf 
0.00 SG  (2500) s 
savemat setmatrix
n savemat currentmatrix pop [1 2.34052e-08 -2.34052e-08 1 87.9473 34.4401] concat
25.4 1440 div 1.000000 mul dup scale 0 0 m
/tab 283.00 1000.0 mul cvi def

0 0 m 0 ss  (Times-Italic01800180) gf 
0.00 SG  (3000) s 
savemat setmatrix
n 95.051 85.011 m 146.78 85.011 l
gsave
0 0.082 0 Bbw
grestore
n 97.511 83.911 m 97.511 85.011 l
gsave
0 0.082 0 Bbw
grestore
n 99.941 84.451 m 99.941 85.011 l
gsave
0 0.082 0 Bbw
grestore
n 102.36 84.451 m 102.36 85.011 l
gsave
0 0.082 0 Bbw
grestore
n 104.79 84.451 m 104.79 85.011 l
gsave
0 0.082 0 Bbw
grestore
n 107.25 83.911 m 107.25 85.011 l
gsave
0 0.082 0 Bbw
grestore
n 109.67 84.451 m 109.67 85.011 l
gsave
0 0.082 0 Bbw
grestore
n 112.1 84.451 m 112.1 85.011 l
gsave
0 0.082 0 Bbw
grestore
n 114.52 84.451 m 114.52 85.011 l
gsave
0 0.082 0 Bbw
grestore
n 116.98 83.911 m 116.98 85.011 l
gsave
0 0.082 0 Bbw
grestore
n 119.4 84.451 m 119.4 85.011 l
gsave
0 0.082 0 Bbw
grestore
n 121.83 84.451 m 121.83 85.011 l
gsave
0 0.082 0 Bbw
grestore
n 124.25 84.451 m 124.25 85.011 l
gsave
0 0.082 0 Bbw
grestore
n 126.68 83.911 m 126.68 85.011 l
gsave
0 0.082 0 Bbw
grestore
n 129.14 84.451 m 129.14 85.011 l
gsave
0 0.082 0 Bbw
grestore
n 131.56 84.451 m 131.56 85.011 l
gsave
0 0.082 0 Bbw
grestore
n 133.99 84.451 m 133.99 85.011 l
gsave
0 0.082 0 Bbw
grestore
n 136.41 83.911 m 136.41 85.011 l
gsave
0 0.082 0 Bbw
grestore
n 138.87 84.451 m 138.87 85.011 l
gsave
0 0.082 0 Bbw
grestore
n 141.29 84.451 m 141.29 85.011 l
gsave
0 0.082 0 Bbw
grestore
n 143.72 84.451 m 143.72 85.011 l
gsave
0 0.082 0 Bbw
grestore
n 146.14 83.911 m 146.14 85.011 l
gsave
0 0.082 0 Bbw
grestore
n 97.511 83.911 m 97.511 85.011 l
gsave
0 0.082 0 Bbw
grestore
n 146.14 83.911 m 146.14 85.011 l
gsave
0 0.082 0 Bbw
grestore
n 95.051 85.011 m 95.051 84.711 l
96.281 84.711 l
96.281 84.611 l
96.881 84.611 l
96.881 84.641 l
97.511 84.641 l
97.511 84.581 l
98.111 84.581 l
98.111 84.541 l
98.711 84.541 l
98.711 84.451 l
99.341 84.451 l
99.341 84.411 l
99.941 84.411 l
99.941 84.281 l
100.54 84.281 l
100.54 84.051 l
101.17 84.051 l
101.17 83.951 l
101.76 83.951 l
101.76 83.851 l
102.36 83.851 l
102.36 83.381 l
102.96 83.381 l
102.96 82.621 l
103.59 82.621 l
103.59 82.221 l
104.19 82.221 l
104.19 81.191 l
104.79 81.191 l
104.79 80.861 l
105.42 80.861 l
105.42 79.761 l
106.02 79.761 l
106.02 78.471 l
106.61 78.471 l
106.61 77.071 l
107.25 77.071 l
107.25 75.511 l
107.84 75.511 l
107.84 74.351 l
108.44 74.351 l
108.44 71.421 l
109.07 71.421 l
109.07 70.721 l
109.67 70.721 l
109.67 69.101 l
110.27 69.101 l
110.27 67.801 l
110.87 67.801 l
110.87 66.041 l
111.5 66.041 l
111.5 66.111 l
112.1 66.111 l
112.1 64.281 l
112.69 64.281 l
112.69 64.051 l
113.32 64.051 l
113.32 63.121 l
113.92 63.121 l
113.92 61.491 l
114.52 61.491 l
114.52 60.661 l
115.15 60.661 l
115.15 60.491 l
115.75 60.491 l
115.75 60.531 l
116.35 60.531 l
116.35 61.361 l
116.98 61.361 l
116.98 60.761 l
117.58 60.761 l
117.58 62.691 l
118.17 62.691 l
118.17 61.221 l
118.77 61.221 l
118.77 62.791 l
119.4 62.791 l
119.4 64.381 l
120 64.381 l
120 65.341 l
120.6 65.341 l
120.6 65.241 l
121.23 65.241 l
121.23 66.911 l
121.83 66.911 l
121.83 68.401 l
122.43 68.401 l
122.43 69.231 l
123.06 69.231 l
123.06 70.531 l
123.65 70.531 l
123.65 71.091 l
124.25 71.091 l
124.25 72.221 l
124.88 72.221 l
124.88 72.751 l
125.48 72.751 l
125.48 74.841 l
126.08 74.841 l
126.08 75.771 l
126.68 75.771 l
126.68 76.541 l
127.31 76.541 l
127.31 77.341 l
127.91 77.341 l
127.91 77.831 l
128.5 77.831 l
128.5 78.631 l
129.14 78.631 l
129.14 78.901 l
129.73 78.901 l
129.73 79.761 l
130.33 79.761 l
130.33 80.591 l
130.96 80.591 l
130.96 81.161 l
131.56 81.161 l
131.56 81.221 l
132.16 81.221 l
132.16 81.461 l
132.79 81.461 l
132.79 82.021 l
133.39 82.021 l
133.39 82.121 l
133.99 82.121 l
133.99 82.721 l
134.58 82.721 l
134.58 82.551 l
135.22 82.551 l
135.22 82.751 l
135.81 82.751 l
135.81 83.251 l
136.41 83.251 l
136.41 83.481 l
137.04 83.481 l
137.04 83.681 l
137.64 83.681 l
137.64 83.481 l
138.24 83.481 l
138.24 83.811 l
138.87 83.811 l
138.87 84.111 l
140.06 84.111 l
140.06 84.251 l
140.66 84.251 l
140.66 84.451 l
141.29 84.451 l
141.29 84.311 l
141.89 84.311 l
141.89 84.451 l
142.49 84.451 l
142.49 84.411 l
143.12 84.411 l
143.12 84.581 l
143.72 84.581 l
143.72 84.451 l
144.32 84.451 l
144.32 84.641 l
144.95 84.641 l
144.95 84.711 l
146.14 84.711 l
146.14 84.741 l
146.78 84.741 l
146.78 85.011 l
gsave
0.299 0.492 0 Bbw
grestore
n 95.051 85.011 m 95.051 33.321 l
146.78 33.321 l
146.78 85.011 l
95.051 85.011 l
cl gsave
0 0 0 Bbw
grestore
n savemat currentmatrix pop [1 2.34052e-08 -2.34052e-08 1 97.5273 88.7691] concat
25.4 1440 div 1.000000 mul dup scale 0 0 m
/tab 283.00 1000.0 mul cvi def

0 0 m 0 ss  (Times-Italic01800180) gf 
0.00 SG  (0) s 
savemat setmatrix
n savemat currentmatrix pop [1 2.34052e-08 -2.34052e-08 1 105.565 88.7691] concat
25.4 1440 div 1.000000 mul dup scale 0 0 m
/tab 283.00 1000.0 mul cvi def

0 0 m 0 ss  (Times-Italic01800180) gf 
0.00 SG  (200) s 
savemat setmatrix
n savemat currentmatrix pop [1 2.34052e-08 -2.34052e-08 1 115.298 88.7691] concat
25.4 1440 div 1.000000 mul dup scale 0 0 m
/tab 283.00 1000.0 mul cvi def

0 0 m 0 ss  (Times-Italic01800180) gf 
0.00 SG  (400) s 
savemat setmatrix
n savemat currentmatrix pop [1 2.34052e-08 -2.34052e-08 1 124.998 88.7691] concat
25.4 1440 div 1.000000 mul dup scale 0 0 m
/tab 283.00 1000.0 mul cvi def

0 0 m 0 ss  (Times-Italic01800180) gf 
0.00 SG  (600) s 
savemat setmatrix
n savemat currentmatrix pop [1 2.34052e-08 -2.34052e-08 1 134.73 88.7691] concat
25.4 1440 div 1.000000 mul dup scale 0 0 m
/tab 283.00 1000.0 mul cvi def

0 0 m 0 ss  (Times-Italic01800180) gf 
0.00 SG  (800) s 
savemat setmatrix
n savemat currentmatrix pop [1 2.34052e-08 -2.34052e-08 1 143.618 88.7691] concat
25.4 1440 div 1.000000 mul dup scale 0 0 m
/tab 283.00 1000.0 mul cvi def

0 0 m 0 ss  (Times-Italic01800180) gf 
0.00 SG  (1000) s 
savemat setmatrix
n 95.051 85.011 m 95.051 33.321 l
146.78 33.321 l
146.78 85.011 l
95.051 85.011 l
cl gsave
0 0 0 Bbw
grestore
n savemat currentmatrix pop [0.967 2.26328e-08 -2.34052e-08 1 97.4463 45.3806] concat
25.4 1440 div 1.000000 mul dup scale 0 0 m
/tab 283.00 1000.0 mul cvi def

0 0 m 0 ss  (Helvetica-Bold02900290) gf 
0.50 SG  (3.5 GeV/c p) s 
savemat setmatrix
n savemat currentmatrix pop [1 2.34052e-08 -2.34052e-08 1 112.543 60.1111] concat
25.4 1440 div 1.000000 mul dup scale 0 0 m
/tab 283.00 1000.0 mul cvi def

0 0 m 0 ss  (Helvetica-Bold02900290) gf 
0.50 SG  (3.5 GeV/c ) s 
savemat setmatrix
n savemat currentmatrix pop [1 2.34052e-08 -2.34052e-08 1 137.948 60.1111] concat
25.4 1440 div 1.000000 mul dup scale 0 0 m
/tab 283.00 1000.0 mul cvi def

0 0 m 0 ss  (Symbol02900290) gf 
0.50 SG  () s (Symbol02900290) gf 
0 0 m 0 ss  (p) s 
savemat setmatrix
n savemat currentmatrix pop [1 2.34052e-08 -2.34052e-08 1 113.976 93.5383] concat
25.4 1440 div 1.000000 mul dup scale 0 0 m
/tab 283.00 1000.0 mul cvi def

0 0 m 0 ss  (Times-Italic02800280) gf 
0.00 SG  (ADC) s 
savemat setmatrix
n savemat currentmatrix pop [1 2.34052e-08 -2.34052e-08 1 145.666 92.4116] concat
25.4 1440 div 1.000000 mul dup scale 0 0 m
/tab 283.00 1000.0 mul cvi def

0 0 m 0 ss  (Times-Italic01800180) gf 
0.00 SG  (ch) s 
savemat setmatrix
n savemat currentmatrix pop [1 0 0 1 70.7222 38.7917] concat
25.4 1440 div 1.000000 mul dup scale 0 0 m
/tab 283.00 1000.0 mul cvi def

0 0 m 0 ss  (Helvetica02400240) gf 
0.00 SG  (a\)) s 
savemat setmatrix
n savemat currentmatrix pop [1 0 0 1 139.861 39.5833] concat
25.4 1440 div 1.000000 mul dup scale 0 0 m
/tab 283.00 1000.0 mul cvi def

0 0 m 0 ss  (Helvetica02400240) gf 
0.00 SG  (b\)) s 
savemat setmatrix
userdict /#copies 1 put
showpage
grestore

%%Trailer
%%DocumentNeededResources: font Times-Italic Helvetica-Bold Helvetica Symbol
%%DocumentSuppliedResources: 
end
restore

%%EOF

