%!PS-Adobe-2.0 EPSF-2.0
%%Title: system_block.eps
%%Creator: fig2dev Version 3.2 Patchlevel 0-beta2
%%CreationDate: Sun Jan  7 17:40:43 2001
%%For: marlow@viper.hep.princeton.edu (Daniel R. Marlow,381 Jadwin Hall,8-4383)
%%Orientation: Portrait
%%BoundingBox: 0 0 688 255
%%Pages: 0
%%BeginSetup
%%IncludeFeature: *PageSize Letter
%%EndSetup
%%Magnification: 1.00
%%EndComments
/$F2psDict 200 dict def
$F2psDict begin
$F2psDict /mtrx matrix put
/col-1 {0 setgray} bind def
/col0 {0.000 0.000 0.000 srgb} bind def
/col1 {0.000 0.000 1.000 srgb} bind def
/col2 {0.000 1.000 0.000 srgb} bind def
/col3 {0.000 1.000 1.000 srgb} bind def
/col4 {1.000 0.000 0.000 srgb} bind def
/col5 {1.000 0.000 1.000 srgb} bind def
/col6 {1.000 1.000 0.000 srgb} bind def
/col7 {1.000 1.000 1.000 srgb} bind def
/col8 {0.000 0.000 0.560 srgb} bind def
/col9 {0.000 0.000 0.690 srgb} bind def
/col10 {0.000 0.000 0.820 srgb} bind def
/col11 {0.530 0.810 1.000 srgb} bind def
/col12 {0.000 0.560 0.000 srgb} bind def
/col13 {0.000 0.690 0.000 srgb} bind def
/col14 {0.000 0.820 0.000 srgb} bind def
/col15 {0.000 0.560 0.560 srgb} bind def
/col16 {0.000 0.690 0.690 srgb} bind def
/col17 {0.000 0.820 0.820 srgb} bind def
/col18 {0.560 0.000 0.000 srgb} bind def
/col19 {0.690 0.000 0.000 srgb} bind def
/col20 {0.820 0.000 0.000 srgb} bind def
/col21 {0.560 0.000 0.560 srgb} bind def
/col22 {0.690 0.000 0.690 srgb} bind def
/col23 {0.820 0.000 0.820 srgb} bind def
/col24 {0.500 0.190 0.000 srgb} bind def
/col25 {0.630 0.250 0.000 srgb} bind def
/col26 {0.750 0.380 0.000 srgb} bind def
/col27 {1.000 0.500 0.500 srgb} bind def
/col28 {1.000 0.630 0.630 srgb} bind def
/col29 {1.000 0.750 0.750 srgb} bind def
/col30 {1.000 0.880 0.880 srgb} bind def
/col31 {1.000 0.840 0.000 srgb} bind def

end
save
-142.0 402.0 translate
1 -1 scale

/cp {closepath} bind def
/ef {eofill} bind def
/gr {grestore} bind def
/gs {gsave} bind def
/sa {save} bind def
/rs {restore} bind def
/l {lineto} bind def
/m {moveto} bind def
/rm {rmoveto} bind def
/n {newpath} bind def
/s {stroke} bind def
/sh {show} bind def
/slc {setlinecap} bind def
/slj {setlinejoin} bind def
/slw {setlinewidth} bind def
/srgb {setrgbcolor} bind def
/rot {rotate} bind def
/sc {scale} bind def
/sd {setdash} bind def
/ff {findfont} bind def
/sf {setfont} bind def
/scf {scalefont} bind def
/sw {stringwidth} bind def
/tr {translate} bind def
/tnt {dup dup currentrgbcolor
  4 -2 roll dup 1 exch sub 3 -1 roll mul add
  4 -2 roll dup 1 exch sub 3 -1 roll mul add
  4 -2 roll dup 1 exch sub 3 -1 roll mul add srgb}
  bind def
/shd {dup dup currentrgbcolor 4 -2 roll mul 4 -2 roll mul
  4 -2 roll mul srgb} bind def
/$F2psBegin {$F2psDict begin /$F2psEnteredState save def} def
/$F2psEnd {$F2psEnteredState restore end} def
%%EndProlog

$F2psBegin
10 setmiterlimit
n 0 6737 m 0 0 l 13862 0 l 13862 6737 l cp clip
 0.06000 0.06000 sc
/Helvetica ff 240.00 scf sf
4650 3825 m
gs 1 -1 sc (Preamp./) col0 sh gr
/Helvetica ff 240.00 scf sf
8100 5775 m
gs 1 -1 sc (HVPS) col0 sh gr
/Helvetica ff 240.00 scf sf
4800 4125 m
gs 1 -1 sc (Base) col0 sh gr
/Helvetica ff 240.00 scf sf
2625 3975 m
gs 1 -1 sc (FMPMT) col0 sh gr
/Helvetica ff 240.00 scf sf
8100 3825 m
gs 1 -1 sc (Charge to Time) col0 sh gr
/Helvetica ff 240.00 scf sf
10275 5625 m
gs 1 -1 sc (Electronics Hut) col0 sh gr
/Helvetica ff 240.00 scf sf
2550 5475 m
gs 1 -1 sc (Detector) col0 sh gr
/Helvetica ff 240.00 scf sf
11625 3975 m
gs 1 -1 sc (LeCroy 1877 TDC) col0 sh gr
/Helvetica ff 240.00 scf sf
8475 4200 m
gs 1 -1 sc (Converter) col0 sh gr
% Polyline
15.000 slw
 [90] 0 sd
n 6600 2475 m 6600 6675 l gs col0 s gr  [] 0 sd
% Polyline
gs  clippath
7506 3840 m 7746 3900 l 7506 3960 l 7830 3960 l 7830 3840 l cp
clip
n 5700 3900 m 7800 3900 l gs col0 s gr gr

% arrowhead
n 7506 3840 m 7746 3900 l 7506 3960 l  col0 s
% Polyline
gs  clippath
4206 3840 m 4446 3900 l 4206 3960 l 4530 3960 l 4530 3840 l cp
clip
n 3600 3900 m 4500 3900 l gs col0 s gr gr

% arrowhead
n 4206 3840 m 4446 3900 l 4206 3960 l  col0 s
% Polyline
n 4500 3300 m 5700 3300 l 5700 4500 l 4500 4500 l cp gs col0 s gr 
% Polyline
n 2400 3300 m 3600 3300 l 3600 4500 l 2400 4500 l cp gs col0 s gr 
% Polyline
n 7800 5100 m 9000 5100 l 9000 6300 l 7800 6300 l cp gs col0 s gr 
% Polyline
n 11400 3300 m 13800 3300 l 13800 4500 l 11400 4500 l cp gs col0 s gr 
% Polyline
gs  clippath
11106 3840 m 11346 3900 l 11106 3960 l 11430 3960 l 11430 3840 l cp
clip
n 10200 3900 m 11400 3900 l gs col0 s gr gr

% arrowhead
n 11106 3840 m 11346 3900 l 11106 3960 l  col0 s
% Polyline
gs  clippath
5040 4794 m 5100 4554 l 5160 4794 l 5160 4470 l 5040 4470 l cp
clip
n 7800 5700 m 5100 5700 l 5100 4500 l gs col0 s gr gr

% arrowhead
n 5040 4794 m 5100 4554 l 5160 4794 l  col0 s
% Polyline
n 7800 3300 m 10200 3300 l 10200 4500 l 7800 4500 l cp gs col0 s gr 
$F2psEnd
rs
